# SUSY Les Houches Accord 2 - MSSM spectrum + Decays
# SPheno v4.0.5be
# W. Porod, Comput. Phys. Commun. 153 (2003) 275-315, hep-ph/0301101;
# W. Porod, F.~Staub, Comput. Phys. Commun. 183 (2012) 2458
#                     arXiv:1104.1573 [hep-ph] 
# in case of problems send email to porod@physik.uni-wuerzburg.de
# Created: 22.11.2021,  16:26
Block SPINFO         # Program information
     1   SPheno      # spectrum calculator
     2   v4.0.5be    # version number
#
Block SPhenoINFO     # SPheno specific information
    1      2         # using 2-loop RGEs
    2      2         # using pole masses for boundary conditions at mZ
Block MODSEL  # Model selection
    1    0    # general MSSM
Block MINPAR  # Input parameters
    3    2.73549235E+01  # tanb at m_Z    
    4    1.00000000E+00  # Sign(mu)
Block EXTPAR  # non-universal input parameters
    0    2.42693384E+03  # scale for input parameters
    1   -2.27428414E+02  # M_1
    2   -1.44343068E+03  # M_2
    3    2.46587008E+03  # M_3
   11   -2.85863867E+03  # A_t
   12    1.75499180E+03  # A_b
   13   -8.34585387E+02  # A_tau
   23    1.66370037E+03  # mu
   25    2.63603921E+01  # tan(beta)
   26    3.12887934E+03  # m_A, pole mass
   31    1.25749062E+03  # M_L11
   32    1.25749062E+03  # M_L22
   33    1.73246589E+03  # M_L33
   34    4.92640076E+02  # M_E11
   35    4.92640076E+02  # M_E22
   36    1.09544420E+03  # M_E33
   41    1.00000000E+04  # M_Q11
   42    1.00000000E+04  # M_Q22
   43    2.38523135E+03  # M_Q33
   44    1.00000000E+04  # M_U11
   45    1.00000000E+04  # M_U22
   46    2.34950477E+03  # M_U33
   47    1.00000000E+04  # M_D11
   48    1.00000000E+04  # M_D22
   49    2.23823873E+03  # M_D33
Block SMINPUTS  # SM parameters
         1     1.27908970E+02  # alpha_em^-1(MZ)^MSbar
         2     1.16637870E-05  # G_mu [GeV^-2]
         3     1.18400000E-01  # alpha_s(MZ)^MSbar
         4     9.11876000E+01  # m_Z(pole)
         5     4.18000000E+00  # m_b(m_b), MSbar
         6     1.73200000E+02  # m_t(pole)
         7     1.77700000E+00  # m_tau(pole)
         8     0.00000000E+00  # m_nu_3
        11     5.10998930E-04  # m_e(pole)
        12     0.00000000E+00  # m_nu_1
        13     1.05658372E-01  # m_muon(pole)
        14     0.00000000E+00  # m_nu_2
        21     5.00000000E-03  # m_d(2 GeV), MSbar
        22     2.50000000E-03  # m_u(2 GeV), MSbar
        23     9.50000000E-02  # m_s(2 GeV), MSbar
        24     1.27000000E+00  # m_c(m_c), MSbar
Block gauge Q=  2.42693384E+03  # (SUSY scale)
   1    3.55362975E-01  # g'(Q)^DRbar
   2    6.65198874E-01  # g(Q)^DRbar
   3    1.21977796E+00  # g3(Q)^DRbar
Block Yu Q=  2.42693384E+03  # (SUSY scale)
  1  1     8.39040301E-06   # Y_u(Q)^DRbar
  2  2     4.26232473E-03   # Y_c(Q)^DRbar
  3  3     1.01362808E+00   # Y_t(Q)^DRbar
Block Yd Q=  2.42693384E+03  # (SUSY scale)
  1  1     4.44441838E-04   # Y_d(Q)^DRbar
  2  2     8.44439492E-03   # Y_s(Q)^DRbar
  3  3     4.40747035E-01   # Y_b(Q)^DRbar
Block Ye Q=  2.42693384E+03  # (SUSY scale)
  1  1     7.75583508E-05   # Y_e(Q)^DRbar
  2  2     1.60366071E-02   # Y_mu(Q)^DRbar
  3  3     2.69709350E-01   # Y_tau(Q)^DRbar
Block Au Q=  2.42693384E+03  # (SUSY scale)
  1  1     0.00000000E+00   # A_u(Q)^DRbar
  2  2     0.00000000E+00   # A_c(Q)^DRbar
  3  3    -2.85863864E+03   # A_t(Q)^DRbar
Block Ad Q=  2.42693384E+03  # (SUSY scale)
  1  1     0.00000000E+00   # A_d(Q)^DRbar
  2  2     0.00000000E+00   # A_s(Q)^DRbar
  3  3     1.75499187E+03   # A_b(Q)^DRbar
Block Ae Q=  2.42693384E+03  # (SUSY scale)
  1  1     0.00000000E+00   # A_e(Q)^DRbar
  2  2     0.00000000E+00   # A_mu(Q)^DRbar
  3  3    -8.34585388E+02   # A_tau(Q)^DRbar
Block MSOFT Q=  2.42693384E+03  # soft SUSY breaking masses at Q
   1   -2.27428414E+02  # M_1
   2   -1.44343068E+03  # M_2
   3    2.46587008E+03  # M_3
  21    7.00922647E+06  # M^2_(H,d)
  22   -2.66971276E+06  # M^2_(H,u)
  31    1.25749062E+03  # M_(L,11)
  32    1.25749062E+03  # M_(L,22)
  33    1.73246589E+03  # M_(L,33)
  34    4.92640076E+02  # M_(E,11)
  35    4.92640076E+02  # M_(E,22)
  36    1.09544420E+03  # M_(E,33)
  41    1.00000000E+04  # M_(Q,11)
  42    1.00000000E+04  # M_(Q,22)
  43    2.38523135E+03  # M_(Q,33)
  44    1.00000000E+04  # M_(U,11)
  45    1.00000000E+04  # M_(U,22)
  46    2.34950477E+03  # M_(U,33)
  47    1.00000000E+04  # M_(D,11)
  48    1.00000000E+04  # M_(D,22)
  49    2.23823873E+03  # M_(D,33)
Block MASS  # Mass spectrum
#   PDG code      mass          particle
         6     1.73200000E+02  # m_t(pole)
        23     9.11876000E+01  # m_Z(pole)
        24     8.04299946E+01  # W+
        15     1.77700000E+00  # m_tau(pole)
        25     1.22117227E+02  # h0
        35     3.12832606E+03  # H0
        36     3.12887934E+03  # A0
        37     3.13055679E+03  # H+
   1000001     1.01034749E+04  # ~d_L
   2000001     1.00802896E+04  # ~d_R
   1000002     1.01031134E+04  # ~u_L
   2000002     1.00832732E+04  # ~u_R
   1000003     1.01034806E+04  # ~s_L
   2000003     1.00802975E+04  # ~s_R
   1000004     1.01031188E+04  # ~c_L
   2000004     1.00832755E+04  # ~c_R
   1000005     2.32633186E+03  # ~b_1
   2000005     2.46080016E+03  # ~b_2
   1000006     2.33809669E+03  # ~t_1
   2000006     2.51914641E+03  # ~t_2
   1000011     1.27478419E+03  # ~e_L-
   2000011     5.05331790E+02  # ~e_R-
   1000012     1.27190291E+03  # ~nu_eL
   1000013     1.27478487E+03  # ~mu_L-
   2000013     5.05300084E+02  # ~mu_R-
   1000014     1.27189722E+03  # ~nu_muL
   1000015     1.09752263E+03  # ~tau_1-
   2000015     1.74413887E+03  # ~tau_2-
   1000016     1.74092633E+03  # ~nu_tauL
   1000021     2.83448742E+03  # ~g
   1000022     2.26556227E+02  # ~chi_10
   1000023     1.49539464E+03  # ~chi_20
   1000025     1.67408332E+03  # ~chi_30
   1000035     1.68909409E+03  # ~chi_40
   1000024     1.49527943E+03  # ~chi_1+
   1000037     1.68972248E+03  # ~chi_2+
# Higgs mixing
Block alpha # Effective Higgs mixing angle
          -3.65956672E-02   # alpha
Block Hmix Q=  2.42693384E+03  # Higgs mixing parameters
   1    1.66370037E+03  # mu
   2    2.63603921E+01  # tan[beta](Q)
   3    2.43496194E+02  # v(Q)
   4    9.78988592E+06  # m^2_A(Q)
Block stopmix # stop mixing matrix
   1  1     5.72697530E-01   # Re[R_st(1,1)]
   1  2     8.19766759E-01   # Re[R_st(1,2)]
   2  1    -8.19766759E-01   # Re[R_st(2,1)]
   2  2     5.72697530E-01   # Re[R_st(2,2)]
Block sbotmix # sbottom mixing matrix
   1  1     1.30825077E-01   # Re[R_sb(1,1)]
   1  2     9.91405467E-01   # Re[R_sb(1,2)]
   2  1    -9.91405467E-01   # Re[R_sb(2,1)]
   2  2     1.30825077E-01   # Re[R_sb(2,2)]
Block staumix # stau mixing matrix
   1  1     4.23440358E-02   # Re[R_sta(1,1)]
   1  2     9.99103089E-01   # Re[R_sta(1,2)]
   2  1    -9.99103089E-01   # Re[R_sta(2,1)]
   2  2     4.23440358E-02   # Re[R_sta(2,2)]
Block Nmix # neutralino mixing matrix
   1  1    -9.99633468E-01   # Re[N(1,1)]
   1  2     6.55042099E-05   # Re[N(1,2)]
   1  3    -2.69461413E-02   # Re[N(1,3)]
   1  4    -2.61358109E-03   # Re[N(1,4)]
   2  1    -5.98919386E-03   # Re[N(2,1)]
   2  2    -9.62979198E-01   # Re[N(2,2)]
   2  3     2.02604836E-01   # Re[N(2,3)]
   2  4     1.77725839E-01   # Re[N(2,4)]
   3  1     1.71969497E-02   # Re[N(3,1)]
   3  2    -1.82565606E-02   # Re[N(3,2)]
   3  3    -7.06598013E-01   # Re[N(3,3)]
   3  4     7.07170567E-01   # Re[N(3,4)]
   4  1    -2.00330754E-02   # Re[N(4,1)]
   4  2     2.68956795E-01   # Re[N(4,2)]
   4  3     6.77454378E-01   # Re[N(4,3)]
   4  4     6.84336528E-01   # Re[N(4,4)]
Block Umix # chargino mixing matrix
   1  1    -9.55032114E-01   # Re[U(1,1)]
   1  2     2.96502381E-01   # Re[U(1,2)]
   2  1    -2.96502381E-01   # Re[U(2,1)]
   2  2    -9.55032114E-01   # Re[U(2,2)]
Block Vmix # chargino mixing matrix
   1  1     9.65194664E-01   # Re[V(1,1)]
   1  2     2.61532522E-01   # Re[V(1,2)]
   2  1     2.61532522E-01   # Re[V(2,1)]
   2  2    -9.65194664E-01   # Re[V(2,2)]
DECAY        23     2.49520000E+00   # Z
DECAY        24     2.08500000E+00   # W
DECAY   2000011     1.61977573E+00   # ~e^-_R
#    BR                NDA      ID1      ID2
     1.00000000E+00    2     1000022        11   # BR(~e^-_R -> chi^0_1 e^-)
#    BR                NDA      ID1      ID2       ID3
DECAY   1000011     1.50030443E+00   # ~e^-_L
#    BR                NDA      ID1      ID2
     9.99999928E-01    2     1000022        11   # BR(~e^-_L -> chi^0_1 e^-)
#    BR                NDA      ID1      ID2       ID3
DECAY   2000013     1.61957215E+00   # ~mu^-_R
#    BR                NDA      ID1      ID2
     1.00000000E+00    2     1000022        13   # BR(~mu^-_R -> chi^0_1 mu^-)
DECAY   1000013     1.50491512E+00   # ~mu^-_L
#    BR                NDA      ID1      ID2
     9.96939811E-01    2     1000022        13   # BR(~mu^-_L -> chi^0_1 mu^-)
     3.06018901E-03    2     2000013        25   # BR(~mu^-_L -> ~mu^-_R h^0)
#    BR                NDA      ID1      ID2       ID3
DECAY   1000015     5.04835987E+00   # ~tau^-_1
#    BR                NDA      ID1      ID2
     1.00000000E+00    2     1000022        15   # BR(~tau^-_1 -> chi^0_1 tau^-)
DECAY   2000015     5.00730098E+00   # ~tau^-_2
#    BR                NDA      ID1      ID2
     4.24068618E-01    2     1000022        15   # BR(~tau^-_2 -> chi^0_1 tau^-)
     1.00520495E-01    2     1000023        15   # BR(~tau^-_2 -> chi^0_2 tau^-)
     1.57378962E-03    2     1000025        15   # BR(~tau^-_2 -> chi^0_3 tau^-)
     1.38055068E-03    2     1000035        15   # BR(~tau^-_2 -> chi^0_4 tau^-)
     1.93971883E-01    2    -1000024        16   # BR(~tau^-_2 -> chi^-_1 nu_tau)
     1.13078776E-03    2    -1000037        16   # BR(~tau^-_2 -> chi^-_2 nu_tau)
     1.37751059E-01    2     1000015        23   # BR(~tau^-_2 -> ~tau^-_1 Z)
     1.39602817E-01    2     1000015        25   # BR(~tau^-_2 -> ~tau^-_1 h^0)
#    BR                NDA      ID1      ID2       ID3
DECAY   1000012     1.49720487E+00   # ~nu_e
#    BR                NDA      ID1      ID2
     1.00000000E+00    2     1000022        12   # BR(~nu_e -> chi^0_1 nu_e)
DECAY   1000014     1.49719730E+00   # ~nu_mu
#    BR                NDA      ID1      ID2
     1.00000000E+00    2     1000022        14   # BR(~nu_mu -> chi^0_1 nu_mu)
DECAY   1000016     4.98345301E+00   # ~nu_tau
#    BR                NDA      ID1      ID2
     4.23883882E-01    2     1000022        16   # BR(~nu_tau -> chi^0_1 nu_tau)
     9.73627797E-02    2     1000023        16   # BR(~nu_tau -> chi^0_2 nu_tau)
     4.13792104E-04    2     1000035        16   # BR(~nu_tau -> chi^0_4 nu_tau)
     2.00479734E-01    2     1000024        15   # BR(~nu_tau -> chi^+_1 tau^-)
     2.18268302E-03    2     1000037        15   # BR(~nu_tau -> chi^+_2 tau^-)
     2.75670561E-01    2     1000015        24   # BR(~nu_tau -> ~tau^-_1 W^+)
DECAY   2000001     6.80442297E+02   # ~d_R
#    BR                NDA      ID1      ID2
     8.25631791E-03    2     1000022         1   # BR(~d_R -> chi^0_1 d)
     9.91737840E-01    2     1000021         1   # BR(~d_R -> ~g d)
DECAY   1000001     8.05813740E+02   # ~d_L
#    BR                NDA      ID1      ID2
     1.74824540E-03    2     1000022         1   # BR(~d_L -> chi^0_1 d)
     4.88507741E-02    2     1000023         1   # BR(~d_L -> chi^0_2 d)
     3.87284201E-03    2     1000035         1   # BR(~d_L -> chi^0_4 d)
     9.63094888E-02    2    -1000024         2   # BR(~d_L -> chi^-_1 u)
     9.16822260E-03    2    -1000037         2   # BR(~d_L -> chi^-_2 u)
     8.40026680E-01    2     1000021         1   # BR(~d_L -> ~g d)
DECAY   2000003     6.80469982E+02   # ~s_R
#    BR                NDA      ID1      ID2
     8.25600365E-03    2     1000022         3   # BR(~s_R -> chi^0_1 s)
     9.91698534E-01    2     1000021         3   # BR(~s_R -> ~g s)
DECAY   1000003     8.05831304E+02   # ~s_L
#    BR                NDA      ID1      ID2
     1.74822114E-03    2     1000022         3   # BR(~s_L -> chi^0_1 s)
     4.88504334E-02    2     1000023         3   # BR(~s_L -> chi^0_2 s)
     3.88045450E-03    2     1000035         3   # BR(~s_L -> chi^0_4 s)
     9.63077271E-02    2    -1000024         4   # BR(~s_L -> chi^-_1 c)
     9.17203528E-03    2    -1000037         4   # BR(~s_L -> chi^-_2 c)
     8.40009005E-01    2     1000021         3   # BR(~s_L -> ~g s)
DECAY   1000005     5.61303685E+00   # ~b_1
#    BR                NDA      ID1      ID2
     2.31317197E-01    2     1000022         5   # BR(~b_1 -> chi^0_1 b)
     6.22397266E-02    2     1000023         5   # BR(~b_1 -> chi^0_2 b)
     1.83666264E-01    2     1000025         5   # BR(~b_1 -> chi^0_3 b)
     1.45876794E-01    2     1000035         5   # BR(~b_1 -> chi^0_4 b)
     1.20919023E-01    2    -1000024         6   # BR(~b_1 -> chi^-_1 t)
     2.55980997E-01    2    -1000037         6   # BR(~b_1 -> chi^-_2 t)
DECAY   2000005     3.06073973E+01   # ~b_2
#    BR                NDA      ID1      ID2
     1.06035902E-02    2     1000022         5   # BR(~b_2 -> chi^0_1 b)
     1.26276768E-01    2     1000023         5   # BR(~b_2 -> chi^0_2 b)
     4.53577545E-02    2     1000025         5   # BR(~b_2 -> chi^0_3 b)
     5.18659588E-02    2     1000035         5   # BR(~b_2 -> chi^0_4 b)
     2.48496471E-01    2    -1000024         6   # BR(~b_2 -> chi^-_1 t)
     4.71112401E-01    2    -1000037         6   # BR(~b_2 -> chi^-_2 t)
     4.22746728E-02    2     1000006       -24   # BR(~b_2 -> ~t_1 W^-)
     1.32790656E-03    2     1000005        23   # BR(~b_2 -> ~b_1 Z)
     2.68447705E-03    2     1000005        25   # BR(~b_2 -> ~b_1 h^0)
DECAY   2000002     6.97582759E+02   # ~u_R
#    BR                NDA      ID1      ID2
     3.22233542E-02    2     1000022         2   # BR(~u_R -> chi^0_1 u)
     9.67754273E-01    2     1000021         2   # BR(~u_R -> ~g u)
DECAY   1000002     8.05798780E+02   # ~u_L
#    BR                NDA      ID1      ID2
     1.74564377E-03    2     1000022         2   # BR(~u_L -> chi^0_1 u)
     4.90666629E-02    2     1000023         2   # BR(~u_L -> chi^0_2 u)
     3.67261465E-03    2     1000035         2   # BR(~u_L -> chi^0_4 u)
     9.83680590E-02    2     1000024         1   # BR(~u_L -> chi^+_1 d)
     7.13302082E-03    2     1000037         1   # BR(~u_L -> chi^+_2 d)
     8.40001948E-01    2     1000021         2   # BR(~u_L -> ~g u)
DECAY   2000004     6.97589830E+02   # ~c_R
#    BR                NDA      ID1      ID2
     3.22230337E-02    2     1000022         4   # BR(~c_R -> chi^0_1 c)
     9.67744715E-01    2     1000021         4   # BR(~c_R -> ~g c)
DECAY   1000004     8.05816280E+02   # ~c_L
#    BR                NDA      ID1      ID2
     1.74560676E-03    2     1000022         4   # BR(~c_L -> chi^0_1 c)
     4.90657678E-02    2     1000023         4   # BR(~c_L -> chi^0_2 c)
     3.67453389E-03    2     1000035         4   # BR(~c_L -> chi^0_4 c)
     9.83674769E-02    2     1000024         3   # BR(~c_L -> chi^+_1 s)
     7.14815039E-03    2     1000037         3   # BR(~c_L -> chi^+_2 s)
     8.39984270E-01    2     1000021         4   # BR(~c_L -> ~g c)
DECAY   1000006     2.24943288E+01   # ~t_1
#    BR                NDA      ID1      ID2
     1.82436848E-04    2     1000022         4   # BR(~t_1 -> chi^0_1 c)
     1.55423123E-01    2     1000022         6   # BR(~t_1 -> chi^0_1 t)
     1.90558168E-03    2     1000023         4   # BR(~t_1 -> chi^0_2 c)
     1.91189723E-02    2     1000023         6   # BR(~t_1 -> chi^0_2 t)
     1.87705601E-01    2     1000025         6   # BR(~t_1 -> chi^0_3 t)
     2.04735682E-01    2     1000035         6   # BR(~t_1 -> chi^0_4 t)
     2.04439447E-02    2     1000024         5   # BR(~t_1 -> chi^+_1 b)
     4.09916582E-01    2     1000037         5   # BR(~t_1 -> chi^+_2 b)
#    BR                NDA      ID1      ID2       ID3
     5.68076842E-04    3     1000022        24         5   # BR(~t_1 -> chi^0_1 W^+ b)
DECAY   2000006     4.05979497E+01   # ~t_2
#    BR                NDA      ID1      ID2
     5.02853434E-02    2     1000022         6   # BR(~t_2 -> chi^0_1 t)
     1.33950847E-01    2     1000023         6   # BR(~t_2 -> chi^0_2 t)
     2.25347550E-01    2     1000025         6   # BR(~t_2 -> chi^0_3 t)
     1.67498098E-01    2     1000035         6   # BR(~t_2 -> chi^0_4 t)
     2.44325570E-01    2     1000024         5   # BR(~t_2 -> chi^+_1 b)
     1.10095172E-01    2     1000037         5   # BR(~t_2 -> chi^+_2 b)
     7.37875337E-03    2     1000005        24   # BR(~t_2 -> ~b_1 W^+)
     5.06326140E-02    2     1000006        23   # BR(~t_2 -> ~t_1 Z)
     1.04860524E-02    2     1000006        25   # BR(~t_2 -> ~t_1 h^0)
DECAY   1000024     1.94205437E+00   # chi^+_1
#    BR                NDA      ID1      ID2
     2.30668650E-01    2    -1000011        12   # BR(chi^+_1 -> ~e^+_L nu_e)
     1.35867924E-04    2    -2000013        14   # BR(chi^+_1 -> ~mu^+_R nu_mu)
     2.30667341E-01    2    -1000013        14   # BR(chi^+_1 -> ~mu^+_L nu_mu)
     1.85855115E-02    2    -1000015        16   # BR(chi^+_1 -> ~tau^+_1 nu_tau)
     2.41298777E-01    2     1000012       -11   # BR(chi^+_1 -> ~nu_e e^+)
     2.41321462E-01    2     1000014       -13   # BR(chi^+_1 -> ~nu_mu mu^+)
     3.59891456E-02    2     1000022        24   # BR(chi^+_1 -> chi^0_1 W^+)
#    BR                NDA      ID1      ID2       ID3
     1.13967000E-03    3     1000022        -5         6   # BR(chi^+_1 -> chi^0_1 b_bar t)
     1.93527926E-04    3     1000022       -15        16   # BR(chi^+_1 -> chi^0_1 tau^+ nu_tau)
DECAY   1000037     5.02710090E+00   # chi^+_2
#    BR                NDA      ID1      ID2
     2.41416901E-02    2    -1000011        12   # BR(chi^+_2 -> ~e^+_L nu_e)
     6.50262231E-04    2    -2000013        14   # BR(chi^+_2 -> ~mu^+_R nu_mu)
     2.41416221E-02    2    -1000013        14   # BR(chi^+_2 -> ~mu^+_L nu_mu)
     6.92813743E-02    2    -1000015        16   # BR(chi^+_2 -> ~tau^+_1 nu_tau)
     1.90076619E-02    2     1000012       -11   # BR(chi^+_2 -> ~nu_e e^+)
     1.91563828E-02    2     1000014       -13   # BR(chi^+_2 -> ~nu_mu mu^+)
     2.06331350E-01    2     1000022        24   # BR(chi^+_2 -> chi^0_1 W^+)
     3.17562914E-01    2     1000023        24   # BR(chi^+_2 -> chi^0_2 W^+)
     1.65828120E-01    2     1000024        23   # BR(chi^+_2 -> chi^+_1 Z)
     1.46748689E-01    2     1000024        25   # BR(chi^+_2 -> chi^+_1 h^0)
#    BR                NDA      ID1      ID2       ID3
     7.09072257E-03    3     1000022        -5         6   # BR(chi^+_2 -> chi^0_1 b_bar t)
DECAY   1000022     0.00000000E+00   # chi^0_1
DECAY   1000023     1.94473602E+00   # chi^0_2
#    BR                NDA      ID1      ID2
     1.17985268E-01    2     1000011       -11   # BR(chi^0_2 -> ~e^-_L e^+)
     1.17985268E-01    2    -1000011        11   # BR(chi^0_2 -> ~e^+_L e^-)
     1.17715612E-04    2     2000013       -13   # BR(chi^0_2 -> ~mu^-_R mu^+)
     1.17715612E-04    2    -2000013        13   # BR(chi^0_2 -> ~mu^+_R mu^-)
     1.17991490E-01    2     1000013       -13   # BR(chi^0_2 -> ~mu^-_L mu^+)
     1.17991490E-01    2    -1000013        13   # BR(chi^0_2 -> ~mu^+_L mu^-)
     8.87566612E-03    2     1000015       -15   # BR(chi^0_2 -> ~tau^-_1 tau^+)
     8.87566612E-03    2    -1000015        15   # BR(chi^0_2 -> ~tau^+_1 tau^-)
     1.19240215E-01    2     1000012       -12   # BR(chi^0_2 -> ~nu_e nu_bar_e)
     1.19240215E-01    2    -1000012        12   # BR(chi^0_2 -> ~nu^*_e nu_e)
     1.19245796E-01    2     1000014       -14   # BR(chi^0_2 -> ~nu_mu nu_bar_mu)
     1.19245796E-01    2    -1000014        14   # BR(chi^0_2 -> ~nu^*_mu nu_mu)
     1.36601703E-02    2     1000022        23   # BR(chi^0_2 -> chi^0_1 Z)
     1.85144875E-02    2     1000022        25   # BR(chi^0_2 -> chi^0_1 h^0)
#    BR                NDA      ID1      ID2       ID3
     5.12157594E-04    3     1000022         6        -6   # BR(chi^0_2 -> chi^0_1 t t_bar)
     1.37789386E-04    3     1000022        15       -15   # BR(chi^0_2 -> chi^0_1 tau^- tau^+)
     1.38314418E-04    3     1000022        12       -12   # BR(chi^0_2 -> chi^0_1 nu_e nu_bar_e)
DECAY   1000025     5.48498381E+00   # chi^0_3
#    BR                NDA      ID1      ID2
     1.87332247E-04    2     2000011       -11   # BR(chi^0_3 -> ~e^-_R e^+)
     1.87332247E-04    2    -2000011        11   # BR(chi^0_3 -> ~e^+_R e^-)
     5.09292903E-04    2     2000013       -13   # BR(chi^0_3 -> ~mu^-_R mu^+)
     5.09292903E-04    2    -2000013        13   # BR(chi^0_3 -> ~mu^+_R mu^-)
     3.57168002E-02    2     1000015       -15   # BR(chi^0_3 -> ~tau^-_1 tau^+)
     3.57168002E-02    2    -1000015        15   # BR(chi^0_3 -> ~tau^+_1 tau^-)
     1.34593321E-01    2     1000024       -24   # BR(chi^0_3 -> chi^+_1 W^-)
     1.34593321E-01    2    -1000024        24   # BR(chi^0_3 -> chi^-_1 W^+)
     1.20416586E-01    2     1000022        23   # BR(chi^0_3 -> chi^0_1 Z)
     2.26734911E-01    2     1000023        23   # BR(chi^0_3 -> chi^0_2 Z)
     1.28869325E-01    2     1000022        25   # BR(chi^0_3 -> chi^0_1 h^0)
     1.77530221E-01    2     1000023        25   # BR(chi^0_3 -> chi^0_2 h^0)
     1.28461558E-04    2     1000023        22   # BR(chi^0_3 -> chi^0_2 photon)
#    BR                NDA      ID1      ID2       ID3
     3.72397345E-03    3     1000022         6        -6   # BR(chi^0_3 -> chi^0_1 t t_bar)
DECAY   1000035     5.04445539E+00   # chi^0_4
#    BR                NDA      ID1      ID2
     2.79883055E-04    2     2000011       -11   # BR(chi^0_4 -> ~e^-_R e^+)
     2.79883055E-04    2    -2000011        11   # BR(chi^0_4 -> ~e^+_R e^-)
     9.10469270E-03    2     1000011       -11   # BR(chi^0_4 -> ~e^-_L e^+)
     9.10469270E-03    2    -1000011        11   # BR(chi^0_4 -> ~e^+_L e^-)
     6.05704308E-04    2     2000013       -13   # BR(chi^0_4 -> ~mu^-_R mu^+)
     6.05704308E-04    2    -2000013        13   # BR(chi^0_4 -> ~mu^+_R mu^-)
     9.17701655E-03    2     1000013       -13   # BR(chi^0_4 -> ~mu^-_L mu^+)
     9.17701655E-03    2    -1000013        13   # BR(chi^0_4 -> ~mu^+_L mu^-)
     3.50003442E-02    2     1000015       -15   # BR(chi^0_4 -> ~tau^-_1 tau^+)
     3.50003442E-02    2    -1000015        15   # BR(chi^0_4 -> ~tau^+_1 tau^-)
     1.08044022E-02    2     1000012       -12   # BR(chi^0_4 -> ~nu_e nu_bar_e)
     1.08044022E-02    2    -1000012        12   # BR(chi^0_4 -> ~nu^*_e nu_e)
     1.08046554E-02    2     1000014       -14   # BR(chi^0_4 -> ~nu_mu nu_bar_mu)
     1.08046554E-02    2    -1000014        14   # BR(chi^0_4 -> ~nu^*_mu nu_mu)
     2.47833219E-01    2     1000024       -24   # BR(chi^0_4 -> chi^+_1 W^-)
     2.47833219E-01    2    -1000024        24   # BR(chi^0_4 -> chi^-_1 W^+)
     8.36486025E-02    2     1000022        23   # BR(chi^0_4 -> chi^0_1 Z)
     1.02059622E-03    2     1000023        23   # BR(chi^0_4 -> chi^0_2 Z)
     1.13941024E-01    2     1000022        25   # BR(chi^0_4 -> chi^0_1 h^0)
     1.50096326E-01    2     1000023        25   # BR(chi^0_4 -> chi^0_2 h^0)
#    BR                NDA      ID1      ID2       ID3
     3.97952303E-03    3     1000022         6        -6   # BR(chi^0_4 -> chi^0_1 t t_bar)
DECAY   1000021     2.42194627E+01   # ~g
#    BR                NDA      ID1      ID2
     2.27032650E-03    2     1000006        -4   # BR(~g -> ~t_1 c_bar)
     2.27032650E-03    2    -1000006         4   # BR(~g -> ~t^*_1 c)
     1.08134839E-01    2     1000006        -6   # BR(~g -> ~t_1 t_bar)
     1.08134839E-01    2    -1000006         6   # BR(~g -> ~t^*_1 t)
     9.98926374E-02    2     2000006        -6   # BR(~g -> ~t_2 t_bar)
     9.98926374E-02    2    -2000006         6   # BR(~g -> ~t^*_2 t)
     1.84108231E-01    2     1000005        -5   # BR(~g -> ~b_1 b_bar)
     1.84108231E-01    2    -1000005         5   # BR(~g -> ~b^*_1 b)
     1.05388399E-01    2     2000005        -5   # BR(~g -> ~b_2 b_bar)
     1.05388399E-01    2    -2000005         5   # BR(~g -> ~b^*_2 b)
     1.89811569E-04    2     1000025        21   # BR(~g -> chi^0_3 g)
     1.90735297E-04    2     1000035        21   # BR(~g -> chi^0_4 g)
#    BR                NDA      ID1      ID2       ID3
DECAY        25     3.07463017E-03   # Gamma(h0)
     2.67887086E-03   2        22        22   # BR(h0 -> photon photon)
     1.44569733E-03   2        22        23   # BR(h0 -> photon Z)
     2.40992362E-02   2        23        23   # BR(h0 -> Z Z)
     2.10985588E-01   2       -24        24   # BR(h0 -> W W)
     8.56134141E-02   2        21        21   # BR(h0 -> gluon gluon)
     5.18718277E-09   2       -11        11   # BR(h0 -> Electron electron)
     2.30733568E-04   2       -13        13   # BR(h0 -> Muon muon)
     6.65311764E-02   2       -15        15   # BR(h0 -> Tau tau)
     1.48188251E-07   2        -2         2   # BR(h0 -> Up up)
     2.87598686E-02   2        -4         4   # BR(h0 -> Charm charm)
     6.03087628E-07   2        -1         1   # BR(h0 -> Down down)
     2.18122372E-04   2        -3         3   # BR(h0 -> Strange strange)
     5.79436536E-01   2        -5         5   # BR(h0 -> Bottom bottom)
DECAY        35     2.14150959E+01   # Gamma(HH)
     3.50348678E-08   2        22        22   # BR(HH -> photon photon)
     1.84307927E-07   2        22        23   # BR(HH -> photon Z)
     8.53727693E-07   2        23        23   # BR(HH -> Z Z)
     2.44051062E-07   2       -24        24   # BR(HH -> W W)
     6.24955595E-06   2        21        21   # BR(HH -> gluon gluon)
     1.21224539E-08   2       -11        11   # BR(HH -> Electron electron)
     5.39756746E-04   2       -13        13   # BR(HH -> Muon muon)
     1.58829035E-01   2       -15        15   # BR(HH -> Tau tau)
     5.81775606E-13   2        -2         2   # BR(HH -> Up up)
     1.12837331E-07   2        -4         4   # BR(HH -> Charm charm)
     4.69240381E-03   2        -6         6   # BR(HH -> Top top)
     9.54179329E-07   2        -1         1   # BR(HH -> Down down)
     3.45157678E-04   2        -3         3   # BR(HH -> Strange strange)
     6.39295628E-01   2        -5         5   # BR(HH -> Bottom bottom)
     4.83165880E-03   2  -1000024   1000024   # BR(HH -> Chargino1 chargino1)
     3.04749415E-02   2  -1000024   1000037   # BR(HH -> Chargino1 chargino2)
     3.04749415E-02   2  -1000037   1000024   # BR(HH -> Chargino2 chargino1)
     2.29586622E-04   2   1000022   1000022   # BR(HH -> neutralino1 neutralino1)
     5.00748624E-03   2   1000022   1000023   # BR(HH -> neutralino1 neutralino2)
     4.40560534E-02   2   1000022   1000025   # BR(HH -> neutralino1 neutralino3)
     3.69785937E-02   2   1000022   1000035   # BR(HH -> neutralino1 neutralino4)
     2.39083261E-03   2   1000023   1000023   # BR(HH -> neutralino2 neutralino2)
     3.59082113E-02   2   1000023   1000025   # BR(HH -> neutralino2 neutralino3)
     3.44009767E-04   2   1000023   1000035   # BR(HH -> neutralino2 neutralino4)
     4.34008888E-06   2        25        25   # BR(HH -> h0 h0)
     3.28995857E-07   2  -1000011   1000011   # BR(HH -> Selectron1 selectron1)
     2.74483895E-12   2  -2000011   1000011   # BR(HH -> Selectron2 selectron1)
     2.74483895E-12   2  -1000011   2000011   # BR(HH -> Selectron1 selectron2)
     3.18317068E-07   2  -2000011   2000011   # BR(HH -> Selectron2 selectron2)
     3.24459873E-07   2  -1000013   1000013   # BR(HH -> Smuon1 smuon1)
     1.17344473E-07   2  -2000013   1000013   # BR(HH -> Smuon2 smuon1)
     1.17344473E-07   2  -1000013   2000013   # BR(HH -> Smuon1 smuon2)
     3.19549172E-07   2  -2000013   2000013   # BR(HH -> Smuon2 smuon2)
     4.18772161E-05   2  -1000015   1000015   # BR(HH -> Stau1 stau1)
     2.77161681E-03   2  -2000015   1000015   # BR(HH -> Stau2 stau1)
     2.77161681E-03   2  -1000015   2000015   # BR(HH -> Stau1 stau2)
DECAY        36     2.11245133E+01   # Gamma(A0)
     4.05712644E-07   2        22        22   # BR(A0 -> photon photon)
     1.24189106E-06   2        22        23   # BR(A0 -> photon Z)
     2.52515393E-05   2        21        21   # BR(A0 -> gluon gluon)
     1.19361530E-08   2       -11        11   # BR(A0 -> Electron electron)
     5.31462391E-04   2       -13        13   # BR(A0 -> Muon muon)
     1.56409698E-01   2       -15        15   # BR(A0 -> Tau tau)
     5.10440728E-13   2        -2         2   # BR(A0 -> Up up)
     9.89923359E-08   2        -4         4   # BR(A0 -> Charm charm)
     4.01294068E-03   2        -6         6   # BR(A0 -> Top top)
     9.39958081E-07   2        -1         1   # BR(A0 -> Down down)
     3.40014089E-04   2        -3         3   # BR(A0 -> Strange strange)
     6.29593426E-01   2        -5         5   # BR(A0 -> Bottom bottom)
     2.67206735E-02   2  -1000024   1000024   # BR(A0 -> Chargino1 chargino1)
     2.53431060E-02   2  -1000024   1000037   # BR(A0 -> Chargino1 chargino2)
     2.53431060E-02   2  -1000037   1000024   # BR(A0 -> Chargino2 chargino1)
     2.34336718E-04   2   1000022   1000022   # BR(A0 -> neutralino1 neutralino1)
     5.43956896E-03   2   1000022   1000023   # BR(A0 -> neutralino1 neutralino2)
     4.15995738E-02   2   1000022   1000025   # BR(A0 -> neutralino1 neutralino3)
     4.02734400E-02   2   1000022   1000035   # BR(A0 -> neutralino1 neutralino4)
     1.32051906E-02   2   1000023   1000023   # BR(A0 -> neutralino2 neutralino2)
     8.68092333E-04   2   1000023   1000025   # BR(A0 -> neutralino2 neutralino3)
     2.43852893E-02   2   1000023   1000035   # BR(A0 -> neutralino2 neutralino4)
     1.45257736E-06   2        23        25   # BR(A0 -> Z h0)
     7.06891817E-39   2        25        25   # BR(A0 -> h0 h0)
     2.78140839E-12   2  -2000011   1000011   # BR(A0 -> Selectron2 selectron1)
     2.78140839E-12   2  -1000011   2000011   # BR(A0 -> Selectron1 selectron2)
     1.18913985E-07   2  -2000013   1000013   # BR(A0 -> Smuon2 smuon1)
     1.18913985E-07   2  -1000013   2000013   # BR(A0 -> Smuon1 smuon2)
     2.83522046E-03   2  -2000015   1000015   # BR(A0 -> Stau2 stau1)
     2.83522046E-03   2  -1000015   2000015   # BR(A0 -> Stau1 stau2)
DECAY        37     2.80742328E+01   # Gamma(Hp)
     1.37989285E-08   2       -11        12   # BR(Hp -> Electron nu_e)
     5.89947292E-04   2       -13        14   # BR(Hp -> Muon nu_mu)
     1.66870650E-01   2       -15        16   # BR(Hp -> Tau nu_tau)
     8.35193165E-07   2        -1         2   # BR(Hp -> Down up)
     1.41066834E-05   2        -3         2   # BR(Hp -> Strange up)
     7.15341560E-06   2        -5         2   # BR(Hp -> Bottom up)
     4.25110818E-08   2        -1         4   # BR(Hp -> Down charm)
     3.01110123E-04   2        -3         4   # BR(Hp -> Strange charm)
     1.00173426E-03   2        -5         4   # BR(Hp -> Bottom charm)
     3.81840225E-07   2        -1         6   # BR(Hp -> Down top)
     8.77155720E-06   2        -3         6   # BR(Hp -> Strange top)
     6.81254556E-01   2        -5         6   # BR(Hp -> Bottom top)
     7.89077295E-03   2   1000022   1000024   # BR(Hp -> neutralino1 chargino1)
     5.84692421E-02   2   1000022   1000037   # BR(Hp -> neutralino1 chargino2)
     1.86000470E-07   2   1000023   1000024   # BR(Hp -> neutralino2 chargino1)
     2.50947811E-02   2   1000023   1000037   # BR(Hp -> neutralino2 chargino2)
     2.95493602E-02   2   1000024   1000025   # BR(Hp -> chargino1 neutralino3)
     2.46527171E-02   2   1000024   1000035   # BR(Hp -> chargino1 neutralino4)
     1.09538665E-06   2        24        25   # BR(Hp -> W h0)
     2.67819554E-12   2        24        35   # BR(Hp -> W HH)
     6.44001607E-13   2        24        36   # BR(Hp -> W A0)
     4.10800731E-12   2  -1000011   1000012   # BR(Hp -> Selectron1 snu_e1)
     9.55703506E-07   2  -2000011   1000012   # BR(Hp -> Selectron2 snu_e1)
     1.75630679E-07   2  -1000013   1000014   # BR(Hp -> Smuon1 snu_mu1)
     9.57006975E-07   2  -2000013   1000014   # BR(Hp -> Smuon2 snu_mu1)
     4.29045367E-03   2  -1000015   1000016   # BR(Hp -> Stau1 snu_tau1)
DECAY         6     2.43000000E+00   # top
#    BR                NDA      ID1      ID2
     1.00000000E+00    2           5        24   # BR(t -> b W)
Block HiggsBoundsInputHiggsCouplingsFermions
# ScalarNormEffCoupSq PseudoSNormEffCoupSq NP IP1 IP2 IP2
    9.31523335E-01    0.00000000E+00        3  25   5   5  # h0-b-b eff. coupling^2, normalised to SM
    6.94938748E+02    0.00000000E+00        3  35   5   5  # H0-b-b eff. coupling^2, normalised to SM
    0.00000000E+00    6.94870272E+02        3  36   5   5  # A0-b-b eff. coupling^2, normalised to SM
#
    1.00009855E+00    0.00000000E+00        3  25   6   6  # h0-t-t eff. coupling^2, normalised to SM
    1.34057158E-03    0.00000000E+00        3  35   6   6  # H0-t-t eff. coupling^2, normalised to SM
    0.00000000E+00    1.43911755E-03        3  36   6   6  # A0-t-t eff. coupling^2, normalised to SM
#
    9.31523335E-01    0.00000000E+00        3  25  15  15  # h0-tau-tau eff. coupling^2, normalised to SM
    6.94938748E+02    0.00000000E+00        3  35  15  15  # H0-tau-tau eff. coupling^2, normalised to SM
    0.00000000E+00    6.94870272E+02        3  36  15  15  # A0-tau-tau eff. coupling^2, normalised to SM
#
Block HiggsBoundsInputHiggsCouplingsBosons
    9.99998253E-01        3  25  24  24  # h0-W-W eff. coupling^2, normalised to SM
    1.74729514E-06        3  35  24  24  # H0-W-W eff. coupling^2, normalised to SM
    0.00000000E+00        3  36  24  24  # A0-W-W eff. coupling^2, normalised to SM
#
    9.99998253E-01        3  25  23  23  # h0-Z-Z eff. coupling^2, normalised to SM
    1.74729514E-06        3  35  23  23  # H0-Z-Z eff. coupling^2, normalised to SM
    0.00000000E+00        3  36  23  23  # A0-Z-Z eff. coupling^2, normalised to SM
#
    1.26153615E+00        3  25  21  21  # h0-g-g eff. coupling^2, normalised to SM
    2.56230460E-03        3  35  21  21  # H0-g-g eff. coupling^2, normalised to SM
    1.00061391E-01        3  36  21  21  # A0-g-g eff. coupling^2, normalised to SM
#
    0.00000000E+00        3  25  25  23  # h0-h0-Z eff. coupling^2, normalised to SM
    0.00000000E+00        3  35  25  23  # H0-h0-Z eff. coupling^2, normalised to SM
    1.74729514E-06        3  36  25  23  # A0-h0-Z eff. coupling^2, normalised to SM
    0.00000000E+00        3  35  35  23  # H0-H0-Z eff. coupling^2, normalised to SM
    9.99998253E-01        3  36  35  23  # A0-H0-Z eff. coupling^2, normalised to SM
    0.00000000E+00        3  36  36  23  # A0-A0-Z eff. coupling^2, normalised to SM
#
    0.00000000E+00        4  25  21  21  23  # h0-g-g-Z eff. coupling^2, normalised to SM
    0.00000000E+00        4  35  21  21  23  # H0-g-g-Z eff. coupling^2, normalised to SM
    0.00000000E+00        4  36  21  21  23  # A0-g-g-Z eff. coupling^2, normalised to SM
Block SPhenoLowEnergy  # low energy observables
    1    3.10611352E-04   # BR(b -> s gamma)
    2    1.59117329E-06   # BR(b -> s mu+ mu-)
    3    3.52415897E-05   # BR(b -> s nu nu)
    4    2.41990982E-15   # BR(Bd -> e+ e-)
    5    1.03375651E-10   # BR(Bd -> mu+ mu-)
    6    2.16312147E-08   # BR(Bd -> tau+ tau-)
    7    8.11721628E-14   # BR(Bs -> e+ e-)
    8    3.46766758E-09   # BR(Bs -> mu+ mu-)
    9    7.35224982E-07   # BR(Bs -> tau+ tau-)
   10    9.64374179E-05   # BR(B_u -> tau nu)
   11    9.96161607E-01   # BR(B_u -> tau nu)/BR(B_u -> tau nu)_SM
   12    5.42143882E-01   # |Delta(M_Bd)| [ps^-1] 
   13    1.93689659E+01   # |Delta(M_Bs)| [ps^-1] 
   14    0.00000000E+00   # neutron EDM according to the chiral quark model
   15    0.00000000E+00   # neutron EDM according to the relativistic quark-parton model
   16    2.15788731E-03   # epsilon_K
   17    2.28166428E-15   # Delta(M_K)
   18    2.47981631E-11   # BR(K^0 -> pi^0 nu nu)
   19    8.28991431E-11   # BR(K^+ -> pi^+ nu nu)
   20   -5.30867014E-15   # Delta(g-2)_electron/2
   21   -2.27019771E-10   # Delta(g-2)_muon/2
   22   -3.42440678E-08   # Delta(g-2)_tau/2
   23    0.00000000E+00   # electric dipole moment of the electron
   24    0.00000000E+00   # electric dipole moment of the muon
   25    0.00000000E+00   # electric dipole moment of the tau
   26    0.00000000E+00   # Br(mu -> e gamma)
   27    0.00000000E+00   # Br(tau -> e gamma)
   28    0.00000000E+00   # Br(tau -> mu gamma)
   29    0.00000000E+00   # Br(mu -> 3 e)
   30    0.00000000E+00   # Br(tau -> 3 e)
   31    0.00000000E+00   # Br(tau -> 3 mu)
   39    6.41453032E-05   # Delta(rho_parameter)
   40    0.00000000E+00   # BR(Z -> e mu)
   41    0.00000000E+00   # BR(Z -> e tau)
   42    0.00000000E+00   # BR(Z -> mu tau)
Block FWCOEF Q=  1.60000000E+02  # Wilson coefficients at scale Q
#    id        order  M        value         comment
     0305 4422   00   0    -1.88819110E-01   # C7
     0305 4422   00   2    -1.76204502E-01   # C7
     0305 4322   00   2    -6.15319821E-05   # C7'
     0305 6421   00   0    -9.52278348E-02   # C8
     0305 6421   00   2    -9.33990213E-02   # C8
     0305 6321   00   2    -1.48342235E-04   # C8'
 03051111 4133   00   0     1.60902074E+00   # C9 e+e-
 03051111 4133   00   2     1.60938697E+00   # C9 e+e-
 03051111 4233   00   2     1.60757421E-04   # C9' e+e-
 03051111 4137   00   0    -4.43171284E+00   # C10 e+e-
 03051111 4137   00   2    -4.42898109E+00   # C10 e+e-
 03051111 4237   00   2    -1.22002118E-03   # C10' e+e-
 03051313 4133   00   0     1.60902074E+00   # C9 mu+mu-
 03051313 4133   00   2     1.60938569E+00   # C9 mu+mu-
 03051313 4233   00   2     1.60757193E-04   # C9' mu+mu-
 03051313 4137   00   0    -4.43171284E+00   # C10 mu+mu-
 03051313 4137   00   2    -4.42898236E+00   # C10 mu+mu-
 03051313 4237   00   2    -1.22002155E-03   # C10' mu+mu-
 03051212 4137   00   0     1.50535012E+00   # C11 nu_1 nu_1
 03051212 4137   00   2     1.50476400E+00   # C11 nu_1 nu_1
 03051212 4237   00   2     2.64849068E-04   # C11' nu_1 nu_1
 03051414 4137   00   0     1.50535012E+00   # C11 nu_2 nu_2
 03051414 4137   00   2     1.50476400E+00   # C11 nu_2 nu_2
 03051414 4237   00   2     2.64849080E-04   # C11' nu_2 nu_2
 03051616 4137   00   0     1.50535012E+00   # C11 nu_3 nu_3
 03051616 4137   00   2     1.50476410E+00   # C11 nu_3 nu_3
 03051616 4237   00   2     2.64852923E-04   # C11' nu_3 nu_3
Block IMFWCOEF Q=  1.60000000E+02  # Im(Wilson coefficients) at scale Q
#    id        order  M        value         comment
     0305 4422   00   0     3.85860632E-07   # C7
     0305 4422   00   2    -3.32184963E-06   # C7
     0305 4322   00   2     1.04710134E-06   # C7'
     0305 6421   00   0     3.30515150E-07   # C8
     0305 6421   00   2    -1.84818751E-05   # C8
     0305 6321   00   2     1.34056403E-07   # C8'
 03051111 4133   00   2    -5.10901635E-07   # C9 e+e-
 03051111 4233   00   2     3.18043990E-06   # C9' e+e-
 03051111 4137   00   2     4.32581427E-06   # C10 e+e-
 03051111 4237   00   2    -2.41398680E-05   # C10' e+e-
 03051313 4133   00   2    -5.10900087E-07   # C9 mu+mu-
 03051313 4233   00   2     3.18043684E-06   # C9' mu+mu-
 03051313 4137   00   2     4.32582163E-06   # C10 mu+mu-
 03051313 4237   00   2    -2.41398757E-05   # C10' mu+mu-
 03051212 4137   00   2    -8.12581608E-07   # C11 nu_1 nu_1
 03051212 4237   00   2     5.24045180E-06   # C11' nu_1 nu_1
 03051414 4137   00   2    -8.12581794E-07   # C11 nu_2 nu_2
 03051414 4237   00   2     5.24045180E-06   # C11' nu_2 nu_2
 03051616 4137   00   2    -8.10866442E-07   # C11 nu_3 nu_3
 03051616 4237   00   2     5.24045994E-06   # C11' nu_3 nu_3
