# SUSY Les Houches Accord 2 - MSSM spectrum + Decays
# SPheno v4.0.5be
# W. Porod, Comput. Phys. Commun. 153 (2003) 275-315, hep-ph/0301101;
# W. Porod, F.~Staub, Comput. Phys. Commun. 183 (2012) 2458
#                     arXiv:1104.1573 [hep-ph] 
# in case of problems send email to porod@physik.uni-wuerzburg.de
# Created: 20.12.2022,  16:57
Block SPINFO         # Program information
     1   SPheno      # spectrum calculator
     2   v4.0.5be    # version number
#
Block SPhenoINFO     # SPheno specific information
    1      2         # using 2-loop RGEs
    2      2         # using pole masses for boundary conditions at mZ
Block MODSEL  # Model selection
    1    0    # general MSSM
Block MINPAR  # Input parameters
    3    3.44066508E+01  # tanb at m_Z    
    4    1.00000000E+00  # Sign(mu)
Block EXTPAR  # non-universal input parameters
    0    4.23028992E+03  # scale for input parameters
    1    1.09874376E+03  # M_1
    2    4.73154954E+02  # M_2
    3    1.65223908E+03  # M_3
   11   -7.27639120E+03  # A_t
   12   -1.71143736E+03  # A_b
   13   -9.36927170E+01  # A_tau
   23    1.88075428E+02  # mu
   25    3.32613096E+01  # tan(beta)
   26    3.71810343E+03  # m_A, pole mass
   31    1.00000000E+04  # M_L11
   32    1.00000000E+04  # M_L22
   33    1.00000000E+04  # M_L33
   34    1.00000000E+04  # M_E11
   35    1.00000000E+04  # M_E22
   36    1.00000000E+04  # M_E33
   41    1.00000000E+04  # M_Q11
   42    1.00000000E+04  # M_Q22
   43    4.16099222E+03  # M_Q33
   44    1.00000000E+04  # M_U11
   45    1.00000000E+04  # M_U22
   46    4.45028686E+03  # M_U33
   47    1.00000000E+04  # M_D11
   48    1.00000000E+04  # M_D22
   49    2.83207390E+03  # M_D33
Block SMINPUTS  # SM parameters
         1     1.27908970E+02  # alpha_em^-1(MZ)^MSbar
         2     1.16637870E-05  # G_mu [GeV^-2]
         3     1.18400000E-01  # alpha_s(MZ)^MSbar
         4     9.11876000E+01  # m_Z(pole)
         5     4.18000000E+00  # m_b(m_b), MSbar
         6     1.73200000E+02  # m_t(pole)
         7     1.77700000E+00  # m_tau(pole)
         8     0.00000000E+00  # m_nu_3
        11     5.10998930E-04  # m_e(pole)
        12     0.00000000E+00  # m_nu_1
        13     1.05658372E-01  # m_muon(pole)
        14     0.00000000E+00  # m_nu_2
        21     5.00000000E-03  # m_d(2 GeV), MSbar
        22     2.50000000E-03  # m_u(2 GeV), MSbar
        23     9.50000000E-02  # m_s(2 GeV), MSbar
        24     1.27000000E+00  # m_c(m_c), MSbar
Block gauge Q=  4.23028992E+03  # (SUSY scale)
   1    3.55362975E-01  # g'(Q)^DRbar
   2    6.65198874E-01  # g(Q)^DRbar
   3    1.21977796E+00  # g3(Q)^DRbar
Block Yu Q=  4.23028992E+03  # (SUSY scale)
  1  1     8.38816060E-06   # Y_u(Q)^DRbar
  2  2     4.26118559E-03   # Y_c(Q)^DRbar
  3  3     1.01335718E+00   # Y_t(Q)^DRbar
Block Yd Q=  4.23028992E+03  # (SUSY scale)
  1  1     5.60642903E-04   # Y_d(Q)^DRbar
  2  2     1.06522152E-02   # Y_s(Q)^DRbar
  3  3     5.55982080E-01   # Y_b(Q)^DRbar
Block Ye Q=  4.23028992E+03  # (SUSY scale)
  1  1     9.78362864E-05   # Y_e(Q)^DRbar
  2  2     2.02294411E-02   # Y_mu(Q)^DRbar
  3  3     3.40225920E-01   # Y_tau(Q)^DRbar
Block Au Q=  4.23028992E+03  # (SUSY scale)
  1  1     0.00000000E+00   # A_u(Q)^DRbar
  2  2     0.00000000E+00   # A_c(Q)^DRbar
  3  3    -7.27639115E+03   # A_t(Q)^DRbar
Block Ad Q=  4.23028992E+03  # (SUSY scale)
  1  1     0.00000000E+00   # A_d(Q)^DRbar
  2  2     0.00000000E+00   # A_s(Q)^DRbar
  3  3    -1.71143738E+03   # A_b(Q)^DRbar
Block Ae Q=  4.23028992E+03  # (SUSY scale)
  1  1     0.00000000E+00   # A_e(Q)^DRbar
  2  2     0.00000000E+00   # A_mu(Q)^DRbar
  3  3    -9.36927170E+01   # A_tau(Q)^DRbar
Block MSOFT Q=  4.23028992E+03  # soft SUSY breaking masses at Q
   1    1.09874376E+03  # M_1
   2    4.73154954E+02  # M_2
   3    1.65223908E+03  # M_3
  21    1.39068119E+07  # M^2_(H,d)
  22    3.72388567E+05  # M^2_(H,u)
  31    1.00000000E+04  # M_(L,11)
  32    1.00000000E+04  # M_(L,22)
  33    1.00000000E+04  # M_(L,33)
  34    1.00000000E+04  # M_(E,11)
  35    1.00000000E+04  # M_(E,22)
  36    1.00000000E+04  # M_(E,33)
  41    1.00000000E+04  # M_(Q,11)
  42    1.00000000E+04  # M_(Q,22)
  43    4.16099222E+03  # M_(Q,33)
  44    1.00000000E+04  # M_(U,11)
  45    1.00000000E+04  # M_(U,22)
  46    4.45028686E+03  # M_(U,33)
  47    1.00000000E+04  # M_(D,11)
  48    1.00000000E+04  # M_(D,22)
  49    2.83207390E+03  # M_(D,33)
Block MASS  # Mass spectrum
#   PDG code      mass          particle
         6     1.73200000E+02  # m_t(pole)
        23     9.11876000E+01  # m_Z(pole)
        24     8.04299946E+01  # W+
        15     1.77700000E+00  # m_tau(pole)
        25     1.28458783E+02  # h0
        35     3.71718435E+03  # H0
        36     3.71810343E+03  # A0
        37     3.71857842E+03  # H+
   1000001     1.01209464E+04  # ~d_L
   2000001     1.00957528E+04  # ~d_R
   1000002     1.01205861E+04  # ~u_L
   2000002     1.00982829E+04  # ~u_R
   1000003     1.01209470E+04  # ~s_L
   2000003     1.00957538E+04  # ~s_R
   1000004     1.01205868E+04  # ~c_L
   2000004     1.00982832E+04  # ~c_R
   1000005     2.87501153E+03  # ~b_1
   2000005     4.13760247E+03  # ~b_2
   1000006     4.08377927E+03  # ~t_1
   2000006     4.38205683E+03  # ~t_2
   1000011     1.00211260E+04  # ~e_L-
   2000011     1.00094117E+04  # ~e_R-
   1000012     1.00203578E+04  # ~nu_eL
   1000013     1.00211286E+04  # ~mu_L-
   2000013     1.00094164E+04  # ~mu_R-
   1000014     1.00203603E+04  # ~nu_muL
   1000015     1.00107543E+04  # ~tau_1-
   2000015     1.00218594E+04  # ~tau_2-
   1000016     1.00210651E+04  # ~nu_tauL
   1000021     2.04356993E+03  # ~g
   1000022     1.97714663E+02  # ~chi_10
   1000023     2.14184659E+02  # ~chi_20
   1000025     5.34470872E+02  # ~chi_30
   1000035     1.10545252E+03  # ~chi_40
   1000024     2.02938602E+02  # ~chi_1+
   1000037     5.34020593E+02  # ~chi_2+
# Higgs mixing
Block alpha # Effective Higgs mixing angle
          -2.91106021E-02   # alpha
Block Hmix Q=  4.23028992E+03  # Higgs mixing parameters
   1    1.88075428E+02  # mu
   2    3.32613096E+01  # tan[beta](Q)
   3    2.42841123E+02  # v(Q)
   4    1.38242931E+07  # m^2_A(Q)
Block stopmix # stop mixing matrix
   1  1     9.12859506E-01   # Re[R_st(1,1)]
   1  2     4.08273832E-01   # Re[R_st(1,2)]
   2  1    -4.08273832E-01   # Re[R_st(2,1)]
   2  2     9.12859506E-01   # Re[R_st(2,2)]
Block sbotmix # sbottom mixing matrix
   1  1     1.80415956E-03   # Re[R_sb(1,1)]
   1  2     9.99998373E-01   # Re[R_sb(1,2)]
   2  1    -9.99998373E-01   # Re[R_sb(2,1)]
   2  2     1.80415956E-03   # Re[R_sb(2,2)]
Block staumix # stau mixing matrix
   1  1     4.93886947E-02   # Re[R_sta(1,1)]
   1  2     9.98779634E-01   # Re[R_sta(1,2)]
   2  1    -9.98779634E-01   # Re[R_sta(2,1)]
   2  2     4.93886947E-02   # Re[R_sta(2,2)]
Block Nmix # neutralino mixing matrix
   1  1    -3.42266611E-02   # Re[N(1,1)]
   1  2     1.75063362E-01   # Re[N(1,2)]
   1  3    -7.14159912E-01   # Re[N(1,3)]
   1  4     6.76872938E-01   # Re[N(1,4)]
   2  1    -2.33261890E-02   # Re[N(2,1)]
   2  2     7.64974852E-02   # Re[N(2,2)]
   2  3     6.96097491E-01   # Re[N(2,3)]
   2  4     7.13479017E-01   # Re[N(2,4)]
   3  1     1.37377247E-02   # Re[N(3,1)]
   3  2     9.81564215E-01   # Re[N(3,2)]
   3  3     7.30679200E-02   # Re[N(3,3)]
   3  4    -1.76079658E-01   # Re[N(3,4)]
   4  1    -9.99047396E-01   # Re[N(4,1)]
   4  2     5.71367269E-03   # Re[N(4,2)]
   4  3     9.21857628E-03   # Re[N(4,3)]
   4  4    -4.22690466E-02   # Re[N(4,4)]
Block Umix # chargino mixing matrix
   1  1    -1.05322933E-01   # Re[U(1,1)]
   1  2     9.94438072E-01   # Re[U(1,2)]
   2  1     9.94438072E-01   # Re[U(2,1)]
   2  2     1.05322933E-01   # Re[U(2,2)]
Block Vmix # chargino mixing matrix
   1  1    -2.54116847E-01   # Re[V(1,1)]
   1  2     9.67173525E-01   # Re[V(1,2)]
   2  1     9.67173525E-01   # Re[V(2,1)]
   2  2     2.54116847E-01   # Re[V(2,2)]
DECAY        23     2.49520000E+00   # Z
DECAY        24     2.08500000E+00   # W
DECAY   2000011     4.90764294E+01   # ~e^-_R
#    BR                NDA      ID1      ID2
     1.19960248E-03    2     1000022        11   # BR(~e^-_R -> chi^0_1 e^-)
     5.57114574E-04    2     1000023        11   # BR(~e^-_R -> chi^0_2 e^-)
     1.92304788E-04    2     1000025        11   # BR(~e^-_R -> chi^0_3 e^-)
     9.98050939E-01    2     1000035        11   # BR(~e^-_R -> chi^0_4 e^-)
DECAY   1000011     1.43873756E+02   # ~e^-_L
#    BR                NDA      ID1      ID2
     7.52965083E-03    2     1000022        11   # BR(~e^-_L -> chi^0_1 e^-)
     1.25601237E-03    2     1000023        11   # BR(~e^-_L -> chi^0_2 e^-)
     2.98106459E-01    2     1000025        11   # BR(~e^-_L -> chi^0_3 e^-)
     8.34004276E-02    2     1000035        11   # BR(~e^-_L -> chi^0_4 e^-)
     6.79606777E-03    2    -1000024        12   # BR(~e^-_L -> chi^-_1 nu_e)
     6.02911383E-01    2    -1000037        12   # BR(~e^-_L -> chi^-_2 nu_e)
#    BR                NDA      ID1      ID2       ID3
DECAY   2000013     4.92392881E+01   # ~mu^-_R
#    BR                NDA      ID1      ID2
     2.03904058E-03    2     1000022        13   # BR(~mu^-_R -> chi^0_1 mu^-)
     1.35644720E-03    2     1000023        13   # BR(~mu^-_R -> chi^0_2 mu^-)
     2.00454070E-04    2     1000025        13   # BR(~mu^-_R -> chi^0_3 mu^-)
     9.94750520E-01    2     1000035        13   # BR(~mu^-_R -> chi^0_4 mu^-)
     1.63528430E-03    2    -1000024        14   # BR(~mu^-_R -> chi^-_1 nu_mu)
DECAY   1000013     1.43955306E+02   # ~mu^-_L
#    BR                NDA      ID1      ID2
     7.81420747E-03    2     1000022        13   # BR(~mu^-_L -> chi^0_1 mu^-)
     1.52966117E-03    2     1000023        13   # BR(~mu^-_L -> chi^0_2 mu^-)
     2.97940670E-01    2     1000025        13   # BR(~mu^-_L -> chi^0_3 mu^-)
     8.33532506E-02    2     1000035        13   # BR(~mu^-_L -> chi^0_4 mu^-)
     6.79221956E-03    2    -1000024        14   # BR(~mu^-_L -> chi^-_1 nu_mu)
     6.02569991E-01    2    -1000037        14   # BR(~mu^-_L -> chi^-_2 nu_mu)
#    BR                NDA      ID1      ID2       ID3
DECAY   1000015     9.53279741E+01   # ~tau^-_1
#    BR                NDA      ID1      ID2
     1.28437916E-01    2     1000022        15   # BR(~tau^-_1 -> chi^0_1 tau^-)
     1.15322309E-01    2     1000023        15   # BR(~tau^-_1 -> chi^0_2 tau^-)
     1.44235317E-04    2     1000025        15   # BR(~tau^-_1 -> chi^0_3 tau^-)
     5.12800006E-01    2     1000035        15   # BR(~tau^-_1 -> chi^0_4 tau^-)
     2.43275321E-01    2    -1000024        16   # BR(~tau^-_1 -> chi^-_1 nu_tau)
DECAY   2000015     1.66764466E+02   # ~tau^-_2
#    BR                NDA      ID1      ID2
     7.44051200E-02    2     1000022        15   # BR(~tau^-_2 -> chi^0_1 tau^-)
     6.92460561E-02    2     1000023        15   # BR(~tau^-_2 -> chi^0_2 tau^-)
     2.58650244E-01    2     1000025        15   # BR(~tau^-_2 -> chi^0_3 tau^-)
     7.26023738E-02    2     1000035        15   # BR(~tau^-_2 -> chi^0_4 tau^-)
     3.38928531E-03    2    -1000024        16   # BR(~tau^-_2 -> chi^-_1 nu_tau)
     5.21706921E-01    2    -1000037        16   # BR(~tau^-_2 -> chi^-_2 nu_tau)
#    BR                NDA      ID1      ID2       ID3
DECAY   1000012     1.43879071E+02   # ~nu_e
#    BR                NDA      ID1      ID2
     1.14506380E-02    2     1000022        12   # BR(~nu_e -> chi^0_1 nu_e)
     2.42364956E-03    2     1000023        12   # BR(~nu_e -> chi^0_2 nu_e)
     2.89289629E-01    2     1000025        12   # BR(~nu_e -> chi^0_3 nu_e)
     8.70393097E-02    2     1000035        12   # BR(~nu_e -> chi^0_4 nu_e)
     3.95575585E-02    2     1000024        11   # BR(~nu_e -> chi^+_1 e^-)
     5.70239215E-01    2     1000037        11   # BR(~nu_e -> chi^+_2 e^-)
#    BR                NDA      ID1      ID2       ID3
DECAY   1000014     1.43960614E+02   # ~nu_mu
#    BR                NDA      ID1      ID2
     1.14441549E-02    2     1000022        14   # BR(~nu_mu -> chi^0_1 nu_mu)
     2.42227735E-03    2     1000023        14   # BR(~nu_mu -> chi^0_2 nu_mu)
     2.89125841E-01    2     1000025        14   # BR(~nu_mu -> chi^0_3 nu_mu)
     8.69900313E-02    2     1000035        14   # BR(~nu_mu -> chi^0_4 nu_mu)
     4.00950788E-02    2     1000024        13   # BR(~nu_mu -> chi^+_1 mu^-)
     5.69922617E-01    2     1000037        13   # BR(~nu_mu -> chi^+_2 mu^-)
#    BR                NDA      ID1      ID2       ID3
DECAY   1000016     1.66946177E+02   # ~nu_tau
#    BR                NDA      ID1      ID2
     9.86919054E-03    2     1000022        16   # BR(~nu_tau -> chi^0_1 nu_tau)
     2.08891939E-03    2     1000023        16   # BR(~nu_tau -> chi^0_2 nu_tau)
     2.49336015E-01    2     1000025        16   # BR(~nu_tau -> chi^0_3 nu_tau)
     7.50185644E-02    2     1000035        16   # BR(~nu_tau -> chi^0_4 nu_tau)
     1.70677800E-01    2     1000024        15   # BR(~nu_tau -> chi^+_1 tau^-)
     4.93009510E-01    2     1000037        15   # BR(~nu_tau -> chi^+_2 tau^-)
#    BR                NDA      ID1      ID2       ID3
DECAY   2000001     7.38429024E+02   # ~d_R
#    BR                NDA      ID1      ID2
     7.43681878E-03    2     1000035         1   # BR(~d_R -> chi^0_4 d)
     9.92548494E-01    2     1000021         1   # BR(~d_R -> ~g d)
DECAY   1000001     8.69357732E+02   # ~d_L
#    BR                NDA      ID1      ID2
     1.68042807E-03    2     1000022         1   # BR(~d_L -> chi^0_1 d)
     3.33046583E-04    2     1000023         1   # BR(~d_L -> chi^0_2 d)
     4.88506221E-02    2     1000025         1   # BR(~d_L -> chi^0_3 d)
     1.68666881E-03    2     1000035         1   # BR(~d_L -> chi^0_4 d)
     1.13593207E-03    2    -1000024         2   # BR(~d_L -> chi^-_1 u)
     1.00783560E-01    2    -1000037         2   # BR(~d_L -> chi^-_2 u)
     8.45529742E-01    2     1000021         1   # BR(~d_L -> ~g d)
DECAY   2000003     7.38474524E+02   # ~s_R
#    BR                NDA      ID1      ID2
     7.43636394E-03    2     1000035         3   # BR(~s_R -> chi^0_4 s)
     9.92487453E-01    2     1000021         3   # BR(~s_R -> ~g s)
DECAY   1000003     8.69384207E+02   # ~s_L
#    BR                NDA      ID1      ID2
     1.69373266E-03    2     1000022         3   # BR(~s_L -> chi^0_1 s)
     3.45723784E-04    2     1000023         3   # BR(~s_L -> chi^0_2 s)
     4.88492768E-02    2     1000025         3   # BR(~s_L -> chi^0_3 s)
     1.68661975E-03    2     1000035         3   # BR(~s_L -> chi^0_4 s)
     1.13982735E-03    2    -1000024         4   # BR(~s_L -> chi^-_1 c)
     1.00780768E-01    2    -1000037         4   # BR(~s_L -> chi^-_2 c)
     8.45504051E-01    2     1000021         3   # BR(~s_L -> ~g s)
DECAY   1000005     9.15748713E+01   # ~b_1
#    BR                NDA      ID1      ID2
     9.76411257E-02    2     1000022         5   # BR(~b_1 -> chi^0_1 b)
     9.24901486E-02    2     1000023         5   # BR(~b_1 -> chi^0_2 b)
     9.25081981E-04    2     1000025         5   # BR(~b_1 -> chi^0_3 b)
     1.27145861E-02    2     1000035         5   # BR(~b_1 -> chi^0_4 b)
     1.87721746E-01    2    -1000024         6   # BR(~b_1 -> chi^-_1 t)
     1.90041219E-03    2    -1000037         6   # BR(~b_1 -> chi^-_2 t)
     6.06606899E-01    2     1000021         5   # BR(~b_1 -> ~g b)
DECAY   2000005     3.49187349E+02   # ~b_2
#    BR                NDA      ID1      ID2
     3.86669473E-02    2     1000022         5   # BR(~b_2 -> chi^0_1 b)
     3.54715689E-02    2     1000023         5   # BR(~b_2 -> chi^0_2 b)
     4.87381410E-02    2     1000025         5   # BR(~b_2 -> chi^0_3 b)
     1.52275998E-03    2     1000035         5   # BR(~b_2 -> chi^0_4 b)
     2.25541989E-01    2    -1000024         6   # BR(~b_2 -> chi^-_1 t)
     1.15327172E-01    2    -1000037         6   # BR(~b_2 -> chi^-_2 t)
     5.34638742E-01    2     1000021         5   # BR(~b_2 -> ~g b)
DECAY   2000002     7.55156593E+02   # ~u_R
#    BR                NDA      ID1      ID2
     2.90959831E-02    2     1000035         2   # BR(~u_R -> chi^0_4 u)
     9.70847222E-01    2     1000021         2   # BR(~u_R -> ~g u)
DECAY   1000002     8.69347054E+02   # ~u_L
#    BR                NDA      ID1      ID2
     1.46182562E-03    2     1000022         2   # BR(~u_L -> chi^0_1 u)
     2.67934147E-04    2     1000023         2   # BR(~u_L -> chi^0_2 u)
     4.93388843E-02    2     1000025         2   # BR(~u_L -> chi^0_3 u)
     1.48322645E-03    2     1000035         2   # BR(~u_L -> chi^0_4 u)
     6.61253456E-03    2     1000024         1   # BR(~u_L -> chi^+_1 d)
     9.53306852E-02    2     1000037         1   # BR(~u_L -> chi^+_2 d)
     8.45504910E-01    2     1000021         2   # BR(~u_L -> ~g u)
DECAY   2000004     7.55163876E+02   # ~c_R
#    BR                NDA      ID1      ID2
     2.90957116E-02    2     1000035         4   # BR(~c_R -> chi^0_4 c)
     9.70837852E-01    2     1000021         4   # BR(~c_R -> ~g c)
DECAY   1000004     8.69373507E+02   # ~c_L
#    BR                NDA      ID1      ID2
     1.46370579E-03    2     1000022         4   # BR(~c_L -> chi^0_1 c)
     2.70064479E-04    2     1000023         4   # BR(~c_L -> chi^0_2 c)
     4.93375166E-02    2     1000025         4   # BR(~c_L -> chi^0_3 c)
     1.48318849E-03    2     1000035         4   # BR(~c_L -> chi^0_4 c)
     6.63822775E-03    2     1000024         3   # BR(~c_L -> chi^+_1 s)
     9.53280809E-02    2     1000037         3   # BR(~c_L -> chi^+_2 s)
     8.45479216E-01    2     1000021         4   # BR(~c_L -> ~g c)
DECAY   1000006     3.98659398E+02   # ~t_1
#    BR                NDA      ID1      ID2
     3.01029192E-04    2     1000022         4   # BR(~t_1 -> chi^0_1 c)
     1.05180901E-01    2     1000022         6   # BR(~t_1 -> chi^0_1 t)
     1.09922555E-01    2     1000023         6   # BR(~t_1 -> chi^0_2 t)
     2.95612596E-02    2     1000025         6   # BR(~t_1 -> chi^0_3 t)
     3.19270408E-03    2     1000035         6   # BR(~t_1 -> chi^0_4 t)
     1.13985659E-01    2     1000024         5   # BR(~t_1 -> chi^+_1 b)
     4.63373539E-02    2     1000037         5   # BR(~t_1 -> chi^+_2 b)
     1.06742741E-01    2     1000021         4   # BR(~t_1 -> ~g c)
     4.70528276E-01    2     1000021         6   # BR(~t_1 -> ~g t)
#    BR                NDA      ID1      ID2       ID3
     1.41522052E-02    3     1000022        24         5   # BR(~t_1 -> chi^0_1 W^+ b)
DECAY   2000006     4.11604340E+02   # ~t_2
#    BR                NDA      ID1      ID2
     8.96390319E-02    2     1000022         6   # BR(~t_2 -> chi^0_1 t)
     1.05459186E-01    2     1000023         6   # BR(~t_2 -> chi^0_2 t)
     2.64270422E-02    2     1000025         6   # BR(~t_2 -> chi^0_3 t)
     1.93318941E-02    2     1000035         6   # BR(~t_2 -> chi^0_4 t)
     1.54526387E-01    2     1000024         5   # BR(~t_2 -> chi^+_1 b)
     5.10442103E-02    2     1000037         5   # BR(~t_2 -> chi^+_2 b)
     4.93917376E-01    2     1000021         6   # BR(~t_2 -> ~g t)
     2.49068706E-02    2     2000005        24   # BR(~t_2 -> ~b_2 W^+)
     1.89587443E-02    2     1000006        23   # BR(~t_2 -> ~t_1 Z)
     1.57753767E-02    2     1000006        25   # BR(~t_2 -> ~t_1 h^0)
DECAY   1000024     4.88131783E-09   # chi^+_1
#    BR                NDA      ID1      ID2       ID3
     3.83181762E-01    3     1000022        -1         2   # BR(chi^+_1 -> chi^0_1 d_bar u)
     2.88161931E-01    3     1000022        -3         4   # BR(chi^+_1 -> chi^0_1 s_bar c)
     1.27727299E-01    3     1000022       -11        12   # BR(chi^+_1 -> chi^0_1 e^+ nu_e)
     1.27466789E-01    3     1000022       -13        14   # BR(chi^+_1 -> chi^0_1 mu^+ nu_mu)
     7.34622197E-02    3     1000022       -15        16   # BR(chi^+_1 -> chi^0_1 tau^+ nu_tau)
DECAY   1000037     4.31461466E+00   # chi^+_2
#    BR                NDA      ID1      ID2
     2.48319008E-01    2     1000022        24   # BR(chi^+_2 -> chi^0_1 W^+)
     2.87710378E-01    2     1000023        24   # BR(chi^+_2 -> chi^0_2 W^+)
     2.50335931E-01    2     1000024        23   # BR(chi^+_2 -> chi^+_1 Z)
     2.12446981E-01    2     1000024        25   # BR(chi^+_2 -> chi^+_1 h^0)
#    BR                NDA      ID1      ID2       ID3
     6.27138620E-04    3     1000022        -5         6   # BR(chi^+_2 -> chi^0_1 b_bar t)
     5.60460977E-04    3     1000023        -5         6   # BR(chi^+_2 -> chi^0_2 b_bar t)
DECAY   1000022     0.00000000E+00   # chi^0_1
DECAY   1000023     5.28677604E-06   # chi^0_2
#    BR                NDA      ID1      ID2
     1.09358946E-01    2     1000022        22   # BR(chi^0_2 -> chi^0_1 photon)
#    BR                NDA      ID1      ID2       ID3
     8.32420952E-02    3     1000022         2        -2   # BR(chi^0_2 -> chi^0_1 u u_bar)
     7.69364671E-02    3     1000022         4        -4   # BR(chi^0_2 -> chi^0_1 c c_bar)
     1.06732624E-01    3     1000022         1        -1   # BR(chi^0_2 -> chi^0_1 d d_bar)
     1.06691808E-01    3     1000022         3        -3   # BR(chi^0_2 -> chi^0_1 s s_bar)
     4.89034777E-02    3     1000022         5        -5   # BR(chi^0_2 -> chi^0_1 b b_bar)
     2.40865355E-02    3     1000022        11       -11   # BR(chi^0_2 -> chi^0_1 e^- e^+)
     2.40720084E-02    3     1000022        13       -13   # BR(chi^0_2 -> chi^0_1 mu^- mu^+)
     2.03453246E-02    3     1000022        15       -15   # BR(chi^0_2 -> chi^0_1 tau^- tau^+)
     1.42732772E-01    3     1000022        12       -12   # BR(chi^0_2 -> chi^0_1 nu_e nu_bar_e)
     4.42646878E-02    3     1000024         1        -2   # BR(chi^0_2 -> chi^+_1 d u_bar)
     4.42646878E-02    3    -1000024        -1         2   # BR(chi^0_2 -> chi^-_1 d_bar u)
     4.15944824E-02    3     1000024         3        -4   # BR(chi^0_2 -> chi^+_1 s c_bar)
     4.15944824E-02    3    -1000024        -3         4   # BR(chi^0_2 -> chi^-_1 s_bar c)
     1.47549018E-02    3     1000024        11       -12   # BR(chi^0_2 -> chi^+_1 e^- nu_bar_e)
     1.47549018E-02    3    -1000024       -11        12   # BR(chi^0_2 -> chi^-_1 e^+ nu_e)
     1.47484822E-02    3     1000024        13       -14   # BR(chi^0_2 -> chi^+_1 mu^- nu_bar_mu)
     1.47484822E-02    3    -1000024       -13        14   # BR(chi^0_2 -> chi^-_1 mu^+ nu_mu)
     1.30864173E-02    3     1000024        15       -16   # BR(chi^0_2 -> chi^+_1 tau^- nu_bar_tau)
     1.30864173E-02    3    -1000024       -15        16   # BR(chi^0_2 -> chi^-_1 tau^+ nu_tau)
DECAY   1000025     5.04013129E+00   # chi^0_3
#    BR                NDA      ID1      ID2
     2.37476803E-01    2     1000024       -24   # BR(chi^0_3 -> chi^+_1 W^-)
     2.37476803E-01    2    -1000024        24   # BR(chi^0_3 -> chi^-_1 W^+)
     3.20782701E-02    2     1000022        23   # BR(chi^0_3 -> chi^0_1 Z)
     2.06817933E-01    2     1000023        23   # BR(chi^0_3 -> chi^0_2 Z)
     1.38702869E-01    2     1000022        25   # BR(chi^0_3 -> chi^0_1 h^0)
     1.46298535E-01    2     1000023        25   # BR(chi^0_3 -> chi^0_2 h^0)
#    BR                NDA      ID1      ID2       ID3
     5.64187443E-04    3     1000024         5        -6   # BR(chi^0_3 -> chi^+_1 b t_bar)
     5.64187443E-04    3    -1000024        -5         6   # BR(chi^0_3 -> chi^-_1 b_bar t)
DECAY   1000035     3.23432286E+00   # chi^0_4
#    BR                NDA      ID1      ID2
     2.01619679E-01    2     1000024       -24   # BR(chi^0_4 -> chi^+_1 W^-)
     2.01619679E-01    2    -1000024        24   # BR(chi^0_4 -> chi^-_1 W^+)
     2.66796103E-02    2     1000037       -24   # BR(chi^0_4 -> chi^+_2 W^-)
     2.66796103E-02    2    -1000037        24   # BR(chi^0_4 -> chi^-_2 W^+)
     6.30105424E-02    2     1000022        23   # BR(chi^0_4 -> chi^0_1 Z)
     1.70878837E-01    2     1000023        23   # BR(chi^0_4 -> chi^0_2 Z)
     3.02493884E-03    2     1000025        23   # BR(chi^0_4 -> chi^0_3 Z)
     1.33652420E-01    2     1000022        25   # BR(chi^0_4 -> chi^0_1 h^0)
     1.37774766E-01    2     1000023        25   # BR(chi^0_4 -> chi^0_2 h^0)
     2.31556693E-02    2     1000025        25   # BR(chi^0_4 -> chi^0_3 h^0)
#    BR                NDA      ID1      ID2       ID3
     1.78043577E-03    3     1000022         6        -6   # BR(chi^0_4 -> chi^0_1 t t_bar)
     1.87752289E-03    3     1000023         6        -6   # BR(chi^0_4 -> chi^0_2 t t_bar)
     3.75911615E-03    3     1000024         5        -6   # BR(chi^0_4 -> chi^+_1 b t_bar)
     3.75911615E-03    3    -1000024        -5         6   # BR(chi^0_4 -> chi^-_1 b_bar t)
     3.24645775E-04    3     1000037         5        -6   # BR(chi^0_4 -> chi^+_2 b t_bar)
     3.24645775E-04    3    -1000037        -5         6   # BR(chi^0_4 -> chi^-_2 b_bar t)
DECAY   1000021     2.55614307E-02   # ~g
#    BR                NDA      ID1      ID2
     3.03965593E-03    2     1000022        21   # BR(~g -> chi^0_1 g)
     4.19652289E-03    2     1000023        21   # BR(~g -> chi^0_2 g)
     1.60333448E-04    2     1000025        21   # BR(~g -> chi^0_3 g)
#    BR                NDA      ID1      ID2       ID3
     9.20161167E-02    3     1000022         6        -6   # BR(~g -> chi^0_1 t t_bar)
     1.24608504E-01    3     1000022         5        -5   # BR(~g -> chi^0_1 b b_bar)
     1.02788166E-01    3     1000023         6        -6   # BR(~g -> chi^0_2 t t_bar)
     1.16771189E-01    3     1000023         5        -5   # BR(~g -> chi^0_2 b b_bar)
     3.75344276E-04    3     1000025         2        -2   # BR(~g -> chi^0_3 u u_bar)
     3.75346388E-04    3     1000025         4        -4   # BR(~g -> chi^0_3 c c_bar)
     2.23071131E-02    3     1000025         6        -6   # BR(~g -> chi^0_3 t t_bar)
     3.71539429E-04    3     1000025         1        -1   # BR(~g -> chi^0_3 d d_bar)
     3.71541719E-04    3     1000025         3        -3   # BR(~g -> chi^0_3 s s_bar)
     1.71726536E-02    3     1000025         5        -5   # BR(~g -> chi^0_3 b b_bar)
     1.23645288E-03    3     1000035         6        -6   # BR(~g -> chi^0_4 t t_bar)
     3.33116977E-03    3     1000035         5        -5   # BR(~g -> chi^0_4 b b_bar)
     2.13501314E-01    3     1000024         5        -6   # BR(~g -> chi^+_1 b t_bar)
     2.13501314E-01    3    -1000024        -5         6   # BR(~g -> chi^-_1 b_bar t)
     7.46264744E-04    3     1000037         1        -2   # BR(~g -> chi^+_2 d u_bar)
     7.46264744E-04    3    -1000037        -1         2   # BR(~g -> chi^-_2 d_bar u)
     7.46269335E-04    3     1000037         3        -4   # BR(~g -> chi^+_2 s c_bar)
     7.46269335E-04    3    -1000037        -3         4   # BR(~g -> chi^-_2 s_bar c)
     4.02744694E-02    3     1000037         5        -6   # BR(~g -> chi^+_2 b t_bar)
     4.02744694E-02    3    -1000037        -5         6   # BR(~g -> chi^-_2 b_bar t)
DECAY        25     4.39287066E-03   # Gamma(h0)
     2.33570616E-03   2        22        22   # BR(h0 -> photon photon)
     1.78263248E-03   2        22        23   # BR(h0 -> photon Z)
     3.71462981E-02   2        23        23   # BR(h0 -> Z Z)
     2.87557403E-01   2       -24        24   # BR(h0 -> W W)
     6.93922567E-02   2        21        21   # BR(h0 -> gluon gluon)
     4.65206109E-09   2       -11        11   # BR(h0 -> Electron electron)
     2.06933715E-04   2       -13        13   # BR(h0 -> Muon muon)
     5.96705063E-02   2       -15        15   # BR(h0 -> Tau tau)
     1.31545887E-07   2        -2         2   # BR(h0 -> Up up)
     2.55287808E-02   2        -4         4   # BR(h0 -> Charm charm)
     5.35901588E-07   2        -1         1   # BR(h0 -> Down down)
     1.93823663E-04   2        -3         3   # BR(h0 -> Strange strange)
     5.16184987E-01   2        -5         5   # BR(h0 -> Bottom bottom)
DECAY        35     1.04117178E+02   # Gamma(HH)
     1.33527011E-08   2        22        22   # BR(HH -> photon photon)
     4.40375585E-08   2        22        23   # BR(HH -> photon Z)
     2.46094227E-07   2        23        23   # BR(HH -> Z Z)
     5.66924644E-08   2       -24        24   # BR(HH -> W W)
     3.06621628E-06   2        21        21   # BR(HH -> gluon gluon)
     6.70111281E-09   2       -11        11   # BR(HH -> Electron electron)
     2.98386602E-04   2       -13        13   # BR(HH -> Muon muon)
     8.61806264E-02   2       -15        15   # BR(HH -> Tau tau)
     8.24081079E-14   2        -2         2   # BR(HH -> Up up)
     1.59871814E-08   2        -4         4   # BR(HH -> Charm charm)
     1.18067024E-03   2        -6         6   # BR(HH -> Top top)
     4.79394716E-07   2        -1         1   # BR(HH -> Down down)
     1.73400931E-04   2        -3         3   # BR(HH -> Strange strange)
     4.55313358E-01   2        -5         5   # BR(HH -> Bottom bottom)
     2.08128399E-02   2  -1000024   1000024   # BR(HH -> Chargino1 chargino1)
     1.29064472E-01   2  -1000024   1000037   # BR(HH -> Chargino1 chargino2)
     1.29064472E-01   2  -1000037   1000024   # BR(HH -> Chargino2 chargino1)
     2.59733334E-03   2  -1000037   1000037   # BR(HH -> Chargino2 chargino2)
     5.84231408E-03   2   1000022   1000022   # BR(HH -> neutralino1 neutralino1)
     9.12992965E-04   2   1000022   1000023   # BR(HH -> neutralino1 neutralino2)
     6.06485460E-02   2   1000022   1000025   # BR(HH -> neutralino1 neutralino3)
     1.64544091E-02   2   1000022   1000035   # BR(HH -> neutralino1 neutralino4)
     1.35577690E-03   2   1000023   1000023   # BR(HH -> neutralino2 neutralino2)
     6.99060777E-02   2   1000023   1000025   # BR(HH -> neutralino2 neutralino3)
     1.86817959E-02   2   1000023   1000035   # BR(HH -> neutralino2 neutralino4)
     1.28342700E-03   2   1000025   1000025   # BR(HH -> neutralino3 neutralino3)
     2.21708500E-04   2   1000025   1000035   # BR(HH -> neutralino3 neutralino4)
     2.14684727E-06   2   1000035   1000035   # BR(HH -> neutralino4 neutralino4)
     1.31600966E-06   2        25        25   # BR(HH -> h0 h0)
DECAY        36     1.00725506E+02   # Gamma(A0)
     5.55918125E-08   2        22        22   # BR(A0 -> photon photon)
     8.97791818E-08   2        22        23   # BR(A0 -> photon Z)
     7.70600891E-06   2        21        21   # BR(A0 -> gluon gluon)
     6.51055771E-09   2       -11        11   # BR(A0 -> Electron electron)
     2.89902162E-04   2       -13        13   # BR(A0 -> Muon muon)
     8.37302212E-02   2       -15        15   # BR(A0 -> Tau tau)
     7.50857870E-14   2        -2         2   # BR(A0 -> Up up)
     1.45660668E-08   2        -4         4   # BR(A0 -> Charm charm)
     1.08468799E-03   2        -6         6   # BR(A0 -> Top top)
     4.65747610E-07   2        -1         1   # BR(A0 -> Down down)
     1.68465123E-04   2        -3         3   # BR(A0 -> Strange strange)
     4.42357882E-01   2        -5         5   # BR(A0 -> Bottom bottom)
     2.27474133E-02   2  -1000024   1000024   # BR(A0 -> Chargino1 chargino1)
     1.32236987E-01   2  -1000024   1000037   # BR(A0 -> Chargino1 chargino2)
     1.32236987E-01   2  -1000037   1000024   # BR(A0 -> Chargino2 chargino1)
     3.87608551E-03   2  -1000037   1000037   # BR(A0 -> Chargino2 chargino2)
     6.79890522E-03   2   1000022   1000022   # BR(A0 -> neutralino1 neutralino1)
     6.67859612E-04   2   1000022   1000023   # BR(A0 -> neutralino1 neutralino2)
     7.14533688E-02   2   1000022   1000025   # BR(A0 -> neutralino1 neutralino3)
     2.01427973E-02   2   1000022   1000035   # BR(A0 -> neutralino1 neutralino4)
     1.25701548E-03   2   1000023   1000023   # BR(A0 -> neutralino2 neutralino2)
     6.26239373E-02   2   1000023   1000025   # BR(A0 -> neutralino2 neutralino3)
     1.60362074E-02   2   1000023   1000035   # BR(A0 -> neutralino2 neutralino4)
     1.89555300E-03   2   1000025   1000025   # BR(A0 -> neutralino3 neutralino3)
     3.80726759E-04   2   1000025   1000035   # BR(A0 -> neutralino3 neutralino4)
     6.16171689E-06   2   1000035   1000035   # BR(A0 -> neutralino4 neutralino4)
     4.97145497E-07   2        23        25   # BR(A0 -> Z h0)
     5.09038960E-40   2        25        25   # BR(A0 -> h0 h0)
DECAY        37     1.03535370E+02   # Gamma(Hp)
     7.03126782E-09   2       -11        12   # BR(Hp -> Electron nu_e)
     3.00608660E-04   2       -13        14   # BR(Hp -> Muon nu_mu)
     8.50292438E-02   2       -15        16   # BR(Hp -> Tau nu_tau)
     4.37081721E-07   2        -1         2   # BR(Hp -> Down up)
     7.39590389E-06   2        -3         2   # BR(Hp -> Strange up)
     4.80322451E-06   2        -5         2   # BR(Hp -> Bottom up)
     2.11583858E-08   2        -1         4   # BR(Hp -> Down charm)
     1.57540279E-04   2        -3         4   # BR(Hp -> Strange charm)
     6.72623389E-04   2        -5         4   # BR(Hp -> Bottom charm)
     7.64700408E-08   2        -1         6   # BR(Hp -> Down top)
     1.90164479E-06   2        -3         6   # BR(Hp -> Strange top)
     4.54616728E-01   2        -5         6   # BR(Hp -> Bottom top)
     4.53740109E-04   2   1000022   1000024   # BR(Hp -> neutralino1 chargino1)
     1.48502310E-01   2   1000022   1000037   # BR(Hp -> neutralino1 chargino2)
     4.74535811E-03   2   1000023   1000024   # BR(Hp -> neutralino2 chargino1)
     1.32167167E-01   2   1000023   1000037   # BR(Hp -> neutralino2 chargino2)
     1.39124346E-01   2   1000024   1000025   # BR(Hp -> chargino1 neutralino3)
     2.16207761E-07   2   1000025   1000037   # BR(Hp -> neutralino3 chargino2)
     3.36180658E-02   2   1000024   1000035   # BR(Hp -> chargino1 neutralino4)
     5.96926451E-04   2   1000035   1000037   # BR(Hp -> neutralino4 chargino2)
     4.84034834E-07   2        24        25   # BR(Hp -> W h0)
     6.92370529E-14   2        24        35   # BR(Hp -> W HH)
DECAY         6     2.43000000E+00   # top
#    BR                NDA      ID1      ID2
     1.00000000E+00    2           5        24   # BR(t -> b W)
Block HiggsBoundsInputHiggsCouplingsFermions
# ScalarNormEffCoupSq PseudoSNormEffCoupSq NP IP1 IP2 IP2
    9.38103523E-01    0.00000000E+00        3  25   5   5  # h0-b-b eff. coupling^2, normalised to SM
    1.10637661E+03    0.00000000E+00        3  35   5   5  # H0-b-b eff. coupling^2, normalised to SM
    0.00000000E+00    1.10631472E+03        3  36   5   5  # A0-b-b eff. coupling^2, normalised to SM
#
    1.00005595E+00    0.00000000E+00        3  25   6   6  # h0-t-t eff. coupling^2, normalised to SM
    8.47953579E-04    0.00000000E+00        3  35   6   6  # H0-t-t eff. coupling^2, normalised to SM
    0.00000000E+00    9.03901923E-04        3  36   6   6  # A0-t-t eff. coupling^2, normalised to SM
#
    9.38103523E-01    0.00000000E+00        3  25  15  15  # h0-tau-tau eff. coupling^2, normalised to SM
    1.10637661E+03    0.00000000E+00        3  35  15  15  # H0-tau-tau eff. coupling^2, normalised to SM
    0.00000000E+00    1.10631472E+03        3  36  15  15  # A0-tau-tau eff. coupling^2, normalised to SM
#
Block HiggsBoundsInputHiggsCouplingsBosons
    9.99999106E-01        3  25  24  24  # h0-W-W eff. coupling^2, normalised to SM
    8.93603056E-07        3  35  24  24  # H0-W-W eff. coupling^2, normalised to SM
    0.00000000E+00        3  36  24  24  # A0-W-W eff. coupling^2, normalised to SM
#
    9.99999106E-01        3  25  23  23  # h0-Z-Z eff. coupling^2, normalised to SM
    8.93603056E-07        3  35  23  23  # H0-Z-Z eff. coupling^2, normalised to SM
    0.00000000E+00        3  36  23  23  # A0-Z-Z eff. coupling^2, normalised to SM
#
    1.26732729E+00        3  25  21  21  # h0-g-g eff. coupling^2, normalised to SM
    3.57884497E-03        3  35  21  21  # H0-g-g eff. coupling^2, normalised to SM
    1.06660264E-01        3  36  21  21  # A0-g-g eff. coupling^2, normalised to SM
#
    0.00000000E+00        3  25  25  23  # h0-h0-Z eff. coupling^2, normalised to SM
    0.00000000E+00        3  35  25  23  # H0-h0-Z eff. coupling^2, normalised to SM
    8.93603056E-07        3  36  25  23  # A0-h0-Z eff. coupling^2, normalised to SM
    0.00000000E+00        3  35  35  23  # H0-H0-Z eff. coupling^2, normalised to SM
    9.99999106E-01        3  36  35  23  # A0-H0-Z eff. coupling^2, normalised to SM
    0.00000000E+00        3  36  36  23  # A0-A0-Z eff. coupling^2, normalised to SM
#
    0.00000000E+00        4  25  21  21  23  # h0-g-g-Z eff. coupling^2, normalised to SM
    0.00000000E+00        4  35  21  21  23  # H0-g-g-Z eff. coupling^2, normalised to SM
    0.00000000E+00        4  36  21  21  23  # A0-g-g-Z eff. coupling^2, normalised to SM
Block SPhenoLowEnergy  # low energy observables
    1    3.12212647E-04   # BR(b -> s gamma)
    2    1.59189174E-06   # BR(b -> s mu+ mu-)
    3    3.52621435E-05   # BR(b -> s nu nu)
    4    3.15858963E-15   # BR(Bd -> e+ e-)
    5    1.34930467E-10   # BR(Bd -> mu+ mu-)
    6    2.81941322E-08   # BR(Bd -> tau+ tau-)
    7    1.05662096E-13   # BR(Bs -> e+ e-)
    8    4.51385256E-09   # BR(Bs -> mu+ mu-)
    9    9.55727425E-07   # BR(Bs -> tau+ tau-)
   10    9.63247444E-05   # BR(B_u -> tau nu)
   11    9.94997732E-01   # BR(B_u -> tau nu)/BR(B_u -> tau nu)_SM
   12    5.41907651E-01   # |Delta(M_Bd)| [ps^-1] 
   13    1.93591343E+01   # |Delta(M_Bs)| [ps^-1] 
   14    0.00000000E+00   # neutron EDM according to the chiral quark model
   15    0.00000000E+00   # neutron EDM according to the relativistic quark-parton model
   16    2.15704628E-03   # epsilon_K
   17    2.28165590E-15   # Delta(M_K)
   18    2.48061056E-11   # BR(K^0 -> pi^0 nu nu)
   19    8.29192701E-11   # BR(K^+ -> pi^+ nu nu)
   20    2.08155530E-16   # Delta(g-2)_electron/2
   21    8.89935084E-12   # Delta(g-2)_muon/2
   22    2.52116210E-09   # Delta(g-2)_tau/2
   23    0.00000000E+00   # electric dipole moment of the electron
   24    0.00000000E+00   # electric dipole moment of the muon
   25    0.00000000E+00   # electric dipole moment of the tau
   26    0.00000000E+00   # Br(mu -> e gamma)
   27    0.00000000E+00   # Br(tau -> e gamma)
   28    0.00000000E+00   # Br(tau -> mu gamma)
   29    0.00000000E+00   # Br(mu -> 3 e)
   30    0.00000000E+00   # Br(tau -> 3 e)
   31    0.00000000E+00   # Br(tau -> 3 mu)
   39    6.27242004E-05   # Delta(rho_parameter)
   40    0.00000000E+00   # BR(Z -> e mu)
   41    0.00000000E+00   # BR(Z -> e tau)
   42    0.00000000E+00   # BR(Z -> mu tau)
Block FWCOEF Q=  1.60000000E+02  # Wilson coefficients at scale Q
#    id        order  M        value         comment
     0305 4422   00   0    -1.88819110E-01   # C7
     0305 4422   00   2    -1.77653815E-01   # C7
     0305 4322   00   2     1.87641275E-05   # C7'
     0305 6421   00   0    -9.52278348E-02   # C8
     0305 6421   00   2    -9.60401824E-02   # C8
     0305 6321   00   2    -1.20413208E-04   # C8'
 03051111 4133   00   0     1.62876235E+00   # C9 e+e-
 03051111 4133   00   2     1.62908144E+00   # C9 e+e-
 03051111 4233   00   2     3.60759176E-04   # C9' e+e-
 03051111 4137   00   0    -4.45145446E+00   # C10 e+e-
 03051111 4137   00   2    -4.45081934E+00   # C10 e+e-
 03051111 4237   00   2    -2.66071758E-03   # C10' e+e-
 03051313 4133   00   0     1.62876235E+00   # C9 mu+mu-
 03051313 4133   00   2     1.62908131E+00   # C9 mu+mu-
 03051313 4233   00   2     3.60759039E-04   # C9' mu+mu-
 03051313 4137   00   0    -4.45145446E+00   # C10 mu+mu-
 03051313 4137   00   2    -4.45081946E+00   # C10 mu+mu-
 03051313 4237   00   2    -2.66071769E-03   # C10' mu+mu-
 03051212 4137   00   0     1.50535012E+00   # C11 nu_1 nu_1
 03051212 4137   00   2     1.50521510E+00   # C11 nu_1 nu_1
 03051212 4237   00   2     5.75078579E-04   # C11' nu_1 nu_1
 03051414 4137   00   0     1.50535012E+00   # C11 nu_2 nu_2
 03051414 4137   00   2     1.50521510E+00   # C11 nu_2 nu_2
 03051414 4237   00   2     5.75078596E-04   # C11' nu_2 nu_2
 03051616 4137   00   0     1.50535012E+00   # C11 nu_3 nu_3
 03051616 4137   00   2     1.50521510E+00   # C11 nu_3 nu_3
 03051616 4237   00   2     5.75083210E-04   # C11' nu_3 nu_3
Block IMFWCOEF Q=  1.60000000E+02  # Im(Wilson coefficients) at scale Q
#    id        order  M        value         comment
     0305 4422   00   0     3.85827913E-07   # C7
     0305 4422   00   2     1.93665187E-05   # C7
     0305 4322   00   2     2.02105793E-06   # C7'
     0305 6421   00   0     3.30487124E-07   # C8
     0305 6421   00   2    -4.96815005E-05   # C8
     0305 6321   00   2     5.69217871E-08   # C8'
 03051111 4133   00   2     7.17604995E-07   # C9 e+e-
 03051111 4233   00   2     6.82569071E-06   # C9' e+e-
 03051111 4137   00   2     2.56816785E-06   # C10 e+e-
 03051111 4237   00   2    -5.03444927E-05   # C10' e+e-
 03051313 4133   00   2     7.17600781E-07   # C9 mu+mu-
 03051313 4233   00   2     6.82568962E-06   # C9' mu+mu-
 03051313 4137   00   2     2.56817203E-06   # C10 mu+mu-
 03051313 4237   00   2    -5.03444960E-05   # C10' mu+mu-
 03051212 4137   00   2    -5.14946046E-07   # C11 nu_1 nu_1
 03051212 4237   00   2     1.08812907E-05   # C11' nu_1 nu_1
 03051414 4137   00   2    -5.14945845E-07   # C11 nu_2 nu_2
 03051414 4237   00   2     1.08812907E-05   # C11' nu_2 nu_2
 03051616 4137   00   2    -5.14889916E-07   # C11 nu_3 nu_3
 03051616 4237   00   2     1.08812907E-05   # C11' nu_3 nu_3
