# SUSY Les Houches Accord 2 - MSSM spectrum + Decays
# SPheno v4.0.5be
# W. Porod, Comput. Phys. Commun. 153 (2003) 275-315, hep-ph/0301101;
# W. Porod, F.~Staub, Comput. Phys. Commun. 183 (2012) 2458
#                     arXiv:1104.1573 [hep-ph] 
# in case of problems send email to porod@physik.uni-wuerzburg.de
# Created: 07.09.2021,  19:01
Block SPINFO         # Program information
     1   SPheno      # spectrum calculator
     2   v4.0.5be    # version number
#
Block SPhenoINFO     # SPheno specific information
    1      2         # using 2-loop RGEs
    2      2         # using pole masses for boundary conditions at mZ
Block MODSEL  # Model selection
    1    0    # general MSSM
Block MINPAR  # Input parameters
    3    1.45155946E+01  # tanb at m_Z    
    4   -1.00000000E+00  # Sign(mu)
Block EXTPAR  # non-universal input parameters
    0    2.29247687E+03  # scale for input parameters
    1   -2.02292298E+02  # M_1
    2   -1.25118391E+03  # M_2
    3    2.27520320E+03  # M_3
   11    2.91277210E+03  # A_t
   12   -1.43169096E+03  # A_b
   13   -1.01814963E+03  # A_tau
   23   -2.27648444E+02  # mu
   25    1.38861147E+01  # tan(beta)
   26    2.19550162E+03  # m_A, pole mass
   31    1.00000000E+04  # M_L11
   32    1.00000000E+04  # M_L22
   33    1.00000000E+04  # M_L33
   34    1.00000000E+04  # M_E11
   35    1.00000000E+04  # M_E22
   36    1.00000000E+04  # M_E33
   41    1.00000000E+04  # M_Q11
   42    1.00000000E+04  # M_Q22
   43    2.26299101E+03  # M_Q33
   44    1.00000000E+04  # M_U11
   45    1.00000000E+04  # M_U22
   46    2.24362568E+03  # M_U33
   47    1.00000000E+04  # M_D11
   48    1.00000000E+04  # M_D22
   49    2.98774602E+03  # M_D33
Block SMINPUTS  # SM parameters
         1     1.27908970E+02  # alpha_em^-1(MZ)^MSbar
         2     1.16637870E-05  # G_mu [GeV^-2]
         3     1.18400000E-01  # alpha_s(MZ)^MSbar
         4     9.11876000E+01  # m_Z(pole)
         5     4.18000000E+00  # m_b(m_b), MSbar
         6     1.73200000E+02  # m_t(pole)
         7     1.77700000E+00  # m_tau(pole)
         8     0.00000000E+00  # m_nu_3
        11     5.10998930E-04  # m_e(pole)
        12     0.00000000E+00  # m_nu_1
        13     1.05658372E-01  # m_muon(pole)
        14     0.00000000E+00  # m_nu_2
        21     5.00000000E-03  # m_d(2 GeV), MSbar
        22     2.50000000E-03  # m_u(2 GeV), MSbar
        23     9.50000000E-02  # m_s(2 GeV), MSbar
        24     1.27000000E+00  # m_c(m_c), MSbar
Block gauge Q=  2.29247687E+03  # (SUSY scale)
   1    3.55362975E-01  # g'(Q)^DRbar
   2    6.65198874E-01  # g(Q)^DRbar
   3    1.21977796E+00  # g3(Q)^DRbar
Block Yu Q=  2.29247687E+03  # (SUSY scale)
  1  1     8.40608500E-06   # Y_u(Q)^DRbar
  2  2     4.27029118E-03   # Y_c(Q)^DRbar
  3  3     1.01552259E+00   # Y_t(Q)^DRbar
Block Yd Q=  2.29247687E+03  # (SUSY scale)
  1  1     2.34560443E-04   # Y_d(Q)^DRbar
  2  2     4.45664841E-03   # Y_s(Q)^DRbar
  3  3     2.32610459E-01   # Y_b(Q)^DRbar
Block Ye Q=  2.29247687E+03  # (SUSY scale)
  1  1     4.09325125E-05   # Y_e(Q)^DRbar
  2  2     8.46354538E-03   # Y_mu(Q)^DRbar
  3  3     1.42342910E-01   # Y_tau(Q)^DRbar
Block Au Q=  2.29247687E+03  # (SUSY scale)
  1  1     0.00000000E+00   # A_u(Q)^DRbar
  2  2     0.00000000E+00   # A_c(Q)^DRbar
  3  3     2.91277211E+03   # A_t(Q)^DRbar
Block Ad Q=  2.29247687E+03  # (SUSY scale)
  1  1     0.00000000E+00   # A_d(Q)^DRbar
  2  2     0.00000000E+00   # A_s(Q)^DRbar
  3  3    -1.43169095E+03   # A_b(Q)^DRbar
Block Ae Q=  2.29247687E+03  # (SUSY scale)
  1  1     0.00000000E+00   # A_e(Q)^DRbar
  2  2     0.00000000E+00   # A_mu(Q)^DRbar
  3  3    -1.01814962E+03   # A_tau(Q)^DRbar
Block MSOFT Q=  2.29247687E+03  # soft SUSY breaking masses at Q
   1   -2.02292298E+02  # M_1
   2   -1.25118391E+03  # M_2
   3    2.27520320E+03  # M_3
  21    4.68025825E+06  # M^2_(H,d)
  22    7.01928478E+04  # M^2_(H,u)
  31    1.00000000E+04  # M_(L,11)
  32    1.00000000E+04  # M_(L,22)
  33    1.00000000E+04  # M_(L,33)
  34    1.00000000E+04  # M_(E,11)
  35    1.00000000E+04  # M_(E,22)
  36    1.00000000E+04  # M_(E,33)
  41    1.00000000E+04  # M_(Q,11)
  42    1.00000000E+04  # M_(Q,22)
  43    2.26299101E+03  # M_(Q,33)
  44    1.00000000E+04  # M_(U,11)
  45    1.00000000E+04  # M_(U,22)
  46    2.24362568E+03  # M_(U,33)
  47    1.00000000E+04  # M_(D,11)
  48    1.00000000E+04  # M_(D,22)
  49    2.98774602E+03  # M_(D,33)
Block MASS  # Mass spectrum
#   PDG code      mass          particle
         6     1.73200000E+02  # m_t(pole)
        23     9.11876000E+01  # m_Z(pole)
        24     8.04299946E+01  # W+
        15     1.77700000E+00  # m_tau(pole)
        25     1.22927015E+02  # h0
        35     2.19536845E+03  # H0
        36     2.19550162E+03  # A0
        37     2.19809776E+03  # H+
   1000001     1.01061773E+04  # ~d_L
   2000001     1.00824819E+04  # ~d_R
   1000002     1.01058140E+04  # ~u_L
   2000002     1.00857145E+04  # ~u_R
   1000003     1.01061800E+04  # ~s_L
   2000003     1.00824846E+04  # ~s_R
   1000004     1.01058167E+04  # ~c_L
   2000004     1.00857171E+04  # ~c_R
   1000005     2.32128287E+03  # ~b_1
   2000005     3.04633456E+03  # ~b_2
   1000006     2.20571493E+03  # ~t_1
   2000006     2.38265159E+03  # ~t_2
   1000011     1.00201538E+04  # ~e_L-
   2000011     1.00087562E+04  # ~e_R-
   1000012     1.00193937E+04  # ~nu_eL
   1000013     1.00201607E+04  # ~mu_L-
   2000013     1.00087696E+04  # ~mu_R-
   1000014     1.00194005E+04  # ~nu_muL
   1000015     1.00125643E+04  # ~tau_1-
   2000015     1.00221106E+04  # ~tau_2-
   1000016     1.00213447E+04  # ~nu_tauL
   1000021     2.64140315E+03  # ~g
   1000022     1.83032801E+02  # ~chi_10
   1000023     2.37369010E+02  # ~chi_20
   1000025     2.53965352E+02  # ~chi_30
   1000035     1.34220908E+03  # ~chi_40
   1000024     2.32296391E+02  # ~chi_1+
   1000037     1.34156603E+03  # ~chi_2+
# Higgs mixing
Block alpha # Effective Higgs mixing angle
          -6.91139005E-02   # alpha
Block Hmix Q=  2.29247687E+03  # Higgs mixing parameters
   1   -2.27648444E+02  # mu
   2    1.38861147E+01  # tan[beta](Q)
   3    2.43549244E+02  # v(Q)
   4    4.82022736E+06  # m^2_A(Q)
Block stopmix # stop mixing matrix
   1  1    -5.86352524E-01   # Re[R_st(1,1)]
   1  2     8.10055997E-01   # Re[R_st(1,2)]
   2  1    -8.10055997E-01   # Re[R_st(2,1)]
   2  2    -5.86352524E-01   # Re[R_st(2,2)]
Block sbotmix # sbottom mixing matrix
   1  1    -9.99999612E-01   # Re[R_sb(1,1)]
   1  2     8.81432565E-04   # Re[R_sb(1,2)]
   2  1    -8.81432565E-04   # Re[R_sb(2,1)]
   2  2    -9.99999612E-01   # Re[R_sb(2,2)]
Block staumix # stau mixing matrix
   1  1    -1.97965710E-02   # Re[R_sta(1,1)]
   1  2     9.99804029E-01   # Re[R_sta(1,2)]
   2  1    -9.99804029E-01   # Re[R_sta(2,1)]
   2  2    -1.97965710E-02   # Re[R_sta(2,2)]
Block Nmix # neutralino mixing matrix
   1  1     8.11844805E-01   # Re[N(1,1)]
   1  2    -2.79552276E-02   # Re[N(1,2)]
   1  3    -4.52969134E-01   # Re[N(1,3)]
   1  4     3.67349263E-01   # Re[N(1,4)]
   2  1    -6.65600491E-02   # Re[N(2,1)]
   2  2     3.40820960E-02   # Re[N(2,2)]
   2  3    -6.98536756E-01   # Re[N(2,3)]
   2  4    -7.11656217E-01   # Re[N(2,4)]
   3  1     5.80061264E-01   # Re[N(3,1)]
   3  2     4.74899949E-02   # Re[N(3,2)]
   3  3     5.53746145E-01   # Re[N(3,3)]
   3  4    -5.95515606E-01   # Re[N(3,4)]
   4  1     2.58873416E-03   # Re[N(4,1)]
   4  2    -9.97898600E-01   # Re[N(4,2)]
   4  3     1.51845689E-02   # Re[N(4,3)]
   4  4    -6.29373574E-02   # Re[N(4,4)]
Block Umix # chargino mixing matrix
   1  1    -2.14830838E-02   # Re[U(1,1)]
   1  2    -9.99769212E-01   # Re[U(1,2)]
   2  1    -9.99769212E-01   # Re[U(2,1)]
   2  2     2.14830838E-02   # Re[U(2,2)]
Block Vmix # chargino mixing matrix
   1  1     8.90990022E-02   # Re[V(1,1)]
   1  2     9.96022775E-01   # Re[V(1,2)]
   2  1     9.96022775E-01   # Re[V(2,1)]
   2  2    -8.90990022E-02   # Re[V(2,2)]
DECAY        23     2.49520000E+00   # Z
DECAY        24     2.08500000E+00   # W
DECAY   2000011     5.02461334E+01   # ~e^-_R
#    BR                NDA      ID1      ID2
     6.59230764E-01    2     1000022        11   # BR(~e^-_R -> chi^0_1 e^-)
     4.42915485E-03    2     1000023        11   # BR(~e^-_R -> chi^0_2 e^-)
     3.36333607E-01    2     1000025        11   # BR(~e^-_R -> chi^0_3 e^-)
DECAY   1000011     1.40196476E+02   # ~e^-_L
#    BR                NDA      ID1      ID2
     5.17565802E-02    2     1000022        11   # BR(~e^-_L -> chi^0_1 e^-)
     4.01254753E-02    2     1000025        11   # BR(~e^-_L -> chi^0_3 e^-)
     3.01288261E-01    2     1000035        11   # BR(~e^-_L -> chi^0_4 e^-)
     2.90065944E-04    2    -1000024        12   # BR(~e^-_L -> chi^-_1 nu_e)
     6.06538933E-01    2    -1000037        12   # BR(~e^-_L -> chi^-_2 nu_e)
#    BR                NDA      ID1      ID2       ID3
DECAY   2000013     5.02746952E+01   # ~mu^-_R
#    BR                NDA      ID1      ID2
     6.58915303E-01    2     1000022        13   # BR(~mu^-_R -> chi^0_1 mu^-)
     4.56491939E-03    2     1000023        13   # BR(~mu^-_R -> chi^0_2 mu^-)
     3.36229855E-01    2     1000025        13   # BR(~mu^-_R -> chi^0_3 mu^-)
     2.83268023E-04    2    -1000024        14   # BR(~mu^-_R -> chi^-_1 nu_mu)
DECAY   1000013     1.40210843E+02   # ~mu^-_L
#    BR                NDA      ID1      ID2
     5.17721936E-02    2     1000022        13   # BR(~mu^-_L -> chi^0_1 mu^-)
     4.01525804E-02    2     1000025        13   # BR(~mu^-_L -> chi^0_3 mu^-)
     3.01257634E-01    2     1000035        13   # BR(~mu^-_L -> chi^0_4 mu^-)
     2.90036424E-04    2    -1000024        14   # BR(~mu^-_L -> chi^-_1 nu_mu)
     6.06477233E-01    2    -1000037        14   # BR(~mu^-_L -> chi^-_2 nu_mu)
#    BR                NDA      ID1      ID2       ID3
DECAY   1000015     5.83628874E+01   # ~tau^-_1
#    BR                NDA      ID1      ID2
     5.83662190E-01    2     1000022        15   # BR(~tau^-_1 -> chi^0_1 tau^-)
     3.70788895E-02    2     1000023        15   # BR(~tau^-_1 -> chi^0_2 tau^-)
     3.09456343E-01    2     1000025        15   # BR(~tau^-_1 -> chi^0_3 tau^-)
     1.71985858E-04    2     1000035        15   # BR(~tau^-_1 -> chi^0_4 tau^-)
     6.92942700E-02    2    -1000024        16   # BR(~tau^-_1 -> chi^-_1 nu_tau)
     3.36322178E-04    2    -1000037        16   # BR(~tau^-_1 -> chi^-_2 nu_tau)
DECAY   2000015     1.44226550E+02   # ~tau^-_2
#    BR                NDA      ID1      ID2
     5.53680454E-02    2     1000022        15   # BR(~tau^-_2 -> chi^0_1 tau^-)
     1.38316394E-02    2     1000023        15   # BR(~tau^-_2 -> chi^0_2 tau^-)
     4.81524879E-02    2     1000025        15   # BR(~tau^-_2 -> chi^0_3 tau^-)
     2.92875735E-01    2     1000035        15   # BR(~tau^-_2 -> chi^0_4 tau^-)
     1.81693710E-04    2    -1000024        16   # BR(~tau^-_2 -> chi^-_1 nu_tau)
     5.89590399E-01    2    -1000037        16   # BR(~tau^-_2 -> chi^-_2 nu_tau)
#    BR                NDA      ID1      ID2       ID3
DECAY   1000012     1.40200870E+02   # ~nu_e
#    BR                NDA      ID1      ID2
     6.69957905E-02    2     1000022        12   # BR(~nu_e -> chi^0_1 nu_e)
     1.52377867E-03    2     1000023        12   # BR(~nu_e -> chi^0_2 nu_e)
     2.16288072E-02    2     1000025        12   # BR(~nu_e -> chi^0_3 nu_e)
     3.02928928E-01    2     1000035        12   # BR(~nu_e -> chi^0_4 nu_e)
     4.98887659E-03    2     1000024        11   # BR(~nu_e -> chi^+_1 e^-)
     6.01933819E-01    2     1000037        11   # BR(~nu_e -> chi^+_2 e^-)
#    BR                NDA      ID1      ID2       ID3
DECAY   1000014     1.40215233E+02   # ~nu_mu
#    BR                NDA      ID1      ID2
     6.69889729E-02    2     1000022        14   # BR(~nu_mu -> chi^0_1 nu_mu)
     1.52362361E-03    2     1000023        14   # BR(~nu_mu -> chi^0_2 nu_mu)
     2.16266062E-02    2     1000025        14   # BR(~nu_mu -> chi^0_3 nu_mu)
     3.02898116E-01    2     1000035        14   # BR(~nu_mu -> chi^0_4 nu_mu)
     5.09004076E-03    2     1000024        13   # BR(~nu_mu -> chi^+_1 mu^-)
     6.01872640E-01    2     1000037        13   # BR(~nu_mu -> chi^+_2 mu^-)
#    BR                NDA      ID1      ID2       ID3
DECAY   1000016     1.44265080E+02   # ~nu_tau
#    BR                NDA      ID1      ID2
     6.51210918E-02    2     1000022        16   # BR(~nu_tau -> chi^0_1 nu_tau)
     1.48114005E-03    2     1000023        16   # BR(~nu_tau -> chi^0_2 nu_tau)
     2.10235877E-02    2     1000025        16   # BR(~nu_tau -> chi^0_3 nu_tau)
     2.94456382E-01    2     1000035        16   # BR(~nu_tau -> chi^0_4 nu_tau)
     3.28066423E-02    2     1000024        15   # BR(~nu_tau -> chi^+_1 tau^-)
     5.85111156E-01    2     1000037        15   # BR(~nu_tau -> chi^+_2 tau^-)
#    BR                NDA      ID1      ID2       ID3
DECAY   2000001     6.95974180E+02   # ~d_R
#    BR                NDA      ID1      ID2
     5.32716703E-03    2     1000022         1   # BR(~d_R -> chi^0_1 d)
     2.71790042E-03    2     1000025         1   # BR(~d_R -> chi^0_3 d)
     9.91919065E-01    2     1000021         1   # BR(~d_R -> ~g d)
DECAY   1000001     8.22650702E+02   # ~d_L
#    BR                NDA      ID1      ID2
     1.60837006E-03    2     1000022         1   # BR(~d_L -> chi^0_1 d)
     1.13972917E-04    2     1000023         1   # BR(~d_L -> chi^0_2 d)
     1.68174663E-04    2     1000025         1   # BR(~d_L -> chi^0_3 d)
     5.20105057E-02    2     1000035         1   # BR(~d_L -> chi^0_4 d)
     1.04318551E-01    2    -1000037         2   # BR(~d_L -> chi^-_2 u)
     8.41730567E-01    2     1000021         1   # BR(~d_L -> ~g d)
DECAY   2000003     6.95982357E+02   # ~s_R
#    BR                NDA      ID1      ID2
     5.32827647E-03    2     1000022         3   # BR(~s_R -> chi^0_1 s)
     2.71961722E-03    2     1000025         3   # BR(~s_R -> chi^0_3 s)
     9.91907753E-01    2     1000021         3   # BR(~s_R -> ~g s)
DECAY   1000003     8.22658618E+02   # ~s_L
#    BR                NDA      ID1      ID2
     1.60934765E-03    2     1000022         3   # BR(~s_L -> chi^0_1 s)
     1.16331256E-04    2     1000023         3   # BR(~s_L -> chi^0_2 s)
     1.69655512E-04    2     1000025         3   # BR(~s_L -> chi^0_3 s)
     5.20100211E-02    2     1000035         3   # BR(~s_L -> chi^0_4 s)
     1.04317611E-01    2    -1000037         4   # BR(~s_L -> chi^-_2 c)
     8.41722759E-01    2     1000021         3   # BR(~s_L -> ~g s)
DECAY   1000005     6.33831122E+01   # ~b_1
#    BR                NDA      ID1      ID2
     1.27594931E-02    2     1000022         5   # BR(~b_1 -> chi^0_1 b)
     1.91604201E-02    2     1000023         5   # BR(~b_1 -> chi^0_2 b)
     1.22686626E-02    2     1000025         5   # BR(~b_1 -> chi^0_3 b)
     7.11920135E-02    2     1000035         5   # BR(~b_1 -> chi^0_4 b)
     7.22110324E-01    2    -1000024         6   # BR(~b_1 -> chi^-_1 t)
     1.46870642E-01    2    -1000037         6   # BR(~b_1 -> chi^-_2 t)
     1.56384446E-02    2     1000006       -24   # BR(~b_1 -> ~t_1 W^-)
DECAY   2000005     2.29574647E+01   # ~b_2
#    BR                NDA      ID1      ID2
     7.74784065E-02    2     1000022         5   # BR(~b_2 -> chi^0_1 b)
     6.92006023E-02    2     1000023         5   # BR(~b_2 -> chi^0_2 b)
     6.78307123E-02    2     1000025         5   # BR(~b_2 -> chi^0_3 b)
     1.40189223E-01    2    -1000024         6   # BR(~b_2 -> chi^-_1 t)
     6.45096973E-01    2     1000021         5   # BR(~b_2 -> ~g b)
DECAY   2000002     7.13140253E+02   # ~u_R
#    BR                NDA      ID1      ID2
     2.08024085E-02    2     1000022         2   # BR(~u_R -> chi^0_1 u)
     1.39765424E-04    2     1000023         2   # BR(~u_R -> chi^0_2 u)
     1.06133016E-02    2     1000025         2   # BR(~u_R -> chi^0_3 u)
     9.68444320E-01    2     1000021         2   # BR(~u_R -> ~g u)
DECAY   1000002     8.22638344E+02   # ~u_L
#    BR                NDA      ID1      ID2
     7.34807243E-04    2     1000022         2   # BR(~u_L -> chi^0_1 u)
     1.22779198E-03    2     1000025         2   # BR(~u_L -> chi^0_3 u)
     5.19132678E-02    2     1000035         2   # BR(~u_L -> chi^0_4 u)
     8.57608197E-04    2     1000024         1   # BR(~u_L -> chi^+_1 d)
     1.03535756E-01    2     1000037         1   # BR(~u_L -> chi^+_2 d)
     8.41704079E-01    2     1000021         2   # BR(~u_L -> ~g u)
DECAY   2000004     7.13147766E+02   # ~c_R
#    BR                NDA      ID1      ID2
     2.08028870E-02    2     1000022         4   # BR(~c_R -> chi^0_1 c)
     1.42359786E-04    2     1000023         4   # BR(~c_R -> chi^0_2 c)
     1.06150074E-02    2     1000025         4   # BR(~c_R -> chi^0_3 c)
     9.68434398E-01    2     1000021         4   # BR(~c_R -> ~g c)
DECAY   1000004     8.22646226E+02   # ~c_L
#    BR                NDA      ID1      ID2
     7.35401159E-04    2     1000022         4   # BR(~c_L -> chi^0_1 c)
     1.22935959E-03    2     1000025         4   # BR(~c_L -> chi^0_3 c)
     5.19127980E-02    2     1000035         4   # BR(~c_L -> chi^0_4 c)
     8.62433345E-04    2     1000024         3   # BR(~c_L -> chi^+_1 s)
     1.03534796E-01    2     1000037         3   # BR(~c_L -> chi^+_2 s)
     8.41696268E-01    2     1000021         4   # BR(~c_L -> ~g c)
DECAY   1000006     8.33444224E+01   # ~t_1
#    BR                NDA      ID1      ID2
     1.37858664E-01    2     1000022         6   # BR(~t_1 -> chi^0_1 t)
     2.81453359E-01    2     1000023         6   # BR(~t_1 -> chi^0_2 t)
     1.64607331E-01    2     1000025         6   # BR(~t_1 -> chi^0_3 t)
     9.85200935E-03    2     1000035         6   # BR(~t_1 -> chi^0_4 t)
     3.85136443E-01    2     1000024         5   # BR(~t_1 -> chi^+_1 b)
     2.07677755E-02    2     1000037         5   # BR(~t_1 -> chi^+_2 b)
#    BR                NDA      ID1      ID2       ID3
     3.24351855E-04    3     1000022        24         5   # BR(~t_1 -> chi^0_1 W^+ b)
DECAY   2000006     7.64311799E+01   # ~t_2
#    BR                NDA      ID1      ID2
     5.38276583E-02    2     1000022         6   # BR(~t_2 -> chi^0_1 t)
     2.96517498E-01    2     1000023         6   # BR(~t_2 -> chi^0_2 t)
     2.68190460E-01    2     1000025         6   # BR(~t_2 -> chi^0_3 t)
     4.85214864E-02    2     1000035         6   # BR(~t_2 -> chi^0_4 t)
     2.02410736E-01    2     1000024         5   # BR(~t_2 -> chi^+_1 b)
     1.00624351E-01    2     1000037         5   # BR(~t_2 -> chi^+_2 b)
     2.49860589E-02    2     1000006        23   # BR(~t_2 -> ~t_1 Z)
     4.92175228E-03    2     1000006        25   # BR(~t_2 -> ~t_1 h^0)
DECAY   1000024     4.57467549E-04   # chi^+_1
#    BR                NDA      ID1      ID2       ID3
     3.33822215E-01    3     1000022        -1         2   # BR(chi^+_1 -> chi^0_1 d_bar u)
     3.32933038E-01    3     1000022        -3         4   # BR(chi^+_1 -> chi^0_1 s_bar c)
     1.11274434E-01    3     1000022       -11        12   # BR(chi^+_1 -> chi^0_1 e^+ nu_e)
     1.11272942E-01    3     1000022       -13        14   # BR(chi^+_1 -> chi^0_1 mu^+ nu_mu)
     1.10697371E-01    3     1000022       -15        16   # BR(chi^+_1 -> chi^0_1 tau^+ nu_tau)
DECAY   1000037     1.26395704E+01   # chi^+_2
#    BR                NDA      ID1      ID2
     5.73148437E-02    2     1000022        24   # BR(chi^+_2 -> chi^0_1 W^+)
     2.49454487E-01    2     1000023        24   # BR(chi^+_2 -> chi^0_2 W^+)
     1.89335071E-01    2     1000025        24   # BR(chi^+_2 -> chi^0_3 W^+)
     2.46669501E-01    2     1000024        23   # BR(chi^+_2 -> chi^+_1 Z)
     2.37629287E-01    2     1000024        25   # BR(chi^+_2 -> chi^+_1 h^0)
#    BR                NDA      ID1      ID2       ID3
     7.40516216E-03    3     1000024         6        -6   # BR(chi^+_2 -> chi^+_1 t t_bar)
     1.37068307E-03    3     1000022        -5         6   # BR(chi^+_2 -> chi^0_1 b_bar t)
     6.48182134E-03    3     1000023        -5         6   # BR(chi^+_2 -> chi^0_2 b_bar t)
     4.32236339E-03    3     1000025        -5         6   # BR(chi^+_2 -> chi^0_3 b_bar t)
DECAY   1000022     0.00000000E+00   # chi^0_1
DECAY   1000023     5.65477510E-04   # chi^0_2
#    BR                NDA      ID1      ID2
     6.15173810E-03    2     1000022        22   # BR(chi^0_2 -> chi^0_1 photon)
#    BR                NDA      ID1      ID2       ID3
     1.19050528E-01    3     1000022         2        -2   # BR(chi^0_2 -> chi^0_1 u u_bar)
     1.18309252E-01    3     1000022         4        -4   # BR(chi^0_2 -> chi^0_1 c c_bar)
     1.52646065E-01    3     1000022         1        -1   # BR(chi^0_2 -> chi^0_1 d d_bar)
     1.52641556E-01    3     1000022         3        -3   # BR(chi^0_2 -> chi^0_1 s s_bar)
     1.44176703E-01    3     1000022         5        -5   # BR(chi^0_2 -> chi^0_1 b b_bar)
     3.44476030E-02    3     1000022        11       -11   # BR(chi^0_2 -> chi^0_1 e^- e^+)
     3.44459469E-02    3     1000022        13       -13   # BR(chi^0_2 -> chi^0_1 mu^- mu^+)
     3.39834289E-02    3     1000022        15       -15   # BR(chi^0_2 -> chi^0_1 tau^- tau^+)
     2.04133165E-01    3     1000022        12       -12   # BR(chi^0_2 -> chi^0_1 nu_e nu_bar_e)
DECAY   1000025     3.75892565E-05   # chi^0_3
#    BR                NDA      ID1      ID2
     4.25675767E-03    2     1000022        22   # BR(chi^0_3 -> chi^0_1 photon)
     1.36173037E-02    2     1000023        22   # BR(chi^0_3 -> chi^0_2 photon)
#    BR                NDA      ID1      ID2       ID3
     2.94015231E-02    3     1000022         2        -2   # BR(chi^0_3 -> chi^0_1 u u_bar)
     2.93331561E-02    3     1000022         4        -4   # BR(chi^0_3 -> chi^0_1 c c_bar)
     3.76828893E-02    3     1000022         1        -1   # BR(chi^0_3 -> chi^0_1 d d_bar)
     3.76825333E-02    3     1000022         3        -3   # BR(chi^0_3 -> chi^0_1 s s_bar)
     3.70339964E-02    3     1000022         5        -5   # BR(chi^0_3 -> chi^0_1 b b_bar)
     8.49068066E-03    3     1000022        11       -11   # BR(chi^0_3 -> chi^0_1 e^- e^+)
     8.49060748E-03    3     1000022        13       -13   # BR(chi^0_3 -> chi^0_1 mu^- mu^+)
     8.46596294E-03    3     1000022        15       -15   # BR(chi^0_3 -> chi^0_1 tau^- tau^+)
     5.04113918E-02    3     1000022        12       -12   # BR(chi^0_3 -> chi^0_1 nu_e nu_bar_e)
     8.47899991E-03    3     1000023         2        -2   # BR(chi^0_3 -> chi^0_2 u u_bar)
     7.84622093E-03    3     1000023         4        -4   # BR(chi^0_3 -> chi^0_2 c c_bar)
     1.08717940E-02    3     1000023         1        -1   # BR(chi^0_3 -> chi^0_2 d d_bar)
     1.08677004E-02    3     1000023         3        -3   # BR(chi^0_3 -> chi^0_2 s s_bar)
     5.04259008E-03    3     1000023         5        -5   # BR(chi^0_3 -> chi^0_2 b b_bar)
     2.45346872E-03    3     1000023        11       -11   # BR(chi^0_3 -> chi^0_2 e^- e^+)
     2.45201130E-03    3     1000023        13       -13   # BR(chi^0_3 -> chi^0_2 mu^- mu^+)
     2.07767460E-03    3     1000023        15       -15   # BR(chi^0_3 -> chi^0_2 tau^- tau^+)
     1.45386586E-02    3     1000023        12       -12   # BR(chi^0_3 -> chi^0_2 nu_e nu_bar_e)
     1.12757936E-01    3     1000024         1        -2   # BR(chi^0_3 -> chi^+_1 d u_bar)
     1.12757936E-01    3    -1000024        -1         2   # BR(chi^0_3 -> chi^-_1 d_bar u)
     1.10918017E-01    3     1000024         3        -4   # BR(chi^0_3 -> chi^+_1 s c_bar)
     1.10918017E-01    3    -1000024        -3         4   # BR(chi^0_3 -> chi^-_1 s_bar c)
     3.75858977E-02    3     1000024        11       -12   # BR(chi^0_3 -> chi^+_1 e^- nu_bar_e)
     3.75858977E-02    3    -1000024       -11        12   # BR(chi^0_3 -> chi^-_1 e^+ nu_e)
     3.75829521E-02    3     1000024        13       -14   # BR(chi^0_3 -> chi^+_1 mu^- nu_bar_mu)
     3.75829521E-02    3    -1000024       -13        14   # BR(chi^0_3 -> chi^-_1 mu^+ nu_mu)
     3.64072358E-02    3     1000024        15       -16   # BR(chi^0_3 -> chi^+_1 tau^- nu_bar_tau)
     3.64072358E-02    3    -1000024       -15        16   # BR(chi^0_3 -> chi^-_1 tau^+ nu_tau)
DECAY   1000035     1.35563762E+01   # chi^0_4
#    BR                NDA      ID1      ID2
     2.33312787E-01    2     1000024       -24   # BR(chi^0_4 -> chi^+_1 W^-)
     2.33312787E-01    2    -1000024        24   # BR(chi^0_4 -> chi^-_1 W^+)
     1.51890334E-02    2     1000022        23   # BR(chi^0_4 -> chi^0_1 Z)
     1.70153501E-01    2     1000023        23   # BR(chi^0_4 -> chi^0_2 Z)
     4.62266503E-02    2     1000025        23   # BR(chi^0_4 -> chi^0_3 Z)
     3.68233801E-02    2     1000022        25   # BR(chi^0_4 -> chi^0_1 h^0)
     1.24191142E-01    2     1000023        25   # BR(chi^0_4 -> chi^0_2 h^0)
     1.23102604E-01    2     1000025        25   # BR(chi^0_4 -> chi^0_3 h^0)
#    BR                NDA      ID1      ID2       ID3
     7.10640943E-04    3     1000022         6        -6   # BR(chi^0_4 -> chi^0_1 t t_bar)
     2.82263832E-03    3     1000023         6        -6   # BR(chi^0_4 -> chi^0_2 t t_bar)
     2.23715085E-03    3     1000025         6        -6   # BR(chi^0_4 -> chi^0_3 t t_bar)
     5.92903504E-03    3     1000024         5        -6   # BR(chi^0_4 -> chi^+_1 b t_bar)
     5.92903504E-03    3    -1000024        -5         6   # BR(chi^0_4 -> chi^-_1 b_bar t)
DECAY   1000021     1.41595777E+01   # ~g
#    BR                NDA      ID1      ID2
     3.30713100E-01    2     1000006        -6   # BR(~g -> ~t_1 t_bar)
     3.30713100E-01    2    -1000006         6   # BR(~g -> ~t^*_1 t)
     2.52252252E-02    2     2000006        -6   # BR(~g -> ~t_2 t_bar)
     2.52252252E-02    2    -2000006         6   # BR(~g -> ~t^*_2 t)
     1.43134904E-01    2     1000005        -5   # BR(~g -> ~b_1 b_bar)
     1.43134904E-01    2    -1000005         5   # BR(~g -> ~b^*_1 b)
     2.33031684E-04    2     1000022        21   # BR(~g -> chi^0_1 g)
     6.72824009E-04    2     1000023        21   # BR(~g -> chi^0_2 g)
     3.86962728E-04    2     1000025        21   # BR(~g -> chi^0_3 g)
#    BR                NDA      ID1      ID2       ID3
     1.21958929E-04    3     1000022         5        -5   # BR(~g -> chi^0_1 b b_bar)
     1.01667614E-04    3     1000023         5        -5   # BR(~g -> chi^0_2 b b_bar)
     1.03107311E-04    3     1000025         5        -5   # BR(~g -> chi^0_3 b b_bar)
     1.01239229E-04    3     1000024         5        -6   # BR(~g -> chi^+_1 b t_bar)
     1.01239229E-04    3    -1000024        -5         6   # BR(~g -> chi^-_1 b_bar t)
DECAY        25     3.15744045E-03   # Gamma(h0)
     2.69261183E-03   2        22        22   # BR(h0 -> photon photon)
     1.52187093E-03   2        22        23   # BR(h0 -> photon Z)
     2.60917768E-02   2        23        23   # BR(h0 -> Z Z)
     2.24710170E-01   2       -24        24   # BR(h0 -> W W)
     8.50258878E-02   2        21        21   # BR(h0 -> gluon gluon)
     5.07618489E-09   2       -11        11   # BR(h0 -> Electron electron)
     2.25796643E-04   2       -13        13   # BR(h0 -> Muon muon)
     6.51025816E-02   2       -15        15   # BR(h0 -> Tau tau)
     1.43875387E-07   2        -2         2   # BR(h0 -> Up up)
     2.79235396E-02   2        -4         4   # BR(h0 -> Charm charm)
     5.89298556E-07   2        -1         1   # BR(h0 -> Down down)
     2.13135116E-04   2        -3         3   # BR(h0 -> Strange strange)
     5.66491892E-01   2        -5         5   # BR(h0 -> Bottom bottom)
DECAY        35     2.01683192E+01   # Gamma(HH)
     1.29182162E-07   2        22        22   # BR(HH -> photon photon)
     1.53856666E-07   2        22        23   # BR(HH -> photon Z)
     1.34499801E-05   2        23        23   # BR(HH -> Z Z)
     6.24121539E-06   2       -24        24   # BR(HH -> W W)
     3.01323531E-06   2        21        21   # BR(HH -> gluon gluon)
     2.96300841E-09   2       -11        11   # BR(HH -> Electron electron)
     1.31914278E-04   2       -13        13   # BR(HH -> Muon muon)
     3.80965443E-02   2       -15        15   # BR(HH -> Tau tau)
     1.14785877E-12   2        -2         2   # BR(HH -> Up up)
     2.22658108E-07   2        -4         4   # BR(HH -> Charm charm)
     1.70058607E-02   2        -6         6   # BR(HH -> Top top)
     2.26954790E-07   2        -1         1   # BR(HH -> Down down)
     8.20927697E-05   2        -3         3   # BR(HH -> Strange strange)
     2.27043607E-01   2        -5         5   # BR(HH -> Bottom bottom)
     7.15810908E-03   2  -1000024   1000024   # BR(HH -> Chargino1 chargino1)
     1.95075668E-01   2  -1000024   1000037   # BR(HH -> Chargino1 chargino2)
     1.95075668E-01   2  -1000037   1000024   # BR(HH -> Chargino2 chargino1)
     3.41262601E-02   2   1000022   1000022   # BR(HH -> neutralino1 neutralino1)
     4.27928296E-02   2   1000022   1000023   # BR(HH -> neutralino1 neutralino2)
     5.76009814E-03   2   1000022   1000025   # BR(HH -> neutralino1 neutralino3)
     3.06938918E-02   2   1000022   1000035   # BR(HH -> neutralino1 neutralino4)
     2.34021938E-03   2   1000023   1000023   # BR(HH -> neutralino2 neutralino2)
     2.40198404E-02   2   1000023   1000025   # BR(HH -> neutralino2 neutralino3)
     1.26061858E-01   2   1000023   1000035   # BR(HH -> neutralino2 neutralino4)
     1.49952920E-02   2   1000025   1000025   # BR(HH -> neutralino3 neutralino3)
     3.94565459E-02   2   1000025   1000035   # BR(HH -> neutralino3 neutralino4)
     6.02596130E-05   2        25        25   # BR(HH -> h0 h0)
DECAY        36     2.00146813E+01   # Gamma(A0)
     2.90541092E-07   2        22        22   # BR(A0 -> photon photon)
     3.61903162E-07   2        22        23   # BR(A0 -> photon Z)
     3.06806886E-05   2        21        21   # BR(A0 -> gluon gluon)
     2.90874907E-09   2       -11        11   # BR(A0 -> Electron electron)
     1.29498696E-04   2       -13        13   # BR(A0 -> Muon muon)
     3.73990368E-02   2       -15        15   # BR(A0 -> Tau tau)
     1.09741051E-12   2        -2         2   # BR(A0 -> Up up)
     2.12859241E-07   2        -4         4   # BR(A0 -> Charm charm)
     1.66941466E-02   2        -6         6   # BR(A0 -> Top top)
     2.22796942E-07   2        -1         1   # BR(A0 -> Down down)
     8.05889183E-05   2        -3         3   # BR(A0 -> Strange strange)
     2.22885555E-01   2        -5         5   # BR(A0 -> Bottom bottom)
     8.06203232E-03   2  -1000024   1000024   # BR(A0 -> Chargino1 chargino1)
     1.96052630E-01   2  -1000024   1000037   # BR(A0 -> Chargino1 chargino2)
     1.96052630E-01   2  -1000037   1000024   # BR(A0 -> Chargino2 chargino1)
     4.43087159E-02   2   1000022   1000022   # BR(A0 -> neutralino1 neutralino1)
     2.96405874E-02   2   1000022   1000023   # BR(A0 -> neutralino1 neutralino2)
     8.69986668E-03   2   1000022   1000025   # BR(A0 -> neutralino1 neutralino3)
     5.07816897E-02   2   1000022   1000035   # BR(A0 -> neutralino1 neutralino4)
     1.86183809E-03   2   1000023   1000023   # BR(A0 -> neutralino2 neutralino2)
     1.92256817E-02   2   1000023   1000025   # BR(A0 -> neutralino2 neutralino3)
     6.64220345E-02   2   1000023   1000035   # BR(A0 -> neutralino2 neutralino4)
     2.14512755E-02   2   1000025   1000025   # BR(A0 -> neutralino3 neutralino3)
     8.02016684E-02   2   1000025   1000035   # BR(A0 -> neutralino3 neutralino4)
     1.87513583E-05   2        23        25   # BR(A0 -> Z h0)
     3.13073704E-38   2        25        25   # BR(A0 -> h0 h0)
DECAY        37     2.12678046E+01   # Gamma(Hp)
     3.60126159E-09   2       -11        12   # BR(Hp -> Electron nu_e)
     1.53965180E-04   2       -13        14   # BR(Hp -> Muon nu_mu)
     4.35500818E-02   2       -15        16   # BR(Hp -> Tau nu_tau)
     2.39831363E-07   2        -1         2   # BR(Hp -> Down up)
     4.03370146E-06   2        -3         2   # BR(Hp -> Strange up)
     2.71598232E-06   2        -5         2   # BR(Hp -> Bottom up)
     2.30964557E-08   2        -1         4   # BR(Hp -> Down charm)
     8.66909097E-05   2        -3         4   # BR(Hp -> Strange charm)
     3.80334974E-04   2        -5         4   # BR(Hp -> Bottom charm)
     1.29842527E-06   2        -1         6   # BR(Hp -> Down top)
     2.84367281E-05   2        -3         6   # BR(Hp -> Strange top)
     2.75856117E-01   2        -5         6   # BR(Hp -> Bottom top)
     7.04576504E-02   2   1000022   1000024   # BR(Hp -> neutralino1 chargino1)
     7.76451879E-02   2   1000022   1000037   # BR(Hp -> neutralino1 chargino2)
     2.46292985E-04   2   1000023   1000024   # BR(Hp -> neutralino2 chargino1)
     1.82298182E-01   2   1000023   1000037   # BR(Hp -> neutralino2 chargino2)
     4.92061344E-02   2   1000024   1000025   # BR(Hp -> chargino1 neutralino3)
     1.14182665E-01   2   1000025   1000037   # BR(Hp -> neutralino3 chargino2)
     1.85882216E-01   2   1000024   1000035   # BR(Hp -> chargino1 neutralino4)
     1.77304133E-05   2        24        25   # BR(Hp -> W h0)
     9.68740958E-12   2        24        35   # BR(Hp -> W HH)
     7.54384352E-12   2        24        36   # BR(Hp -> W A0)
DECAY         6     2.43000000E+00   # top
#    BR                NDA      ID1      ID2
     1.00000000E+00    2           5        24   # BR(t -> b W)
Block HiggsBoundsInputHiggsCouplingsFermions
# ScalarNormEffCoupSq PseudoSNormEffCoupSq NP IP1 IP2 IP2
    9.24372789E-01    0.00000000E+00        3  25   5   5  # h0-b-b eff. coupling^2, normalised to SM
    1.92899809E+02    0.00000000E+00        3  35   5   5  # H0-b-b eff. coupling^2, normalised to SM
    0.00000000E+00    1.92824181E+02        3  36   5   5  # A0-b-b eff. coupling^2, normalised to SM
#
    1.00039221E+00    0.00000000E+00        3  25   6   6  # h0-t-t eff. coupling^2, normalised to SM
    4.79386342E-03    0.00000000E+00        3  35   6   6  # H0-t-t eff. coupling^2, normalised to SM
    0.00000000E+00    5.18607154E-03        3  36   6   6  # A0-t-t eff. coupling^2, normalised to SM
#
    9.24372789E-01    0.00000000E+00        3  25  15  15  # h0-tau-tau eff. coupling^2, normalised to SM
    1.92899809E+02    0.00000000E+00        3  35  15  15  # H0-tau-tau eff. coupling^2, normalised to SM
    0.00000000E+00    1.92824181E+02        3  36  15  15  # A0-tau-tau eff. coupling^2, normalised to SM
#
Block HiggsBoundsInputHiggsCouplingsBosons
    9.99992292E-01        3  25  24  24  # h0-W-W eff. coupling^2, normalised to SM
    7.70826125E-06        3  35  24  24  # H0-W-W eff. coupling^2, normalised to SM
    0.00000000E+00        3  36  24  24  # A0-W-W eff. coupling^2, normalised to SM
#
    9.99992292E-01        3  25  23  23  # h0-Z-Z eff. coupling^2, normalised to SM
    7.70826125E-06        3  35  23  23  # H0-Z-Z eff. coupling^2, normalised to SM
    0.00000000E+00        3  36  23  23  # A0-Z-Z eff. coupling^2, normalised to SM
#
    1.26380637E+00        3  25  21  21  # h0-g-g eff. coupling^2, normalised to SM
    2.22184759E-03        3  35  21  21  # H0-g-g eff. coupling^2, normalised to SM
    1.05066461E-01        3  36  21  21  # A0-g-g eff. coupling^2, normalised to SM
#
    0.00000000E+00        3  25  25  23  # h0-h0-Z eff. coupling^2, normalised to SM
    0.00000000E+00        3  35  25  23  # H0-h0-Z eff. coupling^2, normalised to SM
    7.70826125E-06        3  36  25  23  # A0-h0-Z eff. coupling^2, normalised to SM
    0.00000000E+00        3  35  35  23  # H0-H0-Z eff. coupling^2, normalised to SM
    9.99992292E-01        3  36  35  23  # A0-H0-Z eff. coupling^2, normalised to SM
    0.00000000E+00        3  36  36  23  # A0-A0-Z eff. coupling^2, normalised to SM
#
    0.00000000E+00        4  25  21  21  23  # h0-g-g-Z eff. coupling^2, normalised to SM
    0.00000000E+00        4  35  21  21  23  # H0-g-g-Z eff. coupling^2, normalised to SM
    0.00000000E+00        4  36  21  21  23  # A0-g-g-Z eff. coupling^2, normalised to SM
Block SPhenoLowEnergy  # low energy observables
    1    3.21140553E-04   # BR(b -> s gamma)
    2    1.58963956E-06   # BR(b -> s mu+ mu-)
    3    3.52358105E-05   # BR(b -> s nu nu)
    4    2.64495779E-15   # BR(Bd -> e+ e-)
    5    1.12989565E-10   # BR(Bd -> mu+ mu-)
    6    2.36515387E-08   # BR(Bd -> tau+ tau-)
    7    8.93933865E-14   # BR(Bs -> e+ e-)
    8    3.81888163E-09   # BR(Bs -> mu+ mu-)
    9    8.09958837E-07   # BR(Bs -> tau+ tau-)
   10    9.65564764E-05   # BR(B_u -> tau nu)
   11    9.97391435E-01   # BR(B_u -> tau nu)/BR(B_u -> tau nu)_SM
   12    5.42881279E-01   # |Delta(M_Bd)| [ps^-1] 
   13    1.93964098E+01   # |Delta(M_Bs)| [ps^-1] 
   14    0.00000000E+00   # neutron EDM according to the chiral quark model
   15    0.00000000E+00   # neutron EDM according to the relativistic quark-parton model
   16    2.16093527E-03   # epsilon_K
   17    2.28169514E-15   # Delta(M_K)
   18    2.47817274E-11   # BR(K^0 -> pi^0 nu nu)
   19    8.28624711E-11   # BR(K^+ -> pi^+ nu nu)
   20    1.51456270E-16   # Delta(g-2)_electron/2
   21    6.47523543E-12   # Delta(g-2)_muon/2
   22    1.83207457E-09   # Delta(g-2)_tau/2
   23    0.00000000E+00   # electric dipole moment of the electron
   24    0.00000000E+00   # electric dipole moment of the muon
   25    0.00000000E+00   # electric dipole moment of the tau
   26    0.00000000E+00   # Br(mu -> e gamma)
   27    0.00000000E+00   # Br(tau -> e gamma)
   28    0.00000000E+00   # Br(tau -> mu gamma)
   29    0.00000000E+00   # Br(mu -> 3 e)
   30    0.00000000E+00   # Br(tau -> 3 e)
   31    0.00000000E+00   # Br(tau -> 3 mu)
   39    3.87673250E-05   # Delta(rho_parameter)
   40    0.00000000E+00   # BR(Z -> e mu)
   41    0.00000000E+00   # BR(Z -> e tau)
   42    0.00000000E+00   # BR(Z -> mu tau)
Block FWCOEF Q=  1.60000000E+02  # Wilson coefficients at scale Q
#    id        order  M        value         comment
     0305 4422   00   0    -1.88819110E-01   # C7
     0305 4422   00   2    -1.87870525E-01   # C7
     0305 4322   00   2    -1.77469246E-04   # C7'
     0305 6421   00   0    -9.52278348E-02   # C8
     0305 6421   00   2    -1.03399450E-01   # C8
     0305 6321   00   2    -2.50556942E-04   # C8'
 03051111 4133   00   0     1.60677243E+00   # C9 e+e-
 03051111 4133   00   2     1.60805217E+00   # C9 e+e-
 03051111 4233   00   2     4.72827400E-05   # C9' e+e-
 03051111 4137   00   0    -4.42946454E+00   # C10 e+e-
 03051111 4137   00   2    -4.42615767E+00   # C10 e+e-
 03051111 4237   00   2    -3.58976749E-04   # C10' e+e-
 03051313 4133   00   0     1.60677243E+00   # C9 mu+mu-
 03051313 4133   00   2     1.60805215E+00   # C9 mu+mu-
 03051313 4233   00   2     4.72827218E-05   # C9' mu+mu-
 03051313 4137   00   0    -4.42946454E+00   # C10 mu+mu-
 03051313 4137   00   2    -4.42615769E+00   # C10 mu+mu-
 03051313 4237   00   2    -3.58976741E-04   # C10' mu+mu-
 03051212 4137   00   0     1.50535012E+00   # C11 nu_1 nu_1
 03051212 4137   00   2     1.50463319E+00   # C11 nu_1 nu_1
 03051212 4237   00   2     7.79724206E-05   # C11' nu_1 nu_1
 03051414 4137   00   0     1.50535012E+00   # C11 nu_2 nu_2
 03051414 4137   00   2     1.50463319E+00   # C11 nu_2 nu_2
 03051414 4237   00   2     7.79724240E-05   # C11' nu_2 nu_2
 03051616 4137   00   0     1.50535012E+00   # C11 nu_3 nu_3
 03051616 4137   00   2     1.50463319E+00   # C11 nu_3 nu_3
 03051616 4237   00   2     7.79733807E-05   # C11' nu_3 nu_3
Block IMFWCOEF Q=  1.60000000E+02  # Im(Wilson coefficients) at scale Q
#    id        order  M        value         comment
     0305 4422   00   0     3.85827925E-07   # C7
     0305 4422   00   2     5.78361215E-06   # C7
     0305 4322   00   2     6.18969465E-07   # C7'
     0305 6421   00   0     3.30487134E-07   # C8
     0305 6421   00   2     6.64283618E-06   # C8
     0305 6321   00   2     3.09486272E-07   # C8'
 03051111 4133   00   2     6.16377161E-07   # C9 e+e-
 03051111 4233   00   2     9.96365100E-07   # C9' e+e-
 03051111 4137   00   2    -5.75184993E-07   # C10 e+e-
 03051111 4237   00   2    -7.56935913E-06   # C10' e+e-
 03051313 4133   00   2     6.16376796E-07   # C9 mu+mu-
 03051313 4233   00   2     9.96365055E-07   # C9' mu+mu-
 03051313 4137   00   2    -5.75184668E-07   # C10 mu+mu-
 03051313 4237   00   2    -7.56935927E-06   # C10' mu+mu-
 03051212 4137   00   2     1.48636091E-07   # C11 nu_1 nu_1
 03051212 4237   00   2     1.64412402E-06   # C11' nu_1 nu_1
 03051414 4137   00   2     1.48636104E-07   # C11 nu_2 nu_2
 03051414 4237   00   2     1.64412402E-06   # C11' nu_2 nu_2
 03051616 4137   00   2     1.48640041E-07   # C11 nu_3 nu_3
 03051616 4237   00   2     1.64412401E-06   # C11' nu_3 nu_3
