# SUSY Les Houches Accord 2 - MSSM spectrum + Decays
# SPheno v4.0.5be
# W. Porod, Comput. Phys. Commun. 153 (2003) 275-315, hep-ph/0301101;
# W. Porod, F.~Staub, Comput. Phys. Commun. 183 (2012) 2458
#                     arXiv:1104.1573 [hep-ph] 
# in case of problems send email to porod@physik.uni-wuerzburg.de
# Created: 07.09.2021,  15:19
Block SPINFO         # Program information
     1   SPheno      # spectrum calculator
     2   v4.0.5be    # version number
#
Block SPhenoINFO     # SPheno specific information
    1      2         # using 2-loop RGEs
    2      2         # using pole masses for boundary conditions at mZ
Block MODSEL  # Model selection
    1    0    # general MSSM
Block MINPAR  # Input parameters
    3    5.88149948E+01  # tanb at m_Z    
    4   -1.00000000E+00  # Sign(mu)
Block EXTPAR  # non-universal input parameters
    0    4.13026511E+03  # scale for input parameters
    1   -1.26826543E+02  # M_1
    2    3.20888437E+02  # M_2
    3    3.59770053E+03  # M_3
   11   -5.96008456E+02  # A_t
   12    1.50300428E+03  # A_b
   13   -8.16047568E+02  # A_tau
   23   -1.12406839E+02  # mu
   25    5.89950998E+01  # tan(beta)
   26    4.18890698E+03  # m_A, pole mass
   31    1.00000000E+04  # M_L11
   32    1.00000000E+04  # M_L22
   33    1.00000000E+04  # M_L33
   34    1.00000000E+04  # M_E11
   35    1.00000000E+04  # M_E22
   36    1.00000000E+04  # M_E33
   41    1.00000000E+04  # M_Q11
   42    1.00000000E+04  # M_Q22
   43    3.34985262E+03  # M_Q33
   44    1.00000000E+04  # M_U11
   45    1.00000000E+04  # M_U22
   46    4.88743652E+03  # M_U33
   47    1.00000000E+04  # M_D11
   48    1.00000000E+04  # M_D22
   49    3.15040917E+03  # M_D33
Block SMINPUTS  # SM parameters
         1     1.27908970E+02  # alpha_em^-1(MZ)^MSbar
         2     1.16637870E-05  # G_mu [GeV^-2]
         3     1.18400000E-01  # alpha_s(MZ)^MSbar
         4     9.11876000E+01  # m_Z(pole)
         5     4.18000000E+00  # m_b(m_b), MSbar
         6     1.73200000E+02  # m_t(pole)
         7     1.77700000E+00  # m_tau(pole)
         8     0.00000000E+00  # m_nu_3
        11     5.10998930E-04  # m_e(pole)
        12     0.00000000E+00  # m_nu_1
        13     1.05658372E-01  # m_muon(pole)
        14     0.00000000E+00  # m_nu_2
        21     5.00000000E-03  # m_d(2 GeV), MSbar
        22     2.50000000E-03  # m_u(2 GeV), MSbar
        23     9.50000000E-02  # m_s(2 GeV), MSbar
        24     1.27000000E+00  # m_c(m_c), MSbar
Block gauge Q=  4.13026511E+03  # (SUSY scale)
   1    3.55362975E-01  # g'(Q)^DRbar
   2    6.65198874E-01  # g(Q)^DRbar
   3    1.21977796E+00  # g3(Q)^DRbar
Block Yu Q=  4.13026511E+03  # (SUSY scale)
  1  1     8.38557655E-06   # Y_u(Q)^DRbar
  2  2     4.25987289E-03   # Y_c(Q)^DRbar
  3  3     1.01304500E+00   # Y_t(Q)^DRbar
Block Yd Q=  4.13026511E+03  # (SUSY scale)
  1  1     9.94097807E-04   # Y_d(Q)^DRbar
  2  2     1.88878583E-02   # Y_s(Q)^DRbar
  3  3     9.85833519E-01   # Y_b(Q)^DRbar
Block Ye Q=  4.13026511E+03  # (SUSY scale)
  1  1     1.73477337E-04   # Y_e(Q)^DRbar
  2  2     3.58696113E-02   # Y_mu(Q)^DRbar
  3  3     6.03267853E-01   # Y_tau(Q)^DRbar
Block Au Q=  4.13026511E+03  # (SUSY scale)
  1  1     0.00000000E+00   # A_u(Q)^DRbar
  2  2     0.00000000E+00   # A_c(Q)^DRbar
  3  3    -5.96008466E+02   # A_t(Q)^DRbar
Block Ad Q=  4.13026511E+03  # (SUSY scale)
  1  1     0.00000000E+00   # A_d(Q)^DRbar
  2  2     0.00000000E+00   # A_s(Q)^DRbar
  3  3     1.50300444E+03   # A_b(Q)^DRbar
Block Ae Q=  4.13026511E+03  # (SUSY scale)
  1  1     0.00000000E+00   # A_e(Q)^DRbar
  2  2     0.00000000E+00   # A_mu(Q)^DRbar
  3  3    -8.16047505E+02   # A_tau(Q)^DRbar
Block MSOFT Q=  4.13026511E+03  # soft SUSY breaking masses at Q
   1   -1.26826543E+02  # M_1
   2    3.20888437E+02  # M_2
   3    3.59770053E+03  # M_3
  21    1.79613847E+07  # M^2_(H,d)
  22    3.57096400E+05  # M^2_(H,u)
  31    1.00000000E+04  # M_(L,11)
  32    1.00000000E+04  # M_(L,22)
  33    1.00000000E+04  # M_(L,33)
  34    1.00000000E+04  # M_(E,11)
  35    1.00000000E+04  # M_(E,22)
  36    1.00000000E+04  # M_(E,33)
  41    1.00000000E+04  # M_(Q,11)
  42    1.00000000E+04  # M_(Q,22)
  43    3.34985262E+03  # M_(Q,33)
  44    1.00000000E+04  # M_(U,11)
  45    1.00000000E+04  # M_(U,22)
  46    4.88743652E+03  # M_(U,33)
  47    1.00000000E+04  # M_(D,11)
  48    1.00000000E+04  # M_(D,22)
  49    3.15040917E+03  # M_(D,33)
Block MASS  # Mass spectrum
#   PDG code      mass          particle
         6     1.73200000E+02  # m_t(pole)
        23     9.11876000E+01  # m_Z(pole)
        24     8.04299946E+01  # W+
        15     1.77700000E+00  # m_tau(pole)
        25     1.24111283E+02  # h0
        35     4.18360141E+03  # H0
        36     4.18890698E+03  # A0
        37     4.18099860E+03  # H+
   1000001     1.01078885E+04  # ~d_L
   2000001     1.00828208E+04  # ~d_R
   1000002     1.01075165E+04  # ~u_L
   2000002     1.00856197E+04  # ~u_R
   1000003     1.01078923E+04  # ~s_L
   2000003     1.00828279E+04  # ~s_R
   1000004     1.01075204E+04  # ~c_L
   2000004     1.00856202E+04  # ~c_R
   1000005     3.23929685E+03  # ~b_1
   2000005     3.45119028E+03  # ~b_2
   1000006     3.45318377E+03  # ~t_1
   2000006     4.94010484E+03  # ~t_2
   1000011     1.00214192E+04  # ~e_L-
   2000011     1.00092686E+04  # ~e_R-
   1000012     1.00206407E+04  # ~nu_eL
   1000013     1.00214381E+04  # ~mu_L-
   2000013     1.00093052E+04  # ~mu_R-
   1000014     1.00206596E+04  # ~nu_muL
   1000015     1.00197454E+04  # ~tau_1-
   2000015     1.00268486E+04  # ~tau_2-
   1000016     1.00260295E+04  # ~nu_tauL
   1000021     4.07810176E+03  # ~g
   1000022     1.03800986E+02  # ~chi_10
   1000023     1.24969618E+02  # ~chi_20
   1000025     1.68531562E+02  # ~chi_30
   1000035     3.75024065E+02  # ~chi_40
   1000024     1.28087940E+02  # ~chi_1+
   1000037     3.75274388E+02  # ~chi_2+
# Higgs mixing
Block alpha # Effective Higgs mixing angle
          -1.70215380E-02   # alpha
Block Hmix Q=  4.13026511E+03  # Higgs mixing parameters
   1   -1.12406839E+02  # mu
   2    5.89950998E+01  # tan[beta](Q)
   3    2.42919119E+02  # v(Q)
   4    1.75469417E+07  # m^2_A(Q)
Block stopmix # stop mixing matrix
   1  1     9.99959001E-01   # Re[R_st(1,1)]
   1  2     9.05516130E-03   # Re[R_st(1,2)]
   2  1    -9.05516130E-03   # Re[R_st(2,1)]
   2  2     9.99959001E-01   # Re[R_st(2,2)]
Block sbotmix # sbottom mixing matrix
   1  1    -8.13310428E-03   # Re[R_sb(1,1)]
   1  2     9.99966926E-01   # Re[R_sb(1,2)]
   2  1    -9.99966926E-01   # Re[R_sb(2,1)]
   2  2    -8.13310428E-03   # Re[R_sb(2,2)]
Block staumix # stau mixing matrix
   1  1    -6.65472023E-02   # Re[R_sta(1,1)]
   1  2     9.97783278E-01   # Re[R_sta(1,2)]
   2  1    -9.97783278E-01   # Re[R_sta(2,1)]
   2  2    -6.65472023E-02   # Re[R_sta(2,2)]
Block Nmix # neutralino mixing matrix
   1  1    -7.56323565E-01   # Re[N(1,1)]
   1  2    -7.25811377E-02   # Re[N(1,2)]
   1  3     5.12994090E-01   # Re[N(1,3)]
   1  4    -3.99429227E-01   # Re[N(1,4)]
   2  1    -1.12457624E-01   # Re[N(2,1)]
   2  2    -2.26604759E-01   # Re[N(2,2)]
   2  3    -7.09765082E-01   # Re[N(2,3)]
   2  4    -6.57447408E-01   # Re[N(2,4)]
   3  1    -6.44112283E-01   # Re[N(3,1)]
   3  2     9.30433350E-02   # Re[N(3,2)]
   3  3    -4.75748504E-01   # Re[N(3,3)]
   3  4     5.91714175E-01   # Re[N(3,4)]
   4  1     2.11498258E-02   # Re[N(4,1)]
   4  2    -9.66811874E-01   # Re[N(4,2)]
   4  3     8.20606627E-02   # Re[N(4,3)]
   4  4     2.41026001E-01   # Re[N(4,4)]
Block Umix # chargino mixing matrix
   1  1    -1.18029153E-01   # Re[U(1,1)]
   1  2    -9.93010130E-01   # Re[U(1,2)]
   2  1     9.93010130E-01   # Re[U(2,1)]
   2  2    -1.18029153E-01   # Re[U(2,2)]
Block Vmix # chargino mixing matrix
   1  1    -3.45672683E-01   # Re[V(1,1)]
   1  2     9.38355155E-01   # Re[V(1,2)]
   2  1     9.38355155E-01   # Re[V(2,1)]
   2  2     3.45672683E-01   # Re[V(2,2)]
DECAY        23     2.49520000E+00   # Z
DECAY        24     2.08500000E+00   # W
DECAY   2000011     5.02746522E+01   # ~e^-_R
#    BR                NDA      ID1      ID2
     5.72110123E-01    2     1000022        11   # BR(~e^-_R -> chi^0_1 e^-)
     1.26474282E-02    2     1000023        11   # BR(~e^-_R -> chi^0_2 e^-)
     4.14796107E-01    2     1000025        11   # BR(~e^-_R -> chi^0_3 e^-)
     4.46222974E-04    2     1000035        11   # BR(~e^-_R -> chi^0_4 e^-)
DECAY   1000011     1.44555307E+02   # ~e^-_L
#    BR                NDA      ID1      ID2
     6.93040325E-02    2     1000022        11   # BR(~e^-_L -> chi^0_1 e^-)
     2.50705759E-02    2     1000023        11   # BR(~e^-_L -> chi^0_2 e^-)
     1.92216096E-02    2     1000025        11   # BR(~e^-_L -> chi^0_3 e^-)
     2.77814229E-01    2     1000035        11   # BR(~e^-_L -> chi^0_4 e^-)
     8.49894497E-03    2    -1000024        12   # BR(~e^-_L -> chi^-_1 nu_e)
     6.00090608E-01    2    -1000037        12   # BR(~e^-_L -> chi^-_2 nu_e)
#    BR                NDA      ID1      ID2       ID3
DECAY   2000013     5.07870484E+01   # ~mu^-_R
#    BR                NDA      ID1      ID2
     5.67667382E-01    2     1000022        13   # BR(~mu^-_R -> chi^0_1 mu^-)
     1.50603635E-02    2     1000023        13   # BR(~mu^-_R -> chi^0_2 mu^-)
     4.11753794E-01    2     1000025        13   # BR(~mu^-_R -> chi^0_3 mu^-)
     4.75597007E-04    2     1000035        13   # BR(~mu^-_R -> chi^0_4 mu^-)
     4.97278346E-03    2    -1000024        14   # BR(~mu^-_R -> chi^-_1 nu_mu)
DECAY   1000013     1.44811998E+02   # ~mu^-_L
#    BR                NDA      ID1      ID2
     6.96473612E-02    2     1000022        13   # BR(~mu^-_L -> chi^0_1 mu^-)
     2.59182438E-02    2     1000023        13   # BR(~mu^-_L -> chi^0_2 mu^-)
     1.95882655E-02    2     1000025        13   # BR(~mu^-_L -> chi^0_3 mu^-)
     2.77334199E-01    2     1000035        13   # BR(~mu^-_L -> chi^0_4 mu^-)
     8.48389592E-03    2    -1000024        14   # BR(~mu^-_L -> chi^-_1 nu_mu)
     5.99028035E-01    2    -1000037        14   # BR(~mu^-_L -> chi^-_2 nu_mu)
#    BR                NDA      ID1      ID2       ID3
DECAY   1000015     1.95465937E+02   # ~tau^-_1
#    BR                NDA      ID1      ID2
     2.51060599E-01    2     1000022        15   # BR(~tau^-_1 -> chi^0_1 tau^-)
     1.94773640E-01    2     1000023        15   # BR(~tau^-_1 -> chi^0_2 tau^-)
     1.82355169E-01    2     1000025        15   # BR(~tau^-_1 -> chi^0_3 tau^-)
     4.40482689E-04    2     1000035        15   # BR(~tau^-_1 -> chi^0_4 tau^-)
     3.70623936E-01    2    -1000024        16   # BR(~tau^-_1 -> chi^-_1 nu_tau)
     7.46172488E-04    2    -1000037        16   # BR(~tau^-_1 -> chi^-_2 nu_tau)
DECAY   2000015     2.17103004E+02   # ~tau^-_2
#    BR                NDA      ID1      ID2
     1.28646308E-01    2     1000022        15   # BR(~tau^-_2 -> chi^0_1 tau^-)
     1.80950808E-01    2     1000023        15   # BR(~tau^-_2 -> chi^0_2 tau^-)
     9.60129461E-02    2     1000025        15   # BR(~tau^-_2 -> chi^0_3 tau^-)
     1.89276874E-01    2     1000035        15   # BR(~tau^-_2 -> chi^0_4 tau^-)
     1.35960787E-03    2    -1000024        16   # BR(~tau^-_2 -> chi^-_1 nu_tau)
     4.03753456E-01    2    -1000037        16   # BR(~tau^-_2 -> chi^-_2 nu_tau)
#    BR                NDA      ID1      ID2       ID3
DECAY   1000012     1.44560347E+02   # ~nu_e
#    BR                NDA      ID1      ID2
     3.35139132E-02    2     1000022        12   # BR(~nu_e -> chi^0_1 nu_e)
     8.45836992E-03    2     1000023        12   # BR(~nu_e -> chi^0_2 nu_e)
     5.82703541E-02    2     1000025        12   # BR(~nu_e -> chi^0_3 nu_e)
     2.91077018E-01    2     1000035        12   # BR(~nu_e -> chi^0_4 nu_e)
     7.28899912E-02    2     1000024        11   # BR(~nu_e -> chi^+_1 e^-)
     5.35790354E-01    2     1000037        11   # BR(~nu_e -> chi^+_2 e^-)
#    BR                NDA      ID1      ID2       ID3
DECAY   1000014     1.44817018E+02   # ~nu_mu
#    BR                NDA      ID1      ID2
     3.34545769E-02    2     1000022        14   # BR(~nu_mu -> chi^0_1 nu_mu)
     8.44339441E-03    2     1000023        14   # BR(~nu_mu -> chi^0_2 nu_mu)
     5.81671867E-02    2     1000025        14   # BR(~nu_mu -> chi^0_3 nu_mu)
     2.90561670E-01    2     1000035        14   # BR(~nu_mu -> chi^0_4 nu_mu)
     7.45068301E-02    2     1000024        13   # BR(~nu_mu -> chi^+_1 mu^-)
     5.34866342E-01    2     1000037        13   # BR(~nu_mu -> chi^+_2 mu^-)
#    BR                NDA      ID1      ID2       ID3
DECAY   1000016     2.17202711E+02   # ~nu_tau
#    BR                NDA      ID1      ID2
     2.23173523E-02    2     1000022        16   # BR(~nu_tau -> chi^0_1 nu_tau)
     5.63253953E-03    2     1000023        16   # BR(~nu_tau -> chi^0_2 nu_tau)
     3.88030041E-02    2     1000025        16   # BR(~nu_tau -> chi^0_3 nu_tau)
     1.93832526E-01    2     1000035        16   # BR(~nu_tau -> chi^0_4 nu_tau)
     3.77982150E-01    2     1000024        15   # BR(~nu_tau -> chi^+_1 tau^-)
     3.61432428E-01    2     1000037        15   # BR(~nu_tau -> chi^+_2 tau^-)
#    BR                NDA      ID1      ID2       ID3
DECAY   2000001     5.62406455E+02   # ~d_R
#    BR                NDA      ID1      ID2
     5.72432097E-03    2     1000022         1   # BR(~d_R -> chi^0_1 d)
     1.26720497E-04    2     1000023         1   # BR(~d_R -> chi^0_2 d)
     4.15032913E-03    2     1000025         1   # BR(~d_R -> chi^0_3 d)
     9.89993810E-01    2     1000021         1   # BR(~d_R -> ~g d)
DECAY   1000001     6.93767540E+02   # ~d_L
#    BR                NDA      ID1      ID2
     2.47328843E-04    2     1000022         1   # BR(~d_L -> chi^0_1 d)
     2.73597558E-03    2     1000023         1   # BR(~d_L -> chi^0_2 d)
     2.76611241E-03    2     1000025         1   # BR(~d_L -> chi^0_3 d)
     6.02440443E-02    2     1000035         1   # BR(~d_L -> chi^0_4 d)
     1.78615324E-03    2    -1000024         2   # BR(~d_L -> chi^-_1 u)
     1.26121430E-01    2    -1000037         2   # BR(~d_L -> chi^-_2 u)
     8.06098956E-01    2     1000021         1   # BR(~d_L -> ~g d)
DECAY   2000003     5.62549833E+02   # ~s_R
#    BR                NDA      ID1      ID2
     5.75624325E-03    2     1000022         3   # BR(~s_R -> chi^0_1 s)
     1.90574534E-04    2     1000023         3   # BR(~s_R -> chi^0_2 s)
     4.17796994E-03    2     1000025         3   # BR(~s_R -> chi^0_3 s)
     1.25396117E-04    2    -1000024         4   # BR(~s_R -> chi^-_1 c)
     9.89742731E-01    2     1000021         3   # BR(~s_R -> ~g s)
DECAY   1000003     6.93843126E+02   # ~s_L
#    BR                NDA      ID1      ID2
     2.74430413E-04    2     1000022         3   # BR(~s_L -> chi^0_1 s)
     2.78760519E-03    2     1000023         3   # BR(~s_L -> chi^0_2 s)
     2.78913576E-03    2     1000025         3   # BR(~s_L -> chi^0_3 s)
     6.02381959E-02    2     1000035         3   # BR(~s_L -> chi^0_4 s)
     1.79058793E-03    2    -1000024         4   # BR(~s_L -> chi^-_1 c)
     1.26108366E-01    2    -1000037         4   # BR(~s_L -> chi^-_2 c)
     8.06011679E-01    2     1000021         3   # BR(~s_L -> ~g s)
DECAY   1000005     1.26274780E+02   # ~b_1
#    BR                NDA      ID1      ID2
     1.39091344E-01    2     1000022         5   # BR(~b_1 -> chi^0_1 b)
     2.49751706E-01    2     1000023         5   # BR(~b_1 -> chi^0_2 b)
     1.16759532E-01    2     1000025         5   # BR(~b_1 -> chi^0_3 b)
     2.96330007E-03    2     1000035         5   # BR(~b_1 -> chi^0_4 b)
     4.85351784E-01    2    -1000024         6   # BR(~b_1 -> chi^-_1 t)
     6.08233440E-03    2    -1000037         6   # BR(~b_1 -> chi^-_2 t)
DECAY   2000005     1.81424615E+02   # ~b_2
#    BR                NDA      ID1      ID2
     9.64545340E-02    2     1000022         5   # BR(~b_2 -> chi^0_1 b)
     1.88029837E-01    2     1000023         5   # BR(~b_2 -> chi^0_2 b)
     8.70321879E-02    2     1000025         5   # BR(~b_2 -> chi^0_3 b)
     7.96522591E-02    2     1000035         5   # BR(~b_2 -> chi^0_4 b)
     3.40968618E-01    2    -1000024         6   # BR(~b_2 -> chi^-_1 t)
     2.07828017E-01    2    -1000037         6   # BR(~b_2 -> chi^-_2 t)
DECAY   2000002     5.79569222E+02   # ~u_R
#    BR                NDA      ID1      ID2
     2.22250376E-02    2     1000022         2   # BR(~u_R -> chi^0_1 u)
     4.91319158E-04    2     1000023         2   # BR(~u_R -> chi^0_2 u)
     1.61138696E-02    2     1000025         2   # BR(~u_R -> chi^0_3 u)
     9.61152438E-01    2     1000021         2   # BR(~u_R -> ~g u)
DECAY   1000002     6.93751060E+02   # ~u_L
#    BR                NDA      ID1      ID2
     2.75418574E-03    2     1000022         2   # BR(~u_L -> chi^0_1 u)
     3.89946199E-03    2     1000023         2   # BR(~u_L -> chi^0_2 u)
     5.93118027E-02    2     1000035         2   # BR(~u_L -> chi^0_4 u)
     1.53204874E-02    2     1000024         1   # BR(~u_L -> chi^+_1 d)
     1.12618640E-01    2     1000037         1   # BR(~u_L -> chi^+_2 d)
     8.06065365E-01    2     1000021         2   # BR(~u_L -> ~g u)
DECAY   2000004     5.79576518E+02   # ~c_R
#    BR                NDA      ID1      ID2
     2.22257610E-02    2     1000022         4   # BR(~c_R -> chi^0_1 c)
     4.94027809E-04    2     1000023         4   # BR(~c_R -> chi^0_2 c)
     1.61158635E-02    2     1000025         4   # BR(~c_R -> chi^0_3 c)
     9.61140370E-01    2     1000021         4   # BR(~c_R -> ~g c)
DECAY   1000004     6.93826624E+02   # ~c_L
#    BR                NDA      ID1      ID2
     2.75472536E-03    2     1000022         4   # BR(~c_L -> chi^0_1 c)
     3.90131052E-03    2     1000023         4   # BR(~c_L -> chi^0_2 c)
     5.93056713E-02    2     1000035         4   # BR(~c_L -> chi^0_4 c)
     1.54204633E-02    2     1000024         3   # BR(~c_L -> chi^+_1 s)
     1.12607849E-01    2     1000037         3   # BR(~c_L -> chi^+_2 s)
     8.05978085E-01    2     1000021         4   # BR(~c_L -> ~g c)
DECAY   1000006     1.89537762E+02   # ~t_1
#    BR                NDA      ID1      ID2
     1.64510568E-03    2     1000022         4   # BR(~t_1 -> chi^0_1 c)
     6.18629745E-02    2     1000022         6   # BR(~t_1 -> chi^0_1 t)
     2.32751937E-03    2     1000023         4   # BR(~t_1 -> chi^0_2 c)
     1.64517253E-01    2     1000023         6   # BR(~t_1 -> chi^0_2 t)
     1.29811971E-01    2     1000025         6   # BR(~t_1 -> chi^0_3 t)
     9.33841400E-02    2     1000035         6   # BR(~t_1 -> chi^0_4 t)
     3.66949377E-01    2     1000024         5   # BR(~t_1 -> chi^+_1 b)
     1.41270864E-01    2     1000037         5   # BR(~t_1 -> chi^+_2 b)
#    BR                NDA      ID1      ID2       ID3
     3.82173434E-02    3     1000022        24         5   # BR(~t_1 -> chi^0_1 W^+ b)
DECAY   2000006     2.52155270E+02   # ~t_2
#    BR                NDA      ID1      ID2
     8.91077495E-02    2     1000022         6   # BR(~t_2 -> chi^0_1 t)
     1.72471381E-01    2     1000023         6   # BR(~t_2 -> chi^0_2 t)
     1.56341010E-01    2     1000025         6   # BR(~t_2 -> chi^0_3 t)
     2.37300693E-02    2     1000035         6   # BR(~t_2 -> chi^0_4 t)
     3.50189159E-01    2     1000024         5   # BR(~t_2 -> chi^+_1 b)
     4.87791703E-02    2     1000037         5   # BR(~t_2 -> chi^+_2 b)
     1.52573180E-01    2     1000021         6   # BR(~t_2 -> ~g t)
     3.56276288E-03    2     2000005        24   # BR(~t_2 -> ~b_2 W^+)
     1.77315206E-03    2     1000006        23   # BR(~t_2 -> ~t_1 Z)
     1.47204040E-03    2     1000006        25   # BR(~t_2 -> ~t_1 h^0)
DECAY   1000024     1.18494474E-05   # chi^+_1
#    BR                NDA      ID1      ID2       ID3
     3.35711310E-01    3     1000022        -1         2   # BR(chi^+_1 -> chi^0_1 d_bar u)
     3.31358997E-01    3     1000022        -3         4   # BR(chi^+_1 -> chi^0_1 s_bar c)
     1.11901152E-01    3     1000022       -11        12   # BR(chi^+_1 -> chi^0_1 e^+ nu_e)
     1.11894223E-01    3     1000022       -13        14   # BR(chi^+_1 -> chi^0_1 mu^+ nu_mu)
     1.09107680E-01    3     1000022       -15        16   # BR(chi^+_1 -> chi^0_1 tau^+ nu_tau)
DECAY   1000037     2.69368609E+00   # chi^+_2
#    BR                NDA      ID1      ID2
     1.52684011E-01    2     1000022        24   # BR(chi^+_2 -> chi^0_1 W^+)
     2.62819557E-01    2     1000023        24   # BR(chi^+_2 -> chi^0_2 W^+)
     1.56781709E-01    2     1000025        24   # BR(chi^+_2 -> chi^0_3 W^+)
     2.44371835E-01    2     1000024        23   # BR(chi^+_2 -> chi^+_1 Z)
     1.83121850E-01    2     1000024        25   # BR(chi^+_2 -> chi^+_1 h^0)
#    BR                NDA      ID1      ID2       ID3
     1.06484576E-04    3     1000022        -5         6   # BR(chi^+_2 -> chi^0_1 b_bar t)
     1.05773880E-04    3     1000023        -5         6   # BR(chi^+_2 -> chi^0_2 b_bar t)
DECAY   1000022     0.00000000E+00   # chi^0_1
DECAY   1000023     4.57109393E-06   # chi^0_2
#    BR                NDA      ID1      ID2
     4.50062393E-02    2     1000022        22   # BR(chi^0_2 -> chi^0_1 photon)
#    BR                NDA      ID1      ID2       ID3
     1.21026288E-01    3     1000022         2        -2   # BR(chi^0_2 -> chi^0_1 u u_bar)
     1.15420441E-01    3     1000022         4        -4   # BR(chi^0_2 -> chi^0_1 c c_bar)
     1.55177787E-01    3     1000022         1        -1   # BR(chi^0_2 -> chi^0_1 d d_bar)
     1.55142175E-01    3     1000022         3        -3   # BR(chi^0_2 -> chi^0_1 s s_bar)
     9.90496206E-02    3     1000022         5        -5   # BR(chi^0_2 -> chi^0_1 b b_bar)
     3.50174805E-02    3     1000022        11       -11   # BR(chi^0_2 -> chi^0_1 e^- e^+)
     3.50048004E-02    3     1000022        13       -13   # BR(chi^0_2 -> chi^0_1 mu^- mu^+)
     3.16407306E-02    3     1000022        15       -15   # BR(chi^0_2 -> chi^0_1 tau^- tau^+)
     2.07514437E-01    3     1000022        12       -12   # BR(chi^0_2 -> chi^0_1 nu_e nu_bar_e)
DECAY   1000025     6.95768631E-04   # chi^0_3
#    BR                NDA      ID1      ID2
     2.85855788E-04    2     1000022        22   # BR(chi^0_3 -> chi^0_1 photon)
     7.27633172E-03    2     1000023        22   # BR(chi^0_3 -> chi^0_2 photon)
#    BR                NDA      ID1      ID2       ID3
     4.06867189E-02    3     1000023         2        -2   # BR(chi^0_3 -> chi^0_2 u u_bar)
     4.02696868E-02    3     1000023         4        -4   # BR(chi^0_3 -> chi^0_2 c c_bar)
     5.21683535E-02    3     1000023         1        -1   # BR(chi^0_3 -> chi^0_2 d d_bar)
     5.21657909E-02    3     1000023         3        -3   # BR(chi^0_3 -> chi^0_2 s s_bar)
     4.75627253E-02    3     1000023         5        -5   # BR(chi^0_3 -> chi^0_2 b b_bar)
     1.17732808E-02    3     1000023        11       -11   # BR(chi^0_3 -> chi^0_2 e^- e^+)
     1.17723648E-02    3     1000023        13       -13   # BR(chi^0_3 -> chi^0_2 mu^- mu^+)
     1.15179359E-02    3     1000023        15       -15   # BR(chi^0_3 -> chi^0_2 tau^- tau^+)
     6.97653632E-02    3     1000023        12       -12   # BR(chi^0_3 -> chi^0_2 nu_e nu_bar_e)
     1.09321505E-01    3     1000024         1        -2   # BR(chi^0_3 -> chi^+_1 d u_bar)
     1.09321505E-01    3    -1000024        -1         2   # BR(chi^0_3 -> chi^-_1 d_bar u)
     1.08861522E-01    3     1000024         3        -4   # BR(chi^0_3 -> chi^+_1 s c_bar)
     1.08861522E-01    3    -1000024        -3         4   # BR(chi^0_3 -> chi^-_1 s_bar c)
     3.64410907E-02    3     1000024        11       -12   # BR(chi^0_3 -> chi^+_1 e^- nu_bar_e)
     3.64410907E-02    3    -1000024       -11        12   # BR(chi^0_3 -> chi^-_1 e^+ nu_e)
     3.64403694E-02    3     1000024        13       -14   # BR(chi^0_3 -> chi^+_1 mu^- nu_bar_mu)
     3.64403694E-02    3    -1000024       -13        14   # BR(chi^0_3 -> chi^-_1 mu^+ nu_mu)
     3.61484701E-02    3     1000024        15       -16   # BR(chi^0_3 -> chi^+_1 tau^- nu_bar_tau)
     3.61484701E-02    3    -1000024       -15        16   # BR(chi^0_3 -> chi^-_1 tau^+ nu_tau)
DECAY   1000035     3.15579504E+00   # chi^0_4
#    BR                NDA      ID1      ID2
     2.42968129E-01    2     1000024       -24   # BR(chi^0_4 -> chi^+_1 W^-)
     2.42968129E-01    2    -1000024        24   # BR(chi^0_4 -> chi^-_1 W^+)
     9.36366394E-02    2     1000022        23   # BR(chi^0_4 -> chi^0_1 Z)
     4.49511615E-02    2     1000023        23   # BR(chi^0_4 -> chi^0_2 Z)
     1.13953737E-01    2     1000025        23   # BR(chi^0_4 -> chi^0_3 Z)
     7.22333505E-02    2     1000022        25   # BR(chi^0_4 -> chi^0_1 h^0)
     1.14001278E-01    2     1000023        25   # BR(chi^0_4 -> chi^0_2 h^0)
     7.50846536E-02    2     1000025        25   # BR(chi^0_4 -> chi^0_3 h^0)
#    BR                NDA      ID1      ID2       ID3
DECAY   1000021     4.02300314E+01   # ~g
#    BR                NDA      ID1      ID2
     5.74819973E-02    2     1000006        -4   # BR(~g -> ~t_1 c_bar)
     5.74819973E-02    2    -1000006         4   # BR(~g -> ~t^*_1 c)
     1.15520235E-01    2     1000006        -6   # BR(~g -> ~t_1 t_bar)
     1.15520235E-01    2    -1000006         6   # BR(~g -> ~t^*_1 t)
     2.04365477E-01    2     1000005        -5   # BR(~g -> ~b_1 b_bar)
     2.04365477E-01    2    -1000005         5   # BR(~g -> ~b^*_1 b)
     1.20836674E-01    2     2000005        -5   # BR(~g -> ~b_2 b_bar)
     1.20836674E-01    2    -2000005         5   # BR(~g -> ~b^*_2 b)
#    BR                NDA      ID1      ID2       ID3
     3.76050901E-04    3     1000022         6        -6   # BR(~g -> chi^0_1 t t_bar)
     6.77071269E-04    3     1000023         6        -6   # BR(~g -> chi^0_2 t t_bar)
     5.75965866E-04    3     1000025         6        -6   # BR(~g -> chi^0_3 t t_bar)
     6.84979061E-04    3     1000024         5        -6   # BR(~g -> chi^+_1 b t_bar)
     6.84979061E-04    3    -1000024        -5         6   # BR(~g -> chi^-_1 b_bar t)
DECAY        25     3.39615825E-03   # Gamma(h0)
     2.59520852E-03   2        22        22   # BR(h0 -> photon photon)
     1.57490650E-03   2        22        23   # BR(h0 -> photon Z)
     2.82450989E-02   2        23        23   # BR(h0 -> Z Z)
     2.37503164E-01   2       -24        24   # BR(h0 -> W W)
     8.12561216E-02   2        21        21   # BR(h0 -> gluon gluon)
     4.99917069E-09   2       -11        11   # BR(h0 -> Electron electron)
     2.22371575E-04   2       -13        13   # BR(h0 -> Muon muon)
     6.41166005E-02   2       -15        15   # BR(h0 -> Tau tau)
     1.42436167E-07   2        -2         2   # BR(h0 -> Up up)
     2.76436148E-02   2        -4         4   # BR(h0 -> Charm charm)
     5.79378611E-07   2        -1         1   # BR(h0 -> Down down)
     2.09547237E-04   2        -3         3   # BR(h0 -> Strange strange)
     5.56632640E-01   2        -5         5   # BR(h0 -> Bottom bottom)
DECAY        35     2.11968438E+02   # Gamma(HH)
     2.78677583E-08   2        22        22   # BR(HH -> photon photon)
     5.56112860E-08   2        22        23   # BR(HH -> photon Z)
     2.18443544E-08   2        23        23   # BR(HH -> Z Z)
     4.38198401E-09   2       -24        24   # BR(HH -> W W)
     5.56794141E-06   2        21        21   # BR(HH -> gluon gluon)
     9.07782423E-09   2       -11        11   # BR(HH -> Electron electron)
     4.04230257E-04   2       -13        13   # BR(HH -> Muon muon)
     1.16752645E-01   2       -15        15   # BR(HH -> Tau tau)
     1.33369114E-14   2        -2         2   # BR(HH -> Up up)
     2.58746534E-09   2        -4         4   # BR(HH -> Charm charm)
     1.98233363E-04   2        -6         6   # BR(HH -> Top top)
     6.46351546E-07   2        -1         1   # BR(HH -> Down down)
     2.33783613E-04   2        -3         3   # BR(HH -> Strange strange)
     6.20326005E-01   2        -5         5   # BR(HH -> Bottom bottom)
     2.16557093E-02   2  -1000024   1000024   # BR(HH -> Chargino1 chargino1)
     6.78679734E-02   2  -1000024   1000037   # BR(HH -> Chargino1 chargino2)
     6.78679734E-02   2  -1000037   1000024   # BR(HH -> Chargino2 chargino1)
     1.99783363E-03   2  -1000037   1000037   # BR(HH -> Chargino2 chargino2)
     3.26036512E-03   2   1000022   1000022   # BR(HH -> neutralino1 neutralino1)
     6.20854254E-03   2   1000022   1000023   # BR(HH -> neutralino1 neutralino2)
     2.96511694E-03   2   1000022   1000025   # BR(HH -> neutralino1 neutralino3)
     2.32621303E-02   2   1000022   1000035   # BR(HH -> neutralino1 neutralino4)
     2.45508692E-03   2   1000023   1000023   # BR(HH -> neutralino2 neutralino2)
     7.02003631E-03   2   1000023   1000025   # BR(HH -> neutralino2 neutralino3)
     3.80456138E-02   2   1000023   1000035   # BR(HH -> neutralino2 neutralino4)
     5.38930687E-03   2   1000025   1000025   # BR(HH -> neutralino3 neutralino3)
     1.30309891E-02   2   1000025   1000035   # BR(HH -> neutralino3 neutralino4)
     1.05193348E-03   2   1000035   1000035   # BR(HH -> neutralino4 neutralino4)
     1.55524113E-07   2        25        25   # BR(HH -> h0 h0)
DECAY        36     1.92861567E+02   # Gamma(A0)
     2.16381875E-10   2        22        22   # BR(A0 -> photon photon)
     1.29452616E-08   2        22        23   # BR(A0 -> photon Z)
     8.58694742E-06   2        21        21   # BR(A0 -> gluon gluon)
     8.75458330E-09   2       -11        11   # BR(A0 -> Electron electron)
     3.89834874E-04   2       -13        13   # BR(A0 -> Muon muon)
     1.12594982E-01   2       -15        15   # BR(A0 -> Tau tau)
     1.22657308E-14   2        -2         2   # BR(A0 -> Up up)
     2.37958687E-09   2        -4         4   # BR(A0 -> Charm charm)
     1.83816783E-04   2        -6         6   # BR(A0 -> Top top)
     6.23234606E-07   2        -1         1   # BR(A0 -> Down down)
     2.25423388E-04   2        -3         3   # BR(A0 -> Strange strange)
     5.98178694E-01   2        -5         5   # BR(A0 -> Bottom bottom)
     2.34195898E-02   2  -1000024   1000024   # BR(A0 -> Chargino1 chargino1)
     7.50986870E-02   2  -1000024   1000037   # BR(A0 -> Chargino1 chargino2)
     7.50986870E-02   2  -1000037   1000024   # BR(A0 -> Chargino2 chargino1)
     1.79179980E-03   2  -1000037   1000037   # BR(A0 -> Chargino2 chargino2)
     3.80582379E-03   2   1000022   1000022   # BR(A0 -> neutralino1 neutralino1)
     6.68816786E-03   2   1000022   1000023   # BR(A0 -> neutralino1 neutralino2)
     3.40415984E-03   2   1000022   1000025   # BR(A0 -> neutralino1 neutralino3)
     2.71699149E-02   2   1000022   1000035   # BR(A0 -> neutralino1 neutralino4)
     2.54575119E-03   2   1000023   1000023   # BR(A0 -> neutralino2 neutralino2)
     6.98603948E-03   2   1000023   1000025   # BR(A0 -> neutralino2 neutralino3)
     3.97992045E-02   2   1000023   1000035   # BR(A0 -> neutralino2 neutralino4)
     6.55247585E-03   2   1000025   1000025   # BR(A0 -> neutralino3 neutralino3)
     1.51005980E-02   2   1000025   1000035   # BR(A0 -> neutralino3 neutralino4)
     9.57061992E-04   2   1000035   1000035   # BR(A0 -> neutralino4 neutralino4)
     5.34203229E-08   2        23        25   # BR(A0 -> Z h0)
     2.39600877E-11   2        23        35   # BR(A0 -> Z HH)
     5.40323921E-40   2        25        25   # BR(A0 -> h0 h0)
DECAY        37     2.39679094E+02   # Gamma(Hp)
     9.97899165E-09   2       -11        12   # BR(Hp -> Electron nu_e)
     4.26633061E-04   2       -13        14   # BR(Hp -> Muon nu_mu)
     1.20676131E-01   2       -15        16   # BR(Hp -> Tau nu_tau)
     6.16159860E-07   2        -1         2   # BR(Hp -> Down up)
     1.04388915E-05   2        -3         2   # BR(Hp -> Strange up)
     6.84563447E-06   2        -5         2   # BR(Hp -> Bottom up)
     2.89958359E-08   2        -1         4   # BR(Hp -> Down charm)
     2.22057090E-04   2        -3         4   # BR(Hp -> Strange charm)
     9.58633920E-04   2        -5         4   # BR(Hp -> Bottom charm)
     1.26022481E-08   2        -1         6   # BR(Hp -> Down top)
     6.05838069E-07   2        -3         6   # BR(Hp -> Strange top)
     6.46217336E-01   2        -5         6   # BR(Hp -> Bottom top)
     2.02213999E-02   2   1000022   1000024   # BR(Hp -> neutralino1 chargino1)
     4.14816652E-02   2   1000022   1000037   # BR(Hp -> neutralino1 chargino2)
     2.30593104E-03   2   1000023   1000024   # BR(Hp -> neutralino2 chargino1)
     7.56628012E-02   2   1000023   1000037   # BR(Hp -> neutralino2 chargino2)
     4.50682845E-03   2   1000024   1000025   # BR(Hp -> chargino1 neutralino3)
     2.28295128E-02   2   1000025   1000037   # BR(Hp -> neutralino3 chargino2)
     6.44719241E-02   2   1000024   1000035   # BR(Hp -> chargino1 neutralino4)
     5.45422966E-07   2   1000035   1000037   # BR(Hp -> neutralino4 chargino2)
     4.27554855E-08   2        24        25   # BR(Hp -> W h0)
DECAY         6     2.43000000E+00   # top
#    BR                NDA      ID1      ID2
     1.00000000E+00    2           5        24   # BR(t -> b W)
Block HiggsBoundsInputHiggsCouplingsFermions
# ScalarNormEffCoupSq PseudoSNormEffCoupSq NP IP1 IP2 IP2
    1.00858452E+00    0.00000000E+00        3  25   5   5  # h0-b-b eff. coupling^2, normalised to SM
    3.48041322E+03    0.00000000E+00        3  35   5   5  # H0-b-b eff. coupling^2, normalised to SM
    0.00000000E+00    3.48042180E+03        3  36   5   5  # A0-b-b eff. coupling^2, normalised to SM
#
    9.99997533E-01    0.00000000E+00        3  25   6   6  # h0-t-t eff. coupling^2, normalised to SM
    2.89788014E-04    0.00000000E+00        3  35   6   6  # H0-t-t eff. coupling^2, normalised to SM
    0.00000000E+00    2.87321496E-04        3  36   6   6  # A0-t-t eff. coupling^2, normalised to SM
#
    1.00858452E+00    0.00000000E+00        3  25  15  15  # h0-tau-tau eff. coupling^2, normalised to SM
    3.48041322E+03    0.00000000E+00        3  35  15  15  # H0-tau-tau eff. coupling^2, normalised to SM
    0.00000000E+00    3.48042180E+03        3  36  15  15  # A0-tau-tau eff. coupling^2, normalised to SM
#
Block HiggsBoundsInputHiggsCouplingsBosons
    9.99999995E-01        3  25  24  24  # h0-W-W eff. coupling^2, normalised to SM
    5.27087355E-09        3  35  24  24  # H0-W-W eff. coupling^2, normalised to SM
    0.00000000E+00        3  36  24  24  # A0-W-W eff. coupling^2, normalised to SM
#
    9.99999995E-01        3  25  23  23  # h0-Z-Z eff. coupling^2, normalised to SM
    5.27087355E-09        3  35  23  23  # H0-Z-Z eff. coupling^2, normalised to SM
    0.00000000E+00        3  36  23  23  # A0-Z-Z eff. coupling^2, normalised to SM
#
    1.26576621E+00        3  25  21  21  # h0-g-g eff. coupling^2, normalised to SM
    1.62407830E-02        3  35  21  21  # H0-g-g eff. coupling^2, normalised to SM
    1.52002260E-01        3  36  21  21  # A0-g-g eff. coupling^2, normalised to SM
#
    0.00000000E+00        3  25  25  23  # h0-h0-Z eff. coupling^2, normalised to SM
    0.00000000E+00        3  35  25  23  # H0-h0-Z eff. coupling^2, normalised to SM
    5.27087355E-09        3  36  25  23  # A0-h0-Z eff. coupling^2, normalised to SM
    0.00000000E+00        3  35  35  23  # H0-H0-Z eff. coupling^2, normalised to SM
    9.99999995E-01        3  36  35  23  # A0-H0-Z eff. coupling^2, normalised to SM
    0.00000000E+00        3  36  36  23  # A0-A0-Z eff. coupling^2, normalised to SM
#
    0.00000000E+00        4  25  21  21  23  # h0-g-g-Z eff. coupling^2, normalised to SM
    0.00000000E+00        4  35  21  21  23  # H0-g-g-Z eff. coupling^2, normalised to SM
    0.00000000E+00        4  36  21  21  23  # A0-g-g-Z eff. coupling^2, normalised to SM
Block SPhenoLowEnergy  # low energy observables
    1    3.29141364E-04   # BR(b -> s gamma)
    2    1.58911175E-06   # BR(b -> s mu+ mu-)
    3    3.52477203E-05   # BR(b -> s nu nu)
    4    2.03520243E-15   # BR(Bd -> e+ e-)
    5    8.69425631E-11   # BR(Bd -> mu+ mu-)
    6    1.82594188E-08   # BR(Bd -> tau+ tau-)
    7    7.02654960E-14   # BR(Bs -> e+ e-)
    8    3.00177298E-09   # BR(Bs -> mu+ mu-)
    9    6.38631586E-07   # BR(Bs -> tau+ tau-)
   10    9.57886378E-05   # BR(B_u -> tau nu)
   11    9.89459956E-01   # BR(B_u -> tau nu)/BR(B_u -> tau nu)_SM
   12    5.41822133E-01   # |Delta(M_Bd)| [ps^-1] 
   13    1.93505831E+01   # |Delta(M_Bs)| [ps^-1] 
   14    0.00000000E+00   # neutron EDM according to the chiral quark model
   15    0.00000000E+00   # neutron EDM according to the relativistic quark-parton model
   16    2.15685945E-03   # epsilon_K
   17    2.28165475E-15   # Delta(M_K)
   18    2.47967291E-11   # BR(K^0 -> pi^0 nu nu)
   19    8.28974228E-11   # BR(K^+ -> pi^+ nu nu)
   20   -3.91385390E-16   # Delta(g-2)_electron/2
   21   -1.67334091E-11   # Delta(g-2)_muon/2
   22   -4.76803331E-09   # Delta(g-2)_tau/2
   23    0.00000000E+00   # electric dipole moment of the electron
   24    0.00000000E+00   # electric dipole moment of the muon
   25    0.00000000E+00   # electric dipole moment of the tau
   26    0.00000000E+00   # Br(mu -> e gamma)
   27    0.00000000E+00   # Br(tau -> e gamma)
   28    0.00000000E+00   # Br(tau -> mu gamma)
   29    0.00000000E+00   # Br(mu -> 3 e)
   30    0.00000000E+00   # Br(tau -> 3 e)
   31    0.00000000E+00   # Br(tau -> 3 mu)
   39    7.64307988E-05   # Delta(rho_parameter)
   40    0.00000000E+00   # BR(Z -> e mu)
   41    0.00000000E+00   # BR(Z -> e tau)
   42    0.00000000E+00   # BR(Z -> mu tau)
Block FWCOEF Q=  1.60000000E+02  # Wilson coefficients at scale Q
#    id        order  M        value         comment
     0305 4422   00   0    -1.88819110E-01   # C7
     0305 4422   00   2    -1.99356280E-01   # C7
     0305 4322   00   2    -1.30807655E-04   # C7'
     0305 6421   00   0    -9.52278348E-02   # C8
     0305 6421   00   2    -1.01952057E-01   # C8
     0305 6321   00   2    -1.01214260E-04   # C8'
 03051111 4133   00   0     1.62916770E+00   # C9 e+e-
 03051111 4133   00   2     1.62942245E+00   # C9 e+e-
 03051111 4233   00   2     8.46281810E-04   # C9' e+e-
 03051111 4137   00   0    -4.45185980E+00   # C10 e+e-
 03051111 4137   00   2    -4.44994272E+00   # C10 e+e-
 03051111 4237   00   2    -6.24009070E-03   # C10' e+e-
 03051313 4133   00   0     1.62916770E+00   # C9 mu+mu-
 03051313 4133   00   2     1.62942225E+00   # C9 mu+mu-
 03051313 4233   00   2     8.46280909E-04   # C9' mu+mu-
 03051313 4137   00   0    -4.45185980E+00   # C10 mu+mu-
 03051313 4137   00   2    -4.44994292E+00   # C10 mu+mu-
 03051313 4237   00   2    -6.24009179E-03   # C10' mu+mu-
 03051212 4137   00   0     1.50535012E+00   # C11 nu_1 nu_1
 03051212 4137   00   2     1.50493768E+00   # C11 nu_1 nu_1
 03051212 4237   00   2     1.34859033E-03   # C11' nu_1 nu_1
 03051414 4137   00   0     1.50535012E+00   # C11 nu_2 nu_2
 03051414 4137   00   2     1.50493768E+00   # C11 nu_2 nu_2
 03051414 4237   00   2     1.34859041E-03   # C11' nu_2 nu_2
 03051616 4137   00   0     1.50535012E+00   # C11 nu_3 nu_3
 03051616 4137   00   2     1.50493769E+00   # C11 nu_3 nu_3
 03051616 4237   00   2     1.34861482E-03   # C11' nu_3 nu_3
Block IMFWCOEF Q=  1.60000000E+02  # Im(Wilson coefficients) at scale Q
#    id        order  M        value         comment
     0305 4422   00   0     3.85815866E-07   # C7
     0305 4422   00   2    -1.66439157E-05   # C7
     0305 4322   00   2    -9.58075148E-07   # C7'
     0305 6421   00   0     3.30476805E-07   # C8
     0305 6421   00   2     1.17705225E-05   # C8
     0305 6321   00   2     5.57416905E-09   # C8'
 03051111 4133   00   2     1.08117243E-06   # C9 e+e-
 03051111 4233   00   2     1.60130499E-05   # C9' e+e-
 03051111 4137   00   2    -1.59485193E-07   # C10 e+e-
 03051111 4237   00   2    -1.18076885E-04   # C10' e+e-
 03051313 4133   00   2     1.08116237E-06   # C9 mu+mu-
 03051313 4233   00   2     1.60130410E-05   # C9' mu+mu-
 03051313 4137   00   2    -1.59474542E-07   # C10 mu+mu-
 03051313 4237   00   2    -1.18076912E-04   # C10' mu+mu-
 03051212 4137   00   2     6.79412601E-08   # C11 nu_1 nu_1
 03051212 4237   00   2     2.55184354E-05   # C11' nu_1 nu_1
 03051414 4137   00   2     6.79417931E-08   # C11 nu_2 nu_2
 03051414 4237   00   2     2.55184354E-05   # C11' nu_2 nu_2
 03051616 4137   00   2     6.80885959E-08   # C11 nu_3 nu_3
 03051616 4237   00   2     2.55184354E-05   # C11' nu_3 nu_3
