# SUSY Les Houches Accord 2 - MSSM spectrum + Decays
# SPheno v4.0.5be
# W. Porod, Comput. Phys. Commun. 153 (2003) 275-315, hep-ph/0301101;
# W. Porod, F.~Staub, Comput. Phys. Commun. 183 (2012) 2458
#                     arXiv:1104.1573 [hep-ph] 
# in case of problems send email to porod@physik.uni-wuerzburg.de
# Created: 12.05.2022,  12:53
Block SPINFO         # Program information
     1   SPheno      # spectrum calculator
     2   v4.0.5be    # version number
#
Block SPhenoINFO     # SPheno specific information
    1      2         # using 2-loop RGEs
    2      2         # using pole masses for boundary conditions at mZ
Block MODSEL  # Model selection
    1    0    # general MSSM
Block MINPAR  # Input parameters
    3    2.49947971E+01  # tanb at m_Z    
    4   -1.00000000E+00  # Sign(mu)
Block EXTPAR  # non-universal input parameters
    0    3.00121952E+03  # scale for input parameters
    1   -6.23505559E+02  # M_1
    2    7.56422932E+02  # M_2
    3    1.13361100E+03  # M_3
   11    6.65062691E+03  # A_t
   12   -5.30310119E+02  # A_b
   13   -5.00895429E+02  # A_tau
   23   -1.65850890E+02  # mu
   25    2.39819120E+01  # tan(beta)
   26    3.17919350E+03  # m_A, pole mass
   31    1.00000000E+04  # M_L11
   32    1.00000000E+04  # M_L22
   33    1.00000000E+04  # M_L33
   34    1.00000000E+04  # M_E11
   35    1.00000000E+04  # M_E22
   36    1.00000000E+04  # M_E33
   41    1.00000000E+04  # M_Q11
   42    1.00000000E+04  # M_Q22
   43    2.97528343E+03  # M_Q33
   44    1.00000000E+04  # M_U11
   45    1.00000000E+04  # M_U22
   46    3.22271129E+03  # M_U33
   47    1.00000000E+04  # M_D11
   48    1.00000000E+04  # M_D22
   49    4.66596498E+03  # M_D33
Block SMINPUTS  # SM parameters
         1     1.27908970E+02  # alpha_em^-1(MZ)^MSbar
         2     1.16637870E-05  # G_mu [GeV^-2]
         3     1.18400000E-01  # alpha_s(MZ)^MSbar
         4     9.11876000E+01  # m_Z(pole)
         5     4.18000000E+00  # m_b(m_b), MSbar
         6     1.73200000E+02  # m_t(pole)
         7     1.77700000E+00  # m_tau(pole)
         8     0.00000000E+00  # m_nu_3
        11     5.10998930E-04  # m_e(pole)
        12     0.00000000E+00  # m_nu_1
        13     1.05658372E-01  # m_muon(pole)
        14     0.00000000E+00  # m_nu_2
        21     5.00000000E-03  # m_d(2 GeV), MSbar
        22     2.50000000E-03  # m_u(2 GeV), MSbar
        23     9.50000000E-02  # m_s(2 GeV), MSbar
        24     1.27000000E+00  # m_c(m_c), MSbar
Block gauge Q=  3.00121952E+03  # (SUSY scale)
   1    3.55362975E-01  # g'(Q)^DRbar
   2    6.65198874E-01  # g(Q)^DRbar
   3    1.21977796E+00  # g3(Q)^DRbar
Block Yu Q=  3.00121952E+03  # (SUSY scale)
  1  1     8.39165805E-06   # Y_u(Q)^DRbar
  2  2     4.26296229E-03   # Y_c(Q)^DRbar
  3  3     1.01377970E+00   # Y_t(Q)^DRbar
Block Yd Q=  3.00121952E+03  # (SUSY scale)
  1  1     4.04400637E-04   # Y_d(Q)^DRbar
  2  2     7.68361211E-03   # Y_s(Q)^DRbar
  3  3     4.01038711E-01   # Y_b(Q)^DRbar
Block Ye Q=  3.00121952E+03  # (SUSY scale)
  1  1     7.05708684E-05   # Y_e(Q)^DRbar
  2  2     1.45918174E-02   # Y_mu(Q)^DRbar
  3  3     2.45410363E-01   # Y_tau(Q)^DRbar
Block Au Q=  3.00121952E+03  # (SUSY scale)
  1  1     0.00000000E+00   # A_u(Q)^DRbar
  2  2     0.00000000E+00   # A_c(Q)^DRbar
  3  3     6.65062692E+03   # A_t(Q)^DRbar
Block Ad Q=  3.00121952E+03  # (SUSY scale)
  1  1     0.00000000E+00   # A_d(Q)^DRbar
  2  2     0.00000000E+00   # A_s(Q)^DRbar
  3  3    -5.30310121E+02   # A_b(Q)^DRbar
Block Ae Q=  3.00121952E+03  # (SUSY scale)
  1  1     0.00000000E+00   # A_e(Q)^DRbar
  2  2     0.00000000E+00   # A_mu(Q)^DRbar
  3  3    -5.00895432E+02   # A_tau(Q)^DRbar
Block MSOFT Q=  3.00121952E+03  # soft SUSY breaking masses at Q
   1   -6.23505559E+02  # M_1
   2    7.56422932E+02  # M_2
   3    1.13361100E+03  # M_3
  21    1.00082496E+07  # M^2_(H,d)
  22    1.58334531E+05  # M^2_(H,u)
  31    1.00000000E+04  # M_(L,11)
  32    1.00000000E+04  # M_(L,22)
  33    1.00000000E+04  # M_(L,33)
  34    1.00000000E+04  # M_(E,11)
  35    1.00000000E+04  # M_(E,22)
  36    1.00000000E+04  # M_(E,33)
  41    1.00000000E+04  # M_(Q,11)
  42    1.00000000E+04  # M_(Q,22)
  43    2.97528343E+03  # M_(Q,33)
  44    1.00000000E+04  # M_(U,11)
  45    1.00000000E+04  # M_(U,22)
  46    3.22271129E+03  # M_(U,33)
  47    1.00000000E+04  # M_(D,11)
  48    1.00000000E+04  # M_(D,22)
  49    4.66596498E+03  # M_(D,33)
Block MASS  # Mass spectrum
#   PDG code      mass          particle
         6     1.73200000E+02  # m_t(pole)
        23     9.11876000E+01  # m_Z(pole)
        24     8.04299946E+01  # W+
        15     1.77700000E+00  # m_tau(pole)
        25     1.29607189E+02  # h0
        35     3.17862938E+03  # H0
        36     3.17919350E+03  # A0
        37     3.17972501E+03  # H+
   1000001     1.01232634E+04  # ~d_L
   2000001     1.00982594E+04  # ~d_R
   1000002     1.01229082E+04  # ~u_L
   2000002     1.01011287E+04  # ~u_R
   1000003     1.01232662E+04  # ~s_L
   2000003     1.00982635E+04  # ~s_R
   1000004     1.01229111E+04  # ~c_L
   2000004     1.01011301E+04  # ~c_R
   1000005     2.93819158E+03  # ~b_1
   2000005     4.70856943E+03  # ~b_2
   1000006     2.84671638E+03  # ~t_1
   2000006     3.16410818E+03  # ~t_2
   1000011     1.00209575E+04  # ~e_L-
   2000011     1.00091133E+04  # ~e_R-
   1000012     1.00201965E+04  # ~nu_eL
   1000013     1.00209685E+04  # ~mu_L-
   2000013     1.00091347E+04  # ~mu_R-
   1000014     1.00202074E+04  # ~nu_muL
   1000015     1.00151585E+04  # ~tau_1-
   2000015     1.00240725E+04  # ~tau_2-
   1000016     1.00232987E+04  # ~nu_tauL
   1000021     1.44016483E+03  # ~g
   1000022     1.76488740E+02  # ~chi_10
   1000023     1.80689032E+02  # ~chi_20
   1000025     6.32697398E+02  # ~chi_30
   1000035     8.26599053E+02  # ~chi_40
   1000024     1.78861248E+02  # ~chi_1+
   1000037     8.26549966E+02  # ~chi_2+
# Higgs mixing
Block alpha # Effective Higgs mixing angle
          -4.00783269E-02   # alpha
Block Hmix Q=  3.00121952E+03  # Higgs mixing parameters
   1   -1.65850890E+02  # mu
   2    2.39819120E+01  # tan[beta](Q)
   3    2.43176442E+02  # v(Q)
   4    1.01072713E+07  # m^2_A(Q)
Block stopmix # stop mixing matrix
   1  1    -8.57990025E-01   # Re[R_st(1,1)]
   1  2     5.13666349E-01   # Re[R_st(1,2)]
   2  1    -5.13666349E-01   # Re[R_st(2,1)]
   2  2    -8.57990025E-01   # Re[R_st(2,2)]
Block sbotmix # sbottom mixing matrix
   1  1    -9.99999898E-01   # Re[R_sb(1,1)]
   1  2     4.51833708E-04   # Re[R_sb(1,2)]
   2  1    -4.51833708E-04   # Re[R_sb(2,1)]
   2  2    -9.99999898E-01   # Re[R_sb(2,2)]
Block staumix # stau mixing matrix
   1  1    -3.36925226E-02   # Re[R_sta(1,1)]
   1  2     9.99432246E-01   # Re[R_sta(1,2)]
   2  1    -9.99432246E-01   # Re[R_sta(2,1)]
   2  2    -3.36925226E-02   # Re[R_sta(2,2)]
Block Nmix # neutralino mixing matrix
   1  1    -3.67458898E-02   # Re[N(1,1)]
   1  2    -8.34952848E-02   # Re[N(1,2)]
   1  3    -7.11168057E-01   # Re[N(1,3)]
   1  4    -6.97078383E-01   # Re[N(1,4)]
   2  1     7.25865206E-02   # Re[N(2,1)]
   2  2     5.96696288E-02   # Re[N(2,2)]
   2  3    -7.02364884E-01   # Re[N(2,3)]
   2  4     7.05587912E-01   # Re[N(2,4)]
   3  1    -9.96680123E-01   # Re[N(3,1)]
   3  2     4.32069625E-03   # Re[N(3,2)]
   3  3    -2.48780398E-02   # Re[N(3,3)]
   3  4     7.74024971E-02   # Re[N(3,4)]
   4  1     3.10941378E-03   # Re[N(4,1)]
   4  2    -9.94710714E-01   # Re[N(4,2)]
   4  3     1.74541571E-02   # Re[N(4,3)]
   4  4     1.01174500E-01   # Re[N(4,4)]
Block Umix # chargino mixing matrix
   1  1    -2.48371881E-02   # Re[U(1,1)]
   1  2    -9.99691509E-01   # Re[U(1,2)]
   2  1     9.99691509E-01   # Re[U(2,1)]
   2  2    -2.48371881E-02   # Re[U(2,2)]
Block Vmix # chargino mixing matrix
   1  1    -1.43504110E-01   # Re[V(1,1)]
   1  2     9.89649721E-01   # Re[V(1,2)]
   2  1     9.89649721E-01   # Re[V(2,1)]
   2  2     1.43504110E-01   # Re[V(2,2)]
DECAY        23     2.49520000E+00   # Z
DECAY        24     2.08500000E+00   # W
DECAY   2000011     4.98934685E+01   # ~e^-_R
#    BR                NDA      ID1      ID2
     1.36021340E-03    2     1000022        11   # BR(~e^-_R -> chi^0_1 e^-)
     5.30745173E-03    2     1000023        11   # BR(~e^-_R -> chi^0_2 e^-)
     9.93322702E-01    2     1000025        11   # BR(~e^-_R -> chi^0_3 e^-)
DECAY   1000011     1.43026522E+02   # ~e^-_L
#    BR                NDA      ID1      ID2
     3.27763513E-03    2     1000022        11   # BR(~e^-_L -> chi^0_1 e^-)
     2.98687797E-03    2     1000023        11   # BR(~e^-_L -> chi^0_2 e^-)
     8.53300821E-02    2     1000025        11   # BR(~e^-_L -> chi^0_3 e^-)
     2.99990506E-01    2     1000035        11   # BR(~e^-_L -> chi^0_4 e^-)
     3.80236579E-04    2    -1000024        12   # BR(~e^-_L -> chi^-_1 nu_e)
     6.08034662E-01    2    -1000037        12   # BR(~e^-_L -> chi^-_2 nu_e)
#    BR                NDA      ID1      ID2       ID3
DECAY   2000013     4.99783160E+01   # ~mu^-_R
#    BR                NDA      ID1      ID2
     1.78668014E-03    2     1000022        13   # BR(~mu^-_R -> chi^0_1 mu^-)
     5.71666548E-03    2     1000023        13   # BR(~mu^-_R -> chi^0_2 mu^-)
     9.91639023E-01    2     1000025        13   # BR(~mu^-_R -> chi^0_3 mu^-)
     8.47263362E-04    2    -1000024        14   # BR(~mu^-_R -> chi^-_1 nu_mu)
DECAY   1000013     1.43069103E+02   # ~mu^-_L
#    BR                NDA      ID1      ID2
     3.42662451E-03    2     1000022        13   # BR(~mu^-_L -> chi^0_1 mu^-)
     3.13225857E-03    2     1000023        13   # BR(~mu^-_L -> chi^0_2 mu^-)
     8.53049634E-02    2     1000025        13   # BR(~mu^-_L -> chi^0_3 mu^-)
     2.99901648E-01    2     1000035        13   # BR(~mu^-_L -> chi^0_4 mu^-)
     3.80123829E-04    2    -1000024        14   # BR(~mu^-_L -> chi^-_1 nu_mu)
     6.07854381E-01    2    -1000037        14   # BR(~mu^-_L -> chi^-_2 nu_mu)
#    BR                NDA      ID1      ID2       ID3
DECAY   1000015     7.40013171E+01   # ~tau^-_1
#    BR                NDA      ID1      ID2
     8.38351160E-02    2     1000022        15   # BR(~tau^-_1 -> chi^0_1 tau^-)
     8.32187407E-02    2     1000023        15   # BR(~tau^-_1 -> chi^0_2 tau^-)
     6.69380792E-01    2     1000025        15   # BR(~tau^-_1 -> chi^0_3 tau^-)
     3.53940673E-04    2     1000035        15   # BR(~tau^-_1 -> chi^0_4 tau^-)
     1.62504597E-01    2    -1000024        16   # BR(~tau^-_1 -> chi^-_1 nu_tau)
     7.06813662E-04    2    -1000037        16   # BR(~tau^-_1 -> chi^-_2 nu_tau)
DECAY   2000015     1.54981649E+02   # ~tau^-_2
#    BR                NDA      ID1      ID2
     4.17390019E-02    2     1000022        15   # BR(~tau^-_2 -> chi^0_1 tau^-)
     4.11079460E-02    2     1000023        15   # BR(~tau^-_2 -> chi^0_2 tau^-)
     7.92272409E-02    2     1000025        15   # BR(~tau^-_2 -> chi^0_3 tau^-)
     2.76818315E-01    2     1000035        15   # BR(~tau^-_2 -> chi^0_4 tau^-)
     5.61020050E-01    2    -1000037        16   # BR(~tau^-_2 -> chi^-_2 nu_tau)
#    BR                NDA      ID1      ID2       ID3
DECAY   1000012     1.43031412E+02   # ~nu_e
#    BR                NDA      ID1      ID2
     1.25690530E-03    2     1000022        12   # BR(~nu_e -> chi^0_1 nu_e)
     1.34506288E-04    2     1000023        12   # BR(~nu_e -> chi^0_2 nu_e)
     8.81355154E-02    2     1000025        12   # BR(~nu_e -> chi^0_3 nu_e)
     3.01967201E-01    2     1000035        12   # BR(~nu_e -> chi^0_4 nu_e)
     1.26920006E-02    2     1000024        11   # BR(~nu_e -> chi^+_1 e^-)
     5.95813872E-01    2     1000037        11   # BR(~nu_e -> chi^+_2 e^-)
#    BR                NDA      ID1      ID2       ID3
DECAY   1000014     1.43073988E+02   # ~nu_mu
#    BR                NDA      ID1      ID2
     1.25653263E-03    2     1000022        14   # BR(~nu_mu -> chi^0_1 nu_mu)
     1.34466408E-04    2     1000023        14   # BR(~nu_mu -> chi^0_2 nu_mu)
     8.81093853E-02    2     1000025        14   # BR(~nu_mu -> chi^0_3 nu_mu)
     3.01877678E-01    2     1000035        14   # BR(~nu_mu -> chi^0_4 nu_mu)
     1.29845242E-02    2     1000024        13   # BR(~nu_mu -> chi^+_1 mu^-)
     5.95637413E-01    2     1000037        13   # BR(~nu_mu -> chi^+_2 mu^-)
#    BR                NDA      ID1      ID2       ID3
DECAY   1000016     1.55078656E+02   # ~nu_tau
#    BR                NDA      ID1      ID2
     1.15962229E-03    2     1000022        16   # BR(~nu_tau -> chi^0_1 nu_tau)
     1.24095661E-04    2     1000023        16   # BR(~nu_tau -> chi^0_2 nu_tau)
     8.13143011E-02    2     1000025        16   # BR(~nu_tau -> chi^0_3 nu_tau)
     2.78597548E-01    2     1000035        16   # BR(~nu_tau -> chi^0_4 nu_tau)
     8.90546181E-02    2     1000024        15   # BR(~nu_tau -> chi^+_1 tau^-)
     5.49749815E-01    2     1000037        15   # BR(~nu_tau -> chi^+_2 tau^-)
#    BR                NDA      ID1      ID2       ID3
DECAY   2000001     7.70588828E+02   # ~d_R
#    BR                NDA      ID1      ID2
     7.21075944E-03    2     1000025         1   # BR(~d_R -> chi^0_3 d)
     9.92740690E-01    2     1000021         1   # BR(~d_R -> ~g d)
DECAY   1000001     9.00350731E+02   # ~d_L
#    BR                NDA      ID1      ID2
     2.92895754E-04    2     1000022         1   # BR(~d_L -> chi^0_1 d)
     1.08082995E-04    2     1000023         1   # BR(~d_L -> chi^0_2 d)
     1.62298640E-03    2     1000025         1   # BR(~d_L -> chi^0_3 d)
     4.83702591E-02    2     1000035         1   # BR(~d_L -> chi^0_4 d)
     9.76032215E-02    2    -1000037         2   # BR(~d_L -> chi^-_2 u)
     8.51941534E-01    2     1000021         1   # BR(~d_L -> ~g d)
DECAY   2000003     7.70612806E+02   # ~s_R
#    BR                NDA      ID1      ID2
     7.21054742E-03    2     1000025         3   # BR(~s_R -> chi^0_3 s)
     9.92710235E-01    2     1000021         3   # BR(~s_R -> ~g s)
DECAY   1000003     9.00366504E+02   # ~s_L
#    BR                NDA      ID1      ID2
     2.99547152E-04    2     1000022         3   # BR(~s_L -> chi^0_1 s)
     1.14573507E-04    2     1000023         3   # BR(~s_L -> chi^0_2 s)
     1.62296648E-03    2     1000025         3   # BR(~s_L -> chi^0_3 s)
     4.83694292E-02    2     1000035         3   # BR(~s_L -> chi^0_4 s)
     9.76016223E-02    2    -1000037         4   # BR(~s_L -> chi^-_2 c)
     8.51926863E-01    2     1000021         3   # BR(~s_L -> ~g s)
DECAY   1000005     2.35991443E+02   # ~b_1
#    BR                NDA      ID1      ID2
     2.03277204E-02    2     1000022         5   # BR(~b_1 -> chi^0_1 b)
     1.96214682E-02    2     1000023         5   # BR(~b_1 -> chi^0_2 b)
     1.66886211E-03    2     1000025         5   # BR(~b_1 -> chi^0_3 b)
     4.60386591E-02    2     1000035         5   # BR(~b_1 -> chi^0_4 b)
     2.45755991E-01    2    -1000024         6   # BR(~b_1 -> chi^-_1 t)
     9.79886893E-02    2    -1000037         6   # BR(~b_1 -> chi^-_2 t)
     5.67258772E-01    2     1000021         5   # BR(~b_1 -> ~g b)
     1.33983866E-03    2     1000006       -24   # BR(~b_1 -> ~t_1 W^-)
DECAY   2000005     3.37924175E+02   # ~b_2
#    BR                NDA      ID1      ID2
     2.24933770E-02    2     1000022         5   # BR(~b_2 -> chi^0_1 b)
     2.19706110E-02    2     1000023         5   # BR(~b_2 -> chi^0_2 b)
     7.47801769E-03    2     1000025         5   # BR(~b_2 -> chi^0_3 b)
     4.43053220E-02    2    -1000024         6   # BR(~b_2 -> chi^-_1 t)
     9.03684165E-01    2     1000021         5   # BR(~b_2 -> ~g b)
DECAY   2000002     7.87612265E+02   # ~u_R
#    BR                NDA      ID1      ID2
     1.50804194E-04    2     1000023         2   # BR(~u_R -> chi^0_2 u)
     2.82277694E-02    2     1000025         2   # BR(~u_R -> chi^0_3 u)
     9.71582505E-01    2     1000021         2   # BR(~u_R -> ~g u)
DECAY   1000002     9.00341561E+02   # ~u_L
#    BR                NDA      ID1      ID2
     4.00955411E-04    2     1000022         2   # BR(~u_L -> chi^0_1 u)
     2.60640690E-04    2     1000023         2   # BR(~u_L -> chi^0_2 u)
     1.47232932E-03    2     1000025         2   # BR(~u_L -> chi^0_3 u)
     4.82614305E-02    2     1000035         2   # BR(~u_L -> chi^0_4 u)
     2.03702527E-03    2     1000024         1   # BR(~u_L -> chi^+_1 d)
     9.56497709E-02    2     1000037         1   # BR(~u_L -> chi^+_2 d)
     8.51917848E-01    2     1000021         2   # BR(~u_L -> ~g u)
DECAY   2000004     7.87619649E+02   # ~c_R
#    BR                NDA      ID1      ID2
     1.53109883E-04    2     1000023         4   # BR(~c_R -> chi^0_2 c)
     2.82275343E-02    2     1000025         4   # BR(~c_R -> chi^0_3 c)
     9.71573503E-01    2     1000021         4   # BR(~c_R -> ~g c)
DECAY   1000004     9.00357313E+02   # ~c_L
#    BR                NDA      ID1      ID2
     4.02922195E-04    2     1000022         4   # BR(~c_L -> chi^0_1 c)
     2.62658368E-04    2     1000023         4   # BR(~c_L -> chi^0_2 c)
     1.47232831E-03    2     1000025         4   # BR(~c_L -> chi^0_3 c)
     4.82606416E-02    2     1000035         4   # BR(~c_L -> chi^0_4 c)
     2.05014296E-03    2     1000024         3   # BR(~c_L -> chi^+_1 s)
     9.56481334E-02    2     1000037         3   # BR(~c_L -> chi^+_2 s)
     8.51903173E-01    2     1000021         4   # BR(~c_L -> ~g c)
DECAY   1000006     2.20019166E+02   # ~t_1
#    BR                NDA      ID1      ID2
     1.22982897E-01    2     1000022         6   # BR(~t_1 -> chi^0_1 t)
     1.29194273E-01    2     1000023         6   # BR(~t_1 -> chi^0_2 t)
     5.15450968E-03    2     1000025         6   # BR(~t_1 -> chi^0_3 t)
     4.64165693E-02    2     1000035         6   # BR(~t_1 -> chi^0_4 t)
     7.81817547E-02    2     1000024         5   # BR(~t_1 -> chi^+_1 b)
     8.82951657E-02    2     1000037         5   # BR(~t_1 -> chi^+_2 b)
     9.64517977E-03    2     1000021         4   # BR(~t_1 -> ~g c)
     5.16926317E-01    2     1000021         6   # BR(~t_1 -> ~g t)
#    BR                NDA      ID1      ID2       ID3
     3.19044004E-03    3     1000022        24         5   # BR(~t_1 -> chi^0_1 W^+ b)
DECAY   2000006     3.23172559E+02   # ~t_2
#    BR                NDA      ID1      ID2
     9.92757733E-02    2     1000022         6   # BR(~t_2 -> chi^0_1 t)
     9.92220747E-02    2     1000023         6   # BR(~t_2 -> chi^0_2 t)
     1.90967034E-02    2     1000025         6   # BR(~t_2 -> chi^0_3 t)
     4.42208047E-03    2     1000035         6   # BR(~t_2 -> chi^0_4 t)
     1.68432701E-01    2     1000024         5   # BR(~t_2 -> chi^+_1 b)
     7.70015428E-03    2     1000037         5   # BR(~t_2 -> chi^+_2 b)
     5.07925635E-01    2     1000021         6   # BR(~t_2 -> ~g t)
     3.74854140E-02    2     1000005        24   # BR(~t_2 -> ~b_1 W^+)
     3.93725239E-02    2     1000006        23   # BR(~t_2 -> ~t_1 Z)
     1.70669400E-02    2     1000006        25   # BR(~t_2 -> ~t_1 h^0)
DECAY   1000024     6.70585638E-11   # chi^+_1
#    BR                NDA      ID1      ID2       ID3
     5.23193323E-01    3     1000022        -1         2   # BR(chi^+_1 -> chi^0_1 d_bar u)
     1.23094934E-01    3     1000022        -3         4   # BR(chi^+_1 -> chi^0_1 s_bar c)
     1.74402560E-01    3     1000022       -11        12   # BR(chi^+_1 -> chi^0_1 e^+ nu_e)
     1.72691248E-01    3     1000022       -13        14   # BR(chi^+_1 -> chi^0_1 mu^+ nu_mu)
     6.61793385E-03    3     1000022       -15        16   # BR(chi^+_1 -> chi^0_1 tau^+ nu_tau)
DECAY   1000037     6.90227517E+00   # chi^+_2
#    BR                NDA      ID1      ID2
     2.49500983E-01    2     1000022        24   # BR(chi^+_2 -> chi^0_1 W^+)
     2.57705920E-01    2     1000023        24   # BR(chi^+_2 -> chi^0_2 W^+)
     1.69180344E-04    2     1000025        24   # BR(chi^+_2 -> chi^0_3 W^+)
     2.48906925E-01    2     1000024        23   # BR(chi^+_2 -> chi^+_1 Z)
     2.35326461E-01    2     1000024        25   # BR(chi^+_2 -> chi^+_1 h^0)
#    BR                NDA      ID1      ID2       ID3
     1.99656640E-03    3     1000024         6        -6   # BR(chi^+_2 -> chi^+_1 t t_bar)
     2.99558750E-03    3     1000022        -5         6   # BR(chi^+_2 -> chi^0_1 b_bar t)
     3.39641763E-03    3     1000023        -5         6   # BR(chi^+_2 -> chi^0_2 b_bar t)
DECAY   1000022     0.00000000E+00   # chi^0_1
DECAY   1000023     1.18091418E-08   # chi^0_2
#    BR                NDA      ID1      ID2
     7.26455498E-01    2     1000022        22   # BR(chi^0_2 -> chi^0_1 photon)
#    BR                NDA      ID1      ID2       ID3
     4.34191743E-02    3     1000022         2        -2   # BR(chi^0_2 -> chi^0_1 u u_bar)
     1.11445525E-02    3     1000022         4        -4   # BR(chi^0_2 -> chi^0_1 c c_bar)
     5.56712046E-02    3     1000022         1        -1   # BR(chi^0_2 -> chi^0_1 d d_bar)
     5.53411327E-02    3     1000022         3        -3   # BR(chi^0_2 -> chi^0_1 s s_bar)
     1.25635725E-02    3     1000022        11       -11   # BR(chi^0_2 -> chi^0_1 e^- e^+)
     1.24463291E-02    3     1000022        13       -13   # BR(chi^0_2 -> chi^0_1 mu^- mu^+)
     2.39425093E-04    3     1000022        15       -15   # BR(chi^0_2 -> chi^0_1 tau^- tau^+)
     7.44494886E-02    3     1000022        12       -12   # BR(chi^0_2 -> chi^0_1 nu_e nu_bar_e)
     2.39514675E-03    3     1000024         1        -2   # BR(chi^0_2 -> chi^+_1 d u_bar)
     2.39514675E-03    3    -1000024        -1         2   # BR(chi^0_2 -> chi^-_1 d_bar u)
     1.55924992E-04    3     1000024         3        -4   # BR(chi^0_2 -> chi^+_1 s c_bar)
     1.55924992E-04    3    -1000024        -3         4   # BR(chi^0_2 -> chi^-_1 s_bar c)
     7.98419026E-04    3     1000024        11       -12   # BR(chi^0_2 -> chi^+_1 e^- nu_bar_e)
     7.98419026E-04    3    -1000024       -11        12   # BR(chi^0_2 -> chi^-_1 e^+ nu_e)
     7.85302648E-04    3     1000024        13       -14   # BR(chi^0_2 -> chi^+_1 mu^- nu_bar_mu)
     7.85302648E-04    3    -1000024       -13        14   # BR(chi^0_2 -> chi^-_1 mu^+ nu_mu)
DECAY   1000025     1.92542273E+00   # chi^0_3
#    BR                NDA      ID1      ID2
     2.34517044E-01    2     1000024       -24   # BR(chi^0_3 -> chi^+_1 W^-)
     2.34517044E-01    2    -1000024        24   # BR(chi^0_3 -> chi^-_1 W^+)
     1.87013939E-01    2     1000022        23   # BR(chi^0_3 -> chi^0_1 Z)
     4.97025835E-02    2     1000023        23   # BR(chi^0_3 -> chi^0_2 Z)
     1.32970536E-01    2     1000022        25   # BR(chi^0_3 -> chi^0_1 h^0)
     1.58012514E-01    2     1000023        25   # BR(chi^0_3 -> chi^0_2 h^0)
#    BR                NDA      ID1      ID2       ID3
     1.53703121E-03    3     1000024         5        -6   # BR(chi^0_3 -> chi^+_1 b t_bar)
     1.53703121E-03    3    -1000024        -5         6   # BR(chi^0_3 -> chi^-_1 b_bar t)
DECAY   1000035     7.70421232E+00   # chi^0_4
#    BR                NDA      ID1      ID2
     2.29087709E-01    2     1000024       -24   # BR(chi^0_4 -> chi^+_1 W^-)
     2.29087709E-01    2    -1000024        24   # BR(chi^0_4 -> chi^-_1 W^+)
     7.44217556E-02    2     1000022        23   # BR(chi^0_4 -> chi^0_1 Z)
     1.53194109E-01    2     1000023        23   # BR(chi^0_4 -> chi^0_2 Z)
     1.53130878E-04    2     1000025        23   # BR(chi^0_4 -> chi^0_3 Z)
     1.37787266E-01    2     1000022        25   # BR(chi^0_4 -> chi^0_1 h^0)
     1.69254690E-01    2     1000023        25   # BR(chi^0_4 -> chi^0_2 h^0)
     1.30805110E-04    2     1000025        25   # BR(chi^0_4 -> chi^0_3 h^0)
#    BR                NDA      ID1      ID2       ID3
     7.21770977E-04    3     1000022         6        -6   # BR(chi^0_4 -> chi^0_1 t t_bar)
     7.73065250E-04    3     1000023         6        -6   # BR(chi^0_4 -> chi^0_2 t t_bar)
     2.68795142E-03    3     1000024         5        -6   # BR(chi^0_4 -> chi^+_1 b t_bar)
     2.68795142E-03    3    -1000024        -5         6   # BR(chi^0_4 -> chi^-_1 b_bar t)
DECAY   1000021     8.19478414E-03   # ~g
#    BR                NDA      ID1      ID2
     1.37335980E-02    2     1000022        21   # BR(~g -> chi^0_1 g)
     1.31277231E-02    2     1000023        21   # BR(~g -> chi^0_2 g)
     1.25560840E-04    2     1000035        21   # BR(~g -> chi^0_4 g)
#    BR                NDA      ID1      ID2       ID3
     2.11424047E-01    3     1000022         6        -6   # BR(~g -> chi^0_1 t t_bar)
     2.16901042E-02    3     1000022         5        -5   # BR(~g -> chi^0_1 b b_bar)
     2.19576252E-01    3     1000023         6        -6   # BR(~g -> chi^0_2 t t_bar)
     2.08195296E-02    3     1000023         5        -5   # BR(~g -> chi^0_2 b b_bar)
     3.19562022E-03    3     1000025         6        -6   # BR(~g -> chi^0_3 t t_bar)
     8.11948335E-04    3     1000025         5        -5   # BR(~g -> chi^0_3 b b_bar)
     4.71438190E-03    3     1000035         6        -6   # BR(~g -> chi^0_4 t t_bar)
     6.02232303E-03    3     1000035         5        -5   # BR(~g -> chi^0_4 b b_bar)
     2.30765027E-01    3     1000024         5        -6   # BR(~g -> chi^+_1 b t_bar)
     2.30765027E-01    3    -1000024        -5         6   # BR(~g -> chi^-_1 b_bar t)
     1.13198053E-02    3     1000037         5        -6   # BR(~g -> chi^+_2 b t_bar)
     1.13198053E-02    3    -1000037        -5         6   # BR(~g -> chi^-_2 b_bar t)
DECAY        25     4.16100859E-03   # Gamma(h0)
     2.54643964E-03   2        22        22   # BR(h0 -> photon photon)
     2.05999925E-03   2        22        23   # BR(h0 -> photon Z)
     4.48232326E-02   2        23        23   # BR(h0 -> Z Z)
     3.40353466E-01   2       -24        24   # BR(h0 -> W W)
     7.50903464E-02   2        21        21   # BR(h0 -> gluon gluon)
     4.14974644E-09   2       -11        11   # BR(h0 -> Electron electron)
     1.84590169E-04   2       -13        13   # BR(h0 -> Muon muon)
     5.32286738E-02   2       -15        15   # BR(h0 -> Tau tau)
     1.17107136E-07   2        -2         2   # BR(h0 -> Up up)
     2.27312277E-02   2        -4         4   # BR(h0 -> Charm charm)
     4.77221255E-07   2        -1         1   # BR(h0 -> Down down)
     1.72599919E-04   2        -3         3   # BR(h0 -> Strange strange)
     4.58808826E-01   2        -5         5   # BR(h0 -> Bottom bottom)
DECAY        35     6.00909339E+01   # Gamma(HH)
     2.49756250E-08   2        22        22   # BR(HH -> photon photon)
     7.20880177E-08   2        22        23   # BR(HH -> photon Z)
     8.55294139E-07   2        23        23   # BR(HH -> Z Z)
     2.39510678E-07   2       -24        24   # BR(HH -> W W)
     2.17319461E-06   2        21        21   # BR(HH -> gluon gluon)
     4.38850765E-09   2       -11        11   # BR(HH -> Electron electron)
     1.95401076E-04   2       -13        13   # BR(HH -> Muon muon)
     5.64347046E-02   2       -15        15   # BR(HH -> Tau tau)
     1.86073543E-13   2        -2         2   # BR(HH -> Up up)
     3.60966862E-08   2        -4         4   # BR(HH -> Charm charm)
     2.71397799E-03   2        -6         6   # BR(HH -> Top top)
     3.21110128E-07   2        -1         1   # BR(HH -> Down down)
     1.16149409E-04   2        -3         3   # BR(HH -> Strange strange)
     3.10571649E-01   2        -5         5   # BR(HH -> Bottom bottom)
     1.02718973E-02   2  -1000024   1000024   # BR(HH -> Chargino1 chargino1)
     1.85779359E-01   2  -1000024   1000037   # BR(HH -> Chargino1 chargino2)
     1.85779359E-01   2  -1000037   1000024   # BR(HH -> Chargino2 chargino1)
     3.25624085E-04   2  -1000037   1000037   # BR(HH -> Chargino2 chargino2)
     1.15920823E-03   2   1000022   1000022   # BR(HH -> neutralino1 neutralino1)
     1.63385808E-04   2   1000022   1000023   # BR(HH -> neutralino1 neutralino2)
     3.19886538E-02   2   1000022   1000025   # BR(HH -> neutralino1 neutralino3)
     1.00502184E-01   2   1000022   1000035   # BR(HH -> neutralino1 neutralino4)
     1.37819409E-04   2   1000023   1000023   # BR(HH -> neutralino2 neutralino2)
     2.55183510E-02   2   1000023   1000025   # BR(HH -> neutralino2 neutralino3)
     8.79315722E-02   2   1000023   1000035   # BR(HH -> neutralino2 neutralino4)
     3.73051515E-05   2   1000025   1000025   # BR(HH -> neutralino3 neutralino3)
     2.01976530E-04   2   1000025   1000035   # BR(HH -> neutralino3 neutralino4)
     1.62670321E-04   2   1000035   1000035   # BR(HH -> neutralino4 neutralino4)
     5.02605919E-06   2        25        25   # BR(HH -> h0 h0)
DECAY        36     5.90872678E+01   # Gamma(A0)
     8.55872337E-10   2        22        22   # BR(A0 -> photon photon)
     3.14480206E-08   2        22        23   # BR(A0 -> photon Z)
     1.03775404E-05   2        21        21   # BR(A0 -> gluon gluon)
     4.26040871E-09   2       -11        11   # BR(A0 -> Electron electron)
     1.89697663E-04   2       -13        13   # BR(A0 -> Muon muon)
     5.47875528E-02   2       -15        15   # BR(A0 -> Tau tau)
     1.74800415E-13   2        -2         2   # BR(A0 -> Up up)
     3.39086116E-08   2        -4         4   # BR(A0 -> Charm charm)
     2.58204017E-03   2        -6         6   # BR(A0 -> Top top)
     3.11729771E-07   2        -1         1   # BR(A0 -> Down down)
     1.12756643E-04   2        -3         3   # BR(A0 -> Strange strange)
     3.01502322E-01   2        -5         5   # BR(A0 -> Bottom bottom)
     1.02669037E-02   2  -1000024   1000024   # BR(A0 -> Chargino1 chargino1)
     1.89153009E-01   2  -1000024   1000037   # BR(A0 -> Chargino1 chargino2)
     1.89153009E-01   2  -1000037   1000024   # BR(A0 -> Chargino2 chargino1)
     1.71368749E-04   2  -1000037   1000037   # BR(A0 -> Chargino2 chargino2)
     1.01913953E-03   2   1000022   1000022   # BR(A0 -> neutralino1 neutralino1)
     2.36293077E-04   2   1000022   1000023   # BR(A0 -> neutralino1 neutralino2)
     2.66125921E-02   2   1000022   1000025   # BR(A0 -> neutralino1 neutralino3)
     9.22655060E-02   2   1000022   1000035   # BR(A0 -> neutralino1 neutralino4)
     1.66644649E-04   2   1000023   1000023   # BR(A0 -> neutralino2 neutralino2)
     3.18848649E-02   2   1000023   1000025   # BR(A0 -> neutralino2 neutralino3)
     9.95410398E-02   2   1000023   1000035   # BR(A0 -> neutralino2 neutralino4)
     7.67082567E-05   2   1000025   1000025   # BR(A0 -> neutralino3 neutralino3)
     1.79954934E-04   2   1000025   1000035   # BR(A0 -> neutralino3 neutralino4)
     8.63604862E-05   2   1000035   1000035   # BR(A0 -> neutralino4 neutralino4)
     1.47738186E-06   2        23        25   # BR(A0 -> Z h0)
     1.52173025E-37   2        25        25   # BR(A0 -> h0 h0)
DECAY        37     6.40294311E+01   # Gamma(Hp)
     5.13061960E-09   2       -11        12   # BR(Hp -> Electron nu_e)
     2.19350012E-04   2       -13        14   # BR(Hp -> Muon nu_mu)
     6.20446614E-02   2       -15        16   # BR(Hp -> Tau nu_tau)
     3.25566453E-07   2        -1         2   # BR(Hp -> Down up)
     5.49930666E-06   2        -3         2   # BR(Hp -> Strange up)
     3.63512540E-06   2        -5         2   # BR(Hp -> Bottom up)
     1.70716505E-08   2        -1         4   # BR(Hp -> Down charm)
     1.17373818E-04   2        -3         4   # BR(Hp -> Strange charm)
     5.09047696E-04   2        -5         4   # BR(Hp -> Bottom charm)
     2.03367481E-07   2        -1         6   # BR(Hp -> Down top)
     4.60805259E-06   2        -3         6   # BR(Hp -> Strange top)
     3.46337820E-01   2        -5         6   # BR(Hp -> Bottom top)
     1.34126097E-03   2   1000022   1000024   # BR(Hp -> neutralino1 chargino1)
     1.82726493E-01   2   1000022   1000037   # BR(Hp -> neutralino1 chargino2)
     3.30654700E-03   2   1000023   1000024   # BR(Hp -> neutralino2 chargino1)
     1.74591004E-01   2   1000023   1000037   # BR(Hp -> neutralino2 chargino2)
     5.22141915E-02   2   1000024   1000025   # BR(Hp -> chargino1 neutralino3)
     3.55428653E-04   2   1000025   1000037   # BR(Hp -> neutralino3 chargino2)
     1.76221163E-01   2   1000024   1000035   # BR(Hp -> chargino1 neutralino4)
     5.86811823E-10   2   1000035   1000037   # BR(Hp -> neutralino4 chargino2)
     1.36479093E-06   2        24        25   # BR(Hp -> W h0)
     3.35695308E-14   2        24        35   # BR(Hp -> W HH)
DECAY         6     2.43000000E+00   # top
#    BR                NDA      ID1      ID2
     1.00000000E+00    2           5        24   # BR(t -> b W)
Block HiggsBoundsInputHiggsCouplingsFermions
# ScalarNormEffCoupSq PseudoSNormEffCoupSq NP IP1 IP2 IP2
    9.24929642E-01    0.00000000E+00        3  25   5   5  # h0-b-b eff. coupling^2, normalised to SM
    5.75207174E+02    0.00000000E+00        3  35   5   5  # H0-b-b eff. coupling^2, normalised to SM
    0.00000000E+00    5.75132103E+02        3  36   5   5  # A0-b-b eff. coupling^2, normalised to SM
#
    1.00013053E+00    0.00000000E+00        3  25   6   6  # h0-t-t eff. coupling^2, normalised to SM
    1.60820381E-03    0.00000000E+00        3  35   6   6  # H0-t-t eff. coupling^2, normalised to SM
    0.00000000E+00    1.73873097E-03        3  36   6   6  # A0-t-t eff. coupling^2, normalised to SM
#
    9.24929642E-01    0.00000000E+00        3  25  15  15  # h0-tau-tau eff. coupling^2, normalised to SM
    5.75207174E+02    0.00000000E+00        3  35  15  15  # H0-tau-tau eff. coupling^2, normalised to SM
    0.00000000E+00    5.75132103E+02        3  36  15  15  # A0-tau-tau eff. coupling^2, normalised to SM
#
Block HiggsBoundsInputHiggsCouplingsBosons
    9.99997454E-01        3  25  24  24  # h0-W-W eff. coupling^2, normalised to SM
    2.54601428E-06        3  35  24  24  # H0-W-W eff. coupling^2, normalised to SM
    0.00000000E+00        3  36  24  24  # A0-W-W eff. coupling^2, normalised to SM
#
    9.99997454E-01        3  25  23  23  # h0-Z-Z eff. coupling^2, normalised to SM
    2.54601428E-06        3  35  23  23  # H0-Z-Z eff. coupling^2, normalised to SM
    0.00000000E+00        3  36  23  23  # A0-Z-Z eff. coupling^2, normalised to SM
#
    1.26042260E+00        3  25  21  21  # h0-g-g eff. coupling^2, normalised to SM
    1.34011511E-03        3  35  21  21  # H0-g-g eff. coupling^2, normalised to SM
    9.76409807E-02        3  36  21  21  # A0-g-g eff. coupling^2, normalised to SM
#
    0.00000000E+00        3  25  25  23  # h0-h0-Z eff. coupling^2, normalised to SM
    0.00000000E+00        3  35  25  23  # H0-h0-Z eff. coupling^2, normalised to SM
    2.54601428E-06        3  36  25  23  # A0-h0-Z eff. coupling^2, normalised to SM
    0.00000000E+00        3  35  35  23  # H0-H0-Z eff. coupling^2, normalised to SM
    9.99997454E-01        3  36  35  23  # A0-H0-Z eff. coupling^2, normalised to SM
    0.00000000E+00        3  36  36  23  # A0-A0-Z eff. coupling^2, normalised to SM
#
    0.00000000E+00        4  25  21  21  23  # h0-g-g-Z eff. coupling^2, normalised to SM
    0.00000000E+00        4  35  21  21  23  # H0-g-g-Z eff. coupling^2, normalised to SM
    0.00000000E+00        4  36  21  21  23  # A0-g-g-Z eff. coupling^2, normalised to SM
Block SPhenoLowEnergy  # low energy observables
    1    3.05360211E-04   # BR(b -> s gamma)
    2    1.59260807E-06   # BR(b -> s mu+ mu-)
    3    3.52523388E-05   # BR(b -> s nu nu)
    4    3.61433454E-15   # BR(Bd -> e+ e-)
    5    1.54399432E-10   # BR(Bd -> mu+ mu-)
    6    3.22729680E-08   # BR(Bd -> tau+ tau-)
    7    1.22635981E-13   # BR(Bs -> e+ e-)
    8    5.23897671E-09   # BR(Bs -> mu+ mu-)
    9    1.10953896E-06   # BR(Bs -> tau+ tau-)
   10    9.64572577E-05   # BR(B_u -> tau nu)
   11    9.96366543E-01   # BR(B_u -> tau nu)/BR(B_u -> tau nu)_SM
   12    5.42203244E-01   # |Delta(M_Bd)| [ps^-1] 
   13    1.93719414E+01   # |Delta(M_Bs)| [ps^-1] 
   14    0.00000000E+00   # neutron EDM according to the chiral quark model
   15    0.00000000E+00   # neutron EDM according to the relativistic quark-parton model
   16    2.15827919E-03   # epsilon_K
   17    2.28166823E-15   # Delta(M_K)
   18    2.48090880E-11   # BR(K^0 -> pi^0 nu nu)
   19    8.29239726E-11   # BR(K^+ -> pi^+ nu nu)
   20   -2.46446557E-16   # Delta(g-2)_electron/2
   21   -1.05363997E-11   # Delta(g-2)_muon/2
   22   -2.98350455E-09   # Delta(g-2)_tau/2
   23    0.00000000E+00   # electric dipole moment of the electron
   24    0.00000000E+00   # electric dipole moment of the muon
   25    0.00000000E+00   # electric dipole moment of the tau
   26    0.00000000E+00   # Br(mu -> e gamma)
   27    0.00000000E+00   # Br(tau -> e gamma)
   28    0.00000000E+00   # Br(tau -> mu gamma)
   29    0.00000000E+00   # Br(mu -> 3 e)
   30    0.00000000E+00   # Br(tau -> 3 e)
   31    0.00000000E+00   # Br(tau -> 3 mu)
   39    6.58825731E-05   # Delta(rho_parameter)
   40    0.00000000E+00   # BR(Z -> e mu)
   41    0.00000000E+00   # BR(Z -> e tau)
   42    0.00000000E+00   # BR(Z -> mu tau)
Block FWCOEF Q=  1.60000000E+02  # Wilson coefficients at scale Q
#    id        order  M        value         comment
     0305 4422   00   0    -1.88819110E-01   # C7
     0305 4422   00   2    -1.70628728E-01   # C7
     0305 4322   00   2    -4.03633657E-05   # C7'
     0305 6421   00   0    -9.52278348E-02   # C8
     0305 6421   00   2    -8.72664952E-02   # C8
     0305 6321   00   2    -9.15457245E-05   # C8'
 03051111 4133   00   0     1.61643684E+00   # C9 e+e-
 03051111 4133   00   2     1.61690971E+00   # C9 e+e-
 03051111 4233   00   2     1.88739496E-04   # C9' e+e-
 03051111 4137   00   0    -4.43912894E+00   # C10 e+e-
 03051111 4137   00   2    -4.43748130E+00   # C10 e+e-
 03051111 4237   00   2    -1.41724448E-03   # C10' e+e-
 03051313 4133   00   0     1.61643684E+00   # C9 mu+mu-
 03051313 4133   00   2     1.61690963E+00   # C9 mu+mu-
 03051313 4233   00   2     1.88739439E-04   # C9' mu+mu-
 03051313 4137   00   0    -4.43912894E+00   # C10 mu+mu-
 03051313 4137   00   2    -4.43748138E+00   # C10 mu+mu-
 03051313 4237   00   2    -1.41724451E-03   # C10' mu+mu-
 03051212 4137   00   0     1.50535012E+00   # C11 nu_1 nu_1
 03051212 4137   00   2     1.50499518E+00   # C11 nu_1 nu_1
 03051212 4237   00   2     3.07168861E-04   # C11' nu_1 nu_1
 03051414 4137   00   0     1.50535012E+00   # C11 nu_2 nu_2
 03051414 4137   00   2     1.50499518E+00   # C11 nu_2 nu_2
 03051414 4237   00   2     3.07168869E-04   # C11' nu_2 nu_2
 03051616 4137   00   0     1.50535012E+00   # C11 nu_3 nu_3
 03051616 4137   00   2     1.50499518E+00   # C11 nu_3 nu_3
 03051616 4237   00   2     3.07171119E-04   # C11' nu_3 nu_3
Block IMFWCOEF Q=  1.60000000E+02  # Im(Wilson coefficients) at scale Q
#    id        order  M        value         comment
     0305 4422   00   0     3.85829969E-07   # C7
     0305 4422   00   2    -1.53170261E-05   # C7
     0305 4322   00   2     1.40573516E-06   # C7'
     0305 6421   00   0     3.30488885E-07   # C8
     0305 6421   00   2     2.16609606E-05   # C8
     0305 6321   00   2     1.12570701E-06   # C8'
 03051111 4133   00   2    -1.35285553E-07   # C9 e+e-
 03051111 4233   00   2     3.62546368E-06   # C9' e+e-
 03051111 4137   00   2     9.66851611E-06   # C10 e+e-
 03051111 4237   00   2    -2.72252905E-05   # C10' e+e-
 03051313 4133   00   2    -1.35287284E-07   # C9 mu+mu-
 03051313 4233   00   2     3.62546332E-06   # C9' mu+mu-
 03051313 4137   00   2     9.66851822E-06   # C10 mu+mu-
 03051313 4237   00   2    -2.72252916E-05   # C10' mu+mu-
 03051212 4137   00   2    -2.05649866E-06   # C11 nu_1 nu_1
 03051212 4237   00   2     5.90071974E-06   # C11' nu_1 nu_1
 03051414 4137   00   2    -2.05649856E-06   # C11 nu_2 nu_2
 03051414 4237   00   2     5.90071974E-06   # C11' nu_2 nu_2
 03051616 4137   00   2    -2.05647249E-06   # C11 nu_3 nu_3
 03051616 4237   00   2     5.90071974E-06   # C11' nu_3 nu_3
