# SUSY Les Houches Accord 2 - MSSM spectrum + Decays
# SPheno v4.0.5be
# W. Porod, Comput. Phys. Commun. 153 (2003) 275-315, hep-ph/0301101;
# W. Porod, F.~Staub, Comput. Phys. Commun. 183 (2012) 2458
#                     arXiv:1104.1573 [hep-ph] 
# in case of problems send email to porod@physik.uni-wuerzburg.de
# Created: 07.09.2021,  21:21
Block SPINFO         # Program information
     1   SPheno      # spectrum calculator
     2   v4.0.5be    # version number
#
Block SPhenoINFO     # SPheno specific information
    1      2         # using 2-loop RGEs
    2      2         # using pole masses for boundary conditions at mZ
Block MODSEL  # Model selection
    1    0    # general MSSM
Block MINPAR  # Input parameters
    3    3.91554783E+01  # tanb at m_Z    
    4    1.00000000E+00  # Sign(mu)
Block EXTPAR  # non-universal input parameters
    0    4.12517719E+03  # scale for input parameters
    1    2.08554148E+02  # M_1
    2   -1.41894614E+03  # M_2
    3    1.14109033E+03  # M_3
   11   -2.78283183E+03  # A_t
   12    1.34339525E+03  # A_b
   13    8.95076088E+02  # A_tau
   23    2.12120544E+02  # mu
   25    3.80310437E+01  # tan(beta)
   26    3.70082066E+03  # m_A, pole mass
   31    1.00000000E+04  # M_L11
   32    1.00000000E+04  # M_L22
   33    1.00000000E+04  # M_L33
   34    1.00000000E+04  # M_E11
   35    1.00000000E+04  # M_E22
   36    1.00000000E+04  # M_E33
   41    1.00000000E+04  # M_Q11
   42    1.00000000E+04  # M_Q22
   43    3.77984050E+03  # M_Q33
   44    1.00000000E+04  # M_U11
   45    1.00000000E+04  # M_U22
   46    4.51448135E+03  # M_U33
   47    1.00000000E+04  # M_D11
   48    1.00000000E+04  # M_D22
   49    2.05246550E+03  # M_D33
Block SMINPUTS  # SM parameters
         1     1.27908970E+02  # alpha_em^-1(MZ)^MSbar
         2     1.16637870E-05  # G_mu [GeV^-2]
         3     1.18400000E-01  # alpha_s(MZ)^MSbar
         4     9.11876000E+01  # m_Z(pole)
         5     4.18000000E+00  # m_b(m_b), MSbar
         6     1.73200000E+02  # m_t(pole)
         7     1.77700000E+00  # m_tau(pole)
         8     0.00000000E+00  # m_nu_3
        11     5.10998930E-04  # m_e(pole)
        12     0.00000000E+00  # m_nu_1
        13     1.05658372E-01  # m_muon(pole)
        14     0.00000000E+00  # m_nu_2
        21     5.00000000E-03  # m_d(2 GeV), MSbar
        22     2.50000000E-03  # m_u(2 GeV), MSbar
        23     9.50000000E-02  # m_s(2 GeV), MSbar
        24     1.27000000E+00  # m_c(m_c), MSbar
Block gauge Q=  4.12517719E+03  # (SUSY scale)
   1    3.55362975E-01  # g'(Q)^DRbar
   2    6.65198874E-01  # g(Q)^DRbar
   3    1.21977796E+00  # g3(Q)^DRbar
Block Yu Q=  4.12517719E+03  # (SUSY scale)
  1  1     8.38727007E-06   # Y_u(Q)^DRbar
  2  2     4.26073320E-03   # Y_c(Q)^DRbar
  3  3     1.01324959E+00   # Y_t(Q)^DRbar
Block Yd Q=  4.12517719E+03  # (SUSY scale)
  1  1     6.40972090E-04   # Y_d(Q)^DRbar
  2  2     1.21784697E-02   # Y_s(Q)^DRbar
  3  3     6.35643461E-01   # Y_b(Q)^DRbar
Block Ye Q=  4.12517719E+03  # (SUSY scale)
  1  1     1.11854317E-04   # Y_e(Q)^DRbar
  2  2     2.31279252E-02   # Y_mu(Q)^DRbar
  3  3     3.88973654E-01   # Y_tau(Q)^DRbar
Block Au Q=  4.12517719E+03  # (SUSY scale)
  1  1     0.00000000E+00   # A_u(Q)^DRbar
  2  2     0.00000000E+00   # A_c(Q)^DRbar
  3  3    -2.78283246E+03   # A_t(Q)^DRbar
Block Ad Q=  4.12517719E+03  # (SUSY scale)
  1  1     0.00000000E+00   # A_d(Q)^DRbar
  2  2     0.00000000E+00   # A_s(Q)^DRbar
  3  3     1.34339507E+03   # A_b(Q)^DRbar
Block Ae Q=  4.12517719E+03  # (SUSY scale)
  1  1     0.00000000E+00   # A_e(Q)^DRbar
  2  2     0.00000000E+00   # A_mu(Q)^DRbar
  3  3     8.95076015E+02   # A_tau(Q)^DRbar
Block MSOFT Q=  4.12517719E+03  # soft SUSY breaking masses at Q
   1    2.08554148E+02  # M_1
   2   -1.41894614E+03  # M_2
   3    1.14109033E+03  # M_3
  21    1.37429645E+07  # M^2_(H,d)
  22    3.17265677E+05  # M^2_(H,u)
  31    1.00000000E+04  # M_(L,11)
  32    1.00000000E+04  # M_(L,22)
  33    1.00000000E+04  # M_(L,33)
  34    1.00000000E+04  # M_(E,11)
  35    1.00000000E+04  # M_(E,22)
  36    1.00000000E+04  # M_(E,33)
  41    1.00000000E+04  # M_(Q,11)
  42    1.00000000E+04  # M_(Q,22)
  43    3.77984050E+03  # M_(Q,33)
  44    1.00000000E+04  # M_(U,11)
  45    1.00000000E+04  # M_(U,22)
  46    4.51448135E+03  # M_(U,33)
  47    1.00000000E+04  # M_(D,11)
  48    1.00000000E+04  # M_(D,22)
  49    2.05246550E+03  # M_(D,33)
Block MASS  # Mass spectrum
#   PDG code      mass          particle
         6     1.73200000E+02  # m_t(pole)
        23     9.11876000E+01  # m_Z(pole)
        24     8.04299946E+01  # W+
        15     1.77700000E+00  # m_tau(pole)
        25     1.23545868E+02  # h0
        35     3.69971144E+03  # H0
        36     3.70082066E+03  # A0
        37     3.70128670E+03  # H+
   1000001     1.01229844E+04  # ~d_L
   2000001     1.00985126E+04  # ~d_R
   1000002     1.01226215E+04  # ~u_L
   2000002     1.01010253E+04  # ~u_R
   1000003     1.01229858E+04  # ~s_L
   2000003     1.00985149E+04  # ~s_R
   1000004     1.01226230E+04  # ~c_L
   2000004     1.01010257E+04  # ~c_R
   1000005     2.07104225E+03  # ~b_1
   2000005     3.78949746E+03  # ~b_2
   1000006     3.78796235E+03  # ~t_1
   2000006     4.49241182E+03  # ~t_2
   1000011     1.00204559E+04  # ~e_L-
   2000011     1.00096026E+04  # ~e_R-
   1000012     1.00196882E+04  # ~nu_eL
   1000013     1.00204623E+04  # ~mu_L-
   2000013     1.00096147E+04  # ~mu_R-
   1000014     1.00196945E+04  # ~nu_muL
   1000015     1.00130731E+04  # ~tau_1-
   2000015     1.00223006E+04  # ~tau_2-
   1000016     1.00214892E+04  # ~nu_tauL
   1000021     1.45698659E+03  # ~g
   1000022     1.88641559E+02  # ~chi_10
   1000023     2.31563398E+02  # ~chi_20
   1000025     2.56616037E+02  # ~chi_30
   1000035     1.51917343E+03  # ~chi_40
   1000024     2.31469835E+02  # ~chi_1+
   1000037     1.51913961E+03  # ~chi_2+
# Higgs mixing
Block alpha # Effective Higgs mixing angle
          -2.55739115E-02   # alpha
Block Hmix Q=  4.12517719E+03  # Higgs mixing parameters
   1    2.12120544E+02  # mu
   2    3.80310437E+01  # tan[beta](Q)
   3    2.42898227E+02  # v(Q)
   4    1.36960736E+07  # m^2_A(Q)
Block stopmix # stop mixing matrix
   1  1     9.97783120E-01   # Re[R_st(1,1)]
   1  2     6.65495646E-02   # Re[R_st(1,2)]
   2  1    -6.65495646E-02   # Re[R_st(2,1)]
   2  2     9.97783120E-01   # Re[R_st(2,2)]
Block sbotmix # sbottom mixing matrix
   1  1     1.44011607E-03   # Re[R_sb(1,1)]
   1  2     9.99998963E-01   # Re[R_sb(1,2)]
   2  1    -9.99998963E-01   # Re[R_sb(2,1)]
   2  2     1.44011607E-03   # Re[R_sb(2,2)]
Block staumix # stau mixing matrix
   1  1     6.70245048E-02   # Re[R_sta(1,1)]
   1  2     9.97751330E-01   # Re[R_sta(1,2)]
   2  1    -9.97751330E-01   # Re[R_sta(2,1)]
   2  2     6.70245048E-02   # Re[R_sta(2,2)]
Block Nmix # neutralino mixing matrix
   1  1    -8.11112669E-01   # Re[N(1,1)]
   1  2    -1.82097580E-02   # Re[N(1,2)]
   1  3    -4.51415608E-01   # Re[N(1,3)]
   1  4     3.71468159E-01   # Re[N(1,4)]
   2  1     6.88264330E-02   # Re[N(2,1)]
   2  2     4.27535334E-02   # Re[N(2,2)]
   2  3    -7.05096595E-01   # Re[N(2,3)]
   2  4    -7.04467068E-01   # Re[N(2,4)]
   3  1     5.80824572E-01   # Re[N(3,1)]
   3  2    -2.80780806E-02   # Re[N(3,2)]
   3  3    -5.46826692E-01   # Re[N(3,3)]
   3  4     6.02357873E-01   # Re[N(3,4)]
   4  1     1.40637389E-03   # Re[N(4,1)]
   4  2    -9.98524993E-01   # Re[N(4,2)]
   4  3    -6.58106504E-03   # Re[N(4,3)]
   4  4    -5.38753210E-02   # Re[N(4,4)]
Block Umix # chargino mixing matrix
   1  1    -9.32002834E-03   # Re[U(1,1)]
   1  2     9.99956568E-01   # Re[U(1,2)]
   2  1    -9.99956568E-01   # Re[U(2,1)]
   2  2    -9.32002834E-03   # Re[U(2,2)]
Block Vmix # chargino mixing matrix
   1  1     7.62290731E-02   # Re[V(1,1)]
   1  2     9.97090331E-01   # Re[V(1,2)]
   2  1     9.97090331E-01   # Re[V(2,1)]
   2  2    -7.62290731E-02   # Re[V(2,2)]
DECAY        23     2.49520000E+00   # Z
DECAY        24     2.08500000E+00   # W
DECAY   2000011     5.02485455E+01   # ~e^-_R
#    BR                NDA      ID1      ID2
     6.58039035E-01    2     1000022        11   # BR(~e^-_R -> chi^0_1 e^-)
     4.73637015E-03    2     1000023        11   # BR(~e^-_R -> chi^0_2 e^-)
     3.37222656E-01    2     1000025        11   # BR(~e^-_R -> chi^0_3 e^-)
DECAY   1000011     1.38888706E+02   # ~e^-_L
#    BR                NDA      ID1      ID2
     6.46956978E-02    2     1000022        11   # BR(~e^-_L -> chi^0_1 e^-)
     2.00602637E-03    2     1000023        11   # BR(~e^-_L -> chi^0_2 e^-)
     2.52580603E-02    2     1000025        11   # BR(~e^-_L -> chi^0_3 e^-)
     3.01780020E-01    2     1000035        11   # BR(~e^-_L -> chi^0_4 e^-)
     6.06205087E-01    2    -1000037        12   # BR(~e^-_L -> chi^-_2 nu_e)
#    BR                NDA      ID1      ID2       ID3
DECAY   2000013     5.04614081E+01   # ~mu^-_R
#    BR                NDA      ID1      ID2
     6.55693822E-01    2     1000022        13   # BR(~mu^-_R -> chi^0_1 mu^-)
     5.76469365E-03    2     1000023        13   # BR(~mu^-_R -> chi^0_2 mu^-)
     3.36430911E-01    2     1000025        13   # BR(~mu^-_R -> chi^0_3 mu^-)
     2.10842985E-03    2    -1000024        14   # BR(~mu^-_R -> chi^-_1 nu_mu)
DECAY   1000013     1.38995319E+02   # ~mu^-_L
#    BR                NDA      ID1      ID2
     6.48023348E-02    2     1000022        13   # BR(~mu^-_L -> chi^0_1 mu^-)
     2.38547866E-03    2     1000023        13   # BR(~mu^-_L -> chi^0_2 mu^-)
     2.54677926E-02    2     1000025        13   # BR(~mu^-_L -> chi^0_3 mu^-)
     3.01548790E-01    2     1000035        13   # BR(~mu^-_L -> chi^0_4 mu^-)
     6.05740537E-01    2    -1000037        14   # BR(~mu^-_L -> chi^-_2 nu_mu)
#    BR                NDA      ID1      ID2       ID3
DECAY   1000015     1.10747905E+02   # ~tau^-_1
#    BR                NDA      ID1      ID2
     3.61349497E-01    2     1000022        15   # BR(~tau^-_1 -> chi^0_1 tau^-)
     1.37492913E-01    2     1000023        15   # BR(~tau^-_1 -> chi^0_2 tau^-)
     2.25651247E-01    2     1000025        15   # BR(~tau^-_1 -> chi^0_3 tau^-)
     1.43460195E-03    2     1000035        15   # BR(~tau^-_1 -> chi^0_4 tau^-)
     2.71190537E-01    2    -1000024        16   # BR(~tau^-_1 -> chi^-_1 nu_tau)
     2.88120398E-03    2    -1000037        16   # BR(~tau^-_1 -> chi^-_2 nu_tau)
DECAY   2000015     1.68784127E+02   # ~tau^-_2
#    BR                NDA      ID1      ID2
     8.48718469E-02    2     1000022        15   # BR(~tau^-_2 -> chi^0_1 tau^-)
     9.02925646E-02    2     1000023        15   # BR(~tau^-_2 -> chi^0_2 tau^-)
     7.98621642E-02    2     1000025        15   # BR(~tau^-_2 -> chi^0_3 tau^-)
     2.47451296E-01    2     1000035        15   # BR(~tau^-_2 -> chi^0_4 tau^-)
     4.66558175E-04    2    -1000024        16   # BR(~tau^-_2 -> chi^-_1 nu_tau)
     4.97055570E-01    2    -1000037        16   # BR(~tau^-_2 -> chi^-_2 nu_tau)
#    BR                NDA      ID1      ID2       ID3
DECAY   1000012     1.38892813E+02   # ~nu_e
#    BR                NDA      ID1      ID2
     5.46741699E-02    2     1000022        12   # BR(~nu_e -> chi^0_1 nu_e)
     3.63063464E-02    2     1000025        12   # BR(~nu_e -> chi^0_3 nu_e)
     3.02655332E-01    2     1000035        12   # BR(~nu_e -> chi^0_4 nu_e)
     3.68627142E-03    2     1000024        11   # BR(~nu_e -> chi^+_1 e^-)
     6.02666518E-01    2     1000037        11   # BR(~nu_e -> chi^+_2 e^-)
#    BR                NDA      ID1      ID2       ID3
DECAY   1000014     1.38999416E+02   # ~nu_mu
#    BR                NDA      ID1      ID2
     5.46322731E-02    2     1000022        14   # BR(~nu_mu -> chi^0_1 nu_mu)
     3.62785248E-02    2     1000025        14   # BR(~nu_mu -> chi^0_3 nu_mu)
     3.02423425E-01    2     1000035        14   # BR(~nu_mu -> chi^0_4 nu_mu)
     4.44963290E-03    2     1000024        13   # BR(~nu_mu -> chi^+_1 mu^-)
     6.02204791E-01    2     1000037        13   # BR(~nu_mu -> chi^+_2 mu^-)
#    BR                NDA      ID1      ID2       ID3
DECAY   1000016     1.69052583E+02   # ~nu_tau
#    BR                NDA      ID1      ID2
     4.49281284E-02    2     1000022        16   # BR(~nu_tau -> chi^0_1 nu_tau)
     2.98345004E-02    2     1000025        16   # BR(~nu_tau -> chi^0_3 nu_tau)
     2.48709110E-01    2     1000035        16   # BR(~nu_tau -> chi^0_4 nu_tau)
     1.81259086E-01    2     1000024        15   # BR(~nu_tau -> chi^+_1 tau^-)
     4.95259839E-01    2     1000037        15   # BR(~nu_tau -> chi^+_2 tau^-)
#    BR                NDA      ID1      ID2       ID3
DECAY   2000001     7.69902493E+02   # ~d_R
#    BR                NDA      ID1      ID2
     4.81442986E-03    2     1000022         1   # BR(~d_R -> chi^0_1 d)
     2.46727872E-03    2     1000025         1   # BR(~d_R -> chi^0_3 d)
     9.92683465E-01    2     1000021         1   # BR(~d_R -> ~g d)
DECAY   1000001     8.95412276E+02   # ~d_L
#    BR                NDA      ID1      ID2
     7.92334203E-04    2     1000022         1   # BR(~d_L -> chi^0_1 d)
     8.59499873E-04    2     1000025         1   # BR(~d_L -> chi^0_3 d)
     4.74284356E-02    2     1000035         1   # BR(~d_L -> chi^0_4 d)
     9.50815515E-02    2    -1000037         2   # BR(~d_L -> chi^-_2 u)
     8.55783264E-01    2     1000021         1   # BR(~d_L -> ~g d)
DECAY   2000003     7.69962050E+02   # ~s_R
#    BR                NDA      ID1      ID2
     4.82191691E-03    2     1000022         3   # BR(~s_R -> chi^0_1 s)
     2.47861374E-03    2     1000025         3   # BR(~s_R -> chi^0_3 s)
     9.92606926E-01    2     1000021         3   # BR(~s_R -> ~g s)
DECAY   1000003     8.95445817E+02   # ~s_L
#    BR                NDA      ID1      ID2
     7.99078300E-04    2     1000022         3   # BR(~s_L -> chi^0_1 s)
     8.69401942E-04    2     1000025         3   # BR(~s_L -> chi^0_3 s)
     4.74266677E-02    2     1000035         3   # BR(~s_L -> chi^0_4 s)
     9.50780272E-02    2    -1000037         4   # BR(~s_L -> chi^-_2 c)
     8.55751336E-01    2     1000021         3   # BR(~s_L -> ~g s)
DECAY   1000005     7.50680445E+01   # ~b_1
#    BR                NDA      ID1      ID2
     5.44799168E-02    2     1000022         5   # BR(~b_1 -> chi^0_1 b)
     1.07587681E-01    2     1000023         5   # BR(~b_1 -> chi^0_2 b)
     6.92624900E-02    2     1000025         5   # BR(~b_1 -> chi^0_3 b)
     2.13131791E-01    2    -1000024         6   # BR(~b_1 -> chi^-_1 t)
     5.55534007E-01    2     1000021         5   # BR(~b_1 -> ~g b)
DECAY   2000005     3.59738207E+02   # ~b_2
#    BR                NDA      ID1      ID2
     1.78698355E-02    2     1000022         5   # BR(~b_2 -> chi^0_1 b)
     4.18246365E-02    2     1000023         5   # BR(~b_2 -> chi^0_2 b)
     2.59165668E-02    2     1000025         5   # BR(~b_2 -> chi^0_3 b)
     3.25841372E-02    2     1000035         5   # BR(~b_2 -> chi^0_4 b)
     2.11413533E-01    2    -1000024         6   # BR(~b_2 -> chi^-_1 t)
     6.64657752E-02    2    -1000037         6   # BR(~b_2 -> chi^-_2 t)
     6.03823821E-01    2     1000021         5   # BR(~b_2 -> ~g b)
DECAY   2000002     7.87012840E+02   # ~u_R
#    BR                NDA      ID1      ID2
     1.88436485E-02    2     1000022         2   # BR(~u_R -> chi^0_1 u)
     1.35631189E-04    2     1000023         2   # BR(~u_R -> chi^0_2 u)
     9.65683480E-03    2     1000025         2   # BR(~u_R -> chi^0_3 u)
     9.71363831E-01    2     1000021         2   # BR(~u_R -> ~g u)
DECAY   1000002     8.95401841E+02   # ~u_L
#    BR                NDA      ID1      ID2
     1.31544017E-03    2     1000022         2   # BR(~u_L -> chi^0_1 u)
     1.50418796E-04    2     1000023         2   # BR(~u_L -> chi^0_2 u)
     2.82164646E-04    2     1000025         2   # BR(~u_L -> chi^0_3 u)
     4.73795748E-02    2     1000035         2   # BR(~u_L -> chi^0_4 u)
     5.77782722E-04    2     1000024         1   # BR(~u_L -> chi^+_1 d)
     9.45346568E-02    2     1000037         1   # BR(~u_L -> chi^+_2 d)
     8.55759962E-01    2     1000021         2   # BR(~u_L -> ~g u)
DECAY   2000004     7.87020130E+02   # ~c_R
#    BR                NDA      ID1      ID2
     1.88441120E-02    2     1000022         4   # BR(~c_R -> chi^0_1 c)
     1.37927662E-04    2     1000023         4   # BR(~c_R -> chi^0_2 c)
     9.65842685E-03    2     1000025         4   # BR(~c_R -> chi^0_3 c)
     9.71354837E-01    2     1000021         4   # BR(~c_R -> ~g c)
DECAY   1000004     8.95435356E+02   # ~c_L
#    BR                NDA      ID1      ID2
     1.31595435E-03    2     1000022         4   # BR(~c_L -> chi^0_1 c)
     1.52437461E-04    2     1000023         4   # BR(~c_L -> chi^0_2 c)
     2.83633299E-04    2     1000025         4   # BR(~c_L -> chi^0_3 c)
     4.73778165E-02    2     1000035         4   # BR(~c_L -> chi^0_4 c)
     6.10987439E-04    2     1000024         3   # BR(~c_L -> chi^+_1 s)
     9.45311362E-02    2     1000037         3   # BR(~c_L -> chi^+_2 s)
     8.55728035E-01    2     1000021         4   # BR(~c_L -> ~g c)
DECAY   1000006     4.38311516E+02   # ~t_1
#    BR                NDA      ID1      ID2
     3.50107650E-04    2     1000022         4   # BR(~t_1 -> chi^0_1 c)
     2.68772879E-02    2     1000022         6   # BR(~t_1 -> chi^0_1 t)
     8.66193256E-02    2     1000023         6   # BR(~t_1 -> chi^0_2 t)
     6.11482643E-02    2     1000025         6   # BR(~t_1 -> chi^0_3 t)
     2.69149176E-02    2     1000035         6   # BR(~t_1 -> chi^0_4 t)
     6.86846682E-02    2     1000024         5   # BR(~t_1 -> chi^+_1 b)
     5.38561264E-02    2     1000037         5   # BR(~t_1 -> chi^+_2 b)
     1.73163548E-01    2     1000021         4   # BR(~t_1 -> ~g c)
     4.95097503E-01    2     1000021         6   # BR(~t_1 -> ~g t)
#    BR                NDA      ID1      ID2       ID3
     7.18849007E-03    3     1000022        24         5   # BR(~t_1 -> chi^0_1 W^+ b)
DECAY   2000006     4.88600487E+02   # ~t_2
#    BR                NDA      ID1      ID2
     3.72271733E-02    2     1000022         6   # BR(~t_2 -> chi^0_1 t)
     9.25971796E-02    2     1000023         6   # BR(~t_2 -> chi^0_2 t)
     7.68903315E-02    2     1000025         6   # BR(~t_2 -> chi^0_3 t)
     1.86459949E-01    2     1000024         5   # BR(~t_2 -> chi^+_1 b)
     1.55588875E-04    2     1000037         5   # BR(~t_2 -> chi^+_2 b)
     5.76789390E-01    2     1000021         6   # BR(~t_2 -> ~g t)
     1.31557542E-02    2     2000005        24   # BR(~t_2 -> ~b_2 W^+)
     6.55118078E-03    2     1000006        23   # BR(~t_2 -> ~t_1 Z)
     1.00937786E-02    2     1000006        25   # BR(~t_2 -> ~t_1 h^0)
DECAY   1000024     6.41142055E-05   # chi^+_1
#    BR                NDA      ID1      ID2       ID3
     3.34077389E-01    3     1000022        -1         2   # BR(chi^+_1 -> chi^0_1 d_bar u)
     3.32783610E-01    3     1000022        -3         4   # BR(chi^+_1 -> chi^0_1 s_bar c)
     1.11358721E-01    3     1000022       -11        12   # BR(chi^+_1 -> chi^0_1 e^+ nu_e)
     1.11358104E-01    3     1000022       -13        14   # BR(chi^+_1 -> chi^0_1 mu^+ nu_mu)
     1.10422176E-01    3     1000022       -15        16   # BR(chi^+_1 -> chi^0_1 tau^+ nu_tau)
DECAY   1000037     1.33483191E+01   # chi^+_2
#    BR                NDA      ID1      ID2
     7.71049631E-02    2     1000022        24   # BR(chi^+_2 -> chi^0_1 W^+)
     2.45568721E-01    2     1000023        24   # BR(chi^+_2 -> chi^0_2 W^+)
     1.67570699E-01    2     1000025        24   # BR(chi^+_2 -> chi^0_3 W^+)
     2.43938443E-01    2     1000024        23   # BR(chi^+_2 -> chi^+_1 Z)
     2.41640244E-01    2     1000024        25   # BR(chi^+_2 -> chi^+_1 h^0)
#    BR                NDA      ID1      ID2       ID3
     9.10886855E-03    3     1000024         6        -6   # BR(chi^+_2 -> chi^+_1 t t_bar)
     2.32379483E-03    3     1000022        -5         6   # BR(chi^+_2 -> chi^0_1 b_bar t)
     7.69287750E-03    3     1000023        -5         6   # BR(chi^+_2 -> chi^0_2 b_bar t)
     5.02366760E-03    3     1000025        -5         6   # BR(chi^+_2 -> chi^0_3 b_bar t)
DECAY   1000022     0.00000000E+00   # chi^0_1
DECAY   1000023     1.59879940E-04   # chi^0_2
#    BR                NDA      ID1      ID2
     1.60577332E-02    2     1000022        22   # BR(chi^0_2 -> chi^0_1 photon)
#    BR                NDA      ID1      ID2       ID3
     1.18611625E-01    3     1000022         2        -2   # BR(chi^0_2 -> chi^0_1 u u_bar)
     1.17355914E-01    3     1000022         4        -4   # BR(chi^0_2 -> chi^0_1 c c_bar)
     1.52083226E-01    3     1000022         1        -1   # BR(chi^0_2 -> chi^0_1 d d_bar)
     1.52075502E-01    3     1000022         3        -3   # BR(chi^0_2 -> chi^0_1 s s_bar)
     1.38252603E-01    3     1000022         5        -5   # BR(chi^0_2 -> chi^0_1 b b_bar)
     3.43201985E-02    3     1000022        11       -11   # BR(chi^0_2 -> chi^0_1 e^- e^+)
     3.43174233E-02    3     1000022        13       -13   # BR(chi^0_2 -> chi^0_1 mu^- mu^+)
     3.35470684E-02    3     1000022        15       -15   # BR(chi^0_2 -> chi^0_1 tau^- tau^+)
     2.03378707E-01    3     1000022        12       -12   # BR(chi^0_2 -> chi^0_1 nu_e nu_bar_e)
DECAY   1000025     4.21950882E-05   # chi^0_3
#    BR                NDA      ID1      ID2
     2.69258051E-03    2     1000022        22   # BR(chi^0_3 -> chi^0_1 photon)
     3.37713284E-02    2     1000023        22   # BR(chi^0_3 -> chi^0_2 photon)
#    BR                NDA      ID1      ID2       ID3
     1.01850676E-02    3     1000022         2        -2   # BR(chi^0_3 -> chi^0_1 u u_bar)
     1.01517994E-02    3     1000022         4        -4   # BR(chi^0_3 -> chi^0_1 c c_bar)
     1.30512156E-02    3     1000022         1        -1   # BR(chi^0_3 -> chi^0_1 d d_bar)
     1.30510482E-02    3     1000022         3        -3   # BR(chi^0_3 -> chi^0_1 s s_bar)
     1.32383084E-02    3     1000022         5        -5   # BR(chi^0_3 -> chi^0_1 b b_bar)
     2.93882297E-03    3     1000022        11       -11   # BR(chi^0_3 -> chi^0_1 e^- e^+)
     2.93877097E-03    3     1000022        13       -13   # BR(chi^0_3 -> chi^0_1 mu^- mu^+)
     2.92403168E-03    3     1000022        15       -15   # BR(chi^0_3 -> chi^0_1 tau^- tau^+)
     1.74644573E-02    3     1000022        12       -12   # BR(chi^0_3 -> chi^0_1 nu_e nu_bar_e)
     5.85641097E-02    3     1000023         2        -2   # BR(chi^0_3 -> chi^0_2 u u_bar)
     5.66332599E-02    3     1000023         4        -4   # BR(chi^0_3 -> chi^0_2 c c_bar)
     7.50910608E-02    3     1000023         1        -1   # BR(chi^0_3 -> chi^0_2 d d_bar)
     7.50789075E-02    3     1000023         3        -3   # BR(chi^0_3 -> chi^0_2 s s_bar)
     5.49094841E-02    3     1000023         5        -5   # BR(chi^0_3 -> chi^0_2 b b_bar)
     1.69460968E-02    3     1000023        11       -11   # BR(chi^0_3 -> chi^0_2 e^- e^+)
     1.69417562E-02    3     1000023        13       -13   # BR(chi^0_3 -> chi^0_2 mu^- mu^+)
     1.57717345E-02    3     1000023        15       -15   # BR(chi^0_3 -> chi^0_2 tau^- tau^+)
     1.00418386E-01    3     1000023        12       -12   # BR(chi^0_3 -> chi^0_2 nu_e nu_bar_e)
     6.83359223E-02    3     1000024         1        -2   # BR(chi^0_3 -> chi^+_1 d u_bar)
     6.83359223E-02    3    -1000024        -1         2   # BR(chi^0_3 -> chi^-_1 d_bar u)
     6.75032775E-02    3     1000024         3        -4   # BR(chi^0_3 -> chi^+_1 s c_bar)
     6.75032775E-02    3    -1000024        -3         4   # BR(chi^0_3 -> chi^-_1 s_bar c)
     2.27787094E-02    3     1000024        11       -12   # BR(chi^0_3 -> chi^+_1 e^- nu_bar_e)
     2.27787094E-02    3    -1000024       -11        12   # BR(chi^0_3 -> chi^-_1 e^+ nu_e)
     2.27785295E-02    3     1000024        13       -14   # BR(chi^0_3 -> chi^+_1 mu^- nu_bar_mu)
     2.27785295E-02    3    -1000024       -13        14   # BR(chi^0_3 -> chi^-_1 mu^+ nu_mu)
     2.22224482E-02    3     1000024        15       -16   # BR(chi^0_3 -> chi^+_1 tau^- nu_bar_tau)
     2.22224482E-02    3    -1000024       -15        16   # BR(chi^0_3 -> chi^-_1 tau^+ nu_tau)
DECAY   1000035     1.44377580E+01   # chi^0_4
#    BR                NDA      ID1      ID2
     2.27378511E-01    2     1000024       -24   # BR(chi^0_4 -> chi^+_1 W^-)
     2.27378511E-01    2    -1000024        24   # BR(chi^0_4 -> chi^-_1 W^+)
     4.17670967E-02    2     1000022        23   # BR(chi^0_4 -> chi^0_1 Z)
     8.57302685E-02    2     1000023        23   # BR(chi^0_4 -> chi^0_2 Z)
     9.88160784E-02    2     1000025        23   # BR(chi^0_4 -> chi^0_3 Z)
     4.66653997E-02    2     1000022        25   # BR(chi^0_4 -> chi^0_1 h^0)
     1.39415659E-01    2     1000023        25   # BR(chi^0_4 -> chi^0_2 h^0)
     1.08429651E-01    2     1000025        25   # BR(chi^0_4 -> chi^0_3 h^0)
#    BR                NDA      ID1      ID2       ID3
     1.35035595E-03    3     1000022         6        -6   # BR(chi^0_4 -> chi^0_1 t t_bar)
     4.07621855E-03    3     1000023         6        -6   # BR(chi^0_4 -> chi^0_2 t t_bar)
     2.84290573E-03    3     1000025         6        -6   # BR(chi^0_4 -> chi^0_3 t t_bar)
     8.04277460E-03    3     1000024         5        -6   # BR(chi^0_4 -> chi^+_1 b t_bar)
     8.04277460E-03    3    -1000024        -5         6   # BR(chi^0_4 -> chi^-_1 b_bar t)
DECAY   1000021     9.90051298E-03   # ~g
#    BR                NDA      ID1      ID2
     1.33093583E-03    2     1000022        21   # BR(~g -> chi^0_1 g)
     4.26122252E-03    2     1000023        21   # BR(~g -> chi^0_2 g)
     1.52995341E-03    2     1000025        21   # BR(~g -> chi^0_3 g)
#    BR                NDA      ID1      ID2       ID3
     1.19778037E-02    3     1000022         6        -6   # BR(~g -> chi^0_1 t t_bar)
     1.06288658E-01    3     1000022         5        -5   # BR(~g -> chi^0_1 b b_bar)
     4.20046555E-02    3     1000023         6        -6   # BR(~g -> chi^0_2 t t_bar)
     2.05248046E-01    3     1000023         5        -5   # BR(~g -> chi^0_2 b b_bar)
     3.30442155E-02    3     1000025         6        -6   # BR(~g -> chi^0_3 t t_bar)
     1.28546126E-01    3     1000025         5        -5   # BR(~g -> chi^0_3 b b_bar)
     2.32716948E-01    3     1000024         5        -6   # BR(~g -> chi^+_1 b t_bar)
     2.32716948E-01    3    -1000024        -5         6   # BR(~g -> chi^-_1 b_bar t)
DECAY        25     3.36563205E-03   # Gamma(h0)
     2.57067029E-03   2        22        22   # BR(h0 -> photon photon)
     1.51069252E-03   2        22        23   # BR(h0 -> photon Z)
     2.65149671E-02   2        23        23   # BR(h0 -> Z Z)
     2.25511112E-01   2       -24        24   # BR(h0 -> W W)
     8.08758975E-02   2        21        21   # BR(h0 -> gluon gluon)
     5.10359094E-09   2       -11        11   # BR(h0 -> Electron electron)
     2.27016053E-04   2       -13        13   # BR(h0 -> Muon muon)
     6.54550198E-02   2       -15        15   # BR(h0 -> Tau tau)
     1.45430473E-07   2        -2         2   # BR(h0 -> Up up)
     2.82240144E-02   2        -4         4   # BR(h0 -> Charm charm)
     5.91961703E-07   2        -1         1   # BR(h0 -> Down down)
     2.14098330E-04   2        -3         3   # BR(h0 -> Strange strange)
     5.68895769E-01   2        -5         5   # BR(h0 -> Bottom bottom)
DECAY        35     9.67596200E+01   # Gamma(HH)
     1.65363907E-08   2        22        22   # BR(HH -> photon photon)
     3.02763810E-08   2        22        23   # BR(HH -> photon Z)
     1.42379666E-07   2        23        23   # BR(HH -> Z Z)
     3.29867562E-08   2       -24        24   # BR(HH -> W W)
     4.43502126E-06   2        21        21   # BR(HH -> gluon gluon)
     7.93132127E-09   2       -11        11   # BR(HH -> Electron electron)
     3.53163795E-04   2       -13        13   # BR(HH -> Muon muon)
     1.02001335E-01   2       -15        15   # BR(HH -> Tau tau)
     5.68115783E-14   2        -2         2   # BR(HH -> Up up)
     1.10212368E-08   2        -4         4   # BR(HH -> Charm charm)
     7.97703834E-04   2        -6         6   # BR(HH -> Top top)
     5.67020761E-07   2        -1         1   # BR(HH -> Down down)
     2.05093667E-04   2        -3         3   # BR(HH -> Strange strange)
     5.14976785E-01   2        -5         5   # BR(HH -> Bottom bottom)
     2.04082400E-03   2  -1000024   1000024   # BR(HH -> Chargino1 chargino1)
     1.11496770E-01   2  -1000024   1000037   # BR(HH -> Chargino1 chargino2)
     1.11496770E-01   2  -1000037   1000024   # BR(HH -> Chargino2 chargino1)
     1.19900119E-05   2  -1000037   1000037   # BR(HH -> Chargino2 chargino2)
     1.06964478E-02   2   1000022   1000022   # BR(HH -> neutralino1 neutralino1)
     1.11864427E-02   2   1000022   1000023   # BR(HH -> neutralino1 neutralino2)
     1.46180101E-04   2   1000022   1000025   # BR(HH -> neutralino1 neutralino3)
     3.02176883E-02   2   1000022   1000035   # BR(HH -> neutralino1 neutralino4)
     1.03538213E-05   2   1000023   1000023   # BR(HH -> neutralino2 neutralino2)
     1.22723020E-02   2   1000023   1000025   # BR(HH -> neutralino2 neutralino3)
     5.56988705E-02   2   1000023   1000035   # BR(HH -> neutralino2 neutralino4)
     1.02583897E-02   2   1000025   1000025   # BR(HH -> neutralino3 neutralino3)
     2.61208805E-02   2   1000025   1000035   # BR(HH -> neutralino3 neutralino4)
     6.00123498E-06   2   1000035   1000035   # BR(HH -> neutralino4 neutralino4)
     7.65835643E-07   2        25        25   # BR(HH -> h0 h0)
DECAY        36     9.31873990E+01   # Gamma(A0)
     1.28565951E-09   2        22        22   # BR(A0 -> photon photon)
     6.15501500E-09   2        22        23   # BR(A0 -> photon Z)
     9.57157815E-06   2        21        21   # BR(A0 -> gluon gluon)
     7.74171970E-09   2       -11        11   # BR(A0 -> Electron electron)
     3.44722103E-04   2       -13        13   # BR(A0 -> Muon muon)
     9.95633001E-02   2       -15        15   # BR(A0 -> Tau tau)
     5.23628375E-14   2        -2         2   # BR(A0 -> Up up)
     1.01579598E-08   2        -4         4   # BR(A0 -> Charm charm)
     7.41183962E-04   2        -6         6   # BR(A0 -> Top top)
     5.53445410E-07   2        -1         1   # BR(A0 -> Down down)
     2.00183631E-04   2        -3         3   # BR(A0 -> Strange strange)
     5.02651908E-01   2        -5         5   # BR(A0 -> Bottom bottom)
     2.12085079E-03   2  -1000024   1000024   # BR(A0 -> Chargino1 chargino1)
     1.15830947E-01   2  -1000024   1000037   # BR(A0 -> Chargino1 chargino2)
     1.15830947E-01   2  -1000037   1000024   # BR(A0 -> Chargino2 chargino1)
     1.32027631E-05   2  -1000037   1000037   # BR(A0 -> Chargino2 chargino2)
     1.22493021E-02   2   1000022   1000022   # BR(A0 -> neutralino1 neutralino1)
     1.04059393E-02   2   1000022   1000023   # BR(A0 -> neutralino1 neutralino2)
     1.42297407E-04   2   1000022   1000025   # BR(A0 -> neutralino1 neutralino3)
     3.15138895E-02   2   1000022   1000035   # BR(A0 -> neutralino1 neutralino4)
     9.83972487E-06   2   1000023   1000023   # BR(A0 -> neutralino2 neutralino2)
     1.13019710E-02   2   1000023   1000025   # BR(A0 -> neutralino2 neutralino3)
     5.79708106E-02   2   1000023   1000035   # BR(A0 -> neutralino2 neutralino4)
     1.21852114E-02   2   1000025   1000025   # BR(A0 -> neutralino3 neutralino3)
     2.69064328E-02   2   1000025   1000035   # BR(A0 -> neutralino3 neutralino4)
     6.62307295E-06   2   1000035   1000035   # BR(A0 -> neutralino4 neutralino4)
     2.87700636E-07   2        23        25   # BR(A0 -> Z h0)
     1.97986939E-14   2        23        35   # BR(A0 -> Z HH)
     4.14124757E-40   2        25        25   # BR(A0 -> h0 h0)
DECAY        37     1.06497928E+02   # Gamma(Hp)
     8.81165126E-09   2       -11        12   # BR(Hp -> Electron nu_e)
     3.76725613E-04   2       -13        14   # BR(Hp -> Muon nu_mu)
     1.06559451E-01   2       -15        16   # BR(Hp -> Tau nu_tau)
     5.45284718E-07   2        -1         2   # BR(Hp -> Down up)
     9.22605933E-06   2        -3         2   # BR(Hp -> Strange up)
     5.76782582E-06   2        -5         2   # BR(Hp -> Bottom up)
     2.60464608E-08   2        -1         4   # BR(Hp -> Down charm)
     1.96527091E-04   2        -3         4   # BR(Hp -> Strange charm)
     8.07702094E-04   2        -5         4   # BR(Hp -> Bottom charm)
     5.71775976E-08   2        -1         6   # BR(Hp -> Down top)
     1.53898423E-06   2        -3         6   # BR(Hp -> Strange top)
     5.45390287E-01   2        -5         6   # BR(Hp -> Bottom top)
     2.46869803E-02   2   1000022   1000024   # BR(Hp -> neutralino1 chargino1)
     5.50762936E-02   2   1000022   1000037   # BR(Hp -> neutralino1 chargino2)
     7.51651617E-04   2   1000023   1000024   # BR(Hp -> neutralino2 chargino1)
     1.01730500E-01   2   1000023   1000037   # BR(Hp -> neutralino2 chargino2)
     1.55404811E-02   2   1000024   1000025   # BR(Hp -> chargino1 neutralino3)
     4.73016174E-02   2   1000025   1000037   # BR(Hp -> neutralino3 chargino2)
     1.01564362E-01   2   1000024   1000035   # BR(Hp -> chargino1 neutralino4)
     8.39274197E-12   2   1000035   1000037   # BR(Hp -> neutralino4 chargino2)
     2.51940761E-07   2        24        25   # BR(Hp -> W h0)
     1.24001212E-13   2        24        35   # BR(Hp -> W HH)
DECAY         6     2.43000000E+00   # top
#    BR                NDA      ID1      ID2
     1.00000000E+00    2           5        24   # BR(t -> b W)
Block HiggsBoundsInputHiggsCouplingsFermions
# ScalarNormEffCoupSq PseudoSNormEffCoupSq NP IP1 IP2 IP2
    9.46403386E-01    0.00000000E+00        3  25   5   5  # h0-b-b eff. coupling^2, normalised to SM
    1.44641388E+03    0.00000000E+00        3  35   5   5  # H0-b-b eff. coupling^2, normalised to SM
    0.00000000E+00    1.44636028E+03        3  36   5   5  # A0-b-b eff. coupling^2, normalised to SM
#
    1.00003706E+00    0.00000000E+00        3  25   6   6  # h0-t-t eff. coupling^2, normalised to SM
    6.54334467E-04    0.00000000E+00        3  35   6   6  # H0-t-t eff. coupling^2, normalised to SM
    0.00000000E+00    6.91390666E-04        3  36   6   6  # A0-t-t eff. coupling^2, normalised to SM
#
    9.46403386E-01    0.00000000E+00        3  25  15  15  # h0-tau-tau eff. coupling^2, normalised to SM
    1.44641388E+03    0.00000000E+00        3  35  15  15  # H0-tau-tau eff. coupling^2, normalised to SM
    0.00000000E+00    1.44636028E+03        3  36  15  15  # A0-tau-tau eff. coupling^2, normalised to SM
#
Block HiggsBoundsInputHiggsCouplingsBosons
    9.99999490E-01        3  25  24  24  # h0-W-W eff. coupling^2, normalised to SM
    5.10281188E-07        3  35  24  24  # H0-W-W eff. coupling^2, normalised to SM
    0.00000000E+00        3  36  24  24  # A0-W-W eff. coupling^2, normalised to SM
#
    9.99999490E-01        3  25  23  23  # h0-Z-Z eff. coupling^2, normalised to SM
    5.10281188E-07        3  35  23  23  # H0-Z-Z eff. coupling^2, normalised to SM
    0.00000000E+00        3  36  23  23  # A0-Z-Z eff. coupling^2, normalised to SM
#
    1.26919979E+00        3  25  21  21  # h0-g-g eff. coupling^2, normalised to SM
    5.43925745E-03        3  35  21  21  # H0-g-g eff. coupling^2, normalised to SM
    1.14531971E-01        3  36  21  21  # A0-g-g eff. coupling^2, normalised to SM
#
    0.00000000E+00        3  25  25  23  # h0-h0-Z eff. coupling^2, normalised to SM
    0.00000000E+00        3  35  25  23  # H0-h0-Z eff. coupling^2, normalised to SM
    5.10281188E-07        3  36  25  23  # A0-h0-Z eff. coupling^2, normalised to SM
    0.00000000E+00        3  35  35  23  # H0-H0-Z eff. coupling^2, normalised to SM
    9.99999490E-01        3  36  35  23  # A0-H0-Z eff. coupling^2, normalised to SM
    0.00000000E+00        3  36  36  23  # A0-A0-Z eff. coupling^2, normalised to SM
#
    0.00000000E+00        4  25  21  21  23  # h0-g-g-Z eff. coupling^2, normalised to SM
    0.00000000E+00        4  35  21  21  23  # H0-g-g-Z eff. coupling^2, normalised to SM
    0.00000000E+00        4  36  21  21  23  # A0-g-g-Z eff. coupling^2, normalised to SM
Block SPhenoLowEnergy  # low energy observables
    1    3.18290946E-04   # BR(b -> s gamma)
    2    1.59028919E-06   # BR(b -> s mu+ mu-)
    3    3.52467535E-05   # BR(b -> s nu nu)
    4    2.68669511E-15   # BR(Bd -> e+ e-)
    5    1.14772289E-10   # BR(Bd -> mu+ mu-)
    6    2.40104199E-08   # BR(Bd -> tau+ tau-)
    7    8.97428606E-14   # BR(Bs -> e+ e-)
    8    3.83380420E-09   # BR(Bs -> mu+ mu-)
    9    8.12715466E-07   # BR(Bs -> tau+ tau-)
   10    9.61815288E-05   # BR(B_u -> tau nu)
   11    9.93518369E-01   # BR(B_u -> tau nu)/BR(B_u -> tau nu)_SM
   12    5.41967617E-01   # |Delta(M_Bd)| [ps^-1] 
   13    1.93612115E+01   # |Delta(M_Bs)| [ps^-1] 
   14    0.00000000E+00   # neutron EDM according to the chiral quark model
   15    0.00000000E+00   # neutron EDM according to the relativistic quark-parton model
   16    2.15729102E-03   # epsilon_K
   17    2.28165855E-15   # Delta(M_K)
   18    2.47969501E-11   # BR(K^0 -> pi^0 nu nu)
   19    8.28971781E-11   # BR(K^+ -> pi^+ nu nu)
   20   -4.19709786E-16   # Delta(g-2)_electron/2
   21   -1.79440426E-11   # Delta(g-2)_muon/2
   22   -5.08645134E-09   # Delta(g-2)_tau/2
   23    0.00000000E+00   # electric dipole moment of the electron
   24    0.00000000E+00   # electric dipole moment of the muon
   25    0.00000000E+00   # electric dipole moment of the tau
   26    0.00000000E+00   # Br(mu -> e gamma)
   27    0.00000000E+00   # Br(tau -> e gamma)
   28    0.00000000E+00   # Br(tau -> mu gamma)
   29    0.00000000E+00   # Br(mu -> 3 e)
   30    0.00000000E+00   # Br(tau -> 3 e)
   31    0.00000000E+00   # Br(tau -> 3 mu)
   39    7.05781555E-05   # Delta(rho_parameter)
   40    0.00000000E+00   # BR(Z -> e mu)
   41    0.00000000E+00   # BR(Z -> e tau)
   42    0.00000000E+00   # BR(Z -> mu tau)
Block FWCOEF Q=  1.60000000E+02  # Wilson coefficients at scale Q
#    id        order  M        value         comment
     0305 4422   00   0    -1.88819110E-01   # C7
     0305 4422   00   2    -1.84326111E-01   # C7
     0305 4322   00   2    -4.70186579E-05   # C7'
     0305 6421   00   0    -9.52278348E-02   # C8
     0305 6421   00   2    -1.02049913E-01   # C8
     0305 6321   00   2    -1.85654959E-04   # C8'
 03051111 4133   00   0     1.62807287E+00   # C9 e+e-
 03051111 4133   00   2     1.62836780E+00   # C9 e+e-
 03051111 4233   00   2     4.11959931E-04   # C9' e+e-
 03051111 4137   00   0    -4.45076497E+00   # C10 e+e-
 03051111 4137   00   2    -4.44862933E+00   # C10 e+e-
 03051111 4237   00   2    -3.03722539E-03   # C10' e+e-
 03051313 4133   00   0     1.62807287E+00   # C9 mu+mu-
 03051313 4133   00   2     1.62836769E+00   # C9 mu+mu-
 03051313 4233   00   2     4.11959692E-04   # C9' mu+mu-
 03051313 4137   00   0    -4.45076497E+00   # C10 mu+mu-
 03051313 4137   00   2    -4.44862945E+00   # C10 mu+mu-
 03051313 4237   00   2    -3.03722559E-03   # C10' mu+mu-
 03051212 4137   00   0     1.50535012E+00   # C11 nu_1 nu_1
 03051212 4137   00   2     1.50488982E+00   # C11 nu_1 nu_1
 03051212 4237   00   2     6.56556474E-04   # C11' nu_1 nu_1
 03051414 4137   00   0     1.50535012E+00   # C11 nu_2 nu_2
 03051414 4137   00   2     1.50488982E+00   # C11 nu_2 nu_2
 03051414 4237   00   2     6.56556502E-04   # C11' nu_2 nu_2
 03051616 4137   00   0     1.50535012E+00   # C11 nu_3 nu_3
 03051616 4137   00   2     1.50488982E+00   # C11 nu_3 nu_3
 03051616 4237   00   2     6.56564267E-04   # C11' nu_3 nu_3
Block IMFWCOEF Q=  1.60000000E+02  # Im(Wilson coefficients) at scale Q
#    id        order  M        value         comment
     0305 4422   00   0     3.85823809E-07   # C7
     0305 4422   00   2     5.00340621E-06   # C7
     0305 4322   00   2     8.56657421E-07   # C7'
     0305 6421   00   0     3.30483609E-07   # C8
     0305 6421   00   2    -8.34411600E-05   # C8
     0305 6321   00   2    -1.09563131E-06   # C8'
 03051111 4133   00   2     4.16541415E-07   # C9 e+e-
 03051111 4233   00   2     7.85345191E-06   # C9' e+e-
 03051111 4137   00   2     8.88823605E-08   # C10 e+e-
 03051111 4237   00   2    -5.79090641E-05   # C10' e+e-
 03051313 4133   00   2     4.16538515E-07   # C9 mu+mu-
 03051313 4233   00   2     7.85344992E-06   # C9' mu+mu-
 03051313 4137   00   2     8.88857113E-08   # C10 mu+mu-
 03051313 4237   00   2    -5.79090701E-05   # C10' mu+mu-
 03051212 4137   00   2     5.12792072E-09   # C11 nu_1 nu_1
 03051212 4237   00   2     1.25181943E-05   # C11' nu_1 nu_1
 03051414 4137   00   2     5.12805295E-09   # C11 nu_2 nu_2
 03051414 4237   00   2     1.25181943E-05   # C11' nu_2 nu_2
 03051616 4137   00   2     5.16498645E-09   # C11 nu_3 nu_3
 03051616 4237   00   2     1.25181943E-05   # C11' nu_3 nu_3
