# SUSY Les Houches Accord 2 - MSSM spectrum + Decays
# SPheno v4.0.5be
# W. Porod, Comput. Phys. Commun. 153 (2003) 275-315, hep-ph/0301101;
# W. Porod, F.~Staub, Comput. Phys. Commun. 183 (2012) 2458
#                     arXiv:1104.1573 [hep-ph] 
# in case of problems send email to porod@physik.uni-wuerzburg.de
# Created: 07.09.2021,  20:25
Block SPINFO         # Program information
     1   SPheno      # spectrum calculator
     2   v4.0.5be    # version number
#
Block SPhenoINFO     # SPheno specific information
    1      2         # using 2-loop RGEs
    2      2         # using pole masses for boundary conditions at mZ
Block MODSEL  # Model selection
    1    0    # general MSSM
Block MINPAR  # Input parameters
    3    7.87869746E+00  # tanb at m_Z    
    4   -1.00000000E+00  # Sign(mu)
Block EXTPAR  # non-universal input parameters
    0    3.20750746E+03  # scale for input parameters
    1   -2.31472584E+02  # M_1
    2    1.16977902E+03  # M_2
    3    2.66801669E+03  # M_3
   11    5.17691320E+03  # A_t
   12    1.38038631E+03  # A_b
   13    1.82004771E+03  # A_tau
   23   -2.44793432E+02  # mu
   25    7.48838133E+00  # tan(beta)
   26    1.78187232E+03  # m_A, pole mass
   31    1.00000000E+04  # M_L11
   32    1.00000000E+04  # M_L22
   33    1.00000000E+04  # M_L33
   34    1.00000000E+04  # M_E11
   35    1.00000000E+04  # M_E22
   36    1.00000000E+04  # M_E33
   41    1.00000000E+04  # M_Q11
   42    1.00000000E+04  # M_Q22
   43    3.36351263E+03  # M_Q33
   44    1.00000000E+04  # M_U11
   45    1.00000000E+04  # M_U22
   46    3.04341000E+03  # M_U33
   47    1.00000000E+04  # M_D11
   48    1.00000000E+04  # M_D22
   49    4.40177838E+03  # M_D33
Block SMINPUTS  # SM parameters
         1     1.27908970E+02  # alpha_em^-1(MZ)^MSbar
         2     1.16637870E-05  # G_mu [GeV^-2]
         3     1.18400000E-01  # alpha_s(MZ)^MSbar
         4     9.11876000E+01  # m_Z(pole)
         5     4.18000000E+00  # m_b(m_b), MSbar
         6     1.73200000E+02  # m_t(pole)
         7     1.77700000E+00  # m_tau(pole)
         8     0.00000000E+00  # m_nu_3
        11     5.10998930E-04  # m_e(pole)
        12     0.00000000E+00  # m_nu_1
        13     1.05658372E-01  # m_muon(pole)
        14     0.00000000E+00  # m_nu_2
        21     5.00000000E-03  # m_d(2 GeV), MSbar
        22     2.50000000E-03  # m_u(2 GeV), MSbar
        23     9.50000000E-02  # m_s(2 GeV), MSbar
        24     1.27000000E+00  # m_c(m_c), MSbar
Block gauge Q=  3.20750746E+03  # (SUSY scale)
   1    3.55362975E-01  # g'(Q)^DRbar
   2    6.65198874E-01  # g(Q)^DRbar
   3    1.21977796E+00  # g3(Q)^DRbar
Block Yu Q=  3.20750746E+03  # (SUSY scale)
  1  1     8.45880098E-06   # Y_u(Q)^DRbar
  2  2     4.29707090E-03   # Y_c(Q)^DRbar
  3  3     1.02189110E+00   # Y_t(Q)^DRbar
Block Yd Q=  3.20750746E+03  # (SUSY scale)
  1  1     1.27284935E-04   # Y_d(Q)^DRbar
  2  2     2.41841377E-03   # Y_s(Q)^DRbar
  3  3     1.26226770E-01   # Y_b(Q)^DRbar
Block Ye Q=  3.20750746E+03  # (SUSY scale)
  1  1     2.22121520E-05   # Y_e(Q)^DRbar
  2  2     4.59276856E-03   # Y_mu(Q)^DRbar
  3  3     7.72428116E-02   # Y_tau(Q)^DRbar
Block Au Q=  3.20750746E+03  # (SUSY scale)
  1  1     0.00000000E+00   # A_u(Q)^DRbar
  2  2     0.00000000E+00   # A_c(Q)^DRbar
  3  3     5.17691320E+03   # A_t(Q)^DRbar
Block Ad Q=  3.20750746E+03  # (SUSY scale)
  1  1     0.00000000E+00   # A_d(Q)^DRbar
  2  2     0.00000000E+00   # A_s(Q)^DRbar
  3  3     1.38038631E+03   # A_b(Q)^DRbar
Block Ae Q=  3.20750746E+03  # (SUSY scale)
  1  1     0.00000000E+00   # A_e(Q)^DRbar
  2  2     0.00000000E+00   # A_mu(Q)^DRbar
  3  3     1.82004771E+03   # A_tau(Q)^DRbar
Block MSOFT Q=  3.20750746E+03  # soft SUSY breaking masses at Q
   1   -2.31472584E+02  # M_1
   2    1.16977902E+03  # M_2
   3    2.66801669E+03  # M_3
  21    3.02822844E+06  # M^2_(H,d)
  22    1.99404819E+05  # M^2_(H,u)
  31    1.00000000E+04  # M_(L,11)
  32    1.00000000E+04  # M_(L,22)
  33    1.00000000E+04  # M_(L,33)
  34    1.00000000E+04  # M_(E,11)
  35    1.00000000E+04  # M_(E,22)
  36    1.00000000E+04  # M_(E,33)
  41    1.00000000E+04  # M_(Q,11)
  42    1.00000000E+04  # M_(Q,22)
  43    3.36351263E+03  # M_(Q,33)
  44    1.00000000E+04  # M_(U,11)
  45    1.00000000E+04  # M_(U,22)
  46    3.04341000E+03  # M_(U,33)
  47    1.00000000E+04  # M_(D,11)
  48    1.00000000E+04  # M_(D,22)
  49    4.40177838E+03  # M_(D,33)
Block MASS  # Mass spectrum
#   PDG code      mass          particle
         6     1.73200000E+02  # m_t(pole)
        23     9.11876000E+01  # m_Z(pole)
        24     8.04299946E+01  # W+
        15     1.77700000E+00  # m_tau(pole)
        25     1.25522734E+02  # h0
        35     1.78197034E+03  # H0
        36     1.78187232E+03  # A0
        37     1.78452351E+03  # H+
   1000001     1.01077331E+04  # ~d_L
   2000001     1.00835384E+04  # ~d_R
   1000002     1.01073821E+04  # ~u_L
   2000002     1.00866013E+04  # ~u_R
   1000003     1.01077340E+04  # ~s_L
   2000003     1.00835388E+04  # ~s_R
   1000004     1.01073829E+04  # ~c_L
   2000004     1.00866026E+04  # ~c_R
   1000005     3.39272863E+03  # ~b_1
   2000005     4.46768838E+03  # ~b_2
   1000006     3.00688267E+03  # ~t_1
   2000006     3.42151830E+03  # ~t_2
   1000011     1.00206339E+04  # ~e_L-
   2000011     1.00089796E+04  # ~e_R-
   1000012     1.00198821E+04  # ~nu_eL
   1000013     1.00206349E+04  # ~mu_L-
   2000013     1.00089816E+04  # ~mu_R-
   1000014     1.00198831E+04  # ~nu_muL
   1000015     1.00095387E+04  # ~tau_1-
   2000015     1.00209341E+04  # ~tau_2-
   1000016     1.00201729E+04  # ~nu_tauL
   1000021     3.11141886E+03  # ~g
   1000022     2.09924538E+02  # ~chi_10
   1000023     2.57381309E+02  # ~chi_20
   1000025     2.85364763E+02  # ~chi_30
   1000035     1.25938560E+03  # ~chi_40
   1000024     2.58585287E+02  # ~chi_1+
   1000037     1.25862536E+03  # ~chi_2+
# Higgs mixing
Block alpha # Effective Higgs mixing angle
          -1.27145249E-01   # alpha
Block Hmix Q=  3.20750746E+03  # Higgs mixing parameters
   1   -2.44793432E+02  # mu
   2    7.48838133E+00  # tan[beta](Q)
   3    2.43154521E+02  # v(Q)
   4    3.17506896E+06  # m^2_A(Q)
Block stopmix # stop mixing matrix
   1  1    -2.62502245E-01   # Re[R_st(1,1)]
   1  2     9.64931382E-01   # Re[R_st(1,2)]
   2  1    -9.64931382E-01   # Re[R_st(2,1)]
   2  2    -2.62502245E-01   # Re[R_st(2,2)]
Block sbotmix # sbottom mixing matrix
   1  1    -9.99999736E-01   # Re[R_sb(1,1)]
   1  2     7.27017579E-04   # Re[R_sb(1,2)]
   2  1    -7.27017579E-04   # Re[R_sb(2,1)]
   2  2    -9.99999736E-01   # Re[R_sb(2,2)]
Block staumix # stau mixing matrix
   1  1    -2.84664951E-02   # Re[R_sta(1,1)]
   1  2     9.99594747E-01   # Re[R_sta(1,2)]
   2  1    -9.99594747E-01   # Re[R_sta(2,1)]
   2  2    -2.84664951E-02   # Re[R_sta(2,2)]
Block Nmix # neutralino mixing matrix
   1  1    -8.18006244E-01   # Re[N(1,1)]
   1  2    -2.36302961E-02   # Re[N(1,2)]
   1  3     4.37074820E-01   # Re[N(1,3)]
   1  4    -3.73192974E-01   # Re[N(1,4)]
   2  1    -5.50080364E-02   # Re[N(2,1)]
   2  2    -4.85834857E-02   # Re[N(2,2)]
   2  3    -7.06550701E-01   # Re[N(2,3)]
   2  4    -7.03846480E-01   # Re[N(2,4)]
   3  1    -5.72569791E-01   # Re[N(3,1)]
   3  2     3.50590330E-02   # Re[N(3,2)]
   3  3    -5.56535257E-01   # Re[N(3,3)]
   3  4     6.01001835E-01   # Re[N(3,4)]
   4  1     1.93248075E-03   # Re[N(4,1)]
   4  2    -9.97923904E-01   # Re[N(4,2)]
   4  3     4.49623516E-03   # Re[N(4,3)]
   4  4     6.42178415E-02   # Re[N(4,4)]
Block Umix # chargino mixing matrix
   1  1    -6.41113227E-03   # Re[U(1,1)]
   1  2    -9.99979448E-01   # Re[U(1,2)]
   2  1     9.99979448E-01   # Re[U(2,1)]
   2  2    -6.41113227E-03   # Re[U(2,2)]
Block Vmix # chargino mixing matrix
   1  1    -9.08786268E-02   # Re[V(1,1)]
   1  2     9.95861976E-01   # Re[V(1,2)]
   2  1     9.95861976E-01   # Re[V(2,1)]
   2  2     9.08786268E-02   # Re[V(2,2)]
DECAY        23     2.49520000E+00   # Z
DECAY        24     2.08500000E+00   # W
DECAY   2000011     5.02348664E+01   # ~e^-_R
#    BR                NDA      ID1      ID2
     6.69298906E-01    2     1000022        11   # BR(~e^-_R -> chi^0_1 e^-)
     3.02528933E-03    2     1000023        11   # BR(~e^-_R -> chi^0_2 e^-)
     3.27672182E-01    2     1000025        11   # BR(~e^-_R -> chi^0_3 e^-)
DECAY   1000011     1.40756911E+02   # ~e^-_L
#    BR                NDA      ID1      ID2
     6.64269751E-02    2     1000022        11   # BR(~e^-_L -> chi^0_1 e^-)
     1.90243402E-03    2     1000023        11   # BR(~e^-_L -> chi^0_2 e^-)
     2.29447873E-02    2     1000025        11   # BR(~e^-_L -> chi^0_3 e^-)
     3.01644449E-01    2     1000035        11   # BR(~e^-_L -> chi^0_4 e^-)
     6.07055630E-01    2    -1000037        12   # BR(~e^-_L -> chi^-_2 nu_e)
#    BR                NDA      ID1      ID2       ID3
DECAY   2000013     5.02432654E+01   # ~mu^-_R
#    BR                NDA      ID1      ID2
     6.69203114E-01    2     1000022        13   # BR(~mu^-_R -> chi^0_1 mu^-)
     3.06646052E-03    2     1000023        13   # BR(~mu^-_R -> chi^0_2 mu^-)
     3.27643318E-01    2     1000025        13   # BR(~mu^-_R -> chi^0_3 mu^-)
DECAY   1000013     1.40761126E+02   # ~mu^-_L
#    BR                NDA      ID1      ID2
     6.64306942E-02    2     1000022        13   # BR(~mu^-_L -> chi^0_1 mu^-)
     1.91727088E-03    2     1000023        13   # BR(~mu^-_L -> chi^0_2 mu^-)
     2.29533408E-02    2     1000025        13   # BR(~mu^-_L -> chi^0_3 mu^-)
     3.01635450E-01    2     1000035        13   # BR(~mu^-_L -> chi^0_4 mu^-)
     6.07037520E-01    2    -1000037        14   # BR(~mu^-_L -> chi^-_2 nu_mu)
#    BR                NDA      ID1      ID2       ID3
DECAY   1000015     5.26832019E+01   # ~tau^-_1
#    BR                NDA      ID1      ID2
     6.43572740E-01    2     1000022        15   # BR(~tau^-_1 -> chi^0_1 tau^-)
     1.42358683E-02    2     1000023        15   # BR(~tau^-_1 -> chi^0_2 tau^-)
     3.17750468E-01    2     1000025        15   # BR(~tau^-_1 -> chi^0_3 tau^-)
     6.22197404E-04    2     1000035        15   # BR(~tau^-_1 -> chi^0_4 tau^-)
     2.25737150E-02    2    -1000024        16   # BR(~tau^-_1 -> chi^-_1 nu_tau)
     1.24501114E-03    2    -1000037        16   # BR(~tau^-_1 -> chi^-_2 nu_tau)
DECAY   2000015     1.41876709E+02   # ~tau^-_2
#    BR                NDA      ID1      ID2
     6.71191477E-02    2     1000022        15   # BR(~tau^-_2 -> chi^0_1 tau^-)
     6.02732066E-03    2     1000023        15   # BR(~tau^-_2 -> chi^0_2 tau^-)
     2.59831615E-02    2     1000025        15   # BR(~tau^-_2 -> chi^0_3 tau^-)
     2.99043437E-01    2     1000035        15   # BR(~tau^-_2 -> chi^0_4 tau^-)
     6.01820954E-01    2    -1000037        16   # BR(~tau^-_2 -> chi^-_2 nu_tau)
#    BR                NDA      ID1      ID2       ID3
DECAY   1000012     1.40760629E+02   # ~nu_e
#    BR                NDA      ID1      ID2
     5.34898962E-02    2     1000022        12   # BR(~nu_e -> chi^0_1 nu_e)
     1.15313608E-04    2     1000023        12   # BR(~nu_e -> chi^0_2 nu_e)
     3.63604854E-02    2     1000025        12   # BR(~nu_e -> chi^0_3 nu_e)
     3.02863080E-01    2     1000035        12   # BR(~nu_e -> chi^0_4 nu_e)
     5.16843972E-03    2     1000024        11   # BR(~nu_e -> chi^+_1 e^-)
     6.02002785E-01    2     1000037        11   # BR(~nu_e -> chi^+_2 e^-)
#    BR                NDA      ID1      ID2       ID3
DECAY   1000014     1.40764843E+02   # ~nu_mu
#    BR                NDA      ID1      ID2
     5.34883002E-02    2     1000022        14   # BR(~nu_mu -> chi^0_1 nu_mu)
     1.15310168E-04    2     1000023        14   # BR(~nu_mu -> chi^0_2 nu_mu)
     3.63594005E-02    2     1000025        14   # BR(~nu_mu -> chi^0_3 nu_mu)
     3.02854046E-01    2     1000035        14   # BR(~nu_mu -> chi^0_4 nu_mu)
     5.19811510E-03    2     1000024        13   # BR(~nu_mu -> chi^+_1 mu^-)
     6.01984828E-01    2     1000037        13   # BR(~nu_mu -> chi^+_2 mu^-)
#    BR                NDA      ID1      ID2       ID3
DECAY   1000016     1.41952755E+02   # ~nu_tau
#    BR                NDA      ID1      ID2
     5.30422275E-02    2     1000022        16   # BR(~nu_tau -> chi^0_1 nu_tau)
     1.14348527E-04    2     1000023        16   # BR(~nu_tau -> chi^0_2 nu_tau)
     3.60561780E-02    2     1000025        16   # BR(~nu_tau -> chi^0_3 nu_tau)
     3.00328897E-01    2     1000035        16   # BR(~nu_tau -> chi^0_4 nu_tau)
     1.34925223E-02    2     1000024        15   # BR(~nu_tau -> chi^+_1 tau^-)
     5.96965826E-01    2     1000037        15   # BR(~nu_tau -> chi^+_2 tau^-)
#    BR                NDA      ID1      ID2       ID3
DECAY   2000001     6.57202510E+02   # ~d_R
#    BR                NDA      ID1      ID2
     5.72680637E-03    2     1000022         1   # BR(~d_R -> chi^0_1 d)
     2.80373459E-03    2     1000025         1   # BR(~d_R -> chi^0_3 d)
     9.91443535E-01    2     1000021         1   # BR(~d_R -> ~g d)
DECAY   1000001     7.84573467E+02   # ~d_L
#    BR                NDA      ID1      ID2
     8.43757502E-04    2     1000022         1   # BR(~d_L -> chi^0_1 d)
     1.06289432E-03    2     1000025         1   # BR(~d_L -> chi^0_3 d)
     5.47681032E-02    2     1000035         1   # BR(~d_L -> chi^0_4 d)
     1.09916288E-01    2    -1000037         2   # BR(~d_L -> chi^-_2 u)
     8.33319097E-01    2     1000021         1   # BR(~d_L -> ~g d)
DECAY   2000003     6.57204883E+02   # ~s_R
#    BR                NDA      ID1      ID2
     5.72712581E-03    2     1000022         3   # BR(~s_R -> chi^0_1 s)
     2.80427502E-03    2     1000025         3   # BR(~s_R -> chi^0_3 s)
     9.91440009E-01    2     1000021         3   # BR(~s_R -> ~g s)
DECAY   1000003     7.84578440E+02   # ~s_L
#    BR                NDA      ID1      ID2
     8.44037583E-04    2     1000022         3   # BR(~s_L -> chi^0_1 s)
     1.06334989E-03    2     1000025         3   # BR(~s_L -> chi^0_3 s)
     5.47677612E-02    2     1000035         3   # BR(~s_L -> chi^0_4 s)
     1.09915639E-01    2    -1000037         4   # BR(~s_L -> chi^-_2 c)
     8.33313919E-01    2     1000021         3   # BR(~s_L -> ~g s)
DECAY   1000005     1.27796859E+02   # ~b_1
#    BR                NDA      ID1      ID2
     3.33089991E-03    2     1000022         5   # BR(~b_1 -> chi^0_1 b)
     4.32746031E-03    2     1000023         5   # BR(~b_1 -> chi^0_2 b)
     4.72296939E-03    2     1000025         5   # BR(~b_1 -> chi^0_3 b)
     8.65662602E-02    2     1000035         5   # BR(~b_1 -> chi^0_4 b)
     5.37759066E-01    2    -1000024         6   # BR(~b_1 -> chi^-_1 t)
     1.78064539E-01    2    -1000037         6   # BR(~b_1 -> chi^-_2 t)
     5.29393087E-02    2     1000021         5   # BR(~b_1 -> ~g b)
     1.32289496E-01    2     1000006       -24   # BR(~b_1 -> ~t_1 W^-)
DECAY   2000005     9.88230202E+01   # ~b_2
#    BR                NDA      ID1      ID2
     1.95270964E-02    2     1000022         5   # BR(~b_2 -> chi^0_1 b)
     7.18116194E-03    2     1000023         5   # BR(~b_2 -> chi^0_2 b)
     1.26226788E-02    2     1000025         5   # BR(~b_2 -> chi^0_3 b)
     1.41913711E-02    2    -1000024         6   # BR(~b_2 -> chi^-_1 t)
     9.46412346E-01    2     1000021         5   # BR(~b_2 -> ~g b)
DECAY   2000002     6.74360541E+02   # ~u_R
#    BR                NDA      ID1      ID2
     2.23311768E-02    2     1000022         2   # BR(~u_R -> chi^0_1 u)
     1.00939527E-04    2     1000023         2   # BR(~u_R -> chi^0_2 u)
     1.09329167E-02    2     1000025         2   # BR(~u_R -> chi^0_3 u)
     9.66634846E-01    2     1000021         2   # BR(~u_R -> ~g u)
DECAY   1000002     7.84560235E+02   # ~u_L
#    BR                NDA      ID1      ID2
     1.62379794E-03    2     1000022         2   # BR(~u_L -> chi^0_1 u)
     1.93003369E-04    2     1000023         2   # BR(~u_L -> chi^0_2 u)
     2.53385452E-04    2     1000025         2   # BR(~u_L -> chi^0_3 u)
     5.46915138E-02    2     1000035         2   # BR(~u_L -> chi^0_4 u)
     9.35410588E-04    2     1000024         1   # BR(~u_L -> chi^+_1 d)
     1.09010793E-01    2     1000037         1   # BR(~u_L -> chi^+_2 d)
     8.33292096E-01    2     1000021         2   # BR(~u_L -> ~g u)
DECAY   2000004     6.74368030E+02   # ~c_R
#    BR                NDA      ID1      ID2
     2.23316969E-02    2     1000022         4   # BR(~c_R -> chi^0_1 c)
     1.03657041E-04    2     1000023         4   # BR(~c_R -> chi^0_2 c)
     1.09347754E-02    2     1000025         4   # BR(~c_R -> chi^0_3 c)
     9.66624242E-01    2     1000021         4   # BR(~c_R -> ~g c)
DECAY   1000004     7.84565167E+02   # ~c_L
#    BR                NDA      ID1      ID2
     1.62444595E-03    2     1000022         4   # BR(~c_L -> chi^0_1 c)
     1.95343262E-04    2     1000023         4   # BR(~c_L -> chi^0_2 c)
     2.55090838E-04    2     1000025         4   # BR(~c_L -> chi^0_3 c)
     5.46911936E-02    2     1000035         4   # BR(~c_L -> chi^0_4 c)
     9.36897695E-04    2     1000024         3   # BR(~c_L -> chi^+_1 s)
     1.09010116E-01    2     1000037         3   # BR(~c_L -> chi^+_2 s)
     8.33286912E-01    2     1000021         4   # BR(~c_L -> ~g c)
DECAY   1000006     1.25728873E+02   # ~t_1
#    BR                NDA      ID1      ID2
     1.19540596E-01    2     1000022         6   # BR(~t_1 -> chi^0_1 t)
     2.40867587E-01    2     1000023         6   # BR(~t_1 -> chi^0_2 t)
     1.67683176E-01    2     1000025         6   # BR(~t_1 -> chi^0_3 t)
     1.13692409E-02    2     1000035         6   # BR(~t_1 -> chi^0_4 t)
     4.38040722E-01    2     1000024         5   # BR(~t_1 -> chi^+_1 b)
     2.24735691E-02    2     1000037         5   # BR(~t_1 -> chi^+_2 b)
#    BR                NDA      ID1      ID2       ID3
DECAY   2000006     1.39715223E+02   # ~t_2
#    BR                NDA      ID1      ID2
     5.69060193E-02    2     1000022         6   # BR(~t_2 -> chi^0_1 t)
     2.48735403E-01    2     1000023         6   # BR(~t_2 -> chi^0_2 t)
     2.05089856E-01    2     1000025         6   # BR(~t_2 -> chi^0_3 t)
     7.09045856E-02    2     1000035         6   # BR(~t_2 -> chi^0_4 t)
     5.81739040E-02    2     1000024         5   # BR(~t_2 -> chi^+_1 b)
     1.37700668E-01    2     1000037         5   # BR(~t_2 -> chi^+_2 b)
     6.02122850E-02    2     1000021         6   # BR(~t_2 -> ~g t)
     6.85454074E-02    2     1000006        23   # BR(~t_2 -> ~t_1 Z)
     9.37318724E-02    2     1000006        25   # BR(~t_2 -> ~t_1 h^0)
DECAY   1000024     4.29986118E-04   # chi^+_1
#    BR                NDA      ID1      ID2       ID3
     3.33837024E-01    3     1000022        -1         2   # BR(chi^+_1 -> chi^0_1 d_bar u)
     3.32922535E-01    3     1000022        -3         4   # BR(chi^+_1 -> chi^0_1 s_bar c)
     1.11278454E-01    3     1000022       -11        12   # BR(chi^+_1 -> chi^0_1 e^+ nu_e)
     1.11276922E-01    3     1000022       -13        14   # BR(chi^+_1 -> chi^0_1 mu^+ nu_mu)
     1.10685061E-01    3     1000022       -15        16   # BR(chi^+_1 -> chi^0_1 tau^+ nu_tau)
DECAY   1000037     9.99174251E+00   # chi^+_2
#    BR                NDA      ID1      ID2
     8.18639978E-02    2     1000022        24   # BR(chi^+_2 -> chi^0_1 W^+)
     2.46954454E-01    2     1000023        24   # BR(chi^+_2 -> chi^0_2 W^+)
     1.65462621E-01    2     1000025        24   # BR(chi^+_2 -> chi^0_3 W^+)
     2.45239169E-01    2     1000024        23   # BR(chi^+_2 -> chi^+_1 Z)
     2.41782530E-01    2     1000024        25   # BR(chi^+_2 -> chi^+_1 h^0)
#    BR                NDA      ID1      ID2       ID3
     5.95839850E-03    3     1000024         6        -6   # BR(chi^+_2 -> chi^+_1 t t_bar)
     2.35526230E-03    3     1000022        -5         6   # BR(chi^+_2 -> chi^0_1 b_bar t)
     5.51308451E-03    3     1000023        -5         6   # BR(chi^+_2 -> chi^0_2 b_bar t)
     4.86356725E-03    3     1000025        -5         6   # BR(chi^+_2 -> chi^0_3 b_bar t)
DECAY   1000022     0.00000000E+00   # chi^0_1
DECAY   1000023     2.71911529E-04   # chi^0_2
#    BR                NDA      ID1      ID2
     9.46081762E-03    2     1000022        22   # BR(chi^0_2 -> chi^0_1 photon)
#    BR                NDA      ID1      ID2       ID3
     1.19078038E-01    3     1000022         2        -2   # BR(chi^0_2 -> chi^0_1 u u_bar)
     1.18064586E-01    3     1000022         4        -4   # BR(chi^0_2 -> chi^0_1 c c_bar)
     1.52681352E-01    3     1000022         1        -1   # BR(chi^0_2 -> chi^0_1 d d_bar)
     1.52675141E-01    3     1000022         3        -3   # BR(chi^0_2 -> chi^0_1 s s_bar)
     1.41129721E-01    3     1000022         5        -5   # BR(chi^0_2 -> chi^0_1 b b_bar)
     3.44552511E-02    3     1000022        11       -11   # BR(chi^0_2 -> chi^0_1 e^- e^+)
     3.44529907E-02    3     1000022        13       -13   # BR(chi^0_2 -> chi^0_1 mu^- mu^+)
     3.38237934E-02    3     1000022        15       -15   # BR(chi^0_2 -> chi^0_1 tau^- tau^+)
     2.04178310E-01    3     1000022        12       -12   # BR(chi^0_2 -> chi^0_1 nu_e nu_bar_e)
DECAY   1000025     1.19768746E-04   # chi^0_3
#    BR                NDA      ID1      ID2
     1.14215241E-03    2     1000022        22   # BR(chi^0_3 -> chi^0_1 photon)
     2.18817178E-02    2     1000023        22   # BR(chi^0_3 -> chi^0_2 photon)
#    BR                NDA      ID1      ID2       ID3
     5.47078245E-03    3     1000022         2        -2   # BR(chi^0_3 -> chi^0_1 u u_bar)
     5.46115275E-03    3     1000022         4        -4   # BR(chi^0_3 -> chi^0_1 c c_bar)
     7.01020775E-03    3     1000022         1        -1   # BR(chi^0_3 -> chi^0_1 d d_bar)
     7.01015791E-03    3     1000022         3        -3   # BR(chi^0_3 -> chi^0_1 s s_bar)
     6.91307136E-03    3     1000022         5        -5   # BR(chi^0_3 -> chi^0_1 b b_bar)
     1.57846804E-03    3     1000022        11       -11   # BR(chi^0_3 -> chi^0_1 e^- e^+)
     1.57846041E-03    3     1000022        13       -13   # BR(chi^0_3 -> chi^0_1 mu^- mu^+)
     1.57576186E-03    3     1000022        15       -15   # BR(chi^0_3 -> chi^0_1 tau^- tau^+)
     9.38089165E-03    3     1000022        12       -12   # BR(chi^0_3 -> chi^0_1 nu_e nu_bar_e)
     3.71210922E-02    3     1000023         2        -2   # BR(chi^0_3 -> chi^0_2 u u_bar)
     3.61457171E-02    3     1000023         4        -4   # BR(chi^0_3 -> chi^0_2 c c_bar)
     4.75967347E-02    3     1000023         1        -1   # BR(chi^0_3 -> chi^0_2 d d_bar)
     4.75906254E-02    3     1000023         3        -3   # BR(chi^0_3 -> chi^0_2 s s_bar)
     3.70928455E-02    3     1000023         5        -5   # BR(chi^0_3 -> chi^0_2 b b_bar)
     1.07413281E-02    3     1000023        11       -11   # BR(chi^0_3 -> chi^0_2 e^- e^+)
     1.07391438E-02    3     1000023        13       -13   # BR(chi^0_3 -> chi^0_2 mu^- mu^+)
     1.01453958E-02    3     1000023        15       -15   # BR(chi^0_3 -> chi^0_2 tau^- tau^+)
     6.36506078E-02    3     1000023        12       -12   # BR(chi^0_3 -> chi^0_2 nu_e nu_bar_e)
     1.05636671E-01    3     1000024         1        -2   # BR(chi^0_3 -> chi^+_1 d u_bar)
     1.05636671E-01    3    -1000024        -1         2   # BR(chi^0_3 -> chi^-_1 d_bar u)
     1.04527813E-01    3     1000024         3        -4   # BR(chi^0_3 -> chi^+_1 s c_bar)
     1.04527813E-01    3    -1000024        -3         4   # BR(chi^0_3 -> chi^-_1 s_bar c)
     3.52123283E-02    3     1000024        11       -12   # BR(chi^0_3 -> chi^+_1 e^- nu_bar_e)
     3.52123283E-02    3    -1000024       -11        12   # BR(chi^0_3 -> chi^-_1 e^+ nu_e)
     3.52105612E-02    3     1000024        13       -14   # BR(chi^0_3 -> chi^+_1 mu^- nu_bar_mu)
     3.52105612E-02    3    -1000024       -13        14   # BR(chi^0_3 -> chi^-_1 mu^+ nu_mu)
     3.44994694E-02    3     1000024        15       -16   # BR(chi^0_3 -> chi^+_1 tau^- nu_bar_tau)
     3.44994694E-02    3    -1000024       -15        16   # BR(chi^0_3 -> chi^-_1 tau^+ nu_tau)
DECAY   1000035     1.13425119E+01   # chi^0_4
#    BR                NDA      ID1      ID2
     2.18602999E-01    2     1000024       -24   # BR(chi^0_4 -> chi^+_1 W^-)
     2.18602999E-01    2    -1000024        24   # BR(chi^0_4 -> chi^-_1 W^+)
     3.72197375E-02    2     1000022        23   # BR(chi^0_4 -> chi^0_1 Z)
     9.37247920E-02    2     1000023        23   # BR(chi^0_4 -> chi^0_2 Z)
     8.70603460E-02    2     1000025        23   # BR(chi^0_4 -> chi^0_3 Z)
     6.46600885E-02    2     1000022        25   # BR(chi^0_4 -> chi^0_1 h^0)
     1.22768326E-01    2     1000023        25   # BR(chi^0_4 -> chi^0_2 h^0)
     1.42241711E-01    2     1000025        25   # BR(chi^0_4 -> chi^0_3 h^0)
#    BR                NDA      ID1      ID2       ID3
     1.02653968E-03    3     1000022         6        -6   # BR(chi^0_4 -> chi^0_1 t t_bar)
     2.47111738E-03    3     1000023         6        -6   # BR(chi^0_4 -> chi^0_2 t t_bar)
     2.01597234E-03    3     1000025         6        -6   # BR(chi^0_4 -> chi^0_3 t t_bar)
     4.79678946E-03    3     1000024         5        -6   # BR(chi^0_4 -> chi^+_1 b t_bar)
     4.79678946E-03    3    -1000024        -5         6   # BR(chi^0_4 -> chi^-_1 b_bar t)
DECAY   1000021     1.41821279E+00   # ~g
#    BR                NDA      ID1      ID2
     1.13138646E-03    2     1000022        21   # BR(~g -> chi^0_1 g)
     2.62236359E-03    2     1000023        21   # BR(~g -> chi^0_2 g)
     1.45569440E-03    2     1000025        21   # BR(~g -> chi^0_3 g)
#    BR                NDA      ID1      ID2       ID3
     1.04523201E-01    3     1000022         6        -6   # BR(~g -> chi^0_1 t t_bar)
     8.53144811E-04    3     1000022         5        -5   # BR(~g -> chi^0_1 b b_bar)
     2.29106333E-01    3     1000023         6        -6   # BR(~g -> chi^0_2 t t_bar)
     8.92172437E-04    3     1000023         5        -5   # BR(~g -> chi^0_2 b b_bar)
     1.53014605E-01    3     1000025         6        -6   # BR(~g -> chi^0_3 t t_bar)
     9.66739578E-04    3     1000025         5        -5   # BR(~g -> chi^0_3 b b_bar)
     1.57615044E-02    3     1000035         6        -6   # BR(~g -> chi^0_4 t t_bar)
     8.89641505E-03    3     1000035         5        -5   # BR(~g -> chi^0_4 b b_bar)
     2.15520793E-01    3     1000024         5        -6   # BR(~g -> chi^+_1 b t_bar)
     2.15520793E-01    3    -1000024        -5         6   # BR(~g -> chi^-_1 b_bar t)
     2.45994516E-02    3     1000037         5        -6   # BR(~g -> chi^+_2 b t_bar)
     2.45994516E-02    3    -1000037        -5         6   # BR(~g -> chi^-_2 b_bar t)
DECAY        25     3.59082245E-03   # Gamma(h0)
     2.56583066E-03   2        22        22   # BR(h0 -> photon photon)
     1.69066108E-03   2        22        23   # BR(h0 -> photon Z)
     3.18890705E-02   2        23        23   # BR(h0 -> Z Z)
     2.60729254E-01   2       -24        24   # BR(h0 -> W W)
     7.92885399E-02   2        21        21   # BR(h0 -> gluon gluon)
     4.81258142E-09   2       -11        11   # BR(h0 -> Electron electron)
     2.14072502E-04   2       -13        13   # BR(h0 -> Muon muon)
     6.17255143E-02   2       -15        15   # BR(h0 -> Tau tau)
     1.35238368E-07   2        -2         2   # BR(h0 -> Up up)
     2.62476108E-02   2        -4         4   # BR(h0 -> Charm charm)
     5.56632257E-07   2        -1         1   # BR(h0 -> Down down)
     2.01320921E-04   2        -3         3   # BR(h0 -> Strange strange)
     5.35447429E-01   2        -5         5   # BR(h0 -> Bottom bottom)
DECAY        35     1.00283733E+01   # Gamma(HH)
     3.52756513E-08   2        22        22   # BR(HH -> photon photon)
     6.28365177E-08   2        22        23   # BR(HH -> photon Z)
     1.09511129E-04   2        23        23   # BR(HH -> Z Z)
     6.85240044E-05   2       -24        24   # BR(HH -> W W)
     4.15089963E-05   2        21        21   # BR(HH -> gluon gluon)
     1.53087848E-09   2       -11        11   # BR(HH -> Electron electron)
     6.81510437E-05   2       -13        13   # BR(HH -> Muon muon)
     1.96812085E-02   2       -15        15   # BR(HH -> Tau tau)
     6.81548257E-12   2        -2         2   # BR(HH -> Up up)
     1.32194842E-06   2        -4         4   # BR(HH -> Charm charm)
     9.59188080E-02   2        -6         6   # BR(HH -> Top top)
     1.20271034E-07   2        -1         1   # BR(HH -> Down down)
     4.35026311E-05   2        -3         3   # BR(HH -> Strange strange)
     1.15716363E-01   2        -5         5   # BR(HH -> Bottom bottom)
     1.23921357E-02   2  -1000024   1000024   # BR(HH -> Chargino1 chargino1)
     1.85709930E-01   2  -1000024   1000037   # BR(HH -> Chargino1 chargino2)
     1.85709930E-01   2  -1000037   1000024   # BR(HH -> Chargino2 chargino1)
     3.52746578E-02   2   1000022   1000022   # BR(HH -> neutralino1 neutralino1)
     7.06643644E-02   2   1000022   1000023   # BR(HH -> neutralino1 neutralino2)
     2.35332942E-04   2   1000022   1000025   # BR(HH -> neutralino1 neutralino3)
     4.59204581E-02   2   1000022   1000035   # BR(HH -> neutralino1 neutralino4)
     4.38321171E-04   2   1000023   1000023   # BR(HH -> neutralino2 neutralino2)
     5.57181428E-02   2   1000023   1000025   # BR(HH -> neutralino2 neutralino3)
     8.54997051E-02   2   1000023   1000035   # BR(HH -> neutralino2 neutralino4)
     3.45698453E-02   2   1000025   1000025   # BR(HH -> neutralino3 neutralino3)
     5.56159977E-02   2   1000025   1000035   # BR(HH -> neutralino3 neutralino4)
     6.02059801E-04   2        25        25   # BR(HH -> h0 h0)
DECAY        36     1.00032644E+01   # Gamma(A0)
     9.89419969E-08   2        22        22   # BR(A0 -> photon photon)
     1.09792615E-07   2        22        23   # BR(A0 -> photon Z)
     1.04565810E-04   2        21        21   # BR(A0 -> gluon gluon)
     1.50481493E-09   2       -11        11   # BR(A0 -> Electron electron)
     6.69907281E-05   2       -13        13   # BR(A0 -> Muon muon)
     1.93462054E-02   2       -15        15   # BR(A0 -> Tau tau)
     6.55931100E-12   2        -2         2   # BR(A0 -> Up up)
     1.27213103E-06   2        -4         4   # BR(A0 -> Charm charm)
     9.61850575E-02   2        -6         6   # BR(A0 -> Top top)
     1.18223818E-07   2        -1         1   # BR(A0 -> Down down)
     4.27621711E-05   2        -3         3   # BR(A0 -> Strange strange)
     1.13749680E-01   2        -5         5   # BR(A0 -> Bottom bottom)
     1.28801897E-02   2  -1000024   1000024   # BR(A0 -> Chargino1 chargino1)
     1.86187325E-01   2  -1000024   1000037   # BR(A0 -> Chargino1 chargino2)
     1.86187325E-01   2  -1000037   1000024   # BR(A0 -> Chargino2 chargino1)
     5.84031822E-02   2   1000022   1000022   # BR(A0 -> neutralino1 neutralino1)
     4.14188711E-02   2   1000022   1000023   # BR(A0 -> neutralino1 neutralino2)
     9.41999837E-04   2   1000022   1000025   # BR(A0 -> neutralino1 neutralino3)
     4.21806561E-02   2   1000022   1000035   # BR(A0 -> neutralino1 neutralino4)
     2.85549636E-04   2   1000023   1000023   # BR(A0 -> neutralino2 neutralino2)
     2.91647759E-02   2   1000023   1000025   # BR(A0 -> neutralino2 neutralino3)
     1.02417067E-01   2   1000023   1000035   # BR(A0 -> neutralino2 neutralino4)
     6.71947750E-02   2   1000025   1000025   # BR(A0 -> neutralino3 neutralino3)
     4.30958673E-02   2   1000025   1000035   # BR(A0 -> neutralino3 neutralino4)
     1.45554538E-04   2        23        25   # BR(A0 -> Z h0)
     7.00584841E-36   2        25        25   # BR(A0 -> h0 h0)
DECAY        37     1.03864715E+01   # Gamma(Hp)
     1.76369610E-09   2       -11        12   # BR(Hp -> Electron nu_e)
     7.54035166E-05   2       -13        14   # BR(Hp -> Muon nu_mu)
     2.13283750E-02   2       -15        16   # BR(Hp -> Tau nu_tau)
     1.20222214E-07   2        -1         2   # BR(Hp -> Down up)
     2.01667888E-06   2        -3         2   # BR(Hp -> Strange up)
     1.30980521E-06   2        -5         2   # BR(Hp -> Bottom up)
     7.45466762E-08   2        -1         4   # BR(Hp -> Down charm)
     4.48077231E-05   2        -3         4   # BR(Hp -> Strange charm)
     1.83421756E-04   2        -5         4   # BR(Hp -> Bottom charm)
     7.45338663E-06   2        -1         6   # BR(Hp -> Down top)
     1.62571441E-04   2        -3         6   # BR(Hp -> Strange top)
     2.38053949E-01   2        -5         6   # BR(Hp -> Bottom top)
     1.33145770E-01   2   1000022   1000024   # BR(Hp -> neutralino1 chargino1)
     8.57308900E-02   2   1000022   1000037   # BR(Hp -> neutralino1 chargino2)
     3.52546166E-03   2   1000023   1000024   # BR(Hp -> neutralino2 chargino1)
     1.83145095E-01   2   1000023   1000037   # BR(Hp -> neutralino2 chargino2)
     5.71485859E-02   2   1000024   1000025   # BR(Hp -> chargino1 neutralino3)
     9.61525455E-02   2   1000025   1000037   # BR(Hp -> neutralino3 chargino2)
     1.81151076E-01   2   1000024   1000035   # BR(Hp -> chargino1 neutralino4)
     1.41071016E-04   2        24        25   # BR(Hp -> W h0)
     1.42047945E-11   2        24        35   # BR(Hp -> W HH)
     1.71484003E-11   2        24        36   # BR(Hp -> W A0)
DECAY         6     2.43000000E+00   # top
#    BR                NDA      ID1      ID2
     1.00000000E+00    2           5        24   # BR(t -> b W)
Block HiggsBoundsInputHiggsCouplingsFermions
# ScalarNormEffCoupSq PseudoSNormEffCoupSq NP IP1 IP2 IP2
    9.17722080E-01    0.00000000E+00        3  25   5   5  # h0-b-b eff. coupling^2, normalised to SM
    5.61581329E+01    0.00000000E+00        3  35   5   5  # H0-b-b eff. coupling^2, normalised to SM
    0.00000000E+00    5.60758549E+01        3  36   5   5  # A0-b-b eff. coupling^2, normalised to SM
#
    1.00146726E+00    0.00000000E+00        3  25   6   6  # h0-t-t eff. coupling^2, normalised to SM
    1.63657260E-02    0.00000000E+00        3  35   6   6  # H0-t-t eff. coupling^2, normalised to SM
    0.00000000E+00    1.78329871E-02        3  36   6   6  # A0-t-t eff. coupling^2, normalised to SM
#
    9.17722080E-01    0.00000000E+00        3  25  15  15  # h0-tau-tau eff. coupling^2, normalised to SM
    5.61581329E+01    0.00000000E+00        3  35  15  15  # H0-tau-tau eff. coupling^2, normalised to SM
    0.00000000E+00    5.60758549E+01        3  36  15  15  # A0-tau-tau eff. coupling^2, normalised to SM
#
Block HiggsBoundsInputHiggsCouplingsBosons
    9.99968533E-01        3  25  24  24  # h0-W-W eff. coupling^2, normalised to SM
    3.14665963E-05        3  35  24  24  # H0-W-W eff. coupling^2, normalised to SM
    0.00000000E+00        3  36  24  24  # A0-W-W eff. coupling^2, normalised to SM
#
    9.99968533E-01        3  25  23  23  # h0-Z-Z eff. coupling^2, normalised to SM
    3.14665963E-05        3  35  23  23  # H0-Z-Z eff. coupling^2, normalised to SM
    0.00000000E+00        3  36  23  23  # A0-Z-Z eff. coupling^2, normalised to SM
#
    1.26748173E+00        3  25  21  21  # h0-g-g eff. coupling^2, normalised to SM
    1.27181112E-02        3  35  21  21  # H0-g-g eff. coupling^2, normalised to SM
    1.50704562E-01        3  36  21  21  # A0-g-g eff. coupling^2, normalised to SM
#
    0.00000000E+00        3  25  25  23  # h0-h0-Z eff. coupling^2, normalised to SM
    0.00000000E+00        3  35  25  23  # H0-h0-Z eff. coupling^2, normalised to SM
    3.14665963E-05        3  36  25  23  # A0-h0-Z eff. coupling^2, normalised to SM
    0.00000000E+00        3  35  35  23  # H0-H0-Z eff. coupling^2, normalised to SM
    9.99968533E-01        3  36  35  23  # A0-H0-Z eff. coupling^2, normalised to SM
    0.00000000E+00        3  36  36  23  # A0-A0-Z eff. coupling^2, normalised to SM
#
    0.00000000E+00        4  25  21  21  23  # h0-g-g-Z eff. coupling^2, normalised to SM
    0.00000000E+00        4  35  21  21  23  # H0-g-g-Z eff. coupling^2, normalised to SM
    0.00000000E+00        4  36  21  21  23  # A0-g-g-Z eff. coupling^2, normalised to SM
Block SPhenoLowEnergy  # low energy observables
    1    3.32258147E-04   # BR(b -> s gamma)
    2    1.58882117E-06   # BR(b -> s mu+ mu-)
    3    3.52503808E-05   # BR(b -> s nu nu)
    4    2.62839930E-15   # BR(Bd -> e+ e-)
    5    1.12282229E-10   # BR(Bd -> mu+ mu-)
    6    2.35048571E-08   # BR(Bd -> tau+ tau-)
    7    8.87057949E-14   # BR(Bs -> e+ e-)
    8    3.78950854E-09   # BR(Bs -> mu+ mu-)
    9    8.03776609E-07   # BR(Bs -> tau+ tau-)
   10    9.66913228E-05   # BR(B_u -> tau nu)
   11    9.98784347E-01   # BR(B_u -> tau nu)/BR(B_u -> tau nu)_SM
   12    5.42655829E-01   # |Delta(M_Bd)| [ps^-1] 
   13    1.93889689E+01   # |Delta(M_Bs)| [ps^-1] 
   14    0.00000000E+00   # neutron EDM according to the chiral quark model
   15    0.00000000E+00   # neutron EDM according to the relativistic quark-parton model
   16    2.16003755E-03   # epsilon_K
   17    2.28168622E-15   # Delta(M_K)
   18    2.48019477E-11   # BR(K^0 -> pi^0 nu nu)
   19    8.29081546E-11   # BR(K^+ -> pi^+ nu nu)
   20   -9.83639235E-17   # Delta(g-2)_electron/2
   21   -4.20536621E-12   # Delta(g-2)_muon/2
   22   -1.18953610E-09   # Delta(g-2)_tau/2
   23    0.00000000E+00   # electric dipole moment of the electron
   24    0.00000000E+00   # electric dipole moment of the muon
   25    0.00000000E+00   # electric dipole moment of the tau
   26    0.00000000E+00   # Br(mu -> e gamma)
   27    0.00000000E+00   # Br(tau -> e gamma)
   28    0.00000000E+00   # Br(tau -> mu gamma)
   29    0.00000000E+00   # Br(mu -> 3 e)
   30    0.00000000E+00   # Br(tau -> 3 e)
   31    0.00000000E+00   # Br(tau -> 3 mu)
   39   -8.72119858E-05   # Delta(rho_parameter)
   40    0.00000000E+00   # BR(Z -> e mu)
   41    0.00000000E+00   # BR(Z -> e tau)
   42    0.00000000E+00   # BR(Z -> mu tau)
Block FWCOEF Q=  1.60000000E+02  # Wilson coefficients at scale Q
#    id        order  M        value         comment
     0305 4422   00   0    -1.88819110E-01   # C7
     0305 4422   00   2    -2.00410506E-01   # C7
     0305 4322   00   2    -2.86754847E-04   # C7'
     0305 6421   00   0    -9.52278348E-02   # C8
     0305 6421   00   2    -1.12285535E-01   # C8
     0305 6321   00   2    -3.65143518E-04   # C8'
 03051111 4133   00   0     1.61850228E+00   # C9 e+e-
 03051111 4133   00   2     1.61890488E+00   # C9 e+e-
 03051111 4233   00   2     1.35468508E-05   # C9' e+e-
 03051111 4137   00   0    -4.44119439E+00   # C10 e+e-
 03051111 4137   00   2    -4.43930399E+00   # C10 e+e-
 03051111 4237   00   2    -1.00963052E-04   # C10' e+e-
 03051313 4133   00   0     1.61850228E+00   # C9 mu+mu-
 03051313 4133   00   2     1.61890487E+00   # C9 mu+mu-
 03051313 4233   00   2     1.35468477E-05   # C9' mu+mu-
 03051313 4137   00   0    -4.44119439E+00   # C10 mu+mu-
 03051313 4137   00   2    -4.43930400E+00   # C10 mu+mu-
 03051313 4237   00   2    -1.00963049E-04   # C10' mu+mu-
 03051212 4137   00   0     1.50535012E+00   # C11 nu_1 nu_1
 03051212 4137   00   2     1.50494201E+00   # C11 nu_1 nu_1
 03051212 4237   00   2     2.18716254E-05   # C11' nu_1 nu_1
 03051414 4137   00   0     1.50535012E+00   # C11 nu_2 nu_2
 03051414 4137   00   2     1.50494201E+00   # C11 nu_2 nu_2
 03051414 4237   00   2     2.18716260E-05   # C11' nu_2 nu_2
 03051616 4137   00   0     1.50535012E+00   # C11 nu_3 nu_3
 03051616 4137   00   2     1.50494201E+00   # C11 nu_3 nu_3
 03051616 4237   00   2     2.18718026E-05   # C11' nu_3 nu_3
Block IMFWCOEF Q=  1.60000000E+02  # Im(Wilson coefficients) at scale Q
#    id        order  M        value         comment
     0305 4422   00   0     3.85825478E-07   # C7
     0305 4422   00   2    -2.62227345E-06   # C7
     0305 4322   00   2     2.48998784E-07   # C7'
     0305 6421   00   0     3.30485038E-07   # C8
     0305 6421   00   2     1.91100111E-06   # C8
     0305 6321   00   2     1.52740144E-07   # C8'
 03051111 4133   00   2    -6.23194596E-08   # C9 e+e-
 03051111 4233   00   2     3.05400820E-07   # C9' e+e-
 03051111 4137   00   2     3.73563927E-06   # C10 e+e-
 03051111 4237   00   2    -2.27867162E-06   # C10' e+e-
 03051313 4133   00   2    -6.23195637E-08   # C9 mu+mu-
 03051313 4233   00   2     3.05400817E-07   # C9' mu+mu-
 03051313 4137   00   2     3.73563940E-06   # C10 mu+mu-
 03051313 4237   00   2    -2.27867163E-06   # C10' mu+mu-
 03051212 4137   00   2    -7.83874891E-07   # C11 nu_1 nu_1
 03051212 4237   00   2     4.93631605E-07   # C11' nu_1 nu_1
 03051414 4137   00   2    -7.83874886E-07   # C11 nu_2 nu_2
 03051414 4237   00   2     4.93631605E-07   # C11' nu_2 nu_2
 03051616 4137   00   2    -7.83873348E-07   # C11 nu_3 nu_3
 03051616 4237   00   2     4.93631604E-07   # C11' nu_3 nu_3
