# SUSY Les Houches Accord 2 - MSSM spectrum + Decays
# SPheno v4.0.5be
# W. Porod, Comput. Phys. Commun. 153 (2003) 275-315, hep-ph/0301101;
# W. Porod, F.~Staub, Comput. Phys. Commun. 183 (2012) 2458
#                     arXiv:1104.1573 [hep-ph] 
# in case of problems send email to porod@physik.uni-wuerzburg.de
# Created: 07.09.2021,  15:25
Block SPINFO         # Program information
     1   SPheno      # spectrum calculator
     2   v4.0.5be    # version number
#
Block SPhenoINFO     # SPheno specific information
    1      2         # using 2-loop RGEs
    2      2         # using pole masses for boundary conditions at mZ
Block MODSEL  # Model selection
    1    0    # general MSSM
Block MINPAR  # Input parameters
    3    8.69708667E+00  # tanb at m_Z    
    4   -1.00000000E+00  # Sign(mu)
Block EXTPAR  # non-universal input parameters
    0    2.88485096E+03  # scale for input parameters
    1   -1.98172030E+02  # M_1
    2    1.15726894E+03  # M_2
    3    2.46347662E+03  # M_3
   11   -3.59508591E+03  # A_t
   12    1.21799655E+02  # A_b
   13    1.37798461E+03  # A_tau
   23   -1.93854396E+02  # mu
   25    8.29739183E+00  # tan(beta)
   26    4.38814193E+03  # m_A, pole mass
   31    1.00000000E+04  # M_L11
   32    1.00000000E+04  # M_L22
   33    1.00000000E+04  # M_L33
   34    1.00000000E+04  # M_E11
   35    1.00000000E+04  # M_E22
   36    1.00000000E+04  # M_E33
   41    1.00000000E+04  # M_Q11
   42    1.00000000E+04  # M_Q22
   43    3.86676561E+03  # M_Q33
   44    1.00000000E+04  # M_U11
   45    1.00000000E+04  # M_U22
   46    2.06254706E+03  # M_U33
   47    1.00000000E+04  # M_D11
   48    1.00000000E+04  # M_D22
   49    4.71386459E+03  # M_D33
Block SMINPUTS  # SM parameters
         1     1.27908970E+02  # alpha_em^-1(MZ)^MSbar
         2     1.16637870E-05  # G_mu [GeV^-2]
         3     1.18400000E-01  # alpha_s(MZ)^MSbar
         4     9.11876000E+01  # m_Z(pole)
         5     4.18000000E+00  # m_b(m_b), MSbar
         6     1.73200000E+02  # m_t(pole)
         7     1.77700000E+00  # m_tau(pole)
         8     0.00000000E+00  # m_nu_3
        11     5.10998930E-04  # m_e(pole)
        12     0.00000000E+00  # m_nu_1
        13     1.05658372E-01  # m_muon(pole)
        14     0.00000000E+00  # m_nu_2
        21     5.00000000E-03  # m_d(2 GeV), MSbar
        22     2.50000000E-03  # m_u(2 GeV), MSbar
        23     9.50000000E-02  # m_s(2 GeV), MSbar
        24     1.27000000E+00  # m_c(m_c), MSbar
Block gauge Q=  2.88485096E+03  # (SUSY scale)
   1    3.55362975E-01  # g'(Q)^DRbar
   2    6.65198874E-01  # g(Q)^DRbar
   3    1.21977796E+00  # g3(Q)^DRbar
Block Yu Q=  2.88485096E+03  # (SUSY scale)
  1  1     8.44504421E-06   # Y_u(Q)^DRbar
  2  2     4.29008246E-03   # Y_c(Q)^DRbar
  3  3     1.02022917E+00   # Y_t(Q)^DRbar
Block Yd Q=  2.88485096E+03  # (SUSY scale)
  1  1     1.40806847E-04   # Y_d(Q)^DRbar
  2  2     2.67533010E-03   # Y_s(Q)^DRbar
  3  3     1.39636270E-01   # Y_b(Q)^DRbar
Block Ye Q=  2.88485096E+03  # (SUSY scale)
  1  1     2.45718245E-05   # Y_e(Q)^DRbar
  2  2     5.08067399E-03   # Y_mu(Q)^DRbar
  3  3     8.54485784E-02   # Y_tau(Q)^DRbar
Block Au Q=  2.88485096E+03  # (SUSY scale)
  1  1     0.00000000E+00   # A_u(Q)^DRbar
  2  2     0.00000000E+00   # A_c(Q)^DRbar
  3  3    -3.59508945E+03   # A_t(Q)^DRbar
Block Ad Q=  2.88485096E+03  # (SUSY scale)
  1  1     0.00000000E+00   # A_d(Q)^DRbar
  2  2     0.00000000E+00   # A_s(Q)^DRbar
  3  3     1.21799621E+02   # A_b(Q)^DRbar
Block Ae Q=  2.88485096E+03  # (SUSY scale)
  1  1     0.00000000E+00   # A_e(Q)^DRbar
  2  2     0.00000000E+00   # A_mu(Q)^DRbar
  3  3     1.37798415E+03   # A_tau(Q)^DRbar
Block MSOFT Q=  2.88485096E+03  # soft SUSY breaking masses at Q
   1   -1.98172030E+02  # M_1
   2    1.15726894E+03  # M_2
   3    2.46347662E+03  # M_3
  21    1.88795505E+07  # M^2_(H,d)
  22    3.43899689E+05  # M^2_(H,u)
  31    1.00000000E+04  # M_(L,11)
  32    1.00000000E+04  # M_(L,22)
  33    1.00000000E+04  # M_(L,33)
  34    1.00000000E+04  # M_(E,11)
  35    1.00000000E+04  # M_(E,22)
  36    1.00000000E+04  # M_(E,33)
  41    1.00000000E+04  # M_(Q,11)
  42    1.00000000E+04  # M_(Q,22)
  43    3.86676561E+03  # M_(Q,33)
  44    1.00000000E+04  # M_(U,11)
  45    1.00000000E+04  # M_(U,22)
  46    2.06254706E+03  # M_(U,33)
  47    1.00000000E+04  # M_(D,11)
  48    1.00000000E+04  # M_(D,22)
  49    4.71386459E+03  # M_(D,33)
Block MASS  # Mass spectrum
#   PDG code      mass          particle
         6     1.73200000E+02  # m_t(pole)
        23     9.11876000E+01  # m_Z(pole)
        24     8.04299946E+01  # W+
        15     1.77700000E+00  # m_tau(pole)
        25     1.22755505E+02  # h0
        35     4.38778722E+03  # H0
        36     4.38814193E+03  # A0
        37     4.38870211E+03  # H+
   1000001     1.01075177E+04  # ~d_L
   2000001     1.00834455E+04  # ~d_R
   1000002     1.01071617E+04  # ~u_L
   2000002     1.00864692E+04  # ~u_R
   1000003     1.01075189E+04  # ~s_L
   2000003     1.00834462E+04  # ~s_R
   1000004     1.01071629E+04  # ~c_L
   2000004     1.00864710E+04  # ~c_R
   1000005     3.90683180E+03  # ~b_1
   2000005     4.76836162E+03  # ~b_2
   1000006     2.12733283E+03  # ~t_1
   2000006     3.91211236E+03  # ~t_2
   1000011     1.00204790E+04  # ~e_L-
   2000011     1.00089957E+04  # ~e_R-
   1000012     1.00197238E+04  # ~nu_eL
   1000013     1.00204807E+04  # ~mu_L-
   2000013     1.00089990E+04  # ~mu_R-
   1000014     1.00197255E+04  # ~nu_muL
   1000015     1.00099374E+04  # ~tau_1-
   2000015     1.00209710E+04  # ~tau_2-
   1000016     1.00202089E+04  # ~nu_tauL
   1000021     2.88527242E+03  # ~g
   1000022     1.69214844E+02  # ~chi_10
   1000023     2.04311139E+02  # ~chi_20
   1000025     2.40192710E+02  # ~chi_30
   1000035     1.25135758E+03  # ~chi_40
   1000024     2.05370518E+02  # ~chi_1+
   1000037     1.25114130E+03  # ~chi_2+
# Higgs mixing
Block alpha # Effective Higgs mixing angle
          -1.14611187E-01   # alpha
Block Hmix Q=  2.88485096E+03  # Higgs mixing parameters
   1   -1.93854396E+02  # mu
   2    8.29739183E+00  # tan[beta](Q)
   3    2.43298058E+02  # v(Q)
   4    1.92557896E+07  # m^2_A(Q)
Block stopmix # stop mixing matrix
   1  1     4.77764147E-02   # Re[R_st(1,1)]
   1  2     9.98858055E-01   # Re[R_st(1,2)]
   2  1    -9.98858055E-01   # Re[R_st(2,1)]
   2  2     4.77764147E-02   # Re[R_st(2,2)]
Block sbotmix # sbottom mixing matrix
   1  1    -9.99999905E-01   # Re[R_sb(1,1)]
   1  2     4.36675859E-04   # Re[R_sb(1,2)]
   2  1    -4.36675859E-04   # Re[R_sb(2,1)]
   2  2    -9.99999905E-01   # Re[R_sb(2,2)]
Block staumix # stau mixing matrix
   1  1    -2.40315474E-02   # Re[R_sta(1,1)]
   1  2     9.99711201E-01   # Re[R_sta(1,2)]
   2  1    -9.99711201E-01   # Re[R_sta(2,1)]
   2  2    -2.40315474E-02   # Re[R_sta(2,2)]
Block Nmix # neutralino mixing matrix
   1  1    -7.32593079E-01   # Re[N(1,1)]
   1  2    -2.86708974E-02   # Re[N(1,2)]
   1  3     5.15508034E-01   # Re[N(1,3)]
   1  4    -4.43550252E-01   # Re[N(1,4)]
   2  1    -6.87063521E-02   # Re[N(2,1)]
   2  2    -4.72929454E-02   # Re[N(2,2)]
   2  3    -7.05669316E-01   # Re[N(2,3)]
   2  4    -7.03614689E-01   # Re[N(2,4)]
   3  1    -6.77187417E-01   # Re[N(3,1)]
   3  2     3.28606028E-02   # Re[N(3,2)]
   3  3    -4.86081669E-01   # Re[N(3,3)]
   3  4     5.51418166E-01   # Re[N(3,4)]
   4  1     2.00479271E-03   # Re[N(4,1)]
   4  2    -9.97928624E-01   # Re[N(4,2)]
   4  3     2.62560449E-03   # Re[N(4,3)]
   4  4     6.42460058E-02   # Re[N(4,4)]
Block Umix # chargino mixing matrix
   1  1    -3.76678452E-03   # Re[U(1,1)]
   1  2    -9.99992906E-01   # Re[U(1,2)]
   2  1     9.99992906E-01   # Re[U(2,1)]
   2  2    -3.76678452E-03   # Re[U(2,2)]
Block Vmix # chargino mixing matrix
   1  1    -9.09480510E-02   # Re[V(1,1)]
   1  2     9.95855638E-01   # Re[V(1,2)]
   2  1     9.95855638E-01   # Re[V(2,1)]
   2  2     9.09480510E-02   # Re[V(2,2)]
DECAY        23     2.49520000E+00   # Z
DECAY        24     2.08500000E+00   # W
DECAY   2000011     5.02493607E+01   # ~e^-_R
#    BR                NDA      ID1      ID2
     5.36836187E-01    2     1000022        11   # BR(~e^-_R -> chi^0_1 e^-)
     4.72059072E-03    2     1000023        11   # BR(~e^-_R -> chi^0_2 e^-)
     4.58439323E-01    2     1000025        11   # BR(~e^-_R -> chi^0_3 e^-)
DECAY   1000011     1.40808069E+02   # ~e^-_L
#    BR                NDA      ID1      ID2
     5.52321541E-02    2     1000022        11   # BR(~e^-_L -> chi^0_1 e^-)
     2.20817576E-03    2     1000023        11   # BR(~e^-_L -> chi^0_2 e^-)
     3.38462736E-02    2     1000025        11   # BR(~e^-_L -> chi^0_3 e^-)
     3.01632388E-01    2     1000035        11   # BR(~e^-_L -> chi^0_4 e^-)
     6.07072128E-01    2    -1000037        12   # BR(~e^-_L -> chi^-_2 nu_e)
#    BR                NDA      ID1      ID2       ID3
DECAY   2000013     5.02596484E+01   # ~mu^-_R
#    BR                NDA      ID1      ID2
     5.36753643E-01    2     1000022        13   # BR(~mu^-_R -> chi^0_1 mu^-)
     4.77050878E-03    2     1000023        13   # BR(~mu^-_R -> chi^0_2 mu^-)
     4.58369768E-01    2     1000025        13   # BR(~mu^-_R -> chi^0_3 mu^-)
     1.02181454E-04    2    -1000024        14   # BR(~mu^-_R -> chi^-_1 nu_mu)
DECAY   1000013     1.40813236E+02   # ~mu^-_L
#    BR                NDA      ID1      ID2
     5.52398422E-02    2     1000022        13   # BR(~mu^-_L -> chi^0_1 mu^-)
     2.22627760E-03    2     1000023        13   # BR(~mu^-_L -> chi^0_2 mu^-)
     3.38536623E-02    2     1000025        13   # BR(~mu^-_L -> chi^0_3 mu^-)
     3.01621375E-01    2     1000035        13   # BR(~mu^-_L -> chi^0_4 mu^-)
     6.07049962E-01    2    -1000037        14   # BR(~mu^-_L -> chi^-_2 nu_mu)
#    BR                NDA      ID1      ID2       ID3
DECAY   1000015     5.32111724E+01   # ~tau^-_1
#    BR                NDA      ID1      ID2
     5.15403118E-01    2     1000022        15   # BR(~tau^-_1 -> chi^0_1 tau^-)
     1.81088285E-02    2     1000023        15   # BR(~tau^-_1 -> chi^0_2 tau^-)
     4.37827493E-01    2     1000025        15   # BR(~tau^-_1 -> chi^0_3 tau^-)
     4.45943032E-04    2     1000035        15   # BR(~tau^-_1 -> chi^0_4 tau^-)
     2.73248429E-02    2    -1000024        16   # BR(~tau^-_1 -> chi^-_1 nu_tau)
     8.89775151E-04    2    -1000037        16   # BR(~tau^-_1 -> chi^-_2 nu_tau)
DECAY   2000015     1.42218236E+02   # ~tau^-_2
#    BR                NDA      ID1      ID2
     5.69777087E-02    2     1000022        15   # BR(~tau^-_2 -> chi^0_1 tau^-)
     7.25847934E-03    2     1000023        15   # BR(~tau^-_2 -> chi^0_2 tau^-)
     3.65210322E-02    2     1000025        15   # BR(~tau^-_2 -> chi^0_3 tau^-)
     2.98491578E-01    2     1000035        15   # BR(~tau^-_2 -> chi^0_4 tau^-)
     6.00750917E-01    2    -1000037        16   # BR(~tau^-_2 -> chi^-_2 nu_tau)
#    BR                NDA      ID1      ID2       ID3
DECAY   1000012     1.40811906E+02   # ~nu_e
#    BR                NDA      ID1      ID2
     4.11771220E-02    2     1000022        12   # BR(~nu_e -> chi^0_1 nu_e)
     4.87187652E-02    2     1000025        12   # BR(~nu_e -> chi^0_3 nu_e)
     3.02897517E-01    2     1000035        12   # BR(~nu_e -> chi^0_4 nu_e)
     5.17691949E-03    2     1000024        11   # BR(~nu_e -> chi^+_1 e^-)
     6.01994590E-01    2     1000037        11   # BR(~nu_e -> chi^+_2 e^-)
#    BR                NDA      ID1      ID2       ID3
DECAY   1000014     1.40817073E+02   # ~nu_mu
#    BR                NDA      ID1      ID2
     4.11756183E-02    2     1000022        14   # BR(~nu_mu -> chi^0_1 nu_mu)
     4.87169861E-02    2     1000025        14   # BR(~nu_mu -> chi^0_3 nu_mu)
     3.02886459E-01    2     1000035        14   # BR(~nu_mu -> chi^0_4 nu_mu)
     5.21323915E-03    2     1000024        13   # BR(~nu_mu -> chi^+_1 mu^-)
     6.01972612E-01    2     1000037        13   # BR(~nu_mu -> chi^+_2 mu^-)
#    BR                NDA      ID1      ID2       ID3
DECAY   1000016     1.42273413E+02   # ~nu_tau
#    BR                NDA      ID1      ID2
     4.07561046E-02    2     1000022        16   # BR(~nu_tau -> chi^0_1 nu_tau)
     4.82206406E-02    2     1000025        16   # BR(~nu_tau -> chi^0_3 nu_tau)
     2.99801431E-01    2     1000035        16   # BR(~nu_tau -> chi^0_4 nu_tau)
     1.53457588E-02    2     1000024        15   # BR(~nu_tau -> chi^+_1 tau^-)
     5.95841338E-01    2     1000037        15   # BR(~nu_tau -> chi^+_2 tau^-)
#    BR                NDA      ID1      ID2       ID3
DECAY   2000001     6.76547182E+02   # ~d_R
#    BR                NDA      ID1      ID2
     4.46327845E-03    2     1000022         1   # BR(~d_R -> chi^0_1 d)
     3.81151626E-03    2     1000025         1   # BR(~d_R -> chi^0_3 d)
     9.91685917E-01    2     1000021         1   # BR(~d_R -> ~g d)
DECAY   1000001     8.03915062E+02   # ~d_L
#    BR                NDA      ID1      ID2
     5.73005474E-04    2     1000022         1   # BR(~d_L -> chi^0_1 d)
     1.30160658E-03    2     1000025         1   # BR(~d_L -> chi^0_3 d)
     5.34725234E-02    2     1000035         1   # BR(~d_L -> chi^0_4 d)
     1.07312312E-01    2    -1000037         2   # BR(~d_L -> chi^-_2 u)
     8.37271020E-01    2     1000021         1   # BR(~d_L -> ~g d)
DECAY   2000003     6.76550107E+02   # ~s_R
#    BR                NDA      ID1      ID2
     4.46382165E-03    2     1000022         3   # BR(~s_R -> chi^0_1 s)
     3.81199943E-03    2     1000025         3   # BR(~s_R -> chi^0_3 s)
     9.91681723E-01    2     1000021         3   # BR(~s_R -> ~g s)
DECAY   1000003     8.03920318E+02   # ~s_L
#    BR                NDA      ID1      ID2
     5.73475997E-04    2     1000022         3   # BR(~s_L -> chi^0_1 s)
     1.30201952E-03    2     1000025         3   # BR(~s_L -> chi^0_3 s)
     5.34721805E-02    2     1000035         3   # BR(~s_L -> chi^0_4 s)
     1.07311661E-01    2    -1000037         4   # BR(~s_L -> chi^-_2 c)
     8.37265681E-01    2     1000021         3   # BR(~s_L -> ~g s)
DECAY   1000005     2.19587935E+02   # ~b_1
#    BR                NDA      ID1      ID2
     2.63945790E-03    2     1000022         5   # BR(~b_1 -> chi^0_1 b)
     3.51395593E-03    2     1000023         5   # BR(~b_1 -> chi^0_2 b)
     3.44405430E-03    2     1000025         5   # BR(~b_1 -> chi^0_3 b)
     6.28502420E-02    2     1000035         5   # BR(~b_1 -> chi^0_4 b)
     3.61911580E-01    2    -1000024         6   # BR(~b_1 -> chi^-_1 t)
     1.29078907E-01    2    -1000037         6   # BR(~b_1 -> chi^-_2 t)
     2.90206569E-01    2     1000021         5   # BR(~b_1 -> ~g b)
     1.46355235E-01    2     1000006       -24   # BR(~b_1 -> ~t_1 W^-)
DECAY   2000005     1.57561268E+02   # ~b_2
#    BR                NDA      ID1      ID2
     1.21511872E-02    2     1000022         5   # BR(~b_2 -> chi^0_1 b)
     5.90351298E-03    2     1000023         5   # BR(~b_2 -> chi^0_2 b)
     1.04743103E-02    2     1000025         5   # BR(~b_2 -> chi^0_3 b)
     1.16648936E-02    2    -1000024         6   # BR(~b_2 -> chi^-_1 t)
     9.59797200E-01    2     1000021         5   # BR(~b_2 -> ~g b)
DECAY   2000002     6.93701462E+02   # ~u_R
#    BR                NDA      ID1      ID2
     1.74168519E-02    2     1000022         2   # BR(~u_R -> chi^0_1 u)
     1.53153133E-04    2     1000023         2   # BR(~u_R -> chi^0_2 u)
     1.48735144E-02    2     1000025         2   # BR(~u_R -> chi^0_3 u)
     9.67556354E-01    2     1000021         2   # BR(~u_R -> ~g u)
DECAY   1000002     8.03902055E+02   # ~u_L
#    BR                NDA      ID1      ID2
     1.40045748E-03    2     1000022         2   # BR(~u_L -> chi^0_1 u)
     1.95935391E-04    2     1000023         2   # BR(~u_L -> chi^0_2 u)
     4.25422650E-04    2     1000025         2   # BR(~u_L -> chi^0_3 u)
     5.33949268E-02    2     1000035         2   # BR(~u_L -> chi^0_4 u)
     9.14723181E-04    2     1000024         1   # BR(~u_L -> chi^+_1 d)
     1.06423923E-01    2     1000037         1   # BR(~u_L -> chi^+_2 d)
     8.37244611E-01    2     1000021         2   # BR(~u_L -> ~g u)
DECAY   2000004     6.93708975E+02   # ~c_R
#    BR                NDA      ID1      ID2
     1.74177138E-02    2     1000022         4   # BR(~c_R -> chi^0_1 c)
     1.55785233E-04    2     1000023         4   # BR(~c_R -> chi^0_2 c)
     1.48749702E-02    2     1000025         4   # BR(~c_R -> chi^0_3 c)
     9.67546065E-01    2     1000021         4   # BR(~c_R -> ~g c)
DECAY   1000004     8.03907280E+02   # ~c_L
#    BR                NDA      ID1      ID2
     1.40135332E-03    2     1000022         4   # BR(~c_L -> chi^0_1 c)
     1.98211078E-04    2     1000023         4   # BR(~c_L -> chi^0_2 c)
     4.26818395E-04    2     1000025         4   # BR(~c_L -> chi^0_3 c)
     5.33946051E-02    2     1000035         4   # BR(~c_L -> chi^0_4 c)
     9.16501187E-04    2     1000024         3   # BR(~c_L -> chi^+_1 s)
     1.06423245E-01    2     1000037         3   # BR(~c_L -> chi^+_2 s)
     8.37239266E-01    2     1000021         4   # BR(~c_L -> ~g c)
DECAY   1000006     9.01530151E+01   # ~t_1
#    BR                NDA      ID1      ID2
     1.18993938E-01    2     1000022         6   # BR(~t_1 -> chi^0_1 t)
     2.34543431E-01    2     1000023         6   # BR(~t_1 -> chi^0_2 t)
     1.68119941E-01    2     1000025         6   # BR(~t_1 -> chi^0_3 t)
     3.55695584E-04    2     1000035         6   # BR(~t_1 -> chi^0_4 t)
     4.77238782E-01    2     1000024         5   # BR(~t_1 -> chi^+_1 b)
     7.48173487E-04    2     1000037         5   # BR(~t_1 -> chi^+_2 b)
#    BR                NDA      ID1      ID2       ID3
DECAY   2000006     2.25469060E+02   # ~t_2
#    BR                NDA      ID1      ID2
     7.45655372E-02    2     1000022         6   # BR(~t_2 -> chi^0_1 t)
     1.76375913E-01    2     1000023         6   # BR(~t_2 -> chi^0_2 t)
     1.05356000E-01    2     1000025         6   # BR(~t_2 -> chi^0_3 t)
     6.33511625E-02    2     1000035         6   # BR(~t_2 -> chi^0_4 t)
     6.72677335E-03    2     1000024         5   # BR(~t_2 -> chi^+_1 b)
     1.23434925E-01    2     1000037         5   # BR(~t_2 -> chi^+_2 b)
     2.75631481E-01    2     1000021         6   # BR(~t_2 -> ~g t)
     7.15722127E-02    2     1000006        23   # BR(~t_2 -> ~t_1 Z)
     1.02985994E-01    2     1000006        25   # BR(~t_2 -> ~t_1 h^0)
DECAY   1000024     1.12603968E-04   # chi^+_1
#    BR                NDA      ID1      ID2       ID3
     3.34346671E-01    3     1000022        -1         2   # BR(chi^+_1 -> chi^0_1 d_bar u)
     3.32503882E-01    3     1000022        -3         4   # BR(chi^+_1 -> chi^0_1 s_bar c)
     1.11448434E-01    3     1000022       -11        12   # BR(chi^+_1 -> chi^0_1 e^+ nu_e)
     1.11445454E-01    3     1000022       -13        14   # BR(chi^+_1 -> chi^0_1 mu^+ nu_mu)
     1.10255550E-01    3     1000022       -15        16   # BR(chi^+_1 -> chi^0_1 tau^+ nu_tau)
DECAY   1000037     1.02686854E+01   # chi^+_2
#    BR                NDA      ID1      ID2
     1.10815473E-01    2     1000022        24   # BR(chi^+_2 -> chi^0_1 W^+)
     2.47093008E-01    2     1000023        24   # BR(chi^+_2 -> chi^0_2 W^+)
     1.36226939E-01    2     1000025        24   # BR(chi^+_2 -> chi^0_3 W^+)
     2.45479784E-01    2     1000024        23   # BR(chi^+_2 -> chi^+_1 Z)
     2.41369037E-01    2     1000024        25   # BR(chi^+_2 -> chi^+_1 h^0)
#    BR                NDA      ID1      ID2       ID3
     6.26191175E-03    3     1000024         6        -6   # BR(chi^+_2 -> chi^+_1 t t_bar)
     3.11024482E-03    3     1000022        -5         6   # BR(chi^+_2 -> chi^0_1 b_bar t)
     5.75634305E-03    3     1000023        -5         6   # BR(chi^+_2 -> chi^0_2 b_bar t)
     3.88587469E-03    3     1000025        -5         6   # BR(chi^+_2 -> chi^0_3 b_bar t)
DECAY   1000022     0.00000000E+00   # chi^0_1
DECAY   1000023     7.42167118E-05   # chi^0_2
#    BR                NDA      ID1      ID2
     1.87060778E-02    2     1000022        22   # BR(chi^0_2 -> chi^0_1 photon)
#    BR                NDA      ID1      ID2       ID3
     1.19384408E-01    3     1000022         2        -2   # BR(chi^0_2 -> chi^0_1 u u_bar)
     1.17421107E-01    3     1000022         4        -4   # BR(chi^0_2 -> chi^0_1 c c_bar)
     1.53074166E-01    3     1000022         1        -1   # BR(chi^0_2 -> chi^0_1 d d_bar)
     1.53061982E-01    3     1000022         3        -3   # BR(chi^0_2 -> chi^0_1 s s_bar)
     1.31231737E-01    3     1000022         5        -5   # BR(chi^0_2 -> chi^0_1 b b_bar)
     3.45439298E-02    3     1000022        11       -11   # BR(chi^0_2 -> chi^0_1 e^- e^+)
     3.45395472E-02    3     1000022        13       -13   # BR(chi^0_2 -> chi^0_1 mu^- mu^+)
     3.33331876E-02    3     1000022        15       -15   # BR(chi^0_2 -> chi^0_1 tau^- tau^+)
     2.04703857E-01    3     1000022        12       -12   # BR(chi^0_2 -> chi^0_1 nu_e nu_bar_e)
DECAY   1000025     3.30515707E-04   # chi^0_3
#    BR                NDA      ID1      ID2
     4.91520816E-04    2     1000022        22   # BR(chi^0_3 -> chi^0_1 photon)
     1.21362789E-02    2     1000023        22   # BR(chi^0_3 -> chi^0_2 photon)
#    BR                NDA      ID1      ID2       ID3
     1.14034135E-04    3     1000022         2        -2   # BR(chi^0_3 -> chi^0_1 u u_bar)
     1.13732212E-04    3     1000022         4        -4   # BR(chi^0_3 -> chi^0_1 c c_bar)
     1.45869170E-04    3     1000022         1        -1   # BR(chi^0_3 -> chi^0_1 d d_bar)
     1.45867584E-04    3     1000022         3        -3   # BR(chi^0_3 -> chi^0_1 s s_bar)
     1.42556343E-04    3     1000022         5        -5   # BR(chi^0_3 -> chi^0_1 b b_bar)
     1.95531378E-04    3     1000022        12       -12   # BR(chi^0_3 -> chi^0_1 nu_e nu_bar_e)
     3.66645243E-02    3     1000023         2        -2   # BR(chi^0_3 -> chi^0_2 u u_bar)
     3.60916126E-02    3     1000023         4        -4   # BR(chi^0_3 -> chi^0_2 c c_bar)
     4.70113702E-02    3     1000023         1        -1   # BR(chi^0_3 -> chi^0_2 d d_bar)
     4.70078177E-02    3     1000023         3        -3   # BR(chi^0_3 -> chi^0_2 s s_bar)
     4.06188425E-02    3     1000023         5        -5   # BR(chi^0_3 -> chi^0_2 b b_bar)
     1.06092723E-02    3     1000023        11       -11   # BR(chi^0_3 -> chi^0_2 e^- e^+)
     1.06079977E-02    3     1000023        13       -13   # BR(chi^0_3 -> chi^0_2 mu^- mu^+)
     1.02566647E-02    3     1000023        15       -15   # BR(chi^0_3 -> chi^0_2 tau^- tau^+)
     6.28677877E-02    3     1000023        12       -12   # BR(chi^0_3 -> chi^0_2 nu_e nu_bar_e)
     1.14486346E-01    3     1000024         1        -2   # BR(chi^0_3 -> chi^+_1 d u_bar)
     1.14486346E-01    3    -1000024        -1         2   # BR(chi^0_3 -> chi^-_1 d_bar u)
     1.13806160E-01    3     1000024         3        -4   # BR(chi^0_3 -> chi^+_1 s c_bar)
     1.13806160E-01    3    -1000024        -3         4   # BR(chi^0_3 -> chi^-_1 s_bar c)
     3.81622558E-02    3     1000024        11       -12   # BR(chi^0_3 -> chi^+_1 e^- nu_bar_e)
     3.81622558E-02    3    -1000024       -11        12   # BR(chi^0_3 -> chi^-_1 e^+ nu_e)
     3.81611703E-02    3     1000024        13       -14   # BR(chi^0_3 -> chi^+_1 mu^- nu_bar_mu)
     3.81611703E-02    3    -1000024       -13        14   # BR(chi^0_3 -> chi^-_1 mu^+ nu_mu)
     3.77245413E-02    3     1000024        15       -16   # BR(chi^0_3 -> chi^+_1 tau^- nu_bar_tau)
     3.77245413E-02    3    -1000024       -15        16   # BR(chi^0_3 -> chi^-_1 tau^+ nu_tau)
DECAY   1000035     1.13378734E+01   # chi^0_4
#    BR                NDA      ID1      ID2
     2.24787449E-01    2     1000024       -24   # BR(chi^0_4 -> chi^+_1 W^-)
     2.24787449E-01    2    -1000024        24   # BR(chi^0_4 -> chi^-_1 W^+)
     4.97824651E-02    2     1000022        23   # BR(chi^0_4 -> chi^0_1 Z)
     1.02442769E-01    2     1000023        23   # BR(chi^0_4 -> chi^0_2 Z)
     7.12247020E-02    2     1000025        23   # BR(chi^0_4 -> chi^0_3 Z)
     8.23078225E-02    2     1000022        25   # BR(chi^0_4 -> chi^0_1 h^0)
     1.19667428E-01    2     1000023        25   # BR(chi^0_4 -> chi^0_2 h^0)
     1.08996246E-01    2     1000025        25   # BR(chi^0_4 -> chi^0_3 h^0)
#    BR                NDA      ID1      ID2       ID3
     1.37864632E-03    3     1000022         6        -6   # BR(chi^0_4 -> chi^0_1 t t_bar)
     2.71847922E-03    3     1000023         6        -6   # BR(chi^0_4 -> chi^0_2 t t_bar)
     1.66521895E-03    3     1000025         6        -6   # BR(chi^0_4 -> chi^0_3 t t_bar)
     5.11743139E-03    3     1000024         5        -6   # BR(chi^0_4 -> chi^+_1 b t_bar)
     5.11743139E-03    3    -1000024        -5         6   # BR(chi^0_4 -> chi^-_1 b_bar t)
DECAY   1000021     1.70758446E+01   # ~g
#    BR                NDA      ID1      ID2
     4.98046176E-01    2     1000006        -6   # BR(~g -> ~t_1 t_bar)
     4.98046176E-01    2    -1000006         6   # BR(~g -> ~t^*_1 t)
     1.29163581E-04    2     1000022        21   # BR(~g -> chi^0_1 g)
     1.50128495E-04    2     1000023        21   # BR(~g -> chi^0_2 g)
#    BR                NDA      ID1      ID2       ID3
     2.68108017E-04    3     1000022         6        -6   # BR(~g -> chi^0_1 t t_bar)
     6.51578546E-04    3     1000023         6        -6   # BR(~g -> chi^0_2 t t_bar)
     3.99436141E-04    3     1000025         6        -6   # BR(~g -> chi^0_3 t t_bar)
     1.28662972E-04    3     1000035         6        -6   # BR(~g -> chi^0_4 t t_bar)
     1.31962589E-04    3     1000035         5        -5   # BR(~g -> chi^0_4 b b_bar)
     6.91309421E-04    3     1000024         5        -6   # BR(~g -> chi^+_1 b t_bar)
     6.91309421E-04    3    -1000024        -5         6   # BR(~g -> chi^-_1 b_bar t)
     2.61060925E-04    3     1000037         5        -6   # BR(~g -> chi^+_2 b t_bar)
     2.61060925E-04    3    -1000037        -5         6   # BR(~g -> chi^-_2 b_bar t)
DECAY        25     3.28311382E-03   # Gamma(h0)
     2.55454320E-03   2        22        22   # BR(h0 -> photon photon)
     1.43502793E-03   2        22        23   # BR(h0 -> photon Z)
     2.45391550E-02   2        23        23   # BR(h0 -> Z Z)
     2.12074805E-01   2       -24        24   # BR(h0 -> W W)
     8.14111892E-02   2        21        21   # BR(h0 -> gluon gluon)
     5.21277016E-09   2       -11        11   # BR(h0 -> Electron electron)
     2.31872074E-04   2       -13        13   # BR(h0 -> Muon muon)
     6.68540812E-02   2       -15        15   # BR(h0 -> Tau tau)
     1.48835604E-07   2        -2         2   # BR(h0 -> Up up)
     2.88842778E-02   2        -4         4   # BR(h0 -> Charm charm)
     6.05326337E-07   2        -1         1   # BR(h0 -> Down down)
     2.18931960E-04   2        -3         3   # BR(h0 -> Strange strange)
     5.81795357E-01   2        -5         5   # BR(h0 -> Bottom bottom)
DECAY        35     5.67272730E+01   # Gamma(HH)
     4.02939298E-09   2        22        22   # BR(HH -> photon photon)
     9.99287704E-09   2        22        23   # BR(HH -> photon Z)
     3.66759291E-06   2        23        23   # BR(HH -> Z Z)
     6.97429903E-07   2       -24        24   # BR(HH -> W W)
     4.02707277E-06   2        21        21   # BR(HH -> gluon gluon)
     7.98142175E-10   2       -11        11   # BR(HH -> Electron electron)
     3.55410257E-05   2       -13        13   # BR(HH -> Muon muon)
     1.02652937E-02   2       -15        15   # BR(HH -> Tau tau)
     2.26640962E-12   2        -2         2   # BR(HH -> Up up)
     4.39701523E-07   2        -4         4   # BR(HH -> Charm charm)
     3.33826042E-02   2        -6         6   # BR(HH -> Top top)
     5.62143248E-08   2        -1         1   # BR(HH -> Down down)
     2.03328135E-05   2        -3         3   # BR(HH -> Strange strange)
     5.25681785E-02   2        -5         5   # BR(HH -> Bottom bottom)
     6.00219001E-03   2  -1000024   1000024   # BR(HH -> Chargino1 chargino1)
     2.68171089E-01   2  -1000024   1000037   # BR(HH -> Chargino1 chargino2)
     2.68171089E-01   2  -1000037   1000024   # BR(HH -> Chargino2 chargino1)
     1.03463154E-04   2  -1000037   1000037   # BR(HH -> Chargino2 chargino2)
     1.67542788E-02   2   1000022   1000022   # BR(HH -> neutralino1 neutralino1)
     2.30235626E-02   2   1000022   1000023   # BR(HH -> neutralino1 neutralino2)
     1.66486755E-03   2   1000022   1000025   # BR(HH -> neutralino1 neutralino3)
     6.46212620E-02   2   1000022   1000035   # BR(HH -> neutralino1 neutralino4)
     8.71839648E-05   2   1000023   1000023   # BR(HH -> neutralino2 neutralino2)
     3.27269633E-02   2   1000023   1000025   # BR(HH -> neutralino2 neutralino3)
     1.61925010E-01   2   1000023   1000035   # BR(HH -> neutralino2 neutralino4)
     1.66702165E-02   2   1000025   1000025   # BR(HH -> neutralino3 neutralino3)
     4.35412321E-02   2   1000025   1000035   # BR(HH -> neutralino3 neutralino4)
     5.12838739E-05   2   1000035   1000035   # BR(HH -> neutralino4 neutralino4)
     2.72992511E-05   2        25        25   # BR(HH -> h0 h0)
     1.78155872E-04   2  -1000006   1000006   # BR(HH -> Stop1 stop1)
DECAY        36     5.64320550E+01   # Gamma(A0)
     7.32762806E-09   2        22        22   # BR(A0 -> photon photon)
     1.86900590E-08   2        22        23   # BR(A0 -> photon Z)
     1.19635757E-05   2        21        21   # BR(A0 -> gluon gluon)
     7.70005415E-10   2       -11        11   # BR(A0 -> Electron electron)
     3.42886736E-05   2       -13        13   # BR(A0 -> Muon muon)
     9.90358488E-03   2       -15        15   # BR(A0 -> Tau tau)
     2.08729894E-12   2        -2         2   # BR(A0 -> Up up)
     4.04943782E-07   2        -4         4   # BR(A0 -> Charm charm)
     3.09248610E-02   2        -6         6   # BR(A0 -> Top top)
     5.42327457E-08   2        -1         1   # BR(A0 -> Down down)
     1.96160323E-05   2        -3         3   # BR(A0 -> Strange strange)
     5.07142642E-02   2        -5         5   # BR(A0 -> Bottom bottom)
     5.93524189E-03   2  -1000024   1000024   # BR(A0 -> Chargino1 chargino1)
     2.69717262E-01   2  -1000024   1000037   # BR(A0 -> Chargino1 chargino2)
     2.69717262E-01   2  -1000037   1000024   # BR(A0 -> Chargino2 chargino1)
     1.96205946E-05   2  -1000037   1000037   # BR(A0 -> Chargino2 chargino2)
     2.54116091E-02   2   1000022   1000022   # BR(A0 -> neutralino1 neutralino1)
     1.49469582E-02   2   1000022   1000023   # BR(A0 -> neutralino1 neutralino2)
     1.96334154E-03   2   1000022   1000025   # BR(A0 -> neutralino1 neutralino3)
     9.53464020E-02   2   1000022   1000035   # BR(A0 -> neutralino1 neutralino4)
     5.57686315E-05   2   1000023   1000023   # BR(A0 -> neutralino2 neutralino2)
     2.00976496E-02   2   1000023   1000025   # BR(A0 -> neutralino2 neutralino3)
     1.08148974E-01   2   1000023   1000035   # BR(A0 -> neutralino2 neutralino4)
     2.89160449E-02   2   1000025   1000025   # BR(A0 -> neutralino3 neutralino3)
     6.80963013E-02   2   1000025   1000035   # BR(A0 -> neutralino3 neutralino4)
     9.85526948E-06   2   1000035   1000035   # BR(A0 -> neutralino4 neutralino4)
     8.64458462E-06   2        23        25   # BR(A0 -> Z h0)
     1.10622551E-37   2        25        25   # BR(A0 -> h0 h0)
DECAY        37     5.75361438E+01   # Gamma(Hp)
     9.54121349E-10   2       -11        12   # BR(Hp -> Electron nu_e)
     4.07916677E-05   2       -13        14   # BR(Hp -> Muon nu_mu)
     1.15382075E-02   2       -15        16   # BR(Hp -> Tau nu_tau)
     5.83079769E-08   2        -1         2   # BR(Hp -> Down up)
     9.88314303E-07   2        -3         2   # BR(Hp -> Strange up)
     6.30359760E-07   2        -5         2   # BR(Hp -> Bottom up)
     2.55017529E-08   2        -1         4   # BR(Hp -> Down charm)
     2.14969944E-05   2        -3         4   # BR(Hp -> Strange charm)
     8.82736914E-05   2        -5         4   # BR(Hp -> Bottom charm)
     2.49971555E-06   2        -1         6   # BR(Hp -> Down top)
     5.45334340E-05   2        -3         6   # BR(Hp -> Strange top)
     9.77207695E-02   2        -5         6   # BR(Hp -> Bottom top)
     5.07791670E-02   2   1000022   1000024   # BR(Hp -> neutralino1 chargino1)
     1.57537402E-01   2   1000022   1000037   # BR(Hp -> neutralino1 chargino2)
     2.08897942E-03   2   1000023   1000024   # BR(Hp -> neutralino2 chargino1)
     2.66721196E-01   2   1000023   1000037   # BR(Hp -> neutralino2 chargino2)
     3.82293060E-02   2   1000024   1000025   # BR(Hp -> chargino1 neutralino3)
     1.09930691E-01   2   1000025   1000037   # BR(Hp -> neutralino3 chargino2)
     2.65236497E-01   2   1000024   1000035   # BR(Hp -> chargino1 neutralino4)
     5.08942218E-10   2   1000035   1000037   # BR(Hp -> neutralino4 chargino2)
     8.48441062E-06   2        24        25   # BR(Hp -> W h0)
DECAY         6     2.43000000E+00   # top
#    BR                NDA      ID1      ID2
     1.00000000E+00    2           5        24   # BR(t -> b W)
Block HiggsBoundsInputHiggsCouplingsFermions
# ScalarNormEffCoupSq PseudoSNormEffCoupSq NP IP1 IP2 IP2
    9.13476877E-01    0.00000000E+00        3  25   5   5  # h0-b-b eff. coupling^2, normalised to SM
    6.89332343E+01    0.00000000E+00        3  35   5   5  # H0-b-b eff. coupling^2, normalised to SM
    0.00000000E+00    6.88467112E+01        3  36   5   5  # A0-b-b eff. coupling^2, normalised to SM
#
    1.00125675E+00    0.00000000E+00        3  25   6   6  # h0-t-t eff. coupling^2, normalised to SM
    1.32682718E-02    0.00000000E+00        3  35   6   6  # H0-t-t eff. coupling^2, normalised to SM
    0.00000000E+00    1.45250221E-02        3  36   6   6  # A0-t-t eff. coupling^2, normalised to SM
#
    9.13476877E-01    0.00000000E+00        3  25  15  15  # h0-tau-tau eff. coupling^2, normalised to SM
    6.89332343E+01    0.00000000E+00        3  35  15  15  # H0-tau-tau eff. coupling^2, normalised to SM
    0.00000000E+00    6.88467112E+01        3  36  15  15  # A0-tau-tau eff. coupling^2, normalised to SM
#
Block HiggsBoundsInputHiggsCouplingsBosons
    9.99971590E-01        3  25  24  24  # h0-W-W eff. coupling^2, normalised to SM
    2.84099970E-05        3  35  24  24  # H0-W-W eff. coupling^2, normalised to SM
    0.00000000E+00        3  36  24  24  # A0-W-W eff. coupling^2, normalised to SM
#
    9.99971590E-01        3  25  23  23  # h0-Z-Z eff. coupling^2, normalised to SM
    2.84099970E-05        3  35  23  23  # H0-Z-Z eff. coupling^2, normalised to SM
    0.00000000E+00        3  36  23  23  # A0-Z-Z eff. coupling^2, normalised to SM
#
    1.26713688E+00        3  25  21  21  # h0-g-g eff. coupling^2, normalised to SM
    9.50571144E-03        3  35  21  21  # H0-g-g eff. coupling^2, normalised to SM
    1.37572095E-01        3  36  21  21  # A0-g-g eff. coupling^2, normalised to SM
#
    0.00000000E+00        3  25  25  23  # h0-h0-Z eff. coupling^2, normalised to SM
    0.00000000E+00        3  35  25  23  # H0-h0-Z eff. coupling^2, normalised to SM
    2.84099970E-05        3  36  25  23  # A0-h0-Z eff. coupling^2, normalised to SM
    0.00000000E+00        3  35  35  23  # H0-H0-Z eff. coupling^2, normalised to SM
    9.99971590E-01        3  36  35  23  # A0-H0-Z eff. coupling^2, normalised to SM
    0.00000000E+00        3  36  36  23  # A0-A0-Z eff. coupling^2, normalised to SM
#
    0.00000000E+00        4  25  21  21  23  # h0-g-g-Z eff. coupling^2, normalised to SM
    0.00000000E+00        4  35  21  21  23  # H0-g-g-Z eff. coupling^2, normalised to SM
    0.00000000E+00        4  36  21  21  23  # A0-g-g-Z eff. coupling^2, normalised to SM
Block SPhenoLowEnergy  # low energy observables
    1    3.28266207E-04   # BR(b -> s gamma)
    2    1.58911466E-06   # BR(b -> s mu+ mu-)
    3    3.52461352E-05   # BR(b -> s nu nu)
    4    2.42664879E-15   # BR(Bd -> e+ e-)
    5    1.03663690E-10   # BR(Bd -> mu+ mu-)
    6    2.17015002E-08   # BR(Bd -> tau+ tau-)
    7    8.17879608E-14   # BR(Bs -> e+ e-)
    8    3.49397938E-09   # BR(Bs -> mu+ mu-)
    9    7.41121346E-07   # BR(Bs -> tau+ tau-)
   10    9.67848919E-05   # BR(B_u -> tau nu)
   11    9.99750879E-01   # BR(B_u -> tau nu)/BR(B_u -> tau nu)_SM
   12    5.42820766E-01   # |Delta(M_Bd)| [ps^-1] 
   13    1.93953423E+01   # |Delta(M_Bs)| [ps^-1] 
   14    0.00000000E+00   # neutron EDM according to the chiral quark model
   15    0.00000000E+00   # neutron EDM according to the relativistic quark-parton model
   16    2.16073194E-03   # epsilon_K
   17    2.28169282E-15   # Delta(M_K)
   18    2.47899353E-11   # BR(K^0 -> pi^0 nu nu)
   19    8.28826676E-11   # BR(K^+ -> pi^+ nu nu)
   20   -1.09023656E-16   # Delta(g-2)_electron/2
   21   -4.66110415E-12   # Delta(g-2)_muon/2
   22   -1.31855989E-09   # Delta(g-2)_tau/2
   23    0.00000000E+00   # electric dipole moment of the electron
   24    0.00000000E+00   # electric dipole moment of the muon
   25    0.00000000E+00   # electric dipole moment of the tau
   26    0.00000000E+00   # Br(mu -> e gamma)
   27    0.00000000E+00   # Br(tau -> e gamma)
   28    0.00000000E+00   # Br(tau -> mu gamma)
   29    0.00000000E+00   # Br(mu -> 3 e)
   30    0.00000000E+00   # Br(tau -> 3 e)
   31    0.00000000E+00   # Br(tau -> 3 mu)
   39   -9.07284778E-05   # Delta(rho_parameter)
   40    0.00000000E+00   # BR(Z -> e mu)
   41    0.00000000E+00   # BR(Z -> e tau)
   42    0.00000000E+00   # BR(Z -> mu tau)
Block FWCOEF Q=  1.60000000E+02  # Wilson coefficients at scale Q
#    id        order  M        value         comment
     0305 4422   00   0    -1.88819110E-01   # C7
     0305 4422   00   2    -1.97938058E-01   # C7
     0305 4322   00   2    -1.02638527E-04   # C7'
     0305 6421   00   0    -9.52278348E-02   # C8
     0305 6421   00   2    -1.02663645E-01   # C8
     0305 6321   00   2    -1.04387912E-04   # C8'
 03051111 4133   00   0     1.61479409E+00   # C9 e+e-
 03051111 4133   00   2     1.61542091E+00   # C9 e+e-
 03051111 4233   00   2     1.61221279E-05   # C9' e+e-
 03051111 4137   00   0    -4.43748620E+00   # C10 e+e-
 03051111 4137   00   2    -4.43518124E+00   # C10 e+e-
 03051111 4237   00   2    -1.20979062E-04   # C10' e+e-
 03051313 4133   00   0     1.61479409E+00   # C9 mu+mu-
 03051313 4133   00   2     1.61542090E+00   # C9 mu+mu-
 03051313 4233   00   2     1.61221275E-05   # C9' mu+mu-
 03051313 4137   00   0    -4.43748620E+00   # C10 mu+mu-
 03051313 4137   00   2    -4.43518125E+00   # C10 mu+mu-
 03051313 4237   00   2    -1.20979063E-04   # C10' mu+mu-
 03051212 4137   00   0     1.50535012E+00   # C11 nu_1 nu_1
 03051212 4137   00   2     1.50485155E+00   # C11 nu_1 nu_1
 03051212 4237   00   2     2.62297881E-05   # C11' nu_1 nu_1
 03051414 4137   00   0     1.50535012E+00   # C11 nu_2 nu_2
 03051414 4137   00   2     1.50485155E+00   # C11 nu_2 nu_2
 03051414 4237   00   2     2.62297881E-05   # C11' nu_2 nu_2
 03051616 4137   00   0     1.50535012E+00   # C11 nu_3 nu_3
 03051616 4137   00   2     1.50485155E+00   # C11 nu_3 nu_3
 03051616 4237   00   2     2.62297985E-05   # C11' nu_3 nu_3
Block IMFWCOEF Q=  1.60000000E+02  # Im(Wilson coefficients) at scale Q
#    id        order  M        value         comment
     0305 4422   00   0     3.85820475E-07   # C7
     0305 4422   00   2    -2.15887954E-06   # C7
     0305 4322   00   2    -5.96340099E-07   # C7'
     0305 6421   00   0     3.30480752E-07   # C8
     0305 6421   00   2     1.87085216E-06   # C8
     0305 6321   00   2    -2.19823122E-07   # C8'
 03051111 4133   00   2     3.71246668E-07   # C9 e+e-
 03051111 4233   00   2     3.06288099E-07   # C9' e+e-
 03051111 4137   00   2    -2.60570798E-07   # C10 e+e-
 03051111 4237   00   2    -2.29890959E-06   # C10' e+e-
 03051313 4133   00   2     3.71246523E-07   # C9 mu+mu-
 03051313 4233   00   2     3.06288094E-07   # C9' mu+mu-
 03051313 4137   00   2    -2.60570701E-07   # C10 mu+mu-
 03051313 4237   00   2    -2.29890961E-06   # C10' mu+mu-
 03051212 4137   00   2     7.74523136E-08   # C11 nu_1 nu_1
 03051212 4237   00   2     4.98433276E-07   # C11' nu_1 nu_1
 03051414 4137   00   2     7.74523192E-08   # C11 nu_2 nu_2
 03051414 4237   00   2     4.98433276E-07   # C11' nu_2 nu_2
 03051616 4137   00   2     7.74539036E-08   # C11 nu_3 nu_3
 03051616 4237   00   2     4.98433275E-07   # C11' nu_3 nu_3
