# SUSY Les Houches Accord 2 - MSSM spectrum + Decays
# SPheno v4.0.5be
# W. Porod, Comput. Phys. Commun. 153 (2003) 275-315, hep-ph/0301101;
# W. Porod, F.~Staub, Comput. Phys. Commun. 183 (2012) 2458
#                     arXiv:1104.1573 [hep-ph] 
# in case of problems send email to porod@physik.uni-wuerzburg.de
# Created: 15.05.2022,  15:32
Block SPINFO         # Program information
     1   SPheno      # spectrum calculator
     2   v4.0.5be    # version number
#
Block SPhenoINFO     # SPheno specific information
    1      2         # using 2-loop RGEs
    2      2         # using pole masses for boundary conditions at mZ
Block MODSEL  # Model selection
    1    0    # general MSSM
Block MINPAR  # Input parameters
    3    2.43433499E+01  # tanb at m_Z    
    4    1.00000000E+00  # Sign(mu)
Block EXTPAR  # non-universal input parameters
    0    3.82283856E+03  # scale for input parameters
    1    2.19243620E+02  # M_1
    2    2.30323729E+02  # M_2
    3    2.27465464E+03  # M_3
   11   -2.32500747E+03  # A_t
   12   -1.55058048E+03  # A_b
   13    3.88758526E+02  # A_tau
   23    4.18337639E+02  # mu
   25    2.33264011E+01  # tan(beta)
   26    4.18708882E+03  # m_A, pole mass
   31    1.04714256E+03  # M_L11
   32    1.04714256E+03  # M_L22
   33    1.90538895E+03  # M_L33
   34    1.02473244E+03  # M_E11
   35    1.02473244E+03  # M_E22
   36    1.05807503E+03  # M_E33
   41    1.00000000E+04  # M_Q11
   42    1.00000000E+04  # M_Q22
   43    3.65166438E+03  # M_Q33
   44    1.00000000E+04  # M_U11
   45    1.00000000E+04  # M_U22
   46    3.94307267E+03  # M_U33
   47    1.00000000E+04  # M_D11
   48    1.00000000E+04  # M_D22
   49    2.93388405E+03  # M_D33
Block SMINPUTS  # SM parameters
         1     1.27908970E+02  # alpha_em^-1(MZ)^MSbar
         2     1.16637870E-05  # G_mu [GeV^-2]
         3     1.18400000E-01  # alpha_s(MZ)^MSbar
         4     9.11876000E+01  # m_Z(pole)
         5     4.18000000E+00  # m_b(m_b), MSbar
         6     1.73200000E+02  # m_t(pole)
         7     1.77700000E+00  # m_tau(pole)
         8     0.00000000E+00  # m_nu_3
        11     5.10998930E-04  # m_e(pole)
        12     0.00000000E+00  # m_nu_1
        13     1.05658372E-01  # m_muon(pole)
        14     0.00000000E+00  # m_nu_2
        21     5.00000000E-03  # m_d(2 GeV), MSbar
        22     2.50000000E-03  # m_u(2 GeV), MSbar
        23     9.50000000E-02  # m_s(2 GeV), MSbar
        24     1.27000000E+00  # m_c(m_c), MSbar
Block gauge Q=  3.82283856E+03  # (SUSY scale)
   1    3.55362975E-01  # g'(Q)^DRbar
   2    6.65198874E-01  # g(Q)^DRbar
   3    1.21977796E+00  # g3(Q)^DRbar
Block Yu Q=  3.82283856E+03  # (SUSY scale)
  1  1     8.39207311E-06   # Y_u(Q)^DRbar
  2  2     4.26317314E-03   # Y_c(Q)^DRbar
  3  3     1.01382984E+00   # Y_t(Q)^DRbar
Block Yd Q=  3.82283856E+03  # (SUSY scale)
  1  1     3.93366385E-04   # Y_d(Q)^DRbar
  2  2     7.47396132E-03   # Y_s(Q)^DRbar
  3  3     3.90096191E-01   # Y_b(Q)^DRbar
Block Ye Q=  3.82283856E+03  # (SUSY scale)
  1  1     6.86453108E-05   # Y_e(Q)^DRbar
  2  2     1.41936731E-02   # Y_mu(Q)^DRbar
  3  3     2.38714232E-01   # Y_tau(Q)^DRbar
Block Au Q=  3.82283856E+03  # (SUSY scale)
  1  1     0.00000000E+00   # A_u(Q)^DRbar
  2  2     0.00000000E+00   # A_c(Q)^DRbar
  3  3    -2.32500799E+03   # A_t(Q)^DRbar
Block Ad Q=  3.82283856E+03  # (SUSY scale)
  1  1     0.00000000E+00   # A_d(Q)^DRbar
  2  2     0.00000000E+00   # A_s(Q)^DRbar
  3  3    -1.55058024E+03   # A_b(Q)^DRbar
Block Ae Q=  3.82283856E+03  # (SUSY scale)
  1  1     0.00000000E+00   # A_e(Q)^DRbar
  2  2     0.00000000E+00   # A_mu(Q)^DRbar
  3  3     3.88758498E+02   # A_tau(Q)^DRbar
Block MSOFT Q=  3.82283856E+03  # soft SUSY breaking masses at Q
   1    2.19243620E+02  # M_1
   2    2.30323729E+02  # M_2
   3    2.27465464E+03  # M_3
  21    1.73973598E+07  # M^2_(H,d)
  22    2.05349983E+05  # M^2_(H,u)
  31    1.04714256E+03  # M_(L,11)
  32    1.04714256E+03  # M_(L,22)
  33    1.90538895E+03  # M_(L,33)
  34    1.02473244E+03  # M_(E,11)
  35    1.02473244E+03  # M_(E,22)
  36    1.05807503E+03  # M_(E,33)
  41    1.00000000E+04  # M_(Q,11)
  42    1.00000000E+04  # M_(Q,22)
  43    3.65166438E+03  # M_(Q,33)
  44    1.00000000E+04  # M_(U,11)
  45    1.00000000E+04  # M_(U,22)
  46    3.94307267E+03  # M_(U,33)
  47    1.00000000E+04  # M_(D,11)
  48    1.00000000E+04  # M_(D,22)
  49    2.93388405E+03  # M_(D,33)
Block MASS  # Mass spectrum
#   PDG code      mass          particle
         6     1.73200000E+02  # m_t(pole)
        23     9.11876000E+01  # m_Z(pole)
        24     8.04299946E+01  # W+
        15     1.77700000E+00  # m_tau(pole)
        25     1.23627102E+02  # h0
        35     4.18633154E+03  # H0
        36     4.18708882E+03  # A0
        37     4.18771252E+03  # H+
   1000001     1.01159543E+04  # ~d_L
   2000001     1.00906208E+04  # ~d_R
   1000002     1.01155902E+04  # ~u_L
   2000002     1.00932682E+04  # ~u_R
   1000003     1.01159556E+04  # ~s_L
   2000003     1.00906226E+04  # ~s_R
   1000004     1.01155915E+04  # ~c_L
   2000004     1.00932689E+04  # ~c_R
   1000005     3.01678238E+03  # ~b_1
   2000005     3.69949602E+03  # ~b_2
   1000006     3.69302681E+03  # ~t_1
   2000006     3.95721326E+03  # ~t_2
   1000011     1.04640514E+03  # ~e_L-
   2000011     1.03513223E+03  # ~e_R-
   1000012     1.04299601E+03  # ~nu_eL
   1000013     1.04641379E+03  # ~mu_L-
   2000013     1.03508228E+03  # ~mu_R-
   1000014     1.04298238E+03  # ~nu_muL
   1000015     1.05900789E+03  # ~tau_1-
   2000015     1.90453716E+03  # ~tau_2-
   1000016     1.90248862E+03  # ~nu_tauL
   1000021     2.71129120E+03  # ~g
   1000022     2.11970659E+02  # ~chi_10
   1000023     2.39968436E+02  # ~chi_20
   1000025     4.34105736E+02  # ~chi_30
   1000035     4.50887293E+02  # ~chi_40
   1000024     2.38473617E+02  # ~chi_1+
   1000037     4.51089521E+02  # ~chi_2+
# Higgs mixing
Block alpha # Effective Higgs mixing angle
          -4.11127943E-02   # alpha
Block Hmix Q=  3.82283856E+03  # Higgs mixing parameters
   1    4.18337639E+02  # mu
   2    2.33264011E+01  # tan[beta](Q)
   3    2.42978196E+02  # v(Q)
   4    1.75317128E+07  # m^2_A(Q)
Block stopmix # stop mixing matrix
   1  1     9.85055082E-01   # Re[R_st(1,1)]
   1  2     1.72239617E-01   # Re[R_st(1,2)]
   2  1    -1.72239617E-01   # Re[R_st(2,1)]
   2  2     9.85055082E-01   # Re[R_st(2,2)]
Block sbotmix # sbottom mixing matrix
   1  1     5.42953044E-03   # Re[R_sb(1,1)]
   1  2     9.99985260E-01   # Re[R_sb(1,2)]
   2  1    -9.99985260E-01   # Re[R_sb(2,1)]
   2  2     5.42953044E-03   # Re[R_sb(2,2)]
Block staumix # stau mixing matrix
   1  1     6.76987619E-03   # Re[R_sta(1,1)]
   1  2     9.99977084E-01   # Re[R_sta(1,2)]
   2  1    -9.99977084E-01   # Re[R_sta(2,1)]
   2  2     6.76987619E-03   # Re[R_sta(2,2)]
Block Nmix # neutralino mixing matrix
   1  1    -9.53870984E-01   # Re[N(1,1)]
   1  2     2.13600186E-01   # Re[N(1,2)]
   1  3    -1.86665715E-01   # Re[N(1,3)]
   1  4     9.82904769E-02   # Re[N(1,4)]
   2  1    -2.64156453E-01   # Re[N(2,1)]
   2  2    -9.30973172E-01   # Re[N(2,2)]
   2  3     2.17686132E-01   # Re[N(2,3)]
   2  4    -1.26976646E-01   # Re[N(2,4)]
   3  1    -4.58701265E-02   # Re[N(3,1)]
   3  2     7.97549964E-02   # Re[N(3,2)]
   3  3     6.99056489E-01   # Re[N(3,3)]
   3  4     7.09122766E-01   # Re[N(3,4)]
   4  1    -1.35083110E-01   # Re[N(4,1)]
   4  2     2.85136903E-01   # Re[N(4,2)]
   4  3     6.55048612E-01   # Re[N(4,3)]
   4  4    -6.86557220E-01   # Re[N(4,4)]
Block Umix # chargino mixing matrix
   1  1    -9.31572823E-01   # Re[U(1,1)]
   1  2     3.63554776E-01   # Re[U(1,2)]
   2  1     3.63554776E-01   # Re[U(2,1)]
   2  2     9.31572823E-01   # Re[U(2,2)]
Block Vmix # chargino mixing matrix
   1  1    -9.77366555E-01   # Re[V(1,1)]
   1  2     2.11552872E-01   # Re[V(1,2)]
   2  1     2.11552872E-01   # Re[V(2,1)]
   2  2     9.77366555E-01   # Re[V(2,2)]
DECAY        23     2.49520000E+00   # Z
DECAY        24     2.08500000E+00   # W
DECAY   2000011     4.73852368E+00   # ~e^-_R
#    BR                NDA      ID1      ID2
     9.16701557E-01    2     1000022        11   # BR(~e^-_R -> chi^0_1 e^-)
     6.85801674E-02    2     1000023        11   # BR(~e^-_R -> chi^0_2 e^-)
     1.56858199E-03    2     1000025        11   # BR(~e^-_R -> chi^0_3 e^-)
     1.31496800E-02    2     1000035        11   # BR(~e^-_R -> chi^0_4 e^-)
DECAY   1000011     1.32631087E+01   # ~e^-_L
#    BR                NDA      ID1      ID2
     2.79756714E-02    2     1000022        11   # BR(~e^-_L -> chi^0_1 e^-)
     3.58258361E-01    2     1000023        11   # BR(~e^-_L -> chi^0_2 e^-)
     7.26572138E-04    2     1000025        11   # BR(~e^-_L -> chi^0_3 e^-)
     1.04450155E-02    2     1000035        11   # BR(~e^-_L -> chi^0_4 e^-)
     5.41745433E-01    2    -1000024        12   # BR(~e^-_L -> chi^-_1 nu_e)
     6.08489463E-02    2    -1000037        12   # BR(~e^-_L -> chi^-_2 nu_e)
#    BR                NDA      ID1      ID2       ID3
DECAY   2000013     4.74396100E+00   # ~mu^-_R
#    BR                NDA      ID1      ID2
     9.15626458E-01    2     1000022        13   # BR(~mu^-_R -> chi^0_1 mu^-)
     6.85347690E-02    2     1000023        13   # BR(~mu^-_R -> chi^0_2 mu^-)
     1.85701131E-03    2     1000025        13   # BR(~mu^-_R -> chi^0_3 mu^-)
     1.33801105E-02    2     1000035        13   # BR(~mu^-_R -> chi^0_4 mu^-)
     1.03638184E-04    2    -1000024        14   # BR(~mu^-_R -> chi^-_1 nu_mu)
     4.98012898E-04    2    -1000037        14   # BR(~mu^-_R -> chi^-_2 nu_mu)
DECAY   1000013     1.32661598E+01   # ~mu^-_L
#    BR                NDA      ID1      ID2
     2.79796827E-02    2     1000022        13   # BR(~mu^-_L -> chi^0_1 mu^-)
     3.58192808E-01    2     1000023        13   # BR(~mu^-_L -> chi^0_2 mu^-)
     8.32360141E-04    2     1000025        13   # BR(~mu^-_L -> chi^0_3 mu^-)
     1.05329393E-02    2     1000035        13   # BR(~mu^-_L -> chi^0_4 mu^-)
     5.41626296E-01    2    -1000024        14   # BR(~mu^-_L -> chi^-_1 nu_mu)
     6.08359137E-02    2    -1000037        14   # BR(~mu^-_L -> chi^-_2 nu_mu)
#    BR                NDA      ID1      ID2       ID3
DECAY   1000015     6.55710907E+00   # ~tau^-_1
#    BR                NDA      ID1      ID2
     6.86752717E-01    2     1000022        15   # BR(~tau^-_1 -> chi^0_1 tau^-)
     5.95889643E-02    2     1000023        15   # BR(~tau^-_1 -> chi^0_2 tau^-)
     6.28932412E-02    2     1000025        15   # BR(~tau^-_1 -> chi^0_3 tau^-)
     6.18997323E-02    2     1000035        15   # BR(~tau^-_1 -> chi^0_4 tau^-)
     2.39660843E-02    2    -1000024        16   # BR(~tau^-_1 -> chi^-_1 nu_tau)
     1.04899261E-01    2    -1000037        16   # BR(~tau^-_1 -> chi^-_2 nu_tau)
DECAY   2000015     2.84910730E+01   # ~tau^-_2
#    BR                NDA      ID1      ID2
     2.74654773E-02    2     1000022        15   # BR(~tau^-_2 -> chi^0_1 tau^-)
     3.30637386E-01    2     1000023        15   # BR(~tau^-_2 -> chi^0_2 tau^-)
     3.42297061E-02    2     1000025        15   # BR(~tau^-_2 -> chi^0_3 tau^-)
     4.13046510E-02    2     1000035        15   # BR(~tau^-_2 -> chi^0_4 tau^-)
     4.93830166E-01    2    -1000024        16   # BR(~tau^-_2 -> chi^-_1 nu_tau)
     7.01581341E-02    2    -1000037        16   # BR(~tau^-_2 -> chi^-_2 nu_tau)
     1.22287953E-03    2     1000015        23   # BR(~tau^-_2 -> ~tau^-_1 Z)
     1.15159960E-03    2     1000015        25   # BR(~tau^-_2 -> ~tau^-_1 h^0)
#    BR                NDA      ID1      ID2       ID3
DECAY   1000012     1.33462885E+01   # ~nu_e
#    BR                NDA      ID1      ID2
     1.65339936E-01    2     1000022        12   # BR(~nu_e -> chi^0_1 nu_e)
     1.92477507E-01    2     1000023        12   # BR(~nu_e -> chi^0_2 nu_e)
     2.55580133E-03    2     1000025        12   # BR(~nu_e -> chi^0_3 nu_e)
     2.90335170E-02    2     1000035        12   # BR(~nu_e -> chi^0_4 nu_e)
     5.90245331E-01    2     1000024        11   # BR(~nu_e -> chi^+_1 e^-)
     2.03479081E-02    2     1000037        11   # BR(~nu_e -> chi^+_2 e^-)
#    BR                NDA      ID1      ID2       ID3
DECAY   1000014     1.33489635E+01   # ~nu_mu
#    BR                NDA      ID1      ID2
     1.65304271E-01    2     1000022        14   # BR(~nu_mu -> chi^0_1 nu_mu)
     1.92435860E-01    2     1000023        14   # BR(~nu_mu -> chi^0_2 nu_mu)
     2.55522780E-03    2     1000025        14   # BR(~nu_mu -> chi^0_3 nu_mu)
     2.90269710E-02    2     1000035        14   # BR(~nu_mu -> chi^0_4 nu_mu)
     5.90154343E-01    2     1000024        13   # BR(~nu_mu -> chi^+_1 mu^-)
     2.05233265E-02    2     1000037        13   # BR(~nu_mu -> chi^+_2 mu^-)
#    BR                NDA      ID1      ID2       ID3
DECAY   1000016     2.85446660E+01   # ~nu_tau
#    BR                NDA      ID1      ID2
     1.49637467E-01    2     1000022        16   # BR(~nu_tau -> chi^0_1 nu_tau)
     1.77241417E-01    2     1000023        16   # BR(~nu_tau -> chi^0_2 nu_tau)
     2.86543625E-03    2     1000025        16   # BR(~nu_tau -> chi^0_3 nu_tau)
     3.33624545E-02    2     1000035        16   # BR(~nu_tau -> chi^0_4 nu_tau)
     5.52626883E-01    2     1000024        15   # BR(~nu_tau -> chi^+_1 tau^-)
     8.18298478E-02    2     1000037        15   # BR(~nu_tau -> chi^+_2 tau^-)
     2.43649488E-03    2     1000015        24   # BR(~nu_tau -> ~tau^-_1 W^+)
DECAY   2000001     6.91258896E+02   # ~d_R
#    BR                NDA      ID1      ID2
     7.40858262E-03    2     1000022         1   # BR(~d_R -> chi^0_1 d)
     5.68030745E-04    2     1000023         1   # BR(~d_R -> chi^0_2 d)
     1.48136324E-04    2     1000035         1   # BR(~d_R -> chi^0_4 d)
     9.91858100E-01    2     1000021         1   # BR(~d_R -> ~g d)
DECAY   1000001     8.22680428E+02   # ~d_L
#    BR                NDA      ID1      ID2
     7.95126439E-03    2     1000022         1   # BR(~d_L -> chi^0_1 d)
     4.22405470E-02    2     1000023         1   # BR(~d_L -> chi^0_2 d)
     4.16873753E-04    2     1000025         1   # BR(~d_L -> chi^0_3 d)
     5.15357238E-03    2     1000035         1   # BR(~d_L -> chi^0_4 d)
     9.38338706E-02    2    -1000024         2   # BR(~d_L -> chi^-_1 u)
     1.42501588E-02    2    -1000037         2   # BR(~d_L -> chi^-_2 u)
     8.36153713E-01    2     1000021         1   # BR(~d_L -> ~g d)
DECAY   2000003     6.91281342E+02   # ~s_R
#    BR                NDA      ID1      ID2
     7.40890643E-03    2     1000022         3   # BR(~s_R -> chi^0_1 s)
     5.68778150E-04    2     1000023         3   # BR(~s_R -> chi^0_2 s)
     1.55045224E-04    2     1000035         3   # BR(~s_R -> chi^0_4 s)
     9.91826126E-01    2     1000021         3   # BR(~s_R -> ~g s)
DECAY   1000003     8.22695375E+02   # ~s_L
#    BR                NDA      ID1      ID2
     7.95159523E-03    2     1000022         3   # BR(~s_L -> chi^0_1 s)
     4.22404297E-02    2     1000023         3   # BR(~s_L -> chi^0_2 s)
     4.23501094E-04    2     1000025         3   # BR(~s_L -> chi^0_3 s)
     5.15930402E-03    2     1000035         3   # BR(~s_L -> chi^0_4 s)
     9.38323712E-02    2    -1000024         4   # BR(~s_L -> chi^-_1 c)
     1.42541374E-02    2    -1000037         4   # BR(~s_L -> chi^-_2 c)
     8.36138661E-01    2     1000021         3   # BR(~s_L -> ~g s)
DECAY   1000005     2.79471627E+01   # ~b_1
#    BR                NDA      ID1      ID2
     6.61303628E-02    2     1000022         5   # BR(~b_1 -> chi^0_1 b)
     2.01836595E-02    2     1000023         5   # BR(~b_1 -> chi^0_2 b)
     1.52979580E-01    2     1000025         5   # BR(~b_1 -> chi^0_3 b)
     1.34134948E-01    2     1000035         5   # BR(~b_1 -> chi^0_4 b)
     4.44000575E-02    2    -1000024         6   # BR(~b_1 -> chi^-_1 t)
     2.67164362E-01    2    -1000037         6   # BR(~b_1 -> chi^-_2 t)
     3.15007030E-01    2     1000021         5   # BR(~b_1 -> ~g b)
DECAY   2000005     1.95639690E+02   # ~b_2
#    BR                NDA      ID1      ID2
     1.40379907E-02    2     1000022         5   # BR(~b_2 -> chi^0_1 b)
     6.70422511E-02    2     1000023         5   # BR(~b_2 -> chi^0_2 b)
     2.78920171E-02    2     1000025         5   # BR(~b_2 -> chi^0_3 b)
     3.17401957E-02    2     1000035         5   # BR(~b_2 -> chi^0_4 b)
     1.58757593E-01    2    -1000024         6   # BR(~b_2 -> chi^-_1 t)
     3.80482043E-01    2    -1000037         6   # BR(~b_2 -> chi^-_2 t)
     3.19793386E-01    2     1000021         5   # BR(~b_2 -> ~g b)
     1.59545722E-04    2     1000005        25   # BR(~b_2 -> ~b_1 h^0)
DECAY   2000002     7.08384917E+02   # ~u_R
#    BR                NDA      ID1      ID2
     2.89254807E-02    2     1000022         2   # BR(~u_R -> chi^0_1 u)
     2.21776650E-03    2     1000023         2   # BR(~u_R -> chi^0_2 u)
     5.78297759E-04    2     1000035         2   # BR(~u_R -> chi^0_4 u)
     9.68211753E-01    2     1000021         2   # BR(~u_R -> ~g u)
DECAY   1000002     8.22667590E+02   # ~u_L
#    BR                NDA      ID1      ID2
     1.03458410E-04    2     1000022         2   # BR(~u_L -> chi^0_1 u)
     5.17094379E-02    2     1000023         2   # BR(~u_L -> chi^0_2 u)
     2.76333837E-04    2     1000025         2   # BR(~u_L -> chi^0_3 u)
     3.67448953E-03    2     1000035         2   # BR(~u_L -> chi^0_4 u)
     1.03283772E-01    2     1000024         1   # BR(~u_L -> chi^+_1 d)
     4.82516107E-03    2     1000037         1   # BR(~u_L -> chi^+_2 d)
     8.36127348E-01    2     1000021         2   # BR(~u_L -> ~g u)
DECAY   2000004     7.08392221E+02   # ~c_R
#    BR                NDA      ID1      ID2
     2.89252326E-02    2     1000022         4   # BR(~c_R -> chi^0_1 c)
     2.21782686E-03    2     1000023         4   # BR(~c_R -> chi^0_2 c)
     5.80711388E-04    2     1000035         4   # BR(~c_R -> chi^0_4 c)
     9.68201816E-01    2     1000021         4   # BR(~c_R -> ~g c)
DECAY   1000004     8.22682506E+02   # ~c_L
#    BR                NDA      ID1      ID2
     1.03499432E-04    2     1000022         4   # BR(~c_L -> chi^0_1 c)
     5.17085759E-02    2     1000023         4   # BR(~c_L -> chi^0_2 c)
     2.78555642E-04    2     1000025         4   # BR(~c_L -> chi^0_3 c)
     3.67651270E-03    2     1000035         4   # BR(~c_L -> chi^0_4 c)
     1.03283711E-01    2     1000024         3   # BR(~c_L -> chi^+_1 s)
     4.83685369E-03    2     1000037         3   # BR(~c_L -> chi^+_2 s)
     8.36112292E-01    2     1000021         4   # BR(~c_L -> ~g c)
DECAY   1000006     2.03272457E+02   # ~t_1
#    BR                NDA      ID1      ID2
     8.86913853E-03    2     1000022         6   # BR(~t_1 -> chi^0_1 t)
     4.92584815E-03    2     1000023         4   # BR(~t_1 -> chi^0_2 c)
     8.48213638E-02    2     1000023         6   # BR(~t_1 -> chi^0_2 t)
     1.84561864E-01    2     1000025         6   # BR(~t_1 -> chi^0_3 t)
     1.60437212E-01    2     1000035         6   # BR(~t_1 -> chi^0_4 t)
     1.71442444E-01    2     1000024         5   # BR(~t_1 -> chi^+_1 b)
     4.53021420E-02    2     1000037         5   # BR(~t_1 -> chi^+_2 b)
     1.97938034E-02    2     1000021         4   # BR(~t_1 -> ~g c)
     3.13649126E-01    2     1000021         6   # BR(~t_1 -> ~g t)
     1.73801594E-04    2     1000005        24   # BR(~t_1 -> ~b_1 W^+)
#    BR                NDA      ID1      ID2       ID3
     6.01338604E-03    3     1000022        24         5   # BR(~t_1 -> chi^0_1 W^+ b)
DECAY   2000006     2.53786033E+02   # ~t_2
#    BR                NDA      ID1      ID2
     2.98880503E-02    2     1000022         6   # BR(~t_2 -> chi^0_1 t)
     4.37933492E-03    2     1000023         6   # BR(~t_2 -> chi^0_2 t)
     1.52803205E-01    2     1000025         6   # BR(~t_2 -> chi^0_3 t)
     1.59229631E-01    2     1000035         6   # BR(~t_2 -> chi^0_4 t)
     3.22012626E-03    2     1000024         5   # BR(~t_2 -> chi^+_1 b)
     3.03579856E-01    2     1000037         5   # BR(~t_2 -> chi^+_2 b)
     3.28575270E-01    2     1000021         6   # BR(~t_2 -> ~g t)
     8.45500521E-03    2     2000005        24   # BR(~t_2 -> ~b_2 W^+)
     4.24926834E-03    2     1000006        23   # BR(~t_2 -> ~t_1 Z)
     5.60969711E-03    2     1000006        25   # BR(~t_2 -> ~t_1 h^0)
DECAY   1000024     3.69493433E-06   # chi^+_1
#    BR                NDA      ID1      ID2       ID3
     3.35055014E-01    3     1000022        -1         2   # BR(chi^+_1 -> chi^0_1 d_bar u)
     3.31393191E-01    3     1000022        -3         4   # BR(chi^+_1 -> chi^0_1 s_bar c)
     1.12095528E-01    3     1000022       -11        12   # BR(chi^+_1 -> chi^0_1 e^+ nu_e)
     1.12094866E-01    3     1000022       -13        14   # BR(chi^+_1 -> chi^0_1 mu^+ nu_mu)
     1.09361400E-01    3     1000022       -15        16   # BR(chi^+_1 -> chi^0_1 tau^+ nu_tau)
DECAY   1000037     2.26798492E+00   # chi^+_2
#    BR                NDA      ID1      ID2
     2.94838654E-02    2     1000022        24   # BR(chi^+_2 -> chi^0_1 W^+)
     4.22559962E-01    2     1000023        24   # BR(chi^+_2 -> chi^0_2 W^+)
     3.16653936E-01    2     1000024        23   # BR(chi^+_2 -> chi^+_1 Z)
     2.31253836E-01    2     1000024        25   # BR(chi^+_2 -> chi^+_1 h^0)
#    BR                NDA      ID1      ID2       ID3
DECAY   1000022     0.00000000E+00   # chi^0_1
DECAY   1000023     4.36239986E-08   # chi^0_2
#    BR                NDA      ID1      ID2
     9.60442496E-02    2     1000022        22   # BR(chi^0_2 -> chi^0_1 photon)
#    BR                NDA      ID1      ID2       ID3
     1.17945322E-01    3     1000022         2        -2   # BR(chi^0_2 -> chi^0_1 u u_bar)
     1.14910082E-01    3     1000022         4        -4   # BR(chi^0_2 -> chi^0_1 c c_bar)
     1.51467019E-01    3     1000022         1        -1   # BR(chi^0_2 -> chi^0_1 d d_bar)
     1.51448001E-01    3     1000022         3        -3   # BR(chi^0_2 -> chi^0_1 s s_bar)
     1.20219746E-01    3     1000022         5        -5   # BR(chi^0_2 -> chi^0_1 b b_bar)
     2.59909422E-02    3     1000022        11       -11   # BR(chi^0_2 -> chi^0_1 e^- e^+)
     2.59871040E-02    3     1000022        13       -13   # BR(chi^0_2 -> chi^0_1 mu^- mu^+)
     2.80872575E-02    3     1000022        15       -15   # BR(chi^0_2 -> chi^0_1 tau^- tau^+)
     1.66985920E-01    3     1000022        12       -12   # BR(chi^0_2 -> chi^0_1 nu_e nu_bar_e)
     2.74230792E-04    3     1000024         1        -2   # BR(chi^0_2 -> chi^+_1 d u_bar)
     2.74230792E-04    3    -1000024        -1         2   # BR(chi^0_2 -> chi^-_1 d_bar u)
DECAY   1000025     3.92089415E+00   # chi^0_3
#    BR                NDA      ID1      ID2
     2.53160322E-01    2     1000024       -24   # BR(chi^0_3 -> chi^+_1 W^-)
     2.53160322E-01    2    -1000024        24   # BR(chi^0_3 -> chi^-_1 W^+)
     1.48632151E-01    2     1000022        23   # BR(chi^0_3 -> chi^0_1 Z)
     1.72585708E-01    2     1000023        23   # BR(chi^0_3 -> chi^0_2 Z)
     8.15843912E-02    2     1000022        25   # BR(chi^0_3 -> chi^0_1 h^0)
     9.07549101E-02    2     1000023        25   # BR(chi^0_3 -> chi^0_2 h^0)
     1.01035834E-04    2     1000023        22   # BR(chi^0_3 -> chi^0_2 photon)
#    BR                NDA      ID1      ID2       ID3
DECAY   1000035     2.32031961E+00   # chi^0_4
#    BR                NDA      ID1      ID2
     3.39548819E-01    2     1000024       -24   # BR(chi^0_4 -> chi^+_1 W^-)
     3.39548819E-01    2    -1000024        24   # BR(chi^0_4 -> chi^-_1 W^+)
     2.21230713E-02    2     1000022        23   # BR(chi^0_4 -> chi^0_1 Z)
     1.83379373E-02    2     1000023        23   # BR(chi^0_4 -> chi^0_2 Z)
     1.33335636E-01    2     1000022        25   # BR(chi^0_4 -> chi^0_1 h^0)
     1.47017601E-01    2     1000023        25   # BR(chi^0_4 -> chi^0_2 h^0)
#    BR                NDA      ID1      ID2       ID3
DECAY   1000021     1.55741437E-01   # ~g
#    BR                NDA      ID1      ID2
     1.73561191E-04    2     1000022        21   # BR(~g -> chi^0_1 g)
     2.74960123E-03    2     1000025        21   # BR(~g -> chi^0_3 g)
     2.08690918E-03    2     1000035        21   # BR(~g -> chi^0_4 g)
#    BR                NDA      ID1      ID2       ID3
     1.67524900E-04    3     1000022         2        -2   # BR(~g -> chi^0_1 u u_bar)
     1.67525604E-04    3     1000022         4        -4   # BR(~g -> chi^0_1 c c_bar)
     1.03650784E-02    3     1000022         6        -6   # BR(~g -> chi^0_1 t t_bar)
     2.21729016E-02    3     1000022         5        -5   # BR(~g -> chi^0_1 b b_bar)
     3.55634441E-04    3     1000023         2        -2   # BR(~g -> chi^0_2 u u_bar)
     3.55635494E-04    3     1000023         4        -4   # BR(~g -> chi^0_2 c c_bar)
     2.97394605E-02    3     1000023         6        -6   # BR(~g -> chi^0_2 t t_bar)
     2.83208902E-04    3     1000023         1        -1   # BR(~g -> chi^0_2 d d_bar)
     2.83219913E-04    3     1000023         3        -3   # BR(~g -> chi^0_2 s s_bar)
     3.20332869E-02    3     1000023         5        -5   # BR(~g -> chi^0_2 b b_bar)
     1.34620555E-01    3     1000025         6        -6   # BR(~g -> chi^0_3 t t_bar)
     5.55582736E-02    3     1000025         5        -5   # BR(~g -> chi^0_3 b b_bar)
     1.37736394E-01    3     1000035         6        -6   # BR(~g -> chi^0_4 t t_bar)
     5.12353591E-02    3     1000035         5        -5   # BR(~g -> chi^0_4 b b_bar)
     6.53284778E-04    3     1000024         1        -2   # BR(~g -> chi^+_1 d u_bar)
     6.53284778E-04    3    -1000024        -1         2   # BR(~g -> chi^-_1 d_bar u)
     6.53301731E-04    3     1000024         3        -4   # BR(~g -> chi^+_1 s c_bar)
     6.53301731E-04    3    -1000024        -3         4   # BR(~g -> chi^-_1 s_bar c)
     6.55360007E-02    3     1000024         5        -6   # BR(~g -> chi^+_1 b t_bar)
     6.55360007E-02    3    -1000024        -5         6   # BR(~g -> chi^-_1 b_bar t)
     1.92811234E-01    3     1000037         5        -6   # BR(~g -> chi^+_2 b t_bar)
     1.92811234E-01    3    -1000037        -5         6   # BR(~g -> chi^-_2 b_bar t)
DECAY        25     3.36669417E-03   # Gamma(h0)
     2.58959928E-03   2        22        22   # BR(h0 -> photon photon)
     1.53138678E-03   2        22        23   # BR(h0 -> photon Z)
     2.67843899E-02   2        23        23   # BR(h0 -> Z Z)
     2.27428951E-01   2       -24        24   # BR(h0 -> W W)
     8.10238489E-02   2        21        21   # BR(h0 -> gluon gluon)
     5.09009452E-09   2       -11        11   # BR(h0 -> Electron electron)
     2.26415747E-04   2       -13        13   # BR(h0 -> Muon muon)
     6.52475954E-02   2       -15        15   # BR(h0 -> Tau tau)
     1.44937115E-07   2        -2         2   # BR(h0 -> Up up)
     2.81284080E-02   2        -4         4   # BR(h0 -> Charm charm)
     5.89689519E-07   2        -1         1   # BR(h0 -> Down down)
     2.13276591E-04   2        -3         3   # BR(h0 -> Strange strange)
     5.66825388E-01   2        -5         5   # BR(h0 -> Bottom bottom)
DECAY        35     8.14458215E+01   # Gamma(HH)
     3.12757962E-08   2        22        22   # BR(HH -> photon photon)
     9.15389662E-08   2        22        23   # BR(HH -> photon Z)
     4.29653668E-07   2        23        23   # BR(HH -> Z Z)
     8.61248222E-08   2       -24        24   # BR(HH -> W W)
     1.03105135E-06   2        21        21   # BR(HH -> gluon gluon)
     4.25549648E-09   2       -11        11   # BR(HH -> Electron electron)
     1.89495800E-04   2       -13        13   # BR(HH -> Muon muon)
     5.42862117E-02   2       -15        15   # BR(HH -> Tau tau)
     1.98257604E-13   2        -2         2   # BR(HH -> Up up)
     3.84633095E-08   2        -4         4   # BR(HH -> Charm charm)
     2.77417777E-03   2        -6         6   # BR(HH -> Top top)
     2.93066516E-07   2        -1         1   # BR(HH -> Down down)
     1.06006309E-04   2        -3         3   # BR(HH -> Strange strange)
     2.68394583E-01   2        -5         5   # BR(HH -> Bottom bottom)
     4.81731981E-02   2  -1000024   1000024   # BR(HH -> Chargino1 chargino1)
     1.75387222E-01   2  -1000024   1000037   # BR(HH -> Chargino1 chargino2)
     1.75387222E-01   2  -1000037   1000024   # BR(HH -> Chargino2 chargino1)
     1.12153683E-02   2  -1000037   1000037   # BR(HH -> Chargino2 chargino2)
     2.75153570E-02   2   1000022   1000022   # BR(HH -> neutralino1 neutralino1)
     8.48393542E-03   2   1000022   1000023   # BR(HH -> neutralino1 neutralino2)
     1.01851075E-01   2   1000022   1000025   # BR(HH -> neutralino1 neutralino3)
     5.90933305E-02   2   1000022   1000035   # BR(HH -> neutralino1 neutralino4)
     6.53325666E-04   2   1000023   1000023   # BR(HH -> neutralino2 neutralino2)
     1.49790051E-02   2   1000023   1000025   # BR(HH -> neutralino2 neutralino3)
     8.58074574E-03   2   1000023   1000035   # BR(HH -> neutralino2 neutralino4)
     2.43001362E-03   2   1000025   1000025   # BR(HH -> neutralino3 neutralino3)
     2.12410343E-02   2   1000025   1000035   # BR(HH -> neutralino3 neutralino4)
     1.88572128E-02   2   1000035   1000035   # BR(HH -> neutralino4 neutralino4)
     2.12602725E-06   2        25        25   # BR(HH -> h0 h0)
     7.49404451E-08   2  -1000011   1000011   # BR(HH -> Selectron1 selectron1)
     3.41862855E-14   2  -2000011   1000011   # BR(HH -> Selectron2 selectron1)
     3.41862855E-14   2  -1000011   2000011   # BR(HH -> Selectron1 selectron2)
     1.15003132E-07   2  -2000011   2000011   # BR(HH -> Selectron2 selectron2)
     7.36974781E-08   2  -1000013   1000013   # BR(HH -> Smuon1 smuon1)
     1.45849723E-09   2  -2000013   1000013   # BR(HH -> Smuon2 smuon1)
     1.45849723E-09   2  -1000013   2000013   # BR(HH -> Smuon1 smuon2)
     1.15884435E-07   2  -2000013   2000013   # BR(HH -> Smuon2 smuon2)
     6.91213843E-09   2  -1000015   1000015   # BR(HH -> Stau1 stau1)
     1.97972538E-04   2  -2000015   1000015   # BR(HH -> Stau2 stau1)
     1.97972538E-04   2  -1000015   2000015   # BR(HH -> Stau1 stau2)
     8.40310650E-08   2  -2000015   2000015   # BR(HH -> Stau2 stau2)
DECAY        36     8.00030747E+01   # Gamma(A0)
     6.52037526E-08   2        22        22   # BR(A0 -> photon photon)
     1.23402196E-07   2        22        23   # BR(A0 -> photon Z)
     6.26512085E-06   2        21        21   # BR(A0 -> gluon gluon)
     4.09685986E-09   2       -11        11   # BR(A0 -> Electron electron)
     1.82432034E-04   2       -13        13   # BR(A0 -> Muon muon)
     5.22625669E-02   2       -15        15   # BR(A0 -> Tau tau)
     1.79486506E-13   2        -2         2   # BR(A0 -> Up up)
     3.48203710E-08   2        -4         4   # BR(A0 -> Charm charm)
     2.52510962E-03   2        -6         6   # BR(A0 -> Top top)
     2.82134842E-07   2        -1         1   # BR(A0 -> Down down)
     1.02052111E-04   2        -3         3   # BR(A0 -> Strange strange)
     2.58384240E-01   2        -5         5   # BR(A0 -> Bottom bottom)
     5.40643754E-02   2  -1000024   1000024   # BR(A0 -> Chargino1 chargino1)
     1.73615046E-01   2  -1000024   1000037   # BR(A0 -> Chargino1 chargino2)
     1.73615046E-01   2  -1000037   1000024   # BR(A0 -> Chargino2 chargino1)
     1.63476247E-02   2  -1000037   1000037   # BR(A0 -> Chargino2 chargino2)
     3.08958458E-02   2   1000022   1000022   # BR(A0 -> neutralino1 neutralino1)
     9.55611358E-03   2   1000022   1000023   # BR(A0 -> neutralino1 neutralino2)
     8.50411589E-02   2   1000022   1000025   # BR(A0 -> neutralino1 neutralino3)
     7.40459357E-02   2   1000022   1000035   # BR(A0 -> neutralino1 neutralino4)
     7.38144925E-04   2   1000023   1000023   # BR(A0 -> neutralino2 neutralino2)
     1.24815966E-02   2   1000023   1000025   # BR(A0 -> neutralino2 neutralino3)
     1.07652887E-02   2   1000023   1000035   # BR(A0 -> neutralino2 neutralino4)
     2.18336481E-03   2   1000025   1000025   # BR(A0 -> neutralino3 neutralino3)
     1.89154284E-02   2   1000025   1000035   # BR(A0 -> neutralino3 neutralino4)
     2.38677357E-02   2   1000035   1000035   # BR(A0 -> neutralino4 neutralino4)
     9.70814213E-07   2        23        25   # BR(A0 -> Z h0)
     5.73714408E-40   2        25        25   # BR(A0 -> h0 h0)
     3.75266443E-14   2  -2000011   1000011   # BR(A0 -> Selectron2 selectron1)
     3.75266443E-14   2  -1000011   2000011   # BR(A0 -> Selectron1 selectron2)
     1.60438127E-09   2  -2000013   1000013   # BR(A0 -> Smuon2 smuon1)
     1.60438127E-09   2  -1000013   2000013   # BR(A0 -> Smuon1 smuon2)
     2.01572241E-04   2  -2000015   1000015   # BR(A0 -> Stau2 stau1)
     2.01572241E-04   2  -1000015   2000015   # BR(A0 -> Stau1 stau2)
DECAY        37     8.54626706E+01   # Gamma(Hp)
     4.80199551E-09   2       -11        12   # BR(Hp -> Electron nu_e)
     2.05300306E-04   2       -13        14   # BR(Hp -> Muon nu_mu)
     5.80706206E-02   2       -15        16   # BR(Hp -> Tau nu_tau)
     2.93204424E-07   2        -1         2   # BR(Hp -> Down up)
     4.96770045E-06   2        -3         2   # BR(Hp -> Strange up)
     3.13294837E-06   2        -5         2   # BR(Hp -> Bottom up)
     1.56197207E-08   2        -1         4   # BR(Hp -> Down charm)
     1.05710364E-04   2        -3         4   # BR(Hp -> Strange charm)
     4.38725001E-04   2        -5         4   # BR(Hp -> Bottom charm)
     2.05935721E-07   2        -1         6   # BR(Hp -> Down top)
     4.64763001E-06   2        -3         6   # BR(Hp -> Strange top)
     2.98804095E-01   2        -5         6   # BR(Hp -> Bottom top)
     1.45577317E-02   2   1000022   1000024   # BR(Hp -> neutralino1 chargino1)
     2.17035509E-02   2   1000022   1000037   # BR(Hp -> neutralino1 chargino2)
     1.23543794E-02   2   1000023   1000024   # BR(Hp -> neutralino2 chargino1)
     2.25870521E-01   2   1000023   1000037   # BR(Hp -> neutralino2 chargino2)
     1.74340740E-01   2   1000024   1000025   # BR(Hp -> chargino1 neutralino3)
     1.68815759E-02   2   1000025   1000037   # BR(Hp -> neutralino3 chargino2)
     1.72282159E-01   2   1000024   1000035   # BR(Hp -> chargino1 neutralino4)
     3.99211378E-03   2   1000035   1000037   # BR(Hp -> neutralino4 chargino2)
     9.09492343E-07   2        24        25   # BR(Hp -> W h0)
     8.00233911E-14   2        24        35   # BR(Hp -> W HH)
     3.69228883E-14   2  -1000011   1000012   # BR(Hp -> Selectron1 snu_e1)
     4.30491196E-07   2  -2000011   1000012   # BR(Hp -> Selectron2 snu_e1)
     1.57898627E-09   2  -1000013   1000014   # BR(Hp -> Smuon1 snu_mu1)
     4.31469882E-07   2  -2000013   1000014   # BR(Hp -> Smuon2 snu_mu1)
     3.77492978E-04   2  -1000015   1000016   # BR(Hp -> Stau1 snu_tau1)
     2.42557647E-07   2  -2000015   1000016   # BR(Hp -> Stau2 snu_tau1)
DECAY         6     2.43000000E+00   # top
#    BR                NDA      ID1      ID2
     1.00000000E+00    2           5        24   # BR(t -> b W)
Block HiggsBoundsInputHiggsCouplingsFermions
# ScalarNormEffCoupSq PseudoSNormEffCoupSq NP IP1 IP2 IP2
    9.20878196E-01    0.00000000E+00        3  25   5   5  # h0-b-b eff. coupling^2, normalised to SM
    5.44200110E+02    0.00000000E+00        3  35   5   5  # H0-b-b eff. coupling^2, normalised to SM
    0.00000000E+00    5.44120988E+02        3  36   5   5  # A0-b-b eff. coupling^2, normalised to SM
#
    1.00014541E+00    0.00000000E+00        3  25   6   6  # h0-t-t eff. coupling^2, normalised to SM
    1.69241440E-03    0.00000000E+00        3  35   6   6  # H0-t-t eff. coupling^2, normalised to SM
    0.00000000E+00    1.83782655E-03        3  36   6   6  # A0-t-t eff. coupling^2, normalised to SM
#
    9.20878196E-01    0.00000000E+00        3  25  15  15  # h0-tau-tau eff. coupling^2, normalised to SM
    5.44200110E+02    0.00000000E+00        3  35  15  15  # H0-tau-tau eff. coupling^2, normalised to SM
    0.00000000E+00    5.44120988E+02        3  36  15  15  # A0-tau-tau eff. coupling^2, normalised to SM
#
Block HiggsBoundsInputHiggsCouplingsBosons
    9.99997004E-01        3  25  24  24  # h0-W-W eff. coupling^2, normalised to SM
    2.99584381E-06        3  35  24  24  # H0-W-W eff. coupling^2, normalised to SM
    0.00000000E+00        3  36  24  24  # A0-W-W eff. coupling^2, normalised to SM
#
    9.99997004E-01        3  25  23  23  # h0-Z-Z eff. coupling^2, normalised to SM
    2.99584381E-06        3  35  23  23  # H0-Z-Z eff. coupling^2, normalised to SM
    0.00000000E+00        3  36  23  23  # A0-Z-Z eff. coupling^2, normalised to SM
#
    1.26970639E+00        3  25  21  21  # h0-g-g eff. coupling^2, normalised to SM
    8.88690447E-04        3  35  21  21  # H0-g-g eff. coupling^2, normalised to SM
    9.42255194E-02        3  36  21  21  # A0-g-g eff. coupling^2, normalised to SM
#
    0.00000000E+00        3  25  25  23  # h0-h0-Z eff. coupling^2, normalised to SM
    0.00000000E+00        3  35  25  23  # H0-h0-Z eff. coupling^2, normalised to SM
    2.99584381E-06        3  36  25  23  # A0-h0-Z eff. coupling^2, normalised to SM
    0.00000000E+00        3  35  35  23  # H0-H0-Z eff. coupling^2, normalised to SM
    9.99997004E-01        3  36  35  23  # A0-H0-Z eff. coupling^2, normalised to SM
    0.00000000E+00        3  36  36  23  # A0-A0-Z eff. coupling^2, normalised to SM
#
    0.00000000E+00        4  25  21  21  23  # h0-g-g-Z eff. coupling^2, normalised to SM
    0.00000000E+00        4  35  21  21  23  # H0-g-g-Z eff. coupling^2, normalised to SM
    0.00000000E+00        4  36  21  21  23  # A0-g-g-Z eff. coupling^2, normalised to SM
Block SPhenoLowEnergy  # low energy observables
    1    3.18499113E-04   # BR(b -> s gamma)
    2    1.58998157E-06   # BR(b -> s mu+ mu-)
    3    3.52423864E-05   # BR(b -> s nu nu)
    4    2.64771326E-15   # BR(Bd -> e+ e-)
    5    1.13107254E-10   # BR(Bd -> mu+ mu-)
    6    2.36744794E-08   # BR(Bd -> tau+ tau-)
    7    8.89374416E-14   # BR(Bs -> e+ e-)
    8    3.79940318E-09   # BR(Bs -> mu+ mu-)
    9    8.05785825E-07   # BR(Bs -> tau+ tau-)
   10    9.66098855E-05   # BR(B_u -> tau nu)
   11    9.97943130E-01   # BR(B_u -> tau nu)/BR(B_u -> tau nu)_SM
   12    5.42054709E-01   # |Delta(M_Bd)| [ps^-1] 
   13    1.93669259E+01   # |Delta(M_Bs)| [ps^-1] 
   14    0.00000000E+00   # neutron EDM according to the chiral quark model
   15    0.00000000E+00   # neutron EDM according to the relativistic quark-parton model
   16    2.15757718E-03   # epsilon_K
   17    2.28166093E-15   # Delta(M_K)
   18    2.47917037E-11   # BR(K^0 -> pi^0 nu nu)
   19    8.28853460E-11   # BR(K^+ -> pi^+ nu nu)
   20    6.81011321E-15   # Delta(g-2)_electron/2
   21    2.91199027E-10   # Delta(g-2)_muon/2
   22    3.06918458E-08   # Delta(g-2)_tau/2
   23    0.00000000E+00   # electric dipole moment of the electron
   24    0.00000000E+00   # electric dipole moment of the muon
   25    0.00000000E+00   # electric dipole moment of the tau
   26    0.00000000E+00   # Br(mu -> e gamma)
   27    0.00000000E+00   # Br(tau -> e gamma)
   28    0.00000000E+00   # Br(tau -> mu gamma)
   29    0.00000000E+00   # Br(mu -> 3 e)
   30    0.00000000E+00   # Br(tau -> 3 e)
   31    0.00000000E+00   # Br(tau -> 3 mu)
   39    6.05997276E-05   # Delta(rho_parameter)
   40    0.00000000E+00   # BR(Z -> e mu)
   41    0.00000000E+00   # BR(Z -> e tau)
   42    0.00000000E+00   # BR(Z -> mu tau)
Block FWCOEF Q=  1.60000000E+02  # Wilson coefficients at scale Q
#    id        order  M        value         comment
     0305 4422   00   0    -1.88819110E-01   # C7
     0305 4422   00   2    -1.85834544E-01   # C7
     0305 4322   00   2    -3.62298963E-05   # C7'
     0305 6421   00   0    -9.52278348E-02   # C8
     0305 6421   00   2    -9.81112659E-02   # C8
     0305 6321   00   2    -1.01906809E-04   # C8'
 03051111 4133   00   0     1.62489676E+00   # C9 e+e-
 03051111 4133   00   2     1.62516662E+00   # C9 e+e-
 03051111 4233   00   2     1.51330968E-04   # C9' e+e-
 03051111 4137   00   0    -4.44758886E+00   # C10 e+e-
 03051111 4137   00   2    -4.44485778E+00   # C10 e+e-
 03051111 4237   00   2    -1.12196742E-03   # C10' e+e-
 03051313 4133   00   0     1.62489676E+00   # C9 mu+mu-
 03051313 4133   00   2     1.62516596E+00   # C9 mu+mu-
 03051313 4233   00   2     1.51330859E-04   # C9' mu+mu-
 03051313 4137   00   0    -4.44758886E+00   # C10 mu+mu-
 03051313 4137   00   2    -4.44485843E+00   # C10 mu+mu-
 03051313 4237   00   2    -1.12196768E-03   # C10' mu+mu-
 03051212 4137   00   0     1.50535012E+00   # C11 nu_1 nu_1
 03051212 4137   00   2     1.50478060E+00   # C11 nu_1 nu_1
 03051212 4237   00   2     2.42696713E-04   # C11' nu_1 nu_1
 03051414 4137   00   0     1.50535012E+00   # C11 nu_2 nu_2
 03051414 4137   00   2     1.50478060E+00   # C11 nu_2 nu_2
 03051414 4237   00   2     2.42696716E-04   # C11' nu_2 nu_2
 03051616 4137   00   0     1.50535012E+00   # C11 nu_3 nu_3
 03051616 4137   00   2     1.50477928E+00   # C11 nu_3 nu_3
 03051616 4237   00   2     2.42698274E-04   # C11' nu_3 nu_3
Block IMFWCOEF Q=  1.60000000E+02  # Im(Wilson coefficients) at scale Q
#    id        order  M        value         comment
     0305 4422   00   0     3.85826270E-07   # C7
     0305 4422   00   2     8.01710469E-06   # C7
     0305 4322   00   2     7.32747059E-07   # C7'
     0305 6421   00   0     3.30485716E-07   # C8
     0305 6421   00   2    -1.10690652E-05   # C8
     0305 6321   00   2    -2.62227470E-09   # C8'
 03051111 4133   00   2    -1.40636379E-07   # C9 e+e-
 03051111 4233   00   2     2.86016518E-06   # C9' e+e-
 03051111 4137   00   2     2.08143237E-06   # C10 e+e-
 03051111 4237   00   2    -2.12067538E-05   # C10' e+e-
 03051313 4133   00   2    -1.40702261E-07   # C9 mu+mu-
 03051313 4233   00   2     2.86016346E-06   # C9' mu+mu-
 03051313 4137   00   2     2.08149924E-06   # C10 mu+mu-
 03051313 4237   00   2    -2.12067588E-05   # C10' mu+mu-
 03051212 4137   00   2    -7.02598060E-08   # C11 nu_1 nu_1
 03051212 4237   00   2     4.58732077E-06   # C11' nu_1 nu_1
 03051414 4137   00   2    -7.02569447E-08   # C11 nu_2 nu_2
 03051414 4237   00   2     4.58732076E-06   # C11' nu_2 nu_2
 03051616 4137   00   2    -9.38810609E-08   # C11 nu_3 nu_3
 03051616 4237   00   2     4.58733503E-06   # C11' nu_3 nu_3
