# SUSY Les Houches Accord 2 - MSSM spectrum + Decays
# SPheno v4.0.5be
# W. Porod, Comput. Phys. Commun. 153 (2003) 275-315, hep-ph/0301101;
# W. Porod, F.~Staub, Comput. Phys. Commun. 183 (2012) 2458
#                     arXiv:1104.1573 [hep-ph] 
# in case of problems send email to porod@physik.uni-wuerzburg.de
# Created: 12.05.2022,  13:40
Block SPINFO         # Program information
     1   SPheno      # spectrum calculator
     2   v4.0.5be    # version number
#
Block SPhenoINFO     # SPheno specific information
    1      2         # using 2-loop RGEs
    2      2         # using pole masses for boundary conditions at mZ
Block MODSEL  # Model selection
    1    0    # general MSSM
Block MINPAR  # Input parameters
    3    3.12072216E+01  # tanb at m_Z    
    4    1.00000000E+00  # Sign(mu)
Block EXTPAR  # non-universal input parameters
    0    4.33269424E+03  # scale for input parameters
    1   -4.03445713E+01  # M_1
    2   -1.17150029E+03  # M_2
    3    4.25877603E+03  # M_3
   11    7.45446952E+03  # A_t
   12    5.94503286E+02  # A_b
   13    6.93559262E+02  # A_tau
   23    3.01890380E+02  # mu
   25    2.99837153E+01  # tan(beta)
   26    2.27485698E+03  # m_A, pole mass
   31    1.00000000E+04  # M_L11
   32    1.00000000E+04  # M_L22
   33    1.00000000E+04  # M_L33
   34    1.00000000E+04  # M_E11
   35    1.00000000E+04  # M_E22
   36    1.00000000E+04  # M_E33
   41    1.00000000E+04  # M_Q11
   42    1.00000000E+04  # M_Q22
   43    4.76753676E+03  # M_Q33
   44    1.00000000E+04  # M_U11
   45    1.00000000E+04  # M_U22
   46    3.87379282E+03  # M_U33
   47    1.00000000E+04  # M_D11
   48    1.00000000E+04  # M_D22
   49    2.55588971E+03  # M_D33
Block SMINPUTS  # SM parameters
         1     1.27908970E+02  # alpha_em^-1(MZ)^MSbar
         2     1.16637870E-05  # G_mu [GeV^-2]
         3     1.18400000E-01  # alpha_s(MZ)^MSbar
         4     9.11876000E+01  # m_Z(pole)
         5     4.18000000E+00  # m_b(m_b), MSbar
         6     1.73200000E+02  # m_t(pole)
         7     1.77700000E+00  # m_tau(pole)
         8     0.00000000E+00  # m_nu_3
        11     5.10998930E-04  # m_e(pole)
        12     0.00000000E+00  # m_nu_1
        13     1.05658372E-01  # m_muon(pole)
        14     0.00000000E+00  # m_nu_2
        21     5.00000000E-03  # m_d(2 GeV), MSbar
        22     2.50000000E-03  # m_u(2 GeV), MSbar
        23     9.50000000E-02  # m_s(2 GeV), MSbar
        24     1.27000000E+00  # m_c(m_c), MSbar
Block gauge Q=  4.33269424E+03  # (SUSY scale)
   1    3.55362975E-01  # g'(Q)^DRbar
   2    6.65198874E-01  # g(Q)^DRbar
   3    1.21977796E+00  # g3(Q)^DRbar
Block Yu Q=  4.33269424E+03  # (SUSY scale)
  1  1     8.38903388E-06   # Y_u(Q)^DRbar
  2  2     4.26162921E-03   # Y_c(Q)^DRbar
  3  3     1.01346268E+00   # Y_t(Q)^DRbar
Block Yd Q=  4.33269424E+03  # (SUSY scale)
  1  1     5.05449349E-04   # Y_d(Q)^DRbar
  2  2     9.60353763E-03   # Y_s(Q)^DRbar
  3  3     5.01247369E-01   # Y_b(Q)^DRbar
Block Ye Q=  4.33269424E+03  # (SUSY scale)
  1  1     8.82046075E-05   # Y_e(Q)^DRbar
  2  2     1.82379154E-02   # Y_mu(Q)^DRbar
  3  3     3.06731733E-01   # Y_tau(Q)^DRbar
Block Au Q=  4.33269424E+03  # (SUSY scale)
  1  1     0.00000000E+00   # A_u(Q)^DRbar
  2  2     0.00000000E+00   # A_c(Q)^DRbar
  3  3     7.45446592E+03   # A_t(Q)^DRbar
Block Ad Q=  4.33269424E+03  # (SUSY scale)
  1  1     0.00000000E+00   # A_d(Q)^DRbar
  2  2     0.00000000E+00   # A_s(Q)^DRbar
  3  3     5.94503402E+02   # A_b(Q)^DRbar
Block Ae Q=  4.33269424E+03  # (SUSY scale)
  1  1     0.00000000E+00   # A_e(Q)^DRbar
  2  2     0.00000000E+00   # A_mu(Q)^DRbar
  3  3     6.93559454E+02   # A_tau(Q)^DRbar
Block MSOFT Q=  4.33269424E+03  # soft SUSY breaking masses at Q
   1   -4.03445713E+01  # M_1
   2   -1.17150029E+03  # M_2
   3    4.25877603E+03  # M_3
  21    5.10710184E+06  # M^2_(H,d)
  22    2.77346788E+05  # M^2_(H,u)
  31    1.00000000E+04  # M_(L,11)
  32    1.00000000E+04  # M_(L,22)
  33    1.00000000E+04  # M_(L,33)
  34    1.00000000E+04  # M_(E,11)
  35    1.00000000E+04  # M_(E,22)
  36    1.00000000E+04  # M_(E,33)
  41    1.00000000E+04  # M_(Q,11)
  42    1.00000000E+04  # M_(Q,22)
  43    4.76753676E+03  # M_(Q,33)
  44    1.00000000E+04  # M_(U,11)
  45    1.00000000E+04  # M_(U,22)
  46    3.87379282E+03  # M_(U,33)
  47    1.00000000E+04  # M_(D,11)
  48    1.00000000E+04  # M_(D,22)
  49    2.55588971E+03  # M_(D,33)
Block MASS  # Mass spectrum
#   PDG code      mass          particle
         6     1.73200000E+02  # m_t(pole)
        23     9.11876000E+01  # m_Z(pole)
        24     8.04299946E+01  # W+
        15     1.77700000E+00  # m_tau(pole)
        25     1.28685657E+02  # h0
        35     2.27454944E+03  # H0
        36     2.27485698E+03  # A0
        37     2.27704060E+03  # H+
   1000001     1.01066945E+04  # ~d_L
   2000001     1.00824261E+04  # ~d_R
   1000002     1.01063366E+04  # ~u_L
   2000002     1.00851247E+04  # ~u_R
   1000003     1.01066952E+04  # ~s_L
   2000003     1.00824271E+04  # ~s_R
   1000004     1.01063373E+04  # ~c_L
   2000004     1.00851250E+04  # ~c_R
   1000005     2.74020710E+03  # ~b_1
   2000005     4.81542232E+03  # ~b_2
   1000006     3.88722388E+03  # ~t_1
   2000006     4.82921488E+03  # ~t_2
   1000011     1.00208064E+04  # ~e_L-
   2000011     1.00093570E+04  # ~e_R-
   1000012     1.00200445E+04  # ~nu_eL
   1000013     1.00208092E+04  # ~mu_L-
   2000013     1.00093620E+04  # ~mu_R-
   1000014     1.00200472E+04  # ~nu_muL
   1000015     1.00107786E+04  # ~tau_1-
   2000015     1.00216126E+04  # ~tau_2-
   1000016     1.00208005E+04  # ~nu_tauL
   1000021     4.76134880E+03  # ~g
   1000022     4.02194013E+01  # ~chi_10
   1000023     3.19293141E+02  # ~chi_20
   1000025     3.24337454E+02  # ~chi_30
   1000035     1.26325582E+03  # ~chi_40
   1000024     3.18342686E+02  # ~chi_1+
   1000037     1.26259486E+03  # ~chi_2+
# Higgs mixing
Block alpha # Effective Higgs mixing angle
          -3.21696758E-02   # alpha
Block Hmix Q=  4.33269424E+03  # Higgs mixing parameters
   1    3.01890380E+02  # mu
   2    2.99837153E+01  # tan[beta](Q)
   3    2.42841381E+02  # v(Q)
   4    5.17497428E+06  # m^2_A(Q)
Block stopmix # stop mixing matrix
   1  1    -1.21423501E-01   # Re[R_st(1,1)]
   1  2     9.92600793E-01   # Re[R_st(1,2)]
   2  1    -9.92600793E-01   # Re[R_st(2,1)]
   2  2    -1.21423501E-01   # Re[R_st(2,2)]
Block sbotmix # sbottom mixing matrix
   1  1     1.10225360E-03   # Re[R_sb(1,1)]
   1  2     9.99999393E-01   # Re[R_sb(1,2)]
   2  1    -9.99999393E-01   # Re[R_sb(2,1)]
   2  2     1.10225360E-03   # Re[R_sb(2,2)]
Block staumix # stau mixing matrix
   1  1     6.79769539E-02   # Re[R_sta(1,1)]
   1  2     9.97686892E-01   # Re[R_sta(1,2)]
   2  1    -9.97686892E-01   # Re[R_sta(2,1)]
   2  2     6.79769539E-02   # Re[R_sta(2,2)]
Block Nmix # neutralino mixing matrix
   1  1    -9.90022849E-01   # Re[N(1,1)]
   1  2     5.03921356E-04   # Re[N(1,2)]
   1  3    -1.40278677E-01   # Re[N(1,3)]
   1  4    -1.32814568E-02   # Re[N(1,4)]
   2  1     1.08853343E-01   # Re[N(2,1)]
   2  2     5.79220300E-02   # Re[N(2,2)]
   2  3    -7.01579346E-01   # Re[N(2,3)]
   2  4    -7.01842154E-01   # Re[N(2,4)]
   3  1    -8.94403180E-02   # Re[N(3,1)]
   3  2     3.72828898E-02   # Re[N(3,2)]
   3  3     6.98492809E-01   # Re[N(3,3)]
   3  4    -7.09026242E-01   # Re[N(3,4)]
   4  1     2.47740436E-03   # Re[N(4,1)]
   4  2    -9.97624564E-01   # Re[N(4,2)]
   4  3    -1.47006794E-02   # Re[N(4,3)]
   4  4    -6.72531178E-02   # Re[N(4,4)]
Block Umix # chargino mixing matrix
   1  1    -2.08157120E-02   # Re[U(1,1)]
   1  2     9.99783330E-01   # Re[U(1,2)]
   2  1    -9.99783330E-01   # Re[U(2,1)]
   2  2    -2.08157120E-02   # Re[U(2,2)]
Block Vmix # chargino mixing matrix
   1  1     9.51728206E-02   # Re[V(1,1)]
   1  2     9.95460765E-01   # Re[V(1,2)]
   2  1     9.95460765E-01   # Re[V(2,1)]
   2  2    -9.51728206E-02   # Re[V(2,2)]
DECAY        23     2.49520000E+00   # Z
DECAY        24     2.08500000E+00   # W
DECAY   2000011     5.02897076E+01   # ~e^-_R
#    BR                NDA      ID1      ID2
     9.80184827E-01    2     1000022        11   # BR(~e^-_R -> chi^0_1 e^-)
     1.18258225E-02    2     1000023        11   # BR(~e^-_R -> chi^0_2 e^-)
     7.98337568E-03    2     1000025        11   # BR(~e^-_R -> chi^0_3 e^-)
DECAY   1000011     1.40748637E+02   # ~e^-_L
#    BR                NDA      ID1      ID2
     8.74885960E-02    2     1000022        11   # BR(~e^-_L -> chi^0_1 e^-)
     4.21354676E-03    2     1000023        11   # BR(~e^-_L -> chi^0_2 e^-)
     3.01250937E-01    2     1000035        11   # BR(~e^-_L -> chi^0_4 e^-)
     2.71017375E-04    2    -1000024        12   # BR(~e^-_L -> chi^-_1 nu_e)
     6.06741434E-01    2    -1000037        12   # BR(~e^-_L -> chi^-_2 nu_e)
#    BR                NDA      ID1      ID2       ID3
DECAY   2000013     5.04219304E+01   # ~mu^-_R
#    BR                NDA      ID1      ID2
     9.77640798E-01    2     1000022        13   # BR(~mu^-_R -> chi^0_1 mu^-)
     1.24400689E-02    2     1000023        13   # BR(~mu^-_R -> chi^0_2 mu^-)
     8.60198922E-03    2     1000025        13   # BR(~mu^-_R -> chi^0_3 mu^-)
     1.31038889E-03    2    -1000024        14   # BR(~mu^-_R -> chi^-_1 nu_mu)
DECAY   1000013     1.40814853E+02   # ~mu^-_L
#    BR                NDA      ID1      ID2
     8.74567463E-02    2     1000022        13   # BR(~mu^-_L -> chi^0_1 mu^-)
     4.44287610E-03    2     1000023        13   # BR(~mu^-_L -> chi^0_2 mu^-)
     2.63718004E-04    2     1000025        13   # BR(~mu^-_L -> chi^0_3 mu^-)
     3.01109467E-01    2     1000035        13   # BR(~mu^-_L -> chi^0_4 mu^-)
     2.70890009E-04    2    -1000024        14   # BR(~mu^-_L -> chi^-_1 nu_mu)
     6.06456302E-01    2    -1000037        14   # BR(~mu^-_L -> chi^-_2 nu_mu)
#    BR                NDA      ID1      ID2       ID3
DECAY   1000015     8.80325791E+01   # ~tau^-_1
#    BR                NDA      ID1      ID2
     5.65556173E-01    2     1000022        15   # BR(~tau^-_1 -> chi^0_1 tau^-)
     1.11304012E-01    2     1000023        15   # BR(~tau^-_1 -> chi^0_2 tau^-)
     1.05545307E-01    2     1000025        15   # BR(~tau^-_1 -> chi^0_3 tau^-)
     1.64156487E-03    2     1000035        15   # BR(~tau^-_1 -> chi^0_4 tau^-)
     2.12648124E-01    2    -1000024        16   # BR(~tau^-_1 -> chi^-_1 nu_tau)
     3.30481929E-03    2    -1000037        16   # BR(~tau^-_1 -> chi^-_2 nu_tau)
DECAY   2000015     1.59143596E+02   # ~tau^-_2
#    BR                NDA      ID1      ID2
     7.89564479E-02    2     1000022        15   # BR(~tau^-_2 -> chi^0_1 tau^-)
     6.16290904E-02    2     1000023        15   # BR(~tau^-_2 -> chi^0_2 tau^-)
     5.88821931E-02    2     1000025        15   # BR(~tau^-_2 -> chi^0_3 tau^-)
     2.65595344E-01    2     1000035        15   # BR(~tau^-_2 -> chi^0_4 tau^-)
     5.34875107E-01    2    -1000037        16   # BR(~tau^-_2 -> chi^-_2 nu_tau)
#    BR                NDA      ID1      ID2       ID3
DECAY   1000012     1.40752940E+02   # ~nu_e
#    BR                NDA      ID1      ID2
     8.78133024E-02    2     1000022        12   # BR(~nu_e -> chi^0_1 nu_e)
     2.26252766E-03    2     1000025        12   # BR(~nu_e -> chi^0_3 nu_e)
     3.02820011E-01    2     1000035        12   # BR(~nu_e -> chi^0_4 nu_e)
     5.66493440E-03    2     1000024        11   # BR(~nu_e -> chi^+_1 e^-)
     6.01439208E-01    2     1000037        11   # BR(~nu_e -> chi^+_2 e^-)
#    BR                NDA      ID1      ID2       ID3
DECAY   1000014     1.40819149E+02   # ~nu_mu
#    BR                NDA      ID1      ID2
     8.77720385E-02    2     1000022        14   # BR(~nu_mu -> chi^0_1 nu_mu)
     2.26146449E-03    2     1000025        14   # BR(~nu_mu -> chi^0_3 nu_mu)
     3.02677720E-01    2     1000035        14   # BR(~nu_mu -> chi^0_4 nu_mu)
     6.13196648E-03    2     1000024        13   # BR(~nu_mu -> chi^+_1 mu^-)
     6.01156794E-01    2     1000037        13   # BR(~nu_mu -> chi^+_2 mu^-)
#    BR                NDA      ID1      ID2       ID3
DECAY   1000016     1.59482526E+02   # ~nu_tau
#    BR                NDA      ID1      ID2
     7.75063785E-02    2     1000022        16   # BR(~nu_tau -> chi^0_1 nu_tau)
     1.99696829E-03    2     1000025        16   # BR(~nu_tau -> chi^0_3 nu_tau)
     2.67278374E-01    2     1000035        16   # BR(~nu_tau -> chi^0_4 nu_tau)
     1.22320435E-01    2     1000024        15   # BR(~nu_tau -> chi^+_1 tau^-)
     5.30897829E-01    2     1000037        15   # BR(~nu_tau -> chi^+_2 tau^-)
#    BR                NDA      ID1      ID2       ID3
DECAY   2000001     4.86084130E+02   # ~d_R
#    BR                NDA      ID1      ID2
     1.13499065E-02    2     1000022         1   # BR(~d_R -> chi^0_1 d)
     1.36990935E-04    2     1000023         1   # BR(~d_R -> chi^0_2 d)
     9.88420432E-01    2     1000021         1   # BR(~d_R -> ~g d)
DECAY   1000001     6.13675780E+02   # ~d_L
#    BR                NDA      ID1      ID2
     2.26583536E-03    2     1000022         1   # BR(~d_L -> chi^0_1 d)
     1.07486364E-04    2     1000023         1   # BR(~d_L -> chi^0_2 d)
     2.04856023E-04    2     1000025         1   # BR(~d_L -> chi^0_3 d)
     6.99704256E-02    2     1000035         1   # BR(~d_L -> chi^0_4 d)
     1.40427587E-01    2    -1000037         2   # BR(~d_L -> chi^-_2 u)
     7.86961116E-01    2     1000021         1   # BR(~d_L -> ~g d)
DECAY   2000003     4.86121055E+02   # ~s_R
#    BR                NDA      ID1      ID2
     1.13497922E-02    2     1000022         3   # BR(~s_R -> chi^0_1 s)
     1.55622608E-04    2     1000023         3   # BR(~s_R -> chi^0_2 s)
     1.10966411E-04    2     1000025         3   # BR(~s_R -> chi^0_3 s)
     9.88345563E-01    2     1000021         3   # BR(~s_R -> ~g s)
DECAY   1000003     6.13697961E+02   # ~s_L
#    BR                NDA      ID1      ID2
     2.26634655E-03    2     1000022         3   # BR(~s_L -> chi^0_1 s)
     1.22284655E-04    2     1000023         3   # BR(~s_L -> chi^0_2 s)
     2.19520184E-04    2     1000025         3   # BR(~s_L -> chi^0_3 s)
     6.99679084E-02    2     1000035         3   # BR(~s_L -> chi^0_4 s)
     1.40422575E-01    2    -1000037         4   # BR(~s_L -> chi^-_2 c)
     7.86932790E-01    2     1000021         3   # BR(~s_L -> ~g s)
DECAY   1000005     2.80741727E+01   # ~b_1
#    BR                NDA      ID1      ID2
     6.30565872E-02    2     1000022         5   # BR(~b_1 -> chi^0_1 b)
     2.34299055E-01    2     1000023         5   # BR(~b_1 -> chi^0_2 b)
     2.31780469E-01    2     1000025         5   # BR(~b_1 -> chi^0_3 b)
     4.70695406E-01    2    -1000024         6   # BR(~b_1 -> chi^-_1 t)
     1.11750197E-04    2    -1000037         6   # BR(~b_1 -> chi^-_2 t)
DECAY   2000005     2.23995609E+02   # ~b_2
#    BR                NDA      ID1      ID2
     5.05502255E-03    2     1000022         5   # BR(~b_2 -> chi^0_1 b)
     5.25656929E-02    2     1000023         5   # BR(~b_2 -> chi^0_2 b)
     5.22315766E-02    2     1000025         5   # BR(~b_2 -> chi^0_3 b)
     8.17544302E-02    2     1000035         5   # BR(~b_2 -> chi^0_4 b)
     4.30396160E-01    2    -1000024         6   # BR(~b_2 -> chi^-_1 t)
     1.67968205E-01    2    -1000037         6   # BR(~b_2 -> chi^-_2 t)
     8.43418503E-04    2     1000021         5   # BR(~b_2 -> ~g b)
     2.08997181E-01    2     1000006       -24   # BR(~b_2 -> ~t_1 W^-)
     1.24808917E-04    2     1000005        25   # BR(~b_2 -> ~b_1 h^0)
DECAY   2000002     5.03251907E+02   # ~u_R
#    BR                NDA      ID1      ID2
     4.38626071E-02    2     1000022         2   # BR(~u_R -> chi^0_1 u)
     5.29212767E-04    2     1000023         2   # BR(~u_R -> chi^0_2 u)
     3.57261067E-04    2     1000025         2   # BR(~u_R -> chi^0_3 u)
     9.55250653E-01    2     1000021         2   # BR(~u_R -> ~g u)
DECAY   1000002     6.13658735E+02   # ~u_L
#    BR                NDA      ID1      ID2
     2.24005772E-03    2     1000022         2   # BR(~u_L -> chi^0_1 u)
     4.32342804E-04    2     1000023         2   # BR(~u_L -> chi^0_2 u)
     6.98460779E-02    2     1000035         2   # BR(~u_L -> chi^0_4 u)
     1.31066380E-03    2     1000024         1   # BR(~u_L -> chi^+_1 d)
     1.39214558E-01    2     1000037         1   # BR(~u_L -> chi^+_2 d)
     7.86923307E-01    2     1000021         2   # BR(~u_L -> ~g u)
DECAY   2000004     5.03259178E+02   # ~c_R
#    BR                NDA      ID1      ID2
     4.38619743E-02    2     1000022         4   # BR(~c_R -> chi^0_1 c)
     5.32763750E-04    2     1000023         4   # BR(~c_R -> chi^0_2 c)
     3.60888963E-04    2     1000025         4   # BR(~c_R -> chi^0_3 c)
     9.55236851E-01    2     1000021         4   # BR(~c_R -> ~g c)
DECAY   1000004     6.13680881E+02   # ~c_L
#    BR                NDA      ID1      ID2
     2.23997800E-03    2     1000022         4   # BR(~c_L -> chi^0_1 c)
     4.35252954E-04    2     1000023         4   # BR(~c_L -> chi^0_2 c)
     6.98435828E-02    2     1000035         4   # BR(~c_L -> chi^0_4 c)
     1.34067713E-03    2     1000024         3   # BR(~c_L -> chi^+_1 s)
     1.39209557E-01    2     1000037         3   # BR(~c_L -> chi^+_2 s)
     7.86894976E-01    2     1000021         4   # BR(~c_L -> ~g c)
DECAY   1000006     1.64927671E+02   # ~t_1
#    BR                NDA      ID1      ID2
     5.11255894E-02    2     1000022         6   # BR(~t_1 -> chi^0_1 t)
     2.33944626E-01    2     1000023         6   # BR(~t_1 -> chi^0_2 t)
     2.41968652E-01    2     1000025         6   # BR(~t_1 -> chi^0_3 t)
     4.72793277E-01    2     1000024         5   # BR(~t_1 -> chi^+_1 b)
#    BR                NDA      ID1      ID2       ID3
DECAY   2000006     2.39875819E+02   # ~t_2
#    BR                NDA      ID1      ID2
     3.08936153E-03    2     1000022         6   # BR(~t_2 -> chi^0_1 t)
     2.00741452E-01    2     1000023         6   # BR(~t_2 -> chi^0_2 t)
     2.01501104E-01    2     1000025         6   # BR(~t_2 -> chi^0_3 t)
     7.89525338E-02    2     1000035         6   # BR(~t_2 -> chi^0_4 t)
     9.96534741E-02    2     1000024         5   # BR(~t_2 -> chi^+_1 b)
     1.55617432E-01    2     1000037         5   # BR(~t_2 -> chi^+_2 b)
     1.18913643E-04    2     1000005        24   # BR(~t_2 -> ~b_1 W^+)
     9.98225451E-02    2     1000006        23   # BR(~t_2 -> ~t_1 Z)
     1.60503185E-01    2     1000006        25   # BR(~t_2 -> ~t_1 h^0)
DECAY   1000024     2.06918992E-01   # chi^+_1
#    BR                NDA      ID1      ID2
     9.99534322E-01    2     1000022        24   # BR(chi^+_1 -> chi^0_1 W^+)
#    BR                NDA      ID1      ID2       ID3
     4.65660466E-04    3     1000022        -5         6   # BR(chi^+_1 -> chi^0_1 b_bar t)
DECAY   1000037     1.07358128E+01   # chi^+_2
#    BR                NDA      ID1      ID2
     3.29529649E-04    2     1000022        24   # BR(chi^+_2 -> chi^0_1 W^+)
     2.48961349E-01    2     1000023        24   # BR(chi^+_2 -> chi^0_2 W^+)
     2.45985129E-01    2     1000025        24   # BR(chi^+_2 -> chi^0_3 W^+)
     2.45443443E-01    2     1000024        23   # BR(chi^+_2 -> chi^+_1 Z)
     2.41550752E-01    2     1000024        25   # BR(chi^+_2 -> chi^+_1 h^0)
#    BR                NDA      ID1      ID2       ID3
     5.96495543E-03    3     1000024         6        -6   # BR(chi^+_2 -> chi^+_1 t t_bar)
     6.15863780E-03    3     1000023        -5         6   # BR(chi^+_2 -> chi^0_2 b_bar t)
     5.57623456E-03    3     1000025        -5         6   # BR(chi^+_2 -> chi^0_3 b_bar t)
DECAY   1000022     0.00000000E+00   # chi^0_1
DECAY   1000023     1.68791672E-01   # chi^0_2
#    BR                NDA      ID1      ID2
     5.15275215E-01    2     1000022        23   # BR(chi^0_2 -> chi^0_1 Z)
     4.84695189E-01    2     1000022        25   # BR(chi^0_2 -> chi^0_1 h^0)
#    BR                NDA      ID1      ID2       ID3
DECAY   1000025     2.30008132E-01   # chi^0_3
#    BR                NDA      ID1      ID2
     5.76058193E-01    2     1000022        23   # BR(chi^0_3 -> chi^0_1 Z)
     4.23934394E-01    2     1000022        25   # BR(chi^0_3 -> chi^0_1 h^0)
#    BR                NDA      ID1      ID2       ID3
DECAY   1000035     1.22049307E+01   # chi^0_4
#    BR                NDA      ID1      ID2
     2.19758123E-01    2     1000024       -24   # BR(chi^0_4 -> chi^+_1 W^-)
     2.19758123E-01    2    -1000024        24   # BR(chi^0_4 -> chi^-_1 W^+)
     6.32772760E-02    2     1000023        23   # BR(chi^0_4 -> chi^0_2 Z)
     1.55195789E-01    2     1000025        23   # BR(chi^0_4 -> chi^0_3 Z)
     1.67751056E-04    2     1000022        25   # BR(chi^0_4 -> chi^0_1 h^0)
     1.50983336E-01    2     1000023        25   # BR(chi^0_4 -> chi^0_2 h^0)
     1.73096722E-01    2     1000025        25   # BR(chi^0_4 -> chi^0_3 h^0)
#    BR                NDA      ID1      ID2       ID3
     2.44506952E-03    3     1000023         6        -6   # BR(chi^0_4 -> chi^0_2 t t_bar)
     2.61821610E-03    3     1000025         6        -6   # BR(chi^0_4 -> chi^0_3 t t_bar)
     6.27986685E-03    3     1000024         5        -6   # BR(chi^0_4 -> chi^+_1 b t_bar)
     6.27986685E-03    3    -1000024        -5         6   # BR(chi^0_4 -> chi^-_1 b_bar t)
DECAY   1000021     8.03682272E+01   # ~g
#    BR                NDA      ID1      ID2
     1.00956004E-01    2     1000006        -6   # BR(~g -> ~t_1 t_bar)
     1.00956004E-01    2    -1000006         6   # BR(~g -> ~t^*_1 t)
     3.92175582E-01    2     1000005        -5   # BR(~g -> ~b_1 b_bar)
     3.92175582E-01    2    -1000005         5   # BR(~g -> ~b^*_1 b)
#    BR                NDA      ID1      ID2       ID3
     1.72441797E-03    3     1000023         6        -6   # BR(~g -> chi^0_2 t t_bar)
     5.25223465E-04    3     1000023         5        -5   # BR(~g -> chi^0_2 b b_bar)
     1.72912789E-03    3     1000025         6        -6   # BR(~g -> chi^0_3 t t_bar)
     5.21820249E-04    3     1000025         5        -5   # BR(~g -> chi^0_3 b b_bar)
     6.76379950E-04    3     1000035         6        -6   # BR(~g -> chi^0_4 t t_bar)
     8.25947944E-04    3     1000035         5        -5   # BR(~g -> chi^0_4 b b_bar)
     2.57193972E-03    3     1000024         5        -6   # BR(~g -> chi^+_1 b t_bar)
     2.57193972E-03    3    -1000024        -5         6   # BR(~g -> chi^-_1 b_bar t)
     1.06101213E-03    3     1000037         5        -6   # BR(~g -> chi^+_2 b t_bar)
     1.06101213E-03    3    -1000037        -5         6   # BR(~g -> chi^-_2 b_bar t)
DECAY        25     4.21152362E-03   # Gamma(h0)
     2.44270074E-03   2        22        22   # BR(h0 -> photon photon)
     1.89063591E-03   2        22        23   # BR(h0 -> photon Z)
     3.97907448E-02   2        23        23   # BR(h0 -> Z Z)
     3.06822192E-01   2       -24        24   # BR(h0 -> W W)
     7.27406815E-02   2        21        21   # BR(h0 -> gluon gluon)
     4.43871351E-09   2       -11        11   # BR(h0 -> Electron electron)
     1.97443656E-04   2       -13        13   # BR(h0 -> Muon muon)
     5.69341659E-02   2       -15        15   # BR(h0 -> Tau tau)
     1.24885276E-07   2        -2         2   # BR(h0 -> Up up)
     2.42387147E-02   2        -4         4   # BR(h0 -> Charm charm)
     5.11105015E-07   2        -1         1   # BR(h0 -> Down down)
     1.84854946E-04   2        -3         3   # BR(h0 -> Strange strange)
     4.91500752E-01   2        -5         5   # BR(h0 -> Bottom bottom)
     3.25647387E-03   2   1000022   1000022   # BR(h0 -> neutralino1 neutralino1)
DECAY        35     4.18543396E+01   # Gamma(HH)
     3.71488881E-08   2        22        22   # BR(HH -> photon photon)
     8.38297910E-08   2        22        23   # BR(HH -> photon Z)
     1.21591892E-06   2        23        23   # BR(HH -> Z Z)
     5.36568202E-07   2       -24        24   # BR(HH -> W W)
     7.38968283E-06   2        21        21   # BR(HH -> gluon gluon)
     7.67767597E-09   2       -11        11   # BR(HH -> Electron electron)
     3.41816492E-04   2       -13        13   # BR(HH -> Muon muon)
     9.87164286E-02   2       -15        15   # BR(HH -> Tau tau)
     1.34364963E-13   2        -2         2   # BR(HH -> Up up)
     2.60631553E-08   2        -4         4   # BR(HH -> Charm charm)
     1.82780735E-03   2        -6         6   # BR(HH -> Top top)
     5.78031785E-07   2        -1         1   # BR(HH -> Down down)
     2.09065727E-04   2        -3         3   # BR(HH -> Strange strange)
     5.04970385E-01   2        -5         5   # BR(HH -> Bottom bottom)
     4.24028281E-03   2  -1000024   1000024   # BR(HH -> Chargino1 chargino1)
     1.08949048E-01   2  -1000024   1000037   # BR(HH -> Chargino1 chargino2)
     1.08949048E-01   2  -1000037   1000024   # BR(HH -> Chargino2 chargino1)
     2.57583497E-03   2   1000022   1000022   # BR(HH -> neutralino1 neutralino1)
     3.15536068E-02   2   1000022   1000023   # BR(HH -> neutralino1 neutralino2)
     2.56868185E-02   2   1000022   1000025   # BR(HH -> neutralino1 neutralino3)
     2.06690080E-03   2   1000022   1000035   # BR(HH -> neutralino1 neutralino4)
     1.70345747E-06   2   1000023   1000023   # BR(HH -> neutralino2 neutralino2)
     8.22596570E-04   2   1000023   1000025   # BR(HH -> neutralino2 neutralino3)
     4.70049601E-02   2   1000023   1000035   # BR(HH -> neutralino2 neutralino4)
     1.40907696E-03   2   1000025   1000025   # BR(HH -> neutralino3 neutralino3)
     6.06562613E-02   2   1000025   1000035   # BR(HH -> neutralino3 neutralino4)
     8.48367701E-06   2        25        25   # BR(HH -> h0 h0)
DECAY        36     4.09448330E+01   # Gamma(A0)
     8.62686625E-09   2        22        22   # BR(A0 -> photon photon)
     8.51447535E-08   2        22        23   # BR(A0 -> photon Z)
     2.01158475E-05   2        21        21   # BR(A0 -> gluon gluon)
     7.56626655E-09   2       -11        11   # BR(A0 -> Electron electron)
     3.36856823E-04   2       -13        13   # BR(A0 -> Muon muon)
     9.72843396E-02   2       -15        15   # BR(A0 -> Tau tau)
     1.29289287E-13   2        -2         2   # BR(A0 -> Up up)
     2.50762992E-08   2        -4         4   # BR(A0 -> Charm charm)
     1.80440545E-03   2        -6         6   # BR(A0 -> Top top)
     5.69634027E-07   2        -1         1   # BR(A0 -> Down down)
     2.06028511E-04   2        -3         3   # BR(A0 -> Strange strange)
     4.97638053E-01   2        -5         5   # BR(A0 -> Bottom bottom)
     4.52818125E-03   2  -1000024   1000024   # BR(A0 -> Chargino1 chargino1)
     1.11279099E-01   2  -1000024   1000037   # BR(A0 -> Chargino1 chargino2)
     1.11279099E-01   2  -1000037   1000024   # BR(A0 -> Chargino2 chargino1)
     2.60282508E-03   2   1000022   1000022   # BR(A0 -> neutralino1 neutralino1)
     2.86457905E-02   2   1000022   1000023   # BR(A0 -> neutralino1 neutralino2)
     2.97878011E-02   2   1000022   1000025   # BR(A0 -> neutralino1 neutralino3)
     2.27274941E-03   2   1000022   1000035   # BR(A0 -> neutralino1 neutralino4)
     1.64766911E-06   2   1000023   1000023   # BR(A0 -> neutralino2 neutralino2)
     6.80781053E-04   2   1000023   1000025   # BR(A0 -> neutralino2 neutralino3)
     6.23885530E-02   2   1000023   1000035   # BR(A0 -> neutralino2 neutralino4)
     1.77065054E-03   2   1000025   1000025   # BR(A0 -> neutralino3 neutralino3)
     4.74705876E-02   2   1000025   1000035   # BR(A0 -> neutralino3 neutralino4)
     1.73959547E-06   2        23        25   # BR(A0 -> Z h0)
     2.11560249E-37   2        25        25   # BR(A0 -> h0 h0)
DECAY        37     4.34140643E+01   # Gamma(Hp)
     8.44716941E-09   2       -11        12   # BR(Hp -> Electron nu_e)
     3.61142874E-04   2       -13        14   # BR(Hp -> Muon nu_mu)
     1.02151688E-01   2       -15        16   # BR(Hp -> Tau nu_tau)
     5.50405039E-07   2        -1         2   # BR(Hp -> Down up)
     9.26034456E-06   2        -3         2   # BR(Hp -> Strange up)
     5.46307353E-06   2        -5         2   # BR(Hp -> Bottom up)
     2.69273080E-08   2        -1         4   # BR(Hp -> Down charm)
     1.98376196E-04   2        -3         4   # BR(Hp -> Strange charm)
     7.65025593E-04   2        -5         4   # BR(Hp -> Bottom charm)
     1.42152379E-07   2        -1         6   # BR(Hp -> Down top)
     3.39068214E-06   2        -3         6   # BR(Hp -> Strange top)
     5.17070524E-01   2        -5         6   # BR(Hp -> Bottom top)
     5.89994200E-02   2   1000022   1000024   # BR(Hp -> neutralino1 chargino1)
     4.15631497E-03   2   1000022   1000037   # BR(Hp -> neutralino1 chargino2)
     1.97368709E-03   2   1000023   1000024   # BR(Hp -> neutralino2 chargino1)
     1.05263903E-01   2   1000023   1000037   # BR(Hp -> neutralino2 chargino2)
     4.15328886E-05   2   1000024   1000025   # BR(Hp -> chargino1 neutralino3)
     1.03377180E-01   2   1000025   1000037   # BR(Hp -> neutralino3 chargino2)
     1.05620716E-01   2   1000024   1000035   # BR(Hp -> chargino1 neutralino4)
     1.64721383E-06   2        24        25   # BR(Hp -> W h0)
     3.00662589E-12   2        24        35   # BR(Hp -> W HH)
     1.55594066E-12   2        24        36   # BR(Hp -> W A0)
DECAY         6     2.43000000E+00   # top
#    BR                NDA      ID1      ID2
     1.00000000E+00    2           5        24   # BR(t -> b W)
Block HiggsBoundsInputHiggsCouplingsFermions
# ScalarNormEffCoupSq PseudoSNormEffCoupSq NP IP1 IP2 IP2
    9.31101967E-01    0.00000000E+00        3  25   5   5  # h0-b-b eff. coupling^2, normalised to SM
    8.99092081E+02    0.00000000E+00        3  35   5   5  # H0-b-b eff. coupling^2, normalised to SM
    0.00000000E+00    8.99023183E+02        3  36   5   5  # A0-b-b eff. coupling^2, normalised to SM
#
    1.00007664E+00    0.00000000E+00        3  25   6   6  # h0-t-t eff. coupling^2, normalised to SM
    1.03568182E-03    0.00000000E+00        3  35   6   6  # H0-t-t eff. coupling^2, normalised to SM
    0.00000000E+00    1.11231837E-03        3  36   6   6  # A0-t-t eff. coupling^2, normalised to SM
#
    9.31101967E-01    0.00000000E+00        3  25  15  15  # h0-tau-tau eff. coupling^2, normalised to SM
    8.99092081E+02    0.00000000E+00        3  35  15  15  # H0-tau-tau eff. coupling^2, normalised to SM
    0.00000000E+00    8.99023183E+02        3  36  15  15  # A0-tau-tau eff. coupling^2, normalised to SM
#
Block HiggsBoundsInputHiggsCouplingsBosons
    9.99998632E-01        3  25  24  24  # h0-W-W eff. coupling^2, normalised to SM
    1.36750489E-06        3  35  24  24  # H0-W-W eff. coupling^2, normalised to SM
    0.00000000E+00        3  36  24  24  # A0-W-W eff. coupling^2, normalised to SM
#
    9.99998632E-01        3  25  23  23  # h0-Z-Z eff. coupling^2, normalised to SM
    1.36750489E-06        3  35  23  23  # H0-Z-Z eff. coupling^2, normalised to SM
    0.00000000E+00        3  36  23  23  # A0-Z-Z eff. coupling^2, normalised to SM
#
    1.26887672E+00        3  25  21  21  # h0-g-g eff. coupling^2, normalised to SM
    4.09104065E-03        3  35  21  21  # H0-g-g eff. coupling^2, normalised to SM
    1.10023410E-01        3  36  21  21  # A0-g-g eff. coupling^2, normalised to SM
#
    0.00000000E+00        3  25  25  23  # h0-h0-Z eff. coupling^2, normalised to SM
    0.00000000E+00        3  35  25  23  # H0-h0-Z eff. coupling^2, normalised to SM
    1.36750489E-06        3  36  25  23  # A0-h0-Z eff. coupling^2, normalised to SM
    0.00000000E+00        3  35  35  23  # H0-H0-Z eff. coupling^2, normalised to SM
    9.99998632E-01        3  36  35  23  # A0-H0-Z eff. coupling^2, normalised to SM
    0.00000000E+00        3  36  36  23  # A0-A0-Z eff. coupling^2, normalised to SM
#
    0.00000000E+00        4  25  21  21  23  # h0-g-g-Z eff. coupling^2, normalised to SM
    0.00000000E+00        4  35  21  21  23  # H0-g-g-Z eff. coupling^2, normalised to SM
    0.00000000E+00        4  36  21  21  23  # A0-g-g-Z eff. coupling^2, normalised to SM
Block SPhenoLowEnergy  # low energy observables
    1    3.35727036E-04   # BR(b -> s gamma)
    2    1.58882968E-06   # BR(b -> s mu+ mu-)
    3    3.52575628E-05   # BR(b -> s nu nu)
    4    2.43316532E-15   # BR(Bd -> e+ e-)
    5    1.03942245E-10   # BR(Bd -> mu+ mu-)
    6    2.17700911E-08   # BR(Bd -> tau+ tau-)
    7    8.14702423E-14   # BR(Bs -> e+ e-)
    8    3.48041268E-09   # BR(Bs -> mu+ mu-)
    9    7.38612509E-07   # BR(Bs -> tau+ tau-)
   10    9.56524360E-05   # BR(B_u -> tau nu)
   11    9.88053044E-01   # BR(B_u -> tau nu)/BR(B_u -> tau nu)_SM
   12    5.41956107E-01   # |Delta(M_Bd)| [ps^-1] 
   13    1.93586870E+01   # |Delta(M_Bs)| [ps^-1] 
   14    0.00000000E+00   # neutron EDM according to the chiral quark model
   15    0.00000000E+00   # neutron EDM according to the relativistic quark-parton model
   16    2.15722108E-03   # epsilon_K
   17    2.28165840E-15   # Delta(M_K)
   18    2.48018162E-11   # BR(K^0 -> pi^0 nu nu)
   19    8.29099108E-11   # BR(K^+ -> pi^+ nu nu)
   20   -2.86861391E-16   # Delta(g-2)_electron/2
   21   -1.22642647E-11   # Delta(g-2)_muon/2
   22   -3.47251464E-09   # Delta(g-2)_tau/2
   23    0.00000000E+00   # electric dipole moment of the electron
   24    0.00000000E+00   # electric dipole moment of the muon
   25    0.00000000E+00   # electric dipole moment of the tau
   26    0.00000000E+00   # Br(mu -> e gamma)
   27    0.00000000E+00   # Br(tau -> e gamma)
   28    0.00000000E+00   # Br(tau -> mu gamma)
   29    0.00000000E+00   # Br(mu -> 3 e)
   30    0.00000000E+00   # Br(tau -> 3 e)
   31    0.00000000E+00   # Br(tau -> 3 mu)
   39    6.10983686E-05   # Delta(rho_parameter)
   40    0.00000000E+00   # BR(Z -> e mu)
   41    0.00000000E+00   # BR(Z -> e tau)
   42    0.00000000E+00   # BR(Z -> mu tau)
Block FWCOEF Q=  1.60000000E+02  # Wilson coefficients at scale Q
#    id        order  M        value         comment
     0305 4422   00   0    -1.88819110E-01   # C7
     0305 4422   00   2    -2.05280154E-01   # C7
     0305 4322   00   2    -2.63383586E-04   # C7'
     0305 6421   00   0    -9.52278348E-02   # C8
     0305 6421   00   2    -1.11787760E-01   # C8
     0305 6321   00   2    -2.95016673E-04   # C8'
 03051111 4133   00   0     1.62947847E+00   # C9 e+e-
 03051111 4133   00   2     1.62968446E+00   # C9 e+e-
 03051111 4233   00   2     2.01324127E-04   # C9' e+e-
 03051111 4137   00   0    -4.45217057E+00   # C10 e+e-
 03051111 4137   00   2    -4.45104080E+00   # C10 e+e-
 03051111 4237   00   2    -1.48360402E-03   # C10' e+e-
 03051313 4133   00   0     1.62947847E+00   # C9 mu+mu-
 03051313 4133   00   2     1.62968436E+00   # C9 mu+mu-
 03051313 4233   00   2     2.01323798E-04   # C9' mu+mu-
 03051313 4137   00   0    -4.45217057E+00   # C10 mu+mu-
 03051313 4137   00   2    -4.45104089E+00   # C10 mu+mu-
 03051313 4237   00   2    -1.48360382E-03   # C10' mu+mu-
 03051212 4137   00   0     1.50535012E+00   # C11 nu_1 nu_1
 03051212 4137   00   2     1.50510723E+00   # C11 nu_1 nu_1
 03051212 4237   00   2     3.20609062E-04   # C11' nu_1 nu_1
 03051414 4137   00   0     1.50535012E+00   # C11 nu_2 nu_2
 03051414 4137   00   2     1.50510723E+00   # C11 nu_2 nu_2
 03051414 4237   00   2     3.20609126E-04   # C11' nu_2 nu_2
 03051616 4137   00   0     1.50535012E+00   # C11 nu_3 nu_3
 03051616 4137   00   2     1.50510723E+00   # C11 nu_3 nu_3
 03051616 4237   00   2     3.20627242E-04   # C11' nu_3 nu_3
Block IMFWCOEF Q=  1.60000000E+02  # Im(Wilson coefficients) at scale Q
#    id        order  M        value         comment
     0305 4422   00   0     3.85809073E-07   # C7
     0305 4422   00   2    -2.16818465E-06   # C7
     0305 4322   00   2    -9.58335689E-07   # C7'
     0305 6421   00   0     3.30470986E-07   # C8
     0305 6421   00   2    -7.04773173E-06   # C8
     0305 6321   00   2    -5.26458545E-07   # C8'
 03051111 4133   00   2     2.79739843E-07   # C9 e+e-
 03051111 4233   00   2     4.28745001E-06   # C9' e+e-
 03051111 4137   00   2    -1.06118735E-07   # C10 e+e-
 03051111 4237   00   2    -3.15992460E-05   # C10' e+e-
 03051313 4133   00   2     2.79738123E-07   # C9 mu+mu-
 03051313 4233   00   2     4.28744944E-06   # C9' mu+mu-
 03051313 4137   00   2    -1.06117110E-07   # C10 mu+mu-
 03051313 4237   00   2    -3.15992477E-05   # C10' mu+mu-
 03051212 4137   00   2     4.52555307E-08   # C11 nu_1 nu_1
 03051212 4237   00   2     6.82864798E-06   # C11' nu_1 nu_1
 03051414 4137   00   2     4.52556072E-08   # C11 nu_2 nu_2
 03051414 4237   00   2     6.82864798E-06   # C11' nu_2 nu_2
 03051616 4137   00   2     4.52770546E-08   # C11 nu_3 nu_3
 03051616 4237   00   2     6.82864796E-06   # C11' nu_3 nu_3
