# SUSY Les Houches Accord 2 - MSSM spectrum + Decays
# SPheno v4.0.5be
# W. Porod, Comput. Phys. Commun. 153 (2003) 275-315, hep-ph/0301101;
# W. Porod, F.~Staub, Comput. Phys. Commun. 183 (2012) 2458
#                     arXiv:1104.1573 [hep-ph] 
# in case of problems send email to porod@physik.uni-wuerzburg.de
# Created: 07.09.2021,  19:25
Block SPINFO         # Program information
     1   SPheno      # spectrum calculator
     2   v4.0.5be    # version number
#
Block SPhenoINFO     # SPheno specific information
    1      2         # using 2-loop RGEs
    2      2         # using pole masses for boundary conditions at mZ
Block MODSEL  # Model selection
    1    0    # general MSSM
Block MINPAR  # Input parameters
    3    5.49207981E+01  # tanb at m_Z    
    4    1.00000000E+00  # Sign(mu)
Block EXTPAR  # non-universal input parameters
    0    3.57247749E+03  # scale for input parameters
    1   -2.20770353E+02  # M_1
    2    1.95271713E+03  # M_2
    3    3.04850710E+03  # M_3
   11   -1.29781050E+03  # A_t
   12   -1.51492192E+02  # A_b
   13   -3.68947989E+02  # A_tau
   23    2.15461797E+02  # mu
   25    5.45853521E+01  # tan(beta)
   26    4.13992346E+03  # m_A, pole mass
   31    1.00000000E+04  # M_L11
   32    1.00000000E+04  # M_L22
   33    1.00000000E+04  # M_L33
   34    1.00000000E+04  # M_E11
   35    1.00000000E+04  # M_E22
   36    1.00000000E+04  # M_E33
   41    1.00000000E+04  # M_Q11
   42    1.00000000E+04  # M_Q22
   43    4.20263417E+03  # M_Q33
   44    1.00000000E+04  # M_U11
   45    1.00000000E+04  # M_U22
   46    2.91299516E+03  # M_U33
   47    1.00000000E+04  # M_D11
   48    1.00000000E+04  # M_D22
   49    3.79054296E+03  # M_D33
Block SMINPUTS  # SM parameters
         1     1.27908970E+02  # alpha_em^-1(MZ)^MSbar
         2     1.16637870E-05  # G_mu [GeV^-2]
         3     1.18400000E-01  # alpha_s(MZ)^MSbar
         4     9.11876000E+01  # m_Z(pole)
         5     4.18000000E+00  # m_b(m_b), MSbar
         6     1.73200000E+02  # m_t(pole)
         7     1.77700000E+00  # m_tau(pole)
         8     0.00000000E+00  # m_nu_3
        11     5.10998930E-04  # m_e(pole)
        12     0.00000000E+00  # m_nu_1
        13     1.05658372E-01  # m_muon(pole)
        14     0.00000000E+00  # m_nu_2
        21     5.00000000E-03  # m_d(2 GeV), MSbar
        22     2.50000000E-03  # m_u(2 GeV), MSbar
        23     9.50000000E-02  # m_s(2 GeV), MSbar
        24     1.27000000E+00  # m_c(m_c), MSbar
Block gauge Q=  3.57247749E+03  # (SUSY scale)
   1    3.55362975E-01  # g'(Q)^DRbar
   2    6.65198874E-01  # g(Q)^DRbar
   3    1.21977796E+00  # g3(Q)^DRbar
Block Yu Q=  3.57247749E+03  # (SUSY scale)
  1  1     8.38577900E-06   # Y_u(Q)^DRbar
  2  2     4.25997573E-03   # Y_c(Q)^DRbar
  3  3     1.01306946E+00   # Y_t(Q)^DRbar
Block Yd Q=  3.57247749E+03  # (SUSY scale)
  1  1     9.19813493E-04   # Y_d(Q)^DRbar
  2  2     1.74764564E-02   # Y_s(Q)^DRbar
  3  3     9.12166757E-01   # Y_b(Q)^DRbar
Block Ye Q=  3.57247749E+03  # (SUSY scale)
  1  1     1.60514181E-04   # Y_e(Q)^DRbar
  2  2     3.31892417E-02   # Y_mu(Q)^DRbar
  3  3     5.58188447E-01   # Y_tau(Q)^DRbar
Block Au Q=  3.57247749E+03  # (SUSY scale)
  1  1     0.00000000E+00   # A_u(Q)^DRbar
  2  2     0.00000000E+00   # A_c(Q)^DRbar
  3  3    -1.29781060E+03   # A_t(Q)^DRbar
Block Ad Q=  3.57247749E+03  # (SUSY scale)
  1  1     0.00000000E+00   # A_d(Q)^DRbar
  2  2     0.00000000E+00   # A_s(Q)^DRbar
  3  3    -1.51492183E+02   # A_b(Q)^DRbar
Block Ae Q=  3.57247749E+03  # (SUSY scale)
  1  1     0.00000000E+00   # A_e(Q)^DRbar
  2  2     0.00000000E+00   # A_mu(Q)^DRbar
  3  3    -3.68947980E+02   # A_tau(Q)^DRbar
Block MSOFT Q=  3.57247749E+03  # soft SUSY breaking masses at Q
   1   -2.20770353E+02  # M_1
   2    1.95271713E+03  # M_2
   3    3.04850710E+03  # M_3
  21    1.71258696E+07  # M^2_(H,d)
  22    1.83657603E+05  # M^2_(H,u)
  31    1.00000000E+04  # M_(L,11)
  32    1.00000000E+04  # M_(L,22)
  33    1.00000000E+04  # M_(L,33)
  34    1.00000000E+04  # M_(E,11)
  35    1.00000000E+04  # M_(E,22)
  36    1.00000000E+04  # M_(E,33)
  41    1.00000000E+04  # M_(Q,11)
  42    1.00000000E+04  # M_(Q,22)
  43    4.20263417E+03  # M_(Q,33)
  44    1.00000000E+04  # M_(U,11)
  45    1.00000000E+04  # M_(U,22)
  46    2.91299516E+03  # M_(U,33)
  47    1.00000000E+04  # M_(D,11)
  48    1.00000000E+04  # M_(D,22)
  49    3.79054296E+03  # M_(D,33)
Block MASS  # Mass spectrum
#   PDG code      mass          particle
         6     1.73200000E+02  # m_t(pole)
        23     9.11876000E+01  # m_Z(pole)
        24     8.04299946E+01  # W+
        15     1.77700000E+00  # m_tau(pole)
        25     1.21335312E+02  # h0
        35     4.13775848E+03  # H0
        36     4.13992346E+03  # A0
        37     4.13834677E+03  # H+
   1000001     1.01049355E+04  # ~d_L
   2000001     1.00818655E+04  # ~d_R
   1000002     1.01045695E+04  # ~u_L
   2000002     1.00848687E+04  # ~u_R
   1000003     1.01049435E+04  # ~s_L
   2000003     1.00818803E+04  # ~s_R
   1000004     1.01045775E+04  # ~c_L
   2000004     1.00848697E+04  # ~c_R
   1000005     3.84572705E+03  # ~b_1
   2000005     4.25741012E+03  # ~b_2
   1000006     2.99601003E+03  # ~t_1
   2000006     4.25986405E+03  # ~t_2
   1000011     1.00196933E+04  # ~e_L-
   2000011     1.00090409E+04  # ~e_R-
   1000012     1.00189292E+04  # ~nu_eL
   1000013     1.00197330E+04  # ~mu_L-
   2000013     1.00091173E+04  # ~mu_R-
   1000014     1.00189685E+04  # ~nu_muL
   1000015     1.00297346E+04  # ~tau_1-
   2000015     1.00318829E+04  # ~tau_2-
   1000016     1.00300604E+04  # ~nu_tauL
   1000021     3.51576925E+03  # ~g
   1000022     1.96874206E+02  # ~chi_10
   1000023     2.30874303E+02  # ~chi_20
   1000025     2.59558153E+02  # ~chi_30
   1000035     2.07249711E+03  # ~chi_40
   1000024     2.30042240E+02  # ~chi_1+
   1000037     2.07246701E+03  # ~chi_2+
# Higgs mixing
Block alpha # Effective Higgs mixing angle
          -1.82315355E-02   # alpha
Block Hmix Q=  3.57247749E+03  # Higgs mixing parameters
   1    2.15461797E+02  # mu
   2    5.45853521E+01  # tan[beta](Q)
   3    2.43073341E+02  # v(Q)
   4    1.71389663E+07  # m^2_A(Q)
Block stopmix # stop mixing matrix
   1  1     2.30034006E-02   # Re[R_st(1,1)]
   1  2     9.99735387E-01   # Re[R_st(1,2)]
   2  1    -9.99735387E-01   # Re[R_st(2,1)]
   2  2     2.30034006E-02   # Re[R_st(2,2)]
Block sbotmix # sbottom mixing matrix
   1  1     7.39118150E-03   # Re[R_sb(1,1)]
   1  2     9.99972685E-01   # Re[R_sb(1,2)]
   2  1    -9.99972685E-01   # Re[R_sb(2,1)]
   2  2     7.39118150E-03   # Re[R_sb(2,2)]
Block staumix # stau mixing matrix
   1  1     7.01811826E-01   # Re[R_sta(1,1)]
   1  2     7.12362380E-01   # Re[R_sta(1,2)]
   2  1    -7.12362380E-01   # Re[R_sta(2,1)]
   2  2     7.01811826E-01   # Re[R_sta(2,2)]
Block Nmix # neutralino mixing matrix
   1  1     7.42463929E-01   # Re[N(1,1)]
   1  2     1.50406689E-02   # Re[N(1,2)]
   1  3     5.10260544E-01   # Re[N(1,3)]
   1  4     4.33768682E-01   # Re[N(1,4)]
   2  1    -7.10219927E-02   # Re[N(2,1)]
   2  2    -3.11164005E-02   # Re[N(2,2)]
   2  3     7.04208679E-01   # Re[N(2,3)]
   2  4    -7.05746259E-01   # Re[N(2,4)]
   3  1    -6.66110030E-01   # Re[N(3,1)]
   3  2     1.89032908E-02   # Re[N(3,2)]
   3  3     4.93660012E-01   # Re[N(3,3)]
   3  4     5.58784293E-01   # Re[N(3,4)]
   4  1     7.86041389E-04   # Re[N(4,1)]
   4  2    -9.99223806E-01   # Re[N(4,2)]
   4  3    -4.90979162E-03   # Re[N(4,3)]
   4  4     3.90776482E-02   # Re[N(4,4)]
Block Umix # chargino mixing matrix
   1  1    -6.94495063E-03   # Re[U(1,1)]
   1  2     9.99975884E-01   # Re[U(1,2)]
   2  1     9.99975884E-01   # Re[U(2,1)]
   2  2     6.94495063E-03   # Re[U(2,2)]
Block Vmix # chargino mixing matrix
   1  1    -5.52762341E-02   # Re[V(1,1)]
   1  2     9.98471100E-01   # Re[V(1,2)]
   2  1     9.98471100E-01   # Re[V(2,1)]
   2  2     5.52762341E-02   # Re[V(2,2)]
DECAY        23     2.49520000E+00   # Z
DECAY        24     2.08500000E+00   # W
DECAY   2000011     5.02400617E+01   # ~e^-_R
#    BR                NDA      ID1      ID2
     5.51393214E-01    2     1000022        11   # BR(~e^-_R -> chi^0_1 e^-)
     5.04399430E-03    2     1000023        11   # BR(~e^-_R -> chi^0_2 e^-)
     4.43562123E-01    2     1000025        11   # BR(~e^-_R -> chi^0_3 e^-)
DECAY   1000011     1.33809897E+02   # ~e^-_L
#    BR                NDA      ID1      ID2
     5.58154017E-02    2     1000022        11   # BR(~e^-_L -> chi^0_1 e^-)
     1.57014224E-03    2     1000023        11   # BR(~e^-_L -> chi^0_2 e^-)
     3.73687132E-02    2     1000025        11   # BR(~e^-_L -> chi^0_3 e^-)
     3.01265854E-01    2     1000035        11   # BR(~e^-_L -> chi^0_4 e^-)
     6.03948129E-01    2    -1000037        12   # BR(~e^-_L -> chi^-_2 nu_e)
#    BR                NDA      ID1      ID2       ID3
DECAY   2000013     5.06786540E+01   # ~mu^-_R
#    BR                NDA      ID1      ID2
     5.47751392E-01    2     1000022        13   # BR(~mu^-_R -> chi^0_1 mu^-)
     7.14438830E-03    2     1000023        13   # BR(~mu^-_R -> chi^0_2 mu^-)
     4.40780069E-01    2     1000025        13   # BR(~mu^-_R -> chi^0_3 mu^-)
     4.32330255E-03    2    -1000024        14   # BR(~mu^-_R -> chi^-_1 nu_mu)
DECAY   1000013     1.34029850E+02   # ~mu^-_L
#    BR                NDA      ID1      ID2
     5.61502340E-02    2     1000022        13   # BR(~mu^-_L -> chi^0_1 mu^-)
     2.37911214E-03    2     1000023        13   # BR(~mu^-_L -> chi^0_2 mu^-)
     3.77062286E-02    2     1000025        13   # BR(~mu^-_L -> chi^0_3 mu^-)
     3.00772896E-01    2     1000035        13   # BR(~mu^-_L -> chi^0_4 mu^-)
     6.02959821E-01    2    -1000037        14   # BR(~mu^-_L -> chi^-_2 nu_mu)
#    BR                NDA      ID1      ID2       ID3
DECAY   1000015     1.85220169E+02   # ~tau^-_1
#    BR                NDA      ID1      ID2
     2.38285775E-01    2     1000022        15   # BR(~tau^-_1 -> chi^0_1 tau^-)
     1.66174027E-01    2     1000023        15   # BR(~tau^-_1 -> chi^0_2 tau^-)
     1.03930664E-01    2     1000025        15   # BR(~tau^-_1 -> chi^0_3 tau^-)
     1.06061262E-01    2     1000035        15   # BR(~tau^-_1 -> chi^0_4 tau^-)
     1.72930140E-01    2    -1000024        16   # BR(~tau^-_1 -> chi^-_1 nu_tau)
     2.12618131E-01    2    -1000037        16   # BR(~tau^-_1 -> chi^-_2 nu_tau)
DECAY   2000015     1.85445322E+02   # ~tau^-_2
#    BR                NDA      ID1      ID2
     1.26474289E-01    2     1000022        15   # BR(~tau^-_2 -> chi^0_1 tau^-)
     1.68720012E-01    2     1000023        15   # BR(~tau^-_2 -> chi^0_2 tau^-)
     2.06829722E-01    2     1000025        15   # BR(~tau^-_2 -> chi^0_3 tau^-)
     1.11748974E-01    2     1000035        15   # BR(~tau^-_2 -> chi^0_4 tau^-)
     1.62216165E-01    2    -1000024        16   # BR(~tau^-_2 -> chi^-_1 nu_tau)
     2.24010838E-01    2    -1000037        16   # BR(~tau^-_2 -> chi^-_2 nu_tau)
#    BR                NDA      ID1      ID2       ID3
DECAY   1000012     1.33813214E+02   # ~nu_e
#    BR                NDA      ID1      ID2
     4.79517240E-02    2     1000022        12   # BR(~nu_e -> chi^0_1 nu_e)
     4.62202829E-02    2     1000025        12   # BR(~nu_e -> chi^0_3 nu_e)
     3.01738094E-01    2     1000035        12   # BR(~nu_e -> chi^0_4 nu_e)
     2.01178976E-03    2     1000024        11   # BR(~nu_e -> chi^+_1 e^-)
     6.02062775E-01    2     1000037        11   # BR(~nu_e -> chi^+_2 e^-)
#    BR                NDA      ID1      ID2       ID3
DECAY   1000014     1.34033144E+02   # ~nu_mu
#    BR                NDA      ID1      ID2
     4.78732300E-02    2     1000022        14   # BR(~nu_mu -> chi^0_1 nu_mu)
     4.61446233E-02    2     1000025        14   # BR(~nu_mu -> chi^0_3 nu_mu)
     3.01244377E-01    2     1000035        14   # BR(~nu_mu -> chi^0_4 nu_mu)
     3.64473283E-03    2     1000024        13   # BR(~nu_mu -> chi^+_1 mu^-)
     6.01077727E-01    2     1000037        13   # BR(~nu_mu -> chi^+_2 mu^-)
#    BR                NDA      ID1      ID2       ID3
DECAY   1000016     1.96092357E+02   # ~nu_tau
#    BR                NDA      ID1      ID2
     3.27586162E-02    2     1000022        16   # BR(~nu_tau -> chi^0_1 nu_tau)
     3.15758078E-02    2     1000025        16   # BR(~nu_tau -> chi^0_3 nu_tau)
     2.06175402E-01    2     1000035        16   # BR(~nu_tau -> chi^0_4 nu_tau)
     3.18080317E-01    2     1000024        15   # BR(~nu_tau -> chi^+_1 tau^-)
     4.11399381E-01    2     1000037        15   # BR(~nu_tau -> chi^+_2 tau^-)
#    BR                NDA      ID1      ID2       ID3
DECAY   2000001     6.19638260E+02   # ~d_R
#    BR                NDA      ID1      ID2
     5.00368868E-03    2     1000022         1   # BR(~d_R -> chi^0_1 d)
     4.02520405E-03    2     1000025         1   # BR(~d_R -> chi^0_3 d)
     9.90924921E-01    2     1000021         1   # BR(~d_R -> ~g d)
DECAY   1000001     7.40053521E+02   # ~d_L
#    BR                NDA      ID1      ID2
     8.24568673E-04    2     1000022         1   # BR(~d_L -> chi^0_1 d)
     1.13514831E-03    2     1000025         1   # BR(~d_L -> chi^0_3 d)
     5.50798665E-02    2     1000035         1   # BR(~d_L -> chi^0_4 d)
     1.10295000E-01    2    -1000037         2   # BR(~d_L -> chi^-_2 u)
     8.32639031E-01    2     1000021         1   # BR(~d_L -> ~g d)
DECAY   2000003     6.19761722E+02   # ~s_R
#    BR                NDA      ID1      ID2
     5.02834357E-03    2     1000022         3   # BR(~s_R -> chi^0_1 s)
     4.04839877E-03    2     1000025         3   # BR(~s_R -> chi^0_3 s)
     9.90729780E-01    2     1000021         3   # BR(~s_R -> ~g s)
DECAY   1000003     7.40119202E+02   # ~s_L
#    BR                NDA      ID1      ID2
     8.46019700E-04    2     1000022         3   # BR(~s_L -> chi^0_1 s)
     1.15518361E-03    2     1000025         3   # BR(~s_L -> chi^0_3 s)
     5.50750318E-02    2     1000035         3   # BR(~s_L -> chi^0_4 s)
     1.10285329E-01    2    -1000037         4   # BR(~s_L -> chi^-_2 c)
     8.32566161E-01    2     1000021         3   # BR(~s_L -> ~g s)
DECAY   1000005     1.36468088E+02   # ~b_1
#    BR                NDA      ID1      ID2
     1.30125484E-01    2     1000022         5   # BR(~b_1 -> chi^0_1 b)
     2.29725758E-01    2     1000023         5   # BR(~b_1 -> chi^0_2 b)
     1.18919260E-01    2     1000025         5   # BR(~b_1 -> chi^0_3 b)
     4.61223799E-01    2    -1000024         6   # BR(~b_1 -> chi^-_1 t)
     6.00043311E-02    2     1000021         5   # BR(~b_1 -> ~g b)
DECAY   2000005     2.27044397E+02   # ~b_2
#    BR                NDA      ID1      ID2
     8.11387302E-02    2     1000022         5   # BR(~b_2 -> chi^0_1 b)
     1.53062222E-01    2     1000023         5   # BR(~b_2 -> chi^0_2 b)
     7.70683974E-02    2     1000025         5   # BR(~b_2 -> chi^0_3 b)
     4.80012070E-02    2     1000035         5   # BR(~b_2 -> chi^0_4 b)
     3.78191148E-01    2    -1000024         6   # BR(~b_2 -> chi^-_1 t)
     9.70789159E-02    2    -1000037         6   # BR(~b_2 -> chi^-_2 t)
     1.49711516E-01    2     1000021         5   # BR(~b_2 -> ~g b)
     1.56398731E-02    2     1000006       -24   # BR(~b_2 -> ~t_1 W^-)
DECAY   2000002     6.36797595E+02   # ~u_R
#    BR                NDA      ID1      ID2
     1.94809642E-02    2     1000022         2   # BR(~u_R -> chi^0_1 u)
     1.78205540E-04    2     1000023         2   # BR(~u_R -> chi^0_2 u)
     1.56713786E-02    2     1000025         2   # BR(~u_R -> chi^0_3 u)
     9.64669432E-01    2     1000021         2   # BR(~u_R -> ~g u)
DECAY   1000002     7.40037631E+02   # ~u_L
#    BR                NDA      ID1      ID2
     1.30217915E-03    2     1000022         2   # BR(~u_L -> chi^0_1 u)
     1.14984289E-04    2     1000023         2   # BR(~u_L -> chi^0_2 u)
     5.96760307E-04    2     1000025         2   # BR(~u_L -> chi^0_3 u)
     5.50478503E-02    2     1000035         2   # BR(~u_L -> chi^0_4 u)
     3.67109325E-04    2     1000024         1   # BR(~u_L -> chi^+_1 d)
     1.09960980E-01    2     1000037         1   # BR(~u_L -> chi^+_2 d)
     8.32610136E-01    2     1000021         2   # BR(~u_L -> ~g u)
DECAY   2000004     6.36804933E+02   # ~c_R
#    BR                NDA      ID1      ID2
     1.94818174E-02    2     1000022         4   # BR(~c_R -> chi^0_1 c)
     1.81048564E-04    2     1000023         4   # BR(~c_R -> chi^0_2 c)
     1.56729794E-02    2     1000025         4   # BR(~c_R -> chi^0_3 c)
     9.64658416E-01    2     1000021         4   # BR(~c_R -> ~g c)
DECAY   1000004     7.40103280E+02   # ~c_L
#    BR                NDA      ID1      ID2
     1.30299098E-03    2     1000022         4   # BR(~c_L -> chi^0_1 c)
     1.17426480E-04    2     1000023         4   # BR(~c_L -> chi^0_2 c)
     5.98245293E-04    2     1000025         4   # BR(~c_L -> chi^0_3 c)
     5.50430256E-02    2     1000035         4   # BR(~c_L -> chi^0_4 c)
     4.49716023E-04    2     1000024         3   # BR(~c_L -> chi^+_1 s)
     1.09951333E-01    2     1000037         3   # BR(~c_L -> chi^+_2 s)
     8.32537263E-01    2     1000021         4   # BR(~c_L -> ~g c)
DECAY   1000006     1.26883929E+02   # ~t_1
#    BR                NDA      ID1      ID2
     1.16999824E-01    2     1000022         6   # BR(~t_1 -> chi^0_1 t)
     2.35935327E-01    2     1000023         6   # BR(~t_1 -> chi^0_2 t)
     1.71021738E-01    2     1000025         6   # BR(~t_1 -> chi^0_3 t)
     1.02448265E-04    2     1000035         6   # BR(~t_1 -> chi^0_4 t)
     4.75726483E-01    2     1000024         5   # BR(~t_1 -> chi^+_1 b)
     2.11667492E-04    2     1000037         5   # BR(~t_1 -> chi^+_2 b)
#    BR                NDA      ID1      ID2       ID3
DECAY   2000006     2.26159556E+02   # ~t_2
#    BR                NDA      ID1      ID2
     7.48835304E-02    2     1000022         6   # BR(~t_2 -> chi^0_1 t)
     1.89981282E-01    2     1000023         6   # BR(~t_2 -> chi^0_2 t)
     1.18042268E-01    2     1000025         6   # BR(~t_2 -> chi^0_3 t)
     4.88621085E-02    2     1000035         6   # BR(~t_2 -> chi^0_4 t)
     3.09859368E-01    2     1000024         5   # BR(~t_2 -> chi^+_1 b)
     9.66465845E-02    2     1000037         5   # BR(~t_2 -> chi^+_2 b)
     1.44760671E-01    2     1000021         6   # BR(~t_2 -> ~g t)
     7.87310676E-03    2     1000006        23   # BR(~t_2 -> ~t_1 Z)
     9.01521642E-03    2     1000006        25   # BR(~t_2 -> ~t_1 h^0)
DECAY   1000024     7.19339545E-05   # chi^+_1
#    BR                NDA      ID1      ID2       ID3
     3.34557270E-01    3     1000022        -1         2   # BR(chi^+_1 -> chi^0_1 d_bar u)
     3.32327285E-01    3     1000022        -3         4   # BR(chi^+_1 -> chi^0_1 s_bar c)
     1.11518775E-01    3     1000022       -11        12   # BR(chi^+_1 -> chi^0_1 e^+ nu_e)
     1.11515202E-01    3     1000022       -13        14   # BR(chi^+_1 -> chi^0_1 mu^+ nu_mu)
     1.10081467E-01    3     1000022       -15        16   # BR(chi^+_1 -> chi^0_1 tau^+ nu_tau)
DECAY   1000037     1.87515147E+01   # chi^+_2
#    BR                NDA      ID1      ID2
     9.79677395E-02    2     1000022        24   # BR(chi^+_2 -> chi^0_1 W^+)
     2.41695920E-01    2     1000023        24   # BR(chi^+_2 -> chi^0_2 W^+)
     1.42861792E-01    2     1000025        24   # BR(chi^+_2 -> chi^0_3 W^+)
     2.40660347E-01    2     1000024        23   # BR(chi^+_2 -> chi^+_1 Z)
     2.42645813E-01    2     1000024        25   # BR(chi^+_2 -> chi^+_1 h^0)
#    BR                NDA      ID1      ID2       ID3
     1.40941764E-02    3     1000024         6        -6   # BR(chi^+_2 -> chi^+_1 t t_bar)
     1.26982982E-04    3     1000024         5        -5   # BR(chi^+_2 -> chi^+_1 b b_bar)
     4.00237542E-03    3     1000022        -5         6   # BR(chi^+_2 -> chi^0_1 b_bar t)
     1.00764805E-02    3     1000023        -5         6   # BR(chi^+_2 -> chi^0_2 b_bar t)
     5.85535251E-03    3     1000025        -5         6   # BR(chi^+_2 -> chi^0_3 b_bar t)
DECAY   1000022     0.00000000E+00   # chi^0_1
DECAY   1000023     6.35389021E-05   # chi^0_2
#    BR                NDA      ID1      ID2
     2.25135720E-02    2     1000022        22   # BR(chi^0_2 -> chi^0_1 photon)
#    BR                NDA      ID1      ID2       ID3
     1.19086641E-01    3     1000022         2        -2   # BR(chi^0_2 -> chi^0_1 u u_bar)
     1.16994300E-01    3     1000022         4        -4   # BR(chi^0_2 -> chi^0_1 c c_bar)
     1.52692395E-01    3     1000022         1        -1   # BR(chi^0_2 -> chi^0_1 d d_bar)
     1.52679413E-01    3     1000022         3        -3   # BR(chi^0_2 -> chi^0_1 s s_bar)
     1.29754175E-01    3     1000022         5        -5   # BR(chi^0_2 -> chi^0_1 b b_bar)
     3.44578066E-02    3     1000022        11       -11   # BR(chi^0_2 -> chi^0_1 e^- e^+)
     3.44531564E-02    3     1000022        13       -13   # BR(chi^0_2 -> chi^0_1 mu^- mu^+)
     3.31749184E-02    3     1000022        15       -15   # BR(chi^0_2 -> chi^0_1 tau^- tau^+)
     2.04193613E-01    3     1000022        12       -12   # BR(chi^0_2 -> chi^0_1 nu_e nu_bar_e)
DECAY   1000025     1.36743953E-04   # chi^0_3
#    BR                NDA      ID1      ID2
     9.76649385E-04    2     1000022        22   # BR(chi^0_3 -> chi^0_1 photon)
     1.62603587E-02    2     1000023        22   # BR(chi^0_3 -> chi^0_2 photon)
#    BR                NDA      ID1      ID2       ID3
     3.19739137E-04    3     1000022         2        -2   # BR(chi^0_3 -> chi^0_1 u u_bar)
     3.18613032E-04    3     1000022         4        -4   # BR(chi^0_3 -> chi^0_1 c c_bar)
     4.09261479E-04    3     1000022         1        -1   # BR(chi^0_3 -> chi^0_1 d d_bar)
     4.09256428E-04    3     1000022         3        -3   # BR(chi^0_3 -> chi^0_1 s s_bar)
     4.28187909E-04    3     1000022         5        -5   # BR(chi^0_3 -> chi^0_1 b b_bar)
     5.48244647E-04    3     1000022        12       -12   # BR(chi^0_3 -> chi^0_1 nu_e nu_bar_e)
     2.99419563E-02    3     1000023         2        -2   # BR(chi^0_3 -> chi^0_2 u u_bar)
     2.91942414E-02    3     1000023         4        -4   # BR(chi^0_3 -> chi^0_2 c c_bar)
     3.83916885E-02    3     1000023         1        -1   # BR(chi^0_3 -> chi^0_2 d d_bar)
     3.83870137E-02    3     1000023         3        -3   # BR(chi^0_3 -> chi^0_2 s s_bar)
     3.03567902E-02    3     1000023         5        -5   # BR(chi^0_3 -> chi^0_2 b b_bar)
     8.66402061E-03    3     1000023        11       -11   # BR(chi^0_3 -> chi^0_2 e^- e^+)
     8.66235224E-03    3     1000023        13       -13   # BR(chi^0_3 -> chi^0_2 mu^- mu^+)
     8.20806505E-03    3     1000023        15       -15   # BR(chi^0_3 -> chi^0_2 tau^- tau^+)
     5.13406991E-02    3     1000023        12       -12   # BR(chi^0_3 -> chi^0_2 nu_e nu_bar_e)
     1.23394010E-01    3     1000024         1        -2   # BR(chi^0_3 -> chi^+_1 d u_bar)
     1.23394010E-01    3    -1000024        -1         2   # BR(chi^0_3 -> chi^-_1 d_bar u)
     1.22342171E-01    3     1000024         3        -4   # BR(chi^0_3 -> chi^+_1 s c_bar)
     1.22342171E-01    3    -1000024        -3         4   # BR(chi^0_3 -> chi^-_1 s_bar c)
     4.11314360E-02    3     1000024        11       -12   # BR(chi^0_3 -> chi^+_1 e^- nu_bar_e)
     4.11314360E-02    3    -1000024       -11        12   # BR(chi^0_3 -> chi^-_1 e^+ nu_e)
     4.11297680E-02    3     1000024        13       -14   # BR(chi^0_3 -> chi^+_1 mu^- nu_bar_mu)
     4.11297680E-02    3    -1000024       -13        14   # BR(chi^0_3 -> chi^-_1 mu^+ nu_mu)
     4.04563154E-02    3     1000024        15       -16   # BR(chi^0_3 -> chi^+_1 tau^- nu_bar_tau)
     4.04563154E-02    3    -1000024       -15        16   # BR(chi^0_3 -> chi^-_1 tau^+ nu_tau)
DECAY   1000035     1.96954916E+01   # chi^0_4
#    BR                NDA      ID1      ID2
     2.29924287E-01    2     1000024       -24   # BR(chi^0_4 -> chi^+_1 W^-)
     2.29924287E-01    2    -1000024        24   # BR(chi^0_4 -> chi^-_1 W^+)
     5.67058041E-02    2     1000022        23   # BR(chi^0_4 -> chi^0_1 Z)
     8.62892035E-02    2     1000023        23   # BR(chi^0_4 -> chi^0_2 Z)
     8.64314908E-02    2     1000025        23   # BR(chi^0_4 -> chi^0_3 Z)
     5.27362962E-02    2     1000022        25   # BR(chi^0_4 -> chi^0_1 h^0)
     1.44907107E-01    2     1000023        25   # BR(chi^0_4 -> chi^0_2 h^0)
     8.20350261E-02    2     1000025        25   # BR(chi^0_4 -> chi^0_3 h^0)
#    BR                NDA      ID1      ID2       ID3
     2.49762325E-03    3     1000022         6        -6   # BR(chi^0_4 -> chi^0_1 t t_bar)
     6.27422349E-03    3     1000023         6        -6   # BR(chi^0_4 -> chi^0_2 t t_bar)
     3.64125719E-03    3     1000025         6        -6   # BR(chi^0_4 -> chi^0_3 t t_bar)
     9.24781148E-03    3     1000024         5        -6   # BR(chi^0_4 -> chi^+_1 b t_bar)
     9.24781148E-03    3    -1000024        -5         6   # BR(chi^0_4 -> chi^-_1 b_bar t)
DECAY   1000021     7.80912996E+00   # ~g
#    BR                NDA      ID1      ID2
     1.37251174E-04    2     1000006        -4   # BR(~g -> ~t_1 c_bar)
     1.37251174E-04    2    -1000006         4   # BR(~g -> ~t^*_1 c)
     4.67236884E-01    2     1000006        -6   # BR(~g -> ~t_1 t_bar)
     4.67236884E-01    2    -1000006         6   # BR(~g -> ~t^*_1 t)
     3.08454831E-04    2     1000022        21   # BR(~g -> chi^0_1 g)
     3.75857024E-04    2     1000023        21   # BR(~g -> chi^0_2 g)
     1.38930667E-04    2     1000025        21   # BR(~g -> chi^0_3 g)
#    BR                NDA      ID1      ID2       ID3
     1.28439754E-03    3     1000022         6        -6   # BR(~g -> chi^0_1 t t_bar)
     6.70964404E-03    3     1000022         5        -5   # BR(~g -> chi^0_1 b b_bar)
     3.32707855E-03    3     1000023         6        -6   # BR(~g -> chi^0_2 t t_bar)
     1.22266248E-02    3     1000023         5        -5   # BR(~g -> chi^0_2 b b_bar)
     2.11047005E-03    3     1000025         6        -6   # BR(~g -> chi^0_3 t t_bar)
     6.19400663E-03    3     1000025         5        -5   # BR(~g -> chi^0_3 b b_bar)
     2.34084263E-04    3     1000035         6        -6   # BR(~g -> chi^0_4 t t_bar)
     2.60432851E-04    3     1000035         5        -5   # BR(~g -> chi^0_4 b b_bar)
     1.55091345E-02    3     1000024         5        -6   # BR(~g -> chi^+_1 b t_bar)
     1.55091345E-02    3    -1000024        -5         6   # BR(~g -> chi^-_1 b_bar t)
     4.94864574E-04    3     1000037         5        -6   # BR(~g -> chi^+_2 b t_bar)
     4.94864574E-04    3    -1000037        -5         6   # BR(~g -> chi^-_2 b_bar t)
DECAY        25     3.17019412E-03   # Gamma(h0)
     2.53745187E-03   2        22        22   # BR(h0 -> photon photon)
     1.29875363E-03   2        22        23   # BR(h0 -> photon Z)
     2.10659132E-02   2        23        23   # BR(h0 -> Z Z)
     1.87365986E-01   2       -24        24   # BR(h0 -> W W)
     8.15045359E-02   2        21        21   # BR(h0 -> gluon gluon)
     5.41951225E-09   2       -11        11   # BR(h0 -> Electron electron)
     2.41067430E-04   2       -13        13   # BR(h0 -> Muon muon)
     6.95031545E-02   2       -15        15   # BR(h0 -> Tau tau)
     1.54976644E-07   2        -2         2   # BR(h0 -> Up up)
     3.00747876E-02   2        -4         4   # BR(h0 -> Charm charm)
     6.30644719E-07   2        -1         1   # BR(h0 -> Down down)
     2.28088928E-04   2        -3         3   # BR(h0 -> Strange strange)
     6.06179470E-01   2        -5         5   # BR(h0 -> Bottom bottom)
DECAY        35     1.67512374E+02   # Gamma(HH)
     1.57643684E-09   2        22        22   # BR(HH -> photon photon)
     4.36318971E-09   2        22        23   # BR(HH -> photon Z)
     4.10832549E-08   2        23        23   # BR(HH -> Z Z)
     8.34540595E-09   2       -24        24   # BR(HH -> W W)
     5.79896731E-06   2        21        21   # BR(HH -> gluon gluon)
     1.01364819E-08   2       -11        11   # BR(HH -> Electron electron)
     4.51370165E-04   2       -13        13   # BR(HH -> Muon muon)
     1.30367735E-01   2       -15        15   # BR(HH -> Tau tau)
     1.94354913E-14   2        -2         2   # BR(HH -> Up up)
     3.77060891E-09   2        -4         4   # BR(HH -> Charm charm)
     2.69364677E-04   2        -6         6   # BR(HH -> Top top)
     7.09423154E-07   2        -1         1   # BR(HH -> Down down)
     2.56610115E-04   2        -3         3   # BR(HH -> Strange strange)
     6.58046141E-01   2        -5         5   # BR(HH -> Bottom bottom)
     6.87433385E-04   2  -1000024   1000024   # BR(HH -> Chargino1 chargino1)
     6.03389565E-02   2  -1000024   1000037   # BR(HH -> Chargino1 chargino2)
     6.03389565E-02   2  -1000037   1000024   # BR(HH -> Chargino2 chargino1)
     2.91409008E-07   2  -1000037   1000037   # BR(HH -> Chargino2 chargino2)
     7.44168267E-03   2   1000022   1000022   # BR(HH -> neutralino1 neutralino1)
     5.43979388E-03   2   1000022   1000023   # BR(HH -> neutralino1 neutralino2)
     6.92640951E-04   2   1000022   1000025   # BR(HH -> neutralino1 neutralino3)
     2.04656138E-02   2   1000022   1000035   # BR(HH -> neutralino1 neutralino4)
     2.09961060E-06   2   1000023   1000023   # BR(HH -> neutralino2 neutralino2)
     8.38230630E-03   2   1000023   1000025   # BR(HH -> neutralino2 neutralino3)
     2.70238216E-02   2   1000023   1000035   # BR(HH -> neutralino2 neutralino4)
     6.78692361E-03   2   1000025   1000025   # BR(HH -> neutralino3 neutralino3)
     1.30013081E-02   2   1000025   1000035   # BR(HH -> neutralino3 neutralino4)
     1.46131785E-07   2   1000035   1000035   # BR(HH -> neutralino4 neutralino4)
     2.26824111E-07   2        25        25   # BR(HH -> h0 h0)
DECAY        36     1.55976672E+02   # Gamma(A0)
     2.59051106E-08   2        22        22   # BR(A0 -> photon photon)
     2.95453614E-08   2        22        23   # BR(A0 -> photon Z)
     9.19014332E-06   2        21        21   # BR(A0 -> gluon gluon)
     9.93400508E-09   2       -11        11   # BR(A0 -> Electron electron)
     4.42355897E-04   2       -13        13   # BR(A0 -> Muon muon)
     1.27764291E-01   2       -15        15   # BR(A0 -> Tau tau)
     1.78396316E-14   2        -2         2   # BR(A0 -> Up up)
     3.46095010E-09   2        -4         4   # BR(A0 -> Charm charm)
     2.48476405E-04   2        -6         6   # BR(A0 -> Top top)
     6.95208768E-07   2        -1         1   # BR(A0 -> Down down)
     2.51467975E-04   2        -3         3   # BR(A0 -> Strange strange)
     6.44872606E-01   2        -5         5   # BR(A0 -> Bottom bottom)
     7.53718597E-04   2  -1000024   1000024   # BR(A0 -> Chargino1 chargino1)
     6.48634616E-02   2  -1000024   1000037   # BR(A0 -> Chargino1 chargino2)
     6.48634616E-02   2  -1000037   1000024   # BR(A0 -> Chargino2 chargino1)
     5.26395848E-06   2  -1000037   1000037   # BR(A0 -> Chargino2 chargino2)
     7.56478056E-03   2   1000022   1000022   # BR(A0 -> neutralino1 neutralino1)
     6.23708510E-03   2   1000022   1000023   # BR(A0 -> neutralino1 neutralino2)
     7.33238630E-04   2   1000022   1000025   # BR(A0 -> neutralino1 neutralino3)
     1.84147475E-02   2   1000022   1000035   # BR(A0 -> neutralino1 neutralino4)
     2.45357622E-06   2   1000023   1000023   # BR(A0 -> neutralino2 neutralino2)
     9.55642957E-03   2   1000023   1000025   # BR(A0 -> neutralino2 neutralino3)
     3.55063574E-02   2   1000023   1000035   # BR(A0 -> neutralino2 neutralino4)
     6.79743446E-03   2   1000025   1000025   # BR(A0 -> neutralino3 neutralino3)
     1.11096833E-02   2   1000025   1000035   # BR(A0 -> neutralino3 neutralino4)
     2.63667353E-06   2   1000035   1000035   # BR(A0 -> neutralino4 neutralino4)
     9.67459981E-08   2        23        25   # BR(A0 -> Z h0)
     3.35019883E-13   2        23        35   # BR(A0 -> Z HH)
     6.17177277E-42   2        25        25   # BR(A0 -> h0 h0)
DECAY        37     1.89309505E+02   # Gamma(Hp)
     1.09040744E-08   2       -11        12   # BR(Hp -> Electron nu_e)
     4.66183236E-04   2       -13        14   # BR(Hp -> Muon nu_mu)
     1.31863172E-01   2       -15        16   # BR(Hp -> Tau nu_tau)
     6.67937578E-07   2        -1         2   # BR(Hp -> Down up)
     1.13153458E-05   2        -3         2   # BR(Hp -> Strange up)
     7.20419279E-06   2        -5         2   # BR(Hp -> Bottom up)
     3.14695670E-08   2        -1         4   # BR(Hp -> Down charm)
     2.40728591E-04   2        -3         4   # BR(Hp -> Strange charm)
     1.00884492E-03   2        -5         4   # BR(Hp -> Bottom charm)
     1.81148636E-08   2        -1         6   # BR(Hp -> Down top)
     7.53802190E-07   2        -3         6   # BR(Hp -> Strange top)
     6.80165366E-01   2        -5         6   # BR(Hp -> Bottom top)
     1.29324288E-02   2   1000022   1000024   # BR(Hp -> neutralino1 chargino1)
     3.32771709E-02   2   1000022   1000037   # BR(Hp -> neutralino1 chargino2)
     3.58286077E-04   2   1000023   1000024   # BR(Hp -> neutralino2 chargino1)
     5.32512049E-02   2   1000023   1000037   # BR(Hp -> neutralino2 chargino2)
     1.23118999E-02   2   1000024   1000025   # BR(Hp -> chargino1 neutralino3)
     2.06508859E-02   2   1000025   1000037   # BR(Hp -> neutralino3 chargino2)
     5.34537476E-02   2   1000024   1000035   # BR(Hp -> chargino1 neutralino4)
     9.86884748E-13   2   1000035   1000037   # BR(Hp -> neutralino4 chargino2)
     7.96460115E-08   2        24        25   # BR(Hp -> W h0)
DECAY         6     2.43000000E+00   # top
#    BR                NDA      ID1      ID2
     1.00000000E+00    2           5        24   # BR(t -> b W)
Block HiggsBoundsInputHiggsCouplingsFermions
# ScalarNormEffCoupSq PseudoSNormEffCoupSq NP IP1 IP2 IP2
    9.90595479E-01    0.00000000E+00        3  25   5   5  # h0-b-b eff. coupling^2, normalised to SM
    2.97957007E+03    0.00000000E+00        3  35   5   5  # H0-b-b eff. coupling^2, normalised to SM
    0.00000000E+00    2.97956066E+03        3  36   5   5  # A0-b-b eff. coupling^2, normalised to SM
#
    1.00000316E+00    0.00000000E+00        3  25   6   6  # h0-t-t eff. coupling^2, normalised to SM
    3.32463605E-04    0.00000000E+00        3  35   6   6  # H0-t-t eff. coupling^2, normalised to SM
    0.00000000E+00    3.35619950E-04        3  36   6   6  # A0-t-t eff. coupling^2, normalised to SM
#
    9.90595479E-01    0.00000000E+00        3  25  15  15  # h0-tau-tau eff. coupling^2, normalised to SM
    2.97957007E+03    0.00000000E+00        3  35  15  15  # H0-tau-tau eff. coupling^2, normalised to SM
    0.00000000E+00    2.97956066E+03        3  36  15  15  # A0-tau-tau eff. coupling^2, normalised to SM
#
Block HiggsBoundsInputHiggsCouplingsBosons
    9.99999993E-01        3  25  24  24  # h0-W-W eff. coupling^2, normalised to SM
    7.45606767E-09        3  35  24  24  # H0-W-W eff. coupling^2, normalised to SM
    0.00000000E+00        3  36  24  24  # A0-W-W eff. coupling^2, normalised to SM
#
    9.99999993E-01        3  25  23  23  # h0-Z-Z eff. coupling^2, normalised to SM
    7.45606767E-09        3  35  23  23  # H0-Z-Z eff. coupling^2, normalised to SM
    0.00000000E+00        3  36  23  23  # A0-Z-Z eff. coupling^2, normalised to SM
#
    1.26518367E+00        3  25  21  21  # h0-g-g eff. coupling^2, normalised to SM
    1.35694683E-02        3  35  21  21  # H0-g-g eff. coupling^2, normalised to SM
    1.43376206E-01        3  36  21  21  # A0-g-g eff. coupling^2, normalised to SM
#
    0.00000000E+00        3  25  25  23  # h0-h0-Z eff. coupling^2, normalised to SM
    0.00000000E+00        3  35  25  23  # H0-h0-Z eff. coupling^2, normalised to SM
    7.45606767E-09        3  36  25  23  # A0-h0-Z eff. coupling^2, normalised to SM
    0.00000000E+00        3  35  35  23  # H0-H0-Z eff. coupling^2, normalised to SM
    9.99999993E-01        3  36  35  23  # A0-H0-Z eff. coupling^2, normalised to SM
    0.00000000E+00        3  36  36  23  # A0-A0-Z eff. coupling^2, normalised to SM
#
    0.00000000E+00        4  25  21  21  23  # h0-g-g-Z eff. coupling^2, normalised to SM
    0.00000000E+00        4  35  21  21  23  # H0-g-g-Z eff. coupling^2, normalised to SM
    0.00000000E+00        4  36  21  21  23  # A0-g-g-Z eff. coupling^2, normalised to SM
Block SPhenoLowEnergy  # low energy observables
    1    3.13902312E-04   # BR(b -> s gamma)
    2    1.59102695E-06   # BR(b -> s mu+ mu-)
    3    3.52469379E-05   # BR(b -> s nu nu)
    4    2.89748153E-15   # BR(Bd -> e+ e-)
    5    1.23775785E-10   # BR(Bd -> mu+ mu-)
    6    2.58347591E-08   # BR(Bd -> tau+ tau-)
    7    9.69515612E-14   # BR(Bs -> e+ e-)
    8    4.14172557E-09   # BR(Bs -> mu+ mu-)
    9    8.76057709E-07   # BR(Bs -> tau+ tau-)
   10    9.59007808E-05   # BR(B_u -> tau nu)
   11    9.90618350E-01   # BR(B_u -> tau nu)/BR(B_u -> tau nu)_SM
   12    5.42154151E-01   # |Delta(M_Bd)| [ps^-1] 
   13    1.93655374E+01   # |Delta(M_Bs)| [ps^-1] 
   14    0.00000000E+00   # neutron EDM according to the chiral quark model
   15    0.00000000E+00   # neutron EDM according to the relativistic quark-parton model
   16    2.15815518E-03   # epsilon_K
   17    2.28166775E-15   # Delta(M_K)
   18    2.47944287E-11   # BR(K^0 -> pi^0 nu nu)
   19    8.28924964E-11   # BR(K^+ -> pi^+ nu nu)
   20    5.55296762E-16   # Delta(g-2)_electron/2
   21    2.37409595E-11   # Delta(g-2)_muon/2
   22    6.73556958E-09   # Delta(g-2)_tau/2
   23    0.00000000E+00   # electric dipole moment of the electron
   24    0.00000000E+00   # electric dipole moment of the muon
   25    0.00000000E+00   # electric dipole moment of the tau
   26    0.00000000E+00   # Br(mu -> e gamma)
   27    0.00000000E+00   # Br(tau -> e gamma)
   28    0.00000000E+00   # Br(tau -> mu gamma)
   29    0.00000000E+00   # Br(mu -> 3 e)
   30    0.00000000E+00   # Br(tau -> 3 e)
   31    0.00000000E+00   # Br(tau -> 3 mu)
   39    7.13198001E-05   # Delta(rho_parameter)
   40    0.00000000E+00   # BR(Z -> e mu)
   41    0.00000000E+00   # BR(Z -> e tau)
   42    0.00000000E+00   # BR(Z -> mu tau)
Block FWCOEF Q=  1.60000000E+02  # Wilson coefficients at scale Q
#    id        order  M        value         comment
     0305 4422   00   0    -1.88819110E-01   # C7
     0305 4422   00   2    -1.80200798E-01   # C7
     0305 4322   00   2     5.98815209E-06   # C7'
     0305 6421   00   0    -9.52278348E-02   # C8
     0305 6421   00   2    -9.54980707E-02   # C8
     0305 6321   00   2    -8.38956270E-05   # C8'
 03051111 4133   00   0     1.62379039E+00   # C9 e+e-
 03051111 4133   00   2     1.62433256E+00   # C9 e+e-
 03051111 4233   00   2     5.63776477E-04   # C9' e+e-
 03051111 4137   00   0    -4.44648250E+00   # C10 e+e-
 03051111 4137   00   2    -4.44441513E+00   # C10 e+e-
 03051111 4237   00   2    -4.18877137E-03   # C10' e+e-
 03051313 4133   00   0     1.62379039E+00   # C9 mu+mu-
 03051313 4133   00   2     1.62433229E+00   # C9 mu+mu-
 03051313 4233   00   2     5.63775843E-04   # C9' mu+mu-
 03051313 4137   00   0    -4.44648250E+00   # C10 mu+mu-
 03051313 4137   00   2    -4.44441541E+00   # C10 mu+mu-
 03051313 4237   00   2    -4.18877199E-03   # C10' mu+mu-
 03051212 4137   00   0     1.50535012E+00   # C11 nu_1 nu_1
 03051212 4137   00   2     1.50490362E+00   # C11 nu_1 nu_1
 03051212 4237   00   2     9.06359761E-04   # C11' nu_1 nu_1
 03051414 4137   00   0     1.50535012E+00   # C11 nu_2 nu_2
 03051414 4137   00   2     1.50490362E+00   # C11 nu_2 nu_2
 03051414 4237   00   2     9.06359829E-04   # C11' nu_2 nu_2
 03051616 4137   00   0     1.50535012E+00   # C11 nu_3 nu_3
 03051616 4137   00   2     1.50490362E+00   # C11 nu_3 nu_3
 03051616 4237   00   2     9.06379119E-04   # C11' nu_3 nu_3
Block IMFWCOEF Q=  1.60000000E+02  # Im(Wilson coefficients) at scale Q
#    id        order  M        value         comment
     0305 4422   00   0     3.85821206E-07   # C7
     0305 4422   00   2     1.19271589E-05   # C7
     0305 4322   00   2     1.49283318E-06   # C7'
     0305 6421   00   0     3.30481379E-07   # C8
     0305 6421   00   2    -6.37455351E-06   # C8
     0305 6321   00   2     3.26661154E-07   # C8'
 03051111 4133   00   2     2.84498851E-07   # C9 e+e-
 03051111 4233   00   2     1.08622338E-05   # C9' e+e-
 03051111 4137   00   2    -8.05199279E-07   # C10 e+e-
 03051111 4237   00   2    -8.07090875E-05   # C10' e+e-
 03051313 4133   00   2     2.84495383E-07   # C9 mu+mu-
 03051313 4233   00   2     1.08622282E-05   # C9' mu+mu-
 03051313 4137   00   2    -8.05195935E-07   # C10 mu+mu-
 03051313 4237   00   2    -8.07091044E-05   # C10' mu+mu-
 03051212 4137   00   2     1.88873370E-07   # C11 nu_1 nu_1
 03051212 4237   00   2     1.74637065E-05   # C11' nu_1 nu_1
 03051414 4137   00   2     1.88873499E-07   # C11 nu_2 nu_2
 03051414 4237   00   2     1.74637065E-05   # C11' nu_2 nu_2
 03051616 4137   00   2     1.88908881E-07   # C11 nu_3 nu_3
 03051616 4237   00   2     1.74637065E-05   # C11' nu_3 nu_3
