# SUSY Les Houches Accord 2 - MSSM spectrum + Decays
# SPheno v4.0.5be
# W. Porod, Comput. Phys. Commun. 153 (2003) 275-315, hep-ph/0301101;
# W. Porod, F.~Staub, Comput. Phys. Commun. 183 (2012) 2458
#                     arXiv:1104.1573 [hep-ph] 
# in case of problems send email to porod@physik.uni-wuerzburg.de
# Created: 07.09.2021,  21:42
Block SPINFO         # Program information
     1   SPheno      # spectrum calculator
     2   v4.0.5be    # version number
#
Block SPhenoINFO     # SPheno specific information
    1      2         # using 2-loop RGEs
    2      2         # using pole masses for boundary conditions at mZ
Block MODSEL  # Model selection
    1    0    # general MSSM
Block MINPAR  # Input parameters
    3    1.39639291E+01  # tanb at m_Z    
    4   -1.00000000E+00  # Sign(mu)
Block EXTPAR  # non-universal input parameters
    0    3.54377083E+03  # scale for input parameters
    1    2.13269163E+02  # M_1
    2   -4.07783075E+02  # M_2
    3    1.64722090E+03  # M_3
   11    9.11857263E+02  # A_t
   12   -1.58484861E+03  # A_b
   13    1.58102109E+03  # A_tau
   23   -2.65551731E+02  # mu
   25    1.33044841E+01  # tan(beta)
   26    7.86002196E+01  # m_A, pole mass
   31    1.00000000E+04  # M_L11
   32    1.00000000E+04  # M_L22
   33    1.00000000E+04  # M_L33
   34    1.00000000E+04  # M_E11
   35    1.00000000E+04  # M_E22
   36    1.00000000E+04  # M_E33
   41    1.00000000E+04  # M_Q11
   42    1.00000000E+04  # M_Q22
   43    2.52456168E+03  # M_Q33
   44    1.00000000E+04  # M_U11
   45    1.00000000E+04  # M_U22
   46    4.86062931E+03  # M_U33
   47    1.00000000E+04  # M_D11
   48    1.00000000E+04  # M_D22
   49    2.95434629E+03  # M_D33
Block SMINPUTS  # SM parameters
         1     1.27908970E+02  # alpha_em^-1(MZ)^MSbar
         2     1.16637870E-05  # G_mu [GeV^-2]
         3     1.18400000E-01  # alpha_s(MZ)^MSbar
         4     9.11876000E+01  # m_Z(pole)
         5     4.18000000E+00  # m_b(m_b), MSbar
         6     1.73200000E+02  # m_t(pole)
         7     1.77700000E+00  # m_tau(pole)
         8     0.00000000E+00  # m_nu_3
        11     5.10998930E-04  # m_e(pole)
        12     0.00000000E+00  # m_nu_1
        13     1.05658372E-01  # m_muon(pole)
        14     0.00000000E+00  # m_nu_2
        21     5.00000000E-03  # m_d(2 GeV), MSbar
        22     2.50000000E-03  # m_u(2 GeV), MSbar
        23     9.50000000E-02  # m_s(2 GeV), MSbar
        24     1.27000000E+00  # m_c(m_c), MSbar
Block gauge Q=  3.54377083E+03  # (SUSY scale)
   1    3.55362975E-01  # g'(Q)^DRbar
   2    6.65198874E-01  # g(Q)^DRbar
   3    1.21977796E+00  # g3(Q)^DRbar
Block Yu Q=  3.54377083E+03  # (SUSY scale)
  1  1     8.40802220E-06   # Y_u(Q)^DRbar
  2  2     4.27127528E-03   # Y_c(Q)^DRbar
  3  3     1.01575662E+00   # Y_t(Q)^DRbar
Block Yd Q=  3.54377083E+03  # (SUSY scale)
  1  1     2.24787489E-04   # Y_d(Q)^DRbar
  2  2     4.27096229E-03   # Y_s(Q)^DRbar
  3  3     2.22918751E-01   # Y_b(Q)^DRbar
Block Ye Q=  3.54377083E+03  # (SUSY scale)
  1  1     3.92270606E-05   # Y_e(Q)^DRbar
  2  2     8.11091202E-03   # Y_mu(Q)^DRbar
  3  3     1.36412197E-01   # Y_tau(Q)^DRbar
Block Au Q=  3.54377083E+03  # (SUSY scale)
  1  1     0.00000000E+00   # A_u(Q)^DRbar
  2  2     0.00000000E+00   # A_c(Q)^DRbar
  3  3     9.11857254E+02   # A_t(Q)^DRbar
Block Ad Q=  3.54377083E+03  # (SUSY scale)
  1  1     0.00000000E+00   # A_d(Q)^DRbar
  2  2     0.00000000E+00   # A_s(Q)^DRbar
  3  3    -1.58484861E+03   # A_b(Q)^DRbar
Block Ae Q=  3.54377083E+03  # (SUSY scale)
  1  1     0.00000000E+00   # A_e(Q)^DRbar
  2  2     0.00000000E+00   # A_mu(Q)^DRbar
  3  3     1.58102109E+03   # A_tau(Q)^DRbar
Block MSOFT Q=  3.54377083E+03  # soft SUSY breaking masses at Q
   1    2.13269163E+02  # M_1
   2   -4.07783075E+02  # M_2
   3    1.64722090E+03  # M_3
  21   -8.73728163E+04  # M^2_(H,d)
  22    1.56328054E+05  # M^2_(H,u)
  31    1.00000000E+04  # M_(L,11)
  32    1.00000000E+04  # M_(L,22)
  33    1.00000000E+04  # M_(L,33)
  34    1.00000000E+04  # M_(E,11)
  35    1.00000000E+04  # M_(E,22)
  36    1.00000000E+04  # M_(E,33)
  41    1.00000000E+04  # M_(Q,11)
  42    1.00000000E+04  # M_(Q,22)
  43    2.52456168E+03  # M_(Q,33)
  44    1.00000000E+04  # M_(U,11)
  45    1.00000000E+04  # M_(U,22)
  46    4.86062931E+03  # M_(U,33)
  47    1.00000000E+04  # M_(D,11)
  48    1.00000000E+04  # M_(D,22)
  49    2.95434629E+03  # M_(D,33)
Block MASS  # Mass spectrum
#   PDG code      mass          particle
         6     1.73200000E+02  # m_t(pole)
        23     9.11876000E+01  # m_Z(pole)
        24     8.04299946E+01  # W+
        15     1.77700000E+00  # m_tau(pole)
        25     7.81604087E+01  # h0
        35     1.23255120E+02  # H0
        36     7.86002196E+01  # A0
        37     1.28781479E+02  # H+
   1000001     1.01198065E+04  # ~d_L
   2000001     1.00943418E+04  # ~d_R
   1000002     1.01194407E+04  # ~u_L
   2000002     1.00981369E+04  # ~u_R
   1000003     1.01198075E+04  # ~s_L
   2000003     1.00943428E+04  # ~s_R
   1000004     1.01194417E+04  # ~c_L
   2000004     1.00981379E+04  # ~c_R
   1000005     2.57299236E+03  # ~b_1
   2000005     3.00978508E+03  # ~b_2
   1000006     2.57595382E+03  # ~t_1
   2000006     4.87520841E+03  # ~t_2
   1000011     1.00217588E+04  # ~e_L-
   2000011     1.00083873E+04  # ~e_R-
   1000012     1.00209856E+04  # ~nu_eL
   1000013     1.00217613E+04  # ~mu_L-
   2000013     1.00083922E+04  # ~mu_R-
   1000014     1.00209882E+04  # ~nu_muL
   1000015     1.00097791E+04  # ~tau_1-
   2000015     1.00224968E+04  # ~tau_2-
   1000016     1.00217069E+04  # ~nu_tauL
   1000021     2.01886069E+03  # ~g
   1000022     2.06044343E+02  # ~chi_10
   1000023     2.59741605E+02  # ~chi_20
   1000025     2.92036783E+02  # ~chi_30
   1000035     4.67572920E+02  # ~chi_40
   1000024     2.61315855E+02  # ~chi_1+
   1000037     4.67965855E+02  # ~chi_2+
# Higgs mixing
Block alpha # Effective Higgs mixing angle
          -1.44883992E+00   # alpha
Block Hmix Q=  3.54377083E+03  # Higgs mixing parameters
   1   -2.65551731E+02  # mu
   2    1.33044841E+01  # tan[beta](Q)
   3    2.43183448E+02  # v(Q)
   4    6.17799452E+03  # m^2_A(Q)
Block stopmix # stop mixing matrix
   1  1    -9.99982260E-01   # Re[R_st(1,1)]
   1  2     5.95650562E-03   # Re[R_st(1,2)]
   2  1    -5.95650562E-03   # Re[R_st(2,1)]
   2  2    -9.99982260E-01   # Re[R_st(2,2)]
Block sbotmix # sbottom mixing matrix
   1  1    -9.99998856E-01   # Re[R_sb(1,1)]
   1  2     1.51282976E-03   # Re[R_sb(1,2)]
   2  1    -1.51282976E-03   # Re[R_sb(2,1)]
   2  2    -9.99998856E-01   # Re[R_sb(2,2)]
Block staumix # stau mixing matrix
   1  1    -3.58232549E-02   # Re[R_sta(1,1)]
   1  2     9.99358141E-01   # Re[R_sta(1,2)]
   2  1    -9.99358141E-01   # Re[R_sta(2,1)]
   2  2    -3.58232549E-02   # Re[R_sta(2,2)]
Block Nmix # neutralino mixing matrix
   1  1     9.31827274E-01   # Re[N(1,1)]
   1  2     2.35678553E-02   # Re[N(1,2)]
   1  3    -2.95587434E-01   # Re[N(1,3)]
   1  4    -2.09214143E-01   # Re[N(1,4)]
   2  1    -6.47197337E-02   # Re[N(2,1)]
   2  2    -3.08873183E-01   # Re[N(2,2)]
   2  3    -6.89829308E-01   # Re[N(2,3)]
   2  4     6.51570594E-01   # Re[N(2,4)]
   3  1     3.56629387E-01   # Re[N(3,1)]
   3  2    -6.97154876E-02   # Re[N(3,2)]
   3  3     6.38533809E-01   # Re[N(3,3)]
   3  4     6.78402392E-01   # Re[N(3,4)]
   4  1    -1.80213389E-02   # Re[N(4,1)]
   4  2     9.48251899E-01   # Re[N(4,2)]
   4  3    -1.70405898E-01   # Re[N(4,3)]
   4  4     2.67311424E-01   # Re[N(4,4)]
Block Umix # chargino mixing matrix
   1  1    -2.42082017E-01   # Re[U(1,1)]
   1  2    -9.70255789E-01   # Re[U(1,2)]
   2  1    -9.70255789E-01   # Re[U(2,1)]
   2  2     2.42082017E-01   # Re[U(2,2)]
Block Vmix # chargino mixing matrix
   1  1     3.81221079E-01   # Re[V(1,1)]
   1  2     9.24483904E-01   # Re[V(1,2)]
   2  1     9.24483904E-01   # Re[V(2,1)]
   2  2    -3.81221079E-01   # Re[V(2,2)]
DECAY        23     2.49520000E+00   # Z
DECAY        24     2.08500000E+00   # W
DECAY   2000011     5.02402436E+01   # ~e^-_R
#    BR                NDA      ID1      ID2
     8.68399339E-01    2     1000022        11   # BR(~e^-_R -> chi^0_1 e^-)
     4.18702343E-03    2     1000023        11   # BR(~e^-_R -> chi^0_2 e^-)
     1.27089968E-01    2     1000025        11   # BR(~e^-_R -> chi^0_3 e^-)
     3.23663233E-04    2     1000035        11   # BR(~e^-_R -> chi^0_4 e^-)
DECAY   1000011     1.44365952E+02   # ~e^-_L
#    BR                NDA      ID1      ID2
     8.29862016E-02    2     1000022        11   # BR(~e^-_L -> chi^0_1 e^-)
     3.59931757E-02    2     1000023        11   # BR(~e^-_L -> chi^0_2 e^-)
     4.45145611E-03    2     1000025        11   # BR(~e^-_L -> chi^0_3 e^-)
     2.68023796E-01    2     1000035        11   # BR(~e^-_L -> chi^0_4 e^-)
     3.57640447E-02    2    -1000024        12   # BR(~e^-_L -> chi^-_1 nu_e)
     5.72781326E-01    2    -1000037        12   # BR(~e^-_L -> chi^-_2 nu_e)
#    BR                NDA      ID1      ID2       ID3
DECAY   2000013     5.02664250E+01   # ~mu^-_R
#    BR                NDA      ID1      ID2
     8.67970209E-01    2     1000022        13   # BR(~mu^-_R -> chi^0_1 mu^-)
     4.30867896E-03    2     1000023        13   # BR(~mu^-_R -> chi^0_2 mu^-)
     1.27129896E-01    2     1000025        13   # BR(~mu^-_R -> chi^0_3 mu^-)
     3.31028566E-04    2     1000035        13   # BR(~mu^-_R -> chi^0_4 mu^-)
     2.44983027E-04    2    -1000024        14   # BR(~mu^-_R -> chi^-_1 nu_mu)
DECAY   1000013     1.44379084E+02   # ~mu^-_L
#    BR                NDA      ID1      ID2
     8.29866040E-02    2     1000022        13   # BR(~mu^-_L -> chi^0_1 mu^-)
     3.60330839E-02    2     1000023        13   # BR(~mu^-_L -> chi^0_2 mu^-)
     4.48802961E-03    2     1000025        13   # BR(~mu^-_L -> chi^0_3 mu^-)
     2.68002110E-01    2     1000035        13   # BR(~mu^-_L -> chi^0_4 mu^-)
     3.57608007E-02    2    -1000024        14   # BR(~mu^-_L -> chi^-_1 nu_mu)
     5.72729372E-01    2    -1000037        14   # BR(~mu^-_L -> chi^-_2 nu_mu)
#    BR                NDA      ID1      ID2       ID3
DECAY   1000015     5.77643524E+01   # ~tau^-_1
#    BR                NDA      ID1      ID2
     7.62506605E-01    2     1000022        15   # BR(~tau^-_1 -> chi^0_1 tau^-)
     3.72313328E-02    2     1000023        15   # BR(~tau^-_1 -> chi^0_2 tau^-)
     1.33906568E-01    2     1000025        15   # BR(~tau^-_1 -> chi^0_3 tau^-)
     4.20518117E-04    2     1000035        15   # BR(~tau^-_1 -> chi^0_4 tau^-)
     6.55998632E-02    2    -1000024        16   # BR(~tau^-_1 -> chi^-_1 nu_tau)
     3.35113083E-04    2    -1000037        16   # BR(~tau^-_1 -> chi^-_2 nu_tau)
DECAY   2000015     1.47963860E+02   # ~tau^-_2
#    BR                NDA      ID1      ID2
     8.25711501E-02    2     1000022        15   # BR(~tau^-_2 -> chi^0_1 tau^-)
     4.58245231E-02    2     1000023        15   # BR(~tau^-_2 -> chi^0_2 tau^-)
     1.56272818E-02    2     1000025        15   # BR(~tau^-_2 -> chi^0_3 tau^-)
     2.62921098E-01    2     1000035        15   # BR(~tau^-_2 -> chi^0_4 tau^-)
     3.28287836E-02    2    -1000024        16   # BR(~tau^-_2 -> chi^-_1 nu_tau)
     5.60227163E-01    2    -1000037        16   # BR(~tau^-_2 -> chi^-_2 nu_tau)
#    BR                NDA      ID1      ID2       ID3
DECAY   1000012     1.44370955E+02   # ~nu_e
#    BR                NDA      ID1      ID2
     6.86516487E-02    2     1000022        12   # BR(~nu_e -> chi^0_1 nu_e)
     2.29560465E-02    2     1000023        12   # BR(~nu_e -> chi^0_2 nu_e)
     2.06549788E-02    2     1000025        12   # BR(~nu_e -> chi^0_3 nu_e)
     2.79101554E-01    2     1000035        12   # BR(~nu_e -> chi^0_4 nu_e)
     8.86802163E-02    2     1000024        11   # BR(~nu_e -> chi^+_1 e^-)
     5.19955556E-01    2     1000037        11   # BR(~nu_e -> chi^+_2 e^-)
#    BR                NDA      ID1      ID2       ID3
DECAY   1000014     1.44384087E+02   # ~nu_mu
#    BR                NDA      ID1      ID2
     6.86454223E-02    2     1000022        14   # BR(~nu_mu -> chi^0_1 nu_mu)
     2.29539645E-02    2     1000023        14   # BR(~nu_mu -> chi^0_2 nu_mu)
     2.06531054E-02    2     1000025        14   # BR(~nu_mu -> chi^0_3 nu_mu)
     2.79076241E-01    2     1000035        14   # BR(~nu_mu -> chi^0_4 nu_mu)
     8.87575652E-02    2     1000024        13   # BR(~nu_mu -> chi^+_1 mu^-)
     5.19913701E-01    2     1000037        13   # BR(~nu_mu -> chi^+_2 mu^-)
#    BR                NDA      ID1      ID2       ID3
DECAY   1000016     1.48085770E+02   # ~nu_tau
#    BR                NDA      ID1      ID2
     6.69343088E-02    2     1000022        16   # BR(~nu_tau -> chi^0_1 nu_tau)
     2.23817963E-02    2     1000023        16   # BR(~nu_tau -> chi^0_2 nu_tau)
     2.01382913E-02    2     1000025        16   # BR(~nu_tau -> chi^0_3 nu_tau)
     2.72119890E-01    2     1000035        16   # BR(~nu_tau -> chi^0_4 nu_tau)
     1.10014041E-01    2     1000024        15   # BR(~nu_tau -> chi^+_1 tau^-)
     5.08411673E-01    2     1000037        15   # BR(~nu_tau -> chi^+_2 tau^-)
#    BR                NDA      ID1      ID2       ID3
DECAY   2000001     7.39943258E+02   # ~d_R
#    BR                NDA      ID1      ID2
     6.60770310E-03    2     1000022         1   # BR(~d_R -> chi^0_1 d)
     9.67054679E-04    2     1000025         1   # BR(~d_R -> chi^0_3 d)
     9.92390899E-01    2     1000021         1   # BR(~d_R -> ~g d)
DECAY   1000001     8.70969493E+02   # ~d_L
#    BR                NDA      ID1      ID2
     1.03567830E-03    2     1000022         1   # BR(~d_L -> chi^0_1 d)
     4.51576688E-03    2     1000023         1   # BR(~d_L -> chi^0_2 d)
     9.06152548E-04    2     1000025         1   # BR(~d_L -> chi^0_3 d)
     4.60997105E-02    2     1000035         1   # BR(~d_L -> chi^0_4 d)
     5.98615728E-03    2    -1000024         2   # BR(~d_L -> chi^-_1 u)
     9.58772454E-02    2    -1000037         2   # BR(~d_L -> chi^-_2 u)
     8.45579289E-01    2     1000021         1   # BR(~d_L -> ~g d)
DECAY   2000003     7.39950638E+02   # ~s_R
#    BR                NDA      ID1      ID2
     6.60806893E-03    2     1000022         3   # BR(~s_R -> chi^0_1 s)
     9.69054536E-04    2     1000025         3   # BR(~s_R -> chi^0_3 s)
     9.92381115E-01    2     1000021         3   # BR(~s_R -> ~g s)
DECAY   1000003     8.70976914E+02   # ~s_L
#    BR                NDA      ID1      ID2
     1.03603669E-03    2     1000022         3   # BR(~s_L -> chi^0_1 s)
     4.51772733E-03    2     1000023         3   # BR(~s_L -> chi^0_2 s)
     9.07856353E-04    2     1000025         3   # BR(~s_L -> chi^0_3 s)
     4.60994436E-02    2     1000035         3   # BR(~s_L -> chi^0_4 s)
     5.98970391E-03    2    -1000024         4   # BR(~s_L -> chi^-_1 c)
     9.58770508E-02    2    -1000037         4   # BR(~s_L -> chi^-_2 c)
     8.45572181E-01    2     1000021         3   # BR(~s_L -> ~g s)
DECAY   1000005     1.15808734E+02   # ~b_1
#    BR                NDA      ID1      ID2
     3.87169488E-03    2     1000022         5   # BR(~b_1 -> chi^0_1 b)
     1.87434126E-02    2     1000023         5   # BR(~b_1 -> chi^0_2 b)
     1.03916731E-02    2     1000025         5   # BR(~b_1 -> chi^0_3 b)
     8.33432952E-02    2     1000035         5   # BR(~b_1 -> chi^0_4 b)
     3.87599750E-01    2    -1000024         6   # BR(~b_1 -> chi^-_1 t)
     2.37002341E-01    2    -1000037         6   # BR(~b_1 -> chi^-_2 t)
     2.59047833E-01    2     1000021         5   # BR(~b_1 -> ~g b)
DECAY   2000005     7.98175975E+01   # ~b_2
#    BR                NDA      ID1      ID2
     2.13052798E-02    2     1000022         5   # BR(~b_2 -> chi^0_1 b)
     1.75181762E-02    2     1000023         5   # BR(~b_2 -> chi^0_2 b)
     1.75771470E-02    2     1000025         5   # BR(~b_2 -> chi^0_3 b)
     1.07463563E-03    2     1000035         5   # BR(~b_2 -> chi^0_4 b)
     3.42631342E-02    2    -1000024         6   # BR(~b_2 -> chi^-_1 t)
     2.14236082E-03    2    -1000037         6   # BR(~b_2 -> chi^-_2 t)
     9.00610793E-01    2     1000021         5   # BR(~b_2 -> ~g b)
     2.69453438E-03    2     1000006       -37   # BR(~b_2 -> ~t_1 H^-)
     1.39515557E-03    2     1000005        36   # BR(~b_2 -> ~b_1 A^0)
     1.29351362E-03    2     1000005        25   # BR(~b_2 -> ~b_1 h^0)
     1.10760934E-04    2     1000005        35   # BR(~b_2 -> ~b_1 H^0)
DECAY   2000002     7.57164647E+02   # ~u_R
#    BR                NDA      ID1      ID2
     2.58393772E-02    2     1000022         2   # BR(~u_R -> chi^0_1 u)
     1.24586653E-04    2     1000023         2   # BR(~u_R -> chi^0_2 u)
     3.78164191E-03    2     1000025         2   # BR(~u_R -> chi^0_3 u)
     9.70244763E-01    2     1000021         2   # BR(~u_R -> ~g u)
DECAY   1000002     8.70958478E+02   # ~u_L
#    BR                NDA      ID1      ID2
     1.83496599E-03    2     1000022         2   # BR(~u_L -> chi^0_1 u)
     5.24287528E-03    2     1000023         2   # BR(~u_L -> chi^0_2 u)
     4.54787777E-02    2     1000035         2   # BR(~u_L -> chi^0_4 u)
     1.48445470E-02    2     1000024         1   # BR(~u_L -> chi^+_1 d)
     8.70425156E-02    2     1000037         1   # BR(~u_L -> chi^+_2 d)
     8.45554350E-01    2     1000021         2   # BR(~u_L -> ~g u)
DECAY   2000004     7.57172021E+02   # ~c_R
#    BR                NDA      ID1      ID2
     2.58393380E-02    2     1000022         4   # BR(~c_R -> chi^0_1 c)
     1.26637506E-04    2     1000023         4   # BR(~c_R -> chi^0_2 c)
     3.78383081E-03    2     1000025         4   # BR(~c_R -> chi^0_3 c)
     9.70235386E-01    2     1000021         4   # BR(~c_R -> ~g c)
DECAY   1000004     8.70965866E+02   # ~c_L
#    BR                NDA      ID1      ID2
     1.83513517E-03    2     1000022         4   # BR(~c_L -> chi^0_1 c)
     5.24462044E-03    2     1000023         4   # BR(~c_L -> chi^0_2 c)
     4.54786917E-02    2     1000035         4   # BR(~c_L -> chi^0_4 c)
     1.48483750E-02    2     1000024         3   # BR(~c_L -> chi^+_1 s)
     8.70420318E-02    2     1000037         3   # BR(~c_L -> chi^+_2 s)
     8.45547240E-01    2     1000021         4   # BR(~c_L -> ~g c)
DECAY   1000006     1.14084833E+02   # ~t_1
#    BR                NDA      ID1      ID2
     2.32707591E-02    2     1000022         6   # BR(~t_1 -> chi^0_1 t)
     2.02579861E-01    2     1000023         6   # BR(~t_1 -> chi^0_2 t)
     2.06431487E-01    2     1000025         6   # BR(~t_1 -> chi^0_3 t)
     1.09728673E-01    2     1000035         6   # BR(~t_1 -> chi^0_4 t)
     5.01217444E-02    2     1000024         5   # BR(~t_1 -> chi^+_1 b)
     1.58896638E-01    2     1000037         5   # BR(~t_1 -> chi^+_2 b)
     2.48100276E-01    2     1000021         6   # BR(~t_1 -> ~g t)
#    BR                NDA      ID1      ID2       ID3
     8.67071263E-04    3     1000022        24         5   # BR(~t_1 -> chi^0_1 W^+ b)
DECAY   2000006     4.75639780E+02   # ~t_2
#    BR                NDA      ID1      ID2
     2.89392229E-02    2     1000022         6   # BR(~t_2 -> chi^0_1 t)
     8.84511474E-02    2     1000023         6   # BR(~t_2 -> chi^0_2 t)
     9.87067162E-02    2     1000025         6   # BR(~t_2 -> chi^0_3 t)
     1.50140827E-02    2     1000035         6   # BR(~t_2 -> chi^0_4 t)
     1.78201198E-01    2     1000024         5   # BR(~t_2 -> chi^+_1 b)
     3.05844400E-02    2     1000037         5   # BR(~t_2 -> chi^+_2 b)
     5.53552203E-01    2     1000021         6   # BR(~t_2 -> ~g t)
     2.20400349E-03    2     1000005        24   # BR(~t_2 -> ~b_1 W^+)
     2.46073453E-04    2     1000005        37   # BR(~t_2 -> ~b_1 H^+)
     1.09839180E-03    2     1000006        23   # BR(~t_2 -> ~t_1 Z)
     1.23056043E-04    2     1000006        36   # BR(~t_2 -> ~t_1 A^0)
     4.47107618E-04    2     1000006        25   # BR(~t_2 -> ~t_1 h^0)
     2.42537962E-03    2     1000006        35   # BR(~t_2 -> ~t_1 H^0)
DECAY   1000024     9.41629797E-05   # chi^+_1
#    BR                NDA      ID1      ID2       ID3
     3.32491152E-01    3     1000022        -1         2   # BR(chi^+_1 -> chi^0_1 d_bar u)
     3.31807880E-01    3     1000022        -3         4   # BR(chi^+_1 -> chi^0_1 s_bar c)
     1.10824498E-01    3     1000022       -11        12   # BR(chi^+_1 -> chi^0_1 e^+ nu_e)
     1.10837348E-01    3     1000022       -13        14   # BR(chi^+_1 -> chi^0_1 mu^+ nu_mu)
     1.14038835E-01    3     1000022       -15        16   # BR(chi^+_1 -> chi^0_1 tau^+ nu_tau)
DECAY   1000037     5.70698106E+00   # chi^+_2
#    BR                NDA      ID1      ID2
     3.82496814E-02    2     1000022        24   # BR(chi^+_2 -> chi^0_1 W^+)
     2.10509893E-01    2     1000023        24   # BR(chi^+_2 -> chi^0_2 W^+)
     9.26617979E-02    2     1000025        24   # BR(chi^+_2 -> chi^0_3 W^+)
     8.80516670E-03    2          37   1000022   # BR(chi^+_2 -> H^+ chi^0_1)
     1.42333749E-01    2          37   1000023   # BR(chi^+_2 -> H^+ chi^0_2)
     6.91016439E-02    2          37   1000025   # BR(chi^+_2 -> H^+ chi^0_3)
     1.35326498E-01    2     1000024        23   # BR(chi^+_2 -> chi^+_1 Z)
     1.21162239E-01    2     1000024        36   # BR(chi^+_2 -> chi^+_1 A^0)
     1.17390529E-01    2     1000024        25   # BR(chi^+_2 -> chi^+_1 h^0)
     6.44213590E-02    2     1000024        35   # BR(chi^+_2 -> chi^+_1 H^0)
#    BR                NDA      ID1      ID2       ID3
DECAY   1000022     0.00000000E+00   # chi^0_1
DECAY   1000023     2.11822831E-04   # chi^0_2
#    BR                NDA      ID1      ID2
     8.77288303E-03    2     1000022        22   # BR(chi^0_2 -> chi^0_1 photon)
#    BR                NDA      ID1      ID2       ID3
     1.06845083E-01    3     1000022         2        -2   # BR(chi^0_2 -> chi^0_1 u u_bar)
     1.06171509E-01    3     1000022         4        -4   # BR(chi^0_2 -> chi^0_1 c c_bar)
     1.36995172E-01    3     1000022         1        -1   # BR(chi^0_2 -> chi^0_1 d d_bar)
     1.37029062E-01    3     1000022         3        -3   # BR(chi^0_2 -> chi^0_1 s s_bar)
     2.20254383E-01    3     1000022         5        -5   # BR(chi^0_2 -> chi^0_1 b b_bar)
     3.09130032E-02    3     1000022        11       -11   # BR(chi^0_2 -> chi^0_1 e^- e^+)
     3.09416517E-02    3     1000022        13       -13   # BR(chi^0_2 -> chi^0_1 mu^- mu^+)
     3.88854825E-02    3     1000022        15       -15   # BR(chi^0_2 -> chi^0_1 tau^- tau^+)
     1.83191771E-01    3     1000022        12       -12   # BR(chi^0_2 -> chi^0_1 nu_e nu_bar_e)
DECAY   1000025     1.42264822E-02   # chi^0_3
#    BR                NDA      ID1      ID2
     5.46036494E-03    2     1000022        36   # BR(chi^0_3 -> chi^0_1 A^0)
     9.74141238E-01    2     1000022        25   # BR(chi^0_3 -> chi^0_1 h^0)
     3.10147622E-04    2     1000023        22   # BR(chi^0_3 -> chi^0_2 photon)
#    BR                NDA      ID1      ID2       ID3
     1.16861228E-03    3     1000022         2        -2   # BR(chi^0_3 -> chi^0_1 u u_bar)
     1.16684984E-03    3     1000022         4        -4   # BR(chi^0_3 -> chi^0_1 c c_bar)
     1.49823839E-03    3     1000022         1        -1   # BR(chi^0_3 -> chi^0_1 d d_bar)
     1.49823102E-03    3     1000022         3        -3   # BR(chi^0_3 -> chi^0_1 s s_bar)
     1.48597717E-03    3     1000022         5        -5   # BR(chi^0_3 -> chi^0_1 b b_bar)
     3.37992241E-04    3     1000022        11       -11   # BR(chi^0_3 -> chi^0_1 e^- e^+)
     3.37992075E-04    3     1000022        13       -13   # BR(chi^0_3 -> chi^0_1 mu^- mu^+)
     3.37903947E-04    3     1000022        15       -15   # BR(chi^0_3 -> chi^0_1 tau^- tau^+)
     2.00386008E-03    3     1000022        12       -12   # BR(chi^0_3 -> chi^0_1 nu_e nu_bar_e)
     7.57476697E-04    3     1000023         2        -2   # BR(chi^0_3 -> chi^0_2 u u_bar)
     7.42662177E-04    3     1000023         4        -4   # BR(chi^0_3 -> chi^0_2 c c_bar)
     9.71231614E-04    3     1000023         1        -1   # BR(chi^0_3 -> chi^0_2 d d_bar)
     9.71139745E-04    3     1000023         3        -3   # BR(chi^0_3 -> chi^0_2 s s_bar)
     8.08766532E-04    3     1000023         5        -5   # BR(chi^0_3 -> chi^0_2 b b_bar)
     2.19182764E-04    3     1000023        11       -11   # BR(chi^0_3 -> chi^0_2 e^- e^+)
     2.19149903E-04    3     1000023        13       -13   # BR(chi^0_3 -> chi^0_2 mu^- mu^+)
     2.10139014E-04    3     1000023        15       -15   # BR(chi^0_3 -> chi^0_2 tau^- tau^+)
     1.29883591E-03    3     1000023        12       -12   # BR(chi^0_3 -> chi^0_2 nu_e nu_bar_e)
     6.76619619E-04    3     1000024         1        -2   # BR(chi^0_3 -> chi^+_1 d u_bar)
     6.76619619E-04    3    -1000024        -1         2   # BR(chi^0_3 -> chi^-_1 d_bar u)
     6.71182832E-04    3     1000024         3        -4   # BR(chi^0_3 -> chi^+_1 s c_bar)
     6.71182832E-04    3    -1000024        -3         4   # BR(chi^0_3 -> chi^-_1 s_bar c)
     2.25542404E-04    3     1000024        11       -12   # BR(chi^0_3 -> chi^+_1 e^- nu_bar_e)
     2.25542404E-04    3    -1000024       -11        12   # BR(chi^0_3 -> chi^-_1 e^+ nu_e)
     2.25539719E-04    3     1000024        13       -14   # BR(chi^0_3 -> chi^+_1 mu^- nu_bar_mu)
     2.25539719E-04    3    -1000024       -13        14   # BR(chi^0_3 -> chi^-_1 mu^+ nu_mu)
     2.21498477E-04    3     1000024        15       -16   # BR(chi^0_3 -> chi^+_1 tau^- nu_bar_tau)
     2.21498477E-04    3    -1000024       -15        16   # BR(chi^0_3 -> chi^-_1 tau^+ nu_tau)
DECAY   1000035     7.35215316E+00   # chi^0_4
#    BR                NDA      ID1      ID2
     1.69265480E-01    2     1000024       -24   # BR(chi^0_4 -> chi^+_1 W^-)
     1.69265480E-01    2    -1000024        24   # BR(chi^0_4 -> chi^-_1 W^+)
     9.80858393E-02    2          37  -1000024   # BR(chi^0_4 -> H^+ chi^-_1)
     9.80858393E-02    2         -37   1000024   # BR(chi^0_4 -> H^- chi^+_1)
     3.16901795E-02    2     1000022        23   # BR(chi^0_4 -> chi^0_1 Z)
     6.09166818E-03    2     1000023        23   # BR(chi^0_4 -> chi^0_2 Z)
     1.16303640E-01    2     1000025        23   # BR(chi^0_4 -> chi^0_3 Z)
     9.55053595E-04    2     1000022        36   # BR(chi^0_4 -> chi^0_1 A^0)
     6.44126016E-03    2     1000023        36   # BR(chi^0_4 -> chi^0_2 A^0)
     3.18985873E-03    2     1000025        36   # BR(chi^0_4 -> chi^0_3 A^0)
     5.67525204E-03    2     1000022        25   # BR(chi^0_4 -> chi^0_1 h^0)
     9.75698467E-02    2     1000023        25   # BR(chi^0_4 -> chi^0_2 h^0)
     6.69059811E-02    2     1000025        25   # BR(chi^0_4 -> chi^0_3 h^0)
     2.39427865E-02    2     1000022        35   # BR(chi^0_4 -> chi^0_1 H^0)
     4.02064856E-02    2     1000023        35   # BR(chi^0_4 -> chi^0_2 H^0)
     6.62739641E-02    2     1000025        35   # BR(chi^0_4 -> chi^0_3 H^0)
#    BR                NDA      ID1      ID2       ID3
DECAY   1000021     7.31741347E-02   # ~g
#    BR                NDA      ID1      ID2
     7.35643458E-04    2     1000022        21   # BR(~g -> chi^0_1 g)
     3.12328065E-03    2     1000023        21   # BR(~g -> chi^0_2 g)
     3.24876894E-03    2     1000025        21   # BR(~g -> chi^0_3 g)
     5.32666303E-04    2     1000035        21   # BR(~g -> chi^0_4 g)
#    BR                NDA      ID1      ID2       ID3
     1.75869980E-02    3     1000022         6        -6   # BR(~g -> chi^0_1 t t_bar)
     7.78089248E-03    3     1000022         5        -5   # BR(~g -> chi^0_1 b b_bar)
     1.56295362E-01    3     1000023         6        -6   # BR(~g -> chi^0_2 t t_bar)
     2.05285097E-02    3     1000023         5        -5   # BR(~g -> chi^0_2 b b_bar)
     1.47689152E-01    3     1000025         6        -6   # BR(~g -> chi^0_3 t t_bar)
     1.32196941E-02    3     1000025         5        -5   # BR(~g -> chi^0_3 b b_bar)
     1.24087099E-04    3     1000035         2        -2   # BR(~g -> chi^0_4 u u_bar)
     1.24088921E-04    3     1000035         4        -4   # BR(~g -> chi^0_4 c c_bar)
     4.88134358E-02    3     1000035         6        -6   # BR(~g -> chi^0_4 t t_bar)
     1.25742175E-04    3     1000035         1        -1   # BR(~g -> chi^0_4 d d_bar)
     1.25742884E-04    3     1000035         3        -3   # BR(~g -> chi^0_4 s s_bar)
     5.84832527E-02    3     1000035         5        -5   # BR(~g -> chi^0_4 b b_bar)
     1.83334035E-01    3     1000024         5        -6   # BR(~g -> chi^+_1 b t_bar)
     1.83334035E-01    3    -1000024        -5         6   # BR(~g -> chi^-_1 b_bar t)
     1.29209543E-04    3     1000037         1        -2   # BR(~g -> chi^+_2 d u_bar)
     1.29209543E-04    3    -1000037        -1         2   # BR(~g -> chi^-_2 d_bar u)
     1.29212158E-04    3     1000037         3        -4   # BR(~g -> chi^+_2 s c_bar)
     1.29212158E-04    3    -1000037        -3         4   # BR(~g -> chi^-_2 s_bar c)
     7.69413047E-02    3     1000037         5        -6   # BR(~g -> chi^+_2 b t_bar)
     7.69413047E-02    3    -1000037        -5         6   # BR(~g -> chi^-_2 b_bar t)
DECAY        25     3.04747486E-01   # Gamma(h0)
     1.48463490E-06   2        22        22   # BR(h0 -> photon photon)
     9.27744313E-10   2        23        23   # BR(h0 -> Z Z)
     1.63188261E-09   2       -24        24   # BR(h0 -> W W)
     1.67713140E-03   2        21        21   # BR(h0 -> gluon gluon)
     7.12486121E-09   2       -11        11   # BR(h0 -> Electron electron)
     3.16880868E-04   2       -13        13   # BR(h0 -> Muon muon)
     9.11952658E-02   2       -15        15   # BR(h0 -> Tau tau)
     1.10509505E-11   2        -2         2   # BR(h0 -> Up up)
     2.14501648E-06   2        -4         4   # BR(h0 -> Charm charm)
     9.03154288E-07   2        -1         1   # BR(h0 -> Down down)
     3.26654312E-04   2        -3         3   # BR(h0 -> Strange strange)
     9.06479525E-01   2        -5         5   # BR(h0 -> Bottom bottom)
DECAY        35     6.02547311E-03   # Gamma(HH)
     1.27339044E-03   2        22        22   # BR(HH -> photon photon)
     2.76810723E-03   2        22        23   # BR(HH -> photon Z)
     1.37388520E-02   2        23        23   # BR(HH -> Z Z)
     1.17539019E-01   2       -24        24   # BR(HH -> W W)
     5.96815803E-02   2        21        21   # BR(HH -> gluon gluon)
     5.93835302E-09   2       -11        11   # BR(HH -> Electron electron)
     2.64147632E-04   2       -13        13   # BR(HH -> Muon muon)
     7.61748365E-02   2       -15        15   # BR(HH -> Tau tau)
     7.60138228E-08   2        -2         2   # BR(HH -> Up up)
     1.47524380E-02   2        -4         4   # BR(HH -> Charm charm)
     6.93696474E-07   2        -1         1   # BR(HH -> Down down)
     2.50903888E-04   2        -3         3   # BR(HH -> Strange strange)
     7.12808592E-01   2        -5         5   # BR(HH -> Bottom bottom)
     7.47357222E-04   2        23        36   # BR(HH -> Z A0)
DECAY        36     3.12278506E-01   # Gamma(A0)
     5.73160781E-07   2        22        22   # BR(A0 -> photon photon)
     1.88552235E-03   2        21        21   # BR(A0 -> gluon gluon)
     7.09093871E-09   2       -11        11   # BR(A0 -> Electron electron)
     3.15374993E-04   2       -13        13   # BR(A0 -> Muon muon)
     9.09508151E-02   2       -15        15   # BR(A0 -> Tau tau)
     4.59969230E-12   2        -2         2   # BR(A0 -> Up up)
     8.99895781E-07   2        -4         4   # BR(A0 -> Charm charm)
     8.97923946E-07   2        -1         1   # BR(A0 -> Down down)
     3.24763399E-04   2        -3         3   # BR(A0 -> Strange strange)
     9.06521146E-01   2        -5         5   # BR(A0 -> Bottom bottom)
DECAY        37     5.17375297E-02   # Gamma(Hp)
     8.02645279E-08   2       -11        12   # BR(Hp -> Electron nu_e)
     3.43155464E-03   2       -13        14   # BR(Hp -> Muon nu_mu)
     9.70271185E-01   2       -15        16   # BR(Hp -> Tau nu_tau)
     8.14226989E-06   2        -1         2   # BR(Hp -> Down up)
     1.30662029E-04   2        -3         2   # BR(Hp -> Strange up)
     8.58041550E-05   2        -5         2   # BR(Hp -> Bottom up)
     8.13326065E-07   2        -1         4   # BR(Hp -> Down charm)
     2.94396837E-03   2        -3         4   # BR(Hp -> Strange charm)
     1.20133118E-02   2        -5         4   # BR(Hp -> Bottom charm)
     1.58580741E-05   2        -5         6   # BR(Hp -> Bottom top)
     5.56192122E-03   2        24        25   # BR(Hp -> W h0)
     4.71086799E-09   2        24        35   # BR(Hp -> W HH)
     5.53669366E-03   2        24        36   # BR(Hp -> W A0)
DECAY         6     2.43000000E+00   # top
#    BR                NDA      ID1      ID2
     1.00000000E+00    2           5        24   # BR(t -> b W)
Block HiggsBoundsInputHiggsCouplingsFermions
# ScalarNormEffCoupSq PseudoSNormEffCoupSq NP IP1 IP2 IP2
    1.75374800E+02    0.00000000E+00        3  25   5   5  # h0-b-b eff. coupling^2, normalised to SM
    2.63449705E+00    0.00000000E+00        3  35   5   5  # H0-b-b eff. coupling^2, normalised to SM
    0.00000000E+00    1.77009297E+02        3  36   5   5  # A0-b-b eff. coupling^2, normalised to SM
#
    1.48833824E-02    0.00000000E+00        3  25   6   6  # h0-t-t eff. coupling^2, normalised to SM
    9.90766038E-01    0.00000000E+00        3  35   6   6  # H0-t-t eff. coupling^2, normalised to SM
    0.00000000E+00    5.64942077E-03        3  36   6   6  # A0-t-t eff. coupling^2, normalised to SM
#
    1.75374800E+02    0.00000000E+00        3  25  15  15  # h0-tau-tau eff. coupling^2, normalised to SM
    2.63449705E+00    0.00000000E+00        3  35  15  15  # H0-tau-tau eff. coupling^2, normalised to SM
    0.00000000E+00    1.77009297E+02        3  36  15  15  # A0-tau-tau eff. coupling^2, normalised to SM
#
Block HiggsBoundsInputHiggsCouplingsBosons
    3.83010886E-02        3  25  24  24  # h0-W-W eff. coupling^2, normalised to SM
    9.61698911E-01        3  35  24  24  # H0-W-W eff. coupling^2, normalised to SM
    0.00000000E+00        3  36  24  24  # A0-W-W eff. coupling^2, normalised to SM
#
    3.83010886E-02        3  25  23  23  # h0-Z-Z eff. coupling^2, normalised to SM
    9.61698911E-01        3  35  23  23  # H0-Z-Z eff. coupling^2, normalised to SM
    0.00000000E+00        3  36  23  23  # A0-Z-Z eff. coupling^2, normalised to SM
#
    7.97511797E+00        3  25  21  21  # h0-g-g eff. coupling^2, normalised to SM
    1.31637045E+00        3  35  21  21  # H0-g-g eff. coupling^2, normalised to SM
    1.73136041E+00        3  36  21  21  # A0-g-g eff. coupling^2, normalised to SM
#
    0.00000000E+00        3  25  25  23  # h0-h0-Z eff. coupling^2, normalised to SM
    0.00000000E+00        3  35  25  23  # H0-h0-Z eff. coupling^2, normalised to SM
    9.61698911E-01        3  36  25  23  # A0-h0-Z eff. coupling^2, normalised to SM
    0.00000000E+00        3  35  35  23  # H0-H0-Z eff. coupling^2, normalised to SM
    3.83010886E-02        3  36  35  23  # A0-H0-Z eff. coupling^2, normalised to SM
    0.00000000E+00        3  36  36  23  # A0-A0-Z eff. coupling^2, normalised to SM
#
    0.00000000E+00        4  25  21  21  23  # h0-g-g-Z eff. coupling^2, normalised to SM
    0.00000000E+00        4  35  21  21  23  # H0-g-g-Z eff. coupling^2, normalised to SM
    0.00000000E+00        4  36  21  21  23  # A0-g-g-Z eff. coupling^2, normalised to SM
Block SPhenoLowEnergy  # low energy observables
    1    6.61294729E-04   # BR(b -> s gamma)
    2    1.66387402E-06   # BR(b -> s mu+ mu-)
    3    3.53151232E-05   # BR(b -> s nu nu)
    4    2.58002186E-15   # BR(Bd -> e+ e-)
    5    1.10215600E-10   # BR(Bd -> mu+ mu-)
    6    2.30722637E-08   # BR(Bd -> tau+ tau-)
    7    8.73601345E-14   # BR(Bs -> e+ e-)
    8    3.73202211E-09   # BR(Bs -> mu+ mu-)
    9    7.91591015E-07   # BR(Bs -> tau+ tau-)
   10    3.83653347E-05   # BR(B_u -> tau nu)
   11    3.96299220E-01   # BR(B_u -> tau nu)/BR(B_u -> tau nu)_SM
   12    5.44112985E-01   # |Delta(M_Bd)| [ps^-1] 
   13    1.93726461E+01   # |Delta(M_Bs)| [ps^-1] 
   14    0.00000000E+00   # neutron EDM according to the chiral quark model
   15    0.00000000E+00   # neutron EDM according to the relativistic quark-parton model
   16    2.16798627E-03   # epsilon_K
   17    2.28185386E-15   # Delta(M_K)
   18    2.48424075E-11   # BR(K^0 -> pi^0 nu nu)
   19    8.30059749E-11   # BR(K^+ -> pi^+ nu nu)
   20    9.64568707E-17   # Delta(g-2)_electron/2
   21    4.12383735E-12   # Delta(g-2)_muon/2
   22    1.16680179E-09   # Delta(g-2)_tau/2
   23    0.00000000E+00   # electric dipole moment of the electron
   24    0.00000000E+00   # electric dipole moment of the muon
   25    0.00000000E+00   # electric dipole moment of the tau
   26    0.00000000E+00   # Br(mu -> e gamma)
   27    0.00000000E+00   # Br(tau -> e gamma)
   28    0.00000000E+00   # Br(tau -> mu gamma)
   29    0.00000000E+00   # Br(mu -> 3 e)
   30    0.00000000E+00   # Br(tau -> 3 e)
   31    0.00000000E+00   # Br(tau -> 3 mu)
   39    5.02352344E-05   # Delta(rho_parameter)
   40    0.00000000E+00   # BR(Z -> e mu)
   41    0.00000000E+00   # BR(Z -> e tau)
   42    0.00000000E+00   # BR(Z -> mu tau)
Block FWCOEF Q=  1.60000000E+02  # Wilson coefficients at scale Q
#    id        order  M        value         comment
     0305 4422   00   0    -1.88819110E-01   # C7
     0305 4422   00   2    -4.93552215E-01   # C7
     0305 4322   00   2    -5.81574865E-03   # C7'
     0305 6421   00   0    -9.52278348E-02   # C8
     0305 6421   00   2    -3.42413095E-01   # C8
     0305 6321   00   2    -4.68980196E-03   # C8'
 03051111 4133   00   0     1.62204009E+00   # C9 e+e-
 03051111 4133   00   2     1.62318520E+00   # C9 e+e-
 03051111 4233   00   2    -1.31284833E-04   # C9' e+e-
 03051111 4137   00   0    -4.44473219E+00   # C10 e+e-
 03051111 4137   00   2    -4.44917389E+00   # C10 e+e-
 03051111 4237   00   2     9.80499545E-04   # C10' e+e-
 03051313 4133   00   0     1.62204009E+00   # C9 mu+mu-
 03051313 4133   00   2     1.62318519E+00   # C9 mu+mu-
 03051313 4233   00   2    -1.31382179E-04   # C9' mu+mu-
 03051313 4137   00   0    -4.44473219E+00   # C10 mu+mu-
 03051313 4137   00   2    -4.44917390E+00   # C10 mu+mu-
 03051313 4237   00   2     9.80597345E-04   # C10' mu+mu-
 03051212 4137   00   0     1.50535012E+00   # C11 nu_1 nu_1
 03051212 4137   00   2     1.50631410E+00   # C11 nu_1 nu_1
 03051212 4237   00   2    -2.12243770E-04   # C11' nu_1 nu_1
 03051414 4137   00   0     1.50535012E+00   # C11 nu_2 nu_2
 03051414 4137   00   2     1.50631410E+00   # C11 nu_2 nu_2
 03051414 4237   00   2    -2.12222598E-04   # C11' nu_2 nu_2
 03051616 4137   00   0     1.50535012E+00   # C11 nu_3 nu_3
 03051616 4137   00   2     1.50631410E+00   # C11 nu_3 nu_3
 03051616 4237   00   2    -2.06256258E-04   # C11' nu_3 nu_3
Block IMFWCOEF Q=  1.60000000E+02  # Im(Wilson coefficients) at scale Q
#    id        order  M        value         comment
     0305 4422   00   0     3.85823103E-07   # C7
     0305 4422   00   2     7.14035452E-06   # C7
     0305 4322   00   2     1.62765968E-07   # C7'
     0305 6421   00   0     3.30483004E-07   # C8
     0305 6421   00   2     1.92231941E-05   # C8
     0305 6321   00   2     3.47477577E-07   # C8'
 03051111 4133   00   2     1.82265901E-06   # C9 e+e-
 03051111 4233   00   2     1.23389249E-06   # C9' e+e-
 03051111 4137   00   2     3.87650211E-07   # C10 e+e-
 03051111 4237   00   2    -9.16571449E-06   # C10' e+e-
 03051313 4133   00   2     1.82265830E-06   # C9 mu+mu-
 03051313 4233   00   2     1.23389244E-06   # C9' mu+mu-
 03051313 4137   00   2     3.87650939E-07   # C10 mu+mu-
 03051313 4237   00   2    -9.16571462E-06   # C10' mu+mu-
 03051212 4137   00   2    -3.89985981E-08   # C11 nu_1 nu_1
 03051212 4237   00   2     1.98402595E-06   # C11' nu_1 nu_1
 03051414 4137   00   2    -3.89985615E-08   # C11 nu_2 nu_2
 03051414 4237   00   2     1.98402595E-06   # C11' nu_2 nu_2
 03051616 4137   00   2    -3.89881374E-08   # C11 nu_3 nu_3
 03051616 4237   00   2     1.98402594E-06   # C11' nu_3 nu_3
