# SUSY Les Houches Accord 2 - MSSM spectrum + Decays
# SPheno v4.0.5be
# W. Porod, Comput. Phys. Commun. 153 (2003) 275-315, hep-ph/0301101;
# W. Porod, F.~Staub, Comput. Phys. Commun. 183 (2012) 2458
#                     arXiv:1104.1573 [hep-ph] 
# in case of problems send email to porod@physik.uni-wuerzburg.de
# Created: 20.12.2022,  20:54
Block SPINFO         # Program information
     1   SPheno      # spectrum calculator
     2   v4.0.5be    # version number
#
Block SPhenoINFO     # SPheno specific information
    1      2         # using 2-loop RGEs
    2      2         # using pole masses for boundary conditions at mZ
Block MODSEL  # Model selection
    1    0    # general MSSM
Block MINPAR  # Input parameters
    3    2.09525778E+01  # tanb at m_Z    
    4   -1.00000000E+00  # Sign(mu)
Block EXTPAR  # non-universal input parameters
    0    2.61137084E+03  # scale for input parameters
    1   -9.45830581E+02  # M_1
    2    8.36592407E+02  # M_2
    3    1.63581810E+03  # M_3
   11    3.27010892E+03  # A_t
   12    7.25622584E+02  # A_b
   13    1.01066471E+03  # A_tau
   23   -1.69844643E+02  # mu
   25    2.00858572E+01  # tan(beta)
   26    2.47670604E+03  # m_A, pole mass
   31    1.00000000E+04  # M_L11
   32    1.00000000E+04  # M_L22
   33    1.00000000E+04  # M_L33
   34    1.00000000E+04  # M_E11
   35    1.00000000E+04  # M_E22
   36    1.00000000E+04  # M_E33
   41    1.00000000E+04  # M_Q11
   42    1.00000000E+04  # M_Q22
   43    2.56478886E+03  # M_Q33
   44    1.00000000E+04  # M_U11
   45    1.00000000E+04  # M_U22
   46    2.65973694E+03  # M_U33
   47    1.00000000E+04  # M_D11
   48    1.00000000E+04  # M_D22
   49    2.70523910E+03  # M_D33
Block SMINPUTS  # SM parameters
         1     1.27908970E+02  # alpha_em^-1(MZ)^MSbar
         2     1.16637870E-05  # G_mu [GeV^-2]
         3     1.18400000E-01  # alpha_s(MZ)^MSbar
         4     9.11876000E+01  # m_Z(pole)
         5     4.18000000E+00  # m_b(m_b), MSbar
         6     1.73200000E+02  # m_t(pole)
         7     1.77700000E+00  # m_tau(pole)
         8     0.00000000E+00  # m_nu_3
        11     5.10998930E-04  # m_e(pole)
        12     0.00000000E+00  # m_nu_1
        13     1.05658372E-01  # m_muon(pole)
        14     0.00000000E+00  # m_nu_2
        21     5.00000000E-03  # m_d(2 GeV), MSbar
        22     2.50000000E-03  # m_u(2 GeV), MSbar
        23     9.50000000E-02  # m_s(2 GeV), MSbar
        24     1.27000000E+00  # m_c(m_c), MSbar
Block gauge Q=  2.61137084E+03  # (SUSY scale)
   1    3.55362975E-01  # g'(Q)^DRbar
   2    6.65198874E-01  # g(Q)^DRbar
   3    1.21977796E+00  # g3(Q)^DRbar
Block Yu Q=  2.61137084E+03  # (SUSY scale)
  1  1     8.39475676E-06   # Y_u(Q)^DRbar
  2  2     4.26453643E-03   # Y_c(Q)^DRbar
  3  3     1.01415404E+00   # Y_t(Q)^DRbar
Block Yd Q=  2.61137084E+03  # (SUSY scale)
  1  1     3.38827565E-04   # Y_d(Q)^DRbar
  2  2     6.43772374E-03   # Y_s(Q)^DRbar
  3  3     3.36010772E-01   # Y_b(Q)^DRbar
Block Ye Q=  2.61137084E+03  # (SUSY scale)
  1  1     5.91278879E-05   # Y_e(Q)^DRbar
  2  2     1.22257719E-02   # Y_mu(Q)^DRbar
  3  3     2.05617371E-01   # Y_tau(Q)^DRbar
Block Au Q=  2.61137084E+03  # (SUSY scale)
  1  1     0.00000000E+00   # A_u(Q)^DRbar
  2  2     0.00000000E+00   # A_c(Q)^DRbar
  3  3     3.27010894E+03   # A_t(Q)^DRbar
Block Ad Q=  2.61137084E+03  # (SUSY scale)
  1  1     0.00000000E+00   # A_d(Q)^DRbar
  2  2     0.00000000E+00   # A_s(Q)^DRbar
  3  3     7.25622579E+02   # A_b(Q)^DRbar
Block Ae Q=  2.61137084E+03  # (SUSY scale)
  1  1     0.00000000E+00   # A_e(Q)^DRbar
  2  2     0.00000000E+00   # A_mu(Q)^DRbar
  3  3     1.01066471E+03   # A_tau(Q)^DRbar
Block MSOFT Q=  2.61137084E+03  # soft SUSY breaking masses at Q
   1   -9.45830581E+02  # M_1
   2    8.36592407E+02  # M_2
   3    1.63581810E+03  # M_3
  21    6.02285188E+06  # M^2_(H,d)
  22    1.25580663E+05  # M^2_(H,u)
  31    1.00000000E+04  # M_(L,11)
  32    1.00000000E+04  # M_(L,22)
  33    1.00000000E+04  # M_(L,33)
  34    1.00000000E+04  # M_(E,11)
  35    1.00000000E+04  # M_(E,22)
  36    1.00000000E+04  # M_(E,33)
  41    1.00000000E+04  # M_(Q,11)
  42    1.00000000E+04  # M_(Q,22)
  43    2.56478886E+03  # M_(Q,33)
  44    1.00000000E+04  # M_(U,11)
  45    1.00000000E+04  # M_(U,22)
  46    2.65973694E+03  # M_(U,33)
  47    1.00000000E+04  # M_(D,11)
  48    1.00000000E+04  # M_(D,22)
  49    2.70523910E+03  # M_(D,33)
Block MASS  # Mass spectrum
#   PDG code      mass          particle
         6     1.73200000E+02  # m_t(pole)
        23     9.11876000E+01  # m_Z(pole)
        24     8.04299946E+01  # W+
        15     1.77700000E+00  # m_tau(pole)
        25     1.23775789E+02  # h0
        35     2.47638567E+03  # H0
        36     2.47670604E+03  # A0
        37     2.47856624E+03  # H+
   1000001     1.01177575E+04  # ~d_L
   2000001     1.00929565E+04  # ~d_R
   1000002     1.01173944E+04  # ~u_L
   2000002     1.00961313E+04  # ~u_R
   1000003     1.01177606E+04  # ~s_L
   2000003     1.00929608E+04  # ~s_R
   1000004     1.01173976E+04  # ~c_L
   2000004     1.00961332E+04  # ~c_R
   1000005     2.58802730E+03  # ~b_1
   2000005     2.75275590E+03  # ~b_2
   1000006     2.52962616E+03  # ~t_1
   2000006     2.69575710E+03  # ~t_2
   1000011     1.00209104E+04  # ~e_L-
   2000011     1.00085692E+04  # ~e_R-
   1000012     1.00201446E+04  # ~nu_eL
   1000013     1.00209215E+04  # ~mu_L-
   2000013     1.00085908E+04  # ~mu_R-
   1000014     1.00201556E+04  # ~nu_muL
   1000015     1.00147057E+04  # ~tau_1-
   2000015     1.00240799E+04  # ~tau_2-
   1000016     1.00232957E+04  # ~nu_tauL
   1000021     1.98542203E+03  # ~g
   1000022     1.78482969E+02  # ~chi_10
   1000023     1.83286631E+02  # ~chi_20
   1000025     9.09995549E+02  # ~chi_30
   1000035     9.59323574E+02  # ~chi_40
   1000024     1.81013702E+02  # ~chi_1+
   1000037     9.09832154E+02  # ~chi_2+
# Higgs mixing
Block alpha # Effective Higgs mixing angle
          -4.78622582E-02   # alpha
Block Hmix Q=  2.61137084E+03  # Higgs mixing parameters
   1   -1.69844643E+02  # mu
   2    2.00858572E+01  # tan[beta](Q)
   3    2.43379198E+02  # v(Q)
   4    6.13407281E+06  # m^2_A(Q)
Block stopmix # stop mixing matrix
   1  1    -8.10591317E-01   # Re[R_st(1,1)]
   1  2     5.85612258E-01   # Re[R_st(1,2)]
   2  1    -5.85612258E-01   # Re[R_st(2,1)]
   2  2    -8.10591317E-01   # Re[R_st(2,2)]
Block sbotmix # sbottom mixing matrix
   1  1    -9.99962089E-01   # Re[R_sb(1,1)]
   1  2     8.70753160E-03   # Re[R_sb(1,2)]
   2  1    -8.70753160E-03   # Re[R_sb(2,1)]
   2  2    -9.99962089E-01   # Re[R_sb(2,2)]
Block staumix # stau mixing matrix
   1  1    -4.12325722E-02   # Re[R_sta(1,1)]
   1  2     9.99149576E-01   # Re[R_sta(1,2)]
   2  1    -9.99149576E-01   # Re[R_sta(2,1)]
   2  2    -4.12325722E-02   # Re[R_sta(2,2)]
Block Nmix # neutralino mixing matrix
   1  1    -2.59405519E-02   # Re[N(1,1)]
   1  2    -7.36324690E-02   # Re[N(1,2)]
   1  3    -7.11565052E-01   # Re[N(1,3)]
   1  4    -6.98269664E-01   # Re[N(1,4)]
   2  1     4.26358895E-02   # Re[N(2,1)]
   2  2     5.55503327E-02   # Re[N(2,2)]
   2  3    -7.02398552E-01   # Re[N(2,3)]
   2  4     7.08330866E-01   # Re[N(2,4)]
   3  1     2.18591072E-03   # Re[N(3,1)]
   3  2    -9.95734900E-01   # Re[N(3,2)]
   3  3     1.34088610E-02   # Re[N(3,3)]
   3  4     9.12547715E-02   # Re[N(3,4)]
   4  1    -9.98751466E-01   # Re[N(4,1)]
   4  2     2.10454473E-03   # Re[N(4,2)]
   4  3    -1.14740120E-02   # Re[N(4,3)]
   4  4     4.85739380E-02   # Re[N(4,4)]
Block Umix # chargino mixing matrix
   1  1    -1.90842724E-02   # Re[U(1,1)]
   1  2    -9.99817879E-01   # Re[U(1,2)]
   2  1     9.99817879E-01   # Re[U(2,1)]
   2  2    -1.90842724E-02   # Re[U(2,2)]
Block Vmix # chargino mixing matrix
   1  1    -1.29405364E-01   # Re[V(1,1)]
   1  2     9.91591777E-01   # Re[V(1,2)]
   2  1     9.91591777E-01   # Re[V(2,1)]
   2  2     1.29405364E-01   # Re[V(2,2)]
DECAY        23     2.49520000E+00   # Z
DECAY        24     2.08500000E+00   # W
DECAY   2000011     4.93718149E+01   # ~e^-_R
#    BR                NDA      ID1      ID2
     6.84989756E-04    2     1000022        11   # BR(~e^-_R -> chi^0_1 e^-)
     1.85036900E-03    2     1000023        11   # BR(~e^-_R -> chi^0_2 e^-)
     9.97459840E-01    2     1000035        11   # BR(~e^-_R -> chi^0_4 e^-)
DECAY   1000011     1.42517542E+02   # ~e^-_L
#    BR                NDA      ID1      ID2
     2.36749001E-03    2     1000022        11   # BR(~e^-_L -> chi^0_1 e^-)
     1.89748483E-03    2     1000023        11   # BR(~e^-_L -> chi^0_2 e^-)
     3.01104887E-01    2     1000025        11   # BR(~e^-_L -> chi^0_3 e^-)
     8.58160209E-02    2     1000035        11   # BR(~e^-_L -> chi^0_4 e^-)
     2.25288884E-04    2    -1000024        12   # BR(~e^-_L -> chi^-_1 nu_e)
     6.08588829E-01    2    -1000037        12   # BR(~e^-_L -> chi^-_2 nu_e)
#    BR                NDA      ID1      ID2       ID3
DECAY   2000013     4.94314078E+01   # ~mu^-_R
#    BR                NDA      ID1      ID2
     9.88811082E-04    2     1000022        13   # BR(~mu^-_R -> chi^0_1 mu^-)
     2.14498007E-03    2     1000023        13   # BR(~mu^-_R -> chi^0_2 mu^-)
     9.96259641E-01    2     1000035        13   # BR(~mu^-_R -> chi^0_4 mu^-)
     6.01464938E-04    2    -1000024        14   # BR(~mu^-_R -> chi^-_1 nu_mu)
DECAY   1000013     1.42547483E+02   # ~mu^-_L
#    BR                NDA      ID1      ID2
     2.47276861E-03    2     1000022        13   # BR(~mu^-_L -> chi^0_1 mu^-)
     2.00014973E-03    2     1000023        13   # BR(~mu^-_L -> chi^0_2 mu^-)
     3.01042023E-01    2     1000025        13   # BR(~mu^-_L -> chi^0_3 mu^-)
     8.57981216E-02    2     1000035        13   # BR(~mu^-_L -> chi^0_4 mu^-)
     2.25241813E-04    2    -1000024        14   # BR(~mu^-_L -> chi^-_1 nu_mu)
     6.08461696E-01    2    -1000037        14   # BR(~mu^-_L -> chi^-_2 nu_mu)
#    BR                NDA      ID1      ID2       ID3
DECAY   1000015     6.63838788E+01   # ~tau^-_1
#    BR                NDA      ID1      ID2
     6.57405416E-02    2     1000022        15   # BR(~tau^-_1 -> chi^0_1 tau^-)
     6.33922443E-02    2     1000023        15   # BR(~tau^-_1 -> chi^0_2 tau^-)
     8.09866281E-04    2     1000025        15   # BR(~tau^-_1 -> chi^0_3 tau^-)
     7.41236261E-01    2     1000035        15   # BR(~tau^-_1 -> chi^0_4 tau^-)
     1.27190583E-01    2    -1000024        16   # BR(~tau^-_1 -> chi^-_1 nu_tau)
     1.63050419E-03    2    -1000037        16   # BR(~tau^-_1 -> chi^-_2 nu_tau)
DECAY   2000015     1.50844778E+02   # ~tau^-_2
#    BR                NDA      ID1      ID2
     3.00688498E-02    2     1000022        15   # BR(~tau^-_2 -> chi^0_1 tau^-)
     2.95910942E-02    2     1000023        15   # BR(~tau^-_2 -> chi^0_2 tau^-)
     2.84240122E-01    2     1000025        15   # BR(~tau^-_2 -> chi^0_3 tau^-)
     8.15945709E-02    2     1000035        15   # BR(~tau^-_2 -> chi^0_4 tau^-)
     5.74481974E-01    2    -1000037        16   # BR(~tau^-_2 -> chi^-_2 nu_tau)
#    BR                NDA      ID1      ID2       ID3
DECAY   1000012     1.42522351E+02   # ~nu_e
#    BR                NDA      ID1      ID2
     1.10496954E-03    2     1000022        12   # BR(~nu_e -> chi^0_1 nu_e)
     3.32158552E-04    2     1000023        12   # BR(~nu_e -> chi^0_2 nu_e)
     3.02486606E-01    2     1000025        12   # BR(~nu_e -> chi^0_3 nu_e)
     8.71708832E-02    2     1000035        12   # BR(~nu_e -> chi^0_4 nu_e)
     1.03572730E-02    2     1000024        11   # BR(~nu_e -> chi^+_1 e^-)
     5.98548110E-01    2     1000037        11   # BR(~nu_e -> chi^+_2 e^-)
#    BR                NDA      ID1      ID2       ID3
DECAY   1000014     1.42552289E+02   # ~nu_mu
#    BR                NDA      ID1      ID2
     1.10473870E-03    2     1000022        14   # BR(~nu_mu -> chi^0_1 nu_mu)
     3.32089161E-04    2     1000023        14   # BR(~nu_mu -> chi^0_2 nu_mu)
     3.02423424E-01    2     1000025        14   # BR(~nu_mu -> chi^0_3 nu_mu)
     8.71526757E-02    2     1000035        14   # BR(~nu_mu -> chi^0_4 nu_mu)
     1.05639107E-02    2     1000024        13   # BR(~nu_mu -> chi^+_1 mu^-)
     5.98423162E-01    2     1000037        13   # BR(~nu_mu -> chi^+_2 mu^-)
#    BR                NDA      ID1      ID2       ID3
DECAY   1000016     1.50993753E+02   # ~nu_tau
#    BR                NDA      ID1      ID2
     1.04330438E-03    2     1000022        16   # BR(~nu_tau -> chi^0_1 nu_tau)
     3.13621750E-04    2     1000023        16   # BR(~nu_tau -> chi^0_2 nu_tau)
     2.85608575E-01    2     1000025        16   # BR(~nu_tau -> chi^0_3 nu_tau)
     8.23070525E-02    2     1000035        16   # BR(~nu_tau -> chi^0_4 nu_tau)
     6.55571488E-02    2     1000024        15   # BR(~nu_tau -> chi^+_1 tau^-)
     5.65170298E-01    2     1000037        15   # BR(~nu_tau -> chi^+_2 tau^-)
#    BR                NDA      ID1      ID2       ID3
DECAY   2000001     7.41741059E+02   # ~d_R
#    BR                NDA      ID1      ID2
     7.44149496E-03    2     1000035         1   # BR(~d_R -> chi^0_4 d)
     9.92539498E-01    2     1000021         1   # BR(~d_R -> ~g d)
DECAY   1000001     8.71148010E+02   # ~d_L
#    BR                NDA      ID1      ID2
     2.43339555E-04    2     1000022         1   # BR(~d_L -> chi^0_1 d)
     1.17511671E-04    2     1000023         1   # BR(~d_L -> chi^0_2 d)
     4.99077032E-02    2     1000025         1   # BR(~d_L -> chi^0_3 d)
     1.62585960E-03    2     1000035         1   # BR(~d_L -> chi^0_4 d)
     1.00557618E-01    2    -1000037         2   # BR(~d_L -> chi^-_2 u)
     8.47510754E-01    2     1000021         1   # BR(~d_L -> ~g d)
DECAY   2000003     7.41758011E+02   # ~s_R
#    BR                NDA      ID1      ID2
     7.44132958E-03    2     1000035         3   # BR(~s_R -> chi^0_4 s)
     9.92517304E-01    2     1000021         3   # BR(~s_R -> ~g s)
DECAY   1000003     8.71160285E+02   # ~s_L
#    BR                NDA      ID1      ID2
     2.48168349E-04    2     1000022         3   # BR(~s_L -> chi^0_1 s)
     1.22218253E-04    2     1000023         3   # BR(~s_L -> chi^0_2 s)
     4.99070174E-02    2     1000025         3   # BR(~s_L -> chi^0_3 s)
     1.62583842E-03    2     1000035         3   # BR(~s_L -> chi^0_4 s)
     1.00556303E-01    2    -1000037         4   # BR(~s_L -> chi^-_2 c)
     8.47499113E-01    2     1000021         3   # BR(~s_L -> ~g s)
DECAY   1000005     1.18786193E+02   # ~b_1
#    BR                NDA      ID1      ID2
     2.50471321E-02    2     1000022         5   # BR(~b_1 -> chi^0_1 b)
     2.40923007E-02    2     1000023         5   # BR(~b_1 -> chi^0_2 b)
     7.30673437E-02    2     1000025         5   # BR(~b_1 -> chi^0_3 b)
     2.31040130E-03    2     1000035         5   # BR(~b_1 -> chi^0_4 b)
     4.30078258E-01    2    -1000024         6   # BR(~b_1 -> chi^-_1 t)
     1.54279135E-01    2    -1000037         6   # BR(~b_1 -> chi^-_2 t)
     2.91125429E-01    2     1000021         5   # BR(~b_1 -> ~g b)
DECAY   2000005     6.34313760E+01   # ~b_2
#    BR                NDA      ID1      ID2
     4.88559266E-02    2     1000022         5   # BR(~b_2 -> chi^0_1 b)
     4.77640235E-02    2     1000023         5   # BR(~b_2 -> chi^0_2 b)
     1.86728237E-02    2     1000035         5   # BR(~b_2 -> chi^0_4 b)
     9.58654687E-02    2    -1000024         6   # BR(~b_2 -> chi^-_1 t)
     1.02774590E-04    2    -1000037         6   # BR(~b_2 -> chi^-_2 t)
     7.88625947E-01    2     1000021         5   # BR(~b_2 -> ~g b)
DECAY   2000002     7.58618233E+02   # ~u_R
#    BR                NDA      ID1      ID2
     2.91132570E-02    2     1000035         2   # BR(~u_R -> chi^0_4 u)
     9.70812626E-01    2     1000021         2   # BR(~u_R -> ~g u)
DECAY   1000002     8.71137134E+02   # ~u_L
#    BR                NDA      ID1      ID2
     3.12826536E-04    2     1000022         2   # BR(~u_L -> chi^0_1 u)
     2.03678846E-04    2     1000023         2   # BR(~u_L -> chi^0_2 u)
     4.98284999E-02    2     1000025         2   # BR(~u_L -> chi^0_3 u)
     1.55065440E-03    2     1000035         2   # BR(~u_L -> chi^0_4 u)
     1.71099411E-03    2     1000024         1   # BR(~u_L -> chi^+_1 d)
     9.89072992E-02    2     1000037         1   # BR(~u_L -> chi^+_2 d)
     8.47486047E-01    2     1000021         2   # BR(~u_L -> ~g u)
DECAY   2000004     7.58625665E+02   # ~c_R
#    BR                NDA      ID1      ID2
     2.91129865E-02    2     1000035         4   # BR(~c_R -> chi^0_4 c)
     9.70803286E-01    2     1000021         4   # BR(~c_R -> ~g c)
DECAY   1000004     8.71149389E+02   # ~c_L
#    BR                NDA      ID1      ID2
     3.14869475E-04    2     1000022         4   # BR(~c_L -> chi^0_1 c)
     2.05782688E-04    2     1000023         4   # BR(~c_L -> chi^0_2 c)
     4.98278499E-02    2     1000025         4   # BR(~c_L -> chi^0_3 c)
     1.55064298E-03    2     1000035         4   # BR(~c_L -> chi^0_4 c)
     1.72051038E-03    2     1000024         3   # BR(~c_L -> chi^+_1 s)
     9.89059433E-02    2     1000037         3   # BR(~c_L -> chi^+_2 s)
     8.47474401E-01    2     1000021         4   # BR(~c_L -> ~g c)
DECAY   1000006     1.09757261E+02   # ~t_1
#    BR                NDA      ID1      ID2
     2.19367531E-01    2     1000022         6   # BR(~t_1 -> chi^0_1 t)
     2.29594446E-01    2     1000023         6   # BR(~t_1 -> chi^0_2 t)
     6.77906987E-02    2     1000025         6   # BR(~t_1 -> chi^0_3 t)
     1.05209036E-02    2     1000035         6   # BR(~t_1 -> chi^0_4 t)
     1.55928618E-01    2     1000024         5   # BR(~t_1 -> chi^+_1 b)
     1.29978971E-01    2     1000037         5   # BR(~t_1 -> chi^+_2 b)
     4.34868883E-04    2     1000021         4   # BR(~t_1 -> ~g c)
     1.83394449E-01    2     1000021         6   # BR(~t_1 -> ~g t)
#    BR                NDA      ID1      ID2       ID3
     2.98786710E-03    3     1000022        24         5   # BR(~t_1 -> chi^0_1 W^+ b)
DECAY   2000006     1.59157442E+02   # ~t_2
#    BR                NDA      ID1      ID2
     1.71158678E-01    2     1000022         6   # BR(~t_2 -> chi^0_1 t)
     1.73039234E-01    2     1000023         6   # BR(~t_2 -> chi^0_2 t)
     1.14092970E-02    2     1000025         6   # BR(~t_2 -> chi^0_3 t)
     2.29817321E-02    2     1000035         6   # BR(~t_2 -> chi^0_4 t)
     2.63129633E-01    2     1000024         5   # BR(~t_2 -> chi^+_1 b)
     2.07294143E-02    2     1000037         5   # BR(~t_2 -> chi^+_2 b)
     3.22126155E-01    2     1000021         6   # BR(~t_2 -> ~g t)
     4.06255374E-03    2     1000005        24   # BR(~t_2 -> ~b_1 W^+)
     9.38975564E-03    2     1000006        23   # BR(~t_2 -> ~t_1 Z)
     1.97354762E-03    2     1000006        25   # BR(~t_2 -> ~t_1 h^0)
DECAY   1000024     9.52024882E-11   # chi^+_1
#    BR                NDA      ID1      ID2       ID3
     5.07441993E-01    3     1000022        -1         2   # BR(chi^+_1 -> chi^0_1 d_bar u)
     1.44756887E-01    3     1000022        -3         4   # BR(chi^+_1 -> chi^0_1 s_bar c)
     1.69147260E-01    3     1000022       -11        12   # BR(chi^+_1 -> chi^0_1 e^+ nu_e)
     1.67686926E-01    3     1000022       -13        14   # BR(chi^+_1 -> chi^0_1 mu^+ nu_mu)
     1.09669337E-02    3     1000022       -15        16   # BR(chi^+_1 -> chi^0_1 tau^+ nu_tau)
DECAY   1000037     7.65946541E+00   # chi^+_2
#    BR                NDA      ID1      ID2
     2.47938834E-01    2     1000022        24   # BR(chi^+_2 -> chi^0_1 W^+)
     2.56078397E-01    2     1000023        24   # BR(chi^+_2 -> chi^0_2 W^+)
     2.48347780E-01    2     1000024        23   # BR(chi^+_2 -> chi^+_1 Z)
     2.37163953E-01    2     1000024        25   # BR(chi^+_2 -> chi^+_1 h^0)
#    BR                NDA      ID1      ID2       ID3
     2.81154214E-03    3     1000024         6        -6   # BR(chi^+_2 -> chi^+_1 t t_bar)
     3.57186310E-03    3     1000022        -5         6   # BR(chi^+_2 -> chi^0_1 b_bar t)
     4.08301459E-03    3     1000023        -5         6   # BR(chi^+_2 -> chi^0_2 b_bar t)
DECAY   1000022     0.00000000E+00   # chi^0_1
DECAY   1000023     1.95809541E-08   # chi^0_2
#    BR                NDA      ID1      ID2
     6.63436905E-01    2     1000022        22   # BR(chi^0_2 -> chi^0_1 photon)
#    BR                NDA      ID1      ID2       ID3
     5.13465735E-02    3     1000022         2        -2   # BR(chi^0_2 -> chi^0_1 u u_bar)
     1.89199150E-02    3     1000022         4        -4   # BR(chi^0_2 -> chi^0_1 c c_bar)
     6.58358023E-02    3     1000022         1        -1   # BR(chi^0_2 -> chi^0_1 d d_bar)
     6.55371465E-02    3     1000022         3        -3   # BR(chi^0_2 -> chi^0_1 s s_bar)
     1.48574219E-02    3     1000022        11       -11   # BR(chi^0_2 -> chi^0_1 e^- e^+)
     1.47512692E-02    3     1000022        13       -13   # BR(chi^0_2 -> chi^0_1 mu^- mu^+)
     1.15618524E-03    3     1000022        15       -15   # BR(chi^0_2 -> chi^0_1 tau^- tau^+)
     8.80423823E-02    3     1000022        12       -12   # BR(chi^0_2 -> chi^0_1 nu_e nu_bar_e)
     4.29941501E-03    3     1000024         1        -2   # BR(chi^0_2 -> chi^+_1 d u_bar)
     4.29941501E-03    3    -1000024        -1         2   # BR(chi^0_2 -> chi^-_1 d_bar u)
     8.72933522E-04    3     1000024         3        -4   # BR(chi^0_2 -> chi^+_1 s c_bar)
     8.72933522E-04    3    -1000024        -3         4   # BR(chi^0_2 -> chi^-_1 s_bar c)
     1.43318104E-03    3     1000024        11       -12   # BR(chi^0_2 -> chi^+_1 e^- nu_bar_e)
     1.43318104E-03    3    -1000024       -11        12   # BR(chi^0_2 -> chi^-_1 e^+ nu_e)
     1.41787901E-03    3     1000024        13       -14   # BR(chi^0_2 -> chi^+_1 mu^- nu_bar_mu)
     1.41787901E-03    3    -1000024       -13        14   # BR(chi^0_2 -> chi^-_1 mu^+ nu_mu)
DECAY   1000025     8.49822557E+00   # chi^0_3
#    BR                NDA      ID1      ID2
     2.29058884E-01    2     1000024       -24   # BR(chi^0_3 -> chi^+_1 W^-)
     2.29058884E-01    2    -1000024        24   # BR(chi^0_3 -> chi^-_1 W^+)
     7.96862391E-02    2     1000022        23   # BR(chi^0_3 -> chi^0_1 Z)
     1.47969442E-01    2     1000023        23   # BR(chi^0_3 -> chi^0_2 Z)
     1.34827344E-01    2     1000022        25   # BR(chi^0_3 -> chi^0_1 h^0)
     1.70797816E-01    2     1000023        25   # BR(chi^0_3 -> chi^0_2 h^0)
#    BR                NDA      ID1      ID2       ID3
     1.06184017E-03    3     1000022         6        -6   # BR(chi^0_3 -> chi^0_1 t t_bar)
     1.14771267E-03    3     1000023         6        -6   # BR(chi^0_3 -> chi^0_2 t t_bar)
     3.18935979E-03    3     1000024         5        -6   # BR(chi^0_3 -> chi^+_1 b t_bar)
     3.18935979E-03    3    -1000024        -5         6   # BR(chi^0_3 -> chi^-_1 b_bar t)
DECAY   1000035     2.84867349E+00   # chi^0_4
#    BR                NDA      ID1      ID2
     2.36091700E-01    2     1000024       -24   # BR(chi^0_4 -> chi^+_1 W^-)
     2.36091700E-01    2    -1000024        24   # BR(chi^0_4 -> chi^-_1 W^+)
     1.69744697E-01    2     1000022        23   # BR(chi^0_4 -> chi^0_1 Z)
     6.61690103E-02    2     1000023        23   # BR(chi^0_4 -> chi^0_2 Z)
     1.25320248E-01    2     1000022        25   # BR(chi^0_4 -> chi^0_1 h^0)
     1.56097725E-01    2     1000023        25   # BR(chi^0_4 -> chi^0_2 h^0)
#    BR                NDA      ID1      ID2       ID3
     1.29530371E-03    3     1000022         6        -6   # BR(chi^0_4 -> chi^0_1 t t_bar)
     1.35348656E-03    3     1000023         6        -6   # BR(chi^0_4 -> chi^0_2 t t_bar)
     3.91283819E-03    3     1000024         5        -6   # BR(chi^0_4 -> chi^+_1 b t_bar)
     3.91283819E-03    3    -1000024        -5         6   # BR(chi^0_4 -> chi^-_1 b_bar t)
DECAY   1000021     1.23466930E-01   # ~g
#    BR                NDA      ID1      ID2
     5.41554965E-03    2     1000022        21   # BR(~g -> chi^0_1 g)
     5.11341828E-03    2     1000023        21   # BR(~g -> chi^0_2 g)
#    BR                NDA      ID1      ID2       ID3
     1.99569155E-01    3     1000022         6        -6   # BR(~g -> chi^0_1 t t_bar)
     2.23208094E-02    3     1000022         5        -5   # BR(~g -> chi^0_1 b b_bar)
     2.06715304E-01    3     1000023         6        -6   # BR(~g -> chi^0_2 t t_bar)
     2.15488983E-02    3     1000023         5        -5   # BR(~g -> chi^0_2 b b_bar)
     1.59541787E-02    3     1000025         6        -6   # BR(~g -> chi^0_3 t t_bar)
     1.37644365E-02    3     1000025         5        -5   # BR(~g -> chi^0_3 b b_bar)
     3.56294281E-03    3     1000035         6        -6   # BR(~g -> chi^0_4 t t_bar)
     1.43189017E-03    3     1000035         5        -5   # BR(~g -> chi^0_4 b b_bar)
     2.22080742E-01    3     1000024         5        -6   # BR(~g -> chi^+_1 b t_bar)
     2.22080742E-01    3    -1000024        -5         6   # BR(~g -> chi^-_1 b_bar t)
     3.00060659E-02    3     1000037         5        -6   # BR(~g -> chi^+_2 b t_bar)
     3.00060659E-02    3    -1000037        -5         6   # BR(~g -> chi^-_2 b_bar t)
DECAY        25     3.73162590E-03   # Gamma(h0)
     2.33010910E-03   2        22        22   # BR(h0 -> photon photon)
     1.38956831E-03   2        22        23   # BR(h0 -> photon Z)
     2.46295776E-02   2        23        23   # BR(h0 -> Z Z)
     2.08505453E-01   2       -24        24   # BR(h0 -> W W)
     7.33826071E-02   2        21        21   # BR(h0 -> gluon gluon)
     5.30181485E-09   2       -11        11   # BR(h0 -> Electron electron)
     2.35833511E-04   2       -13        13   # BR(h0 -> Muon muon)
     6.79977324E-02   2       -15        15   # BR(h0 -> Tau tau)
     1.50366526E-07   2        -2         2   # BR(h0 -> Up up)
     2.91783431E-02   2        -4         4   # BR(h0 -> Charm charm)
     6.14821454E-07   2        -1         1   # BR(h0 -> Down down)
     2.22366844E-04   2        -3         3   # BR(h0 -> Strange strange)
     5.92127639E-01   2        -5         5   # BR(h0 -> Bottom bottom)
DECAY        35     4.06668509E+01   # Gamma(HH)
     2.78464573E-08   2        22        22   # BR(HH -> photon photon)
     9.25768378E-08   2        22        23   # BR(HH -> photon Z)
     2.45943494E-06   2        23        23   # BR(HH -> Z Z)
     9.63225175E-07   2       -24        24   # BR(HH -> W W)
     2.21976398E-06   2        21        21   # BR(HH -> gluon gluon)
     4.24055787E-09   2       -11        11   # BR(HH -> Electron electron)
     1.88798224E-04   2       -13        13   # BR(HH -> Muon muon)
     5.45255984E-02   2       -15        15   # BR(HH -> Tau tau)
     3.84418248E-13   2        -2         2   # BR(HH -> Up up)
     7.45697711E-08   2        -4         4   # BR(HH -> Charm charm)
     5.59720520E-03   2        -6         6   # BR(HH -> Top top)
     3.20162868E-07   2        -1         1   # BR(HH -> Down down)
     1.15804821E-04   2        -3         3   # BR(HH -> Strange strange)
     3.11657661E-01   2        -5         5   # BR(HH -> Bottom bottom)
     9.44320260E-03   2  -1000024   1000024   # BR(HH -> Chargino1 chargino1)
     1.87507224E-01   2  -1000024   1000037   # BR(HH -> Chargino1 chargino2)
     1.87507224E-01   2  -1000037   1000024   # BR(HH -> Chargino2 chargino1)
     1.52421396E-04   2  -1000037   1000037   # BR(HH -> Chargino2 chargino2)
     1.16021388E-03   2   1000022   1000022   # BR(HH -> neutralino1 neutralino1)
     6.42718265E-05   2   1000022   1000023   # BR(HH -> neutralino1 neutralino2)
     1.00204346E-01   2   1000022   1000025   # BR(HH -> neutralino1 neutralino3)
     3.03839158E-02   2   1000022   1000035   # BR(HH -> neutralino1 neutralino4)
     2.94643723E-04   2   1000023   1000023   # BR(HH -> neutralino2 neutralino2)
     8.94954579E-02   2   1000023   1000025   # BR(HH -> neutralino2 neutralino3)
     2.15439482E-02   2   1000023   1000035   # BR(HH -> neutralino2 neutralino4)
     7.59399172E-05   2   1000025   1000025   # BR(HH -> neutralino3 neutralino3)
     6.18703421E-05   2   1000025   1000035   # BR(HH -> neutralino3 neutralino4)
     2.69226866E-06   2   1000035   1000035   # BR(HH -> neutralino4 neutralino4)
     1.13978594E-05   2        25        25   # BR(HH -> h0 h0)
DECAY        36     4.01309106E+01   # Gamma(A0)
     9.06731115E-10   2        22        22   # BR(A0 -> photon photon)
     4.51581072E-08   2        22        23   # BR(A0 -> photon Z)
     1.52771268E-05   2        21        21   # BR(A0 -> gluon gluon)
     4.14455561E-09   2       -11        11   # BR(A0 -> Electron electron)
     1.84524203E-04   2       -13        13   # BR(A0 -> Muon muon)
     5.32913664E-02   2       -15        15   # BR(A0 -> Tau tau)
     3.59697640E-13   2        -2         2   # BR(A0 -> Up up)
     6.97712124E-08   2        -4         4   # BR(A0 -> Charm charm)
     5.34817151E-03   2        -6         6   # BR(A0 -> Top top)
     3.12910552E-07   2        -1         1   # BR(A0 -> Down down)
     1.13181346E-04   2        -3         3   # BR(A0 -> Strange strange)
     3.04599973E-01   2        -5         5   # BR(A0 -> Bottom bottom)
     9.46959735E-03   2  -1000024   1000024   # BR(A0 -> Chargino1 chargino1)
     1.90151420E-01   2  -1000024   1000037   # BR(A0 -> Chargino1 chargino2)
     1.90151420E-01   2  -1000037   1000024   # BR(A0 -> Chargino2 chargino1)
     7.99323148E-05   2  -1000037   1000037   # BR(A0 -> Chargino2 chargino2)
     9.93276721E-04   2   1000022   1000022   # BR(A0 -> neutralino1 neutralino1)
     1.30392425E-04   2   1000022   1000023   # BR(A0 -> neutralino1 neutralino2)
     9.36393911E-02   2   1000022   1000025   # BR(A0 -> neutralino1 neutralino3)
     2.25858564E-02   2   1000022   1000035   # BR(A0 -> neutralino1 neutralino4)
     3.69576224E-04   2   1000023   1000023   # BR(A0 -> neutralino2 neutralino2)
     9.87204219E-02   2   1000023   1000025   # BR(A0 -> neutralino2 neutralino3)
     3.00679946E-02   2   1000023   1000035   # BR(A0 -> neutralino2 neutralino4)
     4.01882152E-05   2   1000025   1000025   # BR(A0 -> neutralino3 neutralino3)
     2.83534639E-05   2   1000025   1000035   # BR(A0 -> neutralino3 neutralino4)
     1.56360290E-05   2   1000035   1000035   # BR(A0 -> neutralino4 neutralino4)
     3.61692133E-06   2        23        25   # BR(A0 -> Z h0)
     2.04338742E-39   2        25        25   # BR(A0 -> h0 h0)
DECAY        37     4.02793368E+01   # Gamma(Hp)
     4.46738906E-09   2       -11        12   # BR(Hp -> Electron nu_e)
     1.90994835E-04   2       -13        14   # BR(Hp -> Muon nu_mu)
     5.40241826E-02   2       -15        16   # BR(Hp -> Tau nu_tau)
     2.92293687E-07   2        -1         2   # BR(Hp -> Down up)
     4.92302491E-06   2        -3         2   # BR(Hp -> Strange up)
     3.24570276E-06   2        -5         2   # BR(Hp -> Bottom up)
     1.69858529E-08   2        -1         4   # BR(Hp -> Down charm)
     1.05412753E-04   2        -3         4   # BR(Hp -> Strange charm)
     4.54514546E-04   2        -5         4   # BR(Hp -> Bottom charm)
     3.67084374E-07   2        -1         6   # BR(Hp -> Down top)
     8.15878825E-06   2        -3         6   # BR(Hp -> Strange top)
     3.11790566E-01   2        -5         6   # BR(Hp -> Bottom top)
     1.25601614E-03   2   1000022   1000024   # BR(Hp -> neutralino1 chargino1)
     1.97354149E-01   2   1000022   1000037   # BR(Hp -> neutralino1 chargino2)
     2.59542682E-03   2   1000023   1000024   # BR(Hp -> neutralino2 chargino1)
     1.89309865E-01   2   1000023   1000037   # BR(Hp -> neutralino2 chargino2)
     1.91152530E-01   2   1000024   1000025   # BR(Hp -> chargino1 neutralino3)
     2.79389148E-10   2   1000025   1000037   # BR(Hp -> neutralino3 chargino2)
     5.16545817E-02   2   1000024   1000035   # BR(Hp -> chargino1 neutralino4)
     9.11361526E-05   2   1000035   1000037   # BR(Hp -> neutralino4 chargino2)
     3.61508132E-06   2        24        25   # BR(Hp -> W h0)
     1.66556731E-12   2        24        35   # BR(Hp -> W HH)
     7.52557421E-13   2        24        36   # BR(Hp -> W A0)
DECAY         6     2.43000000E+00   # top
#    BR                NDA      ID1      ID2
     1.00000000E+00    2           5        24   # BR(t -> b W)
Block HiggsBoundsInputHiggsCouplingsFermions
# ScalarNormEffCoupSq PseudoSNormEffCoupSq NP IP1 IP2 IP2
    9.25785986E-01    0.00000000E+00        3  25   5   5  # h0-b-b eff. coupling^2, normalised to SM
    4.03515873E+02    0.00000000E+00        3  35   5   5  # H0-b-b eff. coupling^2, normalised to SM
    0.00000000E+00    4.03441659E+02        3  36   5   5  # A0-b-b eff. coupling^2, normalised to SM
#
    1.00018395E+00    0.00000000E+00        3  25   6   6  # h0-t-t eff. coupling^2, normalised to SM
    2.29472085E-03    0.00000000E+00        3  35   6   6  # H0-t-t eff. coupling^2, normalised to SM
    0.00000000E+00    2.47867313E-03        3  36   6   6  # A0-t-t eff. coupling^2, normalised to SM
#
    9.25785986E-01    0.00000000E+00        3  25  15  15  # h0-tau-tau eff. coupling^2, normalised to SM
    4.03515873E+02    0.00000000E+00        3  35  15  15  # H0-tau-tau eff. coupling^2, normalised to SM
    0.00000000E+00    4.03441659E+02        3  36  15  15  # A0-tau-tau eff. coupling^2, normalised to SM
#
Block HiggsBoundsInputHiggsCouplingsBosons
    9.99996455E-01        3  25  24  24  # h0-W-W eff. coupling^2, normalised to SM
    3.54546913E-06        3  35  24  24  # H0-W-W eff. coupling^2, normalised to SM
    0.00000000E+00        3  36  24  24  # A0-W-W eff. coupling^2, normalised to SM
#
    9.99996455E-01        3  25  23  23  # h0-Z-Z eff. coupling^2, normalised to SM
    3.54546913E-06        3  35  23  23  # H0-Z-Z eff. coupling^2, normalised to SM
    0.00000000E+00        3  36  23  23  # A0-Z-Z eff. coupling^2, normalised to SM
#
    1.26434704E+00        3  25  21  21  # h0-g-g eff. coupling^2, normalised to SM
    1.25061568E-03        3  35  21  21  # H0-g-g eff. coupling^2, normalised to SM
    9.83714328E-02        3  36  21  21  # A0-g-g eff. coupling^2, normalised to SM
#
    0.00000000E+00        3  25  25  23  # h0-h0-Z eff. coupling^2, normalised to SM
    0.00000000E+00        3  35  25  23  # H0-h0-Z eff. coupling^2, normalised to SM
    3.54546913E-06        3  36  25  23  # A0-h0-Z eff. coupling^2, normalised to SM
    0.00000000E+00        3  35  35  23  # H0-H0-Z eff. coupling^2, normalised to SM
    9.99996455E-01        3  36  35  23  # A0-H0-Z eff. coupling^2, normalised to SM
    0.00000000E+00        3  36  36  23  # A0-A0-Z eff. coupling^2, normalised to SM
#
    0.00000000E+00        4  25  21  21  23  # h0-g-g-Z eff. coupling^2, normalised to SM
    0.00000000E+00        4  35  21  21  23  # H0-g-g-Z eff. coupling^2, normalised to SM
    0.00000000E+00        4  36  21  21  23  # A0-g-g-Z eff. coupling^2, normalised to SM
Block SPhenoLowEnergy  # low energy observables
    1    3.16727231E-04   # BR(b -> s gamma)
    2    1.58908751E-06   # BR(b -> s mu+ mu-)
    3    3.52144948E-05   # BR(b -> s nu nu)
    4    2.81260584E-15   # BR(Bd -> e+ e-)
    5    1.20151186E-10   # BR(Bd -> mu+ mu-)
    6    2.51440817E-08   # BR(Bd -> tau+ tau-)
    7    9.51836438E-14   # BR(Bs -> e+ e-)
    8    4.06623735E-09   # BR(Bs -> mu+ mu-)
    9    8.62193595E-07   # BR(Bs -> tau+ tau-)
   10    9.63955781E-05   # BR(B_u -> tau nu)
   11    9.95729417E-01   # BR(B_u -> tau nu)/BR(B_u -> tau nu)_SM
   12    5.42617194E-01   # |Delta(M_Bd)| [ps^-1] 
   13    1.93862089E+01   # |Delta(M_Bs)| [ps^-1] 
   14    0.00000000E+00   # neutron EDM according to the chiral quark model
   15    0.00000000E+00   # neutron EDM according to the relativistic quark-parton model
   16    2.15989191E-03   # epsilon_K
   17    2.28168469E-15   # Delta(M_K)
   18    2.47784116E-11   # BR(K^0 -> pi^0 nu nu)
   19    8.28524111E-11   # BR(K^+ -> pi^+ nu nu)
   20   -2.62362446E-16   # Delta(g-2)_electron/2
   21   -1.12168414E-11   # Delta(g-2)_muon/2
   22   -3.17479527E-09   # Delta(g-2)_tau/2
   23    0.00000000E+00   # electric dipole moment of the electron
   24    0.00000000E+00   # electric dipole moment of the muon
   25    0.00000000E+00   # electric dipole moment of the tau
   26    0.00000000E+00   # Br(mu -> e gamma)
   27    0.00000000E+00   # Br(tau -> e gamma)
   28    0.00000000E+00   # Br(tau -> mu gamma)
   29    0.00000000E+00   # Br(mu -> 3 e)
   30    0.00000000E+00   # Br(tau -> 3 e)
   31    0.00000000E+00   # Br(tau -> 3 mu)
   39    6.14067039E-05   # Delta(rho_parameter)
   40    0.00000000E+00   # BR(Z -> e mu)
   41    0.00000000E+00   # BR(Z -> e tau)
   42    0.00000000E+00   # BR(Z -> mu tau)
Block FWCOEF Q=  1.60000000E+02  # Wilson coefficients at scale Q
#    id        order  M        value         comment
     0305 4422   00   0    -1.88819110E-01   # C7
     0305 4422   00   2    -1.83147421E-01   # C7
     0305 4322   00   2    -1.48570674E-04   # C7'
     0305 6421   00   0    -9.52278348E-02   # C8
     0305 6421   00   2    -9.87731856E-02   # C8
     0305 6321   00   2    -1.95376961E-04   # C8'
 03051111 4133   00   0     1.61145837E+00   # C9 e+e-
 03051111 4133   00   2     1.61214379E+00   # C9 e+e-
 03051111 4233   00   2     1.07917522E-04   # C9' e+e-
 03051111 4137   00   0    -4.43415048E+00   # C10 e+e-
 03051111 4137   00   2    -4.42875900E+00   # C10 e+e-
 03051111 4237   00   2    -8.14539715E-04   # C10' e+e-
 03051313 4133   00   0     1.61145837E+00   # C9 mu+mu-
 03051313 4133   00   2     1.61214374E+00   # C9 mu+mu-
 03051313 4233   00   2     1.07917467E-04   # C9' mu+mu-
 03051313 4137   00   0    -4.43415048E+00   # C10 mu+mu-
 03051313 4137   00   2    -4.42875905E+00   # C10 mu+mu-
 03051313 4237   00   2    -8.14539703E-04   # C10' mu+mu-
 03051212 4137   00   0     1.50535012E+00   # C11 nu_1 nu_1
 03051212 4137   00   2     1.50418196E+00   # C11 nu_1 nu_1
 03051212 4237   00   2     1.76738425E-04   # C11' nu_1 nu_1
 03051414 4137   00   0     1.50535012E+00   # C11 nu_2 nu_2
 03051414 4137   00   2     1.50418196E+00   # C11 nu_2 nu_2
 03051414 4237   00   2     1.76738435E-04   # C11' nu_2 nu_2
 03051616 4137   00   0     1.50535012E+00   # C11 nu_3 nu_3
 03051616 4137   00   2     1.50418196E+00   # C11 nu_3 nu_3
 03051616 4237   00   2     1.76741149E-04   # C11' nu_3 nu_3
Block IMFWCOEF Q=  1.60000000E+02  # Im(Wilson coefficients) at scale Q
#    id        order  M        value         comment
     0305 4422   00   0     3.85826990E-07   # C7
     0305 4422   00   2    -1.43707070E-05   # C7
     0305 4322   00   2     5.03524985E-07   # C7'
     0305 6421   00   0     3.30486333E-07   # C8
     0305 6421   00   2     1.29572764E-05   # C8
     0305 6321   00   2     5.35310040E-07   # C8'
 03051111 4133   00   2     4.33235902E-07   # C9 e+e-
 03051111 4233   00   2     2.19192986E-06   # C9' e+e-
 03051111 4137   00   2     3.11569049E-06   # C10 e+e-
 03051111 4237   00   2    -1.65503554E-05   # C10' e+e-
 03051313 4133   00   2     4.33234992E-07   # C9 mu+mu-
 03051313 4233   00   2     2.19192967E-06   # C9' mu+mu-
 03051313 4137   00   2     3.11569154E-06   # C10 mu+mu-
 03051313 4237   00   2    -1.65503559E-05   # C10' mu+mu-
 03051212 4137   00   2    -6.45800537E-07   # C11 nu_1 nu_1
 03051212 4237   00   2     3.59108971E-06   # C11' nu_1 nu_1
 03051414 4137   00   2    -6.45800491E-07   # C11 nu_2 nu_2
 03051414 4237   00   2     3.59108971E-06   # C11' nu_2 nu_2
 03051616 4137   00   2    -6.45787282E-07   # C11 nu_3 nu_3
 03051616 4237   00   2     3.59108970E-06   # C11' nu_3 nu_3
