# SUSY Les Houches Accord 2 - MSSM spectrum + Decays
# SPheno v4.0.5be
# W. Porod, Comput. Phys. Commun. 153 (2003) 275-315, hep-ph/0301101;
# W. Porod, F.~Staub, Comput. Phys. Commun. 183 (2012) 2458
#                     arXiv:1104.1573 [hep-ph] 
# in case of problems send email to porod@physik.uni-wuerzburg.de
# Created: 12.05.2022,  13:15
Block SPINFO         # Program information
     1   SPheno      # spectrum calculator
     2   v4.0.5be    # version number
#
Block SPhenoINFO     # SPheno specific information
    1      2         # using 2-loop RGEs
    2      2         # using pole masses for boundary conditions at mZ
Block MODSEL  # Model selection
    1    0    # general MSSM
Block MINPAR  # Input parameters
    3    1.89886910E+01  # tanb at m_Z    
    4   -1.00000000E+00  # Sign(mu)
Block EXTPAR  # non-universal input parameters
    0    4.83090573E+03  # scale for input parameters
    1   -1.44376267E+03  # M_1
    2    7.43516875E+02  # M_2
    3    4.82115333E+03  # M_3
   11   -6.64511728E+03  # A_t
   12   -6.08668938E+02  # A_b
   13    9.51268869E+01  # A_tau
   23   -2.77556548E+02  # mu
   25    1.81130545E+01  # tan(beta)
   26    4.38674165E+03  # m_A, pole mass
   31    1.00000000E+04  # M_L11
   32    1.00000000E+04  # M_L22
   33    1.00000000E+04  # M_L33
   34    1.00000000E+04  # M_E11
   35    1.00000000E+04  # M_E22
   36    1.00000000E+04  # M_E33
   41    1.00000000E+04  # M_Q11
   42    1.00000000E+04  # M_Q22
   43    4.93741953E+03  # M_Q33
   44    1.00000000E+04  # M_U11
   45    1.00000000E+04  # M_U22
   46    4.58326624E+03  # M_U33
   47    1.00000000E+04  # M_D11
   48    1.00000000E+04  # M_D22
   49    4.41344456E+03  # M_D33
Block SMINPUTS  # SM parameters
         1     1.27908970E+02  # alpha_em^-1(MZ)^MSbar
         2     1.16637870E-05  # G_mu [GeV^-2]
         3     1.18400000E-01  # alpha_s(MZ)^MSbar
         4     9.11876000E+01  # m_Z(pole)
         5     4.18000000E+00  # m_b(m_b), MSbar
         6     1.73200000E+02  # m_t(pole)
         7     1.77700000E+00  # m_tau(pole)
         8     0.00000000E+00  # m_nu_3
        11     5.10998930E-04  # m_e(pole)
        12     0.00000000E+00  # m_nu_1
        13     1.05658372E-01  # m_muon(pole)
        14     0.00000000E+00  # m_nu_2
        21     5.00000000E-03  # m_d(2 GeV), MSbar
        22     2.50000000E-03  # m_u(2 GeV), MSbar
        23     9.50000000E-02  # m_s(2 GeV), MSbar
        24     1.27000000E+00  # m_c(m_c), MSbar
Block gauge Q=  4.83090573E+03  # (SUSY scale)
   1    3.55362975E-01  # g'(Q)^DRbar
   2    6.65198874E-01  # g(Q)^DRbar
   3    1.21977796E+00  # g3(Q)^DRbar
Block Yu Q=  4.83090573E+03  # (SUSY scale)
  1  1     8.39714024E-06   # Y_u(Q)^DRbar
  2  2     4.26574724E-03   # Y_c(Q)^DRbar
  3  3     1.01444199E+00   # Y_t(Q)^DRbar
Block Yd Q=  4.83090573E+03  # (SUSY scale)
  1  1     3.05635184E-04   # Y_d(Q)^DRbar
  2  2     5.80706850E-03   # Y_s(Q)^DRbar
  3  3     3.03094330E-01   # Y_b(Q)^DRbar
Block Ye Q=  4.83090573E+03  # (SUSY scale)
  1  1     5.33355746E-05   # Y_e(Q)^DRbar
  2  2     1.10281052E-02   # Y_mu(Q)^DRbar
  3  3     1.85474588E-01   # Y_tau(Q)^DRbar
Block Au Q=  4.83090573E+03  # (SUSY scale)
  1  1     0.00000000E+00   # A_u(Q)^DRbar
  2  2     0.00000000E+00   # A_c(Q)^DRbar
  3  3    -6.64512388E+03   # A_t(Q)^DRbar
Block Ad Q=  4.83090573E+03  # (SUSY scale)
  1  1     0.00000000E+00   # A_d(Q)^DRbar
  2  2     0.00000000E+00   # A_s(Q)^DRbar
  3  3    -6.08668711E+02   # A_b(Q)^DRbar
Block Ae Q=  4.83090573E+03  # (SUSY scale)
  1  1     0.00000000E+00   # A_e(Q)^DRbar
  2  2     0.00000000E+00   # A_mu(Q)^DRbar
  3  3     9.51268514E+01   # A_tau(Q)^DRbar
Block MSOFT Q=  4.83090573E+03  # soft SUSY breaking masses at Q
   1   -1.44376267E+03  # M_1
   2    7.43516875E+02  # M_2
   3    4.82115333E+03  # M_3
  21    1.91419591E+07  # M^2_(H,d)
  22    4.80247227E+05  # M^2_(H,u)
  31    1.00000000E+04  # M_(L,11)
  32    1.00000000E+04  # M_(L,22)
  33    1.00000000E+04  # M_(L,33)
  34    1.00000000E+04  # M_(E,11)
  35    1.00000000E+04  # M_(E,22)
  36    1.00000000E+04  # M_(E,33)
  41    1.00000000E+04  # M_(Q,11)
  42    1.00000000E+04  # M_(Q,22)
  43    4.93741953E+03  # M_(Q,33)
  44    1.00000000E+04  # M_(U,11)
  45    1.00000000E+04  # M_(U,22)
  46    4.58326624E+03  # M_(U,33)
  47    1.00000000E+04  # M_(D,11)
  48    1.00000000E+04  # M_(D,22)
  49    4.41344456E+03  # M_(D,33)
Block MASS  # Mass spectrum
#   PDG code      mass          particle
         6     1.73200000E+02  # m_t(pole)
        23     9.11876000E+01  # m_Z(pole)
        24     8.04299946E+01  # W+
        15     1.77700000E+00  # m_tau(pole)
        25     1.27430755E+02  # h0
        35     4.38614471E+03  # H0
        36     4.38674165E+03  # A0
        37     4.38713333E+03  # H+
   1000001     1.01129635E+04  # ~d_L
   2000001     1.00883619E+04  # ~d_R
   1000002     1.01126058E+04  # ~u_L
   2000002     1.00908050E+04  # ~u_R
   1000003     1.01129633E+04  # ~s_L
   2000003     1.00883615E+04  # ~s_R
   1000004     1.01126056E+04  # ~c_L
   2000004     1.00908050E+04  # ~c_R
   1000005     4.58593004E+03  # ~b_1
   2000005     5.03755526E+03  # ~b_2
   1000006     4.61295846E+03  # ~t_1
   2000006     5.05915029E+03  # ~t_2
   1000011     1.00209790E+04  # ~e_L-
   2000011     1.00094333E+04  # ~e_R-
   1000012     1.00202133E+04  # ~nu_eL
   1000013     1.00209780E+04  # ~mu_L-
   2000013     1.00094312E+04  # ~mu_R-
   1000014     1.00202122E+04  # ~nu_muL
   1000015     1.00088458E+04  # ~tau_1-
   2000015     1.00207050E+04  # ~tau_2-
   1000016     1.00199245E+04  # ~nu_tauL
   1000021     5.34949010E+03  # ~g
   1000022     2.95416909E+02  # ~chi_10
   1000023     3.02730928E+02  # ~chi_20
   1000025     8.14724046E+02  # ~chi_30
   1000035     1.44997310E+03  # ~chi_40
   1000024     2.98279450E+02  # ~chi_1+
   1000037     8.14883555E+02  # ~chi_2+
# Higgs mixing
Block alpha # Effective Higgs mixing angle
          -5.26763626E-02   # alpha
Block Hmix Q=  4.83090573E+03  # Higgs mixing parameters
   1   -2.77556548E+02  # mu
   2    1.81130545E+01  # tan[beta](Q)
   3    2.42747386E+02  # v(Q)
   4    1.92435023E+07  # m^2_A(Q)
Block stopmix # stop mixing matrix
   1  1     2.20341206E-01   # Re[R_st(1,1)]
   1  2     9.75422858E-01   # Re[R_st(1,2)]
   2  1    -9.75422858E-01   # Re[R_st(2,1)]
   2  2     2.20341206E-01   # Re[R_st(2,2)]
Block sbotmix # sbottom mixing matrix
   1  1    -1.65108314E-03   # Re[R_sb(1,1)]
   1  2     9.99998637E-01   # Re[R_sb(1,2)]
   2  1    -9.99998637E-01   # Re[R_sb(2,1)]
   2  2    -1.65108314E-03   # Re[R_sb(2,2)]
Block staumix # stau mixing matrix
   1  1    -3.77990133E-02   # Re[R_sta(1,1)]
   1  2     9.99285362E-01   # Re[R_sta(1,2)]
   2  1    -9.99285362E-01   # Re[R_sta(2,1)]
   2  2    -3.77990133E-02   # Re[R_sta(2,2)]
Block Nmix # neutralino mixing matrix
   1  1     1.66828029E-02   # Re[N(1,1)]
   1  2     1.02601029E-01   # Re[N(1,2)]
   1  3     7.09884011E-01   # Re[N(1,3)]
   1  4     6.96605630E-01   # Re[N(1,4)]
   2  1     2.87767602E-02   # Re[N(2,1)]
   2  2     5.41502094E-02   # Re[N(2,2)]
   2  3    -7.03400507E-01   # Re[N(2,3)]
   2  4     7.08143615E-01   # Re[N(2,4)]
   3  1    -2.12843099E-03   # Re[N(3,1)]
   3  2     9.93246921E-01   # Re[N(3,2)]
   3  3    -3.49720816E-02   # Re[N(3,3)]
   3  4    -1.10602790E-01   # Re[N(3,4)]
   4  1    -9.99444372E-01   # Re[N(4,1)]
   4  2     1.15652539E-03   # Re[N(4,2)]
   4  3    -8.32892488E-03   # Re[N(4,3)]
   4  4     3.22527444E-02   # Re[N(4,4)]
Block Umix # chargino mixing matrix
   1  1    -4.98095142E-02   # Re[U(1,1)]
   1  2    -9.98758736E-01   # Re[U(1,2)]
   2  1     9.98758736E-01   # Re[U(2,1)]
   2  2    -4.98095142E-02   # Re[U(2,2)]
Block Vmix # chargino mixing matrix
   1  1    -1.57165590E-01   # Re[V(1,1)]
   1  2     9.87572264E-01   # Re[V(1,2)]
   2  1     9.87572264E-01   # Re[V(2,1)]
   2  2     1.57165590E-01   # Re[V(2,2)]
DECAY        23     2.49520000E+00   # Z
DECAY        24     2.08500000E+00   # W
DECAY   2000011     4.82073218E+01   # ~e^-_R
#    BR                NDA      ID1      ID2
     2.89861774E-04    2     1000022        11   # BR(~e^-_R -> chi^0_1 e^-)
     8.62368347E-04    2     1000023        11   # BR(~e^-_R -> chi^0_2 e^-)
     9.98843094E-01    2     1000035        11   # BR(~e^-_R -> chi^0_4 e^-)
DECAY   1000011     1.42658281E+02   # ~e^-_L
#    BR                NDA      ID1      ID2
     3.83808784E-03    2     1000022        11   # BR(~e^-_L -> chi^0_1 e^-)
     1.49171276E-03    2     1000023        11   # BR(~e^-_L -> chi^0_2 e^-)
     3.00313905E-01    2     1000025        11   # BR(~e^-_L -> chi^0_3 e^-)
     8.41227292E-02    2     1000035        11   # BR(~e^-_L -> chi^0_4 e^-)
     1.53144369E-03    2    -1000024        12   # BR(~e^-_L -> chi^-_1 nu_e)
     6.08702122E-01    2    -1000037        12   # BR(~e^-_L -> chi^-_2 nu_e)
#    BR                NDA      ID1      ID2       ID3
DECAY   2000013     4.82556587E+01   # ~mu^-_R
#    BR                NDA      ID1      ID2
     5.42035806E-04    2     1000022        13   # BR(~mu^-_R -> chi^0_1 mu^-)
     1.10935749E-03    2     1000023        13   # BR(~mu^-_R -> chi^0_2 mu^-)
     9.97842375E-01    2     1000035        13   # BR(~mu^-_R -> chi^0_4 mu^-)
     4.99738266E-04    2    -1000024        14   # BR(~mu^-_R -> chi^-_1 nu_mu)
DECAY   1000013     1.42682469E+02   # ~mu^-_L
#    BR                NDA      ID1      ID2
     3.92292077E-03    2     1000022        13   # BR(~mu^-_L -> chi^0_1 mu^-)
     1.57538085E-03    2     1000023        13   # BR(~mu^-_L -> chi^0_2 mu^-)
     3.00263170E-01    2     1000025        13   # BR(~mu^-_L -> chi^0_3 mu^-)
     8.41084713E-02    2     1000035        13   # BR(~mu^-_L -> chi^0_4 mu^-)
     1.53118393E-03    2    -1000024        14   # BR(~mu^-_L -> chi^-_1 nu_mu)
     6.08598874E-01    2    -1000037        14   # BR(~mu^-_L -> chi^-_2 nu_mu)
#    BR                NDA      ID1      ID2       ID3
DECAY   1000015     6.20059511E+01   # ~tau^-_1
#    BR                NDA      ID1      ID2
     5.72161750E-02    2     1000022        15   # BR(~tau^-_1 -> chi^0_1 tau^-)
     5.46565014E-02    2     1000023        15   # BR(~tau^-_1 -> chi^0_2 tau^-)
     3.96632515E-04    2     1000025        15   # BR(~tau^-_1 -> chi^0_3 tau^-)
     7.75595694E-01    2     1000035        15   # BR(~tau^-_1 -> chi^0_4 tau^-)
     1.11335804E-01    2    -1000024        16   # BR(~tau^-_1 -> chi^-_1 nu_tau)
     7.99193159E-04    2    -1000037        16   # BR(~tau^-_1 -> chi^-_2 nu_tau)
DECAY   2000015     1.49373107E+02   # ~tau^-_2
#    BR                NDA      ID1      ID2
     2.61729477E-02    2     1000022        15   # BR(~tau^-_2 -> chi^0_1 tau^-)
     2.43367786E-02    2     1000023        15   # BR(~tau^-_2 -> chi^0_2 tau^-)
     2.86752965E-01    2     1000025        15   # BR(~tau^-_2 -> chi^0_3 tau^-)
     8.07264075E-02    2     1000035        15   # BR(~tau^-_2 -> chi^0_4 tau^-)
     9.08064399E-04    2    -1000024        16   # BR(~tau^-_2 -> chi^-_1 nu_tau)
     5.81102837E-01    2    -1000037        16   # BR(~tau^-_2 -> chi^-_2 nu_tau)
#    BR                NDA      ID1      ID2       ID3
DECAY   1000012     1.42662814E+02   # ~nu_e
#    BR                NDA      ID1      ID2
     2.70887369E-03    2     1000022        12   # BR(~nu_e -> chi^0_1 nu_e)
     4.64008715E-04    2     1000023        12   # BR(~nu_e -> chi^0_2 nu_e)
     3.01658985E-01    2     1000025        12   # BR(~nu_e -> chi^0_3 nu_e)
     8.48450316E-02    2     1000035        12   # BR(~nu_e -> chi^0_4 nu_e)
     1.52455946E-02    2     1000024        11   # BR(~nu_e -> chi^+_1 e^-)
     5.95077506E-01    2     1000037        11   # BR(~nu_e -> chi^+_2 e^-)
#    BR                NDA      ID1      ID2       ID3
DECAY   1000014     1.42686998E+02   # ~nu_mu
#    BR                NDA      ID1      ID2
     2.70841426E-03    2     1000022        14   # BR(~nu_mu -> chi^0_1 nu_mu)
     4.63930019E-04    2     1000023        14   # BR(~nu_mu -> chi^0_2 nu_mu)
     3.01607823E-01    2     1000025        14   # BR(~nu_mu -> chi^0_3 nu_mu)
     8.48306411E-02    2     1000035        14   # BR(~nu_mu -> chi^0_4 nu_mu)
     1.54121974E-02    2     1000024        13   # BR(~nu_mu -> chi^+_1 mu^-)
     5.94976994E-01    2     1000037        13   # BR(~nu_mu -> chi^+_2 mu^-)
#    BR                NDA      ID1      ID2       ID3
DECAY   1000016     1.49503699E+02   # ~nu_tau
#    BR                NDA      ID1      ID2
     2.58484819E-03    2     1000022        16   # BR(~nu_tau -> chi^0_1 nu_tau)
     4.42764122E-04    2     1000023        16   # BR(~nu_tau -> chi^0_2 nu_tau)
     2.87847368E-01    2     1000025        16   # BR(~nu_tau -> chi^0_3 nu_tau)
     8.09602191E-02    2     1000035        16   # BR(~nu_tau -> chi^0_4 nu_tau)
     6.02214366E-02    2     1000024        15   # BR(~nu_tau -> chi^+_1 tau^-)
     5.67943364E-01    2     1000037        15   # BR(~nu_tau -> chi^+_2 tau^-)
#    BR                NDA      ID1      ID2       ID3
DECAY   2000001     4.16857063E+02   # ~d_R
#    BR                NDA      ID1      ID2
     1.29443992E-02    2     1000035         1   # BR(~d_R -> chi^0_4 d)
     9.87040528E-01    2     1000021         1   # BR(~d_R -> ~g d)
DECAY   1000001     5.47199140E+02   # ~d_L
#    BR                NDA      ID1      ID2
     8.06095610E-04    2     1000022         1   # BR(~d_L -> chi^0_1 d)
     1.95184417E-04    2     1000023         1   # BR(~d_L -> chi^0_2 d)
     7.92731772E-02    2     1000025         1   # BR(~d_L -> chi^0_3 d)
     2.50401274E-03    2     1000035         1   # BR(~d_L -> chi^0_4 d)
     4.02934894E-04    2    -1000024         2   # BR(~d_L -> chi^-_1 u)
     1.60187779E-01    2    -1000037         2   # BR(~d_L -> chi^-_2 u)
     7.56630816E-01    2     1000021         1   # BR(~d_L -> ~g d)
DECAY   2000003     4.16870495E+02   # ~s_R
#    BR                NDA      ID1      ID2
     1.29439826E-02    2     1000035         3   # BR(~s_R -> chi^0_4 s)
     9.87008623E-01    2     1000021         3   # BR(~s_R -> ~g s)
DECAY   1000003     5.47209523E+02   # ~s_L
#    BR                NDA      ID1      ID2
     8.12300585E-04    2     1000022         3   # BR(~s_L -> chi^0_1 s)
     2.01287094E-04    2     1000023         3   # BR(~s_L -> chi^0_2 s)
     7.92716860E-02    2     1000025         3   # BR(~s_L -> chi^0_3 s)
     2.50396598E-03    2     1000035         3   # BR(~s_L -> chi^0_4 s)
     4.09440044E-04    2    -1000024         4   # BR(~s_L -> chi^-_1 c)
     1.60184900E-01    2    -1000037         4   # BR(~s_L -> chi^-_2 c)
     7.56616420E-01    2     1000021         3   # BR(~s_L -> ~g s)
DECAY   1000005     1.86697176E+01   # ~b_1
#    BR                NDA      ID1      ID2
     2.24544942E-01    2     1000022         5   # BR(~b_1 -> chi^0_1 b)
     2.20236184E-01    2     1000023         5   # BR(~b_1 -> chi^0_2 b)
     4.43213789E-04    2     1000025         5   # BR(~b_1 -> chi^0_3 b)
     1.10978824E-01    2     1000035         5   # BR(~b_1 -> chi^0_4 b)
     4.42901445E-01    2    -1000024         6   # BR(~b_1 -> chi^-_1 t)
     8.95390143E-04    2    -1000037         6   # BR(~b_1 -> chi^-_2 t)
DECAY   2000005     1.91815133E+02   # ~b_2
#    BR                NDA      ID1      ID2
     2.51460897E-02    2     1000022         5   # BR(~b_2 -> chi^0_1 b)
     2.38587626E-02    2     1000023         5   # BR(~b_2 -> chi^0_2 b)
     1.08296046E-01    2     1000025         5   # BR(~b_2 -> chi^0_3 b)
     3.12370718E-03    2     1000035         5   # BR(~b_2 -> chi^0_4 b)
     5.19895512E-01    2    -1000024         6   # BR(~b_2 -> chi^-_1 t)
     2.31938044E-01    2    -1000037         6   # BR(~b_2 -> chi^-_2 t)
     8.77296010E-02    2     1000006       -24   # BR(~b_2 -> ~t_1 W^-)
DECAY   2000002     4.33324874E+02   # ~u_R
#    BR                NDA      ID1      ID2
     4.98229529E-02    2     1000035         2   # BR(~u_R -> chi^0_4 u)
     9.50119379E-01    2     1000021         2   # BR(~u_R -> ~g u)
DECAY   1000002     5.47181243E+02   # ~u_L
#    BR                NDA      ID1      ID2
     9.05084854E-04    2     1000022         2   # BR(~u_L -> chi^0_1 u)
     2.85294511E-04    2     1000023         2   # BR(~u_L -> chi^0_2 u)
     7.91519847E-02    2     1000025         2   # BR(~u_L -> chi^0_3 u)
     2.43974982E-03    2     1000035         2   # BR(~u_L -> chi^0_4 u)
     4.01169279E-03    2     1000024         1   # BR(~u_L -> chi^+_1 d)
     1.56618986E-01    2     1000037         1   # BR(~u_L -> chi^+_2 d)
     7.56587207E-01    2     1000021         2   # BR(~u_L -> ~g u)
DECAY   2000004     4.33332133E+02   # ~c_R
#    BR                NDA      ID1      ID2
     4.98221230E-02    2     1000035         4   # BR(~c_R -> chi^0_4 c)
     9.50103391E-01    2     1000021         4   # BR(~c_R -> ~g c)
DECAY   1000004     5.47191595E+02   # ~c_L
#    BR                NDA      ID1      ID2
     9.08307762E-04    2     1000022         4   # BR(~c_L -> chi^0_1 c)
     2.88637512E-04    2     1000023         4   # BR(~c_L -> chi^0_2 c)
     7.91505669E-02    2     1000025         4   # BR(~c_L -> chi^0_3 c)
     2.43971051E-03    2     1000035         4   # BR(~c_L -> chi^0_4 c)
     4.02392939E-03    2     1000024         3   # BR(~c_L -> chi^+_1 s)
     1.56616049E-01    2     1000037         3   # BR(~c_L -> chi^+_2 s)
     7.56572798E-01    2     1000021         4   # BR(~c_L -> ~g c)
DECAY   1000006     1.93579213E+02   # ~t_1
#    BR                NDA      ID1      ID2
     2.40007057E-01    2     1000022         6   # BR(~t_1 -> chi^0_1 t)
     2.44067862E-01    2     1000023         6   # BR(~t_1 -> chi^0_2 t)
     2.73163177E-04    2     1000025         6   # BR(~t_1 -> chi^0_3 t)
     4.27395592E-02    2     1000035         6   # BR(~t_1 -> chi^0_4 t)
     4.72455237E-01    2     1000024         5   # BR(~t_1 -> chi^+_1 b)
#    BR                NDA      ID1      ID2       ID3
     3.99637535E-04    3     1000022        24         5   # BR(~t_1 -> chi^0_1 W^+ b)
DECAY   2000006     1.98441916E+02   # ~t_2
#    BR                NDA      ID1      ID2
     2.45714316E-01    2     1000022         6   # BR(~t_2 -> chi^0_1 t)
     2.57181335E-01    2     1000023         6   # BR(~t_2 -> chi^0_2 t)
     1.17058492E-01    2     1000025         6   # BR(~t_2 -> chi^0_3 t)
     4.00425806E-03    2     1000035         6   # BR(~t_2 -> chi^0_4 t)
     5.10161229E-02    2     1000024         5   # BR(~t_2 -> chi^+_1 b)
     2.19952329E-01    2     1000037         5   # BR(~t_2 -> chi^+_2 b)
     4.61026287E-02    2     1000006        23   # BR(~t_2 -> ~t_1 Z)
     5.89642690E-02    2     1000006        25   # BR(~t_2 -> ~t_1 h^0)
DECAY   1000024     1.90336311E-10   # chi^+_1
#    BR                NDA      ID1      ID2       ID3
     4.78245341E-01    3     1000022        -1         2   # BR(chi^+_1 -> chi^0_1 d_bar u)
     1.82565082E-01    3     1000022        -3         4   # BR(chi^+_1 -> chi^0_1 s_bar c)
     1.59415106E-01    3     1000022       -11        12   # BR(chi^+_1 -> chi^0_1 e^+ nu_e)
     1.58337511E-01    3     1000022       -13        14   # BR(chi^+_1 -> chi^0_1 mu^+ nu_mu)
     2.14369606E-02    3     1000022       -15        16   # BR(chi^+_1 -> chi^0_1 tau^+ nu_tau)
DECAY   1000037     6.28298818E+00   # chi^+_2
#    BR                NDA      ID1      ID2
     2.48343178E-01    2     1000022        24   # BR(chi^+_2 -> chi^0_1 W^+)
     2.61420045E-01    2     1000023        24   # BR(chi^+_2 -> chi^0_2 W^+)
     2.47270345E-01    2     1000024        23   # BR(chi^+_2 -> chi^+_1 Z)
     2.36809874E-01    2     1000024        25   # BR(chi^+_2 -> chi^+_1 h^0)
#    BR                NDA      ID1      ID2       ID3
     1.00634623E-03    3     1000024         6        -6   # BR(chi^+_2 -> chi^+_1 t t_bar)
     2.29012952E-03    3     1000022        -5         6   # BR(chi^+_2 -> chi^0_1 b_bar t)
     2.85997572E-03    3     1000023        -5         6   # BR(chi^+_2 -> chi^0_2 b_bar t)
DECAY   1000022     0.00000000E+00   # chi^0_1
DECAY   1000023     1.31726323E-07   # chi^0_2
#    BR                NDA      ID1      ID2
     4.92844025E-01    2     1000022        22   # BR(chi^0_2 -> chi^0_1 photon)
#    BR                NDA      ID1      ID2       ID3
     6.26491625E-02    3     1000022         2        -2   # BR(chi^0_2 -> chi^0_1 u u_bar)
     4.16726096E-02    3     1000022         4        -4   # BR(chi^0_2 -> chi^0_1 c c_bar)
     8.03286490E-02    3     1000022         1        -1   # BR(chi^0_2 -> chi^0_1 d d_bar)
     8.01710576E-02    3     1000022         3        -3   # BR(chi^0_2 -> chi^0_1 s s_bar)
     1.81278861E-02    3     1000022        11       -11   # BR(chi^0_2 -> chi^0_1 e^- e^+)
     1.80719239E-02    3     1000022        13       -13   # BR(chi^0_2 -> chi^0_1 mu^- mu^+)
     7.28902097E-03    3     1000022        15       -15   # BR(chi^0_2 -> chi^0_1 tau^- tau^+)
     1.07422586E-01    3     1000022        12       -12   # BR(chi^0_2 -> chi^0_1 nu_e nu_bar_e)
     1.83069560E-02    3     1000024         1        -2   # BR(chi^0_2 -> chi^+_1 d u_bar)
     1.83069560E-02    3    -1000024        -1         2   # BR(chi^0_2 -> chi^-_1 d_bar u)
     1.23764553E-02    3     1000024         3        -4   # BR(chi^0_2 -> chi^+_1 s c_bar)
     1.23764553E-02    3    -1000024        -3         4   # BR(chi^0_2 -> chi^-_1 s_bar c)
     6.10234268E-03    3     1000024        11       -12   # BR(chi^0_2 -> chi^+_1 e^- nu_bar_e)
     6.10234268E-03    3    -1000024       -11        12   # BR(chi^0_2 -> chi^-_1 e^+ nu_e)
     6.08524271E-03    3     1000024        13       -14   # BR(chi^0_2 -> chi^+_1 mu^- nu_bar_mu)
     6.08524271E-03    3    -1000024       -13        14   # BR(chi^0_2 -> chi^-_1 mu^+ nu_mu)
     2.84054271E-03    3     1000024        15       -16   # BR(chi^0_2 -> chi^+_1 tau^- nu_bar_tau)
     2.84054271E-03    3    -1000024       -15        16   # BR(chi^0_2 -> chi^-_1 tau^+ nu_tau)
DECAY   1000025     7.51420024E+00   # chi^0_3
#    BR                NDA      ID1      ID2
     2.13707218E-01    2     1000024       -24   # BR(chi^0_3 -> chi^+_1 W^-)
     2.13707218E-01    2    -1000024        24   # BR(chi^0_3 -> chi^-_1 W^+)
     4.52572057E-02    2     1000022        23   # BR(chi^0_3 -> chi^0_1 Z)
     1.72061372E-01    2     1000023        23   # BR(chi^0_3 -> chi^0_2 Z)
     1.51841111E-01    2     1000022        25   # BR(chi^0_3 -> chi^0_1 h^0)
     1.98941816E-01    2     1000023        25   # BR(chi^0_3 -> chi^0_2 h^0)
#    BR                NDA      ID1      ID2       ID3
     2.79189326E-04    3     1000022         6        -6   # BR(chi^0_3 -> chi^0_1 t t_bar)
     3.09087797E-04    3     1000023         6        -6   # BR(chi^0_3 -> chi^0_2 t t_bar)
     1.94089719E-03    3     1000024         5        -6   # BR(chi^0_3 -> chi^+_1 b t_bar)
     1.94089719E-03    3    -1000024        -5         6   # BR(chi^0_3 -> chi^-_1 b_bar t)
DECAY   1000035     4.36540840E+00   # chi^0_4
#    BR                NDA      ID1      ID2
     2.29739647E-01    2     1000024       -24   # BR(chi^0_4 -> chi^+_1 W^-)
     2.29739647E-01    2    -1000024        24   # BR(chi^0_4 -> chi^-_1 W^+)
     1.25020062E-03    2     1000037       -24   # BR(chi^0_4 -> chi^+_2 W^-)
     1.25020062E-03    2    -1000037        24   # BR(chi^0_4 -> chi^-_2 W^+)
     1.69365753E-01    2     1000022        23   # BR(chi^0_4 -> chi^0_1 Z)
     6.02506052E-02    2     1000023        23   # BR(chi^0_4 -> chi^0_2 Z)
     1.16492427E-03    2     1000025        23   # BR(chi^0_4 -> chi^0_3 Z)
     1.26346739E-01    2     1000022        25   # BR(chi^0_4 -> chi^0_1 h^0)
     1.60720547E-01    2     1000023        25   # BR(chi^0_4 -> chi^0_2 h^0)
     7.82818162E-04    2     1000025        25   # BR(chi^0_4 -> chi^0_3 h^0)
#    BR                NDA      ID1      ID2       ID3
     3.24068308E-03    3     1000022         6        -6   # BR(chi^0_4 -> chi^0_1 t t_bar)
     3.50240082E-03    3     1000023         6        -6   # BR(chi^0_4 -> chi^0_2 t t_bar)
     6.30161242E-03    3     1000024         5        -6   # BR(chi^0_4 -> chi^+_1 b t_bar)
     6.30161242E-03    3    -1000024        -5         6   # BR(chi^0_4 -> chi^-_1 b_bar t)
DECAY   1000021     2.40673584E+01   # ~g
#    BR                NDA      ID1      ID2
     1.36213426E-04    2     1000006        -4   # BR(~g -> ~t_1 c_bar)
     1.36213426E-04    2    -1000006         4   # BR(~g -> ~t^*_1 c)
     1.88223708E-01    2     1000006        -6   # BR(~g -> ~t_1 t_bar)
     1.88223708E-01    2    -1000006         6   # BR(~g -> ~t^*_1 t)
     3.74909693E-02    2     2000006        -6   # BR(~g -> ~t_2 t_bar)
     3.74909693E-02    2    -2000006         6   # BR(~g -> ~t^*_2 t)
     2.31184075E-01    2     1000005        -5   # BR(~g -> ~b_1 b_bar)
     2.31184075E-01    2    -1000005         5   # BR(~g -> ~b^*_1 b)
     4.21649380E-02    2     2000005        -5   # BR(~g -> ~b_2 b_bar)
     4.21649380E-02    2    -2000005         5   # BR(~g -> ~b^*_2 b)
     2.71277056E-04    2     1000022        21   # BR(~g -> chi^0_1 g)
     2.64241878E-04    2     1000023        21   # BR(~g -> chi^0_2 g)
#    BR                NDA      ID1      ID2       ID3
     1.58784054E-04    3     1000037         1        -2   # BR(~g -> chi^+_2 d u_bar)
     1.58784054E-04    3    -1000037        -1         2   # BR(~g -> chi^-_2 d_bar u)
     1.58784306E-04    3     1000037         3        -4   # BR(~g -> chi^+_2 s c_bar)
     1.58784306E-04    3    -1000037        -3         4   # BR(~g -> chi^-_2 s_bar c)
DECAY        25     3.98599091E-03   # Gamma(h0)
     2.46955053E-03   2        22        22   # BR(h0 -> photon photon)
     1.79706744E-03   2        22        23   # BR(h0 -> photon Z)
     3.62391971E-02   2        23        23   # BR(h0 -> Z Z)
     2.85742191E-01   2       -24        24   # BR(h0 -> W W)
     7.47114686E-02   2        21        21   # BR(h0 -> gluon gluon)
     4.63100369E-09   2       -11        11   # BR(h0 -> Electron electron)
     2.05996533E-04   2       -13        13   # BR(h0 -> Muon muon)
     5.93991040E-02   2       -15        15   # BR(h0 -> Tau tau)
     1.31344363E-07   2        -2         2   # BR(h0 -> Up up)
     2.54915465E-02   2        -4         4   # BR(h0 -> Charm charm)
     5.34206264E-07   2        -1         1   # BR(h0 -> Down down)
     1.93209999E-04   2        -3         3   # BR(h0 -> Strange strange)
     5.13749998E-01   2        -5         5   # BR(h0 -> Bottom bottom)
DECAY        35     7.28285842E+01   # Gamma(HH)
     1.33890284E-08   2        22        22   # BR(HH -> photon photon)
     5.94876951E-08   2        22        23   # BR(HH -> photon Z)
     6.22333700E-07   2        23        23   # BR(HH -> Z Z)
     1.18392128E-07   2       -24        24   # BR(HH -> W W)
     3.62995362E-07   2        21        21   # BR(HH -> gluon gluon)
     3.12975989E-09   2       -11        11   # BR(HH -> Electron electron)
     1.39369045E-04   2       -13        13   # BR(HH -> Muon muon)
     4.02538815E-02   2       -15        15   # BR(HH -> Tau tau)
     3.80855529E-13   2        -2         2   # BR(HH -> Up up)
     7.38892217E-08   2        -4         4   # BR(HH -> Charm charm)
     5.61242598E-03   2        -6         6   # BR(HH -> Top top)
     2.21686687E-07   2        -1         1   # BR(HH -> Down down)
     8.01833365E-05   2        -3         3   # BR(HH -> Strange strange)
     2.08269462E-01   2        -5         5   # BR(HH -> Bottom bottom)
     1.44382807E-02   2  -1000024   1000024   # BR(HH -> Chargino1 chargino1)
     2.21959246E-01   2  -1000024   1000037   # BR(HH -> Chargino1 chargino2)
     2.21959246E-01   2  -1000037   1000024   # BR(HH -> Chargino2 chargino1)
     1.63260304E-03   2  -1000037   1000037   # BR(HH -> Chargino2 chargino2)
     2.84693597E-03   2   1000022   1000022   # BR(HH -> neutralino1 neutralino1)
     3.14349000E-04   2   1000022   1000023   # BR(HH -> neutralino1 neutralino2)
     1.22098872E-01   2   1000022   1000025   # BR(HH -> neutralino1 neutralino3)
     3.23986787E-02   2   1000022   1000035   # BR(HH -> neutralino1 neutralino4)
     4.05597829E-04   2   1000023   1000023   # BR(HH -> neutralino2 neutralino2)
     1.03093615E-01   2   1000023   1000025   # BR(HH -> neutralino2 neutralino3)
     2.34885076E-02   2   1000023   1000035   # BR(HH -> neutralino2 neutralino4)
     8.14888564E-04   2   1000025   1000025   # BR(HH -> neutralino3 neutralino3)
     1.84859433E-04   2   1000025   1000035   # BR(HH -> neutralino3 neutralino4)
     2.11275440E-06   2   1000035   1000035   # BR(HH -> neutralino4 neutralino4)
     5.41011123E-06   2        25        25   # BR(HH -> h0 h0)
DECAY        36     7.19673358E+01   # Gamma(A0)
     1.65251541E-09   2        22        22   # BR(A0 -> photon photon)
     3.92739728E-08   2        22        23   # BR(A0 -> photon Z)
     6.13511388E-06   2        21        21   # BR(A0 -> gluon gluon)
     3.02122207E-09   2       -11        11   # BR(A0 -> Electron electron)
     1.34535975E-04   2       -13        13   # BR(A0 -> Muon muon)
     3.88579783E-02   2       -15        15   # BR(A0 -> Tau tau)
     3.49836032E-13   2        -2         2   # BR(A0 -> Up up)
     6.78693137E-08   2        -4         4   # BR(A0 -> Charm charm)
     5.18792617E-03   2        -6         6   # BR(A0 -> Top top)
     2.13994375E-07   2        -1         1   # BR(A0 -> Down down)
     7.74012893E-05   2        -3         3   # BR(A0 -> Strange strange)
     2.01043377E-01   2        -5         5   # BR(A0 -> Bottom bottom)
     1.38824681E-02   2  -1000024   1000024   # BR(A0 -> Chargino1 chargino1)
     2.25366404E-01   2  -1000024   1000037   # BR(A0 -> Chargino1 chargino2)
     2.25366404E-01   2  -1000037   1000024   # BR(A0 -> Chargino2 chargino1)
     9.60648182E-04   2  -1000037   1000037   # BR(A0 -> Chargino2 chargino2)
     2.38102986E-03   2   1000022   1000022   # BR(A0 -> neutralino1 neutralino1)
     5.31992453E-04   2   1000022   1000023   # BR(A0 -> neutralino1 neutralino2)
     1.05345709E-01   2   1000022   1000025   # BR(A0 -> neutralino1 neutralino3)
     2.42797254E-02   2   1000022   1000035   # BR(A0 -> neutralino1 neutralino4)
     5.16270120E-04   2   1000023   1000023   # BR(A0 -> neutralino2 neutralino2)
     1.23096723E-01   2   1000023   1000025   # BR(A0 -> neutralino2 neutralino3)
     3.23591178E-02   2   1000023   1000035   # BR(A0 -> neutralino2 neutralino4)
     4.83204685E-04   2   1000025   1000025   # BR(A0 -> neutralino3 neutralino3)
     1.11996635E-04   2   1000025   1000035   # BR(A0 -> neutralino3 neutralino4)
     9.15129952E-06   2   1000035   1000035   # BR(A0 -> neutralino4 neutralino4)
     1.47599202E-06   2        23        25   # BR(A0 -> Z h0)
     2.44995846E-36   2        25        25   # BR(A0 -> h0 h0)
DECAY        37     7.43358716E+01   # Gamma(Hp)
     3.51911222E-09   2       -11        12   # BR(Hp -> Electron nu_e)
     1.50453039E-04   2       -13        14   # BR(Hp -> Muon nu_mu)
     4.25566906E-02   2       -15        16   # BR(Hp -> Tau nu_tau)
     2.15950826E-07   2        -1         2   # BR(Hp -> Down up)
     3.66043889E-06   2        -3         2   # BR(Hp -> Strange up)
     2.33602467E-06   2        -5         2   # BR(Hp -> Bottom up)
     1.38230268E-08   2        -1         4   # BR(Hp -> Down charm)
     7.79028120E-05   2        -3         4   # BR(Hp -> Strange charm)
     3.27127217E-04   2        -5         4   # BR(Hp -> Bottom charm)
     4.05756643E-07   2        -1         6   # BR(Hp -> Down top)
     8.96296332E-06   2        -3         6   # BR(Hp -> Strange top)
     2.26611258E-01   2        -5         6   # BR(Hp -> Bottom top)
     1.00766977E-03   2   1000022   1000024   # BR(Hp -> neutralino1 chargino1)
     2.29563298E-01   2   1000022   1000037   # BR(Hp -> neutralino1 chargino2)
     3.88070811E-03   2   1000023   1000024   # BR(Hp -> neutralino2 chargino1)
     2.19693205E-01   2   1000023   1000037   # BR(Hp -> neutralino2 chargino2)
     2.21620542E-01   2   1000024   1000025   # BR(Hp -> chargino1 neutralino3)
     2.21778567E-09   2   1000025   1000037   # BR(Hp -> neutralino3 chargino2)
     5.42024124E-02   2   1000024   1000035   # BR(Hp -> chargino1 neutralino4)
     2.91703143E-04   2   1000035   1000037   # BR(Hp -> neutralino4 chargino2)
     1.42976102E-06   2        24        25   # BR(Hp -> W h0)
DECAY         6     2.43000000E+00   # top
#    BR                NDA      ID1      ID2
     1.00000000E+00    2           5        24   # BR(t -> b W)
Block HiggsBoundsInputHiggsCouplingsFermions
# ScalarNormEffCoupSq PseudoSNormEffCoupSq NP IP1 IP2 IP2
    9.12294246E-01    0.00000000E+00        3  25   5   5  # h0-b-b eff. coupling^2, normalised to SM
    3.28170449E+02    0.00000000E+00        3  35   5   5  # H0-b-b eff. coupling^2, normalised to SM
    0.00000000E+00    3.28082743E+02        3  36   5   5  # A0-b-b eff. coupling^2, normalised to SM
#
    1.00026733E+00    0.00000000E+00        3  25   6   6  # h0-t-t eff. coupling^2, normalised to SM
    2.78068342E-03    0.00000000E+00        3  35   6   6  # H0-t-t eff. coupling^2, normalised to SM
    0.00000000E+00    3.04801158E-03        3  36   6   6  # A0-t-t eff. coupling^2, normalised to SM
#
    9.12294246E-01    0.00000000E+00        3  25  15  15  # h0-tau-tau eff. coupling^2, normalised to SM
    3.28170449E+02    0.00000000E+00        3  35  15  15  # H0-tau-tau eff. coupling^2, normalised to SM
    0.00000000E+00    3.28082743E+02        3  36  15  15  # A0-tau-tau eff. coupling^2, normalised to SM
#
Block HiggsBoundsInputHiggsCouplingsBosons
    9.99993867E-01        3  25  24  24  # h0-W-W eff. coupling^2, normalised to SM
    6.13277832E-06        3  35  24  24  # H0-W-W eff. coupling^2, normalised to SM
    0.00000000E+00        3  36  24  24  # A0-W-W eff. coupling^2, normalised to SM
#
    9.99993867E-01        3  25  23  23  # h0-Z-Z eff. coupling^2, normalised to SM
    6.13277832E-06        3  35  23  23  # H0-Z-Z eff. coupling^2, normalised to SM
    0.00000000E+00        3  36  23  23  # A0-Z-Z eff. coupling^2, normalised to SM
#
    1.27195284E+00        3  25  21  21  # h0-g-g eff. coupling^2, normalised to SM
    6.79631804E-04        3  35  21  21  # H0-g-g eff. coupling^2, normalised to SM
    9.41251441E-02        3  36  21  21  # A0-g-g eff. coupling^2, normalised to SM
#
    0.00000000E+00        3  25  25  23  # h0-h0-Z eff. coupling^2, normalised to SM
    0.00000000E+00        3  35  25  23  # H0-h0-Z eff. coupling^2, normalised to SM
    6.13277832E-06        3  36  25  23  # A0-h0-Z eff. coupling^2, normalised to SM
    0.00000000E+00        3  35  35  23  # H0-H0-Z eff. coupling^2, normalised to SM
    9.99993867E-01        3  36  35  23  # A0-H0-Z eff. coupling^2, normalised to SM
    0.00000000E+00        3  36  36  23  # A0-A0-Z eff. coupling^2, normalised to SM
#
    0.00000000E+00        4  25  21  21  23  # h0-g-g-Z eff. coupling^2, normalised to SM
    0.00000000E+00        4  35  21  21  23  # H0-g-g-Z eff. coupling^2, normalised to SM
    0.00000000E+00        4  36  21  21  23  # A0-g-g-Z eff. coupling^2, normalised to SM
Block SPhenoLowEnergy  # low energy observables
    1    3.27100423E-04   # BR(b -> s gamma)
    2    1.58984923E-06   # BR(b -> s mu+ mu-)
    3    3.52619155E-05   # BR(b -> s nu nu)
    4    2.26055485E-15   # BR(Bd -> e+ e-)
    5    9.65684515E-11   # BR(Bd -> mu+ mu-)
    6    2.02223921E-08   # BR(Bd -> tau+ tau-)
    7    7.63871118E-14   # BR(Bs -> e+ e-)
    8    3.26325878E-09   # BR(Bs -> mu+ mu-)
    9    6.92392003E-07   # BR(Bs -> tau+ tau-)
   10    9.66905575E-05   # BR(B_u -> tau nu)
   11    9.98776441E-01   # BR(B_u -> tau nu)/BR(B_u -> tau nu)_SM
   12    5.41873732E-01   # |Delta(M_Bd)| [ps^-1] 
   13    1.93608820E+01   # |Delta(M_Bs)| [ps^-1] 
   14    0.00000000E+00   # neutron EDM according to the chiral quark model
   15    0.00000000E+00   # neutron EDM according to the relativistic quark-parton model
   16    2.15677694E-03   # epsilon_K
   17    2.28165269E-15   # Delta(M_K)
   18    2.48053170E-11   # BR(K^0 -> pi^0 nu nu)
   19    8.29178375E-11   # BR(K^+ -> pi^+ nu nu)
   20   -1.40719438E-16   # Delta(g-2)_electron/2
   21   -6.01621418E-12   # Delta(g-2)_muon/2
   22   -1.70318551E-09   # Delta(g-2)_tau/2
   23    0.00000000E+00   # electric dipole moment of the electron
   24    0.00000000E+00   # electric dipole moment of the muon
   25    0.00000000E+00   # electric dipole moment of the tau
   26    0.00000000E+00   # Br(mu -> e gamma)
   27    0.00000000E+00   # Br(tau -> e gamma)
   28    0.00000000E+00   # Br(tau -> mu gamma)
   29    0.00000000E+00   # Br(mu -> 3 e)
   30    0.00000000E+00   # Br(tau -> 3 e)
   31    0.00000000E+00   # Br(tau -> 3 mu)
   39    3.40305285E-05   # Delta(rho_parameter)
   40    0.00000000E+00   # BR(Z -> e mu)
   41    0.00000000E+00   # BR(Z -> e tau)
   42    0.00000000E+00   # BR(Z -> mu tau)
Block FWCOEF Q=  1.60000000E+02  # Wilson coefficients at scale Q
#    id        order  M        value         comment
     0305 4422   00   0    -1.88819110E-01   # C7
     0305 4422   00   2    -1.96573849E-01   # C7
     0305 4322   00   2    -1.14152638E-04   # C7'
     0305 6421   00   0    -9.52278348E-02   # C8
     0305 6421   00   2    -1.01898981E-01   # C8
     0305 6321   00   2    -1.10199696E-04   # C8'
 03051111 4133   00   0     1.63292186E+00   # C9 e+e-
 03051111 4133   00   2     1.63308711E+00   # C9 e+e-
 03051111 4233   00   2     9.24710821E-05   # C9' e+e-
 03051111 4137   00   0    -4.45561396E+00   # C10 e+e-
 03051111 4137   00   2    -4.45488017E+00   # C10 e+e-
 03051111 4237   00   2    -6.78196113E-04   # C10' e+e-
 03051313 4133   00   0     1.63292186E+00   # C9 mu+mu-
 03051313 4133   00   2     1.63308708E+00   # C9 mu+mu-
 03051313 4233   00   2     9.24710738E-05   # C9' mu+mu-
 03051313 4137   00   0    -4.45561396E+00   # C10 mu+mu-
 03051313 4137   00   2    -4.45488020E+00   # C10 mu+mu-
 03051313 4237   00   2    -6.78196122E-04   # C10' mu+mu-
 03051212 4137   00   0     1.50535012E+00   # C11 nu_1 nu_1
 03051212 4137   00   2     1.50519319E+00   # C11 nu_1 nu_1
 03051212 4237   00   2     1.46446027E-04   # C11' nu_1 nu_1
 03051414 4137   00   0     1.50535012E+00   # C11 nu_2 nu_2
 03051414 4137   00   2     1.50519319E+00   # C11 nu_2 nu_2
 03051414 4237   00   2     1.46446027E-04   # C11' nu_2 nu_2
 03051616 4137   00   0     1.50535012E+00   # C11 nu_3 nu_3
 03051616 4137   00   2     1.50519319E+00   # C11 nu_3 nu_3
 03051616 4237   00   2     1.46446270E-04   # C11' nu_3 nu_3
Block IMFWCOEF Q=  1.60000000E+02  # Im(Wilson coefficients) at scale Q
#    id        order  M        value         comment
     0305 4422   00   0     3.85817227E-07   # C7
     0305 4422   00   2    -3.16894834E-06   # C7
     0305 4322   00   2    -7.39034441E-07   # C7'
     0305 6421   00   0     3.30477971E-07   # C8
     0305 6421   00   2     2.77409159E-06   # C8
     0305 6321   00   2    -2.51846861E-07   # C8'
 03051111 4133   00   2     2.52086686E-07   # C9 e+e-
 03051111 4233   00   2     1.74226968E-06   # C9' e+e-
 03051111 4137   00   2     1.07555675E-06   # C10 e+e-
 03051111 4237   00   2    -1.27784853E-05   # C10' e+e-
 03051313 4133   00   2     2.52085819E-07   # C9 mu+mu-
 03051313 4233   00   2     1.74226961E-06   # C9' mu+mu-
 03051313 4137   00   2     1.07555757E-06   # C10 mu+mu-
 03051313 4237   00   2    -1.27784855E-05   # C10' mu+mu-
 03051212 4137   00   2    -2.05097992E-07   # C11 nu_1 nu_1
 03051212 4237   00   2     2.75931784E-06   # C11' nu_1 nu_1
 03051414 4137   00   2    -2.05097950E-07   # C11 nu_2 nu_2
 03051414 4237   00   2     2.75931784E-06   # C11' nu_2 nu_2
 03051616 4137   00   2    -2.05086132E-07   # C11 nu_3 nu_3
 03051616 4237   00   2     2.75931784E-06   # C11' nu_3 nu_3
