#
#                              ======================
#                              | THE SUSYHIT OUTPUT |
#                              ======================
#
#
#              ------------------------------------------------------
#              |     This is the output of the SUSY-HIT package     |
#              |  created by A.Djouadi, M.Muehlleitner and M.Spira. |
#              |  In case of problems with SUSY-HIT email to        |
#              |           margarete.muehlleitner@cern.ch           |
#              |           michael.spira@psi.ch                     |
#              |           abdelhak.djouadi@cern.ch                 |
#              ------------------------------------------------------
#
#              ------------------------------------------------------
#              |  SUSY Les Houches Accord - MSSM Spectrum + Decays  |
#              |              based on the decay programs           |
#              |                                                    |
#              |                     SDECAY 1.3b                    |
#              |                                                    |
#              |  Authors: M.Muhlleitner, A.Djouadi and Y.Mambrini  |
#              |  Ref.:    Comput.Phys.Commun.168(2005)46           |
#              |           [hep-ph/0311167]                         |
#              |                                                    |
#              |                     HDECAY 3.4                     |
#              |                                                    |
#              |  By: A.Djouadi,J.Kalinowski,M.Muhlleitner,M.Spira  |
#              |  Ref.:    Comput.Phys.Commun.108(1998)56           |
#              |           [hep-ph/9704448]                         |
#              |                                                    |
#              |                                                    |
#              |  If not stated otherwise all DRbar couplings and   |
#              |  soft SUSY breaking masses are given at the scale  |
#              |  Q=  0.17578900E+04
#              |                                                    |
#              ------------------------------------------------------
#
#
BLOCK DCINFO  # Decay Program information
     1   SDECAY/HDECAY # decay calculator
     2   1.3b  /3.4    # version number
#
BLOCK SPINFO  # Spectrum calculator information
     1     SOFTSUSY    # spectrum calculator               
     2     3.4.0       # version number                    
#
BLOCK MODSEL  # Model selection
     1     0   #  nonUniversal                                     
#
BLOCK SMINPUTS  # Standard Model inputs
         1     1.27908970E+02   # alpha_em^-1(M_Z)^MSbar
         2     1.16637870E-05   # G_F [GeV^-2]
         3     1.18400000E-01   # alpha_S(M_Z)^MSbar
         4     9.11876000E+01   # M_Z pole mass
         5     4.18000000E+00   # mb(mb)^MSbar
         6     1.73200000E+02   # mt pole mass
         7     1.77700000E+00   # mtau pole mass
#
BLOCK MINPAR  # Input parameters - minimal models
         3     1.86700000E+01   # tanb                
#
BLOCK EXTPAR  # Input parameters - non-minimal models
         0    -1.00000000E+00   # Set                 
         1     8.63050000E+02   # M_1(MX)             
         2     2.41449000E+03   # M_2(MX)             
         3     2.11286000E+03   # M_3(MX)             
        11    -2.77119000E+03   # At(MX)              
        12     3.33700000E+01   # Ab(MX)              
        13     3.00542000E+03   # Atau(MX)            
        23     1.24844000E+03   # mu(MX)              
        26     1.73277000E+03   # mA(pole)            
        31     2.76801000E+03   # meL(MX)             
        32     2.76801000E+03   # mmuL(MX)            
        33     3.88238000E+03   # mtauL(MX)           
        34     2.75557000E+03   # meR(MX)             
        35     2.75557000E+03   # mmuR(MX)            
        36     2.29623000E+03   # mtauR(MX)           
        41     1.09570000E+03   # mqL1(MX)            
        42     1.09570000E+03   # mqL2(MX)            
        43     1.77617000E+03   # mqL3(MX)            
        44     2.36856000E+03   # muR(MX)             
        45     2.36856000E+03   # mcR(MX)             
        46     1.74434000E+03   # mtR(MX)             
        47     1.33199000E+03   # mdR(MX)             
        48     1.33199000E+03   # msR(MX)             
        49     1.26876000E+03   # mbR(MX)             
#
BLOCK MASS  # Mass Spectrum
# PDG code           mass       particle
        24     8.03895904E+01   # W+
        25     1.24702647E+02   # h
        35     1.73276206E+03   # H
        36     1.73276982E+03   # A
        37     1.73497801E+03   # H+
         5     4.81876030E+00   # b-quark pole mass calculated from mb(mb)_Msbar
   1000001     1.19065110E+03   # ~d_L
   2000001     1.40693137E+03   # ~d_R
   1000002     1.18812024E+03   # ~u_L
   2000002     2.42337420E+03   # ~u_R
   1000003     1.19065110E+03   # ~s_L
   2000003     1.40693137E+03   # ~s_R
   1000004     1.18812024E+03   # ~c_L
   2000004     2.42337420E+03   # ~c_R
   1000005     1.34277257E+03   # ~b_1
   2000005     1.83263376E+03   # ~b_2
   1000006     1.68593197E+03   # ~t_1
   2000006     1.91957973E+03   # ~t_2
   1000011     2.77943423E+03   # ~e_L
   2000011     2.75686090E+03   # ~e_R
   1000012     2.77800227E+03   # ~nu_eL
   1000013     2.77943423E+03   # ~mu_L
   2000013     2.75686090E+03   # ~mu_R
   1000014     2.77800227E+03   # ~nu_muL
   1000015     2.29806270E+03   # ~tau_1
   2000015     3.88914754E+03   # ~tau_2
   1000016     3.88800919E+03   # ~nu_tauL
   1000021     2.14262270E+03   # ~g
   1000022     8.58917381E+02   # ~chi_10
   1000023     1.27217517E+03   # ~chi_20
   1000025    -1.27420354E+03   # ~chi_30
   1000035     2.39961795E+03   # ~chi_40
   1000024     1.27077771E+03   # ~chi_1+
   1000037     2.39978094E+03   # ~chi_2+
#
BLOCK NMIX  # Neutralino Mixing Matrix
  1  1     9.96573595E-01   # N_11
  1  2    -2.62254616E-03   # N_12
  1  3     6.74792050E-02   # N_13
  1  4    -4.77571779E-02   # N_14
  2  1    -8.15216499E-02   # N_21
  2  2    -5.16169932E-02   # N_22
  2  3     7.03945899E-01   # N_23
  2  4    -7.03669012E-01   # N_24
  3  1    -1.39045218E-02   # N_31
  3  2     1.42817630E-02   # N_32
  3  3     7.06545542E-01   # N_33
  3  4     7.07386806E-01   # N_34
  4  1    -1.39777196E-03   # N_41
  4  2     9.98561385E-01   # N_42
  4  3     2.64598876E-02   # N_43
  4  4    -4.66163176E-02   # N_44
#
BLOCK UMIX  # Chargino Mixing Matrix U
  1  1    -3.78705470E-02   # U_11
  1  2     9.99282654E-01   # U_12
  2  1    -9.99282654E-01   # U_21
  2  2    -3.78705470E-02   # U_22
#
BLOCK VMIX  # Chargino Mixing Matrix V
  1  1    -6.64659949E-02   # V_11
  1  2     9.97788691E-01   # V_12
  2  1    -9.97788691E-01   # V_21
  2  2    -6.64659949E-02   # V_22
#
BLOCK STOPMIX  # Stop Mixing Matrix
  1  1     6.10828999E-01   # cos(theta_t)
  1  2     7.91762549E-01   # sin(theta_t)
  2  1    -7.91762549E-01   # -sin(theta_t)
  2  2     6.10828999E-01   # cos(theta_t)
#
BLOCK SBOTMIX  # Sbottom Mixing Matrix
  1  1     3.26174152E-02   # cos(theta_b)
  1  2     9.99467911E-01   # sin(theta_b)
  2  1    -9.99467911E-01   # -sin(theta_b)
  2  2     3.26174152E-02   # cos(theta_b)
#
BLOCK STAUMIX  # Stau Mixing Matrix
  1  1     3.63339683E-03   # cos(theta_tau)
  1  2     9.99993399E-01   # sin(theta_tau)
  2  1    -9.99993399E-01   # -sin(theta_tau)
  2  2     3.63339683E-03   # cos(theta_tau)
#
BLOCK ALPHA  # Higgs mixing
          -5.59094184E-02   # Mixing angle in the neutral Higgs boson sector
#
BLOCK HMIX Q=  1.75789000E+03  # DRbar Higgs Parameters
         1     1.26356463E+03   # mu(Q)MSSM           
         2     1.79803407E+01   # tan                 
         3     2.43575707E+02   # higgs               
         4     2.92855526E+06   # mA^2(Q)MSSM         
#
BLOCK GAUGE Q=  1.75789000E+03  # The gauge couplings
     1     3.63202328E-01   # gprime(Q) DRbar
     2     6.36295843E-01   # g(Q) DRbar
     3     1.03269012E+00   # g3(Q) DRbar
#
BLOCK AU Q=  1.75789000E+03  # The trilinear couplings
  1  1     0.00000000E+00   # A_u(Q) DRbar
  2  2     0.00000000E+00   # A_c(Q) DRbar
  3  3    -2.77118999E+03   # A_t(Q) DRbar
#
BLOCK AD Q=  1.75789000E+03  # The trilinear couplings
  1  1     0.00000000E+00   # A_d(Q) DRbar
  2  2     0.00000000E+00   # A_s(Q) DRbar
  3  3     3.33700018E+01   # A_b(Q) DRbar
#
BLOCK AE Q=  1.75789000E+03  # The trilinear couplings
  1  1     0.00000000E+00   # A_e(Q) DRbar
  2  2     0.00000000E+00   # A_mu(Q) DRbar
  3  3     3.00542000E+03   # A_tau(Q) DRbar
#
BLOCK Yu Q=  1.75789000E+03  # The Yukawa couplings
  1  1     0.00000000E+00   # y_u(Q) DRbar
  2  2     0.00000000E+00   # y_c(Q) DRbar
  3  3     8.28307946E-01   # y_t(Q) DRbar
#
BLOCK Yd Q=  1.75789000E+03  # The Yukawa couplings
  1  1     0.00000000E+00   # y_d(Q) DRbar
  2  2     0.00000000E+00   # y_s(Q) DRbar
  3  3     2.35368483E-01   # y_b(Q) DRbar
#
BLOCK Ye Q=  1.75789000E+03  # The Yukawa couplings
  1  1     0.00000000E+00   # y_e(Q) DRbar
  2  2     0.00000000E+00   # y_mu(Q) DRbar
  3  3     1.87389845E-01   # y_tau(Q) DRbar
#
BLOCK MSOFT Q=  1.75789000E+03  # The soft SUSY breaking masses at the scale Q
         1     8.63050000E+02   # M_1(Q)              
         2     2.41449000E+03   # M_2(Q)              
         3     2.11286000E+03   # M_3(Q)              
        21     1.35416560E+06   # mH1^2(Q)            
        22    -1.52743330E+06   # mH2^2(Q)            
        31     2.76801000E+03   # meL(Q)              
        32     2.76801000E+03   # mmuL(Q)             
        33     3.88238000E+03   # mtauL(Q)            
        34     2.75557000E+03   # meR(Q)              
        35     2.75557000E+03   # mmuR(Q)             
        36     2.29623000E+03   # mtauR(Q)            
        41     1.09569999E+03   # mqL1(Q)             
        42     1.09569999E+03   # mqL2(Q)             
        43     1.77616999E+03   # mqL3(Q)             
        44     2.36856000E+03   # muR(Q)              
        45     2.36856000E+03   # mcR(Q)              
        46     1.74433999E+03   # mtR(Q)              
        47     1.33199000E+03   # mdR(Q)              
        48     1.33199000E+03   # msR(Q)              
        49     1.26876000E+03   # mbR(Q)              
#
Block HiggsBoundsInputHiggsCouplingsFermions
# ScalarNormEffCoupSq PseudoSNormEffCoupSq NP   IP1 IP2 IP2
    1.01263864E+00    0.00000000E+00        3  25   5   5  # h0-b-b eff. coupling^2, normalised to SM
    3.23280013E+02    0.00000000E+00        3  35   5   5  # H0-b-b eff. coupling^2, normalised to SM
    0.00000000E+00    3.23292652E+02        3  36   5   5  # A0-b-b eff. coupling^2, normalised to SM
#
    9.99960907E-01    0.00000000E+00        3  25   6   6  # h0-t-t eff. coupling^2, normalised to SM
    3.13226618E-03    0.00000000E+00        3  35   6   6  # H0-t-t eff. coupling^2, normalised to SM
    0.00000000E+00    3.09317269E-03        3  36   6   6  # A0-t-t eff. coupling^2, normalised to SM
#
    1.01263864E+00    0.00000000E+00        3  25  15  15  # h0-tau-tau eff. coupling^2, normalised to SM
    3.23280013E+02    0.00000000E+00        3  35  15  15  # H0-tau-tau eff. coupling^2, normalised to SM
    0.00000000E+00    3.23292652E+02        3  36  15  15  # A0-tau-tau eff. coupling^2, normalised to SM
#
Block HiggsBoundsInputHiggsCouplingsBosons
    9.99999877E-01        3  25  24  24  # h0-W-W eff. coupling^2, normalised to SM
    1.22750068E-07        3  35  24  24  # H0-W-W eff. coupling^2, normalised to SM
    0.00000000E+00        3  36  24  24  # A0-W-W eff. coupling^2, normalised to SM
#
    9.99999877E-01        3  25  23  23  # h0-Z-Z eff. coupling^2, normalised to SM
    1.22750068E-07        3  35  23  23  # H0-Z-Z eff. coupling^2, normalised to SM
    0.00000000E+00        3  36  23  23  # A0-Z-Z eff. coupling^2, normalised to SM
#
    8.86599397E-01        3  25  21  21  # h0-g-g eff. coupling^2, normalised to SM
    2.66920178E-11        3  35  21  21  # H0-g-g eff. coupling^2, normalised to SM
    6.58316609E-10        3  36  21  21  # A0-g-g eff. coupling^2, normalised to SM
#
    0.00000000E+00        3  25  25  23  # h0-h0-Z eff. coupling^2, normalised to SM
    0.00000000E+00        3  35  25  23  # H0-h0-Z eff. coupling^2, normalised to SM
    1.22750068E-07        3  36  25  23  # A0-h0-Z eff. coupling^2, normalised to SM
    0.00000000E+00        3  35  35  23  # H0-H0-Z eff. coupling^2, normalised to SM
    9.99999877E-01        3  36  35  23  # A0-H0-Z eff. coupling^2, normalised to SM
    0.00000000E+00        3  36  36  23  # A0-A0-Z eff. coupling^2, normalised to SM
#
    0.00000000E+00        4  25  21  21  23  # h0-g-g-Z eff. coupling^2, normalised to SM
    0.00000000E+00        4  35  21  21  23  # H0-g-g-Z eff. coupling^2, normalised to SM
    0.00000000E+00        4  36  21  21  23  # A0-g-g-Z eff. coupling^2, normalised to SM
#
#
#
#                             =================
#                             |The decay table|
#                             =================
#
# - The QCD corrections to the decays gluino -> squark  + quark
#                                     squark -> gaugino + quark_prime
#                                     squark -> squark_prime + Higgs
#                                     squark -> gluino  + quark
#   are included.
#
# - The multi-body decays for the inos, stops and sbottoms are included.
#
# - The loop induced decays for the gluino, neutralinos and stops
#   are included.
#
# - The SUSY decays of the top quark are included.
#
#
#         PDG            Width
DECAY         6     1.42591446E+00   # top decays
#          BR         NDA      ID1       ID2
     1.00000000E+00    2           5        24   # BR(t ->  b    W+)
#
#         PDG            Width
DECAY   1000021     1.31704652E+02   # gluino decays
#          BR         NDA      ID1       ID2
     7.62586519E-02    2     1000001        -1   # BR(~g -> ~d_L  db)
     7.62586519E-02    2    -1000001         1   # BR(~g -> ~d_L* d )
     5.16461592E-02    2     2000001        -1   # BR(~g -> ~d_R  db)
     5.16461592E-02    2    -2000001         1   # BR(~g -> ~d_R* d )
     7.65482908E-02    2     1000002        -2   # BR(~g -> ~u_L  ub)
     7.65482908E-02    2    -1000002         2   # BR(~g -> ~u_L* u )
     7.62586519E-02    2     1000003        -3   # BR(~g -> ~s_L  sb)
     7.62586519E-02    2    -1000003         3   # BR(~g -> ~s_L* s )
     5.16461592E-02    2     2000003        -3   # BR(~g -> ~s_R  sb)
     5.16461592E-02    2    -2000003         3   # BR(~g -> ~s_R* s )
     7.65482316E-02    2     1000004        -4   # BR(~g -> ~c_L  cb)
     7.65482316E-02    2    -1000004         4   # BR(~g -> ~c_L* c )
     5.86371727E-02    2     1000005        -5   # BR(~g -> ~b_1  bb)
     5.86371727E-02    2    -1000005         5   # BR(~g -> ~b_1* b )
     1.16639338E-02    2     2000005        -5   # BR(~g -> ~b_2  bb)
     1.16639338E-02    2    -2000005         5   # BR(~g -> ~b_2* b )
     1.35202823E-02    2     1000006        -6   # BR(~g -> ~t_1  tb)
     1.35202823E-02    2    -1000006         6   # BR(~g -> ~t_1* t )
     7.27246653E-03    2     2000006        -6   # BR(~g -> ~t_2  tb)
     7.27246653E-03    2    -2000006         6   # BR(~g -> ~t_2* t )
#
#         PDG            Width
DECAY   1000006     8.44749425E+00   # stop1 decays
#          BR         NDA      ID1       ID2
     1.85775632E-01    2     1000022         6   # BR(~t_1 -> ~chi_10 t )
     1.45542238E-01    2     1000023         6   # BR(~t_1 -> ~chi_20 t )
     3.05966825E-01    2     1000025         6   # BR(~t_1 -> ~chi_30 t )
     3.56418223E-01    2     1000024         5   # BR(~t_1 -> ~chi_1+ b )
     6.29708155E-03    2     1000005        24   # BR(~t_1 -> ~b_1    W+)
#
#         PDG            Width
DECAY   2000006     1.74417094E+01   # stop2 decays
#          BR         NDA      ID1       ID2
     4.95984457E-02    2     1000022         6   # BR(~t_2 -> ~chi_10 t )
     2.66415250E-01    2     1000023         6   # BR(~t_2 -> ~chi_20 t )
     1.73263435E-01    2     1000025         6   # BR(~t_2 -> ~chi_30 t )
     1.78172486E-01    2     1000024         5   # BR(~t_2 -> ~chi_1+ b )
     2.09500247E-02    2     1000006        25   # BR(~t_2 -> ~t_1    h )
     2.83754223E-01    2     1000006        23   # BR(~t_2 -> ~t_1    Z )
     2.17776439E-02    2     1000005        24   # BR(~t_2 -> ~b_1    W+)
     6.06849264E-03    2     2000005        24   # BR(~t_2 -> ~b_2    W+)
#
#         PDG            Width
DECAY   1000005     2.90709014E-01   # sbottom1 decays
#          BR         NDA      ID1       ID2
     9.48152964E-01    2     1000022         5   # BR(~b_1 -> ~chi_10 b )
     2.67721844E-02    2     1000023         5   # BR(~b_1 -> ~chi_20 b )
     2.50748512E-02    2     1000025         5   # BR(~b_1 -> ~chi_30 b )
#
#         PDG            Width
DECAY   2000005     1.03495577E+01   # sbottom2 decays
#          BR         NDA      ID1       ID2
     1.60551393E-02    2     1000022         5   # BR(~b_2 -> ~chi_10 b )
     2.61613253E-02    2     1000023         5   # BR(~b_2 -> ~chi_20 b )
     2.61237589E-02    2     1000025         5   # BR(~b_2 -> ~chi_30 b )
     5.98866184E-01    2    -1000024         6   # BR(~b_2 -> ~chi_1- t )
     2.04068980E-02    2     1000005        25   # BR(~b_2 -> ~b_1    h )
     1.90983210E-02    2     1000005        23   # BR(~b_2 -> ~b_1    Z )
     2.93288373E-01    2     1000006       -24   # BR(~b_2 -> ~t_1    W-)
#
#         PDG            Width
DECAY   1000002     3.89792853E-02   # sup_L decays
#          BR         NDA      ID1       ID2
     1.00000000E+00    2     1000022         2   # BR(~u_L -> ~chi_10 u)
#
#         PDG            Width
DECAY   2000002     1.30643748E+01   # sup_R decays
#          BR         NDA      ID1       ID2
     3.13826397E-01    2     1000022         2   # BR(~u_R -> ~chi_10 u)
     1.44817612E-03    2     1000023         2   # BR(~u_R -> ~chi_20 u)
     4.20286768E-05    2     1000025         2   # BR(~u_R -> ~chi_30 u)
     3.58876815E-10    2     1000035         2   # BR(~u_R -> ~chi_40 u)
     6.84683398E-01    2     1000021         2   # BR(~u_R -> ~g      u)
#
#         PDG            Width
DECAY   1000001     4.16600403E-02   # sdown_L decays
#          BR         NDA      ID1       ID2
     1.00000000E+00    2     1000022         1   # BR(~d_L -> ~chi_10 d)
#
#         PDG            Width
DECAY   2000001     3.23164441E-01   # sdown_R decays
#          BR         NDA      ID1       ID2
     9.99396383E-01    2     1000022         1   # BR(~d_R -> ~chi_10 d)
     5.87016323E-04    2     1000023         1   # BR(~d_R -> ~chi_20 d)
     1.66011543E-05    2     1000025         1   # BR(~d_R -> ~chi_30 d)
#
#         PDG            Width
DECAY   1000004     3.81300442E-02   # scharm_L decays
#          BR         NDA      ID1       ID2
     1.00000000E+00    2     1000022         4   # BR(~c_L -> ~chi_10 c)
#
#         PDG            Width
DECAY   2000004     1.08454145E+01   # scharm_R decays
#          BR         NDA      ID1       ID2
     3.95792196E-01    2     1000022         4   # BR(~c_R -> ~chi_10 c)
     1.81790667E-03    2     1000023         4   # BR(~c_R -> ~chi_20 c)
     5.27573064E-05    2     1000025         4   # BR(~c_R -> ~chi_30 c)
     3.86759987E-10    2     1000035         4   # BR(~c_R -> ~chi_40 c)
     6.02337140E-01    2     1000021         4   # BR(~c_R -> ~g      c)
#
#         PDG            Width
DECAY   1000003     4.07619640E-02   # sstrange_L decays
#          BR         NDA      ID1       ID2
     1.00000000E+00    2     1000022         3   # BR(~s_L -> ~chi_10 s)
#
#         PDG            Width
DECAY   2000003     3.20857761E-01   # sstrange_R decays
#          BR         NDA      ID1       ID2
     9.99418684E-01    2     1000022         3   # BR(~s_R -> ~chi_10 s)
     5.65336455E-04    2     1000023         3   # BR(~s_R -> ~chi_20 s)
     1.59792734E-05    2     1000025         3   # BR(~s_R -> ~chi_30 s)
#
#         PDG            Width
DECAY   1000011     5.19472932E+00   # selectron_L decays
#          BR         NDA      ID1       ID2
     5.65217927E-01    2     1000022        11   # BR(~e_L -> ~chi_10 e-)
     1.29717645E-02    2     1000023        11   # BR(~e_L -> ~chi_20 e-)
     5.41177820E-05    2     1000025        11   # BR(~e_L -> ~chi_30 e-)
     1.39087841E-01    2     1000035        11   # BR(~e_L -> ~chi_40 e-)
     3.86683456E-03    2    -1000024        12   # BR(~e_L -> ~chi_1- nu_e)
     2.78801515E-01    2    -1000037        12   # BR(~e_L -> ~chi_2- nu_e)
#
#         PDG            Width
DECAY   2000011     1.17779054E+01   # selectron_R decays
#          BR         NDA      ID1       ID2
     9.94795169E-01    2     1000022        11   # BR(~e_R -> ~chi_10 e-)
     5.05780481E-03    2     1000023        11   # BR(~e_R -> ~chi_20 e-)
     1.46885172E-04    2     1000025        11   # BR(~e_R -> ~chi_30 e-)
     1.41010427E-07    2     1000035        11   # BR(~e_R -> ~chi_40 e-)
#
#         PDG            Width
DECAY   1000013     5.19472928E+00   # smuon_L decays
#          BR         NDA      ID1       ID2
     5.65217930E-01    2     1000022        13   # BR(~mu_L -> ~chi_10 mu-)
     1.29717646E-02    2     1000023        13   # BR(~mu_L -> ~chi_20 mu-)
     5.41177822E-05    2     1000025        13   # BR(~mu_L -> ~chi_30 mu-)
     1.39087836E-01    2     1000035        13   # BR(~mu_L -> ~chi_40 mu-)
     3.86683459E-03    2    -1000024        14   # BR(~mu_L -> ~chi_1- nu_mu)
     2.78801517E-01    2    -1000037        14   # BR(~mu_L -> ~chi_2- nu_mu)
#
#         PDG            Width
DECAY   2000013     1.17779054E+01   # smuon_R decays
#          BR         NDA      ID1       ID2
     9.94795169E-01    2     1000022        13   # BR(~mu_R -> ~chi_10 mu-)
     5.05780480E-03    2     1000023        13   # BR(~mu_R -> ~chi_20 mu-)
     1.46885172E-04    2     1000025        13   # BR(~mu_R -> ~chi_30 mu-)
     1.41010420E-07    2     1000035        13   # BR(~mu_R -> ~chi_40 mu-)
#
#         PDG            Width
DECAY   1000015     1.04522782E+01   # stau_1 decays
#          BR         NDA      ID1       ID2
     8.48825156E-01    2     1000022        15   # BR(~tau_1 -> ~chi_10  tau-)
     4.03317036E-02    2     1000023        15   # BR(~tau_1 -> ~chi_20  tau-)
     3.68589721E-02    2     1000025        15   # BR(~tau_1 -> ~chi_30  tau-)
     7.39841685E-02    2    -1000024        16   # BR(~tau_1 -> ~chi_1-  nu_tau)
#
#         PDG            Width
DECAY   2000015     2.49790655E+01   # stau_2 decays
#          BR         NDA      ID1       ID2
     1.82298620E-01    2     1000022        15   # BR(~tau_2 -> ~chi_10  tau-)
     4.77835732E-02    2     1000023        15   # BR(~tau_2 -> ~chi_20  tau-)
     4.33095477E-02    2     1000025        15   # BR(~tau_2 -> ~chi_30  tau-)
     2.39471377E-01    2     1000035        15   # BR(~tau_2 -> ~chi_40  tau-)
     1.35511922E-03    2    -1000024        16   # BR(~tau_2 -> ~chi_1-  nu_tau)
     4.80254665E-01    2    -1000037        16   # BR(~tau_2 -> ~chi_2-  nu_tau)
     2.78954766E-03    2     1000015        25   # BR(~tau_2 -> ~tau_1   h)
     2.73754960E-03    2     1000015        23   # BR(~tau_2 -> ~tau_1   Z)
#
#         PDG            Width
DECAY   1000012     5.20866308E+00   # snu_eL decays
#          BR         NDA      ID1       ID2
     5.73776934E-01    2     1000022        12   # BR(~nu_eL -> ~chi_10 nu_e)
     3.46717722E-05    2     1000023        12   # BR(~nu_eL -> ~chi_20 nu_e)
     6.61132841E-04    2     1000025        12   # BR(~nu_eL -> ~chi_30 nu_e)
     1.38249694E-01    2     1000035        12   # BR(~nu_eL -> ~chi_40 nu_e)
     1.18666343E-02    2     1000024        11   # BR(~nu_eL -> ~chi_1+ e-)
     2.75410933E-01    2     1000037        11   # BR(~nu_eL -> ~chi_2+ e-)
#
#         PDG            Width
DECAY   1000014     5.20866301E+00   # snu_muL decays
#          BR         NDA      ID1       ID2
     5.73776941E-01    2     1000022        14   # BR(~nu_muL -> ~chi_10 nu_mu)
     3.46717726E-05    2     1000023        14   # BR(~nu_muL -> ~chi_20 nu_mu)
     6.61132849E-04    2     1000025        14   # BR(~nu_muL -> ~chi_30 nu_mu)
     1.38249696E-01    2     1000035        14   # BR(~nu_muL -> ~chi_40 nu_mu)
     1.18666344E-02    2     1000024        13   # BR(~nu_muL -> ~chi_1+ mu-)
     2.75410924E-01    2     1000037        13   # BR(~nu_muL -> ~chi_2+ mu-)
#
#         PDG            Width
DECAY   1000016     2.49825138E+01   # snu_tauL decays
#          BR         NDA      ID1       ID2
     1.85200976E-01    2     1000022        16   # BR(~nu_tauL -> ~chi_10 nu_tau)
     1.29161951E-05    2     1000023        16   # BR(~nu_tauL -> ~chi_20 nu_tau)
     2.46519208E-04    2     1000025        16   # BR(~nu_tauL -> ~chi_30 nu_tau)
     2.39911670E-01    2     1000035        16   # BR(~nu_tauL -> ~chi_40 nu_tau)
     9.10131725E-02    2     1000024        15   # BR(~nu_tauL -> ~chi_1+ tau-)
     4.78305397E-01    2     1000037        15   # BR(~nu_tauL -> ~chi_2+ tau-)
     5.30934884E-03    2    -1000015       -24   # BR(~nu_tauL -> ~tau_1+ W-)
#
#         PDG            Width
DECAY   1000024     6.69691815E-01   # chargino1+ decays
#          BR         NDA      ID1       ID2
     1.71052330E-03    2     1000002        -1   # BR(~chi_1+ -> ~u_L     db)
     5.23530302E-04    2    -1000001         2   # BR(~chi_1+ -> ~d_L*    u )
     1.71050576E-03    2     1000004        -3   # BR(~chi_1+ -> ~c_L     sb)
     5.23438774E-04    2    -1000003         4   # BR(~chi_1+ -> ~s_L*     c )
     9.95532002E-01    2     1000022        24   # BR(~chi_1+ -> ~chi_10  W+)
#
#         PDG            Width
DECAY   1000037     9.12145448E+01   # chargino2+ decays
#          BR         NDA      ID1       ID2
     1.72873425E-01    2     1000002        -1   # BR(~chi_2+ -> ~u_L     db)
     1.72917477E-01    2    -1000001         2   # BR(~chi_2+ -> ~d_L*    u )
     1.72873420E-01    2     1000004        -3   # BR(~chi_2+ -> ~c_L     sb)
     1.72917407E-01    2    -1000003         4   # BR(~chi_2+ -> ~s_L*     c )
     2.38590078E-02    2     1000006        -5   # BR(~chi_2+ -> ~t_1     bb)
     2.92880273E-02    2     2000006        -5   # BR(~chi_2+ -> ~t_2     bb)
     4.94089413E-05    2    -1000005         6   # BR(~chi_2+ -> ~b_1*    t )
     5.03675498E-02    2    -2000005         6   # BR(~chi_2+ -> ~b_2*    t )
     4.12769129E-08    2    -1000015        16   # BR(~chi_2+ -> ~tau_1+  nu_tau)
     5.24377353E-02    2     1000024        23   # BR(~chi_2+ -> ~chi_1+  Z )
     4.99855901E-05    2     1000022        24   # BR(~chi_2+ -> ~chi_10  W+)
     4.92195054E-02    2     1000023        24   # BR(~chi_2+ -> ~chi_20  W+)
     5.08255727E-02    2     1000025        24   # BR(~chi_2+ -> ~chi_30  W+)
     5.23214366E-02    2     1000024        25   # BR(~chi_2+ -> ~chi_1+  h )
#
#         PDG            Width
DECAY   1000022     0.00000000E+00   # neutralino1 decays
#
#         PDG            Width
DECAY   1000023     6.92808710E-01   # neutralino2 decays
#          BR         NDA      ID1       ID2
     3.16920124E-02    2     1000022        23   # BR(~chi_20 -> ~chi_10   Z )
     9.63880289E-01    2     1000022        25   # BR(~chi_20 -> ~chi_10   h )
     8.69576922E-04    2     1000002        -2   # BR(~chi_20 -> ~u_L      ub)
     8.69576922E-04    2    -1000002         2   # BR(~chi_20 -> ~u_L*     u )
     2.37416709E-04    2     1000001        -1   # BR(~chi_20 -> ~d_L      db)
     2.37416709E-04    2    -1000001         1   # BR(~chi_20 -> ~d_L*     d )
     8.69438979E-04    2     1000004        -4   # BR(~chi_20 -> ~c_L      cb)
     8.69438979E-04    2    -1000004         4   # BR(~chi_20 -> ~c_L*     c )
     2.37416709E-04    2     1000003        -3   # BR(~chi_20 -> ~s _L      sb)
     2.37416709E-04    2    -1000003         3   # BR(~chi_20 -> ~s _L*     s )
#
#         PDG            Width
DECAY   1000025     6.85635390E-01   # neutralino3 decays
#          BR         NDA      ID1       ID2
     9.72220471E-01    2     1000022        23   # BR(~chi_30 -> ~chi_10   Z )
     2.74485816E-02    2     1000022        25   # BR(~chi_30 -> ~chi_10   h )
     2.75795073E-05    2     1000002        -2   # BR(~chi_30 -> ~u_L      ub)
     2.75795073E-05    2    -1000002         2   # BR(~chi_30 -> ~u_L*     u )
     5.51594185E-05    2     1000001        -1   # BR(~chi_30 -> ~d_L      db)
     5.51594185E-05    2    -1000001         1   # BR(~chi_30 -> ~d_L*     d )
     2.75753390E-05    2     1000004        -4   # BR(~chi_30 -> ~c_L      cb)
     2.75753390E-05    2    -1000004         4   # BR(~chi_30 -> ~c_L*     c )
     5.51594185E-05    2     1000003        -3   # BR(~chi_30 -> ~s _L      sb)
     5.51594185E-05    2    -1000003         3   # BR(~chi_30 -> ~s _L*     s )
#
#         PDG            Width
DECAY   1000035     9.14533745E+01   # neutralino4 decays
#          BR         NDA      ID1       ID2
     6.27168891E-06    2     1000022        23   # BR(~chi_40 -> ~chi_10   Z )
     3.65449258E-03    2     1000023        23   # BR(~chi_40 -> ~chi_20   Z )
     4.75191852E-02    2     1000025        23   # BR(~chi_40 -> ~chi_30   Z )
     5.18335913E-02    2     1000024       -24   # BR(~chi_40 -> ~chi_1+   W-)
     5.18335913E-02    2    -1000024        24   # BR(~chi_40 -> ~chi_1-   W+)
     4.85685142E-05    2     1000022        25   # BR(~chi_40 -> ~chi_10   h )
     4.84754536E-02    2     1000023        25   # BR(~chi_40 -> ~chi_20   h )
     3.62377710E-03    2     1000025        25   # BR(~chi_40 -> ~chi_30   h )
     8.62852084E-02    2     1000002        -2   # BR(~chi_40 -> ~u_L      ub)
     8.62852084E-02    2    -1000002         2   # BR(~chi_40 -> ~u_L*     u )
     8.61410024E-02    2     1000001        -1   # BR(~chi_40 -> ~d_L      db)
     8.61410024E-02    2    -1000001         1   # BR(~chi_40 -> ~d_L*     d )
     1.85798857E-08    2     2000001        -1   # BR(~chi_40 -> ~d_R      db)
     1.85798857E-08    2    -2000001         1   # BR(~chi_40 -> ~d_R*     d )
     8.62851739E-02    2     1000004        -4   # BR(~chi_40 -> ~c_L      cb)
     8.62851739E-02    2    -1000004         4   # BR(~chi_40 -> ~c_L*     c )
     8.61410024E-02    2     1000003        -3   # BR(~chi_40 -> ~s _L      sb)
     8.61410024E-02    2    -1000003         3   # BR(~chi_40 -> ~s _L*     s )
     1.85798857E-08    2     2000003        -3   # BR(~chi_40 -> ~s _R      sb)
     1.85798857E-08    2    -2000003         3   # BR(~chi_40 -> ~s _R*     s )
     1.11627537E-02    2     1000006        -6   # BR(~chi_40 -> ~t_1      tb)
     1.11627537E-02    2    -1000006         6   # BR(~chi_40 -> ~t_1*     t )
     1.30051774E-02    2     2000006        -6   # BR(~chi_40 -> ~t_2      tb)
     1.30051774E-02    2    -2000006         6   # BR(~chi_40 -> ~t_2*     t )
     2.62779167E-05    2     1000005        -5   # BR(~chi_40 -> ~b_1      bb)
     2.62779167E-05    2    -1000005         5   # BR(~chi_40 -> ~b_1*     b )
     2.74558804E-02    2     2000005        -5   # BR(~chi_40 -> ~b_2      bb)
     2.74558804E-02    2    -2000005         5   # BR(~chi_40 -> ~b_2*     b )
     2.05588566E-08    2     1000015       -15   # BR(~chi_40 -> ~tau_1-   tau+)
     2.05588566E-08    2    -1000015        15   # BR(~chi_40 -> ~tau_1+   tau-)
#
#         PDG            Width
DECAY        25     4.35764348E-03   # h decays
#          BR         NDA      ID1       ID2
     6.33671580E-01    2           5        -5   # BR(h -> b       bb     )
     5.99745042E-02    2         -15        15   # BR(h -> tau+    tau-   )
     2.12276920E-04    2         -13        13   # BR(h -> mu+     mu-    )
     2.31423240E-04    2           3        -3   # BR(h -> s       sb     )
     1.98640862E-02    2           4        -4   # BR(h -> c       cb     )
     7.26158696E-02    2          21        21   # BR(h -> g       g      )
     2.14240873E-03    2          22        22   # BR(h -> gam     gam    )
     1.39560879E-03    2          22        23   # BR(h -> Z       gam    )
     1.86699473E-01    2          24       -24   # BR(h -> W+      W-     )
     2.31927693E-02    2          23        23   # BR(h -> Z       Z      )
#
#         PDG            Width
DECAY        35     7.80199555E+00   # H decays
#          BR         NDA      ID1       ID2
     8.24634466E-01    2           5        -5   # BR(H -> b       bb     )
     1.44882156E-01    2         -15        15   # BR(H -> tau+    tau-   )
     5.07551647E-04    2         -13        13   # BR(H -> mu+     mu-    )
     2.58552514E-04    2           3        -3   # BR(H -> s       sb     )
     3.07869490E-07    2           4        -4   # BR(H -> c       cb     )
     2.95284312E-02    2           6        -6   # BR(H -> t       tb     )
     2.95496765E-05    2          21        21   # BR(H -> g       g      )
     6.19372212E-08    2          22        22   # BR(H -> gam     gam    )
     2.51928975E-08    2          23        22   # BR(H -> Z       gam    )
     2.60662347E-05    2          24       -24   # BR(H -> W+      W-     )
     1.29707075E-05    2          23        23   # BR(H -> Z       Z      )
     1.14765078E-04    2          25        25   # BR(H -> h       h      )
     5.09602590E-06    2     1000022   1000022   # BR(H -> ~chi_10 ~chi_10)
#
#         PDG            Width
DECAY        36     7.80928889E+00   # A decays
#          BR         NDA      ID1       ID2
     8.23987117E-01    2           5        -5   # BR(A -> b       bb     )
     1.44753838E-01    2         -15        15   # BR(A -> tau+    tau-   )
     5.07100088E-04    2         -13        13   # BR(A -> mu+     mu-    )
     2.58380436E-04    2           3        -3   # BR(A -> s       sb     )
     3.06535627E-07    2           4        -4   # BR(A -> c       cb     )
     2.99725056E-02    2           6        -6   # BR(A -> t       tb     )
     1.46617983E-04    2          21        21   # BR(A -> g       g      )
     1.33969170E-07    2          22        22   # BR(A -> gam     gam    )
     1.08436252E-07    2          23        22   # BR(A -> Z       gam    )
     2.61988364E-05    2          23        25   # BR(A -> Z       h      )
     3.47693573E-04    2     1000022   1000022   # BR(A -> ~chi_10 ~chi_10)
#
#         PDG            Width
DECAY        37     6.82063819E+00   # H+ decays
#          BR         NDA      ID1       ID2
     1.34901964E-03    2           4        -5   # BR(H+ -> c       bb     )
     1.65947099E-01    2         -15        16   # BR(H+ -> tau+    nu_tau )
     5.81344091E-04    2         -13        14   # BR(H+ -> mu+     nu_mu  )
     1.34901457E-05    2           2        -5   # BR(H+ -> u       bb     )
     1.47835574E-05    2           2        -3   # BR(H+ -> u       sb     )
     2.91321556E-04    2           4        -3   # BR(H+ -> c       sb     )
     8.31772772E-01    2           6        -5   # BR(H+ -> t       bb     )
     3.01697036E-05    2          24        25   # BR(H+ -> W+      h      )
     1.01173268E-11    2          24        36   # BR(H+ -> W+      A      )

DECAY         5   0.000000e+00 # b decays
DECAY        15   0.000000e+00 # tau decays
DECAY        23     2.49520000E+00   # Z
DECAY        24     2.08500000E+00   # W
