# SUSY Les Houches Accord 2 - MSSM spectrum + Decays
# SPheno v4.0.5be
# W. Porod, Comput. Phys. Commun. 153 (2003) 275-315, hep-ph/0301101;
# W. Porod, F.~Staub, Comput. Phys. Commun. 183 (2012) 2458
#                     arXiv:1104.1573 [hep-ph] 
# in case of problems send email to porod@physik.uni-wuerzburg.de
# Created: 07.09.2021,  18:07
Block SPINFO         # Program information
     1   SPheno      # spectrum calculator
     2   v4.0.5be    # version number
#
Block SPhenoINFO     # SPheno specific information
    1      2         # using 2-loop RGEs
    2      2         # using pole masses for boundary conditions at mZ
Block MODSEL  # Model selection
    1    0    # general MSSM
Block MINPAR  # Input parameters
    3    1.99944027E+01  # tanb at m_Z    
    4   -1.00000000E+00  # Sign(mu)
Block EXTPAR  # non-universal input parameters
    0    2.92790601E+03  # scale for input parameters
    1   -2.30980829E+02  # M_1
    2   -5.32925498E+02  # M_2
    3    3.82944970E+03  # M_3
   11    6.51023885E+03  # A_t
   12    1.49124686E+03  # A_b
   13   -9.88772945E+02  # A_tau
   23   -2.86124641E+02  # mu
   25    1.91242932E+01  # tan(beta)
   26    4.97506975E+03  # m_A, pole mass
   31    1.00000000E+04  # M_L11
   32    1.00000000E+04  # M_L22
   33    1.00000000E+04  # M_L33
   34    1.00000000E+04  # M_E11
   35    1.00000000E+04  # M_E22
   36    1.00000000E+04  # M_E33
   41    1.00000000E+04  # M_Q11
   42    1.00000000E+04  # M_Q22
   43    3.97274483E+03  # M_Q33
   44    1.00000000E+04  # M_U11
   45    1.00000000E+04  # M_U22
   46    2.10731543E+03  # M_U33
   47    1.00000000E+04  # M_D11
   48    1.00000000E+04  # M_D22
   49    2.04972568E+03  # M_D33
Block SMINPUTS  # SM parameters
         1     1.27908970E+02  # alpha_em^-1(MZ)^MSbar
         2     1.16637870E-05  # G_mu [GeV^-2]
         3     1.18400000E-01  # alpha_s(MZ)^MSbar
         4     9.11876000E+01  # m_Z(pole)
         5     4.18000000E+00  # m_b(m_b), MSbar
         6     1.73200000E+02  # m_t(pole)
         7     1.77700000E+00  # m_tau(pole)
         8     0.00000000E+00  # m_nu_3
        11     5.10998930E-04  # m_e(pole)
        12     0.00000000E+00  # m_nu_1
        13     1.05658372E-01  # m_muon(pole)
        14     0.00000000E+00  # m_nu_2
        21     5.00000000E-03  # m_d(2 GeV), MSbar
        22     2.50000000E-03  # m_u(2 GeV), MSbar
        23     9.50000000E-02  # m_s(2 GeV), MSbar
        24     1.27000000E+00  # m_c(m_c), MSbar
Block gauge Q=  2.92790601E+03  # (SUSY scale)
   1    3.55362975E-01  # g'(Q)^DRbar
   2    6.65198874E-01  # g(Q)^DRbar
   3    1.21977796E+00  # g3(Q)^DRbar
Block Yu Q=  2.92790601E+03  # (SUSY scale)
  1  1     8.39582656E-06   # Y_u(Q)^DRbar
  2  2     4.26507989E-03   # Y_c(Q)^DRbar
  3  3     1.01428328E+00   # Y_t(Q)^DRbar
Block Yd Q=  2.92790601E+03  # (SUSY scale)
  1  1     3.22648090E-04   # Y_d(Q)^DRbar
  2  2     6.13031372E-03   # Y_s(Q)^DRbar
  3  3     3.19965802E-01   # Y_b(Q)^DRbar
Block Ye Q=  2.92790601E+03  # (SUSY scale)
  1  1     5.63044512E-05   # Y_e(Q)^DRbar
  2  2     1.16419748E-02   # Y_mu(Q)^DRbar
  3  3     1.95798863E-01   # Y_tau(Q)^DRbar
Block Au Q=  2.92790601E+03  # (SUSY scale)
  1  1     0.00000000E+00   # A_u(Q)^DRbar
  2  2     0.00000000E+00   # A_c(Q)^DRbar
  3  3     6.51023884E+03   # A_t(Q)^DRbar
Block Ad Q=  2.92790601E+03  # (SUSY scale)
  1  1     0.00000000E+00   # A_d(Q)^DRbar
  2  2     0.00000000E+00   # A_s(Q)^DRbar
  3  3     1.49124686E+03   # A_b(Q)^DRbar
Block Ae Q=  2.92790601E+03  # (SUSY scale)
  1  1     0.00000000E+00   # A_e(Q)^DRbar
  2  2     0.00000000E+00   # A_mu(Q)^DRbar
  3  3    -9.88772946E+02   # A_tau(Q)^DRbar
Block MSOFT Q=  2.92790601E+03  # soft SUSY breaking masses at Q
   1   -2.30980829E+02  # M_1
   2   -5.32925498E+02  # M_2
   3    3.82944970E+03  # M_3
  21    2.44877655E+07  # M^2_(H,d)
  22    6.58882839E+04  # M^2_(H,u)
  31    1.00000000E+04  # M_(L,11)
  32    1.00000000E+04  # M_(L,22)
  33    1.00000000E+04  # M_(L,33)
  34    1.00000000E+04  # M_(E,11)
  35    1.00000000E+04  # M_(E,22)
  36    1.00000000E+04  # M_(E,33)
  41    1.00000000E+04  # M_(Q,11)
  42    1.00000000E+04  # M_(Q,22)
  43    3.97274483E+03  # M_(Q,33)
  44    1.00000000E+04  # M_(U,11)
  45    1.00000000E+04  # M_(U,22)
  46    2.10731543E+03  # M_(U,33)
  47    1.00000000E+04  # M_(D,11)
  48    1.00000000E+04  # M_(D,22)
  49    2.04972568E+03  # M_(D,33)
Block MASS  # Mass spectrum
#   PDG code      mass          particle
         6     1.73200000E+02  # m_t(pole)
        23     9.11876000E+01  # m_Z(pole)
        24     8.04299946E+01  # W+
        15     1.77700000E+00  # m_tau(pole)
        25     1.29509344E+02  # h0
        35     4.97425641E+03  # H0
        36     4.97506975E+03  # A0
        37     4.97539420E+03  # H+
   1000001     1.00885486E+04  # ~d_L
   2000001     1.00640544E+04  # ~d_R
   1000002     1.00882195E+04  # ~u_L
   2000002     1.00675021E+04  # ~u_R
   1000003     1.00885513E+04  # ~s_L
   2000003     1.00640578E+04  # ~s_R
   1000004     1.00882222E+04  # ~c_L
   2000004     1.00675038E+04  # ~c_R
   1000005     2.17224559E+03  # ~b_1
   2000005     4.01095082E+03  # ~b_2
   1000006     2.13144506E+03  # ~t_1
   2000006     4.02198197E+03  # ~t_2
   1000011     1.00214255E+04  # ~e_L-
   2000011     1.00085200E+04  # ~e_R-
   1000012     1.00206654E+04  # ~nu_eL
   1000013     1.00214344E+04  # ~mu_L-
   2000013     1.00085371E+04  # ~mu_R-
   1000014     1.00206742E+04  # ~nu_muL
   1000015     1.00134173E+04  # ~tau_1-
   2000015     1.00239597E+04  # ~tau_2-
   1000016     1.00231828E+04  # ~nu_tauL
   1000021     4.25364036E+03  # ~g
   1000022     2.15070993E+02  # ~chi_10
   1000023     2.84917413E+02  # ~chi_20
   1000025     2.87871565E+02  # ~chi_30
   1000035     5.98007651E+02  # ~chi_40
   1000024     2.71540841E+02  # ~chi_1+
   1000037     5.98014310E+02  # ~chi_2+
# Higgs mixing
Block alpha # Effective Higgs mixing angle
          -5.00243283E-02   # alpha
Block Hmix Q=  2.92790601E+03  # Higgs mixing parameters
   1   -2.86124641E+02  # mu
   2    1.91242932E+01  # tan[beta](Q)
   3    2.43246080E+02  # v(Q)
   4    2.47513190E+07  # m^2_A(Q)
Block stopmix # stop mixing matrix
   1  1    -8.12059520E-02   # Re[R_st(1,1)]
   1  2     9.96697343E-01   # Re[R_st(1,2)]
   2  1    -9.96697343E-01   # Re[R_st(2,1)]
   2  2    -8.12059520E-02   # Re[R_st(2,2)]
Block sbotmix # sbottom mixing matrix
   1  1    -1.45890449E-03   # Re[R_sb(1,1)]
   1  2     9.99998936E-01   # Re[R_sb(1,2)]
   2  1    -9.99998936E-01   # Re[R_sb(2,1)]
   2  2    -1.45890449E-03   # Re[R_sb(2,2)]
Block staumix # stau mixing matrix
   1  1    -3.90200600E-02   # Re[R_sta(1,1)]
   1  2     9.99238427E-01   # Re[R_sta(1,2)]
   2  1    -9.99238427E-01   # Re[R_sta(2,1)]
   2  2    -3.90200600E-02   # Re[R_sta(2,2)]
Block Nmix # neutralino mixing matrix
   1  1     8.52504237E-01   # Re[N(1,1)]
   1  2    -7.59741449E-02   # Re[N(1,2)]
   1  3    -4.05734578E-01   # Re[N(1,3)]
   1  4     3.20692854E-01   # Re[N(1,4)]
   2  1     5.85850143E-02   # Re[N(2,1)]
   2  2    -6.25327952E-02   # Re[N(2,2)]
   2  3     6.97291235E-01   # Re[N(2,3)]
   2  4     7.11647651E-01   # Re[N(2,4)]
   3  1     5.18918255E-01   # Re[N(3,1)]
   3  2     1.75258114E-01   # Re[N(3,2)]
   3  3     5.83789576E-01   # Re[N(3,3)]
   3  4    -5.99331435E-01   # Re[N(3,4)]
   4  1     2.29818634E-02   # Re[N(4,1)]
   4  2    -9.79592861E-01   # Re[N(4,2)]
   4  3     9.14008576E-02   # Re[N(4,3)]
   4  4    -1.77526180E-01   # Re[N(4,4)]
Block Umix # chargino mixing matrix
   1  1    -1.28698561E-01   # Re[U(1,1)]
   1  2    -9.91683760E-01   # Re[U(1,2)]
   2  1    -9.91683760E-01   # Re[U(2,1)]
   2  2     1.28698561E-01   # Re[U(2,2)]
Block Vmix # chargino mixing matrix
   1  1     2.50578544E-01   # Re[V(1,1)]
   1  2     9.68096273E-01   # Re[V(1,2)]
   2  1     9.68096273E-01   # Re[V(2,1)]
   2  2    -2.50578544E-01   # Re[V(2,2)]
DECAY        23     2.49520000E+00   # Z
DECAY        24     2.08500000E+00   # W
DECAY   2000011     5.02325470E+01   # ~e^-_R
#    BR                NDA      ID1      ID2
     7.26910717E-01    2     1000022        11   # BR(~e^-_R -> chi^0_1 e^-)
     3.43051105E-03    2     1000023        11   # BR(~e^-_R -> chi^0_2 e^-)
     2.69133767E-01    2     1000025        11   # BR(~e^-_R -> chi^0_3 e^-)
     5.24992708E-04    2     1000035        11   # BR(~e^-_R -> chi^0_4 e^-)
DECAY   1000011     1.43984010E+02   # ~e^-_L
#    BR                NDA      ID1      ID2
     4.40686934E-02    2     1000022        11   # BR(~e^-_L -> chi^0_1 e^-)
     2.98411281E-04    2     1000023        11   # BR(~e^-_L -> chi^0_2 e^-)
     6.26167456E-02    2     1000025        11   # BR(~e^-_L -> chi^0_3 e^-)
     2.84613981E-01    2     1000035        11   # BR(~e^-_L -> chi^0_4 e^-)
     1.01334617E-02    2    -1000024        12   # BR(~e^-_L -> chi^-_1 nu_e)
     5.98268707E-01    2    -1000037        12   # BR(~e^-_L -> chi^-_2 nu_e)
#    BR                NDA      ID1      ID2       ID3
DECAY   2000013     5.02865211E+01   # ~mu^-_R
#    BR                NDA      ID1      ID2
     7.26220013E-01    2     1000022        13   # BR(~mu^-_R -> chi^0_1 mu^-)
     3.68733899E-03    2     1000023        13   # BR(~mu^-_R -> chi^0_2 mu^-)
     2.69027943E-01    2     1000025        13   # BR(~mu^-_R -> chi^0_3 mu^-)
     5.28881298E-04    2     1000035        13   # BR(~mu^-_R -> chi^0_4 mu^-)
     5.26998372E-04    2    -1000024        14   # BR(~mu^-_R -> chi^-_1 nu_mu)
DECAY   1000013     1.44011118E+02   # ~mu^-_L
#    BR                NDA      ID1      ID2
     4.40912957E-02    2     1000022        13   # BR(~mu^-_L -> chi^0_1 mu^-)
     3.89437310E-04    2     1000023        13   # BR(~mu^-_L -> chi^0_2 mu^-)
     6.26688584E-02    2     1000025        13   # BR(~mu^-_L -> chi^0_3 mu^-)
     2.84562217E-01    2     1000035        13   # BR(~mu^-_L -> chi^0_4 mu^-)
     1.01315632E-02    2    -1000024        14   # BR(~mu^-_L -> chi^-_1 nu_mu)
     5.98156629E-01    2    -1000037        14   # BR(~mu^-_L -> chi^-_2 nu_mu)
#    BR                NDA      ID1      ID2       ID3
DECAY   1000015     6.56409232E+01   # ~tau^-_1
#    BR                NDA      ID1      ID2
     5.79681952E-01    2     1000022        15   # BR(~tau^-_1 -> chi^0_1 tau^-)
     5.76780823E-02    2     1000023        15   # BR(~tau^-_1 -> chi^0_2 tau^-)
     2.44244200E-01    2     1000025        15   # BR(~tau^-_1 -> chi^0_3 tau^-)
     3.54295256E-04    2     1000035        15   # BR(~tau^-_1 -> chi^0_4 tau^-)
     1.18040523E-01    2    -1000024        16   # BR(~tau^-_1 -> chi^-_1 nu_tau)
DECAY   2000015     1.51520734E+02   # ~tau^-_2
#    BR                NDA      ID1      ID2
     4.84532450E-02    2     1000022        15   # BR(~tau^-_2 -> chi^0_1 tau^-)
     2.53954133E-02    2     1000023        15   # BR(~tau^-_2 -> chi^0_2 tau^-)
     7.72928311E-02    2     1000025        15   # BR(~tau^-_2 -> chi^0_3 tau^-)
     2.71383735E-01    2     1000035        15   # BR(~tau^-_2 -> chi^0_4 tau^-)
     7.98908298E-03    2    -1000024        16   # BR(~tau^-_2 -> chi^-_1 nu_tau)
     5.69485693E-01    2    -1000037        16   # BR(~tau^-_2 -> chi^-_2 nu_tau)
#    BR                NDA      ID1      ID2       ID3
DECAY   1000012     1.43988830E+02   # ~nu_e
#    BR                NDA      ID1      ID2
     8.64197520E-02    2     1000022        12   # BR(~nu_e -> chi^0_1 nu_e)
     2.69248305E-03    2     1000023        12   # BR(~nu_e -> chi^0_2 nu_e)
     3.17908877E-03    2     1000025        12   # BR(~nu_e -> chi^0_3 nu_e)
     2.99213878E-01    2     1000035        12   # BR(~nu_e -> chi^0_4 nu_e)
     3.84105638E-02    2     1000024        11   # BR(~nu_e -> chi^+_1 e^-)
     5.70084234E-01    2     1000037        11   # BR(~nu_e -> chi^+_2 e^-)
#    BR                NDA      ID1      ID2       ID3
DECAY   1000014     1.44015935E+02   # ~nu_mu
#    BR                NDA      ID1      ID2
     8.64035632E-02    2     1000022        14   # BR(~nu_mu -> chi^0_1 nu_mu)
     2.69197867E-03    2     1000023        14   # BR(~nu_mu -> chi^0_2 nu_mu)
     3.17849324E-03    2     1000025        14   # BR(~nu_mu -> chi^0_3 nu_mu)
     2.99157830E-01    2     1000035        14   # BR(~nu_mu -> chi^0_4 nu_mu)
     3.85875986E-02    2     1000024        13   # BR(~nu_mu -> chi^+_1 mu^-)
     5.69980536E-01    2     1000037        13   # BR(~nu_mu -> chi^+_2 mu^-)
#    BR                NDA      ID1      ID2       ID3
DECAY   1000016     1.51658161E+02   # ~nu_tau
#    BR                NDA      ID1      ID2
     8.20701680E-02    2     1000022        16   # BR(~nu_tau -> chi^0_1 nu_tau)
     2.55696885E-03    2     1000023        16   # BR(~nu_tau -> chi^0_2 nu_tau)
     3.01908348E-03    2     1000025        16   # BR(~nu_tau -> chi^0_3 nu_tau)
     2.84155063E-01    2     1000035        16   # BR(~nu_tau -> chi^0_4 nu_tau)
     8.59758049E-02    2     1000024        15   # BR(~nu_tau -> chi^+_1 tau^-)
     5.42222912E-01    2     1000037        15   # BR(~nu_tau -> chi^+_2 tau^-)
#    BR                NDA      ID1      ID2       ID3
DECAY   2000001     5.41534833E+02   # ~d_R
#    BR                NDA      ID1      ID2
     7.53364686E-03    2     1000022         1   # BR(~d_R -> chi^0_1 d)
     2.78931487E-03    2     1000025         1   # BR(~d_R -> chi^0_3 d)
     9.89635986E-01    2     1000021         1   # BR(~d_R -> ~g d)
DECAY   1000001     6.72064557E+02   # ~d_L
#    BR                NDA      ID1      ID2
     3.42505669E-03    2     1000022         1   # BR(~d_L -> chi^0_1 d)
     3.51219363E-04    2     1000023         1   # BR(~d_L -> chi^0_2 d)
     4.52829502E-04    2     1000025         1   # BR(~d_L -> chi^0_3 d)
     6.34857081E-02    2     1000035         1   # BR(~d_L -> chi^0_4 d)
     2.18559031E-03    2    -1000024         2   # BR(~d_L -> chi^-_1 u)
     1.29044623E-01    2    -1000037         2   # BR(~d_L -> chi^-_2 u)
     8.01054973E-01    2     1000021         1   # BR(~d_L -> ~g d)
DECAY   2000003     5.41550157E+02   # ~s_R
#    BR                NDA      ID1      ID2
     7.53571532E-03    2     1000022         3   # BR(~s_R -> chi^0_1 s)
     2.79395099E-03    2     1000025         3   # BR(~s_R -> chi^0_3 s)
     9.89608607E-01    2     1000021         3   # BR(~s_R -> ~g s)
DECAY   1000003     6.72076016E+02   # ~s_L
#    BR                NDA      ID1      ID2
     3.42684009E-03    2     1000022         3   # BR(~s_L -> chi^0_1 s)
     3.56646318E-04    2     1000023         3   # BR(~s_L -> chi^0_2 s)
     4.56630093E-04    2     1000025         3   # BR(~s_L -> chi^0_3 s)
     6.34847353E-02    2     1000035         3   # BR(~s_L -> chi^0_4 s)
     2.19063590E-03    2    -1000024         4   # BR(~s_L -> chi^-_1 c)
     1.29042798E-01    2    -1000037         4   # BR(~s_L -> chi^-_2 c)
     8.01041714E-01    2     1000021         3   # BR(~s_L -> ~g s)
DECAY   1000005     9.68504766E+00   # ~b_1
#    BR                NDA      ID1      ID2
     1.63441149E-01    2     1000022         5   # BR(~b_1 -> chi^0_1 b)
     2.14815733E-01    2     1000023         5   # BR(~b_1 -> chi^0_2 b)
     1.82623758E-01    2     1000025         5   # BR(~b_1 -> chi^0_3 b)
     3.16526758E-03    2     1000035         5   # BR(~b_1 -> chi^0_4 b)
     4.29886131E-01    2    -1000024         6   # BR(~b_1 -> chi^-_1 t)
     6.06796120E-03    2    -1000037         6   # BR(~b_1 -> chi^-_2 t)
DECAY   2000005     2.47011498E+02   # ~b_2
#    BR                NDA      ID1      ID2
     9.07076457E-03    2     1000022         5   # BR(~b_2 -> chi^0_1 b)
     1.63035586E-02    2     1000023         5   # BR(~b_2 -> chi^0_2 b)
     1.16502662E-02    2     1000025         5   # BR(~b_2 -> chi^0_3 b)
     6.63914467E-02    2     1000035         5   # BR(~b_2 -> chi^0_4 b)
     3.09456091E-01    2    -1000024         6   # BR(~b_2 -> chi^-_1 t)
     1.55128922E-01    2    -1000037         6   # BR(~b_2 -> chi^-_2 t)
     4.31838481E-01    2     1000006       -24   # BR(~b_2 -> ~t_1 W^-)
DECAY   2000002     5.58723098E+02   # ~u_R
#    BR                NDA      ID1      ID2
     2.92175423E-02    2     1000022         2   # BR(~u_R -> chi^0_1 u)
     1.37887292E-04    2     1000023         2   # BR(~u_R -> chi^0_2 u)
     1.08176894E-02    2     1000025         2   # BR(~u_R -> chi^0_3 u)
     9.59805778E-01    2     1000021         2   # BR(~u_R -> ~g u)
DECAY   1000002     6.72052598E+02   # ~u_L
#    BR                NDA      ID1      ID2
     3.79621716E-04    2     1000022         2   # BR(~u_L -> chi^0_1 u)
     1.79061693E-04    2     1000023         2   # BR(~u_L -> chi^0_2 u)
     4.72591511E-03    2     1000025         2   # BR(~u_L -> chi^0_3 u)
     6.24326611E-02    2     1000035         2   # BR(~u_L -> chi^0_4 u)
     8.28522393E-03    2     1000024         1   # BR(~u_L -> chi^+_1 d)
     1.22977021E-01    2     1000037         1   # BR(~u_L -> chi^+_2 d)
     8.01020495E-01    2     1000021         2   # BR(~u_L -> ~g u)
DECAY   2000004     5.58730513E+02   # ~c_R
#    BR                NDA      ID1      ID2
     2.92178300E-02    2     1000022         4   # BR(~c_R -> chi^0_1 c)
     1.41182950E-04    2     1000023         4   # BR(~c_R -> chi^0_2 c)
     1.08198831E-02    2     1000025         4   # BR(~c_R -> chi^0_3 c)
     9.59793288E-01    2     1000021         4   # BR(~c_R -> ~g c)
DECAY   1000004     6.72064024E+02   # ~c_L
#    BR                NDA      ID1      ID2
     3.80173351E-04    2     1000022         4   # BR(~c_L -> chi^0_1 c)
     1.81805820E-04    2     1000023         4   # BR(~c_L -> chi^0_2 c)
     4.72778549E-03    2     1000025         4   # BR(~c_L -> chi^0_3 c)
     6.24317807E-02    2     1000035         4   # BR(~c_L -> chi^0_4 c)
     8.29607491E-03    2     1000024         3   # BR(~c_L -> chi^+_1 s)
     1.22975149E-01    2     1000037         3   # BR(~c_L -> chi^+_2 s)
     8.01007231E-01    2     1000021         4   # BR(~c_L -> ~g c)
DECAY   1000006     8.80654487E+01   # ~t_1
#    BR                NDA      ID1      ID2
     9.46396558E-02    2     1000022         6   # BR(~t_1 -> chi^0_1 t)
     2.42367698E-01    2     1000023         6   # BR(~t_1 -> chi^0_2 t)
     1.79211034E-01    2     1000025         6   # BR(~t_1 -> chi^0_3 t)
     8.19533828E-03    2     1000035         6   # BR(~t_1 -> chi^0_4 t)
     4.59067019E-01    2     1000024         5   # BR(~t_1 -> chi^+_1 b)
     1.65186888E-02    2     1000037         5   # BR(~t_1 -> chi^+_2 b)
#    BR                NDA      ID1      ID2       ID3
DECAY   2000006     2.69812877E+02   # ~t_2
#    BR                NDA      ID1      ID2
     2.76932736E-02    2     1000022         6   # BR(~t_2 -> chi^0_1 t)
     1.50968184E-01    2     1000023         6   # BR(~t_2 -> chi^0_2 t)
     1.14275043E-01    2     1000025         6   # BR(~t_2 -> chi^0_3 t)
     7.14520324E-02    2     1000035         6   # BR(~t_2 -> chi^0_4 t)
     3.15823789E-02    2     1000024         5   # BR(~t_2 -> chi^+_1 b)
     1.24947324E-01    2     1000037         5   # BR(~t_2 -> chi^+_2 b)
     1.22888908E-04    2     1000005        24   # BR(~t_2 -> ~b_1 W^+)
     1.99114375E-01    2     1000006        23   # BR(~t_2 -> ~t_1 Z)
     2.79844501E-01    2     1000006        25   # BR(~t_2 -> ~t_1 h^0)
DECAY   1000024     9.22696190E-04   # chi^+_1
#    BR                NDA      ID1      ID2       ID3
     3.33672646E-01    3     1000022        -1         2   # BR(chi^+_1 -> chi^0_1 d_bar u)
     3.33054181E-01    3     1000022        -3         4   # BR(chi^+_1 -> chi^0_1 s_bar c)
     1.11224863E-01    3     1000022       -11        12   # BR(chi^+_1 -> chi^0_1 e^+ nu_e)
     1.11223795E-01    3     1000022       -13        14   # BR(chi^+_1 -> chi^0_1 mu^+ nu_mu)
     1.10824515E-01    3     1000022       -15        16   # BR(chi^+_1 -> chi^0_1 tau^+ nu_tau)
DECAY   1000037     5.02698934E+00   # chi^+_2
#    BR                NDA      ID1      ID2
     3.47170696E-02    2     1000022        24   # BR(chi^+_2 -> chi^0_1 W^+)
     2.48850748E-01    2     1000023        24   # BR(chi^+_2 -> chi^0_2 W^+)
     2.60428399E-01    2     1000025        24   # BR(chi^+_2 -> chi^0_3 W^+)
     2.49318561E-01    2     1000024        23   # BR(chi^+_2 -> chi^+_1 Z)
     2.05622813E-01    2     1000024        25   # BR(chi^+_2 -> chi^+_1 h^0)
#    BR                NDA      ID1      ID2       ID3
     1.13310113E-04    3     1000022        -5         6   # BR(chi^+_2 -> chi^0_1 b_bar t)
     5.11886584E-04    3     1000023        -5         6   # BR(chi^+_2 -> chi^0_2 b_bar t)
     4.37096008E-04    3     1000025        -5         6   # BR(chi^+_2 -> chi^0_3 b_bar t)
DECAY   1000022     0.00000000E+00   # chi^0_1
DECAY   1000023     2.24370515E-03   # chi^0_2
#    BR                NDA      ID1      ID2
     2.85544876E-03    2     1000022        22   # BR(chi^0_2 -> chi^0_1 photon)
#    BR                NDA      ID1      ID2       ID3
     1.18828460E-01    3     1000022         2        -2   # BR(chi^0_2 -> chi^0_1 u u_bar)
     1.18440468E-01    3     1000022         4        -4   # BR(chi^0_2 -> chi^0_1 c c_bar)
     1.52361204E-01    3     1000022         1        -1   # BR(chi^0_2 -> chi^0_1 d d_bar)
     1.52359101E-01    3     1000022         3        -3   # BR(chi^0_2 -> chi^0_1 s s_bar)
     1.48014757E-01    3     1000022         5        -5   # BR(chi^0_2 -> chi^0_1 b b_bar)
     3.43834989E-02    3     1000022        11       -11   # BR(chi^0_2 -> chi^0_1 e^- e^+)
     3.43826266E-02    3     1000022        13       -13   # BR(chi^0_2 -> chi^0_1 mu^- mu^+)
     3.41377366E-02    3     1000022        15       -15   # BR(chi^0_2 -> chi^0_1 tau^- tau^+)
     2.03752998E-01    3     1000022        12       -12   # BR(chi^0_2 -> chi^0_1 nu_e nu_bar_e)
DECAY   1000025     3.06757797E-05   # chi^0_3
#    BR                NDA      ID1      ID2
     5.31216408E-03    2     1000022        22   # BR(chi^0_3 -> chi^0_1 photon)
     1.22513760E-04    2     1000023        22   # BR(chi^0_3 -> chi^0_2 photon)
#    BR                NDA      ID1      ID2       ID3
     9.00838202E-02    3     1000022         2        -2   # BR(chi^0_3 -> chi^0_1 u u_bar)
     8.98936079E-02    3     1000022         4        -4   # BR(chi^0_3 -> chi^0_1 c c_bar)
     1.15479670E-01    3     1000022         1        -1   # BR(chi^0_3 -> chi^0_1 d d_bar)
     1.15478675E-01    3     1000022         3        -3   # BR(chi^0_3 -> chi^0_1 s s_bar)
     1.14115527E-01    3     1000022         5        -5   # BR(chi^0_3 -> chi^0_1 b b_bar)
     2.60309469E-02    3     1000022        11       -11   # BR(chi^0_3 -> chi^0_1 e^- e^+)
     2.60307454E-02    3     1000022        13       -13   # BR(chi^0_3 -> chi^0_1 mu^- mu^+)
     2.59629209E-02    3     1000022        15       -15   # BR(chi^0_3 -> chi^0_1 tau^- tau^+)
     1.54441439E-01    3     1000022        12       -12   # BR(chi^0_3 -> chi^0_1 nu_e nu_bar_e)
     4.01402043E-02    3     1000024         1        -2   # BR(chi^0_3 -> chi^+_1 d u_bar)
     4.01402043E-02    3    -1000024        -1         2   # BR(chi^0_3 -> chi^-_1 d_bar u)
     3.89783023E-02    3     1000024         3        -4   # BR(chi^0_3 -> chi^+_1 s c_bar)
     3.89783023E-02    3    -1000024        -3         4   # BR(chi^0_3 -> chi^-_1 s_bar c)
     1.33800250E-02    3     1000024        11       -12   # BR(chi^0_3 -> chi^+_1 e^- nu_bar_e)
     1.33800250E-02    3    -1000024       -11        12   # BR(chi^0_3 -> chi^-_1 e^+ nu_e)
     1.33781290E-02    3     1000024        13       -14   # BR(chi^0_3 -> chi^+_1 mu^- nu_bar_mu)
     1.33781290E-02    3    -1000024       -13        14   # BR(chi^0_3 -> chi^-_1 mu^+ nu_mu)
     1.26412500E-02    3     1000024        15       -16   # BR(chi^0_3 -> chi^+_1 tau^- nu_bar_tau)
     1.26412500E-02    3    -1000024       -15        16   # BR(chi^0_3 -> chi^-_1 tau^+ nu_tau)
DECAY   1000035     6.17231828E+00   # chi^0_4
#    BR                NDA      ID1      ID2
     2.39534263E-01    2     1000024       -24   # BR(chi^0_4 -> chi^+_1 W^-)
     2.39534263E-01    2    -1000024        24   # BR(chi^0_4 -> chi^-_1 W^+)
     3.25135835E-03    2     1000022        23   # BR(chi^0_4 -> chi^0_1 Z)
     2.16568170E-01    2     1000023        23   # BR(chi^0_4 -> chi^0_2 Z)
     1.65887597E-02    2     1000025        23   # BR(chi^0_4 -> chi^0_3 Z)
     1.80731302E-02    2     1000022        25   # BR(chi^0_4 -> chi^0_1 h^0)
     1.35142467E-01    2     1000023        25   # BR(chi^0_4 -> chi^0_2 h^0)
     1.30017450E-01    2     1000025        25   # BR(chi^0_4 -> chi^0_3 h^0)
#    BR                NDA      ID1      ID2       ID3
     6.17307315E-04    3     1000024         5        -6   # BR(chi^0_4 -> chi^+_1 b t_bar)
     6.17307315E-04    3    -1000024        -5         6   # BR(chi^0_4 -> chi^-_1 b_bar t)
DECAY   1000021     1.42965102E+02   # ~g
#    BR                NDA      ID1      ID2
     2.50936765E-01    2     1000006        -6   # BR(~g -> ~t_1 t_bar)
     2.50936765E-01    2    -1000006         6   # BR(~g -> ~t^*_1 t)
     2.92529638E-03    2     2000006        -6   # BR(~g -> ~t_2 t_bar)
     2.92529638E-03    2    -2000006         6   # BR(~g -> ~t^*_2 t)
     2.40617542E-01    2     1000005        -5   # BR(~g -> ~b_1 b_bar)
     2.40617542E-01    2    -1000005         5   # BR(~g -> ~b^*_1 b)
     5.41017202E-03    2     2000005        -5   # BR(~g -> ~b_2 b_bar)
     5.41017202E-03    2    -2000005         5   # BR(~g -> ~b^*_2 b)
#    BR                NDA      ID1      ID2       ID3
DECAY        25     4.25530048E-03   # Gamma(h0)
     2.49872781E-03   2        22        22   # BR(h0 -> photon photon)
     2.00622689E-03   2        22        23   # BR(h0 -> photon Z)
     4.33382472E-02   2        23        23   # BR(h0 -> Z Z)
     3.29600346E-01   2       -24        24   # BR(h0 -> W W)
     7.32286258E-02   2        21        21   # BR(h0 -> gluon gluon)
     4.25677452E-09   2       -11        11   # BR(h0 -> Electron electron)
     1.89350981E-04   2       -13        13   # BR(h0 -> Muon muon)
     5.46014409E-02   2       -15        15   # BR(h0 -> Tau tau)
     1.20437302E-07   2        -2         2   # BR(h0 -> Up up)
     2.33765055E-02   2        -4         4   # BR(h0 -> Charm charm)
     4.89612989E-07   2        -1         1   # BR(h0 -> Down down)
     1.77081859E-04   2        -3         3   # BR(h0 -> Strange strange)
     4.70982833E-01   2        -5         5   # BR(h0 -> Bottom bottom)
DECAY        35     8.83622434E+01   # Gamma(HH)
     3.07556915E-08   2        22        22   # BR(HH -> photon photon)
     6.43374764E-08   2        22        23   # BR(HH -> photon Z)
     4.47323239E-07   2        23        23   # BR(HH -> Z Z)
     7.43860631E-08   2       -24        24   # BR(HH -> W W)
     4.05262551E-07   2        21        21   # BR(HH -> gluon gluon)
     3.09898514E-09   2       -11        11   # BR(HH -> Electron electron)
     1.38002653E-04   2       -13        13   # BR(HH -> Muon muon)
     3.98599993E-02   2       -15        15   # BR(HH -> Tau tau)
     3.24733815E-13   2        -2         2   # BR(HH -> Up up)
     6.30032350E-08   2        -4         4   # BR(HH -> Charm charm)
     4.84782169E-03   2        -6         6   # BR(HH -> Top top)
     2.16220803E-07   2        -1         1   # BR(HH -> Down down)
     7.82116797E-05   2        -3         3   # BR(HH -> Strange strange)
     2.18257701E-01   2        -5         5   # BR(HH -> Bottom bottom)
     3.41524428E-02   2  -1000024   1000024   # BR(HH -> Chargino1 chargino1)
     2.02732870E-01   2  -1000024   1000037   # BR(HH -> Chargino1 chargino2)
     2.02732870E-01   2  -1000037   1000024   # BR(HH -> Chargino2 chargino1)
     8.12334746E-03   2  -1000037   1000037   # BR(HH -> Chargino2 chargino2)
     1.74202012E-02   2   1000022   1000022   # BR(HH -> neutralino1 neutralino1)
     2.01645384E-02   2   1000022   1000023   # BR(HH -> neutralino1 neutralino2)
     3.09424536E-02   2   1000022   1000025   # BR(HH -> neutralino1 neutralino3)
     1.94043742E-02   2   1000022   1000035   # BR(HH -> neutralino1 neutralino4)
     2.69087155E-04   2   1000023   1000023   # BR(HH -> neutralino2 neutralino2)
     1.69136100E-03   2   1000023   1000025   # BR(HH -> neutralino2 neutralino3)
     7.11965381E-02   2   1000023   1000035   # BR(HH -> neutralino2 neutralino4)
     2.21686663E-03   2   1000025   1000025   # BR(HH -> neutralino3 neutralino3)
     1.21399555E-01   2   1000025   1000035   # BR(HH -> neutralino3 neutralino4)
     4.36372886E-03   2   1000035   1000035   # BR(HH -> neutralino4 neutralino4)
     3.10334851E-06   2        25        25   # BR(HH -> h0 h0)
     3.60144361E-06   2  -1000006   1000006   # BR(HH -> Stop1 stop1)
     1.96674669E-08   2  -1000005   1000005   # BR(HH -> Sbottom1 sbottom1)
DECAY        36     8.70955948E+01   # Gamma(A0)
     5.35017295E-08   2        22        22   # BR(A0 -> photon photon)
     8.16192846E-08   2        22        23   # BR(A0 -> photon Z)
     5.06967429E-06   2        21        21   # BR(A0 -> gluon gluon)
     2.97390646E-09   2       -11        11   # BR(A0 -> Electron electron)
     1.32432879E-04   2       -13        13   # BR(A0 -> Muon muon)
     3.82512767E-02   2       -15        15   # BR(A0 -> Tau tau)
     2.95061726E-13   2        -2         2   # BR(A0 -> Up up)
     5.72448455E-08   2        -4         4   # BR(A0 -> Charm charm)
     4.43395121E-03   2        -6         6   # BR(A0 -> Top top)
     2.07488990E-07   2        -1         1   # BR(A0 -> Down down)
     7.50533954E-05   2        -3         3   # BR(A0 -> Strange strange)
     2.09443095E-01   2        -5         5   # BR(A0 -> Bottom bottom)
     3.90796552E-02   2  -1000024   1000024   # BR(A0 -> Chargino1 chargino1)
     2.01335429E-01   2  -1000024   1000037   # BR(A0 -> Chargino1 chargino2)
     2.01335429E-01   2  -1000037   1000024   # BR(A0 -> Chargino2 chargino1)
     1.25846194E-02   2  -1000037   1000037   # BR(A0 -> Chargino2 chargino2)
     2.08038035E-02   2   1000022   1000022   # BR(A0 -> neutralino1 neutralino1)
     2.53624267E-02   2   1000022   1000023   # BR(A0 -> neutralino1 neutralino2)
     2.44161770E-02   2   1000022   1000025   # BR(A0 -> neutralino1 neutralino3)
     2.24960452E-02   2   1000022   1000035   # BR(A0 -> neutralino1 neutralino4)
     3.38819736E-04   2   1000023   1000023   # BR(A0 -> neutralino2 neutralino2)
     1.80415263E-03   2   1000023   1000025   # BR(A0 -> neutralino2 neutralino3)
     9.08918146E-02   2   1000023   1000035   # BR(A0 -> neutralino2 neutralino4)
     1.85925240E-03   2   1000025   1000025   # BR(A0 -> neutralino3 neutralino3)
     9.86685286E-02   2   1000025   1000035   # BR(A0 -> neutralino3 neutralino4)
     6.68131625E-03   2   1000035   1000035   # BR(A0 -> neutralino4 neutralino4)
     1.24932183E-06   2        23        25   # BR(A0 -> Z h0)
     5.54576271E-41   2        25        25   # BR(A0 -> h0 h0)
DECAY        37     9.18087295E+01   # Gamma(Hp)
     3.58278752E-09   2       -11        12   # BR(Hp -> Electron nu_e)
     1.53175357E-04   2       -13        14   # BR(Hp -> Muon nu_mu)
     4.33267204E-02   2       -15        16   # BR(Hp -> Tau nu_tau)
     2.17240669E-07   2        -1         2   # BR(Hp -> Down up)
     3.68752766E-06   2        -3         2   # BR(Hp -> Strange up)
     2.56648647E-06   2        -5         2   # BR(Hp -> Bottom up)
     1.32222895E-08   2        -1         4   # BR(Hp -> Down charm)
     7.83600155E-05   2        -3         4   # BR(Hp -> Strange charm)
     3.59400112E-04   2        -5         4   # BR(Hp -> Bottom charm)
     3.31898506E-07   2        -1         6   # BR(Hp -> Down top)
     7.35355284E-06   2        -3         6   # BR(Hp -> Strange top)
     2.47066113E-01   2        -5         6   # BR(Hp -> Bottom top)
     4.88876641E-02   2   1000022   1000024   # BR(Hp -> neutralino1 chargino1)
     4.47802529E-02   2   1000022   1000037   # BR(Hp -> neutralino1 chargino2)
     2.26493501E-02   2   1000023   1000024   # BR(Hp -> neutralino2 chargino1)
     1.80116270E-01   2   1000023   1000037   # BR(Hp -> neutralino2 chargino2)
     8.11619450E-03   2   1000024   1000025   # BR(Hp -> chargino1 neutralino3)
     2.01645046E-01   2   1000025   1000037   # BR(Hp -> neutralino3 chargino2)
     2.02796542E-01   2   1000024   1000035   # BR(Hp -> chargino1 neutralino4)
     5.62210097E-06   2   1000035   1000037   # BR(Hp -> neutralino4 chargino2)
     1.18568536E-06   2        24        25   # BR(Hp -> W h0)
     2.82817040E-14   2        24        35   # BR(Hp -> W HH)
     3.93082938E-06   2  -1000005   1000006   # BR(Hp -> Sbottom1 stop1)
DECAY         6     2.43000000E+00   # top
#    BR                NDA      ID1      ID2
     1.00000000E+00    2           5        24   # BR(t -> b W)
Block HiggsBoundsInputHiggsCouplingsFermions
# ScalarNormEffCoupSq PseudoSNormEffCoupSq NP IP1 IP2 IP2
    9.16973634E-01    0.00000000E+00        3  25   5   5  # h0-b-b eff. coupling^2, normalised to SM
    3.65821617E+02    0.00000000E+00        3  35   5   5  # H0-b-b eff. coupling^2, normalised to SM
    0.00000000E+00    3.65738590E+02        3  36   5   5  # A0-b-b eff. coupling^2, normalised to SM
#
    1.00022701E+00    0.00000000E+00        3  25   6   6  # h0-t-t eff. coupling^2, normalised to SM
    2.50718316E-03    0.00000000E+00        3  35   6   6  # H0-t-t eff. coupling^2, normalised to SM
    0.00000000E+00    2.73419329E-03        3  36   6   6  # A0-t-t eff. coupling^2, normalised to SM
#
    9.16973634E-01    0.00000000E+00        3  25  15  15  # h0-tau-tau eff. coupling^2, normalised to SM
    3.65821617E+02    0.00000000E+00        3  35  15  15  # H0-tau-tau eff. coupling^2, normalised to SM
    0.00000000E+00    3.65738590E+02        3  36  15  15  # A0-tau-tau eff. coupling^2, normalised to SM
#
Block HiggsBoundsInputHiggsCouplingsBosons
    9.99995082E-01        3  25  24  24  # h0-W-W eff. coupling^2, normalised to SM
    4.91777425E-06        3  35  24  24  # H0-W-W eff. coupling^2, normalised to SM
    0.00000000E+00        3  36  24  24  # A0-W-W eff. coupling^2, normalised to SM
#
    9.99995082E-01        3  25  23  23  # h0-Z-Z eff. coupling^2, normalised to SM
    4.91777425E-06        3  35  23  23  # H0-Z-Z eff. coupling^2, normalised to SM
    0.00000000E+00        3  36  23  23  # A0-Z-Z eff. coupling^2, normalised to SM
#
    1.26188060E+00        3  25  21  21  # h0-g-g eff. coupling^2, normalised to SM
    6.35318241E-04        3  35  21  21  # H0-g-g eff. coupling^2, normalised to SM
    9.25652329E-02        3  36  21  21  # A0-g-g eff. coupling^2, normalised to SM
#
    0.00000000E+00        3  25  25  23  # h0-h0-Z eff. coupling^2, normalised to SM
    0.00000000E+00        3  35  25  23  # H0-h0-Z eff. coupling^2, normalised to SM
    4.91777425E-06        3  36  25  23  # A0-h0-Z eff. coupling^2, normalised to SM
    0.00000000E+00        3  35  35  23  # H0-H0-Z eff. coupling^2, normalised to SM
    9.99995082E-01        3  36  35  23  # A0-H0-Z eff. coupling^2, normalised to SM
    0.00000000E+00        3  36  36  23  # A0-A0-Z eff. coupling^2, normalised to SM
#
    0.00000000E+00        4  25  21  21  23  # h0-g-g-Z eff. coupling^2, normalised to SM
    0.00000000E+00        4  35  21  21  23  # H0-g-g-Z eff. coupling^2, normalised to SM
    0.00000000E+00        4  36  21  21  23  # A0-g-g-Z eff. coupling^2, normalised to SM
Block SPhenoLowEnergy  # low energy observables
    1    3.14942864E-04   # BR(b -> s gamma)
    2    1.59065437E-06   # BR(b -> s mu+ mu-)
    3    3.52448960E-05   # BR(b -> s nu nu)
    4    2.85956278E-15   # BR(Bd -> e+ e-)
    5    1.22157124E-10   # BR(Bd -> mu+ mu-)
    6    2.55634681E-08   # BR(Bd -> tau+ tau-)
    7    9.69805874E-14   # BR(Bs -> e+ e-)
    8    4.14300231E-09   # BR(Bs -> mu+ mu-)
    9    8.78451556E-07   # BR(Bs -> tau+ tau-)
   10    9.67173862E-05   # BR(B_u -> tau nu)
   11    9.99053572E-01   # BR(B_u -> tau nu)/BR(B_u -> tau nu)_SM
   12    5.42245029E-01   # |Delta(M_Bd)| [ps^-1] 
   13    1.93744667E+01   # |Delta(M_Bs)| [ps^-1] 
   14    0.00000000E+00   # neutron EDM according to the chiral quark model
   15    0.00000000E+00   # neutron EDM according to the relativistic quark-parton model
   16    2.15833731E-03   # epsilon_K
   17    2.28166849E-15   # Delta(M_K)
   18    2.47929213E-11   # BR(K^0 -> pi^0 nu nu)
   19    8.28883246E-11   # BR(K^+ -> pi^+ nu nu)
   20    1.48182584E-16   # Delta(g-2)_electron/2
   21    6.33528640E-12   # Delta(g-2)_muon/2
   22    1.79338236E-09   # Delta(g-2)_tau/2
   23    0.00000000E+00   # electric dipole moment of the electron
   24    0.00000000E+00   # electric dipole moment of the muon
   25    0.00000000E+00   # electric dipole moment of the tau
   26    0.00000000E+00   # Br(mu -> e gamma)
   27    0.00000000E+00   # Br(tau -> e gamma)
   28    0.00000000E+00   # Br(tau -> mu gamma)
   29    0.00000000E+00   # Br(mu -> 3 e)
   30    0.00000000E+00   # Br(tau -> 3 e)
   31    0.00000000E+00   # Br(tau -> 3 mu)
   39    4.11764583E-05   # Delta(rho_parameter)
   40    0.00000000E+00   # BR(Z -> e mu)
   41    0.00000000E+00   # BR(Z -> e tau)
   42    0.00000000E+00   # BR(Z -> mu tau)
Block FWCOEF Q=  1.60000000E+02  # Wilson coefficients at scale Q
#    id        order  M        value         comment
     0305 4422   00   0    -1.88819110E-01   # C7
     0305 4422   00   2    -1.82168479E-01   # C7
     0305 4322   00   2     8.16720271E-07   # C7'
     0305 6421   00   0    -9.52278348E-02   # C8
     0305 6421   00   2    -9.38669601E-02   # C8
     0305 6321   00   2    -4.52333648E-05   # C8'
 03051111 4133   00   0     1.61545860E+00   # C9 e+e-
 03051111 4133   00   2     1.61579267E+00   # C9 e+e-
 03051111 4233   00   2     8.43567243E-05   # C9' e+e-
 03051111 4137   00   0    -4.43815070E+00   # C10 e+e-
 03051111 4137   00   2    -4.43574270E+00   # C10 e+e-
 03051111 4237   00   2    -6.33701654E-04   # C10' e+e-
 03051313 4133   00   0     1.61545860E+00   # C9 mu+mu-
 03051313 4133   00   2     1.61579261E+00   # C9 mu+mu-
 03051313 4233   00   2     8.43567156E-05   # C9' mu+mu-
 03051313 4137   00   0    -4.43815070E+00   # C10 mu+mu-
 03051313 4137   00   2    -4.43574275E+00   # C10 mu+mu-
 03051313 4237   00   2    -6.33701668E-04   # C10' mu+mu-
 03051212 4137   00   0     1.50535012E+00   # C11 nu_1 nu_1
 03051212 4137   00   2     1.50482954E+00   # C11 nu_1 nu_1
 03051212 4237   00   2     1.37375859E-04   # C11' nu_1 nu_1
 03051414 4137   00   0     1.50535012E+00   # C11 nu_2 nu_2
 03051414 4137   00   2     1.50482954E+00   # C11 nu_2 nu_2
 03051414 4237   00   2     1.37375860E-04   # C11' nu_2 nu_2
 03051616 4137   00   0     1.50535012E+00   # C11 nu_3 nu_3
 03051616 4137   00   2     1.50482954E+00   # C11 nu_3 nu_3
 03051616 4237   00   2     1.37376041E-04   # C11' nu_3 nu_3
Block IMFWCOEF Q=  1.60000000E+02  # Im(Wilson coefficients) at scale Q
#    id        order  M        value         comment
     0305 4422   00   0     3.85833746E-07   # C7
     0305 4422   00   2     2.26786250E-06   # C7
     0305 4322   00   2     1.01787186E-06   # C7'
     0305 6421   00   0     3.30492120E-07   # C8
     0305 6421   00   2     4.85075135E-06   # C8
     0305 6321   00   2     5.33882184E-07   # C8'
 03051111 4133   00   2     2.79121313E-07   # C9 e+e-
 03051111 4233   00   2     1.58469358E-06   # C9' e+e-
 03051111 4137   00   2     1.85769413E-06   # C10 e+e-
 03051111 4237   00   2    -1.19055959E-05   # C10' e+e-
 03051313 4133   00   2     2.79120479E-07   # C9 mu+mu-
 03051313 4233   00   2     1.58469347E-06   # C9' mu+mu-
 03051313 4137   00   2     1.85769491E-06   # C10 mu+mu-
 03051313 4237   00   2    -1.19055962E-05   # C10' mu+mu-
 03051212 4137   00   2    -3.77249034E-07   # C11 nu_1 nu_1
 03051212 4237   00   2     2.58093392E-06   # C11' nu_1 nu_1
 03051414 4137   00   2    -3.77248994E-07   # C11 nu_2 nu_2
 03051414 4237   00   2     2.58093392E-06   # C11' nu_2 nu_2
 03051616 4137   00   2    -3.77237647E-07   # C11 nu_3 nu_3
 03051616 4237   00   2     2.58093391E-06   # C11' nu_3 nu_3
