# SUSY Les Houches Accord 2 - MSSM spectrum + Decays
# SPheno v4.0.5be
# W. Porod, Comput. Phys. Commun. 153 (2003) 275-315, hep-ph/0301101;
# W. Porod, F.~Staub, Comput. Phys. Commun. 183 (2012) 2458
#                     arXiv:1104.1573 [hep-ph] 
# in case of problems send email to porod@physik.uni-wuerzburg.de
# Created: 07.09.2021,  19:32
Block SPINFO         # Program information
     1   SPheno      # spectrum calculator
     2   v4.0.5be    # version number
#
Block SPhenoINFO     # SPheno specific information
    1      2         # using 2-loop RGEs
    2      2         # using pole masses for boundary conditions at mZ
Block MODSEL  # Model selection
    1    0    # general MSSM
Block MINPAR  # Input parameters
    3    3.66797591E+01  # tanb at m_Z    
    4   -1.00000000E+00  # Sign(mu)
Block EXTPAR  # non-universal input parameters
    0    3.93939585E+03  # scale for input parameters
    1    2.28007889E+02  # M_1
    2    4.88458509E+02  # M_2
    3    2.61681403E+03  # M_3
   11   -4.17762556E+03  # A_t
   12    1.37273945E+02  # A_b
   13   -9.99455995E+02  # A_tau
   23   -2.41862977E+02  # mu
   25    3.55758685E+01  # tan(beta)
   26    2.68059078E+03  # m_A, pole mass
   31    1.00000000E+04  # M_L11
   32    1.00000000E+04  # M_L22
   33    1.00000000E+04  # M_L33
   34    1.00000000E+04  # M_E11
   35    1.00000000E+04  # M_E22
   36    1.00000000E+04  # M_E33
   41    1.00000000E+04  # M_Q11
   42    1.00000000E+04  # M_Q22
   43    4.33104584E+03  # M_Q33
   44    1.00000000E+04  # M_U11
   45    1.00000000E+04  # M_U22
   46    3.54363559E+03  # M_U33
   47    1.00000000E+04  # M_D11
   48    1.00000000E+04  # M_D22
   49    3.84094570E+03  # M_D33
Block SMINPUTS  # SM parameters
         1     1.27908970E+02  # alpha_em^-1(MZ)^MSbar
         2     1.16637870E-05  # G_mu [GeV^-2]
         3     1.18400000E-01  # alpha_s(MZ)^MSbar
         4     9.11876000E+01  # m_Z(pole)
         5     4.18000000E+00  # m_b(m_b), MSbar
         6     1.73200000E+02  # m_t(pole)
         7     1.77700000E+00  # m_tau(pole)
         8     0.00000000E+00  # m_nu_3
        11     5.10998930E-04  # m_e(pole)
        12     0.00000000E+00  # m_nu_1
        13     1.05658372E-01  # m_muon(pole)
        14     0.00000000E+00  # m_nu_2
        21     5.00000000E-03  # m_d(2 GeV), MSbar
        22     2.50000000E-03  # m_u(2 GeV), MSbar
        23     9.50000000E-02  # m_s(2 GeV), MSbar
        24     1.27000000E+00  # m_c(m_c), MSbar
Block gauge Q=  3.93939585E+03  # (SUSY scale)
   1    3.55362975E-01  # g'(Q)^DRbar
   2    6.65198874E-01  # g(Q)^DRbar
   3    1.21977796E+00  # g3(Q)^DRbar
Block Yu Q=  3.93939585E+03  # (SUSY scale)
  1  1     8.38768378E-06   # Y_u(Q)^DRbar
  2  2     4.26094336E-03   # Y_c(Q)^DRbar
  3  3     1.01329957E+00   # Y_t(Q)^DRbar
Block Yd Q=  3.93939585E+03  # (SUSY scale)
  1  1     5.99622344E-04   # Y_d(Q)^DRbar
  2  2     1.13928245E-02   # Y_s(Q)^DRbar
  3  3     5.94637470E-01   # Y_b(Q)^DRbar
Block Ye Q=  3.93939585E+03  # (SUSY scale)
  1  1     1.04638484E-04   # Y_e(Q)^DRbar
  2  2     2.16359197E-02   # Y_mu(Q)^DRbar
  3  3     3.63880577E-01   # Y_tau(Q)^DRbar
Block Au Q=  3.93939585E+03  # (SUSY scale)
  1  1     0.00000000E+00   # A_u(Q)^DRbar
  2  2     0.00000000E+00   # A_c(Q)^DRbar
  3  3    -4.17762851E+03   # A_t(Q)^DRbar
Block Ad Q=  3.93939585E+03  # (SUSY scale)
  1  1     0.00000000E+00   # A_d(Q)^DRbar
  2  2     0.00000000E+00   # A_s(Q)^DRbar
  3  3     1.37273945E+02   # A_b(Q)^DRbar
Block Ae Q=  3.93939585E+03  # (SUSY scale)
  1  1     0.00000000E+00   # A_e(Q)^DRbar
  2  2     0.00000000E+00   # A_mu(Q)^DRbar
  3  3    -9.99455770E+02   # A_tau(Q)^DRbar
Block MSOFT Q=  3.93939585E+03  # soft SUSY breaking masses at Q
   1    2.28007889E+02  # M_1
   2    4.88458509E+02  # M_2
   3    2.61681403E+03  # M_3
  21    7.18852887E+06  # M^2_(H,d)
  22    2.95584884E+05  # M^2_(H,u)
  31    1.00000000E+04  # M_(L,11)
  32    1.00000000E+04  # M_(L,22)
  33    1.00000000E+04  # M_(L,33)
  34    1.00000000E+04  # M_(E,11)
  35    1.00000000E+04  # M_(E,22)
  36    1.00000000E+04  # M_(E,33)
  41    1.00000000E+04  # M_(Q,11)
  42    1.00000000E+04  # M_(Q,22)
  43    4.33104584E+03  # M_(Q,33)
  44    1.00000000E+04  # M_(U,11)
  45    1.00000000E+04  # M_(U,22)
  46    3.54363559E+03  # M_(U,33)
  47    1.00000000E+04  # M_(D,11)
  48    1.00000000E+04  # M_(D,22)
  49    3.84094570E+03  # M_(D,33)
Block MASS  # Mass spectrum
#   PDG code      mass          particle
         6     1.73200000E+02  # m_t(pole)
        23     9.11876000E+01  # m_Z(pole)
        24     8.04299946E+01  # W+
        15     1.77700000E+00  # m_tau(pole)
        25     1.25691349E+02  # h0
        35     2.67979639E+03  # H0
        36     2.68059078E+03  # A0
        37     2.68235419E+03  # H+
   1000001     1.01134980E+04  # ~d_L
   2000001     1.00884659E+04  # ~d_R
   1000002     1.01131334E+04  # ~u_L
   2000002     1.00914315E+04  # ~u_R
   1000003     1.01135001E+04  # ~s_L
   2000003     1.00884694E+04  # ~s_R
   1000004     1.01131355E+04  # ~c_L
   2000004     1.00914321E+04  # ~c_R
   1000005     3.90545025E+03  # ~b_1
   2000005     4.36040467E+03  # ~b_2
   1000006     3.55235342E+03  # ~t_1
   2000006     4.36860802E+03  # ~t_2
   1000011     1.00213005E+04  # ~e_L-
   2000011     1.00091434E+04  # ~e_R-
   1000012     1.00205304E+04  # ~nu_eL
   1000013     1.00213099E+04  # ~mu_L-
   2000013     1.00091612E+04  # ~mu_R-
   1000014     1.00205397E+04  # ~nu_muL
   1000015     1.00142481E+04  # ~tau_1-
   2000015     1.00239886E+04  # ~tau_2-
   1000016     1.00231698E+04  # ~nu_tauL
   1000021     3.08605809E+03  # ~g
   1000022     2.09721862E+02  # ~chi_10
   1000023     2.66414818E+02  # ~chi_20
   1000025     2.71246372E+02  # ~chi_30
   1000035     5.50584063E+02  # ~chi_40
   1000024     2.53858476E+02  # ~chi_1+
   1000037     5.50639424E+02  # ~chi_2+
# Higgs mixing
Block alpha # Effective Higgs mixing angle
          -2.73369742E-02   # alpha
Block Hmix Q=  3.93939585E+03  # Higgs mixing parameters
   1   -2.41862977E+02  # mu
   2    3.55758685E+01  # tan[beta](Q)
   3    2.42945630E+02  # v(Q)
   4    7.18556693E+06  # m^2_A(Q)
Block stopmix # stop mixing matrix
   1  1     9.36747793E-02   # Re[R_st(1,1)]
   1  2     9.95602850E-01   # Re[R_st(1,2)]
   2  1    -9.95602850E-01   # Re[R_st(2,1)]
   2  2     9.36747793E-02   # Re[R_st(2,2)]
Block sbotmix # sbottom mixing matrix
   1  1    -4.38429955E-03   # Re[R_sb(1,1)]
   1  2     9.99990389E-01   # Re[R_sb(1,2)]
   2  1    -9.99990389E-01   # Re[R_sb(2,1)]
   2  2    -4.38429955E-03   # Re[R_sb(2,2)]
Block staumix # stau mixing matrix
   1  1    -6.81580634E-02   # Re[R_sta(1,1)]
   1  2     9.97674535E-01   # Re[R_sta(1,2)]
   2  1    -9.97674535E-01   # Re[R_sta(2,1)]
   2  2    -6.81580634E-02   # Re[R_sta(2,2)]
Block Nmix # neutralino mixing matrix
   1  1    -8.02773610E-01   # Re[N(1,1)]
   1  2     8.72610052E-02   # Re[N(1,2)]
   1  3     4.61222154E-01   # Re[N(1,3)]
   1  4     3.67714797E-01   # Re[N(1,4)]
   2  1     6.56032010E-02   # Re[N(2,1)]
   2  2    -7.36347799E-02   # Re[N(2,2)]
   2  3     6.95526975E-01   # Re[N(2,3)]
   2  4    -7.11699632E-01   # Re[N(2,4)]
   3  1    -5.92101323E-01   # Re[N(3,1)]
   3  2    -1.69160239E-01   # Re[N(3,2)]
   3  3    -5.44648819E-01   # Re[N(3,3)]
   3  4    -5.69349191E-01   # Re[N(3,4)]
   4  1    -2.58219768E-02   # Re[N(4,1)]
   4  2     9.78952629E-01   # Re[N(4,2)]
   4  3    -8.29096886E-02   # Re[N(4,3)]
   4  4    -1.84691525E-01   # Re[N(4,4)]
Block Umix # chargino mixing matrix
   1  1    -1.17394238E-01   # Re[U(1,1)]
   1  2    -9.93085391E-01   # Re[U(1,2)]
   2  1     9.93085391E-01   # Re[U(2,1)]
   2  2    -1.17394238E-01   # Re[U(2,2)]
Block Vmix # chargino mixing matrix
   1  1    -2.61121871E-01   # Re[V(1,1)]
   1  2     9.65305842E-01   # Re[V(1,2)]
   2  1     9.65305842E-01   # Re[V(2,1)]
   2  2     2.61121871E-01   # Re[V(2,2)]
DECAY        23     2.49520000E+00   # Z
DECAY        24     2.08500000E+00   # W
DECAY   2000011     5.02374444E+01   # ~e^-_R
#    BR                NDA      ID1      ID2
     6.44582675E-01    2     1000022        11   # BR(~e^-_R -> chi^0_1 e^-)
     4.30239674E-03    2     1000023        11   # BR(~e^-_R -> chi^0_2 e^-)
     3.50451415E-01    2     1000025        11   # BR(~e^-_R -> chi^0_3 e^-)
     6.63469242E-04    2     1000035        11   # BR(~e^-_R -> chi^0_4 e^-)
DECAY   1000011     1.44121731E+02   # ~e^-_L
#    BR                NDA      ID1      ID2
     3.56817391E-02    2     1000022        11   # BR(~e^-_L -> chi^0_1 e^-)
     4.55092413E-04    2     1000023        11   # BR(~e^-_L -> chi^0_2 e^-)
     7.20263443E-02    2     1000025        11   # BR(~e^-_L -> chi^0_3 e^-)
     2.83379711E-01    2     1000035        11   # BR(~e^-_L -> chi^0_4 e^-)
     8.42488104E-03    2    -1000024        12   # BR(~e^-_L -> chi^-_1 nu_e)
     6.00032232E-01    2    -1000037        12   # BR(~e^-_L -> chi^-_2 nu_e)
#    BR                NDA      ID1      ID2       ID3
DECAY   2000013     5.04237045E+01   # ~mu^-_R
#    BR                NDA      ID1      ID2
     6.42595701E-01    2     1000022        13   # BR(~mu^-_R -> chi^0_1 mu^-)
     5.17949836E-03    2     1000023        13   # BR(~mu^-_R -> chi^0_2 mu^-)
     3.49705046E-01    2     1000025        13   # BR(~mu^-_R -> chi^0_3 mu^-)
     6.73649681E-04    2     1000035        13   # BR(~mu^-_R -> chi^0_4 mu^-)
     1.82078254E-03    2    -1000024        14   # BR(~mu^-_R -> chi^-_1 nu_mu)
DECAY   1000013     1.44215066E+02   # ~mu^-_L
#    BR                NDA      ID1      ID2
     3.57962161E-02    2     1000022        13   # BR(~mu^-_L -> chi^0_1 mu^-)
     7.67404690E-04    2     1000023        13   # BR(~mu^-_L -> chi^0_2 mu^-)
     7.21714830E-02    2     1000025        13   # BR(~mu^-_L -> chi^0_3 mu^-)
     2.83200997E-01    2     1000035        13   # BR(~mu^-_L -> chi^0_4 mu^-)
     8.41943641E-03    2    -1000024        14   # BR(~mu^-_L -> chi^-_1 nu_mu)
     5.99644463E-01    2    -1000037        14   # BR(~mu^-_L -> chi^-_2 nu_mu)
#    BR                NDA      ID1      ID2       ID3
DECAY   1000015     1.03270024E+02   # ~tau^-_1
#    BR                NDA      ID1      ID2
     3.77475639E-01    2     1000022        15   # BR(~tau^-_1 -> chi^0_1 tau^-)
     1.22094515E-01    2     1000023        15   # BR(~tau^-_1 -> chi^0_2 tau^-)
     2.42312104E-01    2     1000025        15   # BR(~tau^-_1 -> chi^0_3 tau^-)
     2.28794997E-04    2     1000035        15   # BR(~tau^-_1 -> chi^0_4 tau^-)
     2.57877837E-01    2    -1000024        16   # BR(~tau^-_1 -> chi^-_1 nu_tau)
DECAY   2000015     1.70210914E+02   # ~tau^-_2
#    BR                NDA      ID1      ID2
     5.74504285E-02    2     1000022        15   # BR(~tau^-_2 -> chi^0_1 tau^-)
     7.73882087E-02    2     1000023        15   # BR(~tau^-_2 -> chi^0_2 tau^-)
     1.09335601E-01    2     1000025        15   # BR(~tau^-_2 -> chi^0_3 tau^-)
     2.42186070E-01    2     1000035        15   # BR(~tau^-_2 -> chi^0_4 tau^-)
     3.32153183E-03    2    -1000024        16   # BR(~tau^-_2 -> chi^-_1 nu_tau)
     5.10318160E-01    2    -1000037        16   # BR(~tau^-_2 -> chi^-_2 nu_tau)
#    BR                NDA      ID1      ID2       ID3
DECAY   1000012     1.44126353E+02   # ~nu_e
#    BR                NDA      ID1      ID2
     8.14460498E-02    2     1000022        12   # BR(~nu_e -> chi^0_1 nu_e)
     3.60949502E-03    2     1000023        12   # BR(~nu_e -> chi^0_2 nu_e)
     6.61681772E-03    2     1000025        12   # BR(~nu_e -> chi^0_3 nu_e)
     2.99779282E-01    2     1000035        12   # BR(~nu_e -> chi^0_4 nu_e)
     4.16782503E-02    2     1000024        11   # BR(~nu_e -> chi^+_1 e^-)
     5.66870105E-01    2     1000037        11   # BR(~nu_e -> chi^+_2 e^-)
#    BR                NDA      ID1      ID2       ID3
DECAY   1000014     1.44219680E+02   # ~nu_mu
#    BR                NDA      ID1      ID2
     8.13934206E-02    2     1000022        14   # BR(~nu_mu -> chi^0_1 nu_mu)
     3.60716262E-03    2     1000023        14   # BR(~nu_mu -> chi^0_2 nu_mu)
     6.61254204E-03    2     1000025        14   # BR(~nu_mu -> chi^0_3 nu_mu)
     2.99585572E-01    2     1000035        14   # BR(~nu_mu -> chi^0_4 nu_mu)
     4.22886370E-02    2     1000024        13   # BR(~nu_mu -> chi^+_1 mu^-)
     5.66512666E-01    2     1000037        13   # BR(~nu_mu -> chi^+_2 mu^-)
#    BR                NDA      ID1      ID2       ID3
DECAY   1000016     1.70532122E+02   # ~nu_tau
#    BR                NDA      ID1      ID2
     6.88528318E-02    2     1000022        16   # BR(~nu_tau -> chi^0_1 nu_tau)
     3.05139444E-03    2     1000023        16   # BR(~nu_tau -> chi^0_2 nu_tau)
     5.59372469E-03    2     1000025        16   # BR(~nu_tau -> chi^0_3 nu_tau)
     2.53427991E-01    2     1000035        16   # BR(~nu_tau -> chi^0_4 nu_tau)
     1.87732710E-01    2     1000024        15   # BR(~nu_tau -> chi^+_1 tau^-)
     4.81341348E-01    2     1000037        15   # BR(~nu_tau -> chi^+_2 tau^-)
#    BR                NDA      ID1      ID2       ID3
DECAY   2000001     6.59885432E+02   # ~d_R
#    BR                NDA      ID1      ID2
     5.49580283E-03    2     1000022         1   # BR(~d_R -> chi^0_1 d)
     2.98804556E-03    2     1000025         1   # BR(~d_R -> chi^0_3 d)
     9.91473649E-01    2     1000021         1   # BR(~d_R -> ~g d)
DECAY   1000001     7.90729242E+02   # ~d_L
#    BR                NDA      ID1      ID2
     2.98104495E-03    2     1000022         1   # BR(~d_L -> chi^0_1 d)
     4.09252742E-04    2     1000023         1   # BR(~d_L -> chi^0_2 d)
     2.28292167E-04    2     1000025         1   # BR(~d_L -> chi^0_3 d)
     5.41367606E-02    2     1000035         1   # BR(~d_L -> chi^0_4 d)
     1.54971873E-03    2    -1000024         2   # BR(~d_L -> chi^-_1 u)
     1.10382772E-01    2    -1000037         2   # BR(~d_L -> chi^-_2 u)
     8.30312159E-01    2     1000021         1   # BR(~d_L -> ~g d)
DECAY   2000003     6.59937642E+02   # ~s_R
#    BR                NDA      ID1      ID2
     5.50373707E-03    2     1000022         3   # BR(~s_R -> chi^0_1 s)
     2.99947021E-03    2     1000025         3   # BR(~s_R -> chi^0_3 s)
     9.91395695E-01    2     1000021         3   # BR(~s_R -> ~g s)
DECAY   1000003     7.90759118E+02   # ~s_L
#    BR                NDA      ID1      ID2
     2.98793312E-03    2     1000022         3   # BR(~s_L -> chi^0_1 s)
     4.25147187E-04    2     1000023         3   # BR(~s_L -> chi^0_2 s)
     2.38039296E-04    2     1000025         3   # BR(~s_L -> chi^0_3 s)
     5.41349511E-02    2     1000035         3   # BR(~s_L -> chi^0_4 s)
     1.55395842E-03    2    -1000024         4   # BR(~s_L -> chi^-_1 c)
     1.10378939E-01    2    -1000037         4   # BR(~s_L -> chi^-_2 c)
     8.30281032E-01    2     1000021         3   # BR(~s_L -> ~g s)
DECAY   1000005     1.00003003E+02   # ~b_1
#    BR                NDA      ID1      ID2
     7.25314404E-02    2     1000022         5   # BR(~b_1 -> chi^0_1 b)
     1.31613776E-01    2     1000023         5   # BR(~b_1 -> chi^0_2 b)
     8.81208881E-02    2     1000025         5   # BR(~b_1 -> chi^0_3 b)
     1.68039662E-03    2     1000035         5   # BR(~b_1 -> chi^0_4 b)
     2.67881222E-01    2    -1000024         6   # BR(~b_1 -> chi^-_1 t)
     3.32725056E-03    2    -1000037         6   # BR(~b_1 -> chi^-_2 t)
     4.34844701E-01    2     1000021         5   # BR(~b_1 -> ~g b)
DECAY   2000005     2.79287987E+02   # ~b_2
#    BR                NDA      ID1      ID2
     2.67014752E-02    2     1000022         5   # BR(~b_2 -> chi^0_1 b)
     5.32859648E-02    2     1000023         5   # BR(~b_2 -> chi^0_2 b)
     3.26658505E-02    2     1000025         5   # BR(~b_2 -> chi^0_3 b)
     6.51610116E-02    2     1000035         5   # BR(~b_2 -> chi^0_4 b)
     2.95760042E-01    2    -1000024         6   # BR(~b_2 -> chi^-_1 t)
     1.53006019E-01    2    -1000037         6   # BR(~b_2 -> chi^-_2 t)
     3.06980109E-01    2     1000021         5   # BR(~b_2 -> ~g b)
     6.63923842E-02    2     1000006       -24   # BR(~b_2 -> ~t_1 W^-)
DECAY   2000002     6.77042466E+02   # ~u_R
#    BR                NDA      ID1      ID2
     2.14323501E-02    2     1000022         2   # BR(~u_R -> chi^0_1 u)
     1.43055101E-04    2     1000023         2   # BR(~u_R -> chi^0_2 u)
     1.16526083E-02    2     1000025         2   # BR(~u_R -> chi^0_3 u)
     9.66749924E-01    2     1000021         2   # BR(~u_R -> ~g u)
DECAY   1000002     7.90715830E+02   # ~u_L
#    BR                NDA      ID1      ID2
     1.74452200E-04    2     1000022         2   # BR(~u_L -> chi^0_1 u)
     2.15766668E-04    2     1000023         2   # BR(~u_L -> chi^0_2 u)
     4.23874780E-03    2     1000025         2   # BR(~u_L -> chi^0_3 u)
     5.31280741E-02    2     1000035         2   # BR(~u_L -> chi^0_4 u)
     7.66730233E-03    2     1000024         1   # BR(~u_L -> chi^+_1 d)
     1.04291642E-01    2     1000037         1   # BR(~u_L -> chi^+_2 d)
     8.30284015E-01    2     1000021         2   # BR(~u_L -> ~g u)
DECAY   2000004     6.77049769E+02   # ~c_R
#    BR                NDA      ID1      ID2
     2.14328452E-02    2     1000022         4   # BR(~c_R -> chi^0_1 c)
     1.45776348E-04    2     1000023         4   # BR(~c_R -> chi^0_2 c)
     1.16542276E-02    2     1000025         4   # BR(~c_R -> chi^0_3 c)
     9.66739531E-01    2     1000021         4   # BR(~c_R -> ~g c)
DECAY   1000004     7.90745674E+02   # ~c_L
#    BR                NDA      ID1      ID2
     1.75069843E-04    2     1000022         4   # BR(~c_L -> chi^0_1 c)
     2.18094804E-04    2     1000023         4   # BR(~c_L -> chi^0_2 c)
     4.24008262E-03    2     1000025         4   # BR(~c_L -> chi^0_3 c)
     5.31262375E-02    2     1000035         4   # BR(~c_L -> chi^0_4 c)
     7.69945434E-03    2     1000024         3   # BR(~c_L -> chi^+_1 s)
     1.04288178E-01    2     1000037         3   # BR(~c_L -> chi^+_2 s)
     8.30252883E-01    2     1000021         4   # BR(~c_L -> ~g c)
DECAY   1000006     1.67334028E+02   # ~t_1
#    BR                NDA      ID1      ID2
     9.43828822E-02    2     1000022         6   # BR(~t_1 -> chi^0_1 t)
     2.18805996E-01    2     1000023         6   # BR(~t_1 -> chi^0_2 t)
     1.51964502E-01    2     1000025         6   # BR(~t_1 -> chi^0_3 t)
     8.24642781E-03    2     1000035         6   # BR(~t_1 -> chi^0_4 t)
     4.11098671E-01    2     1000024         5   # BR(~t_1 -> chi^+_1 b)
     1.66413504E-02    2     1000037         5   # BR(~t_1 -> chi^+_2 b)
     1.31952745E-04    2     1000021         4   # BR(~t_1 -> ~g c)
     9.86938796E-02    2     1000021         6   # BR(~t_1 -> ~g t)
#    BR                NDA      ID1      ID2       ID3
DECAY   2000006     2.81629490E+02   # ~t_2
#    BR                NDA      ID1      ID2
     3.77978560E-02    2     1000022         6   # BR(~t_2 -> chi^0_1 t)
     1.57040145E-01    2     1000023         6   # BR(~t_2 -> chi^0_2 t)
     1.08893191E-01    2     1000025         6   # BR(~t_2 -> chi^0_3 t)
     7.78508605E-02    2     1000035         6   # BR(~t_2 -> chi^0_4 t)
     1.07981003E-01    2     1000024         5   # BR(~t_2 -> chi^+_1 b)
     1.33240544E-01    2     1000037         5   # BR(~t_2 -> chi^+_2 b)
     2.97084949E-01    2     1000021         6   # BR(~t_2 -> ~g t)
     3.34187624E-02    2     1000006        23   # BR(~t_2 -> ~t_1 Z)
     4.66630153E-02    2     1000006        25   # BR(~t_2 -> ~t_1 h^0)
DECAY   1000024     8.39975647E-05   # chi^+_1
#    BR                NDA      ID1      ID2       ID3
     3.34025010E-01    3     1000022        -1         2   # BR(chi^+_1 -> chi^0_1 d_bar u)
     3.32820391E-01    3     1000022        -3         4   # BR(chi^+_1 -> chi^0_1 s_bar c)
     1.11341818E-01    3     1000022       -11        12   # BR(chi^+_1 -> chi^0_1 e^+ nu_e)
     1.11341246E-01    3     1000022       -13        14   # BR(chi^+_1 -> chi^0_1 mu^+ nu_mu)
     1.10471535E-01    3     1000022       -15        16   # BR(chi^+_1 -> chi^0_1 tau^+ nu_tau)
DECAY   1000037     3.94751367E+00   # chi^+_2
#    BR                NDA      ID1      ID2
     4.49223173E-02    2     1000022        24   # BR(chi^+_2 -> chi^0_1 W^+)
     2.87922945E-01    2     1000023        24   # BR(chi^+_2 -> chi^0_2 W^+)
     2.11011427E-01    2     1000025        24   # BR(chi^+_2 -> chi^0_3 W^+)
     2.45405788E-01    2     1000024        23   # BR(chi^+_2 -> chi^+_1 Z)
     2.09957556E-01    2     1000024        25   # BR(chi^+_2 -> chi^+_1 h^0)
#    BR                NDA      ID1      ID2       ID3
     1.23174062E-04    3     1000022        -5         6   # BR(chi^+_2 -> chi^0_1 b_bar t)
     4.15290409E-04    3     1000023        -5         6   # BR(chi^+_2 -> chi^0_2 b_bar t)
     2.41269863E-04    3     1000025        -5         6   # BR(chi^+_2 -> chi^0_3 b_bar t)
DECAY   1000022     0.00000000E+00   # chi^0_1
DECAY   1000023     7.71190730E-04   # chi^0_2
#    BR                NDA      ID1      ID2
     9.08152256E-03    2     1000022        22   # BR(chi^0_2 -> chi^0_1 photon)
#    BR                NDA      ID1      ID2       ID3
     1.18193427E-01    3     1000022         2        -2   # BR(chi^0_2 -> chi^0_1 u u_bar)
     1.17538553E-01    3     1000022         4        -4   # BR(chi^0_2 -> chi^0_1 c c_bar)
     1.51546802E-01    3     1000022         1        -1   # BR(chi^0_2 -> chi^0_1 d d_bar)
     1.51542831E-01    3     1000022         3        -3   # BR(chi^0_2 -> chi^0_1 s s_bar)
     1.44148622E-01    3     1000022         5        -5   # BR(chi^0_2 -> chi^0_1 b b_bar)
     3.41997181E-02    3     1000022        11       -11   # BR(chi^0_2 -> chi^0_1 e^- e^+)
     3.41982776E-02    3     1000022        13       -13   # BR(chi^0_2 -> chi^0_1 mu^- mu^+)
     3.37953593E-02    3     1000022        15       -15   # BR(chi^0_2 -> chi^0_1 tau^- tau^+)
     2.02664384E-01    3     1000022        12       -12   # BR(chi^0_2 -> chi^0_1 nu_e nu_bar_e)
     5.29086349E-04    3     1000024         1        -2   # BR(chi^0_2 -> chi^+_1 d u_bar)
     5.29086349E-04    3    -1000024        -1         2   # BR(chi^0_2 -> chi^-_1 d_bar u)
     5.03332138E-04    3     1000024         3        -4   # BR(chi^0_2 -> chi^+_1 s c_bar)
     5.03332138E-04    3    -1000024        -3         4   # BR(chi^0_2 -> chi^-_1 s_bar c)
     1.76362320E-04    3     1000024        11       -12   # BR(chi^0_2 -> chi^+_1 e^- nu_bar_e)
     1.76362320E-04    3    -1000024       -11        12   # BR(chi^0_2 -> chi^-_1 e^+ nu_e)
     1.76300909E-04    3     1000024        13       -14   # BR(chi^0_2 -> chi^+_1 mu^- nu_bar_mu)
     1.76300909E-04    3    -1000024       -13        14   # BR(chi^0_2 -> chi^-_1 mu^+ nu_mu)
     1.60170079E-04    3     1000024        15       -16   # BR(chi^0_2 -> chi^+_1 tau^- nu_bar_tau)
     1.60170079E-04    3    -1000024       -15        16   # BR(chi^0_2 -> chi^-_1 tau^+ nu_tau)
DECAY   1000025     9.44121895E-06   # chi^0_3
#    BR                NDA      ID1      ID2
     9.42123468E-03    2     1000022        22   # BR(chi^0_3 -> chi^0_1 photon)
     1.42319961E-03    2     1000023        22   # BR(chi^0_3 -> chi^0_2 photon)
#    BR                NDA      ID1      ID2       ID3
     8.13989325E-02    3     1000022         2        -2   # BR(chi^0_3 -> chi^0_1 u u_bar)
     8.10467311E-02    3     1000022         4        -4   # BR(chi^0_3 -> chi^0_1 c c_bar)
     1.04337549E-01    3     1000022         1        -1   # BR(chi^0_3 -> chi^0_1 d d_bar)
     1.04335443E-01    3     1000022         3        -3   # BR(chi^0_3 -> chi^0_1 s s_bar)
     1.01133191E-01    3     1000022         5        -5   # BR(chi^0_3 -> chi^0_1 b b_bar)
     2.35101135E-02    3     1000022        11       -11   # BR(chi^0_3 -> chi^0_1 e^- e^+)
     2.35094314E-02    3     1000022        13       -13   # BR(chi^0_3 -> chi^0_1 mu^- mu^+)
     2.33176162E-02    3     1000022        15       -15   # BR(chi^0_3 -> chi^0_1 tau^- tau^+)
     1.39552120E-01    3     1000022        12       -12   # BR(chi^0_3 -> chi^0_1 nu_e nu_bar_e)
     1.18350634E-04    3     1000023        12       -12   # BR(chi^0_3 -> chi^0_2 nu_e nu_bar_e)
     5.18288677E-02    3     1000024         1        -2   # BR(chi^0_3 -> chi^+_1 d u_bar)
     5.18288677E-02    3    -1000024        -1         2   # BR(chi^0_3 -> chi^-_1 d_bar u)
     5.04963183E-02    3     1000024         3        -4   # BR(chi^0_3 -> chi^+_1 s c_bar)
     5.04963183E-02    3    -1000024        -3         4   # BR(chi^0_3 -> chi^-_1 s_bar c)
     1.72761888E-02    3     1000024        11       -12   # BR(chi^0_3 -> chi^+_1 e^- nu_bar_e)
     1.72761888E-02    3    -1000024       -11        12   # BR(chi^0_3 -> chi^-_1 e^+ nu_e)
     1.72759229E-02    3     1000024        13       -14   # BR(chi^0_3 -> chi^+_1 mu^- nu_bar_mu)
     1.72759229E-02    3    -1000024       -13        14   # BR(chi^0_3 -> chi^-_1 mu^+ nu_mu)
     1.64143398E-02    3     1000024        15       -16   # BR(chi^0_3 -> chi^+_1 tau^- nu_bar_tau)
     1.64143398E-02    3    -1000024       -15        16   # BR(chi^0_3 -> chi^-_1 tau^+ nu_tau)
DECAY   1000035     4.80428250E+00   # chi^0_4
#    BR                NDA      ID1      ID2
     2.14503129E-01    2     1000024       -24   # BR(chi^0_4 -> chi^+_1 W^-)
     2.14503129E-01    2    -1000024        24   # BR(chi^0_4 -> chi^-_1 W^+)
     7.00851351E-03    2     1000022        23   # BR(chi^0_4 -> chi^0_1 Z)
     2.12828439E-01    2     1000023        23   # BR(chi^0_4 -> chi^0_2 Z)
     2.07972098E-02    2     1000025        23   # BR(chi^0_4 -> chi^0_3 Z)
     2.44571692E-02    2     1000022        25   # BR(chi^0_4 -> chi^0_1 h^0)
     1.83070957E-01    2     1000023        25   # BR(chi^0_4 -> chi^0_2 h^0)
     1.22138661E-01    2     1000025        25   # BR(chi^0_4 -> chi^0_3 h^0)
#    BR                NDA      ID1      ID2       ID3
     3.35105638E-04    3     1000024         5        -6   # BR(chi^0_4 -> chi^+_1 b t_bar)
     3.35105638E-04    3    -1000024        -5         6   # BR(chi^0_4 -> chi^-_1 b_bar t)
DECAY   1000021     3.09861056E-01   # ~g
#    BR                NDA      ID1      ID2
     4.84239489E-04    2     1000022        21   # BR(~g -> chi^0_1 g)
     1.97228651E-03    2     1000023        21   # BR(~g -> chi^0_2 g)
     1.62971002E-03    2     1000025        21   # BR(~g -> chi^0_3 g)
     1.21447643E-04    2     1000035        21   # BR(~g -> chi^0_4 g)
#    BR                NDA      ID1      ID2       ID3
     1.16312240E-04    3     1000022         2        -2   # BR(~g -> chi^0_1 u u_bar)
     1.16322614E-04    3     1000022         4        -4   # BR(~g -> chi^0_1 c c_bar)
     5.64022975E-02    3     1000022         6        -6   # BR(~g -> chi^0_1 t t_bar)
     2.27247535E-02    3     1000022         5        -5   # BR(~g -> chi^0_1 b b_bar)
     1.74327743E-01    3     1000023         6        -6   # BR(~g -> chi^0_2 t t_bar)
     4.36034314E-02    3     1000023         5        -5   # BR(~g -> chi^0_2 b b_bar)
     1.26448298E-01    3     1000025         6        -6   # BR(~g -> chi^0_3 t t_bar)
     2.78941409E-02    3     1000025         5        -5   # BR(~g -> chi^0_3 b b_bar)
     3.06968767E-04    3     1000035         2        -2   # BR(~g -> chi^0_4 u u_bar)
     3.06970656E-04    3     1000035         4        -4   # BR(~g -> chi^0_4 c c_bar)
     2.63968955E-02    3     1000035         6        -6   # BR(~g -> chi^0_4 t t_bar)
     3.12659031E-04    3     1000035         1        -1   # BR(~g -> chi^0_4 d d_bar)
     3.12661857E-04    3     1000035         3        -3   # BR(~g -> chi^0_4 s s_bar)
     1.43375021E-02    3     1000035         5        -5   # BR(~g -> chi^0_4 b b_bar)
     2.08665352E-01    3     1000024         5        -6   # BR(~g -> chi^+_1 b t_bar)
     2.08665352E-01    3    -1000024        -5         6   # BR(~g -> chi^-_1 b_bar t)
     6.19836336E-04    3     1000037         1        -2   # BR(~g -> chi^+_2 d u_bar)
     6.19836336E-04    3    -1000037        -1         2   # BR(~g -> chi^-_2 d_bar u)
     6.19841057E-04    3     1000037         3        -4   # BR(~g -> chi^+_2 s c_bar)
     6.19841057E-04    3    -1000037        -3         4   # BR(~g -> chi^-_2 s_bar c)
     4.09726548E-02    3     1000037         5        -6   # BR(~g -> chi^+_2 b t_bar)
     4.09726548E-02    3    -1000037        -5         6   # BR(~g -> chi^-_2 b_bar t)
DECAY        25     3.69719974E-03   # Gamma(h0)
     2.51179843E-03   2        22        22   # BR(h0 -> photon photon)
     1.66754898E-03   2        22        23   # BR(h0 -> photon Z)
     3.16241239E-02   2        23        23   # BR(h0 -> Z Z)
     2.57712651E-01   2       -24        24   # BR(h0 -> W W)
     7.73955623E-02   2        21        21   # BR(h0 -> gluon gluon)
     4.85466482E-09   2       -11        11   # BR(h0 -> Electron electron)
     2.15944539E-04   2       -13        13   # BR(h0 -> Muon muon)
     6.22654719E-02   2       -15        15   # BR(h0 -> Tau tau)
     1.37504405E-07   2        -2         2   # BR(h0 -> Up up)
     2.66864864E-02   2        -4         4   # BR(h0 -> Charm charm)
     5.61384441E-07   2        -1         1   # BR(h0 -> Down down)
     2.03039495E-04   2        -3         3   # BR(h0 -> Strange strange)
     5.39716669E-01   2        -5         5   # BR(h0 -> Bottom bottom)
DECAY        35     7.61458193E+01   # Gamma(HH)
     5.81465779E-08   2        22        22   # BR(HH -> photon photon)
     1.42673015E-07   2        22        23   # BR(HH -> photon Z)
     3.54077383E-07   2        23        23   # BR(HH -> Z Z)
     1.24377516E-07   2       -24        24   # BR(HH -> W W)
     6.33206754E-06   2        21        21   # BR(HH -> gluon gluon)
     6.71775160E-09   2       -11        11   # BR(HH -> Electron electron)
     2.99095225E-04   2       -13        13   # BR(HH -> Muon muon)
     8.63807933E-02   2       -15        15   # BR(HH -> Tau tau)
     6.19779618E-14   2        -2         2   # BR(HH -> Up up)
     1.20226494E-08   2        -4         4   # BR(HH -> Charm charm)
     9.12859108E-04   2        -6         6   # BR(HH -> Top top)
     5.04645744E-07   2        -1         1   # BR(HH -> Down down)
     1.82525450E-04   2        -3         3   # BR(HH -> Strange strange)
     4.76519084E-01   2        -5         5   # BR(HH -> Bottom bottom)
     2.26066457E-02   2  -1000024   1000024   # BR(HH -> Chargino1 chargino1)
     1.18696802E-01   2  -1000024   1000037   # BR(HH -> Chargino1 chargino2)
     1.18696802E-01   2  -1000037   1000024   # BR(HH -> Chargino2 chargino1)
     4.06803875E-03   2  -1000037   1000037   # BR(HH -> Chargino2 chargino2)
     2.08542188E-02   2   1000022   1000022   # BR(HH -> neutralino1 neutralino1)
     1.06415565E-02   2   1000022   1000023   # BR(HH -> neutralino1 neutralino2)
     2.34717809E-03   2   1000022   1000025   # BR(HH -> neutralino1 neutralino3)
     3.13555723E-02   2   1000022   1000035   # BR(HH -> neutralino1 neutralino4)
     1.64631903E-03   2   1000023   1000023   # BR(HH -> neutralino2 neutralino2)
     5.29464699E-03   2   1000023   1000025   # BR(HH -> neutralino2 neutralino3)
     6.29648950E-02   2   1000023   1000035   # BR(HH -> neutralino2 neutralino4)
     2.66956417E-03   2   1000025   1000025   # BR(HH -> neutralino3 neutralino3)
     3.16950636E-02   2   1000025   1000035   # BR(HH -> neutralino3 neutralino4)
     2.15816757E-03   2   1000035   1000035   # BR(HH -> neutralino4 neutralino4)
     2.63827032E-06   2        25        25   # BR(HH -> h0 h0)
DECAY        36     7.37576739E+01   # Gamma(A0)
     4.15785101E-09   2        22        22   # BR(A0 -> photon photon)
     5.78442217E-08   2        22        23   # BR(A0 -> photon Z)
     1.35971268E-05   2        21        21   # BR(A0 -> gluon gluon)
     6.54811390E-09   2       -11        11   # BR(A0 -> Electron electron)
     2.91543126E-04   2       -13        13   # BR(A0 -> Muon muon)
     8.41998612E-02   2       -15        15   # BR(A0 -> Tau tau)
     5.81863874E-14   2        -2         2   # BR(A0 -> Up up)
     1.12864891E-08   2        -4         4   # BR(A0 -> Charm charm)
     8.73264522E-04   2        -6         6   # BR(A0 -> Top top)
     4.91883450E-07   2        -1         1   # BR(A0 -> Down down)
     1.77910161E-04   2        -3         3   # BR(A0 -> Strange strange)
     4.64477399E-01   2        -5         5   # BR(A0 -> Bottom bottom)
     2.29467759E-02   2  -1000024   1000024   # BR(A0 -> Chargino1 chargino1)
     1.22973108E-01   2  -1000024   1000037   # BR(A0 -> Chargino1 chargino2)
     1.22973108E-01   2  -1000037   1000024   # BR(A0 -> Chargino2 chargino1)
     3.82586189E-03   2  -1000037   1000037   # BR(A0 -> Chargino2 chargino2)
     2.01342083E-02   2   1000022   1000022   # BR(A0 -> neutralino1 neutralino1)
     1.24854877E-02   2   1000022   1000023   # BR(A0 -> neutralino1 neutralino2)
     2.16979650E-03   2   1000022   1000025   # BR(A0 -> neutralino1 neutralino3)
     3.18389534E-02   2   1000022   1000035   # BR(A0 -> neutralino1 neutralino4)
     1.96971223E-03   2   1000023   1000023   # BR(A0 -> neutralino2 neutralino2)
     5.53518127E-03   2   1000023   1000025   # BR(A0 -> neutralino2 neutralino3)
     6.72508103E-02   2   1000023   1000035   # BR(A0 -> neutralino2 neutralino4)
     2.54692546E-03   2   1000025   1000025   # BR(A0 -> neutralino3 neutralino3)
     3.12696155E-02   2   1000025   1000035   # BR(A0 -> neutralino3 neutralino4)
     2.04575514E-03   2   1000035   1000035   # BR(A0 -> neutralino4 neutralino4)
     5.52951850E-07   2        23        25   # BR(A0 -> Z h0)
     7.94129208E-39   2        25        25   # BR(A0 -> h0 h0)
DECAY        37     7.98687768E+01   # Gamma(Hp)
     7.47227257E-09   2       -11        12   # BR(Hp -> Electron nu_e)
     3.19462990E-04   2       -13        14   # BR(Hp -> Muon nu_mu)
     9.03622837E-02   2       -15        16   # BR(Hp -> Tau nu_tau)
     4.86034866E-07   2        -1         2   # BR(Hp -> Down up)
     8.19328537E-06   2        -3         2   # BR(Hp -> Strange up)
     5.21584376E-06   2        -5         2   # BR(Hp -> Bottom up)
     2.32633211E-08   2        -1         4   # BR(Hp -> Down charm)
     1.75166900E-04   2        -3         4   # BR(Hp -> Strange charm)
     7.30404694E-04   2        -5         4   # BR(Hp -> Bottom charm)
     6.49291548E-08   2        -1         6   # BR(Hp -> Down top)
     1.67423889E-06   2        -3         6   # BR(Hp -> Strange top)
     4.93234638E-01   2        -5         6   # BR(Hp -> Bottom top)
     1.69807410E-02   2   1000022   1000024   # BR(Hp -> neutralino1 chargino1)
     6.49349311E-02   2   1000022   1000037   # BR(Hp -> neutralino1 chargino2)
     3.96184637E-03   2   1000023   1000024   # BR(Hp -> neutralino2 chargino1)
     1.17208713E-01   2   1000023   1000037   # BR(Hp -> neutralino2 chargino2)
     2.75453179E-02   2   1000024   1000025   # BR(Hp -> chargino1 neutralino3)
     6.71916965E-02   2   1000025   1000037   # BR(Hp -> neutralino3 chargino2)
     1.17336637E-01   2   1000024   1000035   # BR(Hp -> chargino1 neutralino4)
     1.98357560E-06   2   1000035   1000037   # BR(Hp -> neutralino4 chargino2)
     5.12056971E-07   2        24        25   # BR(Hp -> W h0)
     1.86539602E-12   2        24        35   # BR(Hp -> W HH)
     2.90580009E-13   2        24        36   # BR(Hp -> W A0)
DECAY         6     2.43000000E+00   # top
#    BR                NDA      ID1      ID2
     1.00000000E+00    2           5        24   # BR(t -> b W)
Block HiggsBoundsInputHiggsCouplingsFermions
# ScalarNormEffCoupSq PseudoSNormEffCoupSq NP IP1 IP2 IP2
    9.46338976E-01    0.00000000E+00        3  25   5   5  # h0-b-b eff. coupling^2, normalised to SM
    1.26569608E+03    0.00000000E+00        3  35   5   5  # H0-b-b eff. coupling^2, normalised to SM
    0.00000000E+00    1.26564242E+03        3  36   5   5  # A0-b-b eff. coupling^2, normalised to SM
#
    1.00004240E+00    0.00000000E+00        3  25   6   6  # h0-t-t eff. coupling^2, normalised to SM
    7.47714332E-04    0.00000000E+00        3  35   6   6  # H0-t-t eff. coupling^2, normalised to SM
    0.00000000E+00    7.90112582E-04        3  36   6   6  # A0-t-t eff. coupling^2, normalised to SM
#
    9.46338976E-01    0.00000000E+00        3  25  15  15  # h0-tau-tau eff. coupling^2, normalised to SM
    1.26569608E+03    0.00000000E+00        3  35  15  15  # H0-tau-tau eff. coupling^2, normalised to SM
    0.00000000E+00    1.26564242E+03        3  36  15  15  # A0-tau-tau eff. coupling^2, normalised to SM
#
Block HiggsBoundsInputHiggsCouplingsBosons
    9.99999415E-01        3  25  24  24  # h0-W-W eff. coupling^2, normalised to SM
    5.84563424E-07        3  35  24  24  # H0-W-W eff. coupling^2, normalised to SM
    0.00000000E+00        3  36  24  24  # A0-W-W eff. coupling^2, normalised to SM
#
    9.99999415E-01        3  25  23  23  # h0-Z-Z eff. coupling^2, normalised to SM
    5.84563424E-07        3  35  23  23  # H0-Z-Z eff. coupling^2, normalised to SM
    0.00000000E+00        3  36  23  23  # A0-Z-Z eff. coupling^2, normalised to SM
#
    1.26728773E+00        3  25  21  21  # h0-g-g eff. coupling^2, normalised to SM
    5.81486113E-03        3  35  21  21  # H0-g-g eff. coupling^2, normalised to SM
    1.16691071E-01        3  36  21  21  # A0-g-g eff. coupling^2, normalised to SM
#
    0.00000000E+00        3  25  25  23  # h0-h0-Z eff. coupling^2, normalised to SM
    0.00000000E+00        3  35  25  23  # H0-h0-Z eff. coupling^2, normalised to SM
    5.84563424E-07        3  36  25  23  # A0-h0-Z eff. coupling^2, normalised to SM
    0.00000000E+00        3  35  35  23  # H0-H0-Z eff. coupling^2, normalised to SM
    9.99999415E-01        3  36  35  23  # A0-H0-Z eff. coupling^2, normalised to SM
    0.00000000E+00        3  36  36  23  # A0-A0-Z eff. coupling^2, normalised to SM
#
    0.00000000E+00        4  25  21  21  23  # h0-g-g-Z eff. coupling^2, normalised to SM
    0.00000000E+00        4  35  21  21  23  # H0-g-g-Z eff. coupling^2, normalised to SM
    0.00000000E+00        4  36  21  21  23  # A0-g-g-Z eff. coupling^2, normalised to SM
Block SPhenoLowEnergy  # low energy observables
    1    3.38418109E-04   # BR(b -> s gamma)
    2    1.58825864E-06   # BR(b -> s mu+ mu-)
    3    3.52487227E-05   # BR(b -> s nu nu)
    4    1.85903500E-15   # BR(Bd -> e+ e-)
    5    7.94160903E-11   # BR(Bd -> mu+ mu-)
    6    1.66382693E-08   # BR(Bd -> tau+ tau-)
    7    6.29300447E-14   # BR(Bs -> e+ e-)
    8    2.68837754E-09   # BR(Bs -> mu+ mu-)
    9    5.70707253E-07   # BR(Bs -> tau+ tau-)
   10    9.57000116E-05   # BR(B_u -> tau nu)
   11    9.88544481E-01   # BR(B_u -> tau nu)/BR(B_u -> tau nu)_SM
   12    5.42073910E-01   # |Delta(M_Bd)| [ps^-1] 
   13    1.93614064E+01   # |Delta(M_Bs)| [ps^-1] 
   14    0.00000000E+00   # neutron EDM according to the chiral quark model
   15    0.00000000E+00   # neutron EDM according to the relativistic quark-parton model
   16    2.15779965E-03   # epsilon_K
   17    2.28166426E-15   # Delta(M_K)
   18    2.47959342E-11   # BR(K^0 -> pi^0 nu nu)
   19    8.28956317E-11   # BR(K^+ -> pi^+ nu nu)
   20   -2.90267138E-16   # Delta(g-2)_electron/2
   21   -1.24099246E-11   # Delta(g-2)_muon/2
   22   -3.51793771E-09   # Delta(g-2)_tau/2
   23    0.00000000E+00   # electric dipole moment of the electron
   24    0.00000000E+00   # electric dipole moment of the muon
   25    0.00000000E+00   # electric dipole moment of the tau
   26    0.00000000E+00   # Br(mu -> e gamma)
   27    0.00000000E+00   # Br(tau -> e gamma)
   28    0.00000000E+00   # Br(tau -> mu gamma)
   29    0.00000000E+00   # Br(mu -> 3 e)
   30    0.00000000E+00   # Br(tau -> 3 e)
   31    0.00000000E+00   # Br(tau -> 3 mu)
   39    6.64107137E-05   # Delta(rho_parameter)
   40    0.00000000E+00   # BR(Z -> e mu)
   41    0.00000000E+00   # BR(Z -> e tau)
   42    0.00000000E+00   # BR(Z -> mu tau)
Block FWCOEF Q=  1.60000000E+02  # Wilson coefficients at scale Q
#    id        order  M        value         comment
     0305 4422   00   0    -1.88819110E-01   # C7
     0305 4422   00   2    -2.09277506E-01   # C7
     0305 4322   00   2    -2.51076458E-04   # C7'
     0305 6421   00   0    -9.52278348E-02   # C8
     0305 6421   00   2    -1.10621237E-01   # C8
     0305 6321   00   2    -2.27111109E-04   # C8'
 03051111 4133   00   0     1.62635664E+00   # C9 e+e-
 03051111 4133   00   2     1.62665455E+00   # C9 e+e-
 03051111 4233   00   2     2.87393648E-04   # C9' e+e-
 03051111 4137   00   0    -4.44904874E+00   # C10 e+e-
 03051111 4137   00   2    -4.44707130E+00   # C10 e+e-
 03051111 4237   00   2    -2.12738512E-03   # C10' e+e-
 03051313 4133   00   0     1.62635664E+00   # C9 mu+mu-
 03051313 4133   00   2     1.62665441E+00   # C9 mu+mu-
 03051313 4233   00   2     2.87393263E-04   # C9' mu+mu-
 03051313 4137   00   0    -4.44904874E+00   # C10 mu+mu-
 03051313 4137   00   2    -4.44707144E+00   # C10 mu+mu-
 03051313 4237   00   2    -2.12738500E-03   # C10' mu+mu-
 03051212 4137   00   0     1.50535012E+00   # C11 nu_1 nu_1
 03051212 4137   00   2     1.50492407E+00   # C11 nu_1 nu_1
 03051212 4237   00   2     4.60054324E-04   # C11' nu_1 nu_1
 03051414 4137   00   0     1.50535012E+00   # C11 nu_2 nu_2
 03051414 4137   00   2     1.50492407E+00   # C11 nu_2 nu_2
 03051414 4237   00   2     4.60054392E-04   # C11' nu_2 nu_2
 03051616 4137   00   0     1.50535012E+00   # C11 nu_3 nu_3
 03051616 4137   00   2     1.50492407E+00   # C11 nu_3 nu_3
 03051616 4237   00   2     4.60073634E-04   # C11' nu_3 nu_3
Block IMFWCOEF Q=  1.60000000E+02  # Im(Wilson coefficients) at scale Q
#    id        order  M        value         comment
     0305 4422   00   0     3.85812660E-07   # C7
     0305 4422   00   2    -9.29496228E-06   # C7
     0305 4322   00   2    -1.62751156E-06   # C7'
     0305 6421   00   0     3.30474059E-07   # C8
     0305 6421   00   2     1.12008517E-05   # C8
     0305 6321   00   2    -3.94584951E-07   # C8'
 03051111 4133   00   2     5.24305011E-07   # C9 e+e-
 03051111 4233   00   2     5.86678253E-06   # C9' e+e-
 03051111 4137   00   2     9.12101440E-07   # C10 e+e-
 03051111 4237   00   2    -4.34321612E-05   # C10' e+e-
 03051313 4133   00   2     5.24301892E-07   # C9 mu+mu-
 03051313 4233   00   2     5.86678131E-06   # C9' mu+mu-
 03051313 4137   00   2     9.12104474E-07   # C10 mu+mu-
 03051313 4237   00   2    -4.34321649E-05   # C10' mu+mu-
 03051212 4137   00   2    -1.69089112E-07   # C11 nu_1 nu_1
 03051212 4237   00   2     9.39235578E-06   # C11' nu_1 nu_1
 03051414 4137   00   2    -1.69088958E-07   # C11 nu_2 nu_2
 03051414 4237   00   2     9.39235578E-06   # C11' nu_2 nu_2
 03051616 4137   00   2    -1.69045719E-07   # C11 nu_3 nu_3
 03051616 4237   00   2     9.39235576E-06   # C11' nu_3 nu_3
