# SUSY Les Houches Accord 2 - MSSM spectrum + Decays
# SPheno v4.0.5be
# W. Porod, Comput. Phys. Commun. 153 (2003) 275-315, hep-ph/0301101;
# W. Porod, F.~Staub, Comput. Phys. Commun. 183 (2012) 2458
#                     arXiv:1104.1573 [hep-ph] 
# in case of problems send email to porod@physik.uni-wuerzburg.de
# Created: 07.09.2021,  16:30
Block SPINFO         # Program information
     1   SPheno      # spectrum calculator
     2   v4.0.5be    # version number
#
Block SPhenoINFO     # SPheno specific information
    1      2         # using 2-loop RGEs
    2      2         # using pole masses for boundary conditions at mZ
Block MODSEL  # Model selection
    1    0    # general MSSM
Block MINPAR  # Input parameters
    3    5.17152786E+01  # tanb at m_Z    
    4   -1.00000000E+00  # Sign(mu)
Block EXTPAR  # non-universal input parameters
    0    4.02374523E+03  # scale for input parameters
    1   -2.06982049E+02  # M_1
    2    1.76390691E+03  # M_2
    3    2.18934573E+03  # M_3
   11   -6.99573246E+03  # A_t
   12    1.31782826E+02  # A_b
   13    1.61934350E+03  # A_tau
   23   -2.01981762E+02  # mu
   25    5.12167403E+01  # tan(beta)
   26    3.46955951E+03  # m_A, pole mass
   31    1.00000000E+04  # M_L11
   32    1.00000000E+04  # M_L22
   33    1.00000000E+04  # M_L33
   34    1.00000000E+04  # M_E11
   35    1.00000000E+04  # M_E22
   36    1.00000000E+04  # M_E33
   41    1.00000000E+04  # M_Q11
   42    1.00000000E+04  # M_Q22
   43    3.32311720E+03  # M_Q33
   44    1.00000000E+04  # M_U11
   45    1.00000000E+04  # M_U22
   46    4.94596868E+03  # M_U33
   47    1.00000000E+04  # M_D11
   48    1.00000000E+04  # M_D22
   49    2.61432888E+03  # M_D33
Block SMINPUTS  # SM parameters
         1     1.27908970E+02  # alpha_em^-1(MZ)^MSbar
         2     1.16637870E-05  # G_mu [GeV^-2]
         3     1.18400000E-01  # alpha_s(MZ)^MSbar
         4     9.11876000E+01  # m_Z(pole)
         5     4.18000000E+00  # m_b(m_b), MSbar
         6     1.73200000E+02  # m_t(pole)
         7     1.77700000E+00  # m_tau(pole)
         8     0.00000000E+00  # m_nu_3
        11     5.10998930E-04  # m_e(pole)
        12     0.00000000E+00  # m_nu_1
        13     1.05658372E-01  # m_muon(pole)
        14     0.00000000E+00  # m_nu_2
        21     5.00000000E-03  # m_d(2 GeV), MSbar
        22     2.50000000E-03  # m_u(2 GeV), MSbar
        23     9.50000000E-02  # m_s(2 GeV), MSbar
        24     1.27000000E+00  # m_c(m_c), MSbar
Block gauge Q=  4.02374523E+03  # (SUSY scale)
   1    3.55362975E-01  # g'(Q)^DRbar
   2    6.65198874E-01  # g(Q)^DRbar
   3    1.21977796E+00  # g3(Q)^DRbar
Block Yu Q=  4.02374523E+03  # (SUSY scale)
  1  1     8.38597013E-06   # Y_u(Q)^DRbar
  2  2     4.26007283E-03   # Y_c(Q)^DRbar
  3  3     1.01309255E+00   # Y_t(Q)^DRbar
Block Yd Q=  4.02374523E+03  # (SUSY scale)
  1  1     8.63068950E-04   # Y_d(Q)^DRbar
  2  2     1.63983101E-02   # Y_s(Q)^DRbar
  3  3     8.55893952E-01   # Y_b(Q)^DRbar
Block Ye Q=  4.02374523E+03  # (SUSY scale)
  1  1     1.50611843E-04   # Y_e(Q)^DRbar
  2  2     3.11417524E-02   # Y_mu(Q)^DRbar
  3  3     5.23753044E-01   # Y_tau(Q)^DRbar
Block Au Q=  4.02374523E+03  # (SUSY scale)
  1  1     0.00000000E+00   # A_u(Q)^DRbar
  2  2     0.00000000E+00   # A_c(Q)^DRbar
  3  3    -6.99573858E+03   # A_t(Q)^DRbar
Block Ad Q=  4.02374523E+03  # (SUSY scale)
  1  1     0.00000000E+00   # A_d(Q)^DRbar
  2  2     0.00000000E+00   # A_s(Q)^DRbar
  3  3     1.31782803E+02   # A_b(Q)^DRbar
Block Ae Q=  4.02374523E+03  # (SUSY scale)
  1  1     0.00000000E+00   # A_e(Q)^DRbar
  2  2     0.00000000E+00   # A_mu(Q)^DRbar
  3  3     1.61934294E+03   # A_tau(Q)^DRbar
Block MSOFT Q=  4.02374523E+03  # soft SUSY breaking masses at Q
   1   -2.06982049E+02  # M_1
   2    1.76390691E+03  # M_2
   3    2.18934573E+03  # M_3
  21    1.21675965E+07  # M^2_(H,d)
  22    2.07422407E+05  # M^2_(H,u)
  31    1.00000000E+04  # M_(L,11)
  32    1.00000000E+04  # M_(L,22)
  33    1.00000000E+04  # M_(L,33)
  34    1.00000000E+04  # M_(E,11)
  35    1.00000000E+04  # M_(E,22)
  36    1.00000000E+04  # M_(E,33)
  41    1.00000000E+04  # M_(Q,11)
  42    1.00000000E+04  # M_(Q,22)
  43    3.32311720E+03  # M_(Q,33)
  44    1.00000000E+04  # M_(U,11)
  45    1.00000000E+04  # M_(U,22)
  46    4.94596868E+03  # M_(U,33)
  47    1.00000000E+04  # M_(D,11)
  48    1.00000000E+04  # M_(D,22)
  49    2.61432888E+03  # M_(D,33)
Block MASS  # Mass spectrum
#   PDG code      mass          particle
         6     1.73200000E+02  # m_t(pole)
        23     9.11876000E+01  # m_Z(pole)
        24     8.04299946E+01  # W+
        15     1.77700000E+00  # m_tau(pole)
        25     1.27730104E+02  # h0
        35     3.46814548E+03  # H0
        36     3.46955951E+03  # A0
        37     3.46974020E+03  # H+
   1000001     1.01160883E+04  # ~d_L
   2000001     1.00921367E+04  # ~d_R
   1000002     1.01157293E+04  # ~u_L
   2000002     1.00949186E+04  # ~u_R
   1000003     1.01160913E+04  # ~s_L
   2000003     1.00921420E+04  # ~s_R
   1000004     1.01157323E+04  # ~c_L
   2000004     1.00949191E+04  # ~c_R
   1000005     2.66321656E+03  # ~b_1
   2000005     3.33822442E+03  # ~b_2
   1000006     3.32898473E+03  # ~t_1
   2000006     4.86350253E+03  # ~t_2
   1000011     1.00202383E+04  # ~e_L-
   2000011     1.00093290E+04  # ~e_R-
   1000012     1.00194761E+04  # ~nu_eL
   1000013     1.00202526E+04  # ~mu_L-
   2000013     1.00093561E+04  # ~mu_R-
   1000014     1.00194901E+04  # ~nu_muL
   1000015     1.00172299E+04  # ~tau_1-
   2000015     1.00245207E+04  # ~tau_2-
   1000016     1.00236013E+04  # ~nu_tauL
   1000021     2.62194808E+03  # ~g
   1000022     1.82968017E+02  # ~chi_10
   1000023     2.18648224E+02  # ~chi_20
   1000025     2.47320810E+02  # ~chi_30
   1000035     1.87292970E+03  # ~chi_40
   1000024     2.18263187E+02  # ~chi_1+
   1000037     1.87289771E+03  # ~chi_2+
# Higgs mixing
Block alpha # Effective Higgs mixing angle
          -1.93715440E-02   # alpha
Block Hmix Q=  4.02374523E+03  # Higgs mixing parameters
   1   -2.01981762E+02  # mu
   2    5.12167403E+01  # tan[beta](Q)
   3    2.42903451E+02  # v(Q)
   4    1.20378432E+07  # m^2_A(Q)
Block stopmix # stop mixing matrix
   1  1     9.97038726E-01   # Re[R_st(1,1)]
   1  2     7.69010993E-02   # Re[R_st(1,2)]
   2  1    -7.69010993E-02   # Re[R_st(2,1)]
   2  2     9.97038726E-01   # Re[R_st(2,2)]
Block sbotmix # sbottom mixing matrix
   1  1    -4.99150537E-03   # Re[R_sb(1,1)]
   1  2     9.99987542E-01   # Re[R_sb(1,2)]
   2  1    -9.99987542E-01   # Re[R_sb(2,1)]
   2  2    -4.99150537E-03   # Re[R_sb(2,2)]
Block staumix # stau mixing matrix
   1  1    -1.45042930E-01   # Re[R_sta(1,1)]
   1  2     9.89425363E-01   # Re[R_sta(1,2)]
   2  1    -9.89425363E-01   # Re[R_sta(2,1)]
   2  2    -1.45042930E-01   # Re[R_sta(2,2)]
Block Nmix # neutralino mixing matrix
   1  1    -7.56530014E-01   # Re[N(1,1)]
   1  2    -1.70328541E-02   # Re[N(1,2)]
   1  3     4.99632630E-01   # Re[N(1,3)]
   1  4    -4.21591573E-01   # Re[N(1,4)]
   2  1    -7.14231156E-02   # Re[N(2,1)]
   2  2    -3.36572774E-02   # Re[N(2,2)]
   2  3    -7.04460506E-01   # Re[N(2,3)]
   2  4    -7.05337736E-01   # Re[N(2,4)]
   3  1    -6.50046305E-01   # Re[N(3,1)]
   3  2     2.20813300E-02   # Re[N(3,2)]
   3  3    -5.04069476E-01   # Re[N(3,3)]
   3  4     5.68213146E-01   # Re[N(3,4)]
   4  1     9.36781259E-04   # Re[N(4,1)]
   4  2    -9.99044286E-01   # Re[N(4,2)]
   4  3     4.07342158E-03   # Re[N(4,3)]
   4  4     4.35091399E-02   # Re[N(4,4)]
Block Umix # chargino mixing matrix
   1  1    -5.76727909E-03   # Re[U(1,1)]
   1  2    -9.99983369E-01   # Re[U(1,2)]
   2  1     9.99983369E-01   # Re[U(2,1)]
   2  2    -5.76727909E-03   # Re[U(2,2)]
Block Vmix # chargino mixing matrix
   1  1    -6.15565103E-02   # Re[V(1,1)]
   1  2     9.98103600E-01   # Re[V(1,2)]
   2  1     9.98103600E-01   # Re[V(2,1)]
   2  2     6.15565103E-02   # Re[V(2,2)]
DECAY        23     2.49520000E+00   # Z
DECAY        24     2.08500000E+00   # W
DECAY   2000011     5.02478074E+01   # ~e^-_R
#    BR                NDA      ID1      ID2
     5.72472196E-01    2     1000022        11   # BR(~e^-_R -> chi^0_1 e^-)
     5.10104492E-03    2     1000023        11   # BR(~e^-_R -> chi^0_2 e^-)
     4.22425851E-01    2     1000025        11   # BR(~e^-_R -> chi^0_3 e^-)
DECAY   1000011     1.35814335E+02   # ~e^-_L
#    BR                NDA      ID1      ID2
     5.75699073E-02    2     1000022        11   # BR(~e^-_L -> chi^0_1 e^-)
     1.67313937E-03    2     1000023        11   # BR(~e^-_L -> chi^0_2 e^-)
     3.42982759E-02    2     1000025        11   # BR(~e^-_L -> chi^0_3 e^-)
     3.01565121E-01    2     1000035        11   # BR(~e^-_L -> chi^0_4 e^-)
     6.04871974E-01    2    -1000037        12   # BR(~e^-_L -> chi^-_2 nu_e)
#    BR                NDA      ID1      ID2       ID3
DECAY   2000013     5.06338022E+01   # ~mu^-_R
#    BR                NDA      ID1      ID2
     5.69061091E-01    2     1000022        13   # BR(~mu^-_R -> chi^0_1 mu^-)
     6.95307724E-03    2     1000023        13   # BR(~mu^-_R -> chi^0_2 mu^-)
     4.20174586E-01    2     1000025        13   # BR(~mu^-_R -> chi^0_3 mu^-)
     3.81025711E-03    2    -1000024        14   # BR(~mu^-_R -> chi^-_1 nu_mu)
DECAY   1000013     1.36007695E+02   # ~mu^-_L
#    BR                NDA      ID1      ID2
     5.78427355E-02    2     1000022        13   # BR(~mu^-_L -> chi^0_1 mu^-)
     2.37549108E-03    2     1000023        13   # BR(~mu^-_L -> chi^0_2 mu^-)
     3.46102895E-02    2     1000025        13   # BR(~mu^-_L -> chi^0_3 mu^-)
     3.01136906E-01    2     1000035        13   # BR(~mu^-_L -> chi^0_4 mu^-)
     6.04013027E-01    2    -1000037        14   # BR(~mu^-_L -> chi^-_2 nu_mu)
#    BR                NDA      ID1      ID2       ID3
DECAY   1000015     1.60181449E+02   # ~tau^-_1
#    BR                NDA      ID1      ID2
     2.79112853E-01    2     1000022        15   # BR(~tau^-_1 -> chi^0_1 tau^-)
     1.70526067E-01    2     1000023        15   # BR(~tau^-_1 -> chi^0_2 tau^-)
     2.00688934E-01    2     1000025        15   # BR(~tau^-_1 -> chi^0_3 tau^-)
     5.04917915E-03    2     1000035        15   # BR(~tau^-_1 -> chi^0_4 tau^-)
     3.34495313E-01    2    -1000024        16   # BR(~tau^-_1 -> chi^-_1 nu_tau)
     1.01276535E-02    2    -1000037        16   # BR(~tau^-_1 -> chi^-_2 nu_tau)
DECAY   2000015     1.89872341E+02   # ~tau^-_2
#    BR                NDA      ID1      ID2
     1.01044530E-01    2     1000022        15   # BR(~tau^-_2 -> chi^0_1 tau^-)
     1.44287158E-01    2     1000023        15   # BR(~tau^-_2 -> chi^0_2 tau^-)
     1.13313960E-01    2     1000025        15   # BR(~tau^-_2 -> chi^0_3 tau^-)
     2.11558722E-01    2     1000035        15   # BR(~tau^-_2 -> chi^0_4 tau^-)
     5.46548510E-03    2    -1000024        16   # BR(~tau^-_2 -> chi^-_1 nu_tau)
     4.24330145E-01    2    -1000037        16   # BR(~tau^-_2 -> chi^-_2 nu_tau)
#    BR                NDA      ID1      ID2       ID3
DECAY   1000012     1.35818400E+02   # ~nu_e
#    BR                NDA      ID1      ID2
     4.86288002E-02    2     1000022        12   # BR(~nu_e -> chi^0_1 nu_e)
     4.42420433E-02    2     1000025        12   # BR(~nu_e -> chi^0_3 nu_e)
     3.02134619E-01    2     1000035        12   # BR(~nu_e -> chi^0_4 nu_e)
     2.45844864E-03    2     1000024        11   # BR(~nu_e -> chi^+_1 e^-)
     6.02529525E-01    2     1000037        11   # BR(~nu_e -> chi^+_2 e^-)
#    BR                NDA      ID1      ID2       ID3
DECAY   1000014     1.36011740E+02   # ~nu_mu
#    BR                NDA      ID1      ID2
     4.85597426E-02    2     1000022        14   # BR(~nu_mu -> chi^0_1 nu_mu)
     4.41792155E-02    2     1000025        14   # BR(~nu_mu -> chi^0_3 nu_mu)
     3.01705619E-01    2     1000035        14   # BR(~nu_mu -> chi^0_4 nu_mu)
     3.87482913E-03    2     1000024        13   # BR(~nu_mu -> chi^+_1 mu^-)
     6.01674039E-01    2     1000037        13   # BR(~nu_mu -> chi^+_2 mu^-)
#    BR                NDA      ID1      ID2       ID3
DECAY   1000016     1.90532155E+02   # ~nu_tau
#    BR                NDA      ID1      ID2
     3.46787069E-02    2     1000022        16   # BR(~nu_tau -> chi^0_1 nu_tau)
     3.15503887E-02    2     1000025        16   # BR(~nu_tau -> chi^0_3 nu_tau)
     2.15474297E-01    2     1000035        16   # BR(~nu_tau -> chi^0_4 nu_tau)
     2.88575453E-01    2     1000024        15   # BR(~nu_tau -> chi^+_1 tau^-)
     4.29716473E-01    2     1000037        15   # BR(~nu_tau -> chi^+_2 tau^-)
#    BR                NDA      ID1      ID2       ID3
DECAY   2000001     6.98328422E+02   # ~d_R
#    BR                NDA      ID1      ID2
     4.61484591E-03    2     1000022         1   # BR(~d_R -> chi^0_1 d)
     3.40532929E-03    2     1000025         1   # BR(~d_R -> chi^0_3 d)
     9.91938378E-01    2     1000021         1   # BR(~d_R -> ~g d)
DECAY   1000001     8.20811949E+02   # ~d_L
#    BR                NDA      ID1      ID2
     7.50857391E-04    2     1000022         1   # BR(~d_L -> chi^0_1 d)
     1.02945262E-03    2     1000025         1   # BR(~d_L -> chi^0_3 d)
     5.05115497E-02    2     1000035         1   # BR(~d_L -> chi^0_4 d)
     1.01179562E-01    2    -1000037         2   # BR(~d_L -> chi^-_2 u)
     8.46501121E-01    2     1000021         1   # BR(~d_L -> ~g d)
DECAY   2000003     6.98436473E+02   # ~s_R
#    BR                NDA      ID1      ID2
     4.63336563E-03    2     1000022         3   # BR(~s_R -> chi^0_1 s)
     3.42436686E-03    2     1000025         3   # BR(~s_R -> chi^0_3 s)
     9.91785592E-01    2     1000021         3   # BR(~s_R -> ~g s)
DECAY   1000003     8.20869822E+02   # ~s_L
#    BR                NDA      ID1      ID2
     7.67206203E-04    2     1000022         3   # BR(~s_L -> chi^0_1 s)
     1.04606496E-03    2     1000025         3   # BR(~s_L -> chi^0_3 s)
     5.05080065E-02    2     1000035         3   # BR(~s_L -> chi^0_4 s)
     1.01172479E-01    2    -1000037         4   # BR(~s_L -> chi^-_2 c)
     8.46441764E-01    2     1000021         3   # BR(~s_L -> ~g s)
DECAY   1000005     7.79201400E+01   # ~b_1
#    BR                NDA      ID1      ID2
     1.34531642E-01    2     1000022         5   # BR(~b_1 -> chi^0_1 b)
     2.43958386E-01    2     1000023         5   # BR(~b_1 -> chi^0_2 b)
     1.31794862E-01    2     1000025         5   # BR(~b_1 -> chi^0_3 b)
     4.87180118E-01    2    -1000024         6   # BR(~b_1 -> chi^-_1 t)
     2.53433927E-03    2     1000021         5   # BR(~b_1 -> ~g b)
DECAY   2000005     1.75261963E+02   # ~b_2
#    BR                NDA      ID1      ID2
     6.97425829E-02    2     1000022         5   # BR(~b_2 -> chi^0_1 b)
     1.36618091E-01    2     1000023         5   # BR(~b_2 -> chi^0_2 b)
     7.16100771E-02    2     1000025         5   # BR(~b_2 -> chi^0_3 b)
     3.93033616E-02    2     1000035         5   # BR(~b_2 -> chi^0_4 b)
     3.82043504E-01    2    -1000024         6   # BR(~b_2 -> chi^-_1 t)
     7.97556227E-02    2    -1000037         6   # BR(~b_2 -> chi^-_2 t)
     2.20657222E-01    2     1000021         5   # BR(~b_2 -> ~g b)
     1.85496039E-04    2     1000005        25   # BR(~b_2 -> ~b_1 h^0)
DECAY   2000002     7.15468643E+02   # ~u_R
#    BR                NDA      ID1      ID2
     1.80219232E-02    2     1000022         2   # BR(~u_R -> chi^0_1 u)
     1.60584725E-04    2     1000023         2   # BR(~u_R -> chi^0_2 u)
     1.32984576E-02    2     1000025         2   # BR(~u_R -> chi^0_3 u)
     9.68519009E-01    2     1000021         2   # BR(~u_R -> ~g u)
DECAY   1000002     8.20799521E+02   # ~u_L
#    BR                NDA      ID1      ID2
     1.24836406E-03    2     1000022         2   # BR(~u_L -> chi^0_1 u)
     1.16557729E-04    2     1000023         2   # BR(~u_L -> chi^0_2 u)
     4.75432366E-04    2     1000025         2   # BR(~u_L -> chi^0_3 u)
     5.04765427E-02    2     1000035         2   # BR(~u_L -> chi^0_4 u)
     4.10893886E-04    2     1000024         1   # BR(~u_L -> chi^+_1 d)
     1.00796966E-01    2     1000037         1   # BR(~u_L -> chi^+_2 d)
     8.46475243E-01    2     1000021         2   # BR(~u_L -> ~g u)
DECAY   2000004     7.15475938E+02   # ~c_R
#    BR                NDA      ID1      ID2
     1.80226458E-02    2     1000022         4   # BR(~c_R -> chi^0_1 c)
     1.63115294E-04    2     1000023         4   # BR(~c_R -> chi^0_2 c)
     1.32999629E-02    2     1000025         4   # BR(~c_R -> chi^0_3 c)
     9.68509153E-01    2     1000021         4   # BR(~c_R -> ~g c)
DECAY   1000004     8.20857363E+02   # ~c_L
#    BR                NDA      ID1      ID2
     1.24906641E-03    2     1000022         4   # BR(~c_L -> chi^0_1 c)
     1.18760819E-04    2     1000023         4   # BR(~c_L -> chi^0_2 c)
     4.76834158E-04    2     1000025         4   # BR(~c_L -> chi^0_3 c)
     5.04730109E-02    2     1000035         4   # BR(~c_L -> chi^0_4 c)
     4.76545556E-04    2     1000024         3   # BR(~c_L -> chi^+_1 s)
     1.00789899E-01    2     1000037         3   # BR(~c_L -> chi^+_2 s)
     8.46415883E-01    2     1000021         4   # BR(~c_L -> ~g c)
DECAY   1000006     1.95170829E+02   # ~t_1
#    BR                NDA      ID1      ID2
     7.46887832E-04    2     1000022         4   # BR(~t_1 -> chi^0_1 c)
     5.88565641E-02    2     1000022         6   # BR(~t_1 -> chi^0_1 t)
     1.70669076E-01    2     1000023         6   # BR(~t_1 -> chi^0_2 t)
     1.16455433E-01    2     1000025         6   # BR(~t_1 -> chi^0_3 t)
     3.47382351E-02    2     1000035         6   # BR(~t_1 -> chi^0_4 t)
     2.49724100E-01    2     1000024         5   # BR(~t_1 -> chi^+_1 b)
     6.84613849E-02    2     1000037         5   # BR(~t_1 -> chi^+_2 b)
     8.43498095E-02    2     1000021         4   # BR(~t_1 -> ~g c)
     1.92957327E-01    2     1000021         6   # BR(~t_1 -> ~g t)
     1.45323969E-04    2     1000005        24   # BR(~t_1 -> ~b_1 W^+)
#    BR                NDA      ID1      ID2       ID3
     2.28262845E-02    3     1000022        24         5   # BR(~t_1 -> chi^0_1 W^+ b)
DECAY   2000006     5.54174057E+02   # ~t_2
#    BR                NDA      ID1      ID2
     4.49586945E-02    2     1000022         6   # BR(~t_2 -> chi^0_1 t)
     8.87664263E-02    2     1000023         6   # BR(~t_2 -> chi^0_2 t)
     6.27993706E-02    2     1000025         6   # BR(~t_2 -> chi^0_3 t)
     8.13472208E-04    2     1000035         6   # BR(~t_2 -> chi^0_4 t)
     1.76397233E-01    2     1000024         5   # BR(~t_2 -> chi^+_1 b)
     1.62396060E-03    2     1000037         5   # BR(~t_2 -> chi^+_2 b)
     3.43933577E-01    2     1000021         6   # BR(~t_2 -> ~g t)
     1.23030897E-01    2     2000005        24   # BR(~t_2 -> ~b_2 W^+)
     6.19884160E-02    2     1000006        23   # BR(~t_2 -> ~t_1 Z)
     9.56808256E-02    2     1000006        25   # BR(~t_2 -> ~t_1 h^0)
DECAY   1000024     9.31874429E-05   # chi^+_1
#    BR                NDA      ID1      ID2       ID3
     3.34400891E-01    3     1000022        -1         2   # BR(chi^+_1 -> chi^0_1 d_bar u)
     3.32456103E-01    3     1000022        -3         4   # BR(chi^+_1 -> chi^0_1 s_bar c)
     1.11466613E-01    3     1000022       -11        12   # BR(chi^+_1 -> chi^0_1 e^+ nu_e)
     1.11463490E-01    3     1000022       -13        14   # BR(chi^+_1 -> chi^0_1 mu^+ nu_mu)
     1.10212902E-01    3     1000022       -15        16   # BR(chi^+_1 -> chi^0_1 tau^+ nu_tau)
DECAY   1000037     1.68252403E+01   # chi^+_2
#    BR                NDA      ID1      ID2
     9.43613773E-02    2     1000022        24   # BR(chi^+_2 -> chi^0_1 W^+)
     2.43680107E-01    2     1000023        24   # BR(chi^+_2 -> chi^0_2 W^+)
     1.48694096E-01    2     1000025        24   # BR(chi^+_2 -> chi^0_3 W^+)
     2.42681243E-01    2     1000024        23   # BR(chi^+_2 -> chi^+_1 Z)
     2.39503688E-01    2     1000024        25   # BR(chi^+_2 -> chi^+_1 h^0)
#    BR                NDA      ID1      ID2       ID3
     1.23383515E-02    3     1000024         6        -6   # BR(chi^+_2 -> chi^+_1 t t_bar)
     1.84775180E-04    3     1000024         5        -5   # BR(chi^+_2 -> chi^+_1 b b_bar)
     3.63872803E-03    3     1000022        -5         6   # BR(chi^+_2 -> chi^0_1 b_bar t)
     9.17455653E-03    3     1000023        -5         6   # BR(chi^+_2 -> chi^0_2 b_bar t)
     5.72769169E-03    3     1000025        -5         6   # BR(chi^+_2 -> chi^0_3 b_bar t)
DECAY   1000022     0.00000000E+00   # chi^0_1
DECAY   1000023     7.60405832E-05   # chi^0_2
#    BR                NDA      ID1      ID2
     1.89465280E-02    2     1000022        22   # BR(chi^0_2 -> chi^0_1 photon)
#    BR                NDA      ID1      ID2       ID3
     1.19191946E-01    3     1000022         2        -2   # BR(chi^0_2 -> chi^0_1 u u_bar)
     1.17299791E-01    3     1000022         4        -4   # BR(chi^0_2 -> chi^0_1 c c_bar)
     1.52827389E-01    3     1000022         1        -1   # BR(chi^0_2 -> chi^0_1 d d_bar)
     1.52815670E-01    3     1000022         3        -3   # BR(chi^0_2 -> chi^0_1 s s_bar)
     1.32246433E-01    3     1000022         5        -5   # BR(chi^0_2 -> chi^0_1 b b_bar)
     3.44882388E-02    3     1000022        11       -11   # BR(chi^0_2 -> chi^0_1 e^- e^+)
     3.44840348E-02    3     1000022        13       -13   # BR(chi^0_2 -> chi^0_1 mu^- mu^+)
     3.33258733E-02    3     1000022        15       -15   # BR(chi^0_2 -> chi^0_1 tau^- tau^+)
     2.04374095E-01    3     1000022        12       -12   # BR(chi^0_2 -> chi^0_1 nu_e nu_bar_e)
DECAY   1000025     1.32895336E-04   # chi^0_3
#    BR                NDA      ID1      ID2
     9.91818915E-04    2     1000022        22   # BR(chi^0_3 -> chi^0_1 photon)
     1.65096872E-02    2     1000023        22   # BR(chi^0_3 -> chi^0_2 photon)
#    BR                NDA      ID1      ID2       ID3
     6.32340283E-04    3     1000022         2        -2   # BR(chi^0_3 -> chi^0_1 u u_bar)
     6.30213260E-04    3     1000022         4        -4   # BR(chi^0_3 -> chi^0_1 c c_bar)
     8.09738781E-04    3     1000022         1        -1   # BR(chi^0_3 -> chi^0_1 d d_bar)
     8.09728438E-04    3     1000022         3        -3   # BR(chi^0_3 -> chi^0_1 s s_bar)
     8.78065386E-04    3     1000022         5        -5   # BR(chi^0_3 -> chi^0_1 b b_bar)
     1.81893483E-04    3     1000022        11       -11   # BR(chi^0_3 -> chi^0_1 e^- e^+)
     1.81892886E-04    3     1000022        13       -13   # BR(chi^0_3 -> chi^0_1 mu^- mu^+)
     1.81705726E-04    3     1000022        15       -15   # BR(chi^0_3 -> chi^0_1 tau^- tau^+)
     1.08426455E-03    3     1000022        12       -12   # BR(chi^0_3 -> chi^0_1 nu_e nu_bar_e)
     3.16247016E-02    3     1000023         2        -2   # BR(chi^0_3 -> chi^0_2 u u_bar)
     3.08342799E-02    3     1000023         4        -4   # BR(chi^0_3 -> chi^0_2 c c_bar)
     4.05493045E-02    3     1000023         1        -1   # BR(chi^0_3 -> chi^0_2 d d_bar)
     4.05443623E-02    3     1000023         3        -3   # BR(chi^0_3 -> chi^0_2 s s_bar)
     3.21088019E-02    3     1000023         5        -5   # BR(chi^0_3 -> chi^0_2 b b_bar)
     9.15093660E-03    3     1000023        11       -11   # BR(chi^0_3 -> chi^0_2 e^- e^+)
     9.14917268E-03    3     1000023        13       -13   # BR(chi^0_3 -> chi^0_2 mu^- mu^+)
     8.66888364E-03    3     1000023        15       -15   # BR(chi^0_3 -> chi^0_2 tau^- tau^+)
     5.42260621E-02    3     1000023        12       -12   # BR(chi^0_3 -> chi^0_2 nu_e nu_bar_e)
     1.20624436E-01    3     1000024         1        -2   # BR(chi^0_3 -> chi^+_1 d u_bar)
     1.20624436E-01    3    -1000024        -1         2   # BR(chi^0_3 -> chi^-_1 d_bar u)
     1.19560810E-01    3     1000024         3        -4   # BR(chi^0_3 -> chi^+_1 s c_bar)
     1.19560810E-01    3    -1000024        -3         4   # BR(chi^0_3 -> chi^-_1 s_bar c)
     4.02082460E-02    3     1000024        11       -12   # BR(chi^0_3 -> chi^+_1 e^- nu_bar_e)
     4.02082460E-02    3    -1000024       -11        12   # BR(chi^0_3 -> chi^-_1 e^+ nu_e)
     4.02065609E-02    3     1000024        13       -14   # BR(chi^0_3 -> chi^+_1 mu^- nu_bar_mu)
     4.02065609E-02    3    -1000024       -13        14   # BR(chi^0_3 -> chi^-_1 mu^+ nu_mu)
     3.95260198E-02    3     1000024        15       -16   # BR(chi^0_3 -> chi^+_1 tau^- nu_bar_tau)
     3.95260198E-02    3    -1000024       -15        16   # BR(chi^0_3 -> chi^-_1 tau^+ nu_tau)
DECAY   1000035     1.77839649E+01   # chi^0_4
#    BR                NDA      ID1      ID2
     2.30671819E-01    2     1000024       -24   # BR(chi^0_4 -> chi^+_1 W^-)
     2.30671819E-01    2    -1000024        24   # BR(chi^0_4 -> chi^-_1 W^+)
     5.07832722E-02    2     1000022        23   # BR(chi^0_4 -> chi^0_1 Z)
     9.34998129E-02    2     1000023        23   # BR(chi^0_4 -> chi^0_2 Z)
     8.56389367E-02    2     1000025        23   # BR(chi^0_4 -> chi^0_3 Z)
     5.49887260E-02    2     1000022        25   # BR(chi^0_4 -> chi^0_1 h^0)
     1.35141444E-01    2     1000023        25   # BR(chi^0_4 -> chi^0_2 h^0)
     9.12539126E-02    2     1000025        25   # BR(chi^0_4 -> chi^0_3 h^0)
#    BR                NDA      ID1      ID2       ID3
     2.10520694E-03    3     1000022         6        -6   # BR(chi^0_4 -> chi^0_1 t t_bar)
     5.34159293E-03    3     1000023         6        -6   # BR(chi^0_4 -> chi^0_2 t t_bar)
     3.28471418E-03    3     1000025         6        -6   # BR(chi^0_4 -> chi^0_3 t t_bar)
     8.21278765E-03    3     1000024         5        -6   # BR(chi^0_4 -> chi^+_1 b t_bar)
     8.21278765E-03    3    -1000024        -5         6   # BR(chi^0_4 -> chi^-_1 b_bar t)
DECAY   1000021     4.67028522E-01   # ~g
#    BR                NDA      ID1      ID2
     8.99281185E-04    2     1000023        21   # BR(~g -> chi^0_2 g)
     6.01925401E-04    2     1000025        21   # BR(~g -> chi^0_3 g)
#    BR                NDA      ID1      ID2       ID3
     1.66911828E-02    3     1000022         6        -6   # BR(~g -> chi^0_1 t t_bar)
     1.10259648E-01    3     1000022         5        -5   # BR(~g -> chi^0_1 b b_bar)
     4.29479819E-02    3     1000023         6        -6   # BR(~g -> chi^0_2 t t_bar)
     2.02833292E-01    3     1000023         5        -5   # BR(~g -> chi^0_2 b b_bar)
     2.77810004E-02    3     1000025         6        -6   # BR(~g -> chi^0_3 t t_bar)
     1.07244333E-01    3     1000025         5        -5   # BR(~g -> chi^0_3 b b_bar)
     3.42871906E-04    3     1000035         6        -6   # BR(~g -> chi^0_4 t t_bar)
     5.77697797E-04    3     1000035         5        -5   # BR(~g -> chi^0_4 b b_bar)
     2.43894159E-01    3     1000024         5        -6   # BR(~g -> chi^+_1 b t_bar)
     2.43894159E-01    3    -1000024        -5         6   # BR(~g -> chi^-_1 b_bar t)
     9.16580122E-04    3     1000037         5        -6   # BR(~g -> chi^+_2 b t_bar)
     9.16580122E-04    3    -1000037        -5         6   # BR(~g -> chi^-_2 b_bar t)
DECAY        25     3.88359713E-03   # Gamma(h0)
     2.56586660E-03   2        22        22   # BR(h0 -> photon photon)
     1.89430818E-03   2        22        23   # BR(h0 -> photon Z)
     3.85476464E-02   2        23        23   # BR(h0 -> Z Z)
     3.02291495E-01   2       -24        24   # BR(h0 -> W W)
     7.71782672E-02   2        21        21   # BR(h0 -> gluon gluon)
     4.46950200E-09   2       -11        11   # BR(h0 -> Electron electron)
     1.98812750E-04   2       -13        13   # BR(h0 -> Muon muon)
     5.73279060E-02   2       -15        15   # BR(h0 -> Tau tau)
     1.26538606E-07   2        -2         2   # BR(h0 -> Up up)
     2.45604046E-02   2        -4         4   # BR(h0 -> Charm charm)
     5.15342459E-07   2        -1         1   # BR(h0 -> Down down)
     1.86387178E-04   2        -3         3   # BR(h0 -> Strange strange)
     4.95248260E-01   2        -5         5   # BR(h0 -> Bottom bottom)
DECAY        35     1.25450600E+02   # Gamma(HH)
     1.58490013E-08   2        22        22   # BR(HH -> photon photon)
     1.95089181E-08   2        22        23   # BR(HH -> photon Z)
     8.25608424E-08   2        23        23   # BR(HH -> Z Z)
     2.07042637E-08   2       -24        24   # BR(HH -> W W)
     7.49537921E-06   2        21        21   # BR(HH -> gluon gluon)
     9.65013096E-09   2       -11        11   # BR(HH -> Electron electron)
     4.29687877E-04   2       -13        13   # BR(HH -> Muon muon)
     1.24101870E-01   2       -15        15   # BR(HH -> Tau tau)
     2.30055770E-14   2        -2         2   # BR(HH -> Up up)
     4.46290791E-09   2        -4         4   # BR(HH -> Charm charm)
     3.37305979E-04   2        -6         6   # BR(HH -> Top top)
     7.02997124E-07   2        -1         1   # BR(HH -> Down down)
     2.54258183E-04   2        -3         3   # BR(HH -> Strange strange)
     6.59288361E-01   2        -5         5   # BR(HH -> Bottom bottom)
     9.39942827E-04   2  -1000024   1000024   # BR(HH -> Chargino1 chargino1)
     6.07792695E-02   2  -1000024   1000037   # BR(HH -> Chargino1 chargino2)
     6.07792695E-02   2  -1000037   1000024   # BR(HH -> Chargino2 chargino1)
     7.72083230E-03   2   1000022   1000022   # BR(HH -> neutralino1 neutralino1)
     6.60540633E-03   2   1000022   1000023   # BR(HH -> neutralino1 neutralino2)
     7.22874150E-04   2   1000022   1000025   # BR(HH -> neutralino1 neutralino3)
     1.95297522E-02   2   1000022   1000035   # BR(HH -> neutralino1 neutralino4)
     1.30143087E-06   2   1000023   1000023   # BR(HH -> neutralino2 neutralino2)
     1.00562786E-02   2   1000023   1000025   # BR(HH -> neutralino2 neutralino3)
     2.89856645E-02   2   1000023   1000035   # BR(HH -> neutralino2 neutralino4)
     7.00500325E-03   2   1000025   1000025   # BR(HH -> neutralino3 neutralino3)
     1.24540000E-02   2   1000025   1000035   # BR(HH -> neutralino3 neutralino4)
     5.71420184E-07   2        25        25   # BR(HH -> h0 h0)
DECAY        36     1.18100615E+02   # Gamma(A0)
     3.76589008E-09   2        22        22   # BR(A0 -> photon photon)
     6.09241456E-09   2        22        23   # BR(A0 -> photon Z)
     1.22029633E-05   2        21        21   # BR(A0 -> gluon gluon)
     9.48277753E-09   2       -11        11   # BR(A0 -> Electron electron)
     4.22237585E-04   2       -13        13   # BR(A0 -> Muon muon)
     1.21950238E-01   2       -15        15   # BR(A0 -> Tau tau)
     2.18560226E-14   2        -2         2   # BR(A0 -> Up up)
     4.23978194E-09   2        -4         4   # BR(A0 -> Charm charm)
     3.24002717E-04   2        -6         6   # BR(A0 -> Top top)
     6.90771559E-07   2        -1         1   # BR(A0 -> Down down)
     2.49837191E-04   2        -3         3   # BR(A0 -> Strange strange)
     6.47837831E-01   2        -5         5   # BR(A0 -> Bottom bottom)
     1.00513487E-03   2  -1000024   1000024   # BR(A0 -> Chargino1 chargino1)
     6.46225035E-02   2  -1000024   1000037   # BR(A0 -> Chargino1 chargino2)
     6.46225035E-02   2  -1000037   1000024   # BR(A0 -> Chargino2 chargino1)
     8.86866395E-03   2   1000022   1000022   # BR(A0 -> neutralino1 neutralino1)
     6.41207182E-03   2   1000022   1000023   # BR(A0 -> neutralino1 neutralino2)
     7.98898225E-04   2   1000022   1000025   # BR(A0 -> neutralino1 neutralino3)
     1.93641281E-02   2   1000022   1000035   # BR(A0 -> neutralino1 neutralino4)
     1.29749471E-06   2   1000023   1000023   # BR(A0 -> neutralino2 neutralino2)
     9.74000766E-03   2   1000023   1000025   # BR(A0 -> neutralino2 neutralino3)
     3.35221826E-02   2   1000023   1000035   # BR(A0 -> neutralino2 neutralino4)
     8.30529587E-03   2   1000025   1000025   # BR(A0 -> neutralino3 neutralino3)
     1.19400875E-02   2   1000025   1000035   # BR(A0 -> neutralino3 neutralino4)
     1.60542984E-07   2        23        25   # BR(A0 -> Z h0)
     5.25894055E-14   2        23        35   # BR(A0 -> Z HH)
     6.52682344E-39   2        25        25   # BR(A0 -> h0 h0)
DECAY        37     1.43109856E+02   # Gamma(Hp)
     1.07232348E-08   2       -11        12   # BR(Hp -> Electron nu_e)
     4.58451779E-04   2       -13        14   # BR(Hp -> Muon nu_mu)
     1.29676255E-01   2       -15        16   # BR(Hp -> Tau nu_tau)
     6.74392709E-07   2        -1         2   # BR(Hp -> Down up)
     1.14013489E-05   2        -3         2   # BR(Hp -> Strange up)
     7.19509632E-06   2        -5         2   # BR(Hp -> Bottom up)
     3.17563448E-08   2        -1         4   # BR(Hp -> Down charm)
     2.43027876E-04   2        -3         4   # BR(Hp -> Strange charm)
     1.00757101E-03   2        -5         4   # BR(Hp -> Bottom charm)
     2.30415363E-08   2        -1         6   # BR(Hp -> Down top)
     8.63410437E-07   2        -3         6   # BR(Hp -> Strange top)
     6.79685228E-01   2        -5         6   # BR(Hp -> Bottom top)
     1.46218947E-02   2   1000022   1000024   # BR(Hp -> neutralino1 chargino1)
     3.31333224E-02   2   1000022   1000037   # BR(Hp -> neutralino1 chargino2)
     4.57493243E-04   2   1000023   1000024   # BR(Hp -> neutralino2 chargino1)
     5.32067290E-02   2   1000023   1000037   # BR(Hp -> neutralino2 chargino2)
     1.33047505E-02   2   1000024   1000025   # BR(Hp -> chargino1 neutralino3)
     2.07881273E-02   2   1000025   1000037   # BR(Hp -> neutralino3 chargino2)
     5.33968164E-02   2   1000024   1000035   # BR(Hp -> chargino1 neutralino4)
     1.32569493E-07   2        24        25   # BR(Hp -> W h0)
     9.81157164E-14   2        24        35   # BR(Hp -> W HH)
DECAY         6     2.43000000E+00   # top
#    BR                NDA      ID1      ID2
     1.00000000E+00    2           5        24   # BR(t -> b W)
Block HiggsBoundsInputHiggsCouplingsFermions
# ScalarNormEffCoupSq PseudoSNormEffCoupSq NP IP1 IP2 IP2
    9.84608428E-01    0.00000000E+00        3  25   5   5  # h0-b-b eff. coupling^2, normalised to SM
    2.62316988E+03    0.00000000E+00        3  35   5   5  # H0-b-b eff. coupling^2, normalised to SM
    0.00000000E+00    2.62315449E+03        3  36   5   5  # A0-b-b eff. coupling^2, normalised to SM
#
    1.00000587E+00    0.00000000E+00        3  25   6   6  # h0-t-t eff. coupling^2, normalised to SM
    3.75352818E-04    0.00000000E+00        3  35   6   6  # H0-t-t eff. coupling^2, normalised to SM
    0.00000000E+00    3.81220399E-04        3  36   6   6  # A0-t-t eff. coupling^2, normalised to SM
#
    9.84608428E-01    0.00000000E+00        3  25  15  15  # h0-tau-tau eff. coupling^2, normalised to SM
    2.62316988E+03    0.00000000E+00        3  35  15  15  # H0-tau-tau eff. coupling^2, normalised to SM
    0.00000000E+00    2.62315449E+03        3  36  15  15  # A0-tau-tau eff. coupling^2, normalised to SM
#
Block HiggsBoundsInputHiggsCouplingsBosons
    9.99999977E-01        3  25  24  24  # h0-W-W eff. coupling^2, normalised to SM
    2.27532015E-08        3  35  24  24  # H0-W-W eff. coupling^2, normalised to SM
    0.00000000E+00        3  36  24  24  # A0-W-W eff. coupling^2, normalised to SM
#
    9.99999977E-01        3  25  23  23  # h0-Z-Z eff. coupling^2, normalised to SM
    2.27532015E-08        3  35  23  23  # H0-Z-Z eff. coupling^2, normalised to SM
    0.00000000E+00        3  36  23  23  # A0-Z-Z eff. coupling^2, normalised to SM
#
    1.26368242E+00        3  25  21  21  # h0-g-g eff. coupling^2, normalised to SM
    1.27696167E-02        3  35  21  21  # H0-g-g eff. coupling^2, normalised to SM
    1.41484150E-01        3  36  21  21  # A0-g-g eff. coupling^2, normalised to SM
#
    0.00000000E+00        3  25  25  23  # h0-h0-Z eff. coupling^2, normalised to SM
    0.00000000E+00        3  35  25  23  # H0-h0-Z eff. coupling^2, normalised to SM
    2.27532015E-08        3  36  25  23  # A0-h0-Z eff. coupling^2, normalised to SM
    0.00000000E+00        3  35  35  23  # H0-H0-Z eff. coupling^2, normalised to SM
    9.99999977E-01        3  36  35  23  # A0-H0-Z eff. coupling^2, normalised to SM
    0.00000000E+00        3  36  36  23  # A0-A0-Z eff. coupling^2, normalised to SM
#
    0.00000000E+00        4  25  21  21  23  # h0-g-g-Z eff. coupling^2, normalised to SM
    0.00000000E+00        4  35  21  21  23  # H0-g-g-Z eff. coupling^2, normalised to SM
    0.00000000E+00        4  36  21  21  23  # A0-g-g-Z eff. coupling^2, normalised to SM
Block SPhenoLowEnergy  # low energy observables
    1    3.44865949E-04   # BR(b -> s gamma)
    2    1.58903332E-06   # BR(b -> s mu+ mu-)
    3    3.52715445E-05   # BR(b -> s nu nu)
    4    7.62729301E-16   # BR(Bd -> e+ e-)
    5    3.25780160E-11   # BR(Bd -> mu+ mu-)
    6    6.54178698E-09   # BR(Bd -> tau+ tau-)
    7    2.70836534E-14   # BR(Bs -> e+ e-)
    8    1.15687389E-09   # BR(Bs -> mu+ mu-)
    9    2.37427763E-07   # BR(Bs -> tau+ tau-)
   10    9.55521985E-05   # BR(B_u -> tau nu)
   11    9.87017629E-01   # BR(B_u -> tau nu)/BR(B_u -> tau nu)_SM
   12    5.41782967E-01   # |Delta(M_Bd)| [ps^-1] 
   13    1.93266033E+01   # |Delta(M_Bs)| [ps^-1] 
   14    0.00000000E+00   # neutron EDM according to the chiral quark model
   15    0.00000000E+00   # neutron EDM according to the relativistic quark-parton model
   16    2.15696097E-03   # epsilon_K
   17    2.28165596E-15   # Delta(M_K)
   18    2.48099999E-11   # BR(K^0 -> pi^0 nu nu)
   19    8.29297853E-11   # BR(K^+ -> pi^+ nu nu)
   20   -4.76870457E-16   # Delta(g-2)_electron/2
   21   -2.03878629E-11   # Delta(g-2)_muon/2
   22   -5.77958565E-09   # Delta(g-2)_tau/2
   23    0.00000000E+00   # electric dipole moment of the electron
   24    0.00000000E+00   # electric dipole moment of the muon
   25    0.00000000E+00   # electric dipole moment of the tau
   26    0.00000000E+00   # Br(mu -> e gamma)
   27    0.00000000E+00   # Br(tau -> e gamma)
   28    0.00000000E+00   # Br(tau -> mu gamma)
   29    0.00000000E+00   # Br(mu -> 3 e)
   30    0.00000000E+00   # Br(tau -> 3 e)
   31    0.00000000E+00   # Br(tau -> 3 mu)
   39    6.81448189E-05   # Delta(rho_parameter)
   40    0.00000000E+00   # BR(Z -> e mu)
   41    0.00000000E+00   # BR(Z -> e tau)
   42    0.00000000E+00   # BR(Z -> mu tau)
Block FWCOEF Q=  1.60000000E+02  # Wilson coefficients at scale Q
#    id        order  M        value         comment
     0305 4422   00   0    -1.88819110E-01   # C7
     0305 4422   00   2    -2.17977723E-01   # C7
     0305 4322   00   2    -2.64367052E-04   # C7'
     0305 6421   00   0    -9.52278348E-02   # C8
     0305 6421   00   2    -1.10427871E-01   # C8
     0305 6321   00   2    -1.41805730E-04   # C8'
 03051111 4133   00   0     1.62782079E+00   # C9 e+e-
 03051111 4133   00   2     1.62823511E+00   # C9 e+e-
 03051111 4233   00   2     8.79077922E-04   # C9' e+e-
 03051111 4137   00   0    -4.45051290E+00   # C10 e+e-
 03051111 4137   00   2    -4.45095971E+00   # C10 e+e-
 03051111 4237   00   2    -6.49494692E-03   # C10' e+e-
 03051313 4133   00   0     1.62782079E+00   # C9 mu+mu-
 03051313 4133   00   2     1.62823488E+00   # C9 mu+mu-
 03051313 4233   00   2     8.79077107E-04   # C9' mu+mu-
 03051313 4137   00   0    -4.45051290E+00   # C10 mu+mu-
 03051313 4137   00   2    -4.45095994E+00   # C10 mu+mu-
 03051313 4237   00   2    -6.49494744E-03   # C10' mu+mu-
 03051212 4137   00   0     1.50535012E+00   # C11 nu_1 nu_1
 03051212 4137   00   2     1.50544834E+00   # C11 nu_1 nu_1
 03051212 4237   00   2     1.40409368E-03   # C11' nu_1 nu_1
 03051414 4137   00   0     1.50535012E+00   # C11 nu_2 nu_2
 03051414 4137   00   2     1.50544834E+00   # C11 nu_2 nu_2
 03051414 4237   00   2     1.40409378E-03   # C11' nu_2 nu_2
 03051616 4137   00   0     1.50535012E+00   # C11 nu_3 nu_3
 03051616 4137   00   2     1.50544835E+00   # C11 nu_3 nu_3
 03051616 4237   00   2     1.40412297E-03   # C11' nu_3 nu_3
Block IMFWCOEF Q=  1.60000000E+02  # Im(Wilson coefficients) at scale Q
#    id        order  M        value         comment
     0305 4422   00   0     3.85803686E-07   # C7
     0305 4422   00   2    -3.70338749E-05   # C7
     0305 4322   00   2    -2.84829588E-06   # C7'
     0305 6421   00   0     3.30466372E-07   # C8
     0305 6421   00   2     6.49007762E-05   # C8
     0305 6321   00   2    -9.28623500E-08   # C8'
 03051111 4133   00   2     7.83376578E-07   # C9 e+e-
 03051111 4233   00   2     1.66454876E-05   # C9' e+e-
 03051111 4137   00   2    -1.96853591E-06   # C10 e+e-
 03051111 4237   00   2    -1.22986870E-04   # C10' e+e-
 03051313 4133   00   2     7.83369956E-07   # C9 mu+mu-
 03051313 4233   00   2     1.66454817E-05   # C9' mu+mu-
 03051313 4137   00   2    -1.96852970E-06   # C10 mu+mu-
 03051313 4237   00   2    -1.22986888E-04   # C10' mu+mu-
 03051212 4137   00   2     4.54552489E-07   # C11 nu_1 nu_1
 03051212 4237   00   2     2.65876068E-05   # C11' nu_1 nu_1
 03051414 4137   00   2     4.54552728E-07   # C11 nu_2 nu_2
 03051414 4237   00   2     2.65876068E-05   # C11' nu_2 nu_2
 03051616 4137   00   2     4.54619307E-07   # C11 nu_3 nu_3
 03051616 4237   00   2     2.65876067E-05   # C11' nu_3 nu_3
