# SUSY Les Houches Accord 2 - MSSM spectrum + Decays
# SPheno v4.0.5be
# W. Porod, Comput. Phys. Commun. 153 (2003) 275-315, hep-ph/0301101;
# W. Porod, F.~Staub, Comput. Phys. Commun. 183 (2012) 2458
#                     arXiv:1104.1573 [hep-ph] 
# in case of problems send email to porod@physik.uni-wuerzburg.de
# Created: 07.09.2021,  22:42
Block SPINFO         # Program information
     1   SPheno      # spectrum calculator
     2   v4.0.5be    # version number
#
Block SPhenoINFO     # SPheno specific information
    1      2         # using 2-loop RGEs
    2      2         # using pole masses for boundary conditions at mZ
Block MODSEL  # Model selection
    1    0    # general MSSM
Block MINPAR  # Input parameters
    3    3.41652237E+01  # tanb at m_Z    
    4   -1.00000000E+00  # Sign(mu)
Block EXTPAR  # non-universal input parameters
    0    3.46144433E+03  # scale for input parameters
    1    2.22452165E+02  # M_1
    2    3.09304136E+02  # M_2
    3    3.53887363E+03  # M_3
   11    6.02815067E+03  # A_t
   12   -1.81755113E+03  # A_b
   13    1.99181857E+03  # A_tau
   23   -2.93864801E+02  # mu
   25    3.30421888E+01  # tan(beta)
   26    3.21072267E+03  # m_A, pole mass
   31    1.00000000E+04  # M_L11
   32    1.00000000E+04  # M_L22
   33    1.00000000E+04  # M_L33
   34    1.00000000E+04  # M_E11
   35    1.00000000E+04  # M_E22
   36    1.00000000E+04  # M_E33
   41    1.00000000E+04  # M_Q11
   42    1.00000000E+04  # M_Q22
   43    4.39042882E+03  # M_Q33
   44    1.00000000E+04  # M_U11
   45    1.00000000E+04  # M_U22
   46    2.65351311E+03  # M_U33
   47    1.00000000E+04  # M_D11
   48    1.00000000E+04  # M_D22
   49    3.41562136E+03  # M_D33
Block SMINPUTS  # SM parameters
         1     1.27908970E+02  # alpha_em^-1(MZ)^MSbar
         2     1.16637870E-05  # G_mu [GeV^-2]
         3     1.18400000E-01  # alpha_s(MZ)^MSbar
         4     9.11876000E+01  # m_Z(pole)
         5     4.18000000E+00  # m_b(m_b), MSbar
         6     1.73200000E+02  # m_t(pole)
         7     1.77700000E+00  # m_tau(pole)
         8     0.00000000E+00  # m_nu_3
        11     5.10998930E-04  # m_e(pole)
        12     0.00000000E+00  # m_nu_1
        13     1.05658372E-01  # m_muon(pole)
        14     0.00000000E+00  # m_nu_2
        21     5.00000000E-03  # m_d(2 GeV), MSbar
        22     2.50000000E-03  # m_u(2 GeV), MSbar
        23     9.50000000E-02  # m_s(2 GeV), MSbar
        24     1.27000000E+00  # m_c(m_c), MSbar
Block gauge Q=  3.46144433E+03  # (SUSY scale)
   1    3.55362975E-01  # g'(Q)^DRbar
   2    6.65198874E-01  # g(Q)^DRbar
   3    1.21977796E+00  # g3(Q)^DRbar
Block Yu Q=  3.46144433E+03  # (SUSY scale)
  1  1     8.38821100E-06   # Y_u(Q)^DRbar
  2  2     4.26121119E-03   # Y_c(Q)^DRbar
  3  3     1.01336326E+00   # Y_t(Q)^DRbar
Block Yd Q=  3.46144433E+03  # (SUSY scale)
  1  1     5.56952814E-04   # Y_d(Q)^DRbar
  2  2     1.05821035E-02   # Y_s(Q)^DRbar
  3  3     5.52322668E-01   # Y_b(Q)^DRbar
Block Ye Q=  3.46144433E+03  # (SUSY scale)
  1  1     9.71923388E-05   # Y_e(Q)^DRbar
  2  2     2.00962931E-02   # Y_mu(Q)^DRbar
  3  3     3.37986590E-01   # Y_tau(Q)^DRbar
Block Au Q=  3.46144433E+03  # (SUSY scale)
  1  1     0.00000000E+00   # A_u(Q)^DRbar
  2  2     0.00000000E+00   # A_c(Q)^DRbar
  3  3     6.02814730E+03   # A_t(Q)^DRbar
Block Ad Q=  3.46144433E+03  # (SUSY scale)
  1  1     0.00000000E+00   # A_d(Q)^DRbar
  2  2     0.00000000E+00   # A_s(Q)^DRbar
  3  3    -1.81755130E+03   # A_b(Q)^DRbar
Block Ae Q=  3.46144433E+03  # (SUSY scale)
  1  1     0.00000000E+00   # A_e(Q)^DRbar
  2  2     0.00000000E+00   # A_mu(Q)^DRbar
  3  3     1.99181916E+03   # A_tau(Q)^DRbar
Block MSOFT Q=  3.46144433E+03  # soft SUSY breaking masses at Q
   1    2.22452165E+02  # M_1
   2    3.09304136E+02  # M_2
   3    3.53887363E+03  # M_3
  21    1.01962444E+07  # M^2_(H,d)
  22    1.10407518E+05  # M^2_(H,u)
  31    1.00000000E+04  # M_(L,11)
  32    1.00000000E+04  # M_(L,22)
  33    1.00000000E+04  # M_(L,33)
  34    1.00000000E+04  # M_(E,11)
  35    1.00000000E+04  # M_(E,22)
  36    1.00000000E+04  # M_(E,33)
  41    1.00000000E+04  # M_(Q,11)
  42    1.00000000E+04  # M_(Q,22)
  43    4.39042882E+03  # M_(Q,33)
  44    1.00000000E+04  # M_(U,11)
  45    1.00000000E+04  # M_(U,22)
  46    2.65351311E+03  # M_(U,33)
  47    1.00000000E+04  # M_(D,11)
  48    1.00000000E+04  # M_(D,22)
  49    3.41562136E+03  # M_(D,33)
Block MASS  # Mass spectrum
#   PDG code      mass          particle
         6     1.73200000E+02  # m_t(pole)
        23     9.11876000E+01  # m_Z(pole)
        24     8.04299946E+01  # W+
        15     1.77700000E+00  # m_tau(pole)
        25     1.28972533E+02  # h0
        35     3.20981017E+03  # H0
        36     3.21072267E+03  # A0
        37     3.21128242E+03  # H+
   1000001     1.01007623E+04  # ~d_L
   2000001     1.00758549E+04  # ~d_R
   1000002     1.01003976E+04  # ~u_L
   2000002     1.00788027E+04  # ~u_R
   1000003     1.01007658E+04  # ~s_L
   2000003     1.00758608E+04  # ~s_R
   1000004     1.01004012E+04  # ~c_L
   2000004     1.00788037E+04  # ~c_R
   1000005     3.52583499E+03  # ~b_1
   2000005     4.42474181E+03  # ~b_2
   1000006     2.70307120E+03  # ~t_1
   2000006     4.43258648E+03  # ~t_2
   1000011     1.00213947E+04  # ~e_L-
   2000011     1.00090500E+04  # ~e_R-
   1000012     1.00206277E+04  # ~nu_eL
   1000013     1.00214103E+04  # ~mu_L-
   2000013     1.00090798E+04  # ~mu_R-
   1000014     1.00206431E+04  # ~nu_muL
   1000015     1.00176788E+04  # ~tau_1-
   2000015     1.00260172E+04  # ~tau_2-
   1000016     1.00251163E+04  # ~nu_tauL
   1000021     4.00466710E+03  # ~g
   1000022     2.13440792E+02  # ~chi_10
   1000023     2.76821506E+02  # ~chi_20
   1000025     3.10541254E+02  # ~chi_30
   1000035     3.86381031E+02  # ~chi_40
   1000024     2.70176926E+02  # ~chi_1+
   1000037     3.86116189E+02  # ~chi_2+
# Higgs mixing
Block alpha # Effective Higgs mixing angle
          -2.93211489E-02   # alpha
Block Hmix Q=  3.46144433E+03  # Higgs mixing parameters
   1   -2.93864801E+02  # mu
   2    3.30421888E+01  # tan[beta](Q)
   3    2.43074836E+02  # v(Q)
   4    1.03087401E+07  # m^2_A(Q)
Block stopmix # stop mixing matrix
   1  1    -6.70056803E-02   # Re[R_st(1,1)]
   1  2     9.97752594E-01   # Re[R_st(1,2)]
   2  1    -9.97752594E-01   # Re[R_st(2,1)]
   2  2    -6.70056803E-02   # Re[R_st(2,2)]
Block sbotmix # sbottom mixing matrix
   1  1    -2.36431139E-03   # Re[R_sb(1,1)]
   1  2     9.99997205E-01   # Re[R_sb(1,2)]
   2  1    -9.99997205E-01   # Re[R_sb(2,1)]
   2  2    -2.36431139E-03   # Re[R_sb(2,2)]
Block staumix # stau mixing matrix
   1  1    -1.25939049E-01   # Re[R_sta(1,1)]
   1  2     9.92037981E-01   # Re[R_sta(1,2)]
   2  1    -9.92037981E-01   # Re[R_sta(2,1)]
   2  2    -1.25939049E-01   # Re[R_sta(2,2)]
Block Nmix # neutralino mixing matrix
   1  1     9.06964696E-01   # Re[N(1,1)]
   1  2    -1.34574672E-01   # Re[N(1,2)]
   1  3    -3.28714550E-01   # Re[N(1,3)]
   1  4    -2.26387816E-01   # Re[N(1,4)]
   2  1    -3.97015178E-01   # Re[N(2,1)]
   2  2    -5.76850798E-01   # Re[N(2,2)]
   2  3    -5.29497853E-01   # Re[N(2,3)]
   2  4    -4.78804897E-01   # Re[N(2,4)]
   3  1    -6.11941709E-02   # Re[N(3,1)]
   3  2     9.05602127E-02   # Re[N(3,2)]
   3  3    -6.95208768E-01   # Re[N(3,3)]
   3  4     7.10449780E-01   # Re[N(3,4)]
   4  1    -1.26685685E-01   # Re[N(4,1)]
   4  2     8.00582077E-01   # Re[N(4,2)]
   4  3    -3.58138991E-01   # Re[N(4,3)]
   4  4    -4.63417239E-01   # Re[N(4,4)]
Block Umix # chargino mixing matrix
   1  1    -5.05563512E-01   # Re[U(1,1)]
   1  2    -8.62789392E-01   # Re[U(1,2)]
   2  1     8.62789392E-01   # Re[U(2,1)]
   2  2    -5.05563512E-01   # Re[U(2,2)]
Block Vmix # chargino mixing matrix
   1  1    -6.52106659E-01   # Re[V(1,1)]
   1  2     7.58127235E-01   # Re[V(1,2)]
   2  1     7.58127235E-01   # Re[V(2,1)]
   2  2     6.52106659E-01   # Re[V(2,2)]
DECAY        23     2.49520000E+00   # Z
DECAY        24     2.08500000E+00   # W
DECAY   2000011     5.02393188E+01   # ~e^-_R
#    BR                NDA      ID1      ID2
     8.22695840E-01    2     1000022        11   # BR(~e^-_R -> chi^0_1 e^-)
     1.57544487E-01    2     1000023        11   # BR(~e^-_R -> chi^0_2 e^-)
     3.74144442E-03    2     1000025        11   # BR(~e^-_R -> chi^0_3 e^-)
     1.60181918E-02    2     1000035        11   # BR(~e^-_R -> chi^0_4 e^-)
DECAY   1000011     1.44571666E+02   # ~e^-_L
#    BR                NDA      ID1      ID2
     3.73295403E-02    2     1000022        11   # BR(~e^-_L -> chi^0_1 e^-)
     1.89617339E-01    2     1000023        11   # BR(~e^-_L -> chi^0_2 e^-)
     1.01978509E-03    2     1000025        11   # BR(~e^-_L -> chi^0_3 e^-)
     1.63399282E-01    2     1000035        11   # BR(~e^-_L -> chi^0_4 e^-)
     1.55739231E-01    2    -1000024        12   # BR(~e^-_L -> chi^-_1 nu_e)
     4.52894822E-01    2    -1000037        12   # BR(~e^-_L -> chi^-_2 nu_e)
#    BR                NDA      ID1      ID2       ID3
DECAY   2000013     5.04000055E+01   # ~mu^-_R
#    BR                NDA      ID1      ID2
     8.20247603E-01    2     1000022        13   # BR(~mu^-_R -> chi^0_1 mu^-)
     1.57489320E-01    2     1000023        13   # BR(~mu^-_R -> chi^0_2 mu^-)
     4.49920341E-03    2     1000025        13   # BR(~mu^-_R -> chi^0_3 mu^-)
     1.61712108E-02    2     1000035        13   # BR(~mu^-_R -> chi^0_4 mu^-)
     1.18604757E-03    2    -1000024        14   # BR(~mu^-_R -> chi^-_1 nu_mu)
     4.06615110E-04    2    -1000037        14   # BR(~mu^-_R -> chi^-_2 nu_mu)
DECAY   1000013     1.44652260E+02   # ~mu^-_L
#    BR                NDA      ID1      ID2
     3.73688884E-02    2     1000022        13   # BR(~mu^-_L -> chi^0_1 mu^-)
     1.89667814E-01    2     1000023        13   # BR(~mu^-_L -> chi^0_2 mu^-)
     1.28772231E-03    2     1000025        13   # BR(~mu^-_L -> chi^0_3 mu^-)
     1.63379675E-01    2     1000035        13   # BR(~mu^-_L -> chi^0_4 mu^-)
     1.55652703E-01    2    -1000024        14   # BR(~mu^-_L -> chi^-_1 nu_mu)
     4.52643198E-01    2    -1000037        14   # BR(~mu^-_L -> chi^-_2 nu_mu)
#    BR                NDA      ID1      ID2       ID3
DECAY   1000015     9.68783618E+01   # ~tau^-_1
#    BR                NDA      ID1      ID2
     4.63099969E-01    2     1000022        15   # BR(~tau^-_1 -> chi^0_1 tau^-)
     1.66503276E-01    2     1000023        15   # BR(~tau^-_1 -> chi^0_2 tau^-)
     1.08307809E-01    2     1000025        15   # BR(~tau^-_1 -> chi^0_3 tau^-)
     1.67645848E-02    2     1000035        15   # BR(~tau^-_1 -> chi^0_4 tau^-)
     2.25932911E-01    2    -1000024        16   # BR(~tau^-_1 -> chi^-_1 nu_tau)
     1.93914509E-02    2    -1000037        16   # BR(~tau^-_1 -> chi^-_2 nu_tau)
DECAY   2000015     1.66234917E+02   # ~tau^-_2
#    BR                NDA      ID1      ID2
     4.10208370E-02    2     1000022        15   # BR(~tau^-_2 -> chi^0_1 tau^-)
     1.92303721E-01    2     1000023        15   # BR(~tau^-_2 -> chi^0_2 tau^-)
     7.10869950E-02    2     1000025        15   # BR(~tau^-_2 -> chi^0_3 tau^-)
     1.72298103E-01    2     1000035        15   # BR(~tau^-_2 -> chi^0_4 tau^-)
     1.05613193E-01    2    -1000024        16   # BR(~tau^-_2 -> chi^-_1 nu_tau)
     4.17677150E-01    2    -1000037        16   # BR(~tau^-_2 -> chi^-_2 nu_tau)
#    BR                NDA      ID1      ID2       ID3
DECAY   1000012     1.44576294E+02   # ~nu_e
#    BR                NDA      ID1      ID2
     1.16820737E-01    2     1000022        12   # BR(~nu_e -> chi^0_1 nu_e)
     4.05270853E-02    2     1000023        12   # BR(~nu_e -> chi^0_2 nu_e)
     4.62540911E-03    2     1000025        12   # BR(~nu_e -> chi^0_3 nu_e)
     2.29302308E-01    2     1000035        12   # BR(~nu_e -> chi^0_4 nu_e)
     2.59081634E-01    2     1000024        11   # BR(~nu_e -> chi^+_1 e^-)
     3.49642826E-01    2     1000037        11   # BR(~nu_e -> chi^+_2 e^-)
#    BR                NDA      ID1      ID2       ID3
DECAY   1000014     1.44656879E+02   # ~nu_mu
#    BR                NDA      ID1      ID2
     1.16755839E-01    2     1000022        14   # BR(~nu_mu -> chi^0_1 nu_mu)
     4.05045711E-02    2     1000023        14   # BR(~nu_mu -> chi^0_2 nu_mu)
     4.62283955E-03    2     1000025        14   # BR(~nu_mu -> chi^0_3 nu_mu)
     2.29174924E-01    2     1000035        14   # BR(~nu_mu -> chi^0_4 nu_mu)
     2.59351418E-01    2     1000024        13   # BR(~nu_mu -> chi^+_1 mu^-)
     3.49590408E-01    2     1000037        13   # BR(~nu_mu -> chi^+_2 mu^-)
#    BR                NDA      ID1      ID2       ID3
DECAY   1000016     1.67382861E+02   # ~nu_tau
#    BR                NDA      ID1      ID2
     1.00948737E-01    2     1000022        16   # BR(~nu_tau -> chi^0_1 nu_tau)
     3.50208399E-02    2     1000023        16   # BR(~nu_tau -> chi^0_2 nu_tau)
     3.99697556E-03    2     1000025        16   # BR(~nu_tau -> chi^0_3 nu_tau)
     1.98148221E-01    2     1000035        16   # BR(~nu_tau -> chi^0_4 nu_tau)
     3.25062116E-01    2     1000024        15   # BR(~nu_tau -> chi^+_1 tau^-)
     3.36823110E-01    2     1000037        15   # BR(~nu_tau -> chi^+_2 tau^-)
#    BR                NDA      ID1      ID2       ID3
DECAY   2000001     5.69516333E+02   # ~d_R
#    BR                NDA      ID1      ID2
     8.11762991E-03    2     1000022         1   # BR(~d_R -> chi^0_1 d)
     1.55454965E-03    2     1000023         1   # BR(~d_R -> chi^0_2 d)
     1.58071269E-04    2     1000035         1   # BR(~d_R -> chi^0_4 d)
     9.90132670E-01    2     1000021         1   # BR(~d_R -> ~g d)
DECAY   1000001     7.00786677E+02   # ~d_L
#    BR                NDA      ID1      ID2
     5.55655540E-03    2     1000022         1   # BR(~d_L -> chi^0_1 d)
     1.62286712E-02    2     1000023         1   # BR(~d_L -> chi^0_2 d)
     6.51846084E-04    2     1000025         1   # BR(~d_L -> chi^0_3 d)
     4.28596501E-02    2     1000035         1   # BR(~d_L -> chi^0_4 d)
     3.23840564E-02    2    -1000024         2   # BR(~d_L -> chi^-_1 u)
     9.41761431E-02    2    -1000037         2   # BR(~d_L -> chi^-_2 u)
     8.08143078E-01    2     1000021         1   # BR(~d_L -> ~g d)
DECAY   2000003     5.69561602E+02   # ~s_R
#    BR                NDA      ID1      ID2
     8.12123269E-03    2     1000022         3   # BR(~s_R -> chi^0_1 s)
     1.56542898E-03    2     1000023         3   # BR(~s_R -> chi^0_2 s)
     1.63084856E-04    2     1000035         3   # BR(~s_R -> chi^0_4 s)
     9.90054988E-01    2     1000021         3   # BR(~s_R -> ~g s)
DECAY   1000003     7.00813107E+02   # ~s_L
#    BR                NDA      ID1      ID2
     5.55980481E-03    2     1000022         3   # BR(~s_L -> chi^0_1 s)
     1.62370296E-02    2     1000023         3   # BR(~s_L -> chi^0_2 s)
     6.67267969E-04    2     1000025         3   # BR(~s_L -> chi^0_3 s)
     4.28621422E-02    2     1000035         3   # BR(~s_L -> chi^0_4 s)
     3.23858286E-02    2    -1000024         4   # BR(~s_L -> chi^-_1 c)
     9.41748379E-02    2    -1000037         4   # BR(~s_L -> chi^-_2 c)
     8.08113089E-01    2     1000021         3   # BR(~s_L -> ~g s)
DECAY   1000005     4.40119646E+01   # ~b_1
#    BR                NDA      ID1      ID2
     8.90796874E-02    2     1000022         5   # BR(~b_1 -> chi^0_1 b)
     1.41961888E-01    2     1000023         5   # BR(~b_1 -> chi^0_2 b)
     2.31348642E-01    2     1000025         5   # BR(~b_1 -> chi^0_3 b)
     6.09758654E-02    2     1000035         5   # BR(~b_1 -> chi^0_4 b)
     3.57109509E-01    2    -1000024         6   # BR(~b_1 -> chi^-_1 t)
     1.19523234E-01    2    -1000037         6   # BR(~b_1 -> chi^-_2 t)
DECAY   2000005     2.50536853E+02   # ~b_2
#    BR                NDA      ID1      ID2
     1.82249373E-02    2     1000022         5   # BR(~b_2 -> chi^0_1 b)
     4.94988930E-02    2     1000023         5   # BR(~b_2 -> chi^0_2 b)
     5.21218880E-02    2     1000025         5   # BR(~b_2 -> chi^0_3 b)
     6.55320737E-02    2     1000035         5   # BR(~b_2 -> chi^0_4 b)
     2.43392076E-01    2    -1000024         6   # BR(~b_2 -> chi^-_1 t)
     2.66323196E-01    2    -1000037         6   # BR(~b_2 -> chi^-_2 t)
     4.56002363E-02    2     1000021         5   # BR(~b_2 -> ~g b)
     2.59218115E-01    2     1000006       -24   # BR(~b_2 -> ~t_1 W^-)
DECAY   2000002     5.86670004E+02   # ~u_R
#    BR                NDA      ID1      ID2
     3.15303052E-02    2     1000022         2   # BR(~u_R -> chi^0_1 u)
     6.03803709E-03    2     1000023         2   # BR(~u_R -> chi^0_2 u)
     1.43394405E-04    2     1000025         2   # BR(~u_R -> chi^0_3 u)
     6.13924080E-04    2     1000035         2   # BR(~u_R -> chi^0_4 u)
     9.61674339E-01    2     1000021         2   # BR(~u_R -> ~g u)
DECAY   1000002     7.00770857E+02   # ~u_L
#    BR                NDA      ID1      ID2
     2.65618176E-02    2     1000023         2   # BR(~u_L -> chi^0_2 u)
     4.01845493E-04    2     1000025         2   # BR(~u_L -> chi^0_3 u)
     3.82893632E-02    2     1000035         2   # BR(~u_L -> chi^0_4 u)
     5.38780272E-02    2     1000024         1   # BR(~u_L -> chi^+_1 d)
     7.27125993E-02    2     1000037         1   # BR(~u_L -> chi^+_2 d)
     8.08110374E-01    2     1000021         2   # BR(~u_L -> ~g u)
DECAY   2000004     5.86677340E+02   # ~c_R
#    BR                NDA      ID1      ID2
     3.15302294E-02    2     1000022         4   # BR(~c_R -> chi^0_1 c)
     6.03938397E-03    2     1000023         4   # BR(~c_R -> chi^0_2 c)
     1.46518666E-04    2     1000025         4   # BR(~c_R -> chi^0_3 c)
     6.15245890E-04    2     1000035         4   # BR(~c_R -> chi^0_4 c)
     9.61662429E-01    2     1000021         4   # BR(~c_R -> ~g c)
DECAY   1000004     7.00797266E+02   # ~c_L
#    BR                NDA      ID1      ID2
     2.65620142E-02    2     1000023         4   # BR(~c_L -> chi^0_2 c)
     4.04452847E-04    2     1000025         4   # BR(~c_L -> chi^0_3 c)
     3.82890518E-02    2     1000035         4   # BR(~c_L -> chi^0_4 c)
     5.38998202E-02    2     1000024         3   # BR(~c_L -> chi^+_1 s)
     7.27180427E-02    2     1000037         3   # BR(~c_L -> chi^+_2 s)
     8.08080380E-01    2     1000021         4   # BR(~c_L -> ~g c)
DECAY   1000006     1.12822448E+02   # ~t_1
#    BR                NDA      ID1      ID2
     6.26764203E-02    2     1000022         6   # BR(~t_1 -> chi^0_1 t)
     1.13087868E-01    2     1000023         6   # BR(~t_1 -> chi^0_2 t)
     2.36447899E-01    2     1000025         6   # BR(~t_1 -> chi^0_3 t)
     1.13335767E-01    2     1000035         6   # BR(~t_1 -> chi^0_4 t)
     2.54538755E-01    2     1000024         5   # BR(~t_1 -> chi^+_1 b)
     2.19894709E-01    2     1000037         5   # BR(~t_1 -> chi^+_2 b)
#    BR                NDA      ID1      ID2       ID3
DECAY   2000006     2.70073975E+02   # ~t_2
#    BR                NDA      ID1      ID2
     2.01311596E-02    2     1000022         6   # BR(~t_2 -> chi^0_1 t)
     1.08977999E-01    2     1000023         6   # BR(~t_2 -> chi^0_2 t)
     1.69095844E-01    2     1000025         6   # BR(~t_2 -> chi^0_3 t)
     1.05904645E-01    2     1000035         6   # BR(~t_2 -> chi^0_4 t)
     1.49295249E-01    2     1000024         5   # BR(~t_2 -> chi^+_1 b)
     9.26665457E-02    2     1000037         5   # BR(~t_2 -> chi^+_2 b)
     4.17104040E-02    2     1000021         6   # BR(~t_2 -> ~g t)
     1.20978186E-01    2     1000006        23   # BR(~t_2 -> ~t_1 Z)
     1.91180196E-01    2     1000006        25   # BR(~t_2 -> ~t_1 h^0)
DECAY   1000024     2.08171993E-04   # chi^+_1
#    BR                NDA      ID1      ID2       ID3
     3.33718961E-01    3     1000022        -1         2   # BR(chi^+_1 -> chi^0_1 d_bar u)
     3.33076789E-01    3     1000022        -3         4   # BR(chi^+_1 -> chi^0_1 s_bar c)
     1.11237139E-01    3     1000022       -11        12   # BR(chi^+_1 -> chi^0_1 e^+ nu_e)
     1.11236612E-01    3     1000022       -13        14   # BR(chi^+_1 -> chi^0_1 mu^+ nu_mu)
     1.10730499E-01    3     1000022       -15        16   # BR(chi^+_1 -> chi^0_1 tau^+ nu_tau)
DECAY   1000037     3.78538231E-01   # chi^+_2
#    BR                NDA      ID1      ID2
     1.94667655E-04    2     1000022        24   # BR(chi^+_2 -> chi^0_1 W^+)
     5.88241032E-01    2     1000023        24   # BR(chi^+_2 -> chi^0_2 W^+)
     3.68547729E-01    2     1000024        23   # BR(chi^+_2 -> chi^+_1 Z)
#    BR                NDA      ID1      ID2       ID3
     1.43434143E-02    3     1000025        -1         2   # BR(chi^+_2 -> chi^0_3 d_bar u)
     1.43341518E-02    3     1000025        -3         4   # BR(chi^+_2 -> chi^0_3 s_bar c)
     4.78112528E-03    3     1000025       -11        12   # BR(chi^+_2 -> chi^0_3 e^+ nu_e)
     4.78110821E-03    3     1000025       -13        14   # BR(chi^+_2 -> chi^0_3 mu^+ nu_mu)
     4.77557966E-03    3     1000025       -15        16   # BR(chi^+_2 -> chi^0_3 tau^+ nu_tau)
DECAY   1000022     0.00000000E+00   # chi^0_1
DECAY   1000023     1.93707064E-05   # chi^0_2
#    BR                NDA      ID1      ID2
     6.07574762E-03    2     1000022        22   # BR(chi^0_2 -> chi^0_1 photon)
#    BR                NDA      ID1      ID2       ID3
     1.18284201E-01    3     1000022         2        -2   # BR(chi^0_2 -> chi^0_1 u u_bar)
     1.17803876E-01    3     1000022         4        -4   # BR(chi^0_2 -> chi^0_1 c c_bar)
     1.51674170E-01    3     1000022         1        -1   # BR(chi^0_2 -> chi^0_1 d d_bar)
     1.51671271E-01    3     1000022         3        -3   # BR(chi^0_2 -> chi^0_1 s s_bar)
     1.46878619E-01    3     1000022         5        -5   # BR(chi^0_2 -> chi^0_1 b b_bar)
     3.41883112E-02    3     1000022        11       -11   # BR(chi^0_2 -> chi^0_1 e^- e^+)
     3.41873240E-02    3     1000022        13       -13   # BR(chi^0_2 -> chi^0_1 mu^- mu^+)
     3.39099180E-02    3     1000022        15       -15   # BR(chi^0_2 -> chi^0_1 tau^- tau^+)
     2.02720452E-01    3     1000022        12       -12   # BR(chi^0_2 -> chi^0_1 nu_e nu_bar_e)
     4.75451621E-04    3     1000024         1        -2   # BR(chi^0_2 -> chi^+_1 d u_bar)
     4.75451621E-04    3    -1000024        -1         2   # BR(chi^0_2 -> chi^-_1 d_bar u)
     3.98287010E-04    3     1000024         3        -4   # BR(chi^0_2 -> chi^+_1 s c_bar)
     3.98287010E-04    3    -1000024        -3         4   # BR(chi^0_2 -> chi^-_1 s_bar c)
     1.58483509E-04    3     1000024        11       -12   # BR(chi^0_2 -> chi^+_1 e^- nu_bar_e)
     1.58483509E-04    3    -1000024       -11        12   # BR(chi^0_2 -> chi^-_1 e^+ nu_e)
     1.58283558E-04    3     1000024        13       -14   # BR(chi^0_2 -> chi^+_1 mu^- nu_bar_mu)
     1.58283558E-04    3    -1000024       -13        14   # BR(chi^0_2 -> chi^-_1 mu^+ nu_mu)
     1.12548897E-04    3     1000024        15       -16   # BR(chi^0_2 -> chi^+_1 tau^- nu_bar_tau)
     1.12548897E-04    3    -1000024       -15        16   # BR(chi^0_2 -> chi^-_1 tau^+ nu_tau)
DECAY   1000025     2.06463826E-01   # chi^0_3
#    BR                NDA      ID1      ID2
     9.96377099E-01    2     1000022        23   # BR(chi^0_3 -> chi^0_1 Z)
#    BR                NDA      ID1      ID2       ID3
     5.26776155E-04    3     1000024         1        -2   # BR(chi^0_3 -> chi^+_1 d u_bar)
     5.26776155E-04    3    -1000024        -1         2   # BR(chi^0_3 -> chi^-_1 d_bar u)
     5.24548098E-04    3     1000024         3        -4   # BR(chi^0_3 -> chi^+_1 s c_bar)
     5.24548098E-04    3    -1000024        -3         4   # BR(chi^0_3 -> chi^-_1 s_bar c)
     1.75592661E-04    3     1000024        11       -12   # BR(chi^0_3 -> chi^+_1 e^- nu_bar_e)
     1.75592661E-04    3    -1000024       -11        12   # BR(chi^0_3 -> chi^-_1 e^+ nu_e)
     1.75589104E-04    3     1000024        13       -14   # BR(chi^0_3 -> chi^+_1 mu^- nu_bar_mu)
     1.75589104E-04    3    -1000024       -13        14   # BR(chi^0_3 -> chi^-_1 mu^+ nu_mu)
     1.74166179E-04    3     1000024        15       -16   # BR(chi^0_3 -> chi^+_1 tau^- nu_bar_tau)
     1.74166179E-04    3    -1000024       -15        16   # BR(chi^0_3 -> chi^-_1 tau^+ nu_tau)
DECAY   1000035     4.99141996E-01   # chi^0_4
#    BR                NDA      ID1      ID2
     4.81933744E-01    2     1000024       -24   # BR(chi^0_4 -> chi^+_1 W^-)
     4.81933744E-01    2    -1000024        24   # BR(chi^0_4 -> chi^-_1 W^+)
     2.76443388E-03    2     1000022        23   # BR(chi^0_4 -> chi^0_1 Z)
     6.05869657E-03    2     1000023        23   # BR(chi^0_4 -> chi^0_2 Z)
     1.50369046E-02    2     1000022        25   # BR(chi^0_4 -> chi^0_1 h^0)
#    BR                NDA      ID1      ID2       ID3
     1.45007650E-03    3     1000025         2        -2   # BR(chi^0_4 -> chi^0_3 u u_bar)
     1.44639484E-03    3     1000025         4        -4   # BR(chi^0_4 -> chi^0_3 c c_bar)
     1.85932834E-03    3     1000025         1        -1   # BR(chi^0_4 -> chi^0_3 d d_bar)
     1.85930832E-03    3     1000025         3        -3   # BR(chi^0_4 -> chi^0_3 s s_bar)
     1.81840132E-03    3     1000025         5        -5   # BR(chi^0_4 -> chi^0_3 b b_bar)
     4.19595510E-04    3     1000025        11       -11   # BR(chi^0_4 -> chi^0_3 e^- e^+)
     4.19587730E-04    3     1000025        13       -13   # BR(chi^0_4 -> chi^0_3 mu^- mu^+)
     4.17268179E-04    3     1000025        15       -15   # BR(chi^0_4 -> chi^0_3 tau^- tau^+)
     2.48639290E-03    3     1000025        12       -12   # BR(chi^0_4 -> chi^0_3 nu_e nu_bar_e)
DECAY   1000021     4.21328128E+01   # ~g
#    BR                NDA      ID1      ID2
     1.63841769E-04    2     1000006        -4   # BR(~g -> ~t_1 c_bar)
     1.63841769E-04    2    -1000006         4   # BR(~g -> ~t^*_1 c)
     4.23263605E-01    2     1000006        -6   # BR(~g -> ~t_1 t_bar)
     4.23263605E-01    2    -1000006         6   # BR(~g -> ~t^*_1 t)
     7.11149577E-02    2     1000005        -5   # BR(~g -> ~b_1 b_bar)
     7.11149577E-02    2    -1000005         5   # BR(~g -> ~b^*_1 b)
#    BR                NDA      ID1      ID2       ID3
     1.54405320E-04    3     1000022         6        -6   # BR(~g -> chi^0_1 t t_bar)
     1.47185236E-04    3     1000022         5        -5   # BR(~g -> chi^0_1 b b_bar)
     8.11018696E-04    3     1000023         6        -6   # BR(~g -> chi^0_2 t t_bar)
     4.00268545E-04    3     1000023         5        -5   # BR(~g -> chi^0_2 b b_bar)
     1.26736702E-03    3     1000025         6        -6   # BR(~g -> chi^0_3 t t_bar)
     4.06657289E-04    3     1000025         5        -5   # BR(~g -> chi^0_3 b b_bar)
     8.67759638E-04    3     1000035         6        -6   # BR(~g -> chi^0_4 t t_bar)
     5.47703694E-04    3     1000035         5        -5   # BR(~g -> chi^0_4 b b_bar)
     1.50707120E-03    3     1000024         5        -6   # BR(~g -> chi^+_1 b t_bar)
     1.50707120E-03    3    -1000024        -5         6   # BR(~g -> chi^-_1 b_bar t)
     1.48846590E-03    3     1000037         5        -6   # BR(~g -> chi^+_2 b t_bar)
     1.48846590E-03    3    -1000037        -5         6   # BR(~g -> chi^-_2 b_bar t)
DECAY        25     4.20795943E-03   # Gamma(h0)
     2.46401801E-03   2        22        22   # BR(h0 -> photon photon)
     1.93549772E-03   2        22        23   # BR(h0 -> photon Z)
     4.11811656E-02   2        23        23   # BR(h0 -> Z Z)
     3.15995753E-01   2       -24        24   # BR(h0 -> W W)
     7.32997079E-02   2        21        21   # BR(h0 -> gluon gluon)
     4.37513850E-09   2       -11        11   # BR(h0 -> Electron electron)
     1.94615833E-04   2       -13        13   # BR(h0 -> Muon muon)
     5.61190537E-02   2       -15        15   # BR(h0 -> Tau tau)
     1.23594371E-07   2        -2         2   # BR(h0 -> Up up)
     2.39886001E-02   2        -4         4   # BR(h0 -> Charm charm)
     5.03614363E-07   2        -1         1   # BR(h0 -> Down down)
     1.82145915E-04   2        -3         3   # BR(h0 -> Strange strange)
     4.84638810E-01   2        -5         5   # BR(h0 -> Bottom bottom)
DECAY        35     8.85239122E+01   # Gamma(HH)
     5.08543802E-08   2        22        22   # BR(HH -> photon photon)
     1.43843733E-07   2        22        23   # BR(HH -> photon Z)
     2.55851387E-07   2        23        23   # BR(HH -> Z Z)
     7.07532081E-08   2       -24        24   # BR(HH -> W W)
     4.37337257E-06   2        21        21   # BR(HH -> gluon gluon)
     6.00173954E-09   2       -11        11   # BR(HH -> Electron electron)
     2.67232075E-04   2       -13        13   # BR(HH -> Muon muon)
     7.71806853E-02   2       -15        15   # BR(HH -> Tau tau)
     7.64376512E-14   2        -2         2   # BR(HH -> Up up)
     1.48282226E-08   2        -4         4   # BR(HH -> Charm charm)
     1.14521247E-03   2        -6         6   # BR(HH -> Top top)
     4.42542492E-07   2        -1         1   # BR(HH -> Down down)
     1.60076855E-04   2        -3         3   # BR(HH -> Strange strange)
     4.51084175E-01   2        -5         5   # BR(HH -> Bottom bottom)
     1.03553241E-01   2  -1000024   1000024   # BR(HH -> Chargino1 chargino1)
     6.73752250E-02   2  -1000024   1000037   # BR(HH -> Chargino1 chargino2)
     6.73752250E-02   2  -1000037   1000024   # BR(HH -> Chargino2 chargino1)
     4.77275526E-02   2  -1000037   1000037   # BR(HH -> Chargino2 chargino2)
     1.78973984E-02   2   1000022   1000022   # BR(HH -> neutralino1 neutralino1)
     3.08616685E-02   2   1000022   1000023   # BR(HH -> neutralino1 neutralino2)
     2.34883443E-02   2   1000022   1000025   # BR(HH -> neutralino1 neutralino3)
     8.61101238E-05   2   1000022   1000035   # BR(HH -> neutralino1 neutralino4)
     9.80899346E-03   2   1000023   1000023   # BR(HH -> neutralino2 neutralino2)
     5.81387482E-03   2   1000023   1000025   # BR(HH -> neutralino2 neutralino3)
     7.34851520E-03   2   1000023   1000035   # BR(HH -> neutralino2 neutralino4)
     2.09858821E-03   2   1000025   1000025   # BR(HH -> neutralino3 neutralino3)
     5.35407918E-02   2   1000025   1000035   # BR(HH -> neutralino3 neutralino4)
     3.31801530E-02   2   1000035   1000035   # BR(HH -> neutralino4 neutralino4)
     1.57851618E-06   2        25        25   # BR(HH -> h0 h0)
DECAY        36     8.56774213E+01   # Gamma(A0)
     6.05393220E-09   2        22        22   # BR(A0 -> photon photon)
     7.03087615E-08   2        22        23   # BR(A0 -> photon Z)
     1.04066008E-05   2        21        21   # BR(A0 -> gluon gluon)
     5.82362766E-09   2       -11        11   # BR(A0 -> Electron electron)
     2.59299895E-04   2       -13        13   # BR(A0 -> Muon muon)
     7.48898564E-02   2       -15        15   # BR(A0 -> Tau tau)
     7.02889384E-14   2        -2         2   # BR(A0 -> Up up)
     1.36348296E-08   2        -4         4   # BR(A0 -> Charm charm)
     1.06737514E-03   2        -6         6   # BR(A0 -> Top top)
     4.29390924E-07   2        -1         1   # BR(A0 -> Down down)
     1.55319917E-04   2        -3         3   # BR(A0 -> Strange strange)
     4.37688088E-01   2        -5         5   # BR(A0 -> Bottom bottom)
     1.01343321E-01   2  -1000024   1000024   # BR(A0 -> Chargino1 chargino1)
     7.52803308E-02   2  -1000024   1000037   # BR(A0 -> Chargino1 chargino2)
     7.52803308E-02   2  -1000037   1000024   # BR(A0 -> Chargino2 chargino1)
     4.37242156E-02   2  -1000037   1000037   # BR(A0 -> Chargino2 chargino2)
     1.73357982E-02   2   1000022   1000022   # BR(A0 -> neutralino1 neutralino1)
     2.95965165E-02   2   1000022   1000023   # BR(A0 -> neutralino1 neutralino2)
     2.73169201E-02   2   1000022   1000025   # BR(A0 -> neutralino1 neutralino3)
     1.57165931E-04   2   1000022   1000035   # BR(A0 -> neutralino1 neutralino4)
     9.39402855E-03   2   1000023   1000023   # BR(A0 -> neutralino2 neutralino2)
     7.00303657E-03   2   1000023   1000025   # BR(A0 -> neutralino2 neutralino3)
     7.33950523E-03   2   1000023   1000035   # BR(A0 -> neutralino2 neutralino4)
     2.53510515E-03   2   1000025   1000025   # BR(A0 -> neutralino3 neutralino3)
     5.84143257E-02   2   1000025   1000035   # BR(A0 -> neutralino3 neutralino4)
     3.12080763E-02   2   1000035   1000035   # BR(A0 -> neutralino4 neutralino4)
     4.52685259E-07   2        23        25   # BR(A0 -> Z h0)
     4.97170778E-39   2        25        25   # BR(A0 -> h0 h0)
DECAY        37     9.32498822E+01   # Gamma(Hp)
     6.64751633E-09   2       -11        12   # BR(Hp -> Electron nu_e)
     2.84202085E-04   2       -13        14   # BR(Hp -> Muon nu_mu)
     8.03885178E-02   2       -15        16   # BR(Hp -> Tau nu_tau)
     4.24489884E-07   2        -1         2   # BR(Hp -> Down up)
     7.17128858E-06   2        -3         2   # BR(Hp -> Strange up)
     4.99112407E-06   2        -5         2   # BR(Hp -> Bottom up)
     2.05280479E-08   2        -1         4   # BR(Hp -> Down charm)
     1.53005504E-04   2        -3         4   # BR(Hp -> Strange charm)
     6.98935997E-04   2        -5         4   # BR(Hp -> Bottom charm)
     7.54290122E-08   2        -1         6   # BR(Hp -> Down top)
     1.87149211E-06   2        -3         6   # BR(Hp -> Strange top)
     4.72409903E-01   2        -5         6   # BR(Hp -> Bottom top)
     3.70558012E-02   2   1000022   1000024   # BR(Hp -> neutralino1 chargino1)
     9.59512467E-03   2   1000022   1000037   # BR(Hp -> neutralino1 chargino2)
     1.53161787E-02   2   1000023   1000024   # BR(Hp -> neutralino2 chargino1)
     1.49038655E-01   2   1000023   1000037   # BR(Hp -> neutralino2 chargino2)
     5.29483250E-02   2   1000024   1000025   # BR(Hp -> chargino1 neutralino3)
     7.81391599E-02   2   1000025   1000037   # BR(Hp -> neutralino3 chargino2)
     1.02941783E-01   2   1000024   1000035   # BR(Hp -> chargino1 neutralino4)
     1.01543107E-03   2   1000035   1000037   # BR(Hp -> neutralino4 chargino2)
     4.16368771E-07   2        24        25   # BR(Hp -> W h0)
     1.00980029E-13   2        24        35   # BR(Hp -> W HH)
DECAY         6     2.43000000E+00   # top
#    BR                NDA      ID1      ID2
     1.00000000E+00    2           5        24   # BR(t -> b W)
Block HiggsBoundsInputHiggsCouplingsFermions
# ScalarNormEffCoupSq PseudoSNormEffCoupSq NP IP1 IP2 IP2
    9.39231658E-01    0.00000000E+00        3  25   5   5  # h0-b-b eff. coupling^2, normalised to SM
    1.09184701E+03    0.00000000E+00        3  35   5   5  # H0-b-b eff. coupling^2, normalised to SM
    0.00000000E+00    1.09178624E+03        3  36   5   5  # A0-b-b eff. coupling^2, normalised to SM
#
    1.00005566E+00    0.00000000E+00        3  25   6   6  # h0-t-t eff. coupling^2, normalised to SM
    8.60270649E-04    0.00000000E+00        3  35   6   6  # H0-t-t eff. coupling^2, normalised to SM
    0.00000000E+00    9.15930209E-04        3  36   6   6  # A0-t-t eff. coupling^2, normalised to SM
#
    9.39231658E-01    0.00000000E+00        3  25  15  15  # h0-tau-tau eff. coupling^2, normalised to SM
    1.09184701E+03    0.00000000E+00        3  35  15  15  # H0-tau-tau eff. coupling^2, normalised to SM
    0.00000000E+00    1.09178624E+03        3  36  15  15  # A0-tau-tau eff. coupling^2, normalised to SM
#
Block HiggsBoundsInputHiggsCouplingsBosons
    9.99999128E-01        3  25  24  24  # h0-W-W eff. coupling^2, normalised to SM
    8.72271823E-07        3  35  24  24  # H0-W-W eff. coupling^2, normalised to SM
    0.00000000E+00        3  36  24  24  # A0-W-W eff. coupling^2, normalised to SM
#
    9.99999128E-01        3  25  23  23  # h0-Z-Z eff. coupling^2, normalised to SM
    8.72271823E-07        3  35  23  23  # H0-Z-Z eff. coupling^2, normalised to SM
    0.00000000E+00        3  36  23  23  # A0-Z-Z eff. coupling^2, normalised to SM
#
    1.26488947E+00        3  25  21  21  # h0-g-g eff. coupling^2, normalised to SM
    4.01980145E-03        3  35  21  21  # H0-g-g eff. coupling^2, normalised to SM
    1.08836592E-01        3  36  21  21  # A0-g-g eff. coupling^2, normalised to SM
#
    0.00000000E+00        3  25  25  23  # h0-h0-Z eff. coupling^2, normalised to SM
    0.00000000E+00        3  35  25  23  # H0-h0-Z eff. coupling^2, normalised to SM
    8.72271823E-07        3  36  25  23  # A0-h0-Z eff. coupling^2, normalised to SM
    0.00000000E+00        3  35  35  23  # H0-H0-Z eff. coupling^2, normalised to SM
    9.99999128E-01        3  36  35  23  # A0-H0-Z eff. coupling^2, normalised to SM
    0.00000000E+00        3  36  36  23  # A0-A0-Z eff. coupling^2, normalised to SM
#
    0.00000000E+00        4  25  21  21  23  # h0-g-g-Z eff. coupling^2, normalised to SM
    0.00000000E+00        4  35  21  21  23  # H0-g-g-Z eff. coupling^2, normalised to SM
    0.00000000E+00        4  36  21  21  23  # A0-g-g-Z eff. coupling^2, normalised to SM
Block SPhenoLowEnergy  # low energy observables
    1    3.16947629E-04   # BR(b -> s gamma)
    2    1.59008734E-06   # BR(b -> s mu+ mu-)
    3    3.52392169E-05   # BR(b -> s nu nu)
    4    3.24714422E-15   # BR(Bd -> e+ e-)
    5    1.38713069E-10   # BR(Bd -> mu+ mu-)
    6    2.89655869E-08   # BR(Bd -> tau+ tau-)
    7    1.10544631E-13   # BR(Bs -> e+ e-)
    8    4.72241975E-09   # BR(Bs -> mu+ mu-)
    9    9.99103678E-07   # BR(Bs -> tau+ tau-)
   10    9.61930498E-05   # BR(B_u -> tau nu)
   11    9.93637377E-01   # BR(B_u -> tau nu)/BR(B_u -> tau nu)_SM
   12    5.42102167E-01   # |Delta(M_Bd)| [ps^-1] 
   13    1.93677022E+01   # |Delta(M_Bs)| [ps^-1] 
   14    0.00000000E+00   # neutron EDM according to the chiral quark model
   15    0.00000000E+00   # neutron EDM according to the relativistic quark-parton model
   16    2.15784183E-03   # epsilon_K
   17    2.28166413E-15   # Delta(M_K)
   18    2.47915269E-11   # BR(K^0 -> pi^0 nu nu)
   19    8.28841009E-11   # BR(K^+ -> pi^+ nu nu)
   20   -2.19903994E-16   # Delta(g-2)_electron/2
   21   -9.40165685E-12   # Delta(g-2)_muon/2
   22   -2.66572102E-09   # Delta(g-2)_tau/2
   23    0.00000000E+00   # electric dipole moment of the electron
   24    0.00000000E+00   # electric dipole moment of the muon
   25    0.00000000E+00   # electric dipole moment of the tau
   26    0.00000000E+00   # Br(mu -> e gamma)
   27    0.00000000E+00   # Br(tau -> e gamma)
   28    0.00000000E+00   # Br(tau -> mu gamma)
   29    0.00000000E+00   # Br(mu -> 3 e)
   30    0.00000000E+00   # Br(tau -> 3 e)
   31    0.00000000E+00   # Br(tau -> 3 mu)
   39    6.51658400E-05   # Delta(rho_parameter)
   40    0.00000000E+00   # BR(Z -> e mu)
   41    0.00000000E+00   # BR(Z -> e tau)
   42    0.00000000E+00   # BR(Z -> mu tau)
Block FWCOEF Q=  1.60000000E+02  # Wilson coefficients at scale Q
#    id        order  M        value         comment
     0305 4422   00   0    -1.88819110E-01   # C7
     0305 4422   00   2    -1.84001311E-01   # C7
     0305 4322   00   2    -5.22704546E-05   # C7'
     0305 6421   00   0    -9.52278348E-02   # C8
     0305 6421   00   2    -9.70206172E-02   # C8
     0305 6321   00   2    -1.15384791E-04   # C8'
 03051111 4133   00   0     1.62172209E+00   # C9 e+e-
 03051111 4133   00   2     1.62193793E+00   # C9 e+e-
 03051111 4233   00   2     2.31248125E-04   # C9' e+e-
 03051111 4137   00   0    -4.44441419E+00   # C10 e+e-
 03051111 4137   00   2    -4.44148590E+00   # C10 e+e-
 03051111 4237   00   2    -1.72325669E-03   # C10' e+e-
 03051313 4133   00   0     1.62172209E+00   # C9 mu+mu-
 03051313 4133   00   2     1.62193779E+00   # C9 mu+mu-
 03051313 4233   00   2     2.31247954E-04   # C9' mu+mu-
 03051313 4137   00   0    -4.44441419E+00   # C10 mu+mu-
 03051313 4137   00   2    -4.44148604E+00   # C10 mu+mu-
 03051313 4237   00   2    -1.72325671E-03   # C10' mu+mu-
 03051212 4137   00   0     1.50535012E+00   # C11 nu_1 nu_1
 03051212 4137   00   2     1.50471768E+00   # C11 nu_1 nu_1
 03051212 4237   00   2     3.73048605E-04   # C11' nu_1 nu_1
 03051414 4137   00   0     1.50535012E+00   # C11 nu_2 nu_2
 03051414 4137   00   2     1.50471768E+00   # C11 nu_2 nu_2
 03051414 4237   00   2     3.73048632E-04   # C11' nu_2 nu_2
 03051616 4137   00   0     1.50535012E+00   # C11 nu_3 nu_3
 03051616 4137   00   2     1.50471768E+00   # C11 nu_3 nu_3
 03051616 4237   00   2     3.73056189E-04   # C11' nu_3 nu_3
Block IMFWCOEF Q=  1.60000000E+02  # Im(Wilson coefficients) at scale Q
#    id        order  M        value         comment
     0305 4422   00   0     3.85834719E-07   # C7
     0305 4422   00   2    -5.98517164E-06   # C7
     0305 4322   00   2     1.17790085E-06   # C7'
     0305 6421   00   0     3.30492954E-07   # C8
     0305 6421   00   2     5.98009629E-06   # C8
     0305 6321   00   2     6.80702549E-07   # C8'
 03051111 4133   00   2     3.71058151E-07   # C9 e+e-
 03051111 4233   00   2     4.60365203E-06   # C9' e+e-
 03051111 4137   00   2     2.52493138E-06   # C10 e+e-
 03051111 4237   00   2    -3.43091468E-05   # C10' e+e-
 03051313 4133   00   2     3.71055869E-07   # C9 mu+mu-
 03051313 4233   00   2     4.60365120E-06   # C9' mu+mu-
 03051313 4137   00   2     2.52493394E-06   # C10 mu+mu-
 03051313 4237   00   2    -3.43091493E-05   # C10' mu+mu-
 03051212 4137   00   2    -5.20197903E-07   # C11 nu_1 nu_1
 03051212 4237   00   2     7.42720588E-06   # C11' nu_1 nu_1
 03051414 4137   00   2    -5.20197778E-07   # C11 nu_2 nu_2
 03051414 4237   00   2     7.42720588E-06   # C11' nu_2 nu_2
 03051616 4137   00   2    -5.20162210E-07   # C11 nu_3 nu_3
 03051616 4237   00   2     7.42720586E-06   # C11' nu_3 nu_3
