#
#                              ======================
#                              | THE SUSYHIT OUTPUT |
#                              ======================
#
#
#              ------------------------------------------------------
#              |     This is the output of the SUSY-HIT package     |
#              |  created by A.Djouadi, M.Muehlleitner and M.Spira. |
#              |  In case of problems with SUSY-HIT email to        |
#              |           margarete.muehlleitner@cern.ch           |
#              |           michael.spira@psi.ch                     |
#              |           abdelhak.djouadi@cern.ch                 |
#              ------------------------------------------------------
#
#              ------------------------------------------------------
#              |  SUSY Les Houches Accord - MSSM Spectrum + Decays  |
#              |              based on the decay programs           |
#              |                                                    |
#              |                     SDECAY 1.3b                    |
#              |                                                    |
#              |  Authors: M.Muhlleitner, A.Djouadi and Y.Mambrini  |
#              |  Ref.:    Comput.Phys.Commun.168(2005)46           |
#              |           [hep-ph/0311167]                         |
#              |                                                    |
#              |                     HDECAY 3.4                     |
#              |                                                    |
#              |  By: A.Djouadi,J.Kalinowski,M.Muhlleitner,M.Spira  |
#              |  Ref.:    Comput.Phys.Commun.108(1998)56           |
#              |           [hep-ph/9704448]                         |
#              |                                                    |
#              |                                                    |
#              |  If not stated otherwise all DRbar couplings and   |
#              |  soft SUSY breaking masses are given at the scale  |
#              |  Q=  0.17886000E+04
#              |                                                    |
#              ------------------------------------------------------
#
#
BLOCK DCINFO  # Decay Program information
     1   SDECAY/HDECAY # decay calculator
     2   1.3b  /3.4    # version number
#
BLOCK SPINFO  # Spectrum calculator information
     1     SOFTSUSY    # spectrum calculator               
     2     3.4.0       # version number                    
#
BLOCK MODSEL  # Model selection
     1     0   #  nonUniversal                                     
#
BLOCK SMINPUTS  # Standard Model inputs
         1     1.27908970E+02   # alpha_em^-1(M_Z)^MSbar
         2     1.16637870E-05   # G_F [GeV^-2]
         3     1.18400000E-01   # alpha_S(M_Z)^MSbar
         4     9.11876000E+01   # M_Z pole mass
         5     4.18000000E+00   # mb(mb)^MSbar
         6     1.73200000E+02   # mt pole mass
         7     1.77700000E+00   # mtau pole mass
#
BLOCK MINPAR  # Input parameters - minimal models
         3     2.69900000E+01   # tanb                
#
BLOCK EXTPAR  # Input parameters - non-minimal models
         0    -1.00000000E+00   # Set                 
         1    -7.65380000E+02   # M_1(MX)             
         2    -2.92416000E+03   # M_2(MX)             
         3     2.23807000E+03   # M_3(MX)             
        11    -5.81735000E+03   # At(MX)              
        12     2.59276000E+03   # Ab(MX)              
        13     2.19125000E+03   # Atau(MX)            
        23     2.90678000E+03   # mu(MX)              
        26     1.88581000E+03   # mA(pole)            
        31     1.85521000E+03   # meL(MX)             
        32     1.85521000E+03   # mmuL(MX)            
        33     2.64782000E+03   # mtauL(MX)           
        34     1.72026000E+03   # meR(MX)             
        35     1.72026000E+03   # mmuR(MX)            
        36     1.85053000E+03   # mtauR(MX)           
        41     3.38502000E+03   # mqL1(MX)            
        42     3.38502000E+03   # mqL2(MX)            
        43     1.05849000E+03   # mqL3(MX)            
        44     3.27280000E+03   # muR(MX)             
        45     3.27280000E+03   # mcR(MX)             
        46     3.09717000E+03   # mtR(MX)             
        47     2.45710000E+03   # mdR(MX)             
        48     2.45710000E+03   # msR(MX)             
        49     7.01640000E+02   # mbR(MX)             
#
BLOCK MASS  # Mass Spectrum
# PDG code           mass       particle
        24     8.03934827E+01   # W+
        25     1.25386452E+02   # h
        35     1.88528382E+03   # H
        36     1.88581000E+03   # A
        37     1.88706912E+03   # H+
         5     4.81876030E+00   # b-quark pole mass calculated from mb(mb)_Msbar
   1000001     3.42848642E+03   # ~d_L
   2000001     2.51104579E+03   # ~d_R
   1000002     3.42775963E+03   # ~u_L
   2000002     3.31139806E+03   # ~u_R
   1000003     3.42848642E+03   # ~s_L
   2000003     2.51104579E+03   # ~s_R
   1000004     3.42775963E+03   # ~c_L
   2000004     3.31139806E+03   # ~c_R
   1000005     7.72517677E+02   # ~b_1
   2000005     1.16964289E+03   # ~b_2
   1000006     1.12709578E+03   # ~t_1
   2000006     3.08669630E+03   # ~t_2
   1000011     1.86883337E+03   # ~e_L
   2000011     1.71961248E+03   # ~e_R
   1000012     1.86694313E+03   # ~nu_eL
   1000013     1.86883337E+03   # ~mu_L
   2000013     1.71961248E+03   # ~mu_R
   1000014     1.86694313E+03   # ~nu_muL
   1000015     1.84869995E+03   # ~tau_1
   2000015     2.66057399E+03   # ~tau_2
   1000016     2.65834096E+03   # ~nu_tauL
   1000021     2.38221467E+03   # ~g
   1000022    -7.65159181E+02   # ~chi_10
   1000023    -2.87826138E+03   # ~chi_20
   1000025     2.92761671E+03   # ~chi_30
   1000035    -2.98056284E+03   # ~chi_40
   1000024     2.87838957E+03   # ~chi_1+
   1000037     2.98076824E+03   # ~chi_2+
#
BLOCK NMIX  # Neutralino Mixing Matrix
  1  1     9.99870205E-01   # N_11
  1  2    -5.74721341E-05   # N_12
  1  3     1.57574685E-02   # N_13
  1  4     3.35747935E-03   # N_14
  2  1    -9.62987998E-03   # N_21
  2  2    -7.09280206E-01   # N_22
  2  3     5.03324233E-01   # N_23
  2  4     4.93450677E-01   # N_24
  3  1     8.76705453E-03   # N_31
  3  2    -9.89791634E-03   # N_32
  3  3    -7.06999742E-01   # N_33
  3  4     7.07090189E-01   # N_34
  4  1    -9.48567083E-03   # N_41
  4  2     7.04857161E-01   # N_42
  4  3     4.96555922E-01   # N_43
  4  4     5.06476674E-01   # N_44
#
BLOCK UMIX  # Chargino Mixing Matrix U
  1  1    -6.88722104E-01   # U_11
  1  2     7.25025423E-01   # U_12
  2  1    -7.25025423E-01   # U_21
  2  2    -6.88722104E-01   # U_22
#
BLOCK VMIX  # Chargino Mixing Matrix V
  1  1     7.02735057E-01   # V_11
  1  2     7.11451643E-01   # V_12
  2  1     7.11451643E-01   # V_21
  2  2    -7.02735057E-01   # V_22
#
BLOCK STOPMIX  # Stop Mixing Matrix
  1  1     9.94270821E-01   # cos(theta_t)
  1  2     1.06890292E-01   # sin(theta_t)
  2  1    -1.06890292E-01   # -sin(theta_t)
  2  2     9.94270821E-01   # cos(theta_t)
#
BLOCK SBOTMIX  # Sbottom Mixing Matrix
  1  1     1.57798530E-01   # cos(theta_b)
  1  2     9.87471328E-01   # sin(theta_b)
  2  1    -9.87471328E-01   # -sin(theta_b)
  2  2     1.57798530E-01   # cos(theta_b)
#
BLOCK STAUMIX  # Stau Mixing Matrix
  1  1     3.39653066E-02   # cos(theta_tau)
  1  2     9.99423013E-01   # sin(theta_tau)
  2  1    -9.99423013E-01   # -sin(theta_tau)
  2  2     3.39653066E-02   # cos(theta_tau)
#
BLOCK ALPHA  # Higgs mixing
          -3.89814339E-02   # Mixing angle in the neutral Higgs boson sector
#
BLOCK HMIX Q=  1.78860000E+03  # DRbar Higgs Parameters
         1     2.93279524E+03   # mu(Q)MSSM           
         2     2.60197670E+01   # tan                 
         3     2.42829029E+02   # higgs               
         4     7.89697224E+06   # mA^2(Q)MSSM         
#
BLOCK GAUGE Q=  1.78860000E+03  # The gauge couplings
     1     3.63017779E-01   # gprime(Q) DRbar
     2     6.34010795E-01   # g(Q) DRbar
     3     1.02670008E+00   # g3(Q) DRbar
#
BLOCK AU Q=  1.78860000E+03  # The trilinear couplings
  1  1     0.00000000E+00   # A_u(Q) DRbar
  2  2     0.00000000E+00   # A_c(Q) DRbar
  3  3    -5.81734999E+03   # A_t(Q) DRbar
#
BLOCK AD Q=  1.78860000E+03  # The trilinear couplings
  1  1     0.00000000E+00   # A_d(Q) DRbar
  2  2     0.00000000E+00   # A_s(Q) DRbar
  3  3     2.59276000E+03   # A_b(Q) DRbar
#
BLOCK AE Q=  1.78860000E+03  # The trilinear couplings
  1  1     0.00000000E+00   # A_e(Q) DRbar
  2  2     0.00000000E+00   # A_mu(Q) DRbar
  3  3     2.19125000E+03   # A_tau(Q) DRbar
#
BLOCK Yu Q=  1.78860000E+03  # The Yukawa couplings
  1  1     0.00000000E+00   # y_u(Q) DRbar
  2  2     0.00000000E+00   # y_c(Q) DRbar
  3  3     8.22383633E-01   # y_t(Q) DRbar
#
BLOCK Yd Q=  1.78860000E+03  # The Yukawa couplings
  1  1     0.00000000E+00   # y_d(Q) DRbar
  2  2     0.00000000E+00   # y_s(Q) DRbar
  3  3     2.37826276E-01   # y_b(Q) DRbar
#
BLOCK Ye Q=  1.78860000E+03  # The Yukawa couplings
  1  1     0.00000000E+00   # y_e(Q) DRbar
  2  2     0.00000000E+00   # y_mu(Q) DRbar
  3  3     2.53856871E-01   # y_tau(Q) DRbar
#
BLOCK MSOFT Q=  1.78860000E+03  # The soft SUSY breaking masses at the scale Q
         1    -7.65380000E+02   # M_1(Q)              
         2    -2.92416000E+03   # M_2(Q)              
         3     2.23807000E+03   # M_3(Q)              
        21    -5.00267061E+06   # mH1^2(Q)            
        22    -8.68849032E+06   # mH2^2(Q)            
        31     1.85521000E+03   # meL(Q)              
        32     1.85521000E+03   # mmuL(Q)             
        33     2.64782000E+03   # mtauL(Q)            
        34     1.72026000E+03   # meR(Q)              
        35     1.72026000E+03   # mmuR(Q)             
        36     1.85053000E+03   # mtauR(Q)            
        41     3.38502000E+03   # mqL1(Q)             
        42     3.38502000E+03   # mqL2(Q)             
        43     1.05848998E+03   # mqL3(Q)             
        44     3.27280000E+03   # muR(Q)              
        45     3.27280000E+03   # mcR(Q)              
        46     3.09716999E+03   # mtR(Q)              
        47     2.45710000E+03   # mdR(Q)              
        48     2.45710000E+03   # msR(Q)              
        49     7.01639991E+02   # mbR(Q)              
#
Block HiggsBoundsInputHiggsCouplingsFermions
# ScalarNormEffCoupSq PseudoSNormEffCoupSq NP   IP1 IP2 IP2
    1.02977759E+00    0.00000000E+00        3  25   5   5  # h0-b-b eff. coupling^2, normalised to SM
    6.76998497E+02    0.00000000E+00        3  35   5   5  # H0-b-b eff. coupling^2, normalised to SM
    0.00000000E+00    6.77028275E+02        3  36   5   5  # A0-b-b eff. coupling^2, normalised to SM
#
    9.99956017E-01    0.00000000E+00        3  25   6   6  # h0-t-t eff. coupling^2, normalised to SM
    1.52102597E-03    0.00000000E+00        3  35   6   6  # H0-t-t eff. coupling^2, normalised to SM
    0.00000000E+00    1.47704319E-03        3  36   6   6  # A0-t-t eff. coupling^2, normalised to SM
#
    1.02977759E+00    0.00000000E+00        3  25  15  15  # h0-tau-tau eff. coupling^2, normalised to SM
    6.76998497E+02    0.00000000E+00        3  35  15  15  # H0-tau-tau eff. coupling^2, normalised to SM
    0.00000000E+00    6.77028275E+02        3  36  15  15  # A0-tau-tau eff. coupling^2, normalised to SM
#
Block HiggsBoundsInputHiggsCouplingsBosons
    9.99999677E-01        3  25  24  24  # h0-W-W eff. coupling^2, normalised to SM
    3.22646302E-07        3  35  24  24  # H0-W-W eff. coupling^2, normalised to SM
    0.00000000E+00        3  36  24  24  # A0-W-W eff. coupling^2, normalised to SM
#
    9.99999677E-01        3  25  23  23  # h0-Z-Z eff. coupling^2, normalised to SM
    3.22646302E-07        3  35  23  23  # H0-Z-Z eff. coupling^2, normalised to SM
    0.00000000E+00        3  36  23  23  # A0-Z-Z eff. coupling^2, normalised to SM
#
    8.06232927E-01        3  25  21  21  # h0-g-g eff. coupling^2, normalised to SM
    1.48862263E-09        3  35  21  21  # H0-g-g eff. coupling^2, normalised to SM
    3.03073810E-10        3  36  21  21  # A0-g-g eff. coupling^2, normalised to SM
#
    0.00000000E+00        3  25  25  23  # h0-h0-Z eff. coupling^2, normalised to SM
    0.00000000E+00        3  35  25  23  # H0-h0-Z eff. coupling^2, normalised to SM
    3.22646302E-07        3  36  25  23  # A0-h0-Z eff. coupling^2, normalised to SM
    0.00000000E+00        3  35  35  23  # H0-H0-Z eff. coupling^2, normalised to SM
    9.99999677E-01        3  36  35  23  # A0-H0-Z eff. coupling^2, normalised to SM
    0.00000000E+00        3  36  36  23  # A0-A0-Z eff. coupling^2, normalised to SM
#
    0.00000000E+00        4  25  21  21  23  # h0-g-g-Z eff. coupling^2, normalised to SM
    0.00000000E+00        4  35  21  21  23  # H0-g-g-Z eff. coupling^2, normalised to SM
    0.00000000E+00        4  36  21  21  23  # A0-g-g-Z eff. coupling^2, normalised to SM
#
#
#
#                             =================
#                             |The decay table|
#                             =================
#
# - The QCD corrections to the decays gluino -> squark  + quark
#                                     squark -> gaugino + quark_prime
#                                     squark -> squark_prime + Higgs
#                                     squark -> gluino  + quark
#   are included.
#
# - The multi-body decays for the inos, stops and sbottoms are included.
#
# - The loop induced decays for the gluino, neutralinos and stops
#   are included.
#
# - The SUSY decays of the top quark are included.
#
#
#         PDG            Width
DECAY         6     1.41552035E+00   # top decays
#          BR         NDA      ID1       ID2
     1.00000000E+00    2           5        24   # BR(t ->  b    W+)
#
#         PDG            Width
DECAY   1000021     9.56433612E+01   # gluino decays
#          BR         NDA      ID1       ID2
     2.04295206E-01    2     1000005        -5   # BR(~g -> ~b_1  bb)
     2.04295206E-01    2    -1000005         5   # BR(~g -> ~b_1* b )
     1.47638303E-01    2     2000005        -5   # BR(~g -> ~b_2  bb)
     1.47638303E-01    2    -2000005         5   # BR(~g -> ~b_2* b )
     1.48066490E-01    2     1000006        -6   # BR(~g -> ~t_1  tb)
     1.48066490E-01    2    -1000006         6   # BR(~g -> ~t_1* t )
#
#         PDG            Width
DECAY   1000006     3.02798533E+00   # stop1 decays
#          BR         NDA      ID1       ID2
     1.09581137E-02    2     1000022         6   # BR(~t_1 -> ~chi_10 t )
     9.89041886E-01    2     1000005        24   # BR(~t_1 -> ~b_1    W+)
#
#         PDG            Width
DECAY   2000006     3.06874324E+02   # stop2 decays
#          BR         NDA      ID1       ID2
     2.03263423E-02    2     1000022         6   # BR(~t_2 -> ~chi_10 t )
     3.03697709E-04    2     1000023         6   # BR(~t_2 -> ~chi_20 t )
     0.00000000E+00    2     1000025         6   # BR(~t_2 -> ~chi_30 t )
     1.35063667E-03    2     1000024         5   # BR(~t_2 -> ~chi_1+ b )
     2.53072837E-04    2     1000037         5   # BR(~t_2 -> ~chi_2+ b )
     8.43596739E-02    2     1000021         6   # BR(~t_2 -> ~g      t )
     2.05819372E-01    2     1000006        25   # BR(~t_2 -> ~t_1    h )
     1.04834116E-02    2     1000006        35   # BR(~t_2 -> ~t_1    H )
     1.09664707E-02    2     1000006        36   # BR(~t_2 -> ~t_1    A )
     9.82448714E-04    2     1000005        37   # BR(~t_2 -> ~b_1    H+)
     1.36380020E-02    2     2000005        37   # BR(~t_2 -> ~b_2    H+)
     2.24071218E-01    2     1000006        23   # BR(~t_2 -> ~t_1    Z )
     1.38582930E-02    2     1000005        24   # BR(~t_2 -> ~b_1    W+)
     4.13587360E-01    2     2000005        24   # BR(~t_2 -> ~b_2    W+)
#
#         PDG            Width
DECAY   1000005     1.36897267E-04   # sbottom1 decays
#          BR         NDA      ID1       ID2
     1.00000000E+00    2     1000022         5   # BR(~b_1 -> ~chi_10 b )
#
#         PDG            Width
DECAY   2000005     3.92844526E+00   # sbottom2 decays
#          BR         NDA      ID1       ID2
     1.46284951E-02    2     1000022         5   # BR(~b_2 -> ~chi_10 b )
     4.65463708E-01    2     1000005        25   # BR(~b_2 -> ~b_1    h )
     5.19907797E-01    2     1000005        23   # BR(~b_2 -> ~b_1    Z )
#
#         PDG            Width
DECAY   1000002     6.94949966E+01   # sup_L decays
#          BR         NDA      ID1       ID2
     6.21070982E-03    2     1000022         2   # BR(~u_L -> ~chi_10 u)
     8.58956147E-03    2     1000023         2   # BR(~u_L -> ~chi_20 u)
     9.69792598E-07    2     1000025         2   # BR(~u_L -> ~chi_30 u)
     5.78179783E-03    2     1000035         2   # BR(~u_L -> ~chi_40 u)
     1.67694550E-02    2     1000024         1   # BR(~u_L -> ~chi_1+ d)
     1.18318022E-02    2     1000037         1   # BR(~u_L -> ~chi_2+ d)
     9.50815704E-01    2     1000021         2   # BR(~u_L -> ~g      u)
#
#         PDG            Width
DECAY   2000002     6.22091249E+01   # sup_R decays
#          BR         NDA      ID1       ID2
     1.06409946E-01    2     1000022         2   # BR(~u_R -> ~chi_10 u)
     6.85422947E-07    2     1000023         2   # BR(~u_R -> ~chi_20 u)
     4.55083561E-07    2     1000025         2   # BR(~u_R -> ~chi_30 u)
     4.04825233E-07    2     1000035         2   # BR(~u_R -> ~chi_40 u)
     8.93588509E-01    2     1000021         2   # BR(~u_R -> ~g      u)
#
#         PDG            Width
DECAY   1000001     6.95530175E+01   # sdown_L decays
#          BR         NDA      ID1       ID2
     6.21463565E-03    2     1000022         1   # BR(~d_L -> ~chi_10 d)
     8.51263889E-03    2     1000023         1   # BR(~d_L -> ~chi_20 d)
     1.92266323E-06    2     1000025         1   # BR(~d_L -> ~chi_30 d)
     5.85294657E-03    2     1000035         1   # BR(~d_L -> ~chi_40 d)
     1.61294197E-02    2    -1000024         2   # BR(~d_L -> ~chi_1- u)
     1.23116699E-02    2    -1000037         2   # BR(~d_L -> ~chi_2- u)
     9.50976767E-01    2     1000021         1   # BR(~d_L -> ~g      d)
#
#         PDG            Width
DECAY   2000001     2.96132987E+00   # sdown_R decays
#          BR         NDA      ID1       ID2
     3.88727777E-01    2     1000022         1   # BR(~d_R -> ~chi_10 d)
     6.11272223E-01    2     1000021         1   # BR(~d_R -> ~g      d)
#
#         PDG            Width
DECAY   1000004     5.46953594E+01   # scharm_L decays
#          BR         NDA      ID1       ID2
     8.23383568E-03    2     1000022         4   # BR(~c_L -> ~chi_10 c)
     1.10213982E-02    2     1000023         4   # BR(~c_L -> ~chi_20 c)
     1.24055355E-06    2     1000025         4   # BR(~c_L -> ~chi_30 c)
     7.36823025E-03    2     1000035         4   # BR(~c_L -> ~chi_40 c)
     2.15170858E-02    2     1000024         3   # BR(~c_L -> ~chi_1+ s)
     1.50781248E-02    2     1000037         3   # BR(~c_L -> ~chi_2+ s)
     9.36780085E-01    2     1000021         4   # BR(~c_L -> ~g      c)
#
#         PDG            Width
DECAY   2000004     5.00184083E+01   # scharm_R decays
#          BR         NDA      ID1       ID2
     1.38210771E-01    2     1000022         4   # BR(~c_R -> ~chi_10 c)
     8.55247045E-07    2     1000023         4   # BR(~c_R -> ~chi_20 c)
     5.65422078E-07    2     1000025         4   # BR(~c_R -> ~chi_30 c)
     5.00260125E-07    2     1000035         4   # BR(~c_R -> ~chi_40 c)
     8.61787308E-01    2     1000021         4   # BR(~c_R -> ~g      c)
#
#         PDG            Width
DECAY   1000003     5.47383403E+01   # sstrange_L decays
#          BR         NDA      ID1       ID2
     8.23940444E-03    2     1000022         3   # BR(~s_L -> ~chi_10 s)
     1.09236598E-02    2     1000023         3   # BR(~s_L -> ~chi_20 s)
     2.45969375E-06    2     1000025         3   # BR(~s_L -> ~chi_30 s)
     7.45967537E-03    2     1000035         3   # BR(~s_L -> ~chi_40 s)
     2.06974869E-02    2    -1000024         4   # BR(~s_L -> ~chi_1- c)
     1.56910759E-02    2    -1000037         4   # BR(~s_L -> ~chi_2- c)
     9.36986238E-01    2     1000021         3   # BR(~s_L -> ~g      s)
#
#         PDG            Width
DECAY   2000003     2.60722404E+00   # sstrange_R decays
#          BR         NDA      ID1       ID2
     4.61628513E-01    2     1000022         3   # BR(~s_R -> ~chi_10 s)
     5.38371487E-01    2     1000021         3   # BR(~s_R -> ~g      s)
#
#         PDG            Width
DECAY   1000011     1.69650487E+00   # selectron_L decays
#          BR         NDA      ID1       ID2
     1.00000000E+00    2     1000022        11   # BR(~e_L -> ~chi_10 e-)
#
#         PDG            Width
DECAY   2000011     5.79820756E+00   # selectron_R decays
#          BR         NDA      ID1       ID2
     1.00000000E+00    2     1000022        11   # BR(~e_R -> ~chi_10 e-)
#
#         PDG            Width
DECAY   1000013     1.69650485E+00   # smuon_L decays
#          BR         NDA      ID1       ID2
     1.00000000E+00    2     1000022        13   # BR(~mu_L -> ~chi_10 mu-)
#
#         PDG            Width
DECAY   2000013     5.79820749E+00   # smuon_R decays
#          BR         NDA      ID1       ID2
     1.00000000E+00    2     1000022        13   # BR(~mu_R -> ~chi_10 mu-)
#
#         PDG            Width
DECAY   1000015     6.65143489E+00   # stau_1 decays
#          BR         NDA      ID1       ID2
     1.00000000E+00    2     1000022        15   # BR(~tau_1 -> ~chi_10  tau-)
#
#         PDG            Width
DECAY   2000015     4.87247558E+00   # stau_2 decays
#          BR         NDA      ID1       ID2
     6.03618060E-01    2     1000022        15   # BR(~tau_2 -> ~chi_10  tau-)
     2.03504751E-01    2     1000015        25   # BR(~tau_2 -> ~tau_1   h)
     1.92877189E-01    2     1000015        23   # BR(~tau_2 -> ~tau_1   Z)
#
#         PDG            Width
DECAY   1000012     1.69408632E+00   # snu_eL decays
#          BR         NDA      ID1       ID2
     1.00000000E+00    2     1000022        12   # BR(~nu_eL -> ~chi_10 nu_e)
#
#         PDG            Width
DECAY   1000014     1.69408632E+00   # snu_muL decays
#          BR         NDA      ID1       ID2
     1.00000000E+00    2     1000022        14   # BR(~nu_muL -> ~chi_10 nu_mu)
#
#         PDG            Width
DECAY   1000016     4.74899782E+00   # snu_tauL decays
#          BR         NDA      ID1       ID2
     6.17194005E-01    2     1000022        16   # BR(~nu_tauL -> ~chi_10 nu_tau)
     3.82805995E-01    2    -1000015       -24   # BR(~nu_tauL -> ~tau_1+ W-)
#
#         PDG            Width
DECAY   1000024     5.88674261E+01   # chargino1+ decays
#          BR         NDA      ID1       ID2
     1.81601806E-01    2     1000006        -5   # BR(~chi_1+ -> ~t_1     bb)
     8.96998466E-02    2    -1000005         6   # BR(~chi_1+ -> ~b_1*    t )
     5.72606968E-01    2    -2000005         6   # BR(~chi_1+ -> ~b_2*    t )
     3.24020167E-02    2     1000012       -11   # BR(~chi_1+ -> ~nu_eL   e+  )
     3.24020167E-02    2     1000014       -13   # BR(~chi_1+ -> ~nu_muL  mu+ )
     2.42957310E-03    2     1000016       -15   # BR(~chi_1+ -> ~nu_tau1 tau+)
     3.10311584E-02    2    -1000011        12   # BR(~chi_1+ -> ~e_L+    nu_e)
     3.10311584E-02    2    -1000013        14   # BR(~chi_1+ -> ~mu_L+   nu_mu)
     6.63303015E-03    2    -1000015        16   # BR(~chi_1+ -> ~tau_1+  nu_tau)
     1.90835429E-03    2    -2000015        16   # BR(~chi_1+ -> ~tau_2+  nu_tau)
     1.38502545E-02    2     1000022        24   # BR(~chi_1+ -> ~chi_10  W+)
     4.40381702E-03    2     1000022        37   # BR(~chi_1+ -> ~chi_10  H+)
#
#         PDG            Width
DECAY   1000037     6.19837225E+01   # chargino2+ decays
#          BR         NDA      ID1       ID2
     3.03049422E-01    2     1000006        -5   # BR(~chi_2+ -> ~t_1     bb)
     2.28328071E-02    2    -1000005         6   # BR(~chi_2+ -> ~b_1*    t )
     4.93256898E-01    2    -2000005         6   # BR(~chi_2+ -> ~b_2*    t )
     3.59442527E-02    2     1000012       -11   # BR(~chi_2+ -> ~nu_eL   e+  )
     3.59442527E-02    2     1000014       -13   # BR(~chi_2+ -> ~nu_muL mu+ )
     4.70641974E-03    2     1000016       -15   # BR(~chi_2+ -> ~nu_tau1 tau+)
     3.72313227E-02    2    -1000011        12   # BR(~chi_2+ -> ~e_L+    nu_e)
     3.72313227E-02    2    -1000013        14   # BR(~chi_2+ -> ~mu_L+   nu_mu)
     4.58614322E-03    2    -1000015        16   # BR(~chi_2+ -> ~tau_1+  nu_tau)
     4.28138071E-03    2    -2000015        16   # BR(~chi_2+ -> ~tau_2+  nu_tau)
     9.84979677E-04    2     1000024        23   # BR(~chi_2+ -> ~chi_1+  Z )
     1.31139044E-02    2     1000022        24   # BR(~chi_2+ -> ~chi_10  W+)
     2.72945935E-03    2     1000023        24   # BR(~chi_2+ -> ~chi_20  W+)
     4.10743437E-03    2     1000022        37   # BR(~chi_2+ -> ~chi_10  H+)
#
#         PDG            Width
DECAY   1000022     0.00000000E+00   # neutralino1 decays
#
#         PDG            Width
DECAY   1000023     5.88772321E+01   # neutralino2 decays
#          BR         NDA      ID1       ID2
     4.09289181E-03    2     1000022        23   # BR(~chi_20 -> ~chi_10   Z )
     1.08093332E-02    2     1000022        25   # BR(~chi_20 -> ~chi_10   h )
     3.96195912E-03    2     1000022        35   # BR(~chi_20 -> ~chi_10   H )
     3.19318267E-04    2     1000022        36   # BR(~chi_20 -> ~chi_10   A )
     2.25346271E-07    2     2000001        -1   # BR(~chi_20 -> ~d_R      db)
     2.25346271E-07    2    -2000001         1   # BR(~chi_20 -> ~d_R*     d )
     2.25346271E-07    2     2000003        -3   # BR(~chi_20 -> ~s _R      sb)
     2.25346271E-07    2    -2000003         3   # BR(~chi_20 -> ~s _R*     s )
     2.81082501E-01    2     1000006        -6   # BR(~chi_20 -> ~t_1      tb)
     2.81082501E-01    2    -1000006         6   # BR(~chi_20 -> ~t_1*     t )
     3.59094051E-02    2     1000005        -5   # BR(~chi_20 -> ~b_1      bb)
     3.59094051E-02    2    -1000005         5   # BR(~chi_20 -> ~b_1*     b )
     1.02048153E-01    2     2000005        -5   # BR(~chi_20 -> ~b_2      bb)
     1.02048153E-01    2    -2000005         5   # BR(~chi_20 -> ~b_2*     b )
     1.67068166E-02    2     1000011       -11   # BR(~chi_20 -> ~e_L-     e+)
     1.67068166E-02    2    -1000011        11   # BR(~chi_20 -> ~e_L+     e-)
     4.91481777E-06    2     2000011       -11   # BR(~chi_20 -> ~e_R-     e+)
     4.91481777E-06    2    -2000011        11   # BR(~chi_20 -> ~e_R+     e-)
     1.67068166E-02    2     1000013       -13   # BR(~chi_20 -> ~mu_L-    mu+)
     1.67068166E-02    2    -1000013        13   # BR(~chi_20 -> ~mu_L+    mu-)
     4.91481777E-06    2     2000013       -13   # BR(~chi_20 -> ~mu_R-    mu+)
     4.91481777E-06    2    -2000013        13   # BR(~chi_20 -> ~mu_R+    mu-)
     3.22303676E-03    2     1000015       -15   # BR(~chi_20 -> ~tau_1-   tau+)
     3.22303676E-03    2    -1000015        15   # BR(~chi_20 -> ~tau_1+   tau-)
     1.18942577E-03    2     2000015       -15   # BR(~chi_20 -> ~tau_2-   tau+)
     1.18942577E-03    2    -2000015        15   # BR(~chi_20 -> ~tau_2+   tau-)
     1.62430652E-02    2     1000012       -12   # BR(~chi_20 -> ~nu_eL    nu_eb)
     1.62430652E-02    2    -1000012        12   # BR(~chi_20 -> ~nu_eL*   nu_e )
     1.62430652E-02    2     1000014       -14   # BR(~chi_20 -> ~nu_muL   nu_mub)
     1.62430652E-02    2    -1000014        14   # BR(~chi_20 -> ~nu_muL*  nu_mu )
     1.04568338E-03    2     1000016       -16   # BR(~chi_20 -> ~nu_tau1  nu_taub)
     1.04568338E-03    2    -1000016        16   # BR(~chi_20 -> ~nu_tau1* nu_tau )
#
#         PDG            Width
DECAY   1000025     5.46055110E+01   # neutralino3 decays
#          BR         NDA      ID1       ID2
     2.16322639E-02    2     1000022        23   # BR(~chi_30 -> ~chi_10   Z )
     9.57358353E-03    2     1000022        25   # BR(~chi_30 -> ~chi_10   h )
     8.30880254E-04    2     1000022        35   # BR(~chi_30 -> ~chi_10   H )
     8.70976673E-03    2     1000022        36   # BR(~chi_30 -> ~chi_10   A )
     2.49849118E-07    2     2000001        -1   # BR(~chi_30 -> ~d_R      db)
     2.49849118E-07    2    -2000001         1   # BR(~chi_30 -> ~d_R*     d )
     2.49849118E-07    2     2000003        -3   # BR(~chi_30 -> ~s _R      sb)
     2.49849118E-07    2    -2000003         3   # BR(~chi_30 -> ~s _R*     s )
     4.01839951E-01    2     1000006        -6   # BR(~chi_30 -> ~t_1      tb)
     4.01839951E-01    2    -1000006         6   # BR(~chi_30 -> ~t_1*     t )
     3.87126282E-02    2     1000005        -5   # BR(~chi_30 -> ~b_1      bb)
     3.87126282E-02    2    -1000005         5   # BR(~chi_30 -> ~b_1*     b )
     3.23247475E-02    2     2000005        -5   # BR(~chi_30 -> ~b_2      bb)
     3.23247475E-02    2    -2000005         5   # BR(~chi_30 -> ~b_2*     b )
     8.95459000E-07    2     1000011       -11   # BR(~chi_30 -> ~e_L-     e+)
     8.95459000E-07    2    -1000011        11   # BR(~chi_30 -> ~e_L+     e-)
     4.63488877E-06    2     2000011       -11   # BR(~chi_30 -> ~e_R-     e+)
     4.63488877E-06    2    -2000011        11   # BR(~chi_30 -> ~e_R+     e-)
     8.95459000E-07    2     1000013       -13   # BR(~chi_30 -> ~mu_L-    mu+)
     8.95459000E-07    2    -1000013        13   # BR(~chi_30 -> ~mu_L+    mu-)
     4.63488877E-06    2     2000013       -13   # BR(~chi_30 -> ~mu_R-    mu+)
     4.63488877E-06    2    -2000013        13   # BR(~chi_30 -> ~mu_R+    mu-)
     6.19852223E-03    2     1000015       -15   # BR(~chi_30 -> ~tau_1-   tau+)
     6.19852223E-03    2    -1000015        15   # BR(~chi_30 -> ~tau_1+   tau-)
     5.21813810E-04    2     2000015       -15   # BR(~chi_30 -> ~tau_2-   tau+)
     5.21813810E-04    2    -2000015        15   # BR(~chi_30 -> ~tau_2+   tau-)
     8.39748090E-06    2     1000012       -12   # BR(~chi_30 -> ~nu_eL    nu_eb)
     8.39748090E-06    2    -1000012        12   # BR(~chi_30 -> ~nu_eL*   nu_e )
     8.39748090E-06    2     1000014       -14   # BR(~chi_30 -> ~nu_muL   nu_mub)
     8.39748090E-06    2    -1000014        14   # BR(~chi_30 -> ~nu_muL*  nu_mu )
     7.34645469E-07    2     1000016       -16   # BR(~chi_30 -> ~nu_tau1  nu_taub)
     7.34645469E-07    2    -1000016        16   # BR(~chi_30 -> ~nu_tau1* nu_tau )
#
#         PDG            Width
DECAY   1000035     6.14280394E+01   # neutralino4 decays
#          BR         NDA      ID1       ID2
     4.21331200E-03    2     1000022        23   # BR(~chi_40 -> ~chi_10   Z )
     2.69375012E-12    2     1000023        23   # BR(~chi_40 -> ~chi_20   Z )
     2.13712491E-03    2     1000024       -24   # BR(~chi_40 -> ~chi_1+   W-)
     2.13712491E-03    2    -1000024        24   # BR(~chi_40 -> ~chi_1-   W+)
     1.09238854E-02    2     1000022        25   # BR(~chi_40 -> ~chi_10   h )
     3.91431570E-03    2     1000022        35   # BR(~chi_40 -> ~chi_10   H )
     4.28707989E-04    2     1000022        36   # BR(~chi_40 -> ~chi_10   A )
     3.18055414E-07    2     2000001        -1   # BR(~chi_40 -> ~d_R      db)
     3.18055414E-07    2    -2000001         1   # BR(~chi_40 -> ~d_R*     d )
     3.18055414E-07    2     2000003        -3   # BR(~chi_40 -> ~s _R      sb)
     3.18055414E-07    2    -2000003         3   # BR(~chi_40 -> ~s _R*     s )
     2.75925006E-01    2     1000006        -6   # BR(~chi_40 -> ~t_1      tb)
     2.75925006E-01    2    -1000006         6   # BR(~chi_40 -> ~t_1*     t )
     5.94793799E-03    2     1000005        -5   # BR(~chi_40 -> ~b_1      bb)
     5.94793799E-03    2    -1000005         5   # BR(~chi_40 -> ~b_1*     b )
     1.28328615E-01    2     2000005        -5   # BR(~chi_40 -> ~b_2      bb)
     1.28328615E-01    2    -2000005         5   # BR(~chi_40 -> ~b_2*     b )
     1.74766815E-02    2     1000011       -11   # BR(~chi_40 -> ~e_L-     e+)
     1.74766815E-02    2    -1000011        11   # BR(~chi_40 -> ~e_L+     e-)
     5.09430131E-06    2     2000011       -11   # BR(~chi_40 -> ~e_R-     e+)
     5.09430131E-06    2    -2000011        11   # BR(~chi_40 -> ~e_R+     e-)
     1.74766815E-02    2     1000013       -13   # BR(~chi_40 -> ~mu_L-    mu+)
     1.74766815E-02    2    -1000013        13   # BR(~chi_40 -> ~mu_L+    mu-)
     5.09430131E-06    2     2000013       -13   # BR(~chi_40 -> ~mu_R-    mu+)
     5.09430131E-06    2    -2000013        13   # BR(~chi_40 -> ~mu_R+    mu-)
     2.43052901E-03    2     1000015       -15   # BR(~chi_40 -> ~tau_1-   tau+)
     2.43052901E-03    2    -1000015        15   # BR(~chi_40 -> ~tau_1+   tau-)
     2.33725983E-03    2     2000015       -15   # BR(~chi_40 -> ~tau_2-   tau+)
     2.33725983E-03    2    -2000015        15   # BR(~chi_40 -> ~tau_2+   tau-)
     1.80709893E-02    2     1000012       -12   # BR(~chi_40 -> ~nu_eL    nu_eb)
     1.80709893E-02    2    -1000012        12   # BR(~chi_40 -> ~nu_eL*   nu_e )
     1.80709893E-02    2     1000014       -14   # BR(~chi_40 -> ~nu_muL   nu_mub)
     1.80709893E-02    2    -1000014        14   # BR(~chi_40 -> ~nu_muL*  nu_mu )
     2.04724978E-03    2     1000016       -16   # BR(~chi_40 -> ~nu_tau1  nu_taub)
     2.04724978E-03    2    -1000016        16   # BR(~chi_40 -> ~nu_tau1* nu_tau )
#
#         PDG            Width
DECAY        25     6.56045442E-03   # h decays
#          BR         NDA      ID1       ID2
     7.46141435E-01    2           5        -5   # BR(h -> b       bb     )
     4.08006699E-02    2         -15        15   # BR(h -> tau+    tau-   )
     1.44476152E-04    2         -13        13   # BR(h -> mu+     mu-    )
     1.56502495E-04    2           3        -3   # BR(h -> s       sb     )
     1.32522909E-02    2           4        -4   # BR(h -> c       cb     )
     4.67475795E-02    2          21        21   # BR(h -> g       g      )
     1.46820044E-03    2          22        22   # BR(h -> gam     gam    )
     9.85604624E-04    2          22        23   # BR(h -> Z       gam    )
     1.33524318E-01    2          24       -24   # BR(h -> W+      W-     )
     1.67789223E-02    2          23        23   # BR(h -> Z       Z      )
#
#         PDG            Width
DECAY        35     1.63579736E+01   # H decays
#          BR         NDA      ID1       ID2
     7.93118920E-01    2           5        -5   # BR(H -> b       bb     )
     1.78518155E-01    2         -15        15   # BR(H -> tau+    tau-   )
     6.47777362E-04    2         -13        13   # BR(H -> mu+     mu-    )
     2.65887909E-04    2           3        -3   # BR(H -> s       sb     )
     7.66608603E-08    2           4        -4   # BR(H -> c       cb     )
     7.39671817E-03    2           6        -6   # BR(H -> t       tb     )
     1.84110910E-04    2          21        21   # BR(H -> g       g      )
     7.99300943E-08    2          22        22   # BR(H -> gam     gam    )
     1.27479009E-08    2          23        22   # BR(H -> Z       gam    )
     4.21771708E-05    2          24       -24   # BR(H -> W+      W-     )
     2.10001935E-05    2          23        23   # BR(H -> Z       Z      )
     7.14753143E-05    2          25        25   # BR(H -> h       h      )
     1.40695385E-05    2     1000022   1000022   # BR(H -> ~chi_10 ~chi_10)
     1.97195393E-02    2     1000005  -1000005   # BR(H -> ~b_1    ~b_1*  )
#
#         PDG            Width
DECAY        36     1.60269808E+01   # A decays
#          BR         NDA      ID1       ID2
     8.09125262E-01    2           5        -5   # BR(A -> b       bb     )
     1.82264085E-01    2         -15        15   # BR(A -> tau+    tau-   )
     6.61367281E-04    2         -13        13   # BR(A -> mu+     mu-    )
     2.71486861E-04    2           3        -3   # BR(A -> s       sb     )
     7.66989217E-08    2           4        -4   # BR(A -> c       cb     )
     7.50848097E-03    2           6        -6   # BR(A -> t       tb     )
     8.49380765E-05    2          21        21   # BR(A -> g       g      )
     7.18790693E-08    2          22        22   # BR(A -> gam     gam    )
     5.51759824E-08    2          23        22   # BR(A -> Z       gam    )
     4.34100308E-05    2          23        25   # BR(A -> Z       h      )
     4.07663373E-05    2     1000022   1000022   # BR(A -> ~chi_10 ~chi_10)
#
#         PDG            Width
DECAY        37     7.74736747E+00   # H+ decays
#          BR         NDA      ID1       ID2
     1.02051130E-03    2           4        -5   # BR(H+ -> c       bb     )
     3.77301503E-01    2         -15        16   # BR(H+ -> tau+    nu_tau )
     1.36908414E-03    2         -13        14   # BR(H+ -> mu+     nu_mu  )
     1.02050815E-05    2           2        -5   # BR(H+ -> u       bb     )
     2.80611185E-05    2           2        -3   # BR(H+ -> u       sb     )
     5.52479834E-04    2           4        -3   # BR(H+ -> c       sb     )
     6.19628028E-01    2           6        -5   # BR(H+ -> t       bb     )
     9.01274972E-05    2          24        25   # BR(H+ -> W+      h      )
     5.37228006E-13    2          24        36   # BR(H+ -> W+      A      )

DECAY         5   0.000000e+00 # b decays
DECAY        15   0.000000e+00 # tau decays
DECAY        23     2.49520000E+00   # Z
DECAY        24     2.08500000E+00   # W
