# SUSY Les Houches Accord 2 - MSSM spectrum + Decays
# SPheno v4.0.5be
# W. Porod, Comput. Phys. Commun. 153 (2003) 275-315, hep-ph/0301101;
# W. Porod, F.~Staub, Comput. Phys. Commun. 183 (2012) 2458
#                     arXiv:1104.1573 [hep-ph] 
# in case of problems send email to porod@physik.uni-wuerzburg.de
# Created: 07.09.2021,  20:13
Block SPINFO         # Program information
     1   SPheno      # spectrum calculator
     2   v4.0.5be    # version number
#
Block SPhenoINFO     # SPheno specific information
    1      2         # using 2-loop RGEs
    2      2         # using pole masses for boundary conditions at mZ
Block MODSEL  # Model selection
    1    0    # general MSSM
Block MINPAR  # Input parameters
    3    1.03752364E+01  # tanb at m_Z    
    4   -1.00000000E+00  # Sign(mu)
Block EXTPAR  # non-universal input parameters
    0    3.10494427E+03  # scale for input parameters
    1    2.01593353E+02  # M_1
    2    1.63949499E+03  # M_2
    3    1.54142786E+03  # M_3
   11    3.32970750E+03  # A_t
   12    1.95035637E+03  # A_b
   13   -1.11948291E+03  # A_tau
   23   -1.99020993E+02  # mu
   25    9.87896713E+00  # tan(beta)
   26    2.79469827E+03  # m_A, pole mass
   31    1.00000000E+04  # M_L11
   32    1.00000000E+04  # M_L22
   33    1.00000000E+04  # M_L33
   34    1.00000000E+04  # M_E11
   35    1.00000000E+04  # M_E22
   36    1.00000000E+04  # M_E33
   41    1.00000000E+04  # M_Q11
   42    1.00000000E+04  # M_Q22
   43    3.00970820E+03  # M_Q33
   44    1.00000000E+04  # M_U11
   45    1.00000000E+04  # M_U22
   46    3.20843022E+03  # M_U33
   47    1.00000000E+04  # M_D11
   48    1.00000000E+04  # M_D22
   49    4.56405157E+03  # M_D33
Block SMINPUTS  # SM parameters
         1     1.27908970E+02  # alpha_em^-1(MZ)^MSbar
         2     1.16637870E-05  # G_mu [GeV^-2]
         3     1.18400000E-01  # alpha_s(MZ)^MSbar
         4     9.11876000E+01  # m_Z(pole)
         5     4.18000000E+00  # m_b(m_b), MSbar
         6     1.73200000E+02  # m_t(pole)
         7     1.77700000E+00  # m_tau(pole)
         8     0.00000000E+00  # m_nu_3
        11     5.10998930E-04  # m_e(pole)
        12     0.00000000E+00  # m_nu_1
        13     1.05658372E-01  # m_muon(pole)
        14     0.00000000E+00  # m_nu_2
        21     5.00000000E-03  # m_d(2 GeV), MSbar
        22     2.50000000E-03  # m_u(2 GeV), MSbar
        23     9.50000000E-02  # m_s(2 GeV), MSbar
        24     1.27000000E+00  # m_c(m_c), MSbar
Block gauge Q=  3.10494427E+03  # (SUSY scale)
   1    3.55362975E-01  # g'(Q)^DRbar
   2    6.65198874E-01  # g(Q)^DRbar
   3    1.21977796E+00  # g3(Q)^DRbar
Block Yu Q=  3.10494427E+03  # (SUSY scale)
  1  1     8.42721803E-06   # Y_u(Q)^DRbar
  2  2     4.28102676E-03   # Y_c(Q)^DRbar
  3  3     1.01807563E+00   # Y_t(Q)^DRbar
Block Yd Q=  3.10494427E+03  # (SUSY scale)
  1  1     1.67292325E-04   # Y_d(Q)^DRbar
  2  2     3.17855418E-03   # Y_s(Q)^DRbar
  3  3     1.65901565E-01   # Y_b(Q)^DRbar
Block Ye Q=  3.10494427E+03  # (SUSY scale)
  1  1     2.91937341E-05   # Y_e(Q)^DRbar
  2  2     6.03633831E-03   # Y_mu(Q)^DRbar
  3  3     1.01521280E-01   # Y_tau(Q)^DRbar
Block Au Q=  3.10494427E+03  # (SUSY scale)
  1  1     0.00000000E+00   # A_u(Q)^DRbar
  2  2     0.00000000E+00   # A_c(Q)^DRbar
  3  3     3.32970751E+03   # A_t(Q)^DRbar
Block Ad Q=  3.10494427E+03  # (SUSY scale)
  1  1     0.00000000E+00   # A_d(Q)^DRbar
  2  2     0.00000000E+00   # A_s(Q)^DRbar
  3  3     1.95035636E+03   # A_b(Q)^DRbar
Block Ae Q=  3.10494427E+03  # (SUSY scale)
  1  1     0.00000000E+00   # A_e(Q)^DRbar
  2  2     0.00000000E+00   # A_mu(Q)^DRbar
  3  3    -1.11948291E+03   # A_tau(Q)^DRbar
Block MSOFT Q=  3.10494427E+03  # soft SUSY breaking masses at Q
   1    2.01593353E+02  # M_1
   2    1.63949499E+03  # M_2
   3    1.54142786E+03  # M_3
  21    7.64008121E+06  # M^2_(H,d)
  22    2.20639257E+05  # M^2_(H,u)
  31    1.00000000E+04  # M_(L,11)
  32    1.00000000E+04  # M_(L,22)
  33    1.00000000E+04  # M_(L,33)
  34    1.00000000E+04  # M_(E,11)
  35    1.00000000E+04  # M_(E,22)
  36    1.00000000E+04  # M_(E,33)
  41    1.00000000E+04  # M_(Q,11)
  42    1.00000000E+04  # M_(Q,22)
  43    3.00970820E+03  # M_(Q,33)
  44    1.00000000E+04  # M_(U,11)
  45    1.00000000E+04  # M_(U,22)
  46    3.20843022E+03  # M_(U,33)
  47    1.00000000E+04  # M_(D,11)
  48    1.00000000E+04  # M_(D,22)
  49    4.56405157E+03  # M_(D,33)
Block MASS  # Mass spectrum
#   PDG code      mass          particle
         6     1.73200000E+02  # m_t(pole)
        23     9.11876000E+01  # m_Z(pole)
        24     8.04299946E+01  # W+
        15     1.77700000E+00  # m_tau(pole)
        25     1.22628058E+02  # h0
        35     2.79461876E+03  # H0
        36     2.79469827E+03  # A0
        37     2.79629939E+03  # H+
   1000001     1.01183812E+04  # ~d_L
   2000001     1.00947837E+04  # ~d_R
   1000002     1.01180245E+04  # ~u_L
   2000002     1.00977150E+04  # ~u_R
   1000003     1.01183823E+04  # ~s_L
   2000003     1.00947844E+04  # ~s_R
   1000004     1.01180255E+04  # ~c_L
   2000004     1.00977164E+04  # ~c_R
   1000005     3.03550237E+03  # ~b_1
   2000005     4.61327624E+03  # ~b_2
   1000006     3.00852112E+03  # ~t_1
   2000006     3.20445778E+03  # ~t_2
   1000011     1.00198316E+04  # ~e_L-
   2000011     1.00091488E+04  # ~e_R-
   1000012     1.00190737E+04  # ~nu_eL
   1000013     1.00198335E+04  # ~mu_L-
   2000013     1.00091524E+04  # ~mu_R-
   1000014     1.00190755E+04  # ~nu_muL
   1000015     1.00101787E+04  # ~tau_1-
   2000015     1.00203601E+04  # ~tau_2-
   1000016     1.00196007E+04  # ~nu_tauL
   1000021     1.90078389E+03  # ~g
   1000022     1.81119396E+02  # ~chi_10
   1000023     2.18006588E+02  # ~chi_20
   1000025     2.37220566E+02  # ~chi_30
   1000035     1.74502377E+03  # ~chi_40
   1000024     2.13759929E+02  # ~chi_1+
   1000037     1.74498978E+03  # ~chi_2+
# Higgs mixing
Block alpha # Effective Higgs mixing angle
          -9.63588514E-02   # alpha
Block Hmix Q=  3.10494427E+03  # Higgs mixing parameters
   1   -1.99020993E+02  # mu
   2    9.87896713E+00  # tan[beta](Q)
   3    2.43195082E+02  # v(Q)
   4    7.81033842E+06  # m^2_A(Q)
Block stopmix # stop mixing matrix
   1  1    -9.28480249E-01   # Re[R_st(1,1)]
   1  2     3.71381780E-01   # Re[R_st(1,2)]
   2  1    -3.71381780E-01   # Re[R_st(2,1)]
   2  2    -9.28480249E-01   # Re[R_st(2,2)]
Block sbotmix # sbottom mixing matrix
   1  1    -9.99999777E-01   # Re[R_sb(1,1)]
   1  2     6.68095580E-04   # Re[R_sb(1,2)]
   2  1    -6.68095580E-04   # Re[R_sb(2,1)]
   2  2    -9.99999777E-01   # Re[R_sb(2,2)]
Block staumix # stau mixing matrix
   1  1    -7.09080321E-03   # Re[R_sta(1,1)]
   1  2     9.99974860E-01   # Re[R_sta(1,2)]
   2  1    -9.99974860E-01   # Re[R_sta(2,1)]
   2  2    -7.09080321E-03   # Re[R_sta(2,2)]
Block Nmix # neutralino mixing matrix
   1  1    -7.35681998E-01   # Re[N(1,1)]
   1  2     1.91465824E-02   # Re[N(1,2)]
   1  3     5.23754172E-01   # Re[N(1,3)]
   1  4     4.29053580E-01   # Re[N(1,4)]
   2  1     8.18206804E-02   # Re[N(2,1)]
   2  2    -3.19862645E-02   # Re[N(2,2)]
   2  3     6.98158156E-01   # Re[N(2,3)]
   2  4    -7.10533211E-01   # Re[N(2,4)]
   3  1    -6.72365604E-01   # Re[N(3,1)]
   3  2    -2.68735531E-02   # Re[N(3,2)]
   3  3    -4.88114835E-01   # Re[N(3,3)]
   3  4    -5.55829304E-01   # Re[N(3,4)]
   4  1     1.36736341E-03   # Re[N(4,1)]
   4  2    -9.98943492E-01   # Re[N(4,2)]
   4  3     8.14871796E-04   # Re[N(4,3)]
   4  4     4.59278444E-02   # Re[N(4,4)]
Block Umix # chargino mixing matrix
   1  1    -1.17057937E-03   # Re[U(1,1)]
   1  2    -9.99999315E-01   # Re[U(1,2)]
   2  1     9.99999315E-01   # Re[U(2,1)]
   2  2    -1.17057937E-03   # Re[U(2,2)]
Block Vmix # chargino mixing matrix
   1  1    -6.49672022E-02   # Re[V(1,1)]
   1  2     9.97887400E-01   # Re[V(1,2)]
   2  1     9.97887400E-01   # Re[V(2,1)]
   2  2     6.49672022E-02   # Re[V(2,2)]
DECAY        23     2.49520000E+00   # Z
DECAY        24     2.08500000E+00   # W
DECAY   2000011     5.02486344E+01   # ~e^-_R
#    BR                NDA      ID1      ID2
     5.41343811E-01    2     1000022        11   # BR(~e^-_R -> chi^0_1 e^-)
     6.69408928E-03    2     1000023        11   # BR(~e^-_R -> chi^0_2 e^-)
     4.51960337E-01    2     1000025        11   # BR(~e^-_R -> chi^0_3 e^-)
DECAY   1000011     1.36988092E+02   # ~e^-_L
#    BR                NDA      ID1      ID2
     4.49715646E-02    2     1000022        11   # BR(~e^-_L -> chi^0_1 e^-)
     4.79308317E-02    2     1000025        11   # BR(~e^-_L -> chi^0_3 e^-)
     3.01630014E-01    2     1000035        11   # BR(~e^-_L -> chi^0_4 e^-)
     6.05422497E-01    2    -1000037        12   # BR(~e^-_L -> chi^-_2 nu_e)
#    BR                NDA      ID1      ID2       ID3
DECAY   2000013     5.02631502E+01   # ~mu^-_R
#    BR                NDA      ID1      ID2
     5.41227244E-01    2     1000022        13   # BR(~mu^-_R -> chi^0_1 mu^-)
     6.76245054E-03    2     1000023        13   # BR(~mu^-_R -> chi^0_2 mu^-)
     4.51864326E-01    2     1000025        13   # BR(~mu^-_R -> chi^0_3 mu^-)
     1.44220847E-04    2    -1000024        14   # BR(~mu^-_R -> chi^-_1 nu_mu)
DECAY   1000013     1.36995377E+02   # ~mu^-_L
#    BR                NDA      ID1      ID2
     4.49837152E-02    2     1000022        13   # BR(~mu^-_L -> chi^0_1 mu^-)
     4.79409102E-02    2     1000025        13   # BR(~mu^-_L -> chi^0_3 mu^-)
     3.01614038E-01    2     1000035        13   # BR(~mu^-_L -> chi^0_4 mu^-)
     6.05390429E-01    2    -1000037        14   # BR(~mu^-_L -> chi^-_2 nu_mu)
#    BR                NDA      ID1      ID2       ID3
DECAY   1000015     5.43593654E+01   # ~tau^-_1
#    BR                NDA      ID1      ID2
     5.11325799E-01    2     1000022        15   # BR(~tau^-_1 -> chi^0_1 tau^-)
     2.44439033E-02    2     1000023        15   # BR(~tau^-_1 -> chi^0_2 tau^-)
     4.26393585E-01    2     1000025        15   # BR(~tau^-_1 -> chi^0_3 tau^-)
     3.77259691E-02    2    -1000024        16   # BR(~tau^-_1 -> chi^-_1 nu_tau)
DECAY   2000015     1.39044593E+02   # ~tau^-_2
#    BR                NDA      ID1      ID2
     4.81576040E-02    2     1000022        15   # BR(~tau^-_2 -> chi^0_1 tau^-)
     7.29059509E-03    2     1000023        15   # BR(~tau^-_2 -> chi^0_2 tau^-)
     5.09044622E-02    2     1000025        15   # BR(~tau^-_2 -> chi^0_3 tau^-)
     2.97172257E-01    2     1000035        15   # BR(~tau^-_2 -> chi^0_4 tau^-)
     5.96475077E-01    2    -1000037        16   # BR(~tau^-_2 -> chi^-_2 nu_tau)
#    BR                NDA      ID1      ID2       ID3
DECAY   1000012     1.36991565E+02   # ~nu_e
#    BR                NDA      ID1      ID2
     5.46501325E-02    2     1000022        12   # BR(~nu_e -> chi^0_1 nu_e)
     1.84279859E-03    2     1000023        12   # BR(~nu_e -> chi^0_2 nu_e)
     3.55105721E-02    2     1000025        12   # BR(~nu_e -> chi^0_3 nu_e)
     3.02480155E-01    2     1000035        12   # BR(~nu_e -> chi^0_4 nu_e)
     2.71493827E-03    2     1000024        11   # BR(~nu_e -> chi^+_1 e^-)
     6.02801404E-01    2     1000037        11   # BR(~nu_e -> chi^+_2 e^-)
#    BR                NDA      ID1      ID2       ID3
DECAY   1000014     1.36998848E+02   # ~nu_mu
#    BR                NDA      ID1      ID2
     5.46472369E-02    2     1000022        14   # BR(~nu_mu -> chi^0_1 nu_mu)
     1.84270095E-03    2     1000023        14   # BR(~nu_mu -> chi^0_2 nu_mu)
     3.55086906E-02    2     1000025        14   # BR(~nu_mu -> chi^0_3 nu_mu)
     3.02464135E-01    2     1000035        14   # BR(~nu_mu -> chi^0_4 nu_mu)
     2.76775889E-03    2     1000024        13   # BR(~nu_mu -> chi^+_1 mu^-)
     6.02769478E-01    2     1000037        13   # BR(~nu_mu -> chi^+_2 mu^-)
#    BR                NDA      ID1      ID2       ID3
DECAY   1000016     1.39052170E+02   # ~nu_tau
#    BR                NDA      ID1      ID2
     5.38431116E-02    2     1000022        16   # BR(~nu_tau -> chi^0_1 nu_tau)
     1.81558595E-03    2     1000023        16   # BR(~nu_tau -> chi^0_2 nu_tau)
     3.49861877E-02    2     1000025        16   # BR(~nu_tau -> chi^0_3 nu_tau)
     2.98015358E-01    2     1000035        16   # BR(~nu_tau -> chi^0_4 nu_tau)
     1.74361149E-02    2     1000024        15   # BR(~nu_tau -> chi^+_1 tau^-)
     5.93903642E-01    2     1000037        15   # BR(~nu_tau -> chi^+_2 tau^-)
#    BR                NDA      ID1      ID2       ID3
DECAY   2000001     7.46946223E+02   # ~d_R
#    BR                NDA      ID1      ID2
     4.08103662E-03    2     1000022         1   # BR(~d_R -> chi^0_1 d)
     3.40722716E-03    2     1000025         1   # BR(~d_R -> chi^0_3 d)
     9.92461247E-01    2     1000021         1   # BR(~d_R -> ~g d)
DECAY   1000001     8.70497471E+02   # ~d_L
#    BR                NDA      ID1      ID2
     1.15274103E-03    2     1000022         1   # BR(~d_L -> chi^0_1 d)
     1.10793385E-04    2     1000023         1   # BR(~d_L -> chi^0_2 d)
     4.40656048E-04    2     1000025         1   # BR(~d_L -> chi^0_3 d)
     4.80854896E-02    2     1000035         1   # BR(~d_L -> chi^0_4 d)
     9.63276454E-02    2    -1000037         2   # BR(~d_L -> chi^-_2 u)
     8.53882534E-01    2     1000021         1   # BR(~d_L -> ~g d)
DECAY   2000003     7.46950325E+02   # ~s_R
#    BR                NDA      ID1      ID2
     4.08175720E-03    2     1000022         3   # BR(~s_R -> chi^0_1 s)
     3.40785328E-03    2     1000025         3   # BR(~s_R -> chi^0_3 s)
     9.92455875E-01    2     1000021         3   # BR(~s_R -> ~g s)
DECAY   1000003     8.70503290E+02   # ~s_L
#    BR                NDA      ID1      ID2
     1.15337220E-03    2     1000022         3   # BR(~s_L -> chi^0_1 s)
     1.11927201E-04    2     1000023         3   # BR(~s_L -> chi^0_2 s)
     4.41207604E-04    2     1000025         3   # BR(~s_L -> chi^0_3 s)
     4.80851740E-02    2     1000035         3   # BR(~s_L -> chi^0_4 s)
     9.63270302E-02    2    -1000037         4   # BR(~s_L -> chi^-_2 c)
     8.53876932E-01    2     1000021         3   # BR(~s_L -> ~g s)
DECAY   1000005     1.70063906E+02   # ~b_1
#    BR                NDA      ID1      ID2
     4.42932885E-03    2     1000022         5   # BR(~b_1 -> chi^0_1 b)
     4.88103588E-03    2     1000023         5   # BR(~b_1 -> chi^0_2 b)
     2.96289947E-03    2     1000025         5   # BR(~b_1 -> chi^0_3 b)
     3.51593604E-02    2     1000035         5   # BR(~b_1 -> chi^0_4 b)
     3.60480881E-01    2    -1000024         6   # BR(~b_1 -> chi^-_1 t)
     7.14590806E-02    2    -1000037         6   # BR(~b_1 -> chi^-_2 t)
     5.20627414E-01    2     1000021         5   # BR(~b_1 -> ~g b)
DECAY   2000005     2.58600591E+02   # ~b_2
#    BR                NDA      ID1      ID2
     8.03770983E-03    2     1000022         5   # BR(~b_2 -> chi^0_1 b)
     4.80820016E-03    2     1000023         5   # BR(~b_2 -> chi^0_2 b)
     6.79907067E-03    2     1000025         5   # BR(~b_2 -> chi^0_3 b)
     9.69902125E-03    2    -1000024         6   # BR(~b_2 -> chi^-_1 t)
     9.70605066E-01    2     1000021         5   # BR(~b_2 -> ~g b)
DECAY   2000002     7.64092767E+02   # ~u_R
#    BR                NDA      ID1      ID2
     1.59624579E-02    2     1000022         2   # BR(~u_R -> chi^0_1 u)
     1.97387767E-04    2     1000023         2   # BR(~u_R -> chi^0_2 u)
     1.33269408E-02    2     1000025         2   # BR(~u_R -> chi^0_3 u)
     9.70513162E-01    2     1000021         2   # BR(~u_R -> ~g u)
DECAY   1000002     8.70486367E+02   # ~u_L
#    BR                NDA      ID1      ID2
     6.39734556E-04    2     1000022         2   # BR(~u_L -> chi^0_1 u)
     1.09837709E-03    2     1000025         2   # BR(~u_L -> chi^0_3 u)
     4.80373409E-02    2     1000035         2   # BR(~u_L -> chi^0_4 u)
     4.31493222E-04    2     1000024         1   # BR(~u_L -> chi^+_1 d)
     9.59186306E-02    2     1000037         1   # BR(~u_L -> chi^+_2 d)
     8.53858920E-01    2     1000021         2   # BR(~u_L -> ~g u)
DECAY   2000004     7.64100212E+02   # ~c_R
#    BR                NDA      ID1      ID2
     1.59631892E-02    2     1000022         4   # BR(~c_R -> chi^0_1 c)
     1.99815906E-04    2     1000023         4   # BR(~c_R -> chi^0_2 c)
     1.33283011E-02    2     1000025         4   # BR(~c_R -> chi^0_3 c)
     9.70503819E-01    2     1000021         4   # BR(~c_R -> ~g c)
DECAY   1000004     8.70492146E+02   # ~c_L
#    BR                NDA      ID1      ID2
     6.40510221E-04    2     1000022         4   # BR(~c_L -> chi^0_1 c)
     1.09967723E-03    2     1000025         4   # BR(~c_L -> chi^0_3 c)
     4.80370358E-02    2     1000035         4   # BR(~c_L -> chi^0_4 c)
     4.33818162E-04    2     1000024         3   # BR(~c_L -> chi^+_1 s)
     9.59180044E-02    2     1000037         3   # BR(~c_L -> chi^+_2 s)
     8.53853313E-01    2     1000021         4   # BR(~c_L -> ~g c)
DECAY   1000006     1.63273178E+02   # ~t_1
#    BR                NDA      ID1      ID2
     5.20892790E-02    2     1000022         6   # BR(~t_1 -> chi^0_1 t)
     1.83247058E-01    2     1000023         6   # BR(~t_1 -> chi^0_2 t)
     1.41666015E-01    2     1000025         6   # BR(~t_1 -> chi^0_3 t)
     3.36381426E-02    2     1000035         6   # BR(~t_1 -> chi^0_4 t)
     4.98569144E-02    2     1000024         5   # BR(~t_1 -> chi^+_1 b)
     6.62994556E-02    2     1000037         5   # BR(~t_1 -> chi^+_2 b)
     4.72085670E-01    2     1000021         6   # BR(~t_1 -> ~g t)
#    BR                NDA      ID1      ID2       ID3
     1.10481808E-03    3     1000022        24         5   # BR(~t_1 -> chi^0_1 W^+ b)
DECAY   2000006     2.49282345E+02   # ~t_2
#    BR                NDA      ID1      ID2
     7.58089325E-02    2     1000022         6   # BR(~t_2 -> chi^0_1 t)
     1.35700611E-01    2     1000023         6   # BR(~t_2 -> chi^0_2 t)
     7.63416261E-02    2     1000025         6   # BR(~t_2 -> chi^0_3 t)
     2.23011098E-03    2     1000035         6   # BR(~t_2 -> chi^0_4 t)
     2.34228047E-01    2     1000024         5   # BR(~t_2 -> chi^+_1 b)
     4.33642940E-03    2     1000037         5   # BR(~t_2 -> chi^+_2 b)
     4.49157132E-01    2     1000021         6   # BR(~t_2 -> ~g t)
     9.11588023E-03    2     1000005        24   # BR(~t_2 -> ~b_1 W^+)
     6.16677007E-03    2     1000006        23   # BR(~t_2 -> ~t_1 Z)
     6.91446083E-03    2     1000006        25   # BR(~t_2 -> ~t_1 h^0)
DECAY   1000024     2.13936656E-05   # chi^+_1
#    BR                NDA      ID1      ID2       ID3
     3.34660362E-01    3     1000022        -1         2   # BR(chi^+_1 -> chi^0_1 d_bar u)
     3.32299607E-01    3     1000022        -3         4   # BR(chi^+_1 -> chi^0_1 s_bar c)
     1.11553679E-01    3     1000022       -11        12   # BR(chi^+_1 -> chi^0_1 e^+ nu_e)
     1.11552942E-01    3     1000022       -13        14   # BR(chi^+_1 -> chi^0_1 mu^+ nu_mu)
     1.09933409E-01    3     1000022       -15        16   # BR(chi^+_1 -> chi^0_1 tau^+ nu_tau)
DECAY   1000037     1.49596373E+01   # chi^+_2
#    BR                NDA      ID1      ID2
     8.20134705E-02    2     1000022        24   # BR(chi^+_2 -> chi^0_1 W^+)
     2.44594335E-01    2     1000023        24   # BR(chi^+_2 -> chi^0_2 W^+)
     1.60453769E-01    2     1000025        24   # BR(chi^+_2 -> chi^0_3 W^+)
     2.42725657E-01    2     1000024        23   # BR(chi^+_2 -> chi^+_1 Z)
     2.41256302E-01    2     1000024        25   # BR(chi^+_2 -> chi^+_1 h^0)
#    BR                NDA      ID1      ID2       ID3
     1.11484922E-02    3     1000024         6        -6   # BR(chi^+_2 -> chi^+_1 t t_bar)
     2.84970598E-03    3     1000022        -5         6   # BR(chi^+_2 -> chi^0_1 b_bar t)
     9.48174575E-03    3     1000023        -5         6   # BR(chi^+_2 -> chi^0_2 b_bar t)
     5.46312874E-03    3     1000025        -5         6   # BR(chi^+_2 -> chi^0_3 b_bar t)
DECAY   1000022     0.00000000E+00   # chi^0_1
DECAY   1000023     9.64686352E-05   # chi^0_2
#    BR                NDA      ID1      ID2
     2.35834571E-02    2     1000022        22   # BR(chi^0_2 -> chi^0_1 photon)
#    BR                NDA      ID1      ID2       ID3
     1.18476842E-01    3     1000022         2        -2   # BR(chi^0_2 -> chi^0_1 u u_bar)
     1.16731972E-01    3     1000022         4        -4   # BR(chi^0_2 -> chi^0_1 c c_bar)
     1.51910463E-01    3     1000022         1        -1   # BR(chi^0_2 -> chi^0_1 d d_bar)
     1.51899654E-01    3     1000022         3        -3   # BR(chi^0_2 -> chi^0_1 s s_bar)
     1.32385107E-01    3     1000022         5        -5   # BR(chi^0_2 -> chi^0_1 b b_bar)
     3.42815382E-02    3     1000022        11       -11   # BR(chi^0_2 -> chi^0_1 e^- e^+)
     3.42776605E-02    3     1000022        13       -13   # BR(chi^0_2 -> chi^0_1 mu^- mu^+)
     3.32075284E-02    3     1000022        15       -15   # BR(chi^0_2 -> chi^0_1 tau^- tau^+)
     2.03149343E-01    3     1000022        12       -12   # BR(chi^0_2 -> chi^0_1 nu_e nu_bar_e)
DECAY   1000025     1.54036864E-05   # chi^0_3
#    BR                NDA      ID1      ID2
     6.24193739E-03    2     1000022        22   # BR(chi^0_3 -> chi^0_1 photon)
     3.42431938E-02    2     1000023        22   # BR(chi^0_3 -> chi^0_2 photon)
#    BR                NDA      ID1      ID2       ID3
     4.62265747E-03    3     1000022         2        -2   # BR(chi^0_3 -> chi^0_1 u u_bar)
     4.59681008E-03    3     1000022         4        -4   # BR(chi^0_3 -> chi^0_1 c c_bar)
     5.92105958E-03    3     1000022         1        -1   # BR(chi^0_3 -> chi^0_1 d d_bar)
     5.92090347E-03    3     1000022         3        -3   # BR(chi^0_3 -> chi^0_1 s s_bar)
     5.63119442E-03    3     1000022         5        -5   # BR(chi^0_3 -> chi^0_1 b b_bar)
     1.33121665E-03    3     1000022        11       -11   # BR(chi^0_3 -> chi^0_1 e^- e^+)
     1.33116350E-03    3     1000022        13       -13   # BR(chi^0_3 -> chi^0_1 mu^- mu^+)
     1.31632204E-03    3     1000022        15       -15   # BR(chi^0_3 -> chi^0_1 tau^- tau^+)
     7.92595407E-03    3     1000022        12       -12   # BR(chi^0_3 -> chi^0_1 nu_e nu_bar_e)
     3.49664311E-02    3     1000023         2        -2   # BR(chi^0_3 -> chi^0_2 u u_bar)
     3.30070636E-02    3     1000023         4        -4   # BR(chi^0_3 -> chi^0_2 c c_bar)
     4.48341054E-02    3     1000023         1        -1   # BR(chi^0_3 -> chi^0_2 d d_bar)
     4.48215745E-02    3     1000023         3        -3   # BR(chi^0_3 -> chi^0_2 s s_bar)
     2.56848644E-02    3     1000023         5        -5   # BR(chi^0_3 -> chi^0_2 b b_bar)
     1.01178778E-02    3     1000023        11       -11   # BR(chi^0_3 -> chi^0_2 e^- e^+)
     1.01134110E-02    3     1000023        13       -13   # BR(chi^0_3 -> chi^0_2 mu^- mu^+)
     8.94179285E-03    3     1000023        15       -15   # BR(chi^0_3 -> chi^0_2 tau^- tau^+)
     5.99557447E-02    3     1000023        12       -12   # BR(chi^0_3 -> chi^0_2 nu_e nu_bar_e)
     1.08926766E-01    3     1000024         1        -2   # BR(chi^0_3 -> chi^+_1 d u_bar)
     1.08926766E-01    3    -1000024        -1         2   # BR(chi^0_3 -> chi^-_1 d_bar u)
     1.07397445E-01    3     1000024         3        -4   # BR(chi^0_3 -> chi^+_1 s c_bar)
     1.07397445E-01    3    -1000024        -3         4   # BR(chi^0_3 -> chi^-_1 s_bar c)
     3.63088101E-02    3     1000024        11       -12   # BR(chi^0_3 -> chi^+_1 e^- nu_bar_e)
     3.63088101E-02    3    -1000024       -11        12   # BR(chi^0_3 -> chi^-_1 e^+ nu_e)
     3.63084900E-02    3     1000024        13       -14   # BR(chi^0_3 -> chi^+_1 mu^- nu_bar_mu)
     3.63084900E-02    3    -1000024       -13        14   # BR(chi^0_3 -> chi^-_1 mu^+ nu_mu)
     3.52958500E-02    3     1000024        15       -16   # BR(chi^0_3 -> chi^+_1 tau^- nu_bar_tau)
     3.52958500E-02    3    -1000024       -15        16   # BR(chi^0_3 -> chi^-_1 tau^+ nu_tau)
DECAY   1000035     1.60463913E+01   # chi^0_4
#    BR                NDA      ID1      ID2
     2.27374576E-01    2     1000024       -24   # BR(chi^0_4 -> chi^+_1 W^-)
     2.27374576E-01    2    -1000024        24   # BR(chi^0_4 -> chi^-_1 W^+)
     4.06022270E-02    2     1000022        23   # BR(chi^0_4 -> chi^0_1 Z)
     1.18714791E-01    2     1000023        23   # BR(chi^0_4 -> chi^0_2 Z)
     6.74288589E-02    2     1000025        23   # BR(chi^0_4 -> chi^0_3 Z)
     3.65779043E-02    2     1000022        25   # BR(chi^0_4 -> chi^0_1 h^0)
     1.75483030E-01    2     1000023        25   # BR(chi^0_4 -> chi^0_2 h^0)
     8.16259108E-02    2     1000025        25   # BR(chi^0_4 -> chi^0_3 h^0)
#    BR                NDA      ID1      ID2       ID3
     1.68535293E-03    3     1000022         6        -6   # BR(chi^0_4 -> chi^0_1 t t_bar)
     5.26150088E-03    3     1000023         6        -6   # BR(chi^0_4 -> chi^0_2 t t_bar)
     3.12128996E-03    3     1000025         6        -6   # BR(chi^0_4 -> chi^0_3 t t_bar)
     7.36710714E-03    3     1000024         5        -6   # BR(chi^0_4 -> chi^+_1 b t_bar)
     7.36710714E-03    3    -1000024        -5         6   # BR(chi^0_4 -> chi^-_1 b_bar t)
DECAY   1000021     3.25865275E-02   # ~g
#    BR                NDA      ID1      ID2
     2.79792683E-03    2     1000022        21   # BR(~g -> chi^0_1 g)
     7.86932829E-03    2     1000023        21   # BR(~g -> chi^0_2 g)
     5.20004640E-03    2     1000025        21   # BR(~g -> chi^0_3 g)
#    BR                NDA      ID1      ID2       ID3
     8.16275560E-02    3     1000022         6        -6   # BR(~g -> chi^0_1 t t_bar)
     3.84023834E-03    3     1000022         5        -5   # BR(~g -> chi^0_1 b b_bar)
     2.33613917E-01    3     1000023         6        -6   # BR(~g -> chi^0_2 t t_bar)
     3.90421270E-03    3     1000023         5        -5   # BR(~g -> chi^0_2 b b_bar)
     1.70683727E-01    3     1000025         6        -6   # BR(~g -> chi^0_3 t t_bar)
     2.62218656E-03    3     1000025         5        -5   # BR(~g -> chi^0_3 b b_bar)
     2.43718246E-01    3     1000024         5        -6   # BR(~g -> chi^+_1 b t_bar)
     2.43718246E-01    3    -1000024        -5         6   # BR(~g -> chi^-_1 b_bar t)
DECAY        25     3.18946151E-03   # Gamma(h0)
     2.62440320E-03   2        22        22   # BR(h0 -> photon photon)
     1.46095594E-03   2        22        23   # BR(h0 -> photon Z)
     2.48430527E-02   2        23        23   # BR(h0 -> Z Z)
     2.15256841E-01   2       -24        24   # BR(h0 -> W W)
     8.35207596E-02   2        21        21   # BR(h0 -> gluon gluon)
     5.16971849E-09   2       -11        11   # BR(h0 -> Electron electron)
     2.29956996E-04   2       -13        13   # BR(h0 -> Muon muon)
     6.63017219E-02   2       -15        15   # BR(h0 -> Tau tau)
     1.47149751E-07   2        -2         2   # BR(h0 -> Up up)
     2.85579864E-02   2        -4         4   # BR(h0 -> Charm charm)
     6.00425591E-07   2        -1         1   # BR(h0 -> Down down)
     2.17159398E-04   2        -3         3   # BR(h0 -> Strange strange)
     5.76986410E-01   2        -5         5   # BR(h0 -> Bottom bottom)
DECAY        35     2.14492378E+01   # Gamma(HH)
     6.93723201E-09   2        22        22   # BR(HH -> photon photon)
     1.12590162E-08   2        22        23   # BR(HH -> photon Z)
     1.58291925E-05   2        23        23   # BR(HH -> Z Z)
     5.25291842E-06   2       -24        24   # BR(HH -> W W)
     7.02168435E-06   2        21        21   # BR(HH -> gluon gluon)
     1.87045305E-09   2       -11        11   # BR(HH -> Electron electron)
     8.32798602E-05   2       -13        13   # BR(HH -> Muon muon)
     2.40519642E-02   2       -15        15   # BR(HH -> Tau tau)
     2.69927087E-12   2        -2         2   # BR(HH -> Up up)
     5.23621632E-07   2        -4         4   # BR(HH -> Charm charm)
     3.90224621E-02   2        -6         6   # BR(HH -> Top top)
     1.38922703E-07   2        -1         1   # BR(HH -> Down down)
     5.02490872E-05   2        -3         3   # BR(HH -> Strange strange)
     1.32302613E-01   2        -5         5   # BR(HH -> Bottom bottom)
     4.91055702E-03   2  -1000024   1000024   # BR(HH -> Chargino1 chargino1)
     2.16213515E-01   2  -1000024   1000037   # BR(HH -> Chargino1 chargino2)
     2.16213515E-01   2  -1000037   1000024   # BR(HH -> Chargino2 chargino1)
     5.63234228E-02   2   1000022   1000022   # BR(HH -> neutralino1 neutralino1)
     1.84020420E-02   2   1000022   1000023   # BR(HH -> neutralino1 neutralino2)
     1.51908055E-03   2   1000022   1000025   # BR(HH -> neutralino1 neutralino3)
     7.56964331E-02   2   1000022   1000035   # BR(HH -> neutralino1 neutralino4)
     2.44948993E-03   2   1000023   1000023   # BR(HH -> neutralino2 neutralino2)
     3.88462526E-02   2   1000023   1000025   # BR(HH -> neutralino2 neutralino3)
     9.86715340E-02   2   1000023   1000035   # BR(HH -> neutralino2 neutralino4)
     3.24079986E-02   2   1000025   1000025   # BR(HH -> neutralino3 neutralino3)
     4.27276853E-02   2   1000025   1000035   # BR(HH -> neutralino3 neutralino4)
     7.91190330E-05   2        25        25   # BR(HH -> h0 h0)
DECAY        36     2.13254451E+01   # Gamma(A0)
     3.48662524E-08   2        22        22   # BR(A0 -> photon photon)
     1.67611495E-08   2        22        23   # BR(A0 -> photon Z)
     3.15269808E-05   2        21        21   # BR(A0 -> gluon gluon)
     1.83102194E-09   2       -11        11   # BR(A0 -> Electron electron)
     8.15237269E-05   2       -13        13   # BR(A0 -> Muon muon)
     2.35448192E-02   2       -15        15   # BR(A0 -> Tau tau)
     2.55452663E-12   2        -2         2   # BR(A0 -> Up up)
     4.95518891E-07   2        -4         4   # BR(A0 -> Charm charm)
     3.75305229E-02   2        -6         6   # BR(A0 -> Top top)
     1.35992532E-07   2        -1         1   # BR(A0 -> Down down)
     4.91891752E-05   2        -3         3   # BR(A0 -> Strange strange)
     1.29512274E-01   2        -5         5   # BR(A0 -> Bottom bottom)
     4.99325227E-03   2  -1000024   1000024   # BR(A0 -> Chargino1 chargino1)
     2.17511078E-01   2  -1000024   1000037   # BR(A0 -> Chargino1 chargino2)
     2.17511078E-01   2  -1000037   1000024   # BR(A0 -> Chargino2 chargino1)
     4.14747733E-02   2   1000022   1000022   # BR(A0 -> neutralino1 neutralino1)
     3.13759026E-02   2   1000022   1000023   # BR(A0 -> neutralino1 neutralino2)
     1.63723814E-03   2   1000022   1000025   # BR(A0 -> neutralino1 neutralino3)
     6.96032787E-02   2   1000022   1000035   # BR(A0 -> neutralino1 neutralino4)
     3.73751705E-03   2   1000023   1000023   # BR(A0 -> neutralino2 neutralino2)
     5.14100112E-02   2   1000023   1000025   # BR(A0 -> neutralino2 neutralino3)
     1.12696936E-01   2   1000023   1000035   # BR(A0 -> neutralino2 neutralino4)
     2.11948829E-02   2   1000025   1000025   # BR(A0 -> neutralino3 neutralino3)
     3.60788261E-02   2   1000025   1000035   # BR(A0 -> neutralino3 neutralino4)
     2.46841178E-05   2        23        25   # BR(A0 -> Z h0)
     9.19467809E-38   2        25        25   # BR(A0 -> h0 h0)
DECAY        37     2.21860289E+01   # Gamma(Hp)
     2.24367919E-09   2       -11        12   # BR(Hp -> Electron nu_e)
     9.59242931E-05   2       -13        14   # BR(Hp -> Muon nu_mu)
     2.71328419E-02   2       -15        16   # BR(Hp -> Tau nu_tau)
     1.44539082E-07   2        -1         2   # BR(Hp -> Down up)
     2.43778767E-06   2        -3         2   # BR(Hp -> Strange up)
     1.57541651E-06   2        -5         2   # BR(Hp -> Bottom up)
     3.44877211E-08   2        -1         4   # BR(Hp -> Down charm)
     5.26828966E-05   2        -3         4   # BR(Hp -> Strange charm)
     2.20615585E-04   2        -5         4   # BR(Hp -> Bottom charm)
     3.03214455E-06   2        -1         6   # BR(Hp -> Down top)
     6.61877682E-05   2        -3         6   # BR(Hp -> Strange top)
     1.95309480E-01   2        -5         6   # BR(Hp -> Bottom top)
     5.51288184E-02   2   1000022   1000024   # BR(Hp -> neutralino1 chargino1)
     1.40468685E-01   2   1000022   1000037   # BR(Hp -> neutralino1 chargino2)
     6.68537811E-05   2   1000023   1000024   # BR(Hp -> neutralino2 chargino1)
     2.04295718E-01   2   1000023   1000037   # BR(Hp -> neutralino2 chargino2)
     9.12890315E-02   2   1000024   1000025   # BR(Hp -> chargino1 neutralino3)
     7.62025897E-02   2   1000025   1000037   # BR(Hp -> neutralino3 chargino2)
     2.09639559E-01   2   1000024   1000035   # BR(Hp -> chargino1 neutralino4)
     2.37847046E-05   2        24        25   # BR(Hp -> W h0)
     8.22593123E-13   2        24        35   # BR(Hp -> W HH)
     6.45574622E-13   2        24        36   # BR(Hp -> W A0)
DECAY         6     2.43000000E+00   # top
#    BR                NDA      ID1      ID2
     1.00000000E+00    2           5        24   # BR(t -> b W)
Block HiggsBoundsInputHiggsCouplingsFermions
# ScalarNormEffCoupSq PseudoSNormEffCoupSq NP IP1 IP2 IP2
    9.12618181E-01    0.00000000E+00        3  25   5   5  # h0-b-b eff. coupling^2, normalised to SM
    9.76813734E+01    0.00000000E+00        3  35   5   5  # H0-b-b eff. coupling^2, normalised to SM
    0.00000000E+00    9.75939916E+01        3  36   5   5  # A0-b-b eff. coupling^2, normalised to SM
#
    1.00089536E+00    0.00000000E+00        3  25   6   6  # h0-t-t eff. coupling^2, normalised to SM
    9.35117180E-03    0.00000000E+00        3  35   6   6  # H0-t-t eff. coupling^2, normalised to SM
    0.00000000E+00    1.02465324E-02        3  36   6   6  # A0-t-t eff. coupling^2, normalised to SM
#
    9.12618181E-01    0.00000000E+00        3  25  15  15  # h0-tau-tau eff. coupling^2, normalised to SM
    9.76813734E+01    0.00000000E+00        3  35  15  15  # H0-tau-tau eff. coupling^2, normalised to SM
    0.00000000E+00    9.75939916E+01        3  36  15  15  # A0-tau-tau eff. coupling^2, normalised to SM
#
Block HiggsBoundsInputHiggsCouplingsBosons
    9.99979546E-01        3  25  24  24  # h0-W-W eff. coupling^2, normalised to SM
    2.04544970E-05        3  35  24  24  # H0-W-W eff. coupling^2, normalised to SM
    0.00000000E+00        3  36  24  24  # A0-W-W eff. coupling^2, normalised to SM
#
    9.99979546E-01        3  25  23  23  # h0-Z-Z eff. coupling^2, normalised to SM
    2.04544970E-05        3  35  23  23  # H0-Z-Z eff. coupling^2, normalised to SM
    0.00000000E+00        3  36  23  23  # A0-Z-Z eff. coupling^2, normalised to SM
#
    1.26857481E+00        3  25  21  21  # h0-g-g eff. coupling^2, normalised to SM
    5.88021006E-03        3  35  21  21  # H0-g-g eff. coupling^2, normalised to SM
    1.23207934E-01        3  36  21  21  # A0-g-g eff. coupling^2, normalised to SM
#
    0.00000000E+00        3  25  25  23  # h0-h0-Z eff. coupling^2, normalised to SM
    0.00000000E+00        3  35  25  23  # H0-h0-Z eff. coupling^2, normalised to SM
    2.04544970E-05        3  36  25  23  # A0-h0-Z eff. coupling^2, normalised to SM
    0.00000000E+00        3  35  35  23  # H0-H0-Z eff. coupling^2, normalised to SM
    9.99979546E-01        3  36  35  23  # A0-H0-Z eff. coupling^2, normalised to SM
    0.00000000E+00        3  36  36  23  # A0-A0-Z eff. coupling^2, normalised to SM
#
    0.00000000E+00        4  25  21  21  23  # h0-g-g-Z eff. coupling^2, normalised to SM
    0.00000000E+00        4  35  21  21  23  # H0-g-g-Z eff. coupling^2, normalised to SM
    0.00000000E+00        4  36  21  21  23  # A0-g-g-Z eff. coupling^2, normalised to SM
Block SPhenoLowEnergy  # low energy observables
    1    3.23682891E-04   # BR(b -> s gamma)
    2    1.58923745E-06   # BR(b -> s mu+ mu-)
    3    3.52381254E-05   # BR(b -> s nu nu)
    4    2.61694319E-15   # BR(Bd -> e+ e-)
    5    1.11792834E-10   # BR(Bd -> mu+ mu-)
    6    2.34022461E-08   # BR(Bd -> tau+ tau-)
    7    8.82896584E-14   # BR(Bs -> e+ e-)
    8    3.77173112E-09   # BR(Bs -> mu+ mu-)
    9    8.00000435E-07   # BR(Bs -> tau+ tau-)
   10    9.67259500E-05   # BR(B_u -> tau nu)
   11    9.99142032E-01   # BR(B_u -> tau nu)/BR(B_u -> tau nu)_SM
   12    5.42462550E-01   # |Delta(M_Bd)| [ps^-1] 
   13    1.93822856E+01   # |Delta(M_Bs)| [ps^-1] 
   14    0.00000000E+00   # neutron EDM according to the chiral quark model
   15    0.00000000E+00   # neutron EDM according to the relativistic quark-parton model
   16    2.15923470E-03   # epsilon_K
   17    2.28167773E-15   # Delta(M_K)
   18    2.47928780E-11   # BR(K^0 -> pi^0 nu nu)
   19    8.28870468E-11   # BR(K^+ -> pi^+ nu nu)
   20   -1.31477290E-16   # Delta(g-2)_electron/2
   21   -5.62106732E-12   # Delta(g-2)_muon/2
   22   -1.59012203E-09   # Delta(g-2)_tau/2
   23    0.00000000E+00   # electric dipole moment of the electron
   24    0.00000000E+00   # electric dipole moment of the muon
   25    0.00000000E+00   # electric dipole moment of the tau
   26    0.00000000E+00   # Br(mu -> e gamma)
   27    0.00000000E+00   # Br(tau -> e gamma)
   28    0.00000000E+00   # Br(tau -> mu gamma)
   29    0.00000000E+00   # Br(mu -> 3 e)
   30    0.00000000E+00   # Br(tau -> 3 e)
   31    0.00000000E+00   # Br(tau -> 3 mu)
   39   -2.12138801E-05   # Delta(rho_parameter)
   40    0.00000000E+00   # BR(Z -> e mu)
   41    0.00000000E+00   # BR(Z -> e tau)
   42    0.00000000E+00   # BR(Z -> mu tau)
Block FWCOEF Q=  1.60000000E+02  # Wilson coefficients at scale Q
#    id        order  M        value         comment
     0305 4422   00   0    -1.88819110E-01   # C7
     0305 4422   00   2    -1.91694545E-01   # C7
     0305 4322   00   2    -1.35967826E-04   # C7'
     0305 6421   00   0    -9.52278348E-02   # C8
     0305 6421   00   2    -1.02434794E-01   # C8
     0305 6321   00   2    -1.79918640E-04   # C8'
 03051111 4133   00   0     1.61737925E+00   # C9 e+e-
 03051111 4133   00   2     1.61796319E+00   # C9 e+e-
 03051111 4233   00   2     2.80711554E-05   # C9' e+e-
 03051111 4137   00   0    -4.44007135E+00   # C10 e+e-
 03051111 4137   00   2    -4.43697935E+00   # C10 e+e-
 03051111 4237   00   2    -2.09961170E-04   # C10' e+e-
 03051313 4133   00   0     1.61737925E+00   # C9 mu+mu-
 03051313 4133   00   2     1.61796318E+00   # C9 mu+mu-
 03051313 4233   00   2     2.80711530E-05   # C9' mu+mu-
 03051313 4137   00   0    -4.44007135E+00   # C10 mu+mu-
 03051313 4137   00   2    -4.43697936E+00   # C10 mu+mu-
 03051313 4237   00   2    -2.09961171E-04   # C10' mu+mu-
 03051212 4137   00   0     1.50535012E+00   # C11 nu_1 nu_1
 03051212 4137   00   2     1.50468132E+00   # C11 nu_1 nu_1
 03051212 4237   00   2     4.54960756E-05   # C11' nu_1 nu_1
 03051414 4137   00   0     1.50535012E+00   # C11 nu_2 nu_2
 03051414 4137   00   2     1.50468132E+00   # C11 nu_2 nu_2
 03051414 4237   00   2     4.54960760E-05   # C11' nu_2 nu_2
 03051616 4137   00   0     1.50535012E+00   # C11 nu_3 nu_3
 03051616 4137   00   2     1.50468132E+00   # C11 nu_3 nu_3
 03051616 4237   00   2     4.54961836E-05   # C11' nu_3 nu_3
Block IMFWCOEF Q=  1.60000000E+02  # Im(Wilson coefficients) at scale Q
#    id        order  M        value         comment
     0305 4422   00   0     3.85824653E-07   # C7
     0305 4422   00   2    -4.39650650E-06   # C7
     0305 4322   00   2     2.11184169E-07   # C7'
     0305 6421   00   0     3.30484331E-07   # C8
     0305 6421   00   2     4.25500387E-06   # C8
     0305 6321   00   2     1.78922932E-07   # C8'
 03051111 4133   00   2     1.19786003E-07   # C9 e+e-
 03051111 4233   00   2     5.55849278E-07   # C9' e+e-
 03051111 4137   00   2     2.27170449E-06   # C10 e+e-
 03051111 4237   00   2    -4.15893133E-06   # C10' e+e-
 03051313 4133   00   2     1.19785844E-07   # C9 mu+mu-
 03051313 4233   00   2     5.55849266E-07   # C9' mu+mu-
 03051313 4137   00   2     2.27170468E-06   # C10 mu+mu-
 03051313 4237   00   2    -4.15893136E-06   # C10' mu+mu-
 03051212 4137   00   2    -4.70606773E-07   # C11 nu_1 nu_1
 03051212 4237   00   2     9.01191934E-07   # C11' nu_1 nu_1
 03051414 4137   00   2    -4.70606766E-07   # C11 nu_2 nu_2
 03051414 4237   00   2     9.01191934E-07   # C11' nu_2 nu_2
 03051616 4137   00   2    -4.70604917E-07   # C11 nu_3 nu_3
 03051616 4237   00   2     9.01191933E-07   # C11' nu_3 nu_3
