# SUSY Les Houches Accord 2 - MSSM spectrum + Decays
# SPheno v4.0.5be
# W. Porod, Comput. Phys. Commun. 153 (2003) 275-315, hep-ph/0301101;
# W. Porod, F.~Staub, Comput. Phys. Commun. 183 (2012) 2458
#                     arXiv:1104.1573 [hep-ph] 
# in case of problems send email to porod@physik.uni-wuerzburg.de
# Created: 20.12.2022,  22:05
Block SPINFO         # Program information
     1   SPheno      # spectrum calculator
     2   v4.0.5be    # version number
#
Block SPhenoINFO     # SPheno specific information
    1      2         # using 2-loop RGEs
    2      2         # using pole masses for boundary conditions at mZ
Block MODSEL  # Model selection
    1    0    # general MSSM
Block MINPAR  # Input parameters
    3    2.52571550E+01  # tanb at m_Z    
    4    1.00000000E+00  # Sign(mu)
Block EXTPAR  # non-universal input parameters
    0    2.31929890E+03  # scale for input parameters
    1   -9.49645657E+02  # M_1
    2    7.60714242E+02  # M_2
    3    3.75384199E+03  # M_3
   11   -2.64869872E+03  # A_t
   12    2.93073903E+01  # A_b
   13    1.90398652E+03  # A_tau
   23    3.48341077E+02  # mu
   25    2.43466301E+01  # tan(beta)
   26    3.56695594E+03  # m_A, pole mass
   31    1.00000000E+04  # M_L11
   32    1.00000000E+04  # M_L22
   33    1.00000000E+04  # M_L33
   34    1.00000000E+04  # M_E11
   35    1.00000000E+04  # M_E22
   36    1.00000000E+04  # M_E33
   41    1.00000000E+04  # M_Q11
   42    1.00000000E+04  # M_Q22
   43    2.07608366E+03  # M_Q33
   44    1.00000000E+04  # M_U11
   45    1.00000000E+04  # M_U22
   46    2.51374349E+03  # M_U33
   47    1.00000000E+04  # M_D11
   48    1.00000000E+04  # M_D22
   49    2.61606233E+03  # M_D33
Block SMINPUTS  # SM parameters
         1     1.27908970E+02  # alpha_em^-1(MZ)^MSbar
         2     1.16637870E-05  # G_mu [GeV^-2]
         3     1.18400000E-01  # alpha_s(MZ)^MSbar
         4     9.11876000E+01  # m_Z(pole)
         5     4.18000000E+00  # m_b(m_b), MSbar
         6     1.73200000E+02  # m_t(pole)
         7     1.77700000E+00  # m_tau(pole)
         8     0.00000000E+00  # m_nu_3
        11     5.10998930E-04  # m_e(pole)
        12     0.00000000E+00  # m_nu_1
        13     1.05658372E-01  # m_muon(pole)
        14     0.00000000E+00  # m_nu_2
        21     5.00000000E-03  # m_d(2 GeV), MSbar
        22     2.50000000E-03  # m_u(2 GeV), MSbar
        23     9.50000000E-02  # m_s(2 GeV), MSbar
        24     1.27000000E+00  # m_c(m_c), MSbar
Block gauge Q=  2.31929890E+03  # (SUSY scale)
   1    3.55362975E-01  # g'(Q)^DRbar
   2    6.65198874E-01  # g(Q)^DRbar
   3    1.21977796E+00  # g3(Q)^DRbar
Block Yu Q=  2.31929890E+03  # (SUSY scale)
  1  1     8.39144149E-06   # Y_u(Q)^DRbar
  2  2     4.26285228E-03   # Y_c(Q)^DRbar
  3  3     1.01375353E+00   # Y_t(Q)^DRbar
Block Yd Q=  2.31929890E+03  # (SUSY scale)
  1  1     4.10540187E-04   # Y_d(Q)^DRbar
  2  2     7.80026355E-03   # Y_s(Q)^DRbar
  3  3     4.07127221E-01   # Y_b(Q)^DRbar
Block Ye Q=  2.31929890E+03  # (SUSY scale)
  1  1     7.16422647E-05   # Y_e(Q)^DRbar
  2  2     1.48133482E-02   # Y_mu(Q)^DRbar
  3  3     2.49136147E-01   # Y_tau(Q)^DRbar
Block Au Q=  2.31929890E+03  # (SUSY scale)
  1  1     0.00000000E+00   # A_u(Q)^DRbar
  2  2     0.00000000E+00   # A_c(Q)^DRbar
  3  3    -2.64870114E+03   # A_t(Q)^DRbar
Block Ad Q=  2.31929890E+03  # (SUSY scale)
  1  1     0.00000000E+00   # A_d(Q)^DRbar
  2  2     0.00000000E+00   # A_s(Q)^DRbar
  3  3     2.93073703E+01   # A_b(Q)^DRbar
Block Ae Q=  2.31929890E+03  # (SUSY scale)
  1  1     0.00000000E+00   # A_e(Q)^DRbar
  2  2     0.00000000E+00   # A_mu(Q)^DRbar
  3  3     1.90398589E+03   # A_tau(Q)^DRbar
Block MSOFT Q=  2.31929890E+03  # soft SUSY breaking masses at Q
   1   -9.49645657E+02  # M_1
   2    7.60714242E+02  # M_2
   3    3.75384199E+03  # M_3
  21    1.24251730E+07  # M^2_(H,d)
  22   -4.17189795E+03  # M^2_(H,u)
  31    1.00000000E+04  # M_(L,11)
  32    1.00000000E+04  # M_(L,22)
  33    1.00000000E+04  # M_(L,33)
  34    1.00000000E+04  # M_(E,11)
  35    1.00000000E+04  # M_(E,22)
  36    1.00000000E+04  # M_(E,33)
  41    1.00000000E+04  # M_(Q,11)
  42    1.00000000E+04  # M_(Q,22)
  43    2.07608366E+03  # M_(Q,33)
  44    1.00000000E+04  # M_(U,11)
  45    1.00000000E+04  # M_(U,22)
  46    2.51374349E+03  # M_(U,33)
  47    1.00000000E+04  # M_(D,11)
  48    1.00000000E+04  # M_(D,22)
  49    2.61606233E+03  # M_(D,33)
Block MASS  # Mass spectrum
#   PDG code      mass          particle
         6     1.73200000E+02  # m_t(pole)
        23     9.11876000E+01  # m_Z(pole)
        24     8.04299946E+01  # W+
        15     1.77700000E+00  # m_tau(pole)
        25     1.22310814E+02  # h0
        35     3.56628117E+03  # H0
        36     3.56695594E+03  # A0
        37     3.56766449E+03  # H+
   1000001     1.00769883E+04  # ~d_L
   2000001     1.00533327E+04  # ~d_R
   1000002     1.00766510E+04  # ~u_L
   2000002     1.00565360E+04  # ~u_R
   1000003     1.00769953E+04  # ~s_L
   2000003     1.00533410E+04  # ~s_R
   1000004     1.00766573E+04  # ~c_L
   2000004     1.00565385E+04  # ~c_R
   1000005     2.12663560E+03  # ~b_1
   2000005     2.68824986E+03  # ~b_2
   1000006     2.11201004E+03  # ~t_1
   2000006     2.54693267E+03  # ~t_2
   1000011     1.00209762E+04  # ~e_L-
   2000011     1.00082838E+04  # ~e_R-
   1000012     1.00202105E+04  # ~nu_eL
   1000013     1.00209971E+04  # ~mu_L-
   2000013     1.00083242E+04  # ~mu_R-
   1000014     1.00202313E+04  # ~nu_muL
   1000015     1.00199649E+04  # ~tau_1-
   2000015     1.00270398E+04  # ~tau_2-
   1000016     1.00262244E+04  # ~nu_tauL
   1000021     4.11816281E+03  # ~g
   1000022     3.42651922E+02  # ~chi_10
   1000023     3.50359280E+02  # ~chi_20
   1000025     8.32179556E+02  # ~chi_30
   1000035     9.65824930E+02  # ~chi_40
   1000024     3.44404316E+02  # ~chi_1+
   1000037     8.32090288E+02  # ~chi_2+
# Higgs mixing
Block alpha # Effective Higgs mixing angle
          -3.96436790E-02   # alpha
Block Hmix Q=  2.31929890E+03  # Higgs mixing parameters
   1    3.48341077E+02  # mu
   2    2.43466301E+01  # tan[beta](Q)
   3    2.43533828E+02  # v(Q)
   4    1.27231747E+07  # m^2_A(Q)
Block stopmix # stop mixing matrix
   1  1     9.81695995E-01   # Re[R_st(1,1)]
   1  2     1.90454649E-01   # Re[R_st(1,2)]
   2  1    -1.90454649E-01   # Re[R_st(2,1)]
   2  2     9.81695995E-01   # Re[R_st(2,2)]
Block sbotmix # sbottom mixing matrix
   1  1     9.99972523E-01   # Re[R_sb(1,1)]
   1  2     7.41301027E-03   # Re[R_sb(1,2)]
   2  1    -7.41301027E-03   # Re[R_sb(2,1)]
   2  2     9.99972523E-01   # Re[R_sb(2,2)]
Block staumix # stau mixing matrix
   1  1     8.44239522E-02   # Re[R_sta(1,1)]
   1  2     9.96429925E-01   # Re[R_sta(1,2)]
   2  1    -9.96429925E-01   # Re[R_sta(2,1)]
   2  2     8.44239522E-02   # Re[R_sta(2,2)]
Block Nmix # neutralino mixing matrix
   1  1    -2.44602804E-02   # Re[N(1,1)]
   1  2    -1.23697514E-01   # Re[N(1,2)]
   1  3     7.07641292E-01   # Re[N(1,3)]
   1  4    -6.95229762E-01   # Re[N(1,4)]
   2  1     4.86707115E-02   # Re[N(2,1)]
   2  2     4.70153679E-02   # Re[N(2,2)]
   2  3     7.04237385E-01   # Re[N(2,3)]
   2  4     7.06732215E-01   # Re[N(2,4)]
   3  1     3.03626554E-03   # Re[N(3,1)]
   3  2    -9.91202882E-01   # Re[N(3,2)]
   3  3    -5.48673342E-02   # Re[N(3,3)]
   3  4     1.20404330E-01   # Re[N(3,4)]
   4  1     9.98510710E-01   # Re[N(4,1)]
   4  2    -2.30782916E-03   # Re[N(4,2)]
   4  3    -1.68250958E-02   # Re[N(4,3)]
   4  4    -5.18454671E-02   # Re[N(4,4)]
Block Umix # chargino mixing matrix
   1  1    -7.78590059E-02   # Re[U(1,1)]
   1  2     9.96964380E-01   # Re[U(1,2)]
   2  1     9.96964380E-01   # Re[U(2,1)]
   2  2     7.78590059E-02   # Re[U(2,2)]
Block Vmix # chargino mixing matrix
   1  1    -1.71003123E-01   # Re[V(1,1)]
   1  2     9.85270487E-01   # Re[V(1,2)]
   2  1     9.85270487E-01   # Re[V(2,1)]
   2  2     1.71003123E-01   # Re[V(2,2)]
DECAY        23     2.49520000E+00   # Z
DECAY        24     2.08500000E+00   # W
DECAY   2000011     4.93581019E+01   # ~e^-_R
#    BR                NDA      ID1      ID2
     6.08159062E-04    2     1000022        11   # BR(~e^-_R -> chi^0_1 e^-)
     2.40756377E-03    2     1000023        11   # BR(~e^-_R -> chi^0_2 e^-)
     9.96974993E-01    2     1000035        11   # BR(~e^-_R -> chi^0_4 e^-)
DECAY   1000011     1.42878223E+02   # ~e^-_L
#    BR                NDA      ID1      ID2
     5.76075384E-03    2     1000022        11   # BR(~e^-_L -> chi^0_1 e^-)
     1.64181773E-03    2     1000023        11   # BR(~e^-_L -> chi^0_2 e^-)
     2.98152834E-01    2     1000025        11   # BR(~e^-_L -> chi^0_3 e^-)
     8.54715788E-02    2     1000035        11   # BR(~e^-_L -> chi^0_4 e^-)
     3.73394818E-03    2    -1000024        12   # BR(~e^-_L -> chi^-_1 nu_e)
     6.05239068E-01    2    -1000037        12   # BR(~e^-_L -> chi^-_2 nu_e)
#    BR                NDA      ID1      ID2       ID3
DECAY   2000013     4.94454771E+01   # ~mu^-_R
#    BR                NDA      ID1      ID2
     1.04852472E-03    2     1000022        13   # BR(~mu^-_R -> chi^0_1 mu^-)
     2.84047144E-03    2     1000023        13   # BR(~mu^-_R -> chi^0_2 mu^-)
     9.95217654E-01    2     1000035        13   # BR(~mu^-_R -> chi^0_4 mu^-)
     8.76196502E-04    2    -1000024        14   # BR(~mu^-_R -> chi^-_1 nu_mu)
DECAY   1000013     1.42922169E+02   # ~mu^-_L
#    BR                NDA      ID1      ID2
     5.91190747E-03    2     1000022        13   # BR(~mu^-_L -> chi^0_1 mu^-)
     1.79274764E-03    2     1000023        13   # BR(~mu^-_L -> chi^0_2 mu^-)
     2.98062706E-01    2     1000025        13   # BR(~mu^-_L -> chi^0_3 mu^-)
     8.54455673E-02    2     1000035        13   # BR(~mu^-_L -> chi^0_4 mu^-)
     3.73280787E-03    2    -1000024        14   # BR(~mu^-_L -> chi^-_1 nu_mu)
     6.05054263E-01    2    -1000037        14   # BR(~mu^-_L -> chi^-_2 nu_mu)
#    BR                NDA      ID1      ID2       ID3
DECAY   1000015     7.46895604E+01   # ~tau^-_1
#    BR                NDA      ID1      ID2
     8.73477096E-02    2     1000022        15   # BR(~tau^-_1 -> chi^0_1 tau^-)
     8.27835188E-02    2     1000023        15   # BR(~tau^-_1 -> chi^0_2 tau^-)
     1.73564709E-03    2     1000025        15   # BR(~tau^-_1 -> chi^0_3 tau^-)
     6.55688627E-01    2     1000035        15   # BR(~tau^-_1 -> chi^0_4 tau^-)
     1.68906882E-01    2    -1000024        16   # BR(~tau^-_1 -> chi^-_1 nu_tau)
     3.53761568E-03    2    -1000037        16   # BR(~tau^-_1 -> chi^-_2 nu_tau)
DECAY   2000015     1.54732197E+02   # ~tau^-_2
#    BR                NDA      ID1      ID2
     4.32773165E-02    2     1000022        15   # BR(~tau^-_2 -> chi^0_1 tau^-)
     4.14759761E-02    2     1000023        15   # BR(~tau^-_2 -> chi^0_2 tau^-)
     2.75122861E-01    2     1000025        15   # BR(~tau^-_2 -> chi^0_3 tau^-)
     8.09275089E-02    2     1000035        15   # BR(~tau^-_2 -> chi^0_4 tau^-)
     1.20727642E-03    2    -1000024        16   # BR(~tau^-_2 -> chi^-_1 nu_tau)
     5.57989061E-01    2    -1000037        16   # BR(~tau^-_2 -> chi^-_2 nu_tau)
#    BR                NDA      ID1      ID2       ID3
DECAY   1000012     1.42883548E+02   # ~nu_e
#    BR                NDA      ID1      ID2
     3.76903243E-03    2     1000022        12   # BR(~nu_e -> chi^0_1 nu_e)
     1.35979065E-04    2     1000023        12   # BR(~nu_e -> chi^0_2 nu_e)
     3.00076112E-01    2     1000025        12   # BR(~nu_e -> chi^0_3 nu_e)
     8.69534756E-02    2     1000035        12   # BR(~nu_e -> chi^0_4 nu_e)
     1.80098172E-02    2     1000024        11   # BR(~nu_e -> chi^+_1 e^-)
     5.91055584E-01    2     1000037        11   # BR(~nu_e -> chi^+_2 e^-)
#    BR                NDA      ID1      ID2       ID3
DECAY   1000014     1.42927489E+02   # ~nu_mu
#    BR                NDA      ID1      ID2
     3.76788155E-03    2     1000022        14   # BR(~nu_mu -> chi^0_1 nu_mu)
     1.35937543E-04    2     1000023        14   # BR(~nu_mu -> chi^0_2 nu_mu)
     2.99984497E-01    2     1000025        14   # BR(~nu_mu -> chi^0_3 nu_mu)
     8.69269300E-02    2     1000035        14   # BR(~nu_mu -> chi^0_4 nu_mu)
     1.83077881E-02    2     1000024        13   # BR(~nu_mu -> chi^+_1 mu^-)
     5.90876966E-01    2     1000037        13   # BR(~nu_mu -> chi^+_2 mu^-)
#    BR                NDA      ID1      ID2       ID3
DECAY   1000016     1.55322247E+02   # ~nu_tau
#    BR                NDA      ID1      ID2
     3.46928702E-03    2     1000022        16   # BR(~nu_tau -> chi^0_1 nu_tau)
     1.25164873E-04    2     1000023        16   # BR(~nu_tau -> chi^0_2 nu_tau)
     2.76215341E-01    2     1000025        16   # BR(~nu_tau -> chi^0_3 nu_tau)
     8.00397736E-02    2     1000035        16   # BR(~nu_tau -> chi^0_4 nu_tau)
     9.56155821E-02    2     1000024        15   # BR(~nu_tau -> chi^+_1 tau^-)
     5.44534851E-01    2     1000037        15   # BR(~nu_tau -> chi^+_2 tau^-)
#    BR                NDA      ID1      ID2       ID3
DECAY   2000001     5.55086157E+02   # ~d_R
#    BR                NDA      ID1      ID2
     9.89608144E-03    2     1000035         1   # BR(~d_R -> chi^0_4 d)
     9.90073776E-01    2     1000021         1   # BR(~d_R -> ~g d)
DECAY   1000001     6.84560055E+02   # ~d_L
#    BR                NDA      ID1      ID2
     9.20691589E-04    2     1000022         1   # BR(~d_L -> chi^0_1 d)
     6.28604134E-02    2     1000025         1   # BR(~d_L -> chi^0_3 d)
     2.06353531E-03    2     1000035         1   # BR(~d_L -> chi^0_4 d)
     7.83709108E-04    2    -1000024         2   # BR(~d_L -> chi^-_1 u)
     1.27048345E-01    2    -1000037         2   # BR(~d_L -> chi^-_2 u)
     8.06228228E-01    2     1000021         1   # BR(~d_L -> ~g d)
DECAY   2000003     5.55111193E+02   # ~s_R
#    BR                NDA      ID1      ID2
     9.89564973E-03    2     1000035         3   # BR(~s_R -> chi^0_4 s)
     9.90030598E-01    2     1000021         3   # BR(~s_R -> ~g s)
DECAY   1000003     6.84576609E+02   # ~s_L
#    BR                NDA      ID1      ID2
     9.29546858E-04    2     1000022         3   # BR(~s_L -> chi^0_1 s)
     1.03866426E-04    2     1000023         3   # BR(~s_L -> chi^0_2 s)
     6.28589914E-02    2     1000025         3   # BR(~s_L -> chi^0_3 s)
     2.06349186E-03    2     1000035         3   # BR(~s_L -> chi^0_4 s)
     7.88843331E-04    2    -1000024         4   # BR(~s_L -> chi^-_1 c)
     1.27045519E-01    2    -1000037         4   # BR(~s_L -> chi^-_2 c)
     8.06209742E-01    2     1000021         3   # BR(~s_L -> ~g s)
DECAY   1000005     6.75427287E+01   # ~b_1
#    BR                NDA      ID1      ID2
     5.13176963E-02    2     1000022         5   # BR(~b_1 -> chi^0_1 b)
     4.89063852E-02    2     1000023         5   # BR(~b_1 -> chi^0_2 b)
     9.79242220E-02    2     1000025         5   # BR(~b_1 -> chi^0_3 b)
     2.84228140E-03    2     1000035         5   # BR(~b_1 -> chi^0_4 b)
     5.84265116E-01    2    -1000024         6   # BR(~b_1 -> chi^-_1 t)
     2.14744299E-01    2    -1000037         6   # BR(~b_1 -> chi^-_2 t)
DECAY   2000005     1.82905042E+01   # ~b_2
#    BR                NDA      ID1      ID2
     2.34295008E-01    2     1000022         5   # BR(~b_2 -> chi^0_1 b)
     2.32570605E-01    2     1000023         5   # BR(~b_2 -> chi^0_2 b)
     1.59176720E-03    2     1000025         5   # BR(~b_2 -> chi^0_3 b)
     6.22190149E-02    2     1000035         5   # BR(~b_2 -> chi^0_4 b)
     4.61576773E-01    2    -1000024         6   # BR(~b_2 -> chi^-_1 t)
     3.18593871E-03    2    -1000037         6   # BR(~b_2 -> chi^-_2 t)
     2.08295730E-03    2     1000006       -24   # BR(~b_2 -> ~t_1 W^-)
     9.98853966E-04    2     1000005        23   # BR(~b_2 -> ~b_1 Z)
     1.47822409E-03    2     1000005        25   # BR(~b_2 -> ~b_1 h^0)
DECAY   2000002     5.71939231E+02   # ~u_R
#    BR                NDA      ID1      ID2
     3.84306095E-02    2     1000035         2   # BR(~u_R -> chi^0_4 u)
     9.61452805E-01    2     1000021         2   # BR(~u_R -> ~g u)
DECAY   1000002     6.84547577E+02   # ~u_L
#    BR                NDA      ID1      ID2
     1.05996608E-03    2     1000022         2   # BR(~u_L -> chi^0_1 u)
     2.00401028E-04    2     1000023         2   # BR(~u_L -> chi^0_2 u)
     6.27223931E-02    2     1000025         2   # BR(~u_L -> chi^0_3 u)
     1.95909776E-03    2     1000035         2   # BR(~u_L -> chi^0_4 u)
     3.78045601E-03    2     1000024         1   # BR(~u_L -> chi^+_1 d)
     1.24083392E-01    2     1000037         1   # BR(~u_L -> chi^+_2 d)
     8.06194294E-01    2     1000021         2   # BR(~u_L -> ~g u)
DECAY   2000004     5.71946704E+02   # ~c_R
#    BR                NDA      ID1      ID2
     3.84301312E-02    2     1000035         4   # BR(~c_R -> chi^0_4 c)
     9.61440621E-01    2     1000021         4   # BR(~c_R -> ~g c)
DECAY   1000004     6.84564021E+02   # ~c_L
#    BR                NDA      ID1      ID2
     1.06250641E-03    2     1000022         4   # BR(~c_L -> chi^0_1 c)
     2.03047376E-04    2     1000023         4   # BR(~c_L -> chi^0_2 c)
     6.27210037E-02    2     1000025         4   # BR(~c_L -> chi^0_3 c)
     1.95906622E-03    2     1000035         4   # BR(~c_L -> chi^0_4 c)
     3.79798615E-03    2     1000024         3   # BR(~c_L -> chi^+_1 s)
     1.24080598E-01    2     1000037         3   # BR(~c_L -> chi^+_2 s)
     8.06175792E-01    2     1000021         4   # BR(~c_L -> ~g c)
DECAY   1000006     6.81574846E+01   # ~t_1
#    BR                NDA      ID1      ID2
     2.91881616E-01    2     1000022         6   # BR(~t_1 -> chi^0_1 t)
     2.93238838E-01    2     1000023         6   # BR(~t_1 -> chi^0_2 t)
     9.10131662E-02    2     1000025         6   # BR(~t_1 -> chi^0_3 t)
     7.51222079E-03    2     1000035         6   # BR(~t_1 -> chi^0_4 t)
     1.45882959E-01    2     1000024         5   # BR(~t_1 -> chi^+_1 b)
     1.64368245E-01    2     1000037         5   # BR(~t_1 -> chi^+_2 b)
#    BR                NDA      ID1      ID2       ID3
     6.01680126E-03    3     1000022        24         5   # BR(~t_1 -> chi^0_1 W^+ b)
DECAY   2000006     1.26313511E+02   # ~t_2
#    BR                NDA      ID1      ID2
     1.86481919E-01    2     1000022         6   # BR(~t_2 -> chi^0_1 t)
     1.96941740E-01    2     1000023         6   # BR(~t_2 -> chi^0_2 t)
     1.41084592E-02    2     1000025         6   # BR(~t_2 -> chi^0_3 t)
     2.99988863E-02    2     1000035         6   # BR(~t_2 -> chi^0_4 t)
     3.57795992E-01    2     1000024         5   # BR(~t_2 -> chi^+_1 b)
     2.78689933E-02    2     1000037         5   # BR(~t_2 -> chi^+_2 b)
     8.47114706E-02    2     1000005        24   # BR(~t_2 -> ~b_1 W^+)
     4.42930305E-02    2     1000006        23   # BR(~t_2 -> ~t_1 Z)
     5.77995093E-02    2     1000006        25   # BR(~t_2 -> ~t_1 h^0)
DECAY   1000024     1.35762469E-11   # chi^+_1
#    BR                NDA      ID1      ID2       ID3
     5.85844202E-01    3     1000022        -1         2   # BR(chi^+_1 -> chi^0_1 d_bar u)
     2.70599224E-02    3     1000022        -3         4   # BR(chi^+_1 -> chi^0_1 s_bar c)
     1.95291348E-01    3     1000022       -11        12   # BR(chi^+_1 -> chi^0_1 e^+ nu_e)
     1.91804528E-01    3     1000022       -13        14   # BR(chi^+_1 -> chi^0_1 mu^+ nu_mu)
DECAY   1000037     7.42384408E+00   # chi^+_2
#    BR                NDA      ID1      ID2
     2.51932756E-01    2     1000022        24   # BR(chi^+_2 -> chi^0_1 W^+)
     2.67303286E-01    2     1000023        24   # BR(chi^+_2 -> chi^0_2 W^+)
     2.49904916E-01    2     1000024        23   # BR(chi^+_2 -> chi^+_1 Z)
     2.26083694E-01    2     1000024        25   # BR(chi^+_2 -> chi^+_1 h^0)
#    BR                NDA      ID1      ID2       ID3
     7.77956778E-04    3     1000024         6        -6   # BR(chi^+_2 -> chi^+_1 t t_bar)
     2.08989334E-03    3     1000022        -5         6   # BR(chi^+_2 -> chi^0_1 b_bar t)
     1.90606417E-03    3     1000023        -5         6   # BR(chi^+_2 -> chi^0_2 b_bar t)
DECAY   1000022     0.00000000E+00   # chi^0_1
DECAY   1000023     2.09977437E-07   # chi^0_2
#    BR                NDA      ID1      ID2
     3.97642791E-01    2     1000022        22   # BR(chi^0_2 -> chi^0_1 photon)
#    BR                NDA      ID1      ID2       ID3
     5.09698943E-02    3     1000022         2        -2   # BR(chi^0_2 -> chi^0_1 u u_bar)
     3.53445112E-02    3     1000022         4        -4   # BR(chi^0_2 -> chi^0_1 c c_bar)
     6.53535024E-02    3     1000022         1        -1   # BR(chi^0_2 -> chi^0_1 d d_bar)
     6.52380667E-02    3     1000022         3        -3   # BR(chi^0_2 -> chi^0_1 s s_bar)
     1.47484159E-02    3     1000022        11       -11   # BR(chi^0_2 -> chi^0_1 e^- e^+)
     1.47074178E-02    3     1000022        13       -13   # BR(chi^0_2 -> chi^0_1 mu^- mu^+)
     6.54486213E-03    3     1000022        15       -15   # BR(chi^0_2 -> chi^0_1 tau^- tau^+)
     8.73964757E-02    3     1000022        12       -12   # BR(chi^0_2 -> chi^0_1 nu_e nu_bar_e)
     4.87643531E-02    3     1000024         1        -2   # BR(chi^0_2 -> chi^+_1 d u_bar)
     4.87643531E-02    3    -1000024        -1         2   # BR(chi^0_2 -> chi^-_1 d_bar u)
     3.91458695E-02    3     1000024         3        -4   # BR(chi^0_2 -> chi^+_1 s c_bar)
     3.91458695E-02    3    -1000024        -3         4   # BR(chi^0_2 -> chi^-_1 s_bar c)
     1.62547753E-02    3     1000024        11       -12   # BR(chi^0_2 -> chi^+_1 e^- nu_bar_e)
     1.62547753E-02    3    -1000024       -11        12   # BR(chi^0_2 -> chi^-_1 e^+ nu_e)
     1.62293225E-02    3     1000024        13       -14   # BR(chi^0_2 -> chi^+_1 mu^- nu_bar_mu)
     1.62293225E-02    3    -1000024       -13        14   # BR(chi^0_2 -> chi^-_1 mu^+ nu_mu)
     1.06327110E-02    3     1000024        15       -16   # BR(chi^0_2 -> chi^+_1 tau^- nu_bar_tau)
     1.06327110E-02    3    -1000024       -15        16   # BR(chi^0_2 -> chi^-_1 tau^+ nu_tau)
DECAY   1000025     8.57979899E+00   # chi^0_3
#    BR                NDA      ID1      ID2
     2.23375771E-01    2     1000024       -24   # BR(chi^0_3 -> chi^+_1 W^-)
     2.23375771E-01    2    -1000024        24   # BR(chi^0_3 -> chi^-_1 W^+)
     2.74505693E-02    2     1000022        23   # BR(chi^0_3 -> chi^0_1 Z)
     2.03200489E-01    2     1000023        23   # BR(chi^0_3 -> chi^0_2 Z)
     1.66797418E-01    2     1000022        25   # BR(chi^0_3 -> chi^0_1 h^0)
     1.51888170E-01    2     1000023        25   # BR(chi^0_3 -> chi^0_2 h^0)
#    BR                NDA      ID1      ID2       ID3
     1.81593729E-04    3     1000022         6        -6   # BR(chi^0_3 -> chi^0_1 t t_bar)
     1.49487069E-04    3     1000023         6        -6   # BR(chi^0_3 -> chi^0_2 t t_bar)
     1.78161340E-03    3     1000024         5        -6   # BR(chi^0_3 -> chi^+_1 b t_bar)
     1.78161340E-03    3    -1000024        -5         6   # BR(chi^0_3 -> chi^-_1 b_bar t)
DECAY   1000035     2.79489491E+00   # chi^0_4
#    BR                NDA      ID1      ID2
     2.16713223E-01    2     1000024       -24   # BR(chi^0_4 -> chi^+_1 W^-)
     2.16713223E-01    2    -1000024        24   # BR(chi^0_4 -> chi^-_1 W^+)
     1.35047848E-04    2     1000037       -24   # BR(chi^0_4 -> chi^+_2 W^-)
     1.35047848E-04    2    -1000037        24   # BR(chi^0_4 -> chi^-_2 W^+)
     1.72475979E-01    2     1000022        23   # BR(chi^0_4 -> chi^0_1 Z)
     4.52446154E-02    2     1000023        23   # BR(chi^0_4 -> chi^0_2 Z)
     1.35360523E-04    2     1000025        23   # BR(chi^0_4 -> chi^0_3 Z)
     1.82229867E-01    2     1000022        25   # BR(chi^0_4 -> chi^0_1 h^0)
     1.57589660E-01    2     1000023        25   # BR(chi^0_4 -> chi^0_2 h^0)
#    BR                NDA      ID1      ID2       ID3
     7.72196026E-04    3     1000022         6        -6   # BR(chi^0_4 -> chi^0_1 t t_bar)
     6.61724058E-04    3     1000023         6        -6   # BR(chi^0_4 -> chi^0_2 t t_bar)
     3.56192124E-03    3     1000024         5        -6   # BR(chi^0_4 -> chi^+_1 b t_bar)
     3.56192124E-03    3    -1000024        -5         6   # BR(chi^0_4 -> chi^-_1 b_bar t)
DECAY   1000021     2.19930312E+02   # ~g
#    BR                NDA      ID1      ID2
     5.14554119E-03    2     1000006        -4   # BR(~g -> ~t_1 c_bar)
     5.14554119E-03    2    -1000006         4   # BR(~g -> ~t^*_1 c)
     1.43862225E-01    2     1000006        -6   # BR(~g -> ~t_1 t_bar)
     1.43862225E-01    2    -1000006         6   # BR(~g -> ~t^*_1 t)
     1.10640938E-01    2     2000006        -6   # BR(~g -> ~t_2 t_bar)
     1.10640938E-01    2    -2000006         6   # BR(~g -> ~t^*_2 t)
     1.49024322E-01    2     1000005        -5   # BR(~g -> ~b_1 b_bar)
     1.49024322E-01    2    -1000005         5   # BR(~g -> ~b^*_1 b)
     9.12732379E-02    2     2000005        -5   # BR(~g -> ~b_2 b_bar)
     9.12732379E-02    2    -2000005         5   # BR(~g -> ~b^*_2 b)
#    BR                NDA      ID1      ID2       ID3
DECAY        25     3.55407274E-03   # Gamma(h0)
     2.34087850E-03   2        22        22   # BR(h0 -> photon photon)
     1.27446495E-03   2        22        23   # BR(h0 -> photon Z)
     2.13865441E-02   2        23        23   # BR(h0 -> Z Z)
     1.86503248E-01   2       -24        24   # BR(h0 -> W W)
     7.44694883E-02   2        21        21   # BR(h0 -> gluon gluon)
     5.47640458E-09   2       -11        11   # BR(h0 -> Electron electron)
     2.43598673E-04   2       -13        13   # BR(h0 -> Muon muon)
     7.02345149E-02   2       -15        15   # BR(h0 -> Tau tau)
     1.56216403E-07   2        -2         2   # BR(h0 -> Up up)
     3.03126197E-02   2        -4         4   # BR(h0 -> Charm charm)
     6.36405781E-07   2        -1         1   # BR(h0 -> Down down)
     2.30173197E-04   2        -3         3   # BR(h0 -> Strange strange)
     6.13003672E-01   2        -5         5   # BR(h0 -> Bottom bottom)
DECAY        35     7.10180667E+01   # Gamma(HH)
     2.94578885E-08   2        22        22   # BR(HH -> photon photon)
     7.38576713E-08   2        22        23   # BR(HH -> photon Z)
     5.69483733E-07   2        23        23   # BR(HH -> Z Z)
     1.37973638E-07   2       -24        24   # BR(HH -> W W)
     1.74505472E-06   2        21        21   # BR(HH -> gluon gluon)
     5.00556784E-09   2       -11        11   # BR(HH -> Electron electron)
     2.22885893E-04   2       -13        13   # BR(HH -> Muon muon)
     6.43739575E-02   2       -15        15   # BR(HH -> Tau tau)
     2.20070307E-13   2        -2         2   # BR(HH -> Up up)
     4.26924739E-08   2        -4         4   # BR(HH -> Charm charm)
     2.94530376E-03   2        -6         6   # BR(HH -> Top top)
     3.57694403E-07   2        -1         1   # BR(HH -> Down down)
     1.29380342E-04   2        -3         3   # BR(HH -> Strange strange)
     3.31195887E-01   2        -5         5   # BR(HH -> Bottom bottom)
     1.29993978E-02   2  -1000024   1000024   # BR(HH -> Chargino1 chargino1)
     1.76479725E-01   2  -1000024   1000037   # BR(HH -> Chargino1 chargino2)
     1.76479725E-01   2  -1000037   1000024   # BR(HH -> Chargino2 chargino1)
     1.98733679E-03   2  -1000037   1000037   # BR(HH -> Chargino2 chargino2)
     2.80451933E-03   2   1000022   1000022   # BR(HH -> neutralino1 neutralino1)
     1.15991234E-03   2   1000022   1000023   # BR(HH -> neutralino1 neutralino2)
     7.75285251E-02   2   1000022   1000025   # BR(HH -> neutralino1 neutralino3)
     2.40525364E-02   2   1000022   1000035   # BR(HH -> neutralino1 neutralino4)
     1.10142372E-04   2   1000023   1000023   # BR(HH -> neutralino2 neutralino2)
     1.00744498E-01   2   1000023   1000025   # BR(HH -> neutralino2 neutralino3)
     2.52951113E-02   2   1000023   1000035   # BR(HH -> neutralino2 neutralino4)
     1.00672459E-03   2   1000025   1000025   # BR(HH -> neutralino3 neutralino3)
     4.53102296E-04   2   1000025   1000035   # BR(HH -> neutralino3 neutralino4)
     2.61951807E-05   2   1000035   1000035   # BR(HH -> neutralino4 neutralino4)
     2.17228039E-06   2        25        25   # BR(HH -> h0 h0)
DECAY        36     6.96751128E+01   # Gamma(A0)
     7.39962779E-08   2        22        22   # BR(A0 -> photon photon)
     1.14629842E-07   2        22        23   # BR(A0 -> photon Z)
     8.11465014E-06   2        21        21   # BR(A0 -> gluon gluon)
     4.86061754E-09   2       -11        11   # BR(A0 -> Electron electron)
     2.16429664E-04   2       -13        13   # BR(A0 -> Muon muon)
     6.25093383E-02   2       -15        15   # BR(A0 -> Tau tau)
     1.99630495E-13   2        -2         2   # BR(A0 -> Up up)
     3.87256696E-08   2        -4         4   # BR(A0 -> Charm charm)
     2.68812483E-03   2        -6         6   # BR(A0 -> Top top)
     3.47322980E-07   2        -1         1   # BR(A0 -> Down down)
     1.25629591E-04   2        -3         3   # BR(A0 -> Strange strange)
     3.21597437E-01   2        -5         5   # BR(A0 -> Bottom bottom)
     1.48381569E-02   2  -1000024   1000024   # BR(A0 -> Chargino1 chargino1)
     1.78401138E-01   2  -1000024   1000037   # BR(A0 -> Chargino1 chargino2)
     1.78401138E-01   2  -1000037   1000024   # BR(A0 -> Chargino2 chargino1)
     3.48251733E-03   2  -1000037   1000037   # BR(A0 -> Chargino2 chargino2)
     3.46674121E-03   2   1000022   1000022   # BR(A0 -> neutralino1 neutralino1)
     9.03622902E-04   2   1000022   1000023   # BR(A0 -> neutralino1 neutralino2)
     1.00595957E-01   2   1000022   1000025   # BR(A0 -> neutralino1 neutralino3)
     2.57283080E-02   2   1000022   1000035   # BR(A0 -> neutralino1 neutralino4)
     9.95889643E-05   2   1000023   1000023   # BR(A0 -> neutralino2 neutralino2)
     8.01398754E-02   2   1000023   1000025   # BR(A0 -> neutralino2 neutralino3)
     2.46402477E-02   2   1000023   1000035   # BR(A0 -> neutralino2 neutralino4)
     1.75546189E-03   2   1000025   1000025   # BR(A0 -> neutralino3 neutralino3)
     3.77412193E-04   2   1000025   1000035   # BR(A0 -> neutralino3 neutralino4)
     2.30906889E-05   2   1000035   1000035   # BR(A0 -> neutralino4 neutralino4)
     1.08998463E-06   2        23        25   # BR(A0 -> Z h0)
     1.26017526E-40   2        25        25   # BR(A0 -> h0 h0)
DECAY        37     7.13342313E+01   # Gamma(Hp)
     5.27613032E-09   2       -11        12   # BR(Hp -> Electron nu_e)
     2.25571050E-04   2       -13        14   # BR(Hp -> Muon nu_mu)
     6.38043330E-02   2       -15        16   # BR(Hp -> Tau nu_tau)
     3.27972766E-07   2        -1         2   # BR(Hp -> Down up)
     5.54735793E-06   2        -3         2   # BR(Hp -> Strange up)
     3.53905038E-06   2        -5         2   # BR(Hp -> Bottom up)
     1.71558314E-08   2        -1         4   # BR(Hp -> Down charm)
     1.18245812E-04   2        -3         4   # BR(Hp -> Strange charm)
     4.95593786E-04   2        -5         4   # BR(Hp -> Bottom charm)
     1.98354742E-07   2        -1         6   # BR(Hp -> Down top)
     4.50049449E-06   2        -3         6   # BR(Hp -> Strange top)
     3.37166751E-01   2        -5         6   # BR(Hp -> Bottom top)
     7.06549214E-04   2   1000022   1000024   # BR(Hp -> neutralino1 chargino1)
     1.86359521E-01   2   1000022   1000037   # BR(Hp -> neutralino1 chargino2)
     5.35043936E-03   2   1000023   1000024   # BR(Hp -> neutralino2 chargino1)
     1.77203652E-01   2   1000023   1000037   # BR(Hp -> neutralino2 chargino2)
     1.79768203E-01   2   1000024   1000025   # BR(Hp -> chargino1 neutralino3)
     3.18386302E-08   2   1000025   1000037   # BR(Hp -> neutralino3 chargino2)
     4.79688890E-02   2   1000024   1000035   # BR(Hp -> chargino1 neutralino4)
     8.17018104E-04   2   1000035   1000037   # BR(Hp -> neutralino4 chargino2)
     1.06573764E-06   2        24        25   # BR(Hp -> W h0)
     9.66753573E-14   2        24        35   # BR(Hp -> W HH)
DECAY         6     2.43000000E+00   # top
#    BR                NDA      ID1      ID2
     1.00000000E+00    2           5        24   # BR(t -> b W)
Block HiggsBoundsInputHiggsCouplingsFermions
# ScalarNormEffCoupSq PseudoSNormEffCoupSq NP IP1 IP2 IP2
    9.32674578E-01    0.00000000E+00        3  25   5   5  # h0-b-b eff. coupling^2, normalised to SM
    5.92825723E+02    0.00000000E+00        3  35   5   5  # H0-b-b eff. coupling^2, normalised to SM
    0.00000000E+00    5.92758397E+02        3  36   5   5  # A0-b-b eff. coupling^2, normalised to SM
#
    1.00011358E+00    0.00000000E+00        3  25   6   6  # h0-t-t eff. coupling^2, normalised to SM
    1.57344811E-03    0.00000000E+00        3  35   6   6  # H0-t-t eff. coupling^2, normalised to SM
    0.00000000E+00    1.68702798E-03        3  36   6   6  # A0-t-t eff. coupling^2, normalised to SM
#
    9.32674578E-01    0.00000000E+00        3  25  15  15  # h0-tau-tau eff. coupling^2, normalised to SM
    5.92825723E+02    0.00000000E+00        3  35  15  15  # H0-tau-tau eff. coupling^2, normalised to SM
    0.00000000E+00    5.92758397E+02        3  36  15  15  # A0-tau-tau eff. coupling^2, normalised to SM
#
Block HiggsBoundsInputHiggsCouplingsBosons
    9.99998021E-01        3  25  24  24  # h0-W-W eff. coupling^2, normalised to SM
    1.97878427E-06        3  35  24  24  # H0-W-W eff. coupling^2, normalised to SM
    0.00000000E+00        3  36  24  24  # A0-W-W eff. coupling^2, normalised to SM
#
    9.99998021E-01        3  25  23  23  # h0-Z-Z eff. coupling^2, normalised to SM
    1.97878427E-06        3  35  23  23  # H0-Z-Z eff. coupling^2, normalised to SM
    0.00000000E+00        3  36  23  23  # A0-Z-Z eff. coupling^2, normalised to SM
#
    1.26087617E+00        3  25  21  21  # h0-g-g eff. coupling^2, normalised to SM
    1.44514351E-03        3  35  21  21  # H0-g-g eff. coupling^2, normalised to SM
    9.65878189E-02        3  36  21  21  # A0-g-g eff. coupling^2, normalised to SM
#
    0.00000000E+00        3  25  25  23  # h0-h0-Z eff. coupling^2, normalised to SM
    0.00000000E+00        3  35  25  23  # H0-h0-Z eff. coupling^2, normalised to SM
    1.97878427E-06        3  36  25  23  # A0-h0-Z eff. coupling^2, normalised to SM
    0.00000000E+00        3  35  35  23  # H0-H0-Z eff. coupling^2, normalised to SM
    9.99998021E-01        3  36  35  23  # A0-H0-Z eff. coupling^2, normalised to SM
    0.00000000E+00        3  36  36  23  # A0-A0-Z eff. coupling^2, normalised to SM
#
    0.00000000E+00        4  25  21  21  23  # h0-g-g-Z eff. coupling^2, normalised to SM
    0.00000000E+00        4  35  21  21  23  # H0-g-g-Z eff. coupling^2, normalised to SM
    0.00000000E+00        4  36  21  21  23  # A0-g-g-Z eff. coupling^2, normalised to SM
Block SPhenoLowEnergy  # low energy observables
    1    3.11021011E-04   # BR(b -> s gamma)
    2    1.59135525E-06   # BR(b -> s mu+ mu-)
    3    3.52446650E-05   # BR(b -> s nu nu)
    4    2.68581839E-15   # BR(Bd -> e+ e-)
    5    1.14734961E-10   # BR(Bd -> mu+ mu-)
    6    2.40097484E-08   # BR(Bd -> tau+ tau-)
    7    9.03303887E-14   # BR(Bs -> e+ e-)
    8    3.85890642E-09   # BR(Bs -> mu+ mu-)
    9    8.18215843E-07   # BR(Bs -> tau+ tau-)
   10    9.65315012E-05   # BR(B_u -> tau nu)
   11    9.97133450E-01   # BR(B_u -> tau nu)/BR(B_u -> tau nu)_SM
   12    5.42226289E-01   # |Delta(M_Bd)| [ps^-1] 
   13    1.93725916E+01   # |Delta(M_Bs)| [ps^-1] 
   14    0.00000000E+00   # neutron EDM according to the chiral quark model
   15    0.00000000E+00   # neutron EDM according to the relativistic quark-parton model
   16    2.15831935E-03   # epsilon_K
   17    2.28166852E-15   # Delta(M_K)
   18    2.47901602E-11   # BR(K^0 -> pi^0 nu nu)
   19    8.28822404E-11   # BR(K^+ -> pi^+ nu nu)
   20    2.46327845E-16   # Delta(g-2)_electron/2
   21    1.05313285E-11   # Delta(g-2)_muon/2
   22    2.98290841E-09   # Delta(g-2)_tau/2
   23    0.00000000E+00   # electric dipole moment of the electron
   24    0.00000000E+00   # electric dipole moment of the muon
   25    0.00000000E+00   # electric dipole moment of the tau
   26    0.00000000E+00   # Br(mu -> e gamma)
   27    0.00000000E+00   # Br(tau -> e gamma)
   28    0.00000000E+00   # Br(tau -> mu gamma)
   29    0.00000000E+00   # Br(mu -> 3 e)
   30    0.00000000E+00   # Br(tau -> 3 e)
   31    0.00000000E+00   # Br(tau -> 3 mu)
   39    5.97839465E-05   # Delta(rho_parameter)
   40    0.00000000E+00   # BR(Z -> e mu)
   41    0.00000000E+00   # BR(Z -> e tau)
   42    0.00000000E+00   # BR(Z -> mu tau)
Block FWCOEF Q=  1.60000000E+02  # Wilson coefficients at scale Q
#    id        order  M        value         comment
     0305 4422   00   0    -1.88819110E-01   # C7
     0305 4422   00   2    -1.76517346E-01   # C7
     0305 4322   00   2    -2.89713540E-05   # C7'
     0305 6421   00   0    -9.52278348E-02   # C8
     0305 6421   00   2    -9.42598772E-02   # C8
     0305 6321   00   2    -1.09120230E-04   # C8'
 03051111 4133   00   0     1.60737152E+00   # C9 e+e-
 03051111 4133   00   2     1.60807308E+00   # C9 e+e-
 03051111 4233   00   2     1.43029596E-04   # C9' e+e-
 03051111 4137   00   0    -4.43006362E+00   # C10 e+e-
 03051111 4137   00   2    -4.42765479E+00   # C10 e+e-
 03051111 4237   00   2    -1.08780597E-03   # C10' e+e-
 03051313 4133   00   0     1.60737152E+00   # C9 mu+mu-
 03051313 4133   00   2     1.60807303E+00   # C9 mu+mu-
 03051313 4233   00   2     1.43029552E-04   # C9' mu+mu-
 03051313 4137   00   0    -4.43006362E+00   # C10 mu+mu-
 03051313 4137   00   2    -4.42765485E+00   # C10 mu+mu-
 03051313 4237   00   2    -1.08780600E-03   # C10' mu+mu-
 03051212 4137   00   0     1.50535012E+00   # C11 nu_1 nu_1
 03051212 4137   00   2     1.50482855E+00   # C11 nu_1 nu_1
 03051212 4237   00   2     2.36249707E-04   # C11' nu_1 nu_1
 03051414 4137   00   0     1.50535012E+00   # C11 nu_2 nu_2
 03051414 4137   00   2     1.50482855E+00   # C11 nu_2 nu_2
 03051414 4237   00   2     2.36249712E-04   # C11' nu_2 nu_2
 03051616 4137   00   0     1.50535012E+00   # C11 nu_3 nu_3
 03051616 4137   00   2     1.50482855E+00   # C11 nu_3 nu_3
 03051616 4237   00   2     2.36251256E-04   # C11' nu_3 nu_3
Block IMFWCOEF Q=  1.60000000E+02  # Im(Wilson coefficients) at scale Q
#    id        order  M        value         comment
     0305 4422   00   0     3.85833874E-07   # C7
     0305 4422   00   2     1.15803032E-05   # C7
     0305 4322   00   2     1.21801556E-06   # C7'
     0305 6421   00   0     3.30492229E-07   # C8
     0305 6421   00   2    -1.76857042E-06   # C8
     0305 6321   00   2     3.13494573E-07   # C8'
 03051111 4133   00   2     5.89764020E-07   # C9 e+e-
 03051111 4233   00   2     2.76717831E-06   # C9' e+e-
 03051111 4137   00   2     6.55399311E-07   # C10 e+e-
 03051111 4237   00   2    -2.10480993E-05   # C10' e+e-
 03051313 4133   00   2     5.89762674E-07   # C9 mu+mu-
 03051313 4233   00   2     2.76717797E-06   # C9' mu+mu-
 03051313 4137   00   2     6.55400556E-07   # C10 mu+mu-
 03051313 4237   00   2    -2.10481004E-05   # C10' mu+mu-
 03051212 4137   00   2    -1.14372172E-07   # C11 nu_1 nu_1
 03051212 4237   00   2     4.57122725E-06   # C11' nu_1 nu_1
 03051414 4137   00   2    -1.14372109E-07   # C11 nu_2 nu_2
 03051414 4237   00   2     4.57122725E-06   # C11' nu_2 nu_2
 03051616 4137   00   2    -1.14354190E-07   # C11 nu_3 nu_3
 03051616 4237   00   2     4.57122724E-06   # C11' nu_3 nu_3
