# SUSY Les Houches Accord 2 - MSSM spectrum + Decays
# SPheno v4.0.5be
# W. Porod, Comput. Phys. Commun. 153 (2003) 275-315, hep-ph/0301101;
# W. Porod, F.~Staub, Comput. Phys. Commun. 183 (2012) 2458
#                     arXiv:1104.1573 [hep-ph] 
# in case of problems send email to porod@physik.uni-wuerzburg.de
# Created: 07.09.2021,  16:37
Block SPINFO         # Program information
     1   SPheno      # spectrum calculator
     2   v4.0.5be    # version number
#
Block SPhenoINFO     # SPheno specific information
    1      2         # using 2-loop RGEs
    2      2         # using pole masses for boundary conditions at mZ
Block MODSEL  # Model selection
    1    0    # general MSSM
Block MINPAR  # Input parameters
    3    5.65825969E+01  # tanb at m_Z    
    4   -1.00000000E+00  # Sign(mu)
Block EXTPAR  # non-universal input parameters
    0    3.05940617E+03  # scale for input parameters
    1    1.16036774E+02  # M_1
    2   -1.53484394E+03  # M_2
    3    3.73920124E+03  # M_3
   11    7.81068189E+01  # A_t
   12    1.93671578E+03  # A_b
   13   -6.06037220E+02  # A_tau
   23   -1.12925399E+02  # mu
   25    5.65587912E+01  # tan(beta)
   26    4.84672345E+03  # m_A, pole mass
   31    1.00000000E+04  # M_L11
   32    1.00000000E+04  # M_L22
   33    1.00000000E+04  # M_L33
   34    1.00000000E+04  # M_E11
   35    1.00000000E+04  # M_E22
   36    1.00000000E+04  # M_E33
   41    1.00000000E+04  # M_Q11
   42    1.00000000E+04  # M_Q22
   43    2.24104863E+03  # M_Q33
   44    1.00000000E+04  # M_U11
   45    1.00000000E+04  # M_U22
   46    3.90060944E+03  # M_U33
   47    1.00000000E+04  # M_D11
   48    1.00000000E+04  # M_D22
   49    4.36007610E+03  # M_D33
Block SMINPUTS  # SM parameters
         1     1.27908970E+02  # alpha_em^-1(MZ)^MSbar
         2     1.16637870E-05  # G_mu [GeV^-2]
         3     1.18400000E-01  # alpha_s(MZ)^MSbar
         4     9.11876000E+01  # m_Z(pole)
         5     4.18000000E+00  # m_b(m_b), MSbar
         6     1.73200000E+02  # m_t(pole)
         7     1.77700000E+00  # m_tau(pole)
         8     0.00000000E+00  # m_nu_3
        11     5.10998930E-04  # m_e(pole)
        12     0.00000000E+00  # m_nu_1
        13     1.05658372E-01  # m_muon(pole)
        14     0.00000000E+00  # m_nu_2
        21     5.00000000E-03  # m_d(2 GeV), MSbar
        22     2.50000000E-03  # m_u(2 GeV), MSbar
        23     9.50000000E-02  # m_s(2 GeV), MSbar
        24     1.27000000E+00  # m_c(m_c), MSbar
Block gauge Q=  3.05940617E+03  # (SUSY scale)
   1    3.55362975E-01  # g'(Q)^DRbar
   2    6.65198874E-01  # g(Q)^DRbar
   3    1.21977796E+00  # g3(Q)^DRbar
Block Yu Q=  3.05940617E+03  # (SUSY scale)
  1  1     8.38568254E-06   # Y_u(Q)^DRbar
  2  2     4.25992673E-03   # Y_c(Q)^DRbar
  3  3     1.01305781E+00   # Y_t(Q)^DRbar
Block Yd Q=  3.05940617E+03  # (SUSY scale)
  1  1     9.53056798E-04   # Y_d(Q)^DRbar
  2  2     1.81080792E-02   # Y_s(Q)^DRbar
  3  3     9.45133699E-01   # Y_b(Q)^DRbar
Block Ye Q=  3.05940617E+03  # (SUSY scale)
  1  1     1.66315381E-04   # Y_e(Q)^DRbar
  2  2     3.43887459E-02   # Y_mu(Q)^DRbar
  3  3     5.78362133E-01   # Y_tau(Q)^DRbar
Block Au Q=  3.05940617E+03  # (SUSY scale)
  1  1     0.00000000E+00   # A_u(Q)^DRbar
  2  2     0.00000000E+00   # A_c(Q)^DRbar
  3  3     7.81068193E+01   # A_t(Q)^DRbar
Block Ad Q=  3.05940617E+03  # (SUSY scale)
  1  1     0.00000000E+00   # A_d(Q)^DRbar
  2  2     0.00000000E+00   # A_s(Q)^DRbar
  3  3     1.93671639E+03   # A_b(Q)^DRbar
Block Ae Q=  3.05940617E+03  # (SUSY scale)
  1  1     0.00000000E+00   # A_e(Q)^DRbar
  2  2     0.00000000E+00   # A_mu(Q)^DRbar
  3  3    -6.06037203E+02   # A_tau(Q)^DRbar
Block MSOFT Q=  3.05940617E+03  # soft SUSY breaking masses at Q
   1    1.16036774E+02  # M_1
   2   -1.53484394E+03  # M_2
   3    3.73920124E+03  # M_3
  21    2.32393474E+07  # M^2_(H,d)
  22    1.40227479E+05  # M^2_(H,u)
  31    1.00000000E+04  # M_(L,11)
  32    1.00000000E+04  # M_(L,22)
  33    1.00000000E+04  # M_(L,33)
  34    1.00000000E+04  # M_(E,11)
  35    1.00000000E+04  # M_(E,22)
  36    1.00000000E+04  # M_(E,33)
  41    1.00000000E+04  # M_(Q,11)
  42    1.00000000E+04  # M_(Q,22)
  43    2.24104863E+03  # M_(Q,33)
  44    1.00000000E+04  # M_(U,11)
  45    1.00000000E+04  # M_(U,22)
  46    3.90060944E+03  # M_(U,33)
  47    1.00000000E+04  # M_(D,11)
  48    1.00000000E+04  # M_(D,22)
  49    4.36007610E+03  # M_(D,33)
Block MASS  # Mass spectrum
#   PDG code      mass          particle
         6     1.73200000E+02  # m_t(pole)
        23     9.11876000E+01  # m_Z(pole)
        24     8.04299946E+01  # W+
        15     1.77700000E+00  # m_tau(pole)
        25     1.20602112E+02  # h0
        35     4.84222506E+03  # H0
        36     4.84672345E+03  # A0
        37     4.84039570E+03  # H+
   1000001     1.00898584E+04  # ~d_L
   2000001     1.00665534E+04  # ~d_R
   1000002     1.00894821E+04  # ~u_L
   2000002     1.00699245E+04  # ~u_R
   1000003     1.00898735E+04  # ~s_L
   2000003     1.00665817E+04  # ~s_R
   1000004     1.00894972E+04  # ~c_L
   2000004     1.00699261E+04  # ~c_R
   1000005     2.35487916E+03  # ~b_1
   2000005     4.41919428E+03  # ~b_2
   1000006     2.35788533E+03  # ~t_1
   2000006     3.96964432E+03  # ~t_2
   1000011     1.00202207E+04  # ~e_L-
   2000011     1.00086205E+04  # ~e_R-
   1000012     1.00194503E+04  # ~nu_eL
   1000013     1.00202934E+04  # ~mu_L-
   2000013     1.00087621E+04  # ~mu_R-
   1000014     1.00195228E+04  # ~nu_muL
   1000015     1.00407689E+04  # ~tau_1-
   2000015     1.00487633E+04  # ~tau_2-
   1000016     1.00400449E+04  # ~nu_tauL
   1000021     4.17114163E+03  # ~g
   1000022     9.42055436E+01  # ~chi_10
   1000023     1.28617919E+02  # ~chi_20
   1000025     1.55739202E+02  # ~chi_30
   1000035     1.63565407E+03  # ~chi_40
   1000024     1.26434915E+02  # ~chi_1+
   1000037     1.63562054E+03  # ~chi_2+
# Higgs mixing
Block alpha # Effective Higgs mixing angle
          -1.76902051E-02   # alpha
Block Hmix Q=  3.05940617E+03  # Higgs mixing parameters
   1   -1.12925399E+02  # mu
   2    5.65587912E+01  # tan[beta](Q)
   3    2.43254683E+02  # v(Q)
   4    2.34907282E+07  # m^2_A(Q)
Block stopmix # stop mixing matrix
   1  1    -9.99999988E-01   # Re[R_st(1,1)]
   1  2     1.56406272E-04   # Re[R_st(1,2)]
   2  1    -1.56406272E-04   # Re[R_st(2,1)]
   2  2    -9.99999988E-01   # Re[R_st(2,2)]
Block sbotmix # sbottom mixing matrix
   1  1    -9.99999146E-01   # Re[R_sb(1,1)]
   1  2     1.30653790E-03   # Re[R_sb(1,2)]
   2  1    -1.30653790E-03   # Re[R_sb(2,1)]
   2  2    -9.99999146E-01   # Re[R_sb(2,2)]
Block staumix # stau mixing matrix
   1  1    -9.98080181E-01   # Re[R_sta(1,1)]
   1  2     6.19350720E-02   # Re[R_sta(1,2)]
   2  1    -6.19350720E-02   # Re[R_sta(2,1)]
   2  2    -9.98080181E-01   # Re[R_sta(2,2)]
Block Nmix # neutralino mixing matrix
   1  1     7.39223906E-01   # Re[N(1,1)]
   1  2     1.84239463E-02   # Re[N(1,2)]
   1  3    -5.42273413E-01   # Re[N(1,3)]
   1  4    -3.98933730E-01   # Re[N(1,4)]
   2  1     1.28530688E-01   # Re[N(2,1)]
   2  2     3.85607140E-02   # Re[N(2,2)]
   2  3     6.95685267E-01   # Re[N(2,3)]
   2  4    -7.05701738E-01   # Re[N(2,4)]
   3  1     6.61079586E-01   # Re[N(3,1)]
   3  2    -2.61518809E-02   # Re[N(3,2)]
   3  3     4.71106271E-01   # Re[N(3,3)]
   3  4     5.83394157E-01   # Re[N(3,4)]
   4  1     1.28880064E-03   # Re[N(4,1)]
   4  2    -9.98744066E-01   # Re[N(4,2)]
   4  3     4.52066695E-03   # Re[N(4,3)]
   4  4    -4.98817993E-02   # Re[N(4,4)]
Block Umix # chargino mixing matrix
   1  1    -6.39693741E-03   # Re[U(1,1)]
   1  2    -9.99979539E-01   # Re[U(1,2)]
   2  1    -9.99979539E-01   # Re[U(2,1)]
   2  2     6.39693741E-03   # Re[U(2,2)]
Block Vmix # chargino mixing matrix
   1  1     7.05771622E-02   # Re[V(1,1)]
   1  2     9.97506323E-01   # Re[V(1,2)]
   2  1     9.97506323E-01   # Re[V(2,1)]
   2  2    -7.05771622E-02   # Re[V(2,2)]
DECAY        23     2.49520000E+00   # Z
DECAY        24     2.08500000E+00   # W
DECAY   2000011     5.02738836E+01   # ~e^-_R
#    BR                NDA      ID1      ID2
     5.46526669E-01    2     1000022        11   # BR(~e^-_R -> chi^0_1 e^-)
     1.65199181E-02    2     1000023        11   # BR(~e^-_R -> chi^0_2 e^-)
     4.36951730E-01    2     1000025        11   # BR(~e^-_R -> chi^0_3 e^-)
DECAY   1000011     1.37948143E+02   # ~e^-_L
#    BR                NDA      ID1      ID2
     5.46118980E-02    2     1000022        11   # BR(~e^-_L -> chi^0_1 e^-)
     3.67461212E-03    2     1000023        11   # BR(~e^-_L -> chi^0_2 e^-)
     3.41726145E-02    2     1000025        11   # BR(~e^-_L -> chi^0_3 e^-)
     3.01728173E-01    2     1000035        11   # BR(~e^-_L -> chi^0_4 e^-)
     6.05786545E-01    2    -1000037        12   # BR(~e^-_L -> chi^-_2 nu_e)
#    BR                NDA      ID1      ID2       ID3
DECAY   2000013     5.07453811E+01   # ~mu^-_R
#    BR                NDA      ID1      ID2
     5.42820582E-01    2     1000022        13   # BR(~mu^-_R -> chi^0_1 mu^-)
     1.86116647E-02    2     1000023        13   # BR(~mu^-_R -> chi^0_2 mu^-)
     4.33927289E-01    2     1000025        13   # BR(~mu^-_R -> chi^0_3 mu^-)
     4.63863582E-03    2    -1000024        14   # BR(~mu^-_R -> chi^-_1 nu_mu)
DECAY   1000013     1.38184908E+02   # ~mu^-_L
#    BR                NDA      ID1      ID2
     5.50202909E-02    2     1000022        13   # BR(~mu^-_L -> chi^0_1 mu^-)
     4.49372562E-03    2     1000023        13   # BR(~mu^-_L -> chi^0_2 mu^-)
     3.44927564E-02    2     1000025        13   # BR(~mu^-_L -> chi^0_3 mu^-)
     3.01213651E-01    2     1000035        13   # BR(~mu^-_L -> chi^0_4 mu^-)
     6.04753463E-01    2    -1000037        14   # BR(~mu^-_L -> chi^-_2 nu_mu)
#    BR                NDA      ID1      ID2       ID3
DECAY   1000015     2.04980876E+02   # ~tau^-_1
#    BR                NDA      ID1      ID2
     1.39731839E-01    2     1000022        15   # BR(~tau^-_1 -> chi^0_1 tau^-)
     1.59510832E-01    2     1000023        15   # BR(~tau^-_1 -> chi^0_2 tau^-)
     8.98273678E-02    2     1000025        15   # BR(~tau^-_1 -> chi^0_3 tau^-)
     2.02604300E-01    2     1000035        15   # BR(~tau^-_1 -> chi^0_4 tau^-)
     1.56395680E-03    2    -1000024        16   # BR(~tau^-_1 -> chi^-_1 nu_tau)
     4.06761704E-01    2    -1000037        16   # BR(~tau^-_1 -> chi^-_2 nu_tau)
#    BR                NDA      ID1      ID2       ID3
DECAY   2000015     1.84252005E+02   # ~tau^-_2
#    BR                NDA      ID1      ID2
     2.48561609E-01    2     1000022        15   # BR(~tau^-_2 -> chi^0_1 tau^-)
     1.80878005E-01    2     1000023        15   # BR(~tau^-_2 -> chi^0_2 tau^-)
     2.06370462E-01    2     1000025        15   # BR(~tau^-_2 -> chi^0_3 tau^-)
     1.03299666E-03    2     1000035        15   # BR(~tau^-_2 -> chi^0_4 tau^-)
     3.61084757E-01    2    -1000024        16   # BR(~tau^-_2 -> chi^-_1 nu_tau)
     2.07217120E-03    2    -1000037        16   # BR(~tau^-_2 -> chi^-_2 nu_tau)
#    BR                NDA      ID1      ID2       ID3
DECAY   1000012     1.37952473E+02   # ~nu_e
#    BR                NDA      ID1      ID2
     4.53038915E-02    2     1000022        12   # BR(~nu_e -> chi^0_1 nu_e)
     2.89597598E-04    2     1000023        12   # BR(~nu_e -> chi^0_2 nu_e)
     4.59733335E-02    2     1000025        12   # BR(~nu_e -> chi^0_3 nu_e)
     3.02526026E-01    2     1000035        12   # BR(~nu_e -> chi^0_4 nu_e)
     3.18378016E-03    2     1000024        11   # BR(~nu_e -> chi^+_1 e^-)
     6.02723371E-01    2     1000037        11   # BR(~nu_e -> chi^+_2 e^-)
#    BR                NDA      ID1      ID2       ID3
DECAY   1000014     1.38189216E+02   # ~nu_mu
#    BR                NDA      ID1      ID2
     4.52266050E-02    2     1000022        14   # BR(~nu_mu -> chi^0_1 nu_mu)
     2.89103558E-04    2     1000023        14   # BR(~nu_mu -> chi^0_2 nu_mu)
     4.58949051E-02    2     1000025        14   # BR(~nu_mu -> chi^0_3 nu_mu)
     3.02010169E-01    2     1000035        14   # BR(~nu_mu -> chi^0_4 nu_mu)
     4.88352448E-03    2     1000024        13   # BR(~nu_mu -> chi^+_1 mu^-)
     6.01695693E-01    2     1000037        13   # BR(~nu_mu -> chi^+_2 mu^-)
#    BR                NDA      ID1      ID2       ID3
DECAY   1000016     2.05056487E+02   # ~nu_tau
#    BR                NDA      ID1      ID2
     3.05410216E-02    2     1000022        16   # BR(~nu_tau -> chi^0_1 nu_tau)
     1.95228528E-04    2     1000023        16   # BR(~nu_tau -> chi^0_2 nu_tau)
     3.09923560E-02    2     1000025        16   # BR(~nu_tau -> chi^0_3 nu_tau)
     2.03989558E-01    2     1000035        16   # BR(~nu_tau -> chi^0_4 nu_tau)
     3.27860047E-01    2     1000024        15   # BR(~nu_tau -> chi^+_1 tau^-)
     4.06421788E-01    2     1000037        15   # BR(~nu_tau -> chi^+_2 tau^-)
DECAY   2000001     5.50780857E+02   # ~d_R
#    BR                NDA      ID1      ID2
     5.57503309E-03    2     1000022         1   # BR(~d_R -> chi^0_1 d)
     1.68673718E-04    2     1000023         1   # BR(~d_R -> chi^0_2 d)
     4.45728760E-03    2     1000025         1   # BR(~d_R -> chi^0_3 d)
     9.89798659E-01    2     1000021         1   # BR(~d_R -> ~g d)
DECAY   1000001     6.75204803E+02   # ~d_L
#    BR                NDA      ID1      ID2
     8.42956106E-04    2     1000022         1   # BR(~d_L -> chi^0_1 d)
     1.36088512E-03    2     1000025         1   # BR(~d_L -> chi^0_3 d)
     6.22342647E-02    2     1000035         1   # BR(~d_L -> chi^0_4 d)
     1.24719613E-01    2    -1000037         2   # BR(~d_L -> chi^-_2 u)
     8.10820618E-01    2     1000021         1   # BR(~d_L -> ~g d)
DECAY   2000003     5.50914607E+02   # ~s_R
#    BR                NDA      ID1      ID2
     5.60864414E-03    2     1000022         3   # BR(~s_R -> chi^0_1 s)
     2.26144239E-04    2     1000023         3   # BR(~s_R -> chi^0_2 s)
     4.48258678E-03    2     1000025         3   # BR(~s_R -> chi^0_3 s)
     1.19156525E-04    2    -1000024         4   # BR(~s_R -> chi^-_1 c)
     9.89563445E-01    2     1000021         3   # BR(~s_R -> ~g s)
DECAY   1000003     6.75275766E+02   # ~s_L
#    BR                NDA      ID1      ID2
     8.71447166E-04    2     1000022         3   # BR(~s_L -> chi^0_1 s)
     1.38230673E-03    2     1000025         3   # BR(~s_L -> chi^0_3 s)
     6.22278295E-02    2     1000035         3   # BR(~s_L -> chi^0_4 s)
     1.24706738E-01    2    -1000037         4   # BR(~s_L -> chi^-_2 c)
     8.10737623E-01    2     1000021         3   # BR(~s_L -> ~g s)
DECAY   1000005     9.73887682E+01   # ~b_1
#    BR                NDA      ID1      ID2
     1.27433388E-01    2     1000022         5   # BR(~b_1 -> chi^0_1 b)
     2.06745687E-01    2     1000023         5   # BR(~b_1 -> chi^0_2 b)
     9.66153027E-02    2     1000025         5   # BR(~b_1 -> chi^0_3 b)
     2.84487355E-02    2     1000035         5   # BR(~b_1 -> chi^0_4 b)
     4.83070072E-01    2    -1000024         6   # BR(~b_1 -> chi^-_1 t)
     5.76868148E-02    2    -1000037         6   # BR(~b_1 -> chi^-_2 t)
DECAY   2000005     1.63270277E+02   # ~b_2
#    BR                NDA      ID1      ID2
     1.49441973E-01    2     1000022         5   # BR(~b_2 -> chi^0_1 b)
     2.32664174E-01    2     1000023         5   # BR(~b_2 -> chi^0_2 b)
     1.13185707E-01    2     1000025         5   # BR(~b_2 -> chi^0_3 b)
     4.78720131E-01    2    -1000024         6   # BR(~b_2 -> chi^-_1 t)
     2.54320593E-02    2     1000021         5   # BR(~b_2 -> ~g b)
     2.24154463E-04    2     1000006       -24   # BR(~b_2 -> ~t_1 W^-)
     1.12339166E-04    2     1000005        23   # BR(~b_2 -> ~b_1 Z)
     1.90748435E-04    2     1000005        25   # BR(~b_2 -> ~b_1 h^0)
DECAY   2000002     5.67976959E+02   # ~u_R
#    BR                NDA      ID1      ID2
     2.16318398E-02    2     1000022         2   # BR(~u_R -> chi^0_1 u)
     6.53867024E-04    2     1000023         2   # BR(~u_R -> chi^0_2 u)
     1.72948653E-02    2     1000025         2   # BR(~u_R -> chi^0_3 u)
     9.60419366E-01    2     1000021         2   # BR(~u_R -> ~g u)
DECAY   1000002     6.75187146E+02   # ~u_L
#    BR                NDA      ID1      ID2
     1.48082255E-03    2     1000022         2   # BR(~u_L -> chi^0_1 u)
     2.48273938E-04    2     1000023         2   # BR(~u_L -> chi^0_2 u)
     5.51235229E-04    2     1000025         2   # BR(~u_L -> chi^0_3 u)
     6.21761444E-02    2     1000035         2   # BR(~u_L -> chi^0_4 u)
     6.55312968E-04    2     1000024         1   # BR(~u_L -> chi^+_1 d)
     1.24101563E-01    2     1000037         1   # BR(~u_L -> chi^+_2 d)
     8.10786648E-01    2     1000021         2   # BR(~u_L -> ~g u)
DECAY   2000004     5.67984357E+02   # ~c_R
#    BR                NDA      ID1      ID2
     2.16325784E-02    2     1000022         4   # BR(~c_R -> chi^0_1 c)
     6.57044828E-04    2     1000023         4   # BR(~c_R -> chi^0_2 c)
     1.72968212E-02    2     1000025         4   # BR(~c_R -> chi^0_3 c)
     9.60407081E-01    2     1000021         4   # BR(~c_R -> ~g c)
DECAY   1000004     6.75258074E+02   # ~c_L
#    BR                NDA      ID1      ID2
     1.48152769E-03    2     1000022         4   # BR(~c_L -> chi^0_1 c)
     2.50933959E-04    2     1000023         4   # BR(~c_L -> chi^0_2 c)
     5.53012915E-04    2     1000025         4   # BR(~c_L -> chi^0_3 c)
     6.21697242E-02    2     1000035         4   # BR(~c_L -> chi^0_4 c)
     7.52411154E-04    2     1000024         3   # BR(~c_L -> chi^+_1 s)
     1.24088737E-01    2     1000037         3   # BR(~c_L -> chi^+_2 s)
     8.10703653E-01    2     1000021         4   # BR(~c_L -> ~g c)
DECAY   1000006     9.99238998E+01   # ~t_1
#    BR                NDA      ID1      ID2
     1.11932712E-03    2     1000022         4   # BR(~t_1 -> chi^0_1 c)
     7.80558943E-02    2     1000022         6   # BR(~t_1 -> chi^0_1 t)
     1.87175863E-04    2     1000023         4   # BR(~t_1 -> chi^0_2 c)
     2.36462256E-01    2     1000023         6   # BR(~t_1 -> chi^0_2 t)
     1.61418939E-01    2     1000025         6   # BR(~t_1 -> chi^0_3 t)
     2.59139199E-02    2     1000035         6   # BR(~t_1 -> chi^0_4 t)
     4.17943104E-01    2     1000024         5   # BR(~t_1 -> chi^+_1 b)
     5.56388239E-02    2     1000037         5   # BR(~t_1 -> chi^+_2 b)
#    BR                NDA      ID1      ID2       ID3
     2.32605603E-02    3     1000022        24         5   # BR(~t_1 -> chi^0_1 W^+ b)
DECAY   2000006     1.70102224E+02   # ~t_2
#    BR                NDA      ID1      ID2
     1.03611808E-01    2     1000022         6   # BR(~t_2 -> chi^0_1 t)
     2.36666183E-01    2     1000023         6   # BR(~t_2 -> chi^0_2 t)
     1.84069509E-01    2     1000025         6   # BR(~t_2 -> chi^0_3 t)
     8.14465641E-04    2     1000035         6   # BR(~t_2 -> chi^0_4 t)
     4.73132299E-01    2     1000024         5   # BR(~t_2 -> chi^+_1 b)
     1.64067819E-03    2     1000037         5   # BR(~t_2 -> chi^+_2 b)
DECAY   1000024     1.72219541E-05   # chi^+_1
#    BR                NDA      ID1      ID2       ID3
     3.34706783E-01    3     1000022        -1         2   # BR(chi^+_1 -> chi^0_1 d_bar u)
     3.32253994E-01    3     1000022        -3         4   # BR(chi^+_1 -> chi^0_1 s_bar c)
     1.11568688E-01    3     1000022       -11        12   # BR(chi^+_1 -> chi^0_1 e^+ nu_e)
     1.11567763E-01    3     1000022       -13        14   # BR(chi^+_1 -> chi^0_1 mu^+ nu_mu)
     1.09902772E-01    3     1000022       -15        16   # BR(chi^+_1 -> chi^0_1 tau^+ nu_tau)
DECAY   1000037     1.49483039E+01   # chi^+_2
#    BR                NDA      ID1      ID2
     8.63923466E-02    2     1000022        24   # BR(chi^+_2 -> chi^0_1 W^+)
     2.47278699E-01    2     1000023        24   # BR(chi^+_2 -> chi^0_2 W^+)
     1.56746951E-01    2     1000025        24   # BR(chi^+_2 -> chi^0_3 W^+)
     2.44319407E-01    2     1000024        23   # BR(chi^+_2 -> chi^+_1 Z)
     2.38226836E-01    2     1000024        25   # BR(chi^+_2 -> chi^+_1 h^0)
#    BR                NDA      ID1      ID2       ID3
     1.04530308E-02    3     1000024         6        -6   # BR(chi^+_2 -> chi^+_1 t t_bar)
     2.97929879E-04    3     1000024         5        -5   # BR(chi^+_2 -> chi^+_1 b b_bar)
     2.89814332E-03    3     1000022        -5         6   # BR(chi^+_2 -> chi^0_1 b_bar t)
     8.14393285E-03    3     1000023        -5         6   # BR(chi^+_2 -> chi^0_2 b_bar t)
     5.23982910E-03    3     1000025        -5         6   # BR(chi^+_2 -> chi^0_3 b_bar t)
DECAY   1000022     0.00000000E+00   # chi^0_1
DECAY   1000023     5.34761726E-05   # chi^0_2
#    BR                NDA      ID1      ID2
     2.02117679E-02    2     1000022        22   # BR(chi^0_2 -> chi^0_1 photon)
#    BR                NDA      ID1      ID2       ID3
     1.19283744E-01    3     1000022         2        -2   # BR(chi^0_2 -> chi^0_1 u u_bar)
     1.17242773E-01    3     1000022         4        -4   # BR(chi^0_2 -> chi^0_1 c c_bar)
     1.52944681E-01    3     1000022         1        -1   # BR(chi^0_2 -> chi^0_1 d d_bar)
     1.52932011E-01    3     1000022         3        -3   # BR(chi^0_2 -> chi^0_1 s s_bar)
     1.30556097E-01    3     1000022         5        -5   # BR(chi^0_2 -> chi^0_1 b b_bar)
     3.45143687E-02    3     1000022        11       -11   # BR(chi^0_2 -> chi^0_1 e^- e^+)
     3.45098573E-02    3     1000022        13       -13   # BR(chi^0_2 -> chi^0_1 mu^- mu^+)
     3.32686880E-02    3     1000022        15       -15   # BR(chi^0_2 -> chi^0_1 tau^- tau^+)
     2.04531371E-01    3     1000022        12       -12   # BR(chi^0_2 -> chi^0_1 nu_e nu_bar_e)
DECAY   1000025     5.28069903E-05   # chi^0_3
#    BR                NDA      ID1      ID2
     3.07955134E-03    2     1000022        22   # BR(chi^0_3 -> chi^0_1 photon)
     1.48295080E-02    2     1000023        22   # BR(chi^0_3 -> chi^0_2 photon)
#    BR                NDA      ID1      ID2       ID3
     3.07000139E-03    3     1000022         2        -2   # BR(chi^0_3 -> chi^0_1 u u_bar)
     3.05558161E-03    3     1000022         4        -4   # BR(chi^0_3 -> chi^0_1 c c_bar)
     3.93349458E-03    3     1000022         1        -1   # BR(chi^0_3 -> chi^0_1 d d_bar)
     3.93341624E-03    3     1000022         3        -3   # BR(chi^0_3 -> chi^0_1 s s_bar)
     3.91466572E-03    3     1000022         5        -5   # BR(chi^0_3 -> chi^0_1 b b_bar)
     8.85389283E-04    3     1000022        11       -11   # BR(chi^0_3 -> chi^0_1 e^- e^+)
     8.85367994E-04    3     1000022        13       -13   # BR(chi^0_3 -> chi^0_1 mu^- mu^+)
     8.79327098E-04    3     1000022        15       -15   # BR(chi^0_3 -> chi^0_1 tau^- tau^+)
     5.26407434E-03    3     1000022        12       -12   # BR(chi^0_3 -> chi^0_1 nu_e nu_bar_e)
     5.17217918E-02    3     1000023         2        -2   # BR(chi^0_3 -> chi^0_2 u u_bar)
     5.02682818E-02    3     1000023         4        -4   # BR(chi^0_3 -> chi^0_2 c c_bar)
     6.63180139E-02    3     1000023         1        -1   # BR(chi^0_3 -> chi^0_2 d d_bar)
     6.63089015E-02    3     1000023         3        -3   # BR(chi^0_3 -> chi^0_2 s s_bar)
     5.08358510E-02    3     1000023         5        -5   # BR(chi^0_3 -> chi^0_2 b b_bar)
     1.49664020E-02    3     1000023        11       -11   # BR(chi^0_3 -> chi^0_2 e^- e^+)
     1.49631479E-02    3     1000023        13       -13   # BR(chi^0_3 -> chi^0_2 mu^- mu^+)
     1.40807495E-02    3     1000023        15       -15   # BR(chi^0_3 -> chi^0_2 tau^- tau^+)
     8.86860565E-02    3     1000023        12       -12   # BR(chi^0_3 -> chi^0_2 nu_e nu_bar_e)
     9.01354436E-02    3     1000024         1        -2   # BR(chi^0_3 -> chi^+_1 d u_bar)
     9.01354436E-02    3    -1000024        -1         2   # BR(chi^0_3 -> chi^-_1 d_bar u)
     8.93320793E-02    3     1000024         3        -4   # BR(chi^0_3 -> chi^+_1 s c_bar)
     8.93320793E-02    3    -1000024        -3         4   # BR(chi^0_3 -> chi^-_1 s_bar c)
     3.00452585E-02    3     1000024        11       -12   # BR(chi^0_3 -> chi^+_1 e^- nu_bar_e)
     3.00452585E-02    3    -1000024       -11        12   # BR(chi^0_3 -> chi^-_1 e^+ nu_e)
     3.00450206E-02    3     1000024        13       -14   # BR(chi^0_3 -> chi^+_1 mu^- nu_bar_mu)
     3.00450206E-02    3    -1000024       -13        14   # BR(chi^0_3 -> chi^-_1 mu^+ nu_mu)
     2.95024112E-02    3     1000024        15       -16   # BR(chi^0_3 -> chi^+_1 tau^- nu_bar_tau)
     2.95024112E-02    3    -1000024       -15        16   # BR(chi^0_3 -> chi^-_1 tau^+ nu_tau)
DECAY   1000035     1.55077111E+01   # chi^0_4
#    BR                NDA      ID1      ID2
     2.37010675E-01    2     1000024       -24   # BR(chi^0_4 -> chi^+_1 W^-)
     2.37010675E-01    2    -1000024        24   # BR(chi^0_4 -> chi^-_1 W^+)
     4.75316108E-02    2     1000022        23   # BR(chi^0_4 -> chi^0_1 Z)
     9.69728105E-02    2     1000023        23   # BR(chi^0_4 -> chi^0_2 Z)
     9.12691516E-02    2     1000025        23   # BR(chi^0_4 -> chi^0_3 Z)
     4.26027774E-02    2     1000022        25   # BR(chi^0_4 -> chi^0_1 h^0)
     1.37333177E-01    2     1000023        25   # BR(chi^0_4 -> chi^0_2 h^0)
     8.43387508E-02    2     1000025        25   # BR(chi^0_4 -> chi^0_3 h^0)
#    BR                NDA      ID1      ID2       ID3
     1.63658672E-03    3     1000022         6        -6   # BR(chi^0_4 -> chi^0_1 t t_bar)
     4.53491354E-03    3     1000023         6        -6   # BR(chi^0_4 -> chi^0_2 t t_bar)
     1.40145757E-04    3     1000023         5        -5   # BR(chi^0_4 -> chi^0_2 b b_bar)
     2.82234933E-03    3     1000025         6        -6   # BR(chi^0_4 -> chi^0_3 t t_bar)
     8.30061885E-03    3     1000024         5        -6   # BR(chi^0_4 -> chi^+_1 b t_bar)
     8.30061885E-03    3    -1000024        -5         6   # BR(chi^0_4 -> chi^-_1 b_bar t)
DECAY   1000021     1.42684388E+02   # ~g
#    BR                NDA      ID1      ID2
     9.61818923E-02    2     1000006        -4   # BR(~g -> ~t_1 c_bar)
     9.61818923E-02    2    -1000006         4   # BR(~g -> ~t^*_1 c)
     1.99851859E-01    2     1000006        -6   # BR(~g -> ~t_1 t_bar)
     1.99851859E-01    2    -1000006         6   # BR(~g -> ~t^*_1 t)
     2.00027594E-03    2     2000006        -6   # BR(~g -> ~t_2 t_bar)
     2.00027594E-03    2    -2000006         6   # BR(~g -> ~t^*_2 t)
     2.00806291E-01    2     1000005        -5   # BR(~g -> ~b_1 b_bar)
     2.00806291E-01    2    -1000005         5   # BR(~g -> ~b^*_1 b)
#    BR                NDA      ID1      ID2       ID3
     3.42329084E-04    3     1000022         5        -5   # BR(~g -> chi^0_1 b b_bar)
     5.31196844E-04    3     1000023         5        -5   # BR(~g -> chi^0_2 b b_bar)
     2.58515788E-04    3     1000025         5        -5   # BR(~g -> chi^0_3 b b_bar)
     5.43529697E-04    3     1000024         5        -6   # BR(~g -> chi^+_1 b t_bar)
     5.43529697E-04    3    -1000024        -5         6   # BR(~g -> chi^-_1 b_bar t)
DECAY        25     2.91133110E-03   # Gamma(h0)
     2.69751379E-03   2        22        22   # BR(h0 -> photon photon)
     1.31410621E-03   2        22        23   # BR(h0 -> photon Z)
     2.07798914E-02   2        23        23   # BR(h0 -> Z Z)
     1.87557308E-01   2       -24        24   # BR(h0 -> W W)
     8.73131210E-02   2        21        21   # BR(h0 -> gluon gluon)
     5.37319789E-09   2       -11        11   # BR(h0 -> Electron electron)
     2.39006860E-04   2       -13        13   # BR(h0 -> Muon muon)
     6.89079289E-02   2       -15        15   # BR(h0 -> Tau tau)
     1.53949404E-07   2        -2         2   # BR(h0 -> Up up)
     2.98771644E-02   2        -4         4   # BR(h0 -> Charm charm)
     6.25914923E-07   2        -1         1   # BR(h0 -> Down down)
     2.26377822E-04   2        -3         3   # BR(h0 -> Strange strange)
     6.01086796E-01   2        -5         5   # BR(h0 -> Bottom bottom)
DECAY        35     2.11406200E+02   # Gamma(HH)
     7.61706638E-10   2        22        22   # BR(HH -> photon photon)
     1.29363135E-09   2        22        23   # BR(HH -> photon Z)
     2.33091590E-08   2        23        23   # BR(HH -> Z Z)
     3.98598638E-09   2       -24        24   # BR(HH -> W W)
     4.80440556E-06   2        21        21   # BR(HH -> gluon gluon)
     9.07006482E-09   2       -11        11   # BR(HH -> Electron electron)
     4.03896824E-04   2       -13        13   # BR(HH -> Muon muon)
     1.16658990E-01   2       -15        15   # BR(HH -> Tau tau)
     1.56229683E-14   2        -2         2   # BR(HH -> Up up)
     3.03108594E-09   2        -4         4   # BR(HH -> Charm charm)
     2.38763637E-04   2        -6         6   # BR(HH -> Top top)
     6.34717067E-07   2        -1         1   # BR(HH -> Down down)
     2.29583940E-04   2        -3         3   # BR(HH -> Strange strange)
     6.28342159E-01   2        -5         5   # BR(HH -> Bottom bottom)
     1.02916130E-03   2  -1000024   1000024   # BR(HH -> Chargino1 chargino1)
     7.52766564E-02   2  -1000024   1000037   # BR(HH -> Chargino1 chargino2)
     7.52766564E-02   2  -1000037   1000024   # BR(HH -> Chargino2 chargino1)
     2.53480075E-06   2  -1000037   1000037   # BR(HH -> Chargino2 chargino2)
     7.54333449E-03   2   1000022   1000022   # BR(HH -> neutralino1 neutralino1)
     4.14821472E-03   2   1000022   1000023   # BR(HH -> neutralino1 neutralino2)
     1.09880183E-03   2   1000022   1000025   # BR(HH -> neutralino1 neutralino3)
     2.72578826E-02   2   1000022   1000035   # BR(HH -> neutralino1 neutralino4)
     8.39778880E-05   2   1000023   1000023   # BR(HH -> neutralino2 neutralino2)
     8.31039159E-03   2   1000023   1000025   # BR(HH -> neutralino2 neutralino3)
     3.45770261E-02   2   1000023   1000035   # BR(HH -> neutralino2 neutralino4)
     5.75803061E-03   2   1000025   1000025   # BR(HH -> neutralino3 neutralino3)
     1.37568982E-02   2   1000025   1000035   # BR(HH -> neutralino3 neutralino4)
     1.27452916E-06   2   1000035   1000035   # BR(HH -> neutralino4 neutralino4)
     1.19465475E-07   2        25        25   # BR(HH -> h0 h0)
     1.24005698E-07   2  -1000006   1000006   # BR(HH -> Stop1 stop1)
     4.07850104E-08   2  -1000005   1000005   # BR(HH -> Sbottom1 sbottom1)
DECAY        36     1.94131833E+02   # Gamma(A0)
     1.78204804E-08   2        22        22   # BR(A0 -> photon photon)
     1.89731857E-08   2        22        23   # BR(A0 -> photon Z)
     7.50569327E-06   2        21        21   # BR(A0 -> gluon gluon)
     8.79115433E-09   2       -11        11   # BR(A0 -> Electron electron)
     3.91479680E-04   2       -13        13   # BR(A0 -> Muon muon)
     1.13072586E-01   2       -15        15   # BR(A0 -> Tau tau)
     1.44067720E-14   2        -2         2   # BR(A0 -> Up up)
     2.79510286E-09   2        -4         4   # BR(A0 -> Charm charm)
     2.21611698E-04   2        -6         6   # BR(A0 -> Top top)
     6.15131579E-07   2        -1         1   # BR(A0 -> Down down)
     2.22500455E-04   2        -3         3   # BR(A0 -> Strange strange)
     6.08990170E-01   2        -5         5   # BR(A0 -> Bottom bottom)
     1.13143848E-03   2  -1000024   1000024   # BR(A0 -> Chargino1 chargino1)
     8.20768913E-02   2  -1000024   1000037   # BR(A0 -> Chargino1 chargino2)
     8.20768913E-02   2  -1000037   1000024   # BR(A0 -> Chargino2 chargino1)
     1.02293559E-05   2  -1000037   1000037   # BR(A0 -> Chargino2 chargino2)
     7.79776376E-03   2   1000022   1000022   # BR(A0 -> neutralino1 neutralino1)
     4.90249402E-03   2   1000022   1000023   # BR(A0 -> neutralino1 neutralino2)
     1.19479759E-03   2   1000022   1000025   # BR(A0 -> neutralino1 neutralino3)
     2.73799875E-02   2   1000022   1000035   # BR(A0 -> neutralino1 neutralino4)
     9.85745995E-05   2   1000023   1000023   # BR(A0 -> neutralino2 neutralino2)
     9.63752466E-03   2   1000023   1000025   # BR(A0 -> neutralino2 neutralino3)
     4.18994309E-02   2   1000023   1000035   # BR(A0 -> neutralino2 neutralino4)
     5.73841903E-03   2   1000025   1000025   # BR(A0 -> neutralino3 neutralino3)
     1.31438437E-02   2   1000025   1000035   # BR(A0 -> neutralino3 neutralino4)
     5.12978950E-06   2   1000035   1000035   # BR(A0 -> neutralino4 neutralino4)
     6.75799194E-08   2        23        25   # BR(A0 -> Z h0)
     1.04290213E-11   2        23        35   # BR(A0 -> Z HH)
     2.23385914E-40   2        25        25   # BR(A0 -> h0 h0)
DECAY        37     2.53706047E+02   # Gamma(Hp)
     1.01012813E-08   2       -11        12   # BR(Hp -> Electron nu_e)
     4.31861325E-04   2       -13        14   # BR(Hp -> Muon nu_mu)
     1.22154993E-01   2       -15        16   # BR(Hp -> Tau nu_tau)
     6.15726053E-07   2        -1         2   # BR(Hp -> Down up)
     1.04481091E-05   2        -3         2   # BR(Hp -> Strange up)
     7.04558553E-06   2        -5         2   # BR(Hp -> Bottom up)
     2.90392648E-08   2        -1         4   # BR(Hp -> Down charm)
     2.21907387E-04   2        -3         4   # BR(Hp -> Strange charm)
     9.86634275E-04   2        -5         4   # BR(Hp -> Bottom charm)
     1.46715752E-08   2        -1         6   # BR(Hp -> Down top)
     6.51538154E-07   2        -3         6   # BR(Hp -> Strange top)
     6.64662477E-01   2        -5         6   # BR(Hp -> Bottom top)
     1.15672602E-02   2   1000022   1000024   # BR(Hp -> neutralino1 chargino1)
     4.36353853E-02   2   1000022   1000037   # BR(Hp -> neutralino1 chargino2)
     8.69958448E-04   2   1000023   1000024   # BR(Hp -> neutralino2 chargino1)
     6.09443005E-02   2   1000023   1000037   # BR(Hp -> neutralino2 chargino2)
     1.02351686E-02   2   1000024   1000025   # BR(Hp -> chargino1 neutralino3)
     2.14963319E-02   2   1000025   1000037   # BR(Hp -> neutralino3 chargino2)
     6.27748562E-02   2   1000024   1000035   # BR(Hp -> chargino1 neutralino4)
     8.37429256E-12   2   1000035   1000037   # BR(Hp -> neutralino4 chargino2)
     5.15206641E-08   2        24        25   # BR(Hp -> W h0)
     3.56716274E-11   2  -1000005   1000006   # BR(Hp -> Sbottom1 stop1)
DECAY         6     2.43000000E+00   # top
#    BR                NDA      ID1      ID2
     1.00000000E+00    2           5        24   # BR(t -> b W)
Block HiggsBoundsInputHiggsCouplingsFermions
# ScalarNormEffCoupSq PseudoSNormEffCoupSq NP IP1 IP2 IP2
    1.00128201E+00    0.00000000E+00        3  25   5   5  # h0-b-b eff. coupling^2, normalised to SM
    3.19889558E+03    0.00000000E+00        3  35   5   5  # H0-b-b eff. coupling^2, normalised to SM
    0.00000000E+00    3.19889686E+03        3  36   5   5  # A0-b-b eff. coupling^2, normalised to SM
#
    9.99999599E-01    0.00000000E+00        3  25   6   6  # h0-t-t eff. coupling^2, normalised to SM
    3.13008532E-04    0.00000000E+00        3  35   6   6  # H0-t-t eff. coupling^2, normalised to SM
    0.00000000E+00    3.12607765E-04        3  36   6   6  # A0-t-t eff. coupling^2, normalised to SM
#
    1.00128201E+00    0.00000000E+00        3  25  15  15  # h0-tau-tau eff. coupling^2, normalised to SM
    3.19889558E+03    0.00000000E+00        3  35  15  15  # H0-tau-tau eff. coupling^2, normalised to SM
    0.00000000E+00    3.19889686E+03        3  36  15  15  # A0-tau-tau eff. coupling^2, normalised to SM
#
Block HiggsBoundsInputHiggsCouplingsBosons
    1.00000000E+00        3  25  24  24  # h0-W-W eff. coupling^2, normalised to SM
    1.28364285E-10        3  35  24  24  # H0-W-W eff. coupling^2, normalised to SM
    0.00000000E+00        3  36  24  24  # A0-W-W eff. coupling^2, normalised to SM
#
    1.00000000E+00        3  25  23  23  # h0-Z-Z eff. coupling^2, normalised to SM
    1.28364285E-10        3  35  23  23  # H0-Z-Z eff. coupling^2, normalised to SM
    0.00000000E+00        3  36  23  23  # A0-Z-Z eff. coupling^2, normalised to SM
#
    1.26388425E+00        3  25  21  21  # h0-g-g eff. coupling^2, normalised to SM
    1.35964665E-02        3  35  21  21  # H0-g-g eff. coupling^2, normalised to SM
    1.42952216E-01        3  36  21  21  # A0-g-g eff. coupling^2, normalised to SM
#
    0.00000000E+00        3  25  25  23  # h0-h0-Z eff. coupling^2, normalised to SM
    0.00000000E+00        3  35  25  23  # H0-h0-Z eff. coupling^2, normalised to SM
    1.28364285E-10        3  36  25  23  # A0-h0-Z eff. coupling^2, normalised to SM
    0.00000000E+00        3  35  35  23  # H0-H0-Z eff. coupling^2, normalised to SM
    1.00000000E+00        3  36  35  23  # A0-H0-Z eff. coupling^2, normalised to SM
    0.00000000E+00        3  36  36  23  # A0-A0-Z eff. coupling^2, normalised to SM
#
    0.00000000E+00        4  25  21  21  23  # h0-g-g-Z eff. coupling^2, normalised to SM
    0.00000000E+00        4  35  21  21  23  # H0-g-g-Z eff. coupling^2, normalised to SM
    0.00000000E+00        4  36  21  21  23  # A0-g-g-Z eff. coupling^2, normalised to SM
Block SPhenoLowEnergy  # low energy observables
    1    3.27769729E-04   # BR(b -> s gamma)
    2    1.58905172E-06   # BR(b -> s mu+ mu-)
    3    3.52423854E-05   # BR(b -> s nu nu)
    4    2.22223832E-15   # BR(Bd -> e+ e-)
    5    9.49321647E-11   # BR(Bd -> mu+ mu-)
    6    1.99113910E-08   # BR(Bd -> tau+ tau-)
    7    7.58999491E-14   # BR(Bs -> e+ e-)
    8    3.24246384E-09   # BR(Bs -> mu+ mu-)
    9    6.88943656E-07   # BR(Bs -> tau+ tau-)
   10    9.60978419E-05   # BR(B_u -> tau nu)
   11    9.92653917E-01   # BR(B_u -> tau nu)/BR(B_u -> tau nu)_SM
   12    5.41950292E-01   # |Delta(M_Bd)| [ps^-1] 
   13    1.93593103E+01   # |Delta(M_Bs)| [ps^-1] 
   14    0.00000000E+00   # neutron EDM according to the chiral quark model
   15    0.00000000E+00   # neutron EDM according to the relativistic quark-parton model
   16    2.15737042E-03   # epsilon_K
   17    2.28165957E-15   # Delta(M_K)
   18    2.47943290E-11   # BR(K^0 -> pi^0 nu nu)
   19    8.28913797E-11   # BR(K^+ -> pi^+ nu nu)
   20    6.02369040E-16   # Delta(g-2)_electron/2
   21    2.57536321E-11   # Delta(g-2)_muon/2
   22    7.31923760E-09   # Delta(g-2)_tau/2
   23    0.00000000E+00   # electric dipole moment of the electron
   24    0.00000000E+00   # electric dipole moment of the muon
   25    0.00000000E+00   # electric dipole moment of the tau
   26    0.00000000E+00   # Br(mu -> e gamma)
   27    0.00000000E+00   # Br(tau -> e gamma)
   28    0.00000000E+00   # Br(tau -> mu gamma)
   29    0.00000000E+00   # Br(mu -> 3 e)
   30    0.00000000E+00   # Br(tau -> 3 e)
   31    0.00000000E+00   # Br(tau -> 3 mu)
   39    7.91428458E-05   # Delta(rho_parameter)
   40    0.00000000E+00   # BR(Z -> e mu)
   41    0.00000000E+00   # BR(Z -> e tau)
   42    0.00000000E+00   # BR(Z -> mu tau)
Block FWCOEF Q=  1.60000000E+02  # Wilson coefficients at scale Q
#    id        order  M        value         comment
     0305 4422   00   0    -1.88819110E-01   # C7
     0305 4422   00   2    -1.97724960E-01   # C7
     0305 4322   00   2    -6.62539698E-05   # C7'
     0305 6421   00   0    -9.52278348E-02   # C8
     0305 6421   00   2    -1.01154685E-01   # C8
     0305 6321   00   2    -7.18716710E-05   # C8'
 03051111 4133   00   0     1.61839020E+00   # C9 e+e-
 03051111 4133   00   2     1.61881626E+00   # C9 e+e-
 03051111 4233   00   2     8.05991659E-04   # C9' e+e-
 03051111 4137   00   0    -4.44108230E+00   # C10 e+e-
 03051111 4137   00   2    -4.43863970E+00   # C10 e+e-
 03051111 4237   00   2    -6.03477759E-03   # C10' e+e-
 03051313 4133   00   0     1.61839020E+00   # C9 mu+mu-
 03051313 4133   00   2     1.61881609E+00   # C9 mu+mu-
 03051313 4233   00   2     8.05990948E-04   # C9' mu+mu-
 03051313 4137   00   0    -4.44108230E+00   # C10 mu+mu-
 03051313 4137   00   2    -4.43863987E+00   # C10 mu+mu-
 03051313 4237   00   2    -6.03477890E-03   # C10' mu+mu-
 03051212 4137   00   0     1.50535012E+00   # C11 nu_1 nu_1
 03051212 4137   00   2     1.50482218E+00   # C11 nu_1 nu_1
 03051212 4237   00   2     1.30738401E-03   # C11' nu_1 nu_1
 03051414 4137   00   0     1.50535012E+00   # C11 nu_2 nu_2
 03051414 4137   00   2     1.50482218E+00   # C11 nu_2 nu_2
 03051414 4237   00   2     1.30738405E-03   # C11' nu_2 nu_2
 03051616 4137   00   0     1.50535012E+00   # C11 nu_3 nu_3
 03051616 4137   00   2     1.50482218E+00   # C11 nu_3 nu_3
 03051616 4237   00   2     1.30739639E-03   # C11' nu_3 nu_3
Block IMFWCOEF Q=  1.60000000E+02  # Im(Wilson coefficients) at scale Q
#    id        order  M        value         comment
     0305 4422   00   0     3.85817365E-07   # C7
     0305 4422   00   2     1.74310083E-05   # C7
     0305 4322   00   2    -1.23669726E-07   # C7'
     0305 6421   00   0     3.30478089E-07   # C8
     0305 6421   00   2     1.36981908E-05   # C8
     0305 6321   00   2     1.17710850E-07   # C8'
 03051111 4133   00   2     3.24659326E-07   # C9 e+e-
 03051111 4233   00   2     1.50359481E-05   # C9' e+e-
 03051111 4137   00   2     3.02766597E-07   # C10 e+e-
 03051111 4237   00   2    -1.12583994E-04   # C10' e+e-
 03051313 4133   00   2     3.24653937E-07   # C9 mu+mu-
 03051313 4233   00   2     1.50359391E-05   # C9' mu+mu-
 03051313 4137   00   2     3.02772549E-07   # C10 mu+mu-
 03051313 4237   00   2    -1.12584021E-04   # C10' mu+mu-
 03051212 4137   00   2    -4.36736227E-08   # C11 nu_1 nu_1
 03051212 4237   00   2     2.43903796E-05   # C11' nu_1 nu_1
 03051414 4137   00   2    -4.36734010E-08   # C11 nu_2 nu_2
 03051414 4237   00   2     2.43903796E-05   # C11' nu_2 nu_2
 03051616 4137   00   2    -4.36123429E-08   # C11 nu_3 nu_3
 03051616 4237   00   2     2.43903796E-05   # C11' nu_3 nu_3
