# SUSY Les Houches Accord 2 - MSSM spectrum + Decays
# SPheno v4.0.5be
# W. Porod, Comput. Phys. Commun. 153 (2003) 275-315, hep-ph/0301101;
# W. Porod, F.~Staub, Comput. Phys. Commun. 183 (2012) 2458
#                     arXiv:1104.1573 [hep-ph] 
# in case of problems send email to porod@physik.uni-wuerzburg.de
# Created: 07.09.2021,  16:19
Block SPINFO         # Program information
     1   SPheno      # spectrum calculator
     2   v4.0.5be    # version number
#
Block SPhenoINFO     # SPheno specific information
    1      2         # using 2-loop RGEs
    2      2         # using pole masses for boundary conditions at mZ
Block MODSEL  # Model selection
    1    0    # general MSSM
Block MINPAR  # Input parameters
    3    4.52579301E+01  # tanb at m_Z    
    4    1.00000000E+00  # Sign(mu)
Block EXTPAR  # non-universal input parameters
    0    3.73460816E+03  # scale for input parameters
    1    4.43802905E+01  # M_1
    2   -7.89123345E+02  # M_2
    3    3.73073243E+03  # M_3
   11   -6.89129792E+03  # A_t
   12   -1.15234860E+03  # A_b
   13   -9.35649023E+02  # A_tau
   23    4.36628027E+02  # mu
   25    4.43904074E+01  # tan(beta)
   26    1.96886068E+03  # m_A, pole mass
   31    1.00000000E+04  # M_L11
   32    1.00000000E+04  # M_L22
   33    1.00000000E+04  # M_L33
   34    1.00000000E+04  # M_E11
   35    1.00000000E+04  # M_E22
   36    1.00000000E+04  # M_E33
   41    1.00000000E+04  # M_Q11
   42    1.00000000E+04  # M_Q22
   43    3.82613679E+03  # M_Q33
   44    1.00000000E+04  # M_U11
   45    1.00000000E+04  # M_U22
   46    3.61545660E+03  # M_U33
   47    1.00000000E+04  # M_D11
   48    1.00000000E+04  # M_D22
   49    3.82204226E+03  # M_D33
Block SMINPUTS  # SM parameters
         1     1.27908970E+02  # alpha_em^-1(MZ)^MSbar
         2     1.16637870E-05  # G_mu [GeV^-2]
         3     1.18400000E-01  # alpha_s(MZ)^MSbar
         4     9.11876000E+01  # m_Z(pole)
         5     4.18000000E+00  # m_b(m_b), MSbar
         6     1.73200000E+02  # m_t(pole)
         7     1.77700000E+00  # m_tau(pole)
         8     0.00000000E+00  # m_nu_3
        11     5.10998930E-04  # m_e(pole)
        12     0.00000000E+00  # m_nu_1
        13     1.05658372E-01  # m_muon(pole)
        14     0.00000000E+00  # m_nu_2
        21     5.00000000E-03  # m_d(2 GeV), MSbar
        22     2.50000000E-03  # m_u(2 GeV), MSbar
        23     9.50000000E-02  # m_s(2 GeV), MSbar
        24     1.27000000E+00  # m_c(m_c), MSbar
Block gauge Q=  3.73460816E+03  # (SUSY scale)
   1    3.55362975E-01  # g'(Q)^DRbar
   2    6.65198874E-01  # g(Q)^DRbar
   3    1.21977796E+00  # g3(Q)^DRbar
Block Yu Q=  3.73460816E+03  # (SUSY scale)
  1  1     8.38649933E-06   # Y_u(Q)^DRbar
  2  2     4.26034166E-03   # Y_c(Q)^DRbar
  3  3     1.01315648E+00   # Y_t(Q)^DRbar
Block Yd Q=  3.73460816E+03  # (SUSY scale)
  1  1     7.48083533E-04   # Y_d(Q)^DRbar
  2  2     1.42135871E-02   # Y_s(Q)^DRbar
  3  3     7.41864449E-01   # Y_b(Q)^DRbar
Block Ye Q=  3.73460816E+03  # (SUSY scale)
  1  1     1.30546047E-04   # Y_e(Q)^DRbar
  2  2     2.69927821E-02   # Y_mu(Q)^DRbar
  3  3     4.53974190E-01   # Y_tau(Q)^DRbar
Block Au Q=  3.73460816E+03  # (SUSY scale)
  1  1     0.00000000E+00   # A_u(Q)^DRbar
  2  2     0.00000000E+00   # A_c(Q)^DRbar
  3  3    -6.89129782E+03   # A_t(Q)^DRbar
Block Ad Q=  3.73460816E+03  # (SUSY scale)
  1  1     0.00000000E+00   # A_d(Q)^DRbar
  2  2     0.00000000E+00   # A_s(Q)^DRbar
  3  3    -1.15234861E+03   # A_b(Q)^DRbar
Block Ae Q=  3.73460816E+03  # (SUSY scale)
  1  1     0.00000000E+00   # A_e(Q)^DRbar
  2  2     0.00000000E+00   # A_mu(Q)^DRbar
  3  3    -9.35649028E+02   # A_tau(Q)^DRbar
Block MSOFT Q=  3.73460816E+03  # soft SUSY breaking masses at Q
   1    4.43802905E+01  # M_1
   2   -7.89123345E+02  # M_2
   3    3.73073243E+03  # M_3
  21    3.68109101E+06  # M^2_(H,d)
  22    1.09066159E+05  # M^2_(H,u)
  31    1.00000000E+04  # M_(L,11)
  32    1.00000000E+04  # M_(L,22)
  33    1.00000000E+04  # M_(L,33)
  34    1.00000000E+04  # M_(E,11)
  35    1.00000000E+04  # M_(E,22)
  36    1.00000000E+04  # M_(E,33)
  41    1.00000000E+04  # M_(Q,11)
  42    1.00000000E+04  # M_(Q,22)
  43    3.82613679E+03  # M_(Q,33)
  44    1.00000000E+04  # M_(U,11)
  45    1.00000000E+04  # M_(U,22)
  46    3.61545660E+03  # M_(U,33)
  47    1.00000000E+04  # M_(D,11)
  48    1.00000000E+04  # M_(D,22)
  49    3.82204226E+03  # M_(D,33)
Block MASS  # Mass spectrum
#   PDG code      mass          particle
         6     1.73200000E+02  # m_t(pole)
        23     9.11876000E+01  # m_Z(pole)
        24     8.04299946E+01  # W+
        15     1.77700000E+00  # m_tau(pole)
        25     1.28383444E+02  # h0
        35     1.96840199E+03  # H0
        36     1.96886068E+03  # A0
        37     1.96982498E+03  # H+
   1000001     1.01023297E+04  # ~d_L
   2000001     1.00778020E+04  # ~d_R
   1000002     1.01019689E+04  # ~u_L
   2000002     1.00808839E+04  # ~u_R
   1000003     1.01023340E+04  # ~s_L
   2000003     1.00778095E+04  # ~s_R
   1000004     1.01019731E+04  # ~c_L
   2000004     1.00808846E+04  # ~c_R
   1000005     3.86589028E+03  # ~b_1
   2000005     3.92307797E+03  # ~b_2
   1000006     3.56008685E+03  # ~t_1
   2000006     3.91768480E+03  # ~t_2
   1000011     1.00211329E+04  # ~e_L-
   2000011     1.00089588E+04  # ~e_R-
   1000012     1.00203705E+04  # ~nu_eL
   1000013     1.00211541E+04  # ~mu_L-
   2000013     1.00089977E+04  # ~mu_R-
   1000014     1.00203908E+04  # ~nu_muL
   1000015     1.00198452E+04  # ~tau_1-
   2000015     1.00274118E+04  # ~tau_2-
   1000016     1.00261854E+04  # ~nu_tauL
   1000021     4.20650413E+03  # ~g
   1000022     4.39723141E+01  # ~chi_10
   1000023     4.39805890E+02  # ~chi_20
   1000025     4.49856046E+02  # ~chi_30
   1000035     8.62909679E+02  # ~chi_40
   1000024     4.40216174E+02  # ~chi_1+
   1000037     8.62757559E+02  # ~chi_2+
# Higgs mixing
Block alpha # Effective Higgs mixing angle
          -2.22062717E-02   # alpha
Block Hmix Q=  3.73460816E+03  # Higgs mixing parameters
   1    4.36628027E+02  # mu
   2    4.43904074E+01  # tan[beta](Q)
   3    2.42988626E+02  # v(Q)
   4    3.87641238E+06  # m^2_A(Q)
Block stopmix # stop mixing matrix
   1  1     3.80862997E-01   # Re[R_st(1,1)]
   1  2     9.24631482E-01   # Re[R_st(1,2)]
   2  1    -9.24631482E-01   # Re[R_st(2,1)]
   2  2     3.80862997E-01   # Re[R_st(2,2)]
Block sbotmix # sbottom mixing matrix
   1  1     9.95222209E-01   # Re[R_sb(1,1)]
   1  2     9.76358262E-02   # Re[R_sb(1,2)]
   2  1    -9.76358262E-02   # Re[R_sb(2,1)]
   2  2     9.95222209E-01   # Re[R_sb(2,2)]
Block staumix # stau mixing matrix
   1  1     2.48857703E-01   # Re[R_sta(1,1)]
   1  2     9.68540058E-01   # Re[R_sta(1,2)]
   2  1    -9.68540058E-01   # Re[R_sta(2,1)]
   2  2     2.48857703E-01   # Re[R_sta(2,2)]
Block Nmix # neutralino mixing matrix
   1  1    -9.94841829E-01   # Re[N(1,1)]
   1  2    -1.40235029E-03   # Re[N(1,2)]
   1  3    -1.00693407E-01   # Re[N(1,3)]
   1  4     1.21904094E-02   # Re[N(1,4)]
   2  1     6.25407132E-02   # Re[N(2,1)]
   2  2     1.32620888E-01   # Re[N(2,2)]
   2  3    -7.03885362E-01   # Re[N(2,3)]
   2  4    -6.95014933E-01   # Re[N(2,4)]
   3  1     7.96255266E-02   # Re[N(3,1)]
   3  2    -4.48603089E-02   # Re[N(3,2)]
   3  3    -7.00365534E-01   # Re[N(3,3)]
   3  4     7.07909208E-01   # Re[N(3,4)]
   4  1    -6.17814991E-03   # Re[N(4,1)]
   4  2     9.90150133E-01   # Re[N(4,2)]
   4  3     6.24047590E-02   # Re[N(4,3)]
   4  4     1.25180631E-01   # Re[N(4,4)]
Block Umix # chargino mixing matrix
   1  1    -8.84740058E-02   # Re[U(1,1)]
   1  2     9.96078486E-01   # Re[U(1,2)]
   2  1    -9.96078486E-01   # Re[U(2,1)]
   2  2    -8.84740058E-02   # Re[U(2,2)]
Block Vmix # chargino mixing matrix
   1  1     1.77461646E-01   # Re[V(1,1)]
   1  2     9.84127718E-01   # Re[V(1,2)]
   2  1     9.84127718E-01   # Re[V(2,1)]
   2  2    -1.77461646E-01   # Re[V(2,2)]
DECAY        23     2.49520000E+00   # Z
DECAY        24     2.08500000E+00   # W
DECAY   2000011     5.02873730E+01   # ~e^-_R
#    BR                NDA      ID1      ID2
     9.89750563E-01    2     1000022        11   # BR(~e^-_R -> chi^0_1 e^-)
     3.89659347E-03    2     1000023        11   # BR(~e^-_R -> chi^0_2 e^-)
     6.31516865E-03    2     1000025        11   # BR(~e^-_R -> chi^0_3 e^-)
DECAY   1000011     1.42977754E+02   # ~e^-_L
#    BR                NDA      ID1      ID2
     8.75937443E-02    2     1000022        11   # BR(~e^-_L -> chi^0_1 e^-)
     8.47145646E-03    2     1000023        11   # BR(~e^-_L -> chi^0_2 e^-)
     2.95998228E-01    2     1000035        11   # BR(~e^-_L -> chi^0_4 e^-)
     4.81099739E-03    2    -1000024        12   # BR(~e^-_L -> chi^-_1 nu_e)
     6.03123905E-01    2    -1000037        12   # BR(~e^-_L -> chi^-_2 nu_e)
#    BR                NDA      ID1      ID2       ID3
DECAY   2000013     5.05765817E+01   # ~mu^-_R
#    BR                NDA      ID1      ID2
     9.84123846E-01    2     1000022        13   # BR(~mu^-_R -> chi^0_1 mu^-)
     5.29006504E-03    2     1000023        13   # BR(~mu^-_R -> chi^0_2 mu^-)
     7.68044674E-03    2     1000025        13   # BR(~mu^-_R -> chi^0_3 mu^-)
     2.83512255E-03    2    -1000024        14   # BR(~mu^-_R -> chi^-_1 nu_mu)
DECAY   1000013     1.43122748E+02   # ~mu^-_L
#    BR                NDA      ID1      ID2
     8.75154805E-02    2     1000022        13   # BR(~mu^-_L -> chi^0_1 mu^-)
     8.96379141E-03    2     1000023        13   # BR(~mu^-_L -> chi^0_2 mu^-)
     4.97485019E-04    2     1000025        13   # BR(~mu^-_L -> chi^0_3 mu^-)
     2.95702902E-01    2     1000035        13   # BR(~mu^-_L -> chi^0_4 mu^-)
     4.80613374E-03    2    -1000024        14   # BR(~mu^-_L -> chi^-_1 nu_mu)
     6.02514208E-01    2    -1000037        14   # BR(~mu^-_L -> chi^-_2 nu_mu)
#    BR                NDA      ID1      ID2       ID3
DECAY   1000015     1.35430204E+02   # ~tau^-_1
#    BR                NDA      ID1      ID2
     3.62013277E-01    2     1000022        15   # BR(~tau^-_1 -> chi^0_1 tau^-)
     1.62166927E-01    2     1000023        15   # BR(~tau^-_1 -> chi^0_2 tau^-)
     1.41160415E-01    2     1000025        15   # BR(~tau^-_1 -> chi^0_3 tau^-)
     1.12730579E-02    2     1000035        15   # BR(~tau^-_1 -> chi^0_4 tau^-)
     3.00367683E-01    2    -1000024        16   # BR(~tau^-_1 -> chi^-_1 nu_tau)
     2.30186401E-02    2    -1000037        16   # BR(~tau^-_1 -> chi^-_2 nu_tau)
DECAY   2000015     1.80771149E+02   # ~tau^-_2
#    BR                NDA      ID1      ID2
     7.83567208E-02    2     1000022        15   # BR(~tau^-_2 -> chi^0_1 tau^-)
     1.10703815E-01    2     1000023        15   # BR(~tau^-_2 -> chi^0_2 tau^-)
     1.18145967E-01    2     1000025        15   # BR(~tau^-_2 -> chi^0_3 tau^-)
     2.27570144E-01    2     1000035        15   # BR(~tau^-_2 -> chi^0_4 tau^-)
     3.38984264E-03    2    -1000024        16   # BR(~tau^-_2 -> chi^-_1 nu_tau)
     4.61833511E-01    2    -1000037        16   # BR(~tau^-_2 -> chi^-_2 nu_tau)
#    BR                NDA      ID1      ID2       ID3
DECAY   1000012     1.42982507E+02   # ~nu_e
#    BR                NDA      ID1      ID2
     8.66646110E-02    2     1000022        12   # BR(~nu_e -> chi^0_1 nu_e)
     3.02442681E-03    2     1000023        12   # BR(~nu_e -> chi^0_2 nu_e)
     2.34667922E-03    2     1000025        12   # BR(~nu_e -> chi^0_3 nu_e)
     2.99937832E-01    2     1000035        12   # BR(~nu_e -> chi^0_4 nu_e)
     1.93537685E-02    2     1000024        11   # BR(~nu_e -> chi^+_1 e^-)
     5.88672682E-01    2     1000037        11   # BR(~nu_e -> chi^+_2 e^-)
#    BR                NDA      ID1      ID2       ID3
DECAY   1000014     1.43127477E+02   # ~nu_mu
#    BR                NDA      ID1      ID2
     8.65770064E-02    2     1000022        14   # BR(~nu_mu -> chi^0_1 nu_mu)
     3.02136963E-03    2     1000023        14   # BR(~nu_mu -> chi^0_2 nu_mu)
     2.34430712E-03    2     1000025        14   # BR(~nu_mu -> chi^0_3 nu_mu)
     2.99634660E-01    2     1000035        14   # BR(~nu_mu -> chi^0_4 nu_mu)
     2.03371789E-02    2     1000024        13   # BR(~nu_mu -> chi^+_1 mu^-)
     5.88085478E-01    2     1000037        13   # BR(~nu_mu -> chi^+_2 mu^-)
#    BR                NDA      ID1      ID2       ID3
DECAY   1000016     1.84014025E+02   # ~nu_tau
#    BR                NDA      ID1      ID2
     6.73791837E-02    2     1000022        16   # BR(~nu_tau -> chi^0_1 nu_tau)
     2.35141323E-03    2     1000023        16   # BR(~nu_tau -> chi^0_2 nu_tau)
     1.82448247E-03    2     1000025        16   # BR(~nu_tau -> chi^0_3 nu_tau)
     2.33196865E-01    2     1000035        16   # BR(~nu_tau -> chi^0_4 nu_tau)
     2.35843351E-01    2     1000024        15   # BR(~nu_tau -> chi^+_1 tau^-)
     4.59404705E-01    2     1000037        15   # BR(~nu_tau -> chi^+_2 tau^-)
#    BR                NDA      ID1      ID2       ID3
DECAY   2000001     5.48063396E+02   # ~d_R
#    BR                NDA      ID1      ID2
     1.01598814E-02    2     1000022         1   # BR(~d_R -> chi^0_1 d)
     9.89734497E-01    2     1000021         1   # BR(~d_R -> ~g d)
DECAY   1000001     6.77754530E+02   # ~d_L
#    BR                NDA      ID1      ID2
     2.02646924E-03    2     1000022         1   # BR(~d_L -> chi^0_1 d)
     9.64672269E-04    2     1000023         1   # BR(~d_L -> chi^0_2 d)
     2.27860097E-04    2     1000025         1   # BR(~d_L -> chi^0_3 d)
     6.35270134E-02    2     1000035         1   # BR(~d_L -> chi^0_4 d)
     1.02320528E-03    2    -1000024         2   # BR(~d_L -> chi^-_1 u)
     1.28295416E-01    2    -1000037         2   # BR(~d_L -> chi^-_2 u)
     8.03935364E-01    2     1000021         1   # BR(~d_L -> ~g d)
DECAY   2000003     5.48144614E+02   # ~s_R
#    BR                NDA      ID1      ID2
     1.01591306E-02    2     1000022         3   # BR(~s_R -> chi^0_1 s)
     1.00921154E-04    2     1000025         3   # BR(~s_R -> chi^0_3 s)
     9.89589206E-01    2     1000021         3   # BR(~s_R -> ~g s)
DECAY   1000003     6.77798981E+02   # ~s_L
#    BR                NDA      ID1      ID2
     2.02694287E-03    2     1000022         3   # BR(~s_L -> chi^0_1 s)
     9.94094337E-04    2     1000023         3   # BR(~s_L -> chi^0_2 s)
     2.57031885E-04    2     1000025         3   # BR(~s_L -> chi^0_3 s)
     6.35231052E-02    2     1000035         3   # BR(~s_L -> chi^0_4 s)
     1.02832947E-03    2    -1000024         4   # BR(~s_L -> chi^-_1 c)
     1.28287227E-01    2    -1000037         4   # BR(~s_L -> chi^-_2 c)
     8.03883269E-01    2     1000021         3   # BR(~s_L -> ~g s)
DECAY   1000005     1.81410222E+02   # ~b_1
#    BR                NDA      ID1      ID2
     6.88021404E-03    2     1000022         5   # BR(~b_1 -> chi^0_1 b)
     1.15910543E-01    2     1000023         5   # BR(~b_1 -> chi^0_2 b)
     1.09972145E-01    2     1000025         5   # BR(~b_1 -> chi^0_3 b)
     8.16344923E-02    2     1000035         5   # BR(~b_1 -> chi^0_4 b)
     4.10948642E-01    2    -1000024         6   # BR(~b_1 -> chi^-_1 t)
     1.76581362E-01    2    -1000037         6   # BR(~b_1 -> chi^-_2 t)
     9.80726028E-02    2     1000006       -24   # BR(~b_1 -> ~t_1 W^-)
DECAY   2000005     8.68380301E+01   # ~b_2
#    BR                NDA      ID1      ID2
     2.65380600E-02    2     1000022         5   # BR(~b_2 -> chi^0_1 b)
     2.34939950E-01    2     1000023         5   # BR(~b_2 -> chi^0_2 b)
     2.40100203E-01    2     1000025         5   # BR(~b_2 -> chi^0_3 b)
     6.85420958E-03    2     1000035         5   # BR(~b_2 -> chi^0_4 b)
     4.74208508E-01    2    -1000024         6   # BR(~b_2 -> chi^-_1 t)
     1.40247583E-02    2    -1000037         6   # BR(~b_2 -> chi^-_2 t)
     3.33431108E-03    2     1000006       -24   # BR(~b_2 -> ~t_1 W^-)
DECAY   2000002     5.65253689E+02   # ~u_R
#    BR                NDA      ID1      ID2
     3.94156536E-02    2     1000022         2   # BR(~u_R -> chi^0_1 u)
     1.55184396E-04    2     1000023         2   # BR(~u_R -> chi^0_2 u)
     2.51507212E-04    2     1000025         2   # BR(~u_R -> chi^0_3 u)
     9.60176157E-01    2     1000021         2   # BR(~u_R -> ~g u)
DECAY   1000002     6.77738732E+02   # ~u_L
#    BR                NDA      ID1      ID2
     2.09163533E-03    2     1000022         2   # BR(~u_L -> chi^0_1 u)
     1.35070779E-03    2     1000023         2   # BR(~u_L -> chi^0_2 u)
     6.32444462E-02    2     1000035         2   # BR(~u_L -> chi^0_4 u)
     4.11672824E-03    2     1000024         1   # BR(~u_L -> chi^+_1 d)
     1.25233670E-01    2     1000037         1   # BR(~u_L -> chi^+_2 d)
     8.03901300E-01    2     1000021         2   # BR(~u_L -> ~g u)
DECAY   2000004     5.65260979E+02   # ~c_R
#    BR                NDA      ID1      ID2
     3.94151474E-02    2     1000022         4   # BR(~c_R -> chi^0_1 c)
     1.58280712E-04    2     1000023         4   # BR(~c_R -> chi^0_2 c)
     2.54719019E-04    2     1000025         4   # BR(~c_R -> chi^0_3 c)
     9.60163842E-01    2     1000021         4   # BR(~c_R -> ~g c)
DECAY   1000004     6.77783137E+02   # ~c_L
#    BR                NDA      ID1      ID2
     2.09149988E-03    2     1000022         4   # BR(~c_L -> chi^0_1 c)
     1.35321110E-03    2     1000023         4   # BR(~c_L -> chi^0_2 c)
     6.32404070E-02    2     1000035         4   # BR(~c_L -> chi^0_4 c)
     4.17550737E-03    2     1000024         3   # BR(~c_L -> chi^+_1 s)
     1.25225977E-01    2     1000037         3   # BR(~c_L -> chi^+_2 s)
     8.03849202E-01    2     1000021         4   # BR(~c_L -> ~g c)
DECAY   1000006     1.47169124E+02   # ~t_1
#    BR                NDA      ID1      ID2
     1.50227196E-04    2     1000022         4   # BR(~t_1 -> chi^0_1 c)
     4.70885019E-02    2     1000022         6   # BR(~t_1 -> chi^0_1 t)
     2.17955764E-01    2     1000023         6   # BR(~t_1 -> chi^0_2 t)
     2.27312341E-01    2     1000025         6   # BR(~t_1 -> chi^0_3 t)
     3.75235474E-02    2     1000035         6   # BR(~t_1 -> chi^0_4 t)
     3.95778224E-01    2     1000024         5   # BR(~t_1 -> chi^+_1 b)
     7.38982163E-02    2     1000037         5   # BR(~t_1 -> chi^+_2 b)
#    BR                NDA      ID1      ID2       ID3
     1.98722323E-04    3     1000022        24         5   # BR(~t_1 -> chi^0_1 W^+ b)
DECAY   2000006     1.89870281E+02   # ~t_2
#    BR                NDA      ID1      ID2
     8.22087613E-03    2     1000022         6   # BR(~t_2 -> chi^0_1 t)
     2.10161154E-01    2     1000023         6   # BR(~t_2 -> chi^0_2 t)
     2.14766520E-01    2     1000025         6   # BR(~t_2 -> chi^0_3 t)
     5.82971012E-02    2     1000035         6   # BR(~t_2 -> chi^0_4 t)
     2.82547664E-01    2     1000024         5   # BR(~t_2 -> chi^+_1 b)
     1.08455224E-01    2     1000037         5   # BR(~t_2 -> chi^+_2 b)
     6.38662161E-02    2     1000006        23   # BR(~t_2 -> ~t_1 Z)
     5.36852449E-02    2     1000006        25   # BR(~t_2 -> ~t_1 h^0)
DECAY   1000024     2.84958628E-01   # chi^+_1
#    BR                NDA      ID1      ID2
     9.97564146E-01    2     1000022        24   # BR(chi^+_1 -> chi^0_1 W^+)
#    BR                NDA      ID1      ID2       ID3
     2.43557217E-03    3     1000022        -5         6   # BR(chi^+_1 -> chi^0_1 b_bar t)
DECAY   1000037     6.50183229E+00   # chi^+_2
#    BR                NDA      ID1      ID2
     3.94995280E-03    2     1000022        24   # BR(chi^+_2 -> chi^0_1 W^+)
     2.72083998E-01    2     1000023        24   # BR(chi^+_2 -> chi^0_2 W^+)
     2.44462844E-01    2     1000025        24   # BR(chi^+_2 -> chi^0_3 W^+)
     2.47073669E-01    2     1000024        23   # BR(chi^+_2 -> chi^+_1 Z)
     2.28718403E-01    2     1000024        25   # BR(chi^+_2 -> chi^+_1 h^0)
#    BR                NDA      ID1      ID2       ID3
     2.82372300E-04    3     1000024         6        -6   # BR(chi^+_2 -> chi^+_1 t t_bar)
     1.91879613E-03    3     1000023        -5         6   # BR(chi^+_2 -> chi^0_2 b_bar t)
     1.45300547E-03    3     1000025        -5         6   # BR(chi^+_2 -> chi^0_3 b_bar t)
DECAY   1000022     0.00000000E+00   # chi^0_1
DECAY   1000023     3.06685845E-01   # chi^0_2
#    BR                NDA      ID1      ID2
     5.87792717E-01    2     1000022        23   # BR(chi^0_2 -> chi^0_1 Z)
     4.12142936E-01    2     1000022        25   # BR(chi^0_2 -> chi^0_1 h^0)
#    BR                NDA      ID1      ID2       ID3
DECAY   1000025     2.64783031E-01   # chi^0_3
#    BR                NDA      ID1      ID2
     4.43359000E-01    2     1000022        23   # BR(chi^0_3 -> chi^0_1 Z)
     5.56579807E-01    2     1000022        25   # BR(chi^0_3 -> chi^0_1 h^0)
#    BR                NDA      ID1      ID2       ID3
DECAY   1000035     8.20425284E+00   # chi^0_4
#    BR                NDA      ID1      ID2
     2.18212215E-01    2     1000024       -24   # BR(chi^0_4 -> chi^+_1 W^-)
     2.18212215E-01    2    -1000024        24   # BR(chi^0_4 -> chi^-_1 W^+)
     1.61729649E-03    2     1000022        23   # BR(chi^0_4 -> chi^0_1 Z)
     2.12435255E-02    2     1000023        23   # BR(chi^0_4 -> chi^0_2 Z)
     1.91445538E-01    2     1000025        23   # BR(chi^0_4 -> chi^0_3 Z)
     1.56093868E-03    2     1000022        25   # BR(chi^0_4 -> chi^0_1 h^0)
     1.60937284E-01    2     1000023        25   # BR(chi^0_4 -> chi^0_2 h^0)
     1.83072096E-01    2     1000025        25   # BR(chi^0_4 -> chi^0_3 h^0)
#    BR                NDA      ID1      ID2       ID3
     1.77254309E-03    3     1000024         5        -6   # BR(chi^0_4 -> chi^+_1 b t_bar)
     1.77254309E-03    3    -1000024        -5         6   # BR(chi^0_4 -> chi^-_1 b_bar t)
DECAY   1000021     1.58579277E+01   # ~g
#    BR                NDA      ID1      ID2
     1.39899457E-02    2     1000006        -4   # BR(~g -> ~t_1 c_bar)
     1.39899457E-02    2    -1000006         4   # BR(~g -> ~t^*_1 c)
     2.43998101E-01    2     1000006        -6   # BR(~g -> ~t_1 t_bar)
     2.43998101E-01    2    -1000006         6   # BR(~g -> ~t^*_1 t)
     8.00943627E-02    2     2000006        -6   # BR(~g -> ~t_2 t_bar)
     8.00943627E-02    2    -2000006         6   # BR(~g -> ~t^*_2 t)
     9.45518160E-02    2     1000005        -5   # BR(~g -> ~b_1 b_bar)
     9.45518160E-02    2    -1000005         5   # BR(~g -> ~b^*_1 b)
     6.67590048E-02    2     2000005        -5   # BR(~g -> ~b_2 b_bar)
     6.67590048E-02    2    -2000005         5   # BR(~g -> ~b^*_2 b)
     4.73222102E-04    2     1000023        21   # BR(~g -> chi^0_2 g)
     4.19838394E-04    2     1000025        21   # BR(~g -> chi^0_3 g)
#    BR                NDA      ID1      ID2       ID3
DECAY        25     4.08725522E-03   # Gamma(h0)
     2.49232485E-03   2        22        22   # BR(h0 -> photon photon)
     1.90040742E-03   2        22        23   # BR(h0 -> photon Z)
     3.95716538E-02   2        23        23   # BR(h0 -> Z Z)
     3.06735539E-01   2       -24        24   # BR(h0 -> W W)
     7.44006839E-02   2        21        21   # BR(h0 -> gluon gluon)
     4.40467291E-09   2       -11        11   # BR(h0 -> Electron electron)
     1.95929319E-04   2       -13        13   # BR(h0 -> Muon muon)
     5.64970830E-02   2       -15        15   # BR(h0 -> Tau tau)
     1.23693062E-07   2        -2         2   # BR(h0 -> Up up)
     2.40079470E-02   2        -4         4   # BR(h0 -> Charm charm)
     5.07349752E-07   2        -1         1   # BR(h0 -> Down down)
     1.83497026E-04   2        -3         3   # BR(h0 -> Strange strange)
     4.88211412E-01   2        -5         5   # BR(h0 -> Bottom bottom)
     5.80288733E-03   2   1000022   1000022   # BR(h0 -> neutralino1 neutralino1)
DECAY        35     6.28509172E+01   # Gamma(HH)
     7.77121773E-08   2        22        22   # BR(HH -> photon photon)
     1.71296285E-07   2        22        23   # BR(HH -> photon Z)
     3.79724878E-07   2        23        23   # BR(HH -> Z Z)
     2.05964075E-07   2       -24        24   # BR(HH -> W W)
     1.61686521E-05   2        21        21   # BR(HH -> gluon gluon)
     8.80620696E-09   2       -11        11   # BR(HH -> Electron electron)
     3.92043762E-04   2       -13        13   # BR(HH -> Muon muon)
     1.13219370E-01   2       -15        15   # BR(HH -> Tau tau)
     4.03684863E-14   2        -2         2   # BR(HH -> Up up)
     7.82999517E-09   2        -4         4   # BR(HH -> Charm charm)
     5.11982819E-04   2        -6         6   # BR(HH -> Top top)
     6.67775430E-07   2        -1         1   # BR(HH -> Down down)
     2.41555499E-04   2        -3         3   # BR(HH -> Strange strange)
     6.21209812E-01   2        -5         5   # BR(HH -> Bottom bottom)
     7.43523935E-03   2  -1000024   1000024   # BR(HH -> Chargino1 chargino1)
     7.32708173E-02   2  -1000024   1000037   # BR(HH -> Chargino1 chargino2)
     7.32708173E-02   2  -1000037   1000024   # BR(HH -> Chargino2 chargino1)
     5.84065401E-04   2  -1000037   1000037   # BR(HH -> Chargino2 chargino2)
     7.04062812E-04   2   1000022   1000022   # BR(HH -> neutralino1 neutralino1)
     1.81643922E-02   2   1000022   1000023   # BR(HH -> neutralino1 neutralino2)
     1.43865574E-02   2   1000022   1000025   # BR(HH -> neutralino1 neutralino3)
     2.94028684E-04   2   1000022   1000035   # BR(HH -> neutralino1 neutralino4)
     1.35171449E-03   2   1000023   1000023   # BR(HH -> neutralino2 neutralino2)
     3.31452541E-05   2   1000023   1000025   # BR(HH -> neutralino2 neutralino3)
     2.95772446E-02   2   1000023   1000035   # BR(HH -> neutralino2 neutralino4)
     6.81417661E-04   2   1000025   1000025   # BR(HH -> neutralino3 neutralino3)
     4.43561924E-02   2   1000025   1000035   # BR(HH -> neutralino3 neutralino4)
     2.96133627E-04   2   1000035   1000035   # BR(HH -> neutralino4 neutralino4)
     1.71902328E-06   2        25        25   # BR(HH -> h0 h0)
DECAY        36     6.06249487E+01   # Gamma(A0)
     9.63675369E-09   2        22        22   # BR(A0 -> photon photon)
     8.99535519E-08   2        22        23   # BR(A0 -> photon Z)
     2.64050658E-05   2        21        21   # BR(A0 -> gluon gluon)
     8.68961257E-09   2       -11        11   # BR(A0 -> Electron electron)
     3.86851356E-04   2       -13        13   # BR(A0 -> Muon muon)
     1.11720241E-01   2       -15        15   # BR(A0 -> Tau tau)
     3.76119945E-14   2        -2         2   # BR(A0 -> Up up)
     7.29446742E-09   2        -4         4   # BR(A0 -> Charm charm)
     4.92890020E-04   2        -6         6   # BR(A0 -> Top top)
     6.58908998E-07   2        -1         1   # BR(A0 -> Down down)
     2.38348808E-04   2        -3         3   # BR(A0 -> Strange strange)
     6.12971648E-01   2        -5         5   # BR(A0 -> Bottom bottom)
     9.10670077E-03   2  -1000024   1000024   # BR(A0 -> Chargino1 chargino1)
     7.48162299E-02   2  -1000024   1000037   # BR(A0 -> Chargino1 chargino2)
     7.48162299E-02   2  -1000037   1000024   # BR(A0 -> Chargino2 chargino1)
     1.51022347E-03   2  -1000037   1000037   # BR(A0 -> Chargino2 chargino2)
     7.39489197E-04   2   1000022   1000022   # BR(A0 -> neutralino1 neutralino1)
     1.69655187E-02   2   1000022   1000023   # BR(A0 -> neutralino1 neutralino2)
     1.66969742E-02   2   1000022   1000025   # BR(A0 -> neutralino1 neutralino3)
     3.32675140E-04   2   1000022   1000035   # BR(A0 -> neutralino1 neutralino4)
     1.58769529E-03   2   1000023   1000023   # BR(A0 -> neutralino2 neutralino2)
     5.26116102E-05   2   1000023   1000025   # BR(A0 -> neutralino2 neutralino3)
     4.45516474E-02   2   1000023   1000035   # BR(A0 -> neutralino2 neutralino4)
     9.68001624E-04   2   1000025   1000025   # BR(A0 -> neutralino3 neutralino3)
     3.12509152E-02   2   1000025   1000035   # BR(A0 -> neutralino3 neutralino4)
     7.67399948E-04   2   1000035   1000035   # BR(A0 -> neutralino4 neutralino4)
     5.29319723E-07   2        23        25   # BR(A0 -> Z h0)
     4.73964554E-38   2        25        25   # BR(A0 -> h0 h0)
DECAY        37     6.93999349E+01   # Gamma(Hp)
     9.61432101E-09   2       -11        12   # BR(Hp -> Electron nu_e)
     4.11042250E-04   2       -13        14   # BR(Hp -> Muon nu_mu)
     1.16266015E-01   2       -15        16   # BR(Hp -> Tau nu_tau)
     6.30827697E-07   2        -1         2   # BR(Hp -> Down up)
     1.05965659E-05   2        -3         2   # BR(Hp -> Strange up)
     6.83451025E-06   2        -5         2   # BR(Hp -> Bottom up)
     2.96555458E-08   2        -1         4   # BR(Hp -> Down charm)
     2.27375000E-04   2        -3         4   # BR(Hp -> Strange charm)
     9.57075519E-04   2        -5         4   # BR(Hp -> Bottom charm)
     3.70656506E-08   2        -1         6   # BR(Hp -> Down top)
     1.14017669E-06   2        -3         6   # BR(Hp -> Strange top)
     6.43323788E-01   2        -5         6   # BR(Hp -> Bottom top)
     3.13775767E-02   2   1000022   1000024   # BR(Hp -> neutralino1 chargino1)
     5.57058108E-04   2   1000022   1000037   # BR(Hp -> neutralino1 chargino2)
     5.82654586E-04   2   1000023   1000024   # BR(Hp -> neutralino2 chargino1)
     7.06109225E-02   2   1000023   1000037   # BR(Hp -> neutralino2 chargino2)
     1.11735566E-03   2   1000024   1000025   # BR(Hp -> chargino1 neutralino3)
     6.66582588E-02   2   1000025   1000037   # BR(Hp -> neutralino3 chargino2)
     6.78911101E-02   2   1000024   1000035   # BR(Hp -> chargino1 neutralino4)
     2.62705677E-08   2   1000035   1000037   # BR(Hp -> neutralino4 chargino2)
     4.63754553E-07   2        24        25   # BR(Hp -> W h0)
     1.14404087E-13   2        24        35   # BR(Hp -> W HH)
DECAY         6     2.43000000E+00   # top
#    BR                NDA      ID1      ID2
     1.00000000E+00    2           5        24   # BR(t -> b W)
Block HiggsBoundsInputHiggsCouplingsFermions
# ScalarNormEffCoupSq PseudoSNormEffCoupSq NP IP1 IP2 IP2
    9.72027415E-01    0.00000000E+00        3  25   5   5  # h0-b-b eff. coupling^2, normalised to SM
    1.97053624E+03    0.00000000E+00        3  35   5   5  # H0-b-b eff. coupling^2, normalised to SM
    0.00000000E+00    1.97050827E+03        3  36   5   5  # A0-b-b eff. coupling^2, normalised to SM
#
    1.00001420E+00    0.00000000E+00        3  25   6   6  # h0-t-t eff. coupling^2, normalised to SM
    4.93287661E-04    0.00000000E+00        3  35   6   6  # H0-t-t eff. coupling^2, normalised to SM
    0.00000000E+00    5.07483280E-04        3  36   6   6  # A0-t-t eff. coupling^2, normalised to SM
#
    9.72027415E-01    0.00000000E+00        3  25  15  15  # h0-tau-tau eff. coupling^2, normalised to SM
    1.97053624E+03    0.00000000E+00        3  35  15  15  # H0-tau-tau eff. coupling^2, normalised to SM
    0.00000000E+00    1.97050827E+03        3  36  15  15  # A0-tau-tau eff. coupling^2, normalised to SM
#
Block HiggsBoundsInputHiggsCouplingsBosons
    9.99999899E-01        3  25  24  24  # h0-W-W eff. coupling^2, normalised to SM
    1.00684527E-07        3  35  24  24  # H0-W-W eff. coupling^2, normalised to SM
    0.00000000E+00        3  36  24  24  # A0-W-W eff. coupling^2, normalised to SM
#
    9.99999899E-01        3  25  23  23  # h0-Z-Z eff. coupling^2, normalised to SM
    1.00684527E-07        3  35  23  23  # H0-Z-Z eff. coupling^2, normalised to SM
    0.00000000E+00        3  36  23  23  # A0-Z-Z eff. coupling^2, normalised to SM
#
    1.26203906E+00        3  25  21  21  # h0-g-g eff. coupling^2, normalised to SM
    1.37047652E-02        3  35  21  21  # H0-g-g eff. coupling^2, normalised to SM
    1.43498325E-01        3  36  21  21  # A0-g-g eff. coupling^2, normalised to SM
#
    0.00000000E+00        3  25  25  23  # h0-h0-Z eff. coupling^2, normalised to SM
    0.00000000E+00        3  35  25  23  # H0-h0-Z eff. coupling^2, normalised to SM
    1.00684527E-07        3  36  25  23  # A0-h0-Z eff. coupling^2, normalised to SM
    0.00000000E+00        3  35  35  23  # H0-H0-Z eff. coupling^2, normalised to SM
    9.99999899E-01        3  36  35  23  # A0-H0-Z eff. coupling^2, normalised to SM
    0.00000000E+00        3  36  36  23  # A0-A0-Z eff. coupling^2, normalised to SM
#
    0.00000000E+00        4  25  21  21  23  # h0-g-g-Z eff. coupling^2, normalised to SM
    0.00000000E+00        4  35  21  21  23  # H0-g-g-Z eff. coupling^2, normalised to SM
    0.00000000E+00        4  36  21  21  23  # A0-g-g-Z eff. coupling^2, normalised to SM
Block SPhenoLowEnergy  # low energy observables
    1    3.16866023E-04   # BR(b -> s gamma)
    2    1.59084296E-06   # BR(b -> s mu+ mu-)
    3    3.52548384E-05   # BR(b -> s nu nu)
    4    3.53509430E-15   # BR(Bd -> e+ e-)
    5    1.51010311E-10   # BR(Bd -> mu+ mu-)
    6    3.13295729E-08   # BR(Bd -> tau+ tau-)
    7    1.17951083E-13   # BR(Bs -> e+ e-)
    8    5.03871053E-09   # BR(Bs -> mu+ mu-)
    9    1.05963631E-06   # BR(Bs -> tau+ tau-)
   10    9.42210705E-05   # BR(B_u -> tau nu)
   11    9.73267586E-01   # BR(B_u -> tau nu)/BR(B_u -> tau nu)_SM
   12    5.41809148E-01   # |Delta(M_Bd)| [ps^-1] 
   13    1.93404165E+01   # |Delta(M_Bs)| [ps^-1] 
   14    0.00000000E+00   # neutron EDM according to the chiral quark model
   15    0.00000000E+00   # neutron EDM according to the relativistic quark-parton model
   16    2.15688019E-03   # epsilon_K
   17    2.28165721E-15   # Delta(M_K)
   18    2.48054299E-11   # BR(K^0 -> pi^0 nu nu)
   19    8.29160139E-11   # BR(K^+ -> pi^+ nu nu)
   20   -3.69151362E-16   # Delta(g-2)_electron/2
   21   -1.57825056E-11   # Delta(g-2)_muon/2
   22   -4.47427077E-09   # Delta(g-2)_tau/2
   23    0.00000000E+00   # electric dipole moment of the electron
   24    0.00000000E+00   # electric dipole moment of the muon
   25    0.00000000E+00   # electric dipole moment of the tau
   26    0.00000000E+00   # Br(mu -> e gamma)
   27    0.00000000E+00   # Br(tau -> e gamma)
   28    0.00000000E+00   # Br(tau -> mu gamma)
   29    0.00000000E+00   # Br(mu -> 3 e)
   30    0.00000000E+00   # Br(tau -> 3 e)
   31    0.00000000E+00   # Br(tau -> 3 mu)
   39    6.78830767E-05   # Delta(rho_parameter)
   40    0.00000000E+00   # BR(Z -> e mu)
   41    0.00000000E+00   # BR(Z -> e tau)
   42    0.00000000E+00   # BR(Z -> mu tau)
Block FWCOEF Q=  1.60000000E+02  # Wilson coefficients at scale Q
#    id        order  M        value         comment
     0305 4422   00   0    -1.88819110E-01   # C7
     0305 4422   00   2    -1.82503494E-01   # C7
     0305 4322   00   2    -1.37453610E-04   # C7'
     0305 6421   00   0    -9.52278348E-02   # C8
     0305 6421   00   2    -1.01480568E-01   # C8
     0305 6321   00   2    -2.79170980E-04   # C8'
 03051111 4133   00   0     1.62485694E+00   # C9 e+e-
 03051111 4133   00   2     1.62506358E+00   # C9 e+e-
 03051111 4233   00   2     4.59479977E-04   # C9' e+e-
 03051111 4137   00   0    -4.44754905E+00   # C10 e+e-
 03051111 4137   00   2    -4.44622581E+00   # C10 e+e-
 03051111 4237   00   2    -3.40959685E-03   # C10' e+e-
 03051313 4133   00   0     1.62485694E+00   # C9 mu+mu-
 03051313 4133   00   2     1.62506336E+00   # C9 mu+mu-
 03051313 4233   00   2     4.59477668E-04   # C9' mu+mu-
 03051313 4137   00   0    -4.44754905E+00   # C10 mu+mu-
 03051313 4137   00   2    -4.44622603E+00   # C10 mu+mu-
 03051313 4237   00   2    -3.40959516E-03   # C10' mu+mu-
 03051212 4137   00   0     1.50535012E+00   # C11 nu_1 nu_1
 03051212 4137   00   2     1.50506561E+00   # C11 nu_1 nu_1
 03051212 4237   00   2     7.37586193E-04   # C11' nu_1 nu_1
 03051414 4137   00   0     1.50535012E+00   # C11 nu_2 nu_2
 03051414 4137   00   2     1.50506561E+00   # C11 nu_2 nu_2
 03051414 4237   00   2     7.37586659E-04   # C11' nu_2 nu_2
 03051616 4137   00   0     1.50535012E+00   # C11 nu_3 nu_3
 03051616 4137   00   2     1.50506561E+00   # C11 nu_3 nu_3
 03051616 4237   00   2     7.37717905E-04   # C11' nu_3 nu_3
Block IMFWCOEF Q=  1.60000000E+02  # Im(Wilson coefficients) at scale Q
#    id        order  M        value         comment
     0305 4422   00   0     3.85845893E-07   # C7
     0305 4422   00   2    -5.49411642E-06   # C7
     0305 4322   00   2     2.16679787E-06   # C7'
     0305 6421   00   0     3.30502525E-07   # C8
     0305 6421   00   2    -1.35164421E-05   # C8
     0305 6321   00   2     8.03090285E-07   # C8'
 03051111 4133   00   2    -2.18987158E-07   # C9 e+e-
 03051111 4233   00   2     9.99801640E-06   # C9' e+e-
 03051111 4137   00   2     5.72433679E-06   # C10 e+e-
 03051111 4237   00   2    -7.41974308E-05   # C10' e+e-
 03051313 4133   00   2    -2.18991671E-07   # C9 mu+mu-
 03051313 4233   00   2     9.99801363E-06   # C9' mu+mu-
 03051313 4137   00   2     5.72434220E-06   # C10 mu+mu-
 03051313 4237   00   2    -7.41974391E-05   # C10' mu+mu-
 03051212 4137   00   2    -1.20716693E-06   # C11 nu_1 nu_1
 03051212 4237   00   2     1.60508741E-05   # C11' nu_1 nu_1
 03051414 4137   00   2    -1.20716669E-06   # C11 nu_2 nu_2
 03051414 4237   00   2     1.60508741E-05   # C11' nu_2 nu_2
 03051616 4137   00   2    -1.20710016E-06   # C11 nu_3 nu_3
 03051616 4237   00   2     1.60508741E-05   # C11' nu_3 nu_3
