# SUSY Les Houches Accord 2 - MSSM spectrum + Decays
# SPheno v4.0.5be
# W. Porod, Comput. Phys. Commun. 153 (2003) 275-315, hep-ph/0301101;
# W. Porod, F.~Staub, Comput. Phys. Commun. 183 (2012) 2458
#                     arXiv:1104.1573 [hep-ph] 
# in case of problems send email to porod@physik.uni-wuerzburg.de
# Created: 07.09.2021,  18:55
Block SPINFO         # Program information
     1   SPheno      # spectrum calculator
     2   v4.0.5be    # version number
#
Block SPhenoINFO     # SPheno specific information
    1      2         # using 2-loop RGEs
    2      2         # using pole masses for boundary conditions at mZ
Block MODSEL  # Model selection
    1    0    # general MSSM
Block MINPAR  # Input parameters
    3    6.07097415E+00  # tanb at m_Z    
    4    1.00000000E+00  # Sign(mu)
Block EXTPAR  # non-universal input parameters
    0    3.29202060E+03  # scale for input parameters
    1    6.38681742E+01  # M_1
    2    1.04645473E+03  # M_2
    3    2.56560203E+03  # M_3
   11   -7.87831274E+03  # A_t
   12   -1.14975187E+03  # A_b
   13    1.57072847E+03  # A_tau
   23    3.32843228E+02  # mu
   25    5.77765966E+00  # tan(beta)
   26    2.74751897E+03  # m_A, pole mass
   31    1.00000000E+04  # M_L11
   32    1.00000000E+04  # M_L22
   33    1.00000000E+04  # M_L33
   34    1.00000000E+04  # M_E11
   35    1.00000000E+04  # M_E22
   36    1.00000000E+04  # M_E33
   41    1.00000000E+04  # M_Q11
   42    1.00000000E+04  # M_Q22
   43    4.14385317E+03  # M_Q33
   44    1.00000000E+04  # M_U11
   45    1.00000000E+04  # M_U22
   46    2.65314032E+03  # M_U33
   47    1.00000000E+04  # M_D11
   48    1.00000000E+04  # M_D22
   49    4.08632986E+03  # M_D33
Block SMINPUTS  # SM parameters
         1     1.27908970E+02  # alpha_em^-1(MZ)^MSbar
         2     1.16637870E-05  # G_mu [GeV^-2]
         3     1.18400000E-01  # alpha_s(MZ)^MSbar
         4     9.11876000E+01  # m_Z(pole)
         5     4.18000000E+00  # m_b(m_b), MSbar
         6     1.73200000E+02  # m_t(pole)
         7     1.77700000E+00  # m_tau(pole)
         8     0.00000000E+00  # m_nu_3
        11     5.10998930E-04  # m_e(pole)
        12     0.00000000E+00  # m_nu_1
        13     1.05658372E-01  # m_muon(pole)
        14     0.00000000E+00  # m_nu_2
        21     5.00000000E-03  # m_d(2 GeV), MSbar
        22     2.50000000E-03  # m_u(2 GeV), MSbar
        23     9.50000000E-02  # m_s(2 GeV), MSbar
        24     1.27000000E+00  # m_c(m_c), MSbar
Block gauge Q=  3.29202060E+03  # (SUSY scale)
   1    3.55362975E-01  # g'(Q)^DRbar
   2    6.65198874E-01  # g(Q)^DRbar
   3    1.21977796E+00  # g3(Q)^DRbar
Block Yu Q=  3.29202060E+03  # (SUSY scale)
  1  1     8.50903011E-06   # Y_u(Q)^DRbar
  2  2     4.32258729E-03   # Y_c(Q)^DRbar
  3  3     1.02795918E+00   # Y_t(Q)^DRbar
Block Yd Q=  3.29202060E+03  # (SUSY scale)
  1  1     9.87898358E-05   # Y_d(Q)^DRbar
  2  2     1.87700688E-03   # Y_s(Q)^DRbar
  3  3     9.79685608E-02   # Y_b(Q)^DRbar
Block Ye Q=  3.29202060E+03  # (SUSY scale)
  1  1     1.72395487E-05   # Y_e(Q)^DRbar
  2  2     3.56459191E-03   # Y_mu(Q)^DRbar
  3  3     5.99505720E-02   # Y_tau(Q)^DRbar
Block Au Q=  3.29202060E+03  # (SUSY scale)
  1  1     0.00000000E+00   # A_u(Q)^DRbar
  2  2     0.00000000E+00   # A_c(Q)^DRbar
  3  3    -7.87831342E+03   # A_t(Q)^DRbar
Block Ad Q=  3.29202060E+03  # (SUSY scale)
  1  1     0.00000000E+00   # A_d(Q)^DRbar
  2  2     0.00000000E+00   # A_s(Q)^DRbar
  3  3    -1.14975183E+03   # A_b(Q)^DRbar
Block Ae Q=  3.29202060E+03  # (SUSY scale)
  1  1     0.00000000E+00   # A_e(Q)^DRbar
  2  2     0.00000000E+00   # A_mu(Q)^DRbar
  3  3     1.57072846E+03   # A_tau(Q)^DRbar
Block MSOFT Q=  3.29202060E+03  # soft SUSY breaking masses at Q
   1    6.38681742E+01  # M_1
   2    1.04645473E+03  # M_2
   3    2.56560203E+03  # M_3
  21    7.19312097E+06  # M^2_(H,d)
  22    2.52168889E+05  # M^2_(H,u)
  31    1.00000000E+04  # M_(L,11)
  32    1.00000000E+04  # M_(L,22)
  33    1.00000000E+04  # M_(L,33)
  34    1.00000000E+04  # M_(E,11)
  35    1.00000000E+04  # M_(E,22)
  36    1.00000000E+04  # M_(E,33)
  41    1.00000000E+04  # M_(Q,11)
  42    1.00000000E+04  # M_(Q,22)
  43    4.14385317E+03  # M_(Q,33)
  44    1.00000000E+04  # M_(U,11)
  45    1.00000000E+04  # M_(U,22)
  46    2.65314032E+03  # M_(U,33)
  47    1.00000000E+04  # M_(D,11)
  48    1.00000000E+04  # M_(D,22)
  49    4.08632986E+03  # M_(D,33)
Block MASS  # Mass spectrum
#   PDG code      mass          particle
         6     1.73200000E+02  # m_t(pole)
        23     9.11876000E+01  # m_Z(pole)
        24     8.04299946E+01  # W+
        15     1.77700000E+00  # m_tau(pole)
        25     1.25746680E+02  # h0
        35     2.74740637E+03  # H0
        36     2.74751897E+03  # A0
        37     2.74732234E+03  # H+
   1000001     1.01097671E+04  # ~d_L
   2000001     1.00854034E+04  # ~d_R
   1000002     1.01094290E+04  # ~u_L
   2000002     1.00884621E+04  # ~u_R
   1000003     1.01097678E+04  # ~s_L
   2000003     1.00854036E+04  # ~s_R
   1000004     1.01094297E+04  # ~c_L
   2000004     1.00884633E+04  # ~c_R
   1000005     4.12147419E+03  # ~b_1
   2000005     4.15604789E+03  # ~b_2
   1000006     2.61917848E+03  # ~t_1
   2000006     4.13770947E+03  # ~t_2
   1000011     1.00207641E+04  # ~e_L-
   2000011     1.00090173E+04  # ~e_R-
   1000012     1.00200245E+04  # ~nu_eL
   1000013     1.00207647E+04  # ~mu_L-
   2000013     1.00090183E+04  # ~mu_R-
   1000014     1.00200251E+04  # ~nu_muL
   1000015     1.00093260E+04  # ~tau_1-
   2000015     1.00209226E+04  # ~tau_2-
   1000016     1.00201826E+04  # ~nu_tauL
   1000021     3.00997387E+03  # ~g
   1000022     6.08925207E+01  # ~chi_10
   1000023     3.35120237E+02  # ~chi_20
   1000025     3.38840572E+02  # ~chi_30
   1000035     1.13428633E+03  # ~chi_40
   1000024     3.31739252E+02  # ~chi_1+
   1000037     1.13336758E+03  # ~chi_2+
# Higgs mixing
Block alpha # Effective Higgs mixing angle
          -1.63744371E-01   # alpha
Block Hmix Q=  3.29202060E+03  # Higgs mixing parameters
   1    3.32843228E+02  # mu
   2    5.77765966E+00  # tan[beta](Q)
   3    2.43115854E+02  # v(Q)
   4    7.54886049E+06  # m^2_A(Q)
Block stopmix # stop mixing matrix
   1  1     1.08067889E-01   # Re[R_st(1,1)]
   1  2     9.94143516E-01   # Re[R_st(1,2)]
   2  1    -9.94143516E-01   # Re[R_st(2,1)]
   2  2     1.08067889E-01   # Re[R_st(2,2)]
Block sbotmix # sbottom mixing matrix
   1  1     9.99704017E-01   # Re[R_sb(1,1)]
   1  2     2.43285412E-02   # Re[R_sb(1,2)]
   2  1    -2.43285412E-02   # Re[R_sb(2,1)]
   2  2     9.99704017E-01   # Re[R_sb(2,2)]
Block staumix # stau mixing matrix
   1  1     2.69952459E-03   # Re[R_sta(1,1)]
   1  2     9.99996356E-01   # Re[R_sta(1,2)]
   2  1    -9.99996356E-01   # Re[R_sta(2,1)]
   2  2     2.69952459E-03   # Re[R_sta(2,2)]
Block Nmix # neutralino mixing matrix
   1  1    -9.88900283E-01   # Re[N(1,1)]
   1  2     5.34377492E-03   # Re[N(1,2)]
   1  3    -1.40499999E-01   # Re[N(1,3)]
   1  4     4.80356675E-02   # Re[N(1,4)]
   2  1     1.33624627E-01   # Re[N(2,1)]
   2  2     8.24690906E-02   # Re[N(2,2)]
   2  3    -6.98764366E-01   # Re[N(2,3)]
   2  4     6.97905200E-01   # Re[N(2,4)]
   3  1     6.48626370E-02   # Re[N(3,1)]
   3  2    -3.19412989E-02   # Re[N(3,2)]
   3  3    -7.00486726E-01   # Re[N(3,3)]
   3  4    -7.09993619E-01   # Re[N(3,4)]
   4  1     3.67810900E-03   # Re[N(4,1)]
   4  2    -9.96067290E-01   # Re[N(4,2)]
   4  3    -3.61449539E-02   # Re[N(4,3)]
   4  4     8.08082126E-02   # Re[N(4,4)]
Block Umix # chargino mixing matrix
   1  1    -5.10409115E-02   # Re[U(1,1)]
   1  2     9.98696563E-01   # Re[U(1,2)]
   2  1     9.98696563E-01   # Re[U(2,1)]
   2  2     5.10409115E-02   # Re[U(2,2)]
Block Vmix # chargino mixing matrix
   1  1    -1.14348303E-01   # Re[V(1,1)]
   1  2     9.93440721E-01   # Re[V(1,2)]
   2  1     9.93440721E-01   # Re[V(2,1)]
   2  2     1.14348303E-01   # Re[V(2,2)]
DECAY        23     2.49520000E+00   # Z
DECAY        24     2.08500000E+00   # W
DECAY   2000011     5.02855012E+01   # ~e^-_R
#    BR                NDA      ID1      ID2
     9.77971065E-01    2     1000022        11   # BR(~e^-_R -> chi^0_1 e^-)
     1.78177112E-02    2     1000023        11   # BR(~e^-_R -> chi^0_2 e^-)
     4.19803820E-03    2     1000025        11   # BR(~e^-_R -> chi^0_3 e^-)
DECAY   1000011     1.41557478E+02   # ~e^-_L
#    BR                NDA      ID1      ID2
     8.52029739E-02    2     1000022        11   # BR(~e^-_L -> chi^0_1 e^-)
     7.35897804E-03    2     1000023        11   # BR(~e^-_L -> chi^0_2 e^-)
     3.00076812E-01    2     1000035        11   # BR(~e^-_L -> chi^0_4 e^-)
     1.61989015E-03    2    -1000024        12   # BR(~e^-_L -> chi^-_1 nu_e)
     6.05739063E-01    2    -1000037        12   # BR(~e^-_L -> chi^-_2 nu_e)
#    BR                NDA      ID1      ID2       ID3
DECAY   2000013     5.02905550E+01   # ~mu^-_R
#    BR                NDA      ID1      ID2
     9.77873877E-01    2     1000022        13   # BR(~mu^-_R -> chi^0_1 mu^-)
     1.78404327E-02    2     1000023        13   # BR(~mu^-_R -> chi^0_2 mu^-)
     4.22224631E-03    2     1000025        13   # BR(~mu^-_R -> chi^0_3 mu^-)
DECAY   1000013     1.41560015E+02   # ~mu^-_L
#    BR                NDA      ID1      ID2
     8.52018058E-02    2     1000022        13   # BR(~mu^-_L -> chi^0_1 mu^-)
     7.36756373E-03    2     1000023        13   # BR(~mu^-_L -> chi^0_2 mu^-)
     3.00071478E-01    2     1000035        13   # BR(~mu^-_L -> chi^0_4 mu^-)
     1.61986122E-03    2    -1000024        14   # BR(~mu^-_L -> chi^-_1 nu_mu)
     6.05728249E-01    2    -1000037        14   # BR(~mu^-_L -> chi^-_2 nu_mu)
#    BR                NDA      ID1      ID2       ID3
DECAY   1000015     5.17159476E+01   # ~tau^-_1
#    BR                NDA      ID1      ID2
     9.51261785E-01    2     1000022        15   # BR(~tau^-_1 -> chi^0_1 tau^-)
     2.40721555E-02    2     1000023        15   # BR(~tau^-_1 -> chi^0_2 tau^-)
     1.08297317E-02    2     1000025        15   # BR(~tau^-_1 -> chi^0_3 tau^-)
     1.38144986E-02    2    -1000024        16   # BR(~tau^-_1 -> chi^-_1 nu_tau)
DECAY   2000015     1.42273984E+02   # ~tau^-_2
#    BR                NDA      ID1      ID2
     8.48605476E-02    2     1000022        15   # BR(~tau^-_2 -> chi^0_1 tau^-)
     9.77379023E-03    2     1000023        15   # BR(~tau^-_2 -> chi^0_2 tau^-)
     2.47770961E-03    2     1000025        15   # BR(~tau^-_2 -> chi^0_3 tau^-)
     2.98582392E-01    2     1000035        15   # BR(~tau^-_2 -> chi^0_4 tau^-)
     1.59643741E-03    2    -1000024        16   # BR(~tau^-_2 -> chi^-_1 nu_tau)
     6.02709123E-01    2    -1000037        16   # BR(~tau^-_2 -> chi^-_2 nu_tau)
#    BR                NDA      ID1      ID2       ID3
DECAY   1000012     1.41561043E+02   # ~nu_e
#    BR                NDA      ID1      ID2
     8.87123902E-02    2     1000022        12   # BR(~nu_e -> chi^0_1 nu_e)
     1.37842089E-03    2     1000025        12   # BR(~nu_e -> chi^0_3 nu_e)
     3.02422906E-01    2     1000035        12   # BR(~nu_e -> chi^0_4 nu_e)
     8.12952292E-03    2     1000024        11   # BR(~nu_e -> chi^+_1 e^-)
     5.99318570E-01    2     1000037        11   # BR(~nu_e -> chi^+_2 e^-)
#    BR                NDA      ID1      ID2       ID3
DECAY   1000014     1.41563579E+02   # ~nu_mu
#    BR                NDA      ID1      ID2
     8.87108062E-02    2     1000022        14   # BR(~nu_mu -> chi^0_1 nu_mu)
     1.37839628E-03    2     1000025        14   # BR(~nu_mu -> chi^0_3 nu_mu)
     3.02417507E-01    2     1000035        14   # BR(~nu_mu -> chi^0_4 nu_mu)
     8.14718345E-03    2     1000024        13   # BR(~nu_mu -> chi^+_1 mu^-)
     5.99307917E-01    2     1000037        13   # BR(~nu_mu -> chi^+_2 mu^-)
#    BR                NDA      ID1      ID2       ID3
DECAY   1000016     1.42278234E+02   # ~nu_tau
#    BR                NDA      ID1      ID2
     8.82666049E-02    2     1000022        16   # BR(~nu_tau -> chi^0_1 nu_tau)
     1.37149434E-03    2     1000025        16   # BR(~nu_tau -> chi^0_3 nu_tau)
     3.00903458E-01    2     1000035        16   # BR(~nu_tau -> chi^0_4 nu_tau)
     1.31000303E-02    2     1000024        15   # BR(~nu_tau -> chi^+_1 tau^-)
     5.96320414E-01    2     1000037        15   # BR(~nu_tau -> chi^+_2 tau^-)
#    BR                NDA      ID1      ID2       ID3
DECAY   2000001     6.66205141E+02   # ~d_R
#    BR                NDA      ID1      ID2
     8.26457683E-03    2     1000022         1   # BR(~d_R -> chi^0_1 d)
     1.50579160E-04    2     1000023         1   # BR(~d_R -> chi^0_2 d)
     9.91549250E-01    2     1000021         1   # BR(~d_R -> ~g d)
DECAY   1000001     7.94376514E+02   # ~d_L
#    BR                NDA      ID1      ID2
     1.84397965E-03    2     1000022         1   # BR(~d_L -> chi^0_1 d)
     1.92423566E-04    2     1000023         1   # BR(~d_L -> chi^0_2 d)
     1.05720151E-04    2     1000025         1   # BR(~d_L -> chi^0_3 d)
     5.42578865E-02    2     1000035         1   # BR(~d_L -> chi^0_4 d)
     2.91238664E-04    2    -1000024         2   # BR(~d_L -> chi^-_1 u)
     1.08950591E-01    2    -1000037         2   # BR(~d_L -> chi^-_2 u)
     8.34358160E-01    2     1000021         1   # BR(~d_L -> ~g d)
DECAY   2000003     6.66206565E+02   # ~s_R
#    BR                NDA      ID1      ID2
     8.26458019E-03    2     1000022         3   # BR(~s_R -> chi^0_1 s)
     1.51094385E-04    2     1000023         3   # BR(~s_R -> chi^0_2 s)
     9.91547157E-01    2     1000021         3   # BR(~s_R -> ~g s)
DECAY   1000003     7.94381041E+02   # ~s_L
#    BR                NDA      ID1      ID2
     1.84398682E-03    2     1000022         3   # BR(~s_L -> chi^0_1 s)
     1.92855843E-04    2     1000023         3   # BR(~s_L -> chi^0_2 s)
     1.06155081E-04    2     1000025         3   # BR(~s_L -> chi^0_3 s)
     5.42575825E-02    2     1000035         3   # BR(~s_L -> chi^0_4 s)
     2.95895165E-04    2    -1000024         4   # BR(~s_L -> chi^-_1 c)
     1.08950040E-01    2    -1000037         4   # BR(~s_L -> chi^-_2 c)
     8.34353485E-01    2     1000021         3   # BR(~s_L -> ~g s)
DECAY   1000005     3.21088585E+02   # ~b_1
#    BR                NDA      ID1      ID2
     1.95341061E-03    2     1000022         5   # BR(~b_1 -> chi^0_1 b)
     1.37704848E-03    2     1000023         5   # BR(~b_1 -> chi^0_2 b)
     1.26557573E-03    2     1000025         5   # BR(~b_1 -> chi^0_3 b)
     4.79044444E-02    2     1000035         5   # BR(~b_1 -> chi^0_4 b)
     2.61982008E-01    2    -1000024         6   # BR(~b_1 -> chi^-_1 t)
     9.96612253E-02    2    -1000037         6   # BR(~b_1 -> chi^-_2 t)
     2.20656831E-01    2     1000021         5   # BR(~b_1 -> ~g b)
     3.65199457E-01    2     1000006       -24   # BR(~b_1 -> ~t_1 W^-)
DECAY   2000005     7.81862578E+01   # ~b_2
#    BR                NDA      ID1      ID2
     2.90186837E-02    2     1000022         5   # BR(~b_2 -> chi^0_1 b)
     5.39720462E-03    2     1000023         5   # BR(~b_2 -> chi^0_2 b)
     5.14707788E-03    2     1000025         5   # BR(~b_2 -> chi^0_3 b)
     2.02799558E-04    2     1000035         5   # BR(~b_2 -> chi^0_4 b)
     1.04620427E-02    2    -1000024         6   # BR(~b_2 -> chi^-_1 t)
     4.14151917E-04    2    -1000037         6   # BR(~b_2 -> chi^-_2 t)
     9.48416097E-01    2     1000021         5   # BR(~b_2 -> ~g b)
     9.41942500E-04    2     1000006       -24   # BR(~b_2 -> ~t_1 W^-)
DECAY   2000002     6.83380442E+02   # ~u_R
#    BR                NDA      ID1      ID2
     3.22372328E-02    2     1000022         2   # BR(~u_R -> chi^0_1 u)
     5.87351993E-04    2     1000023         2   # BR(~u_R -> chi^0_2 u)
     1.38386345E-04    2     1000025         2   # BR(~u_R -> chi^0_3 u)
     9.67036594E-01    2     1000021         2   # BR(~u_R -> ~g u)
DECAY   1000002     7.94364671E+02   # ~u_L
#    BR                NDA      ID1      ID2
     1.63311250E-03    2     1000022         2   # BR(~u_L -> chi^0_1 u)
     6.31143381E-04    2     1000023         2   # BR(~u_L -> chi^0_2 u)
     5.41142675E-02    2     1000035         2   # BR(~u_L -> chi^0_4 u)
     1.46172012E-03    2     1000024         1   # BR(~u_L -> chi^+_1 d)
     1.07804678E-01    2     1000037         1   # BR(~u_L -> chi^+_2 d)
     8.34331840E-01    2     1000021         2   # BR(~u_L -> ~g u)
DECAY   2000004     6.83388005E+02   # ~c_R
#    BR                NDA      ID1      ID2
     3.22368913E-02    2     1000022         4   # BR(~c_R -> chi^0_1 c)
     5.90013181E-04    2     1000023         4   # BR(~c_R -> chi^0_2 c)
     1.41144414E-04    2     1000025         4   # BR(~c_R -> chi^0_3 c)
     9.67026007E-01    2     1000021         4   # BR(~c_R -> ~g c)
DECAY   1000004     7.94369167E+02   # ~c_L
#    BR                NDA      ID1      ID2
     1.63311423E-03    2     1000022         4   # BR(~c_L -> chi^0_1 c)
     6.33438225E-04    2     1000023         4   # BR(~c_L -> chi^0_2 c)
     5.41139957E-02    2     1000035         4   # BR(~c_L -> chi^0_4 c)
     1.46259715E-03    2     1000024         3   # BR(~c_L -> chi^+_1 s)
     1.07804078E-01    2     1000037         3   # BR(~c_L -> chi^+_2 s)
     8.34327159E-01    2     1000021         4   # BR(~c_L -> ~g c)
DECAY   1000006     1.11361056E+02   # ~t_1
#    BR                NDA      ID1      ID2
     5.26252496E-02    2     1000022         6   # BR(~t_1 -> chi^0_1 t)
     2.31796258E-01    2     1000023         6   # BR(~t_1 -> chi^0_2 t)
     2.40057904E-01    2     1000025         6   # BR(~t_1 -> chi^0_3 t)
     3.19336620E-04    2     1000035         6   # BR(~t_1 -> chi^0_4 t)
     4.74562279E-01    2     1000024         5   # BR(~t_1 -> chi^+_1 b)
     6.38311673E-04    2     1000037         5   # BR(~t_1 -> chi^+_2 b)
#    BR                NDA      ID1      ID2       ID3
DECAY   2000006     3.51550393E+02   # ~t_2
#    BR                NDA      ID1      ID2
     1.73415612E-03    2     1000022         6   # BR(~t_2 -> chi^0_1 t)
     1.18970020E-01    2     1000023         6   # BR(~t_2 -> chi^0_2 t)
     1.21674281E-01    2     1000025         6   # BR(~t_2 -> chi^0_3 t)
     4.66525618E-02    2     1000035         6   # BR(~t_2 -> chi^0_4 t)
     2.46621497E-03    2     1000024         5   # BR(~t_2 -> chi^+_1 b)
     8.98475793E-02    2     1000037         5   # BR(~t_2 -> chi^+_2 b)
     1.97014684E-01    2     1000021         6   # BR(~t_2 -> ~g t)
     1.69355833E-01    2     1000006        23   # BR(~t_2 -> ~t_1 Z)
     2.52284670E-01    2     1000006        25   # BR(~t_2 -> ~t_1 h^0)
DECAY   1000024     2.35655249E-01   # chi^+_1
#    BR                NDA      ID1      ID2
     9.99507631E-01    2     1000022        24   # BR(chi^+_1 -> chi^0_1 W^+)
#    BR                NDA      ID1      ID2       ID3
     4.92369140E-04    3     1000022        -5         6   # BR(chi^+_1 -> chi^0_1 b_bar t)
DECAY   1000037     1.17020149E+01   # chi^+_2
#    BR                NDA      ID1      ID2
     1.76159817E-04    2     1000022        24   # BR(chi^+_2 -> chi^0_1 W^+)
     2.49853194E-01    2     1000023        24   # BR(chi^+_2 -> chi^0_2 W^+)
     2.53135529E-01    2     1000025        24   # BR(chi^+_2 -> chi^0_3 W^+)
     2.48198617E-01    2     1000024        23   # BR(chi^+_2 -> chi^+_1 Z)
     2.36099377E-01    2     1000024        25   # BR(chi^+_2 -> chi^+_1 h^0)
#    BR                NDA      ID1      ID2       ID3
     4.56832305E-03    3     1000024         6        -6   # BR(chi^+_2 -> chi^+_1 t t_bar)
     4.82725551E-03    3     1000023        -5         6   # BR(chi^+_2 -> chi^0_2 b_bar t)
     3.13640048E-03    3     1000025        -5         6   # BR(chi^+_2 -> chi^0_3 b_bar t)
DECAY   1000022     0.00000000E+00   # chi^0_1
DECAY   1000023     1.90239814E-01   # chi^0_2
#    BR                NDA      ID1      ID2
     2.69955815E-01    2     1000022        23   # BR(chi^0_2 -> chi^0_1 Z)
     7.30041547E-01    2     1000022        25   # BR(chi^0_2 -> chi^0_1 h^0)
#    BR                NDA      ID1      ID2       ID3
DECAY   1000025     3.00445684E-01   # chi^0_3
#    BR                NDA      ID1      ID2
     7.42847611E-01    2     1000022        23   # BR(chi^0_3 -> chi^0_1 Z)
     2.57112550E-01    2     1000022        25   # BR(chi^0_3 -> chi^0_1 h^0)
#    BR                NDA      ID1      ID2       ID3
DECAY   1000035     1.26522505E+01   # chi^0_4
#    BR                NDA      ID1      ID2
     2.32522144E-01    2     1000024       -24   # BR(chi^0_4 -> chi^+_1 W^-)
     2.32522144E-01    2    -1000024        24   # BR(chi^0_4 -> chi^-_1 W^+)
     2.93204597E-02    2     1000023        23   # BR(chi^0_4 -> chi^0_2 Z)
     2.05484043E-01    2     1000025        23   # BR(chi^0_4 -> chi^0_3 Z)
     1.27721939E-04    2     1000022        25   # BR(chi^0_4 -> chi^0_1 h^0)
     1.88883362E-01    2     1000023        25   # BR(chi^0_4 -> chi^0_2 h^0)
     9.93903719E-02    2     1000025        25   # BR(chi^0_4 -> chi^0_3 h^0)
#    BR                NDA      ID1      ID2       ID3
     1.67895909E-03    3     1000023         6        -6   # BR(chi^0_4 -> chi^0_2 t t_bar)
     1.13871869E-03    3     1000025         6        -6   # BR(chi^0_4 -> chi^0_3 t t_bar)
     4.43262822E-03    3     1000024         5        -6   # BR(chi^0_4 -> chi^+_1 b t_bar)
     4.43262822E-03    3    -1000024        -5         6   # BR(chi^0_4 -> chi^-_1 b_bar t)
DECAY   1000021     4.36067056E+00   # ~g
#    BR                NDA      ID1      ID2
     4.92050820E-01    2     1000006        -6   # BR(~g -> ~t_1 t_bar)
     4.92050820E-01    2    -1000006         6   # BR(~g -> ~t^*_1 t)
     5.34074167E-04    2     1000023        21   # BR(~g -> chi^0_2 g)
     4.77305861E-04    2     1000025        21   # BR(~g -> chi^0_3 g)
#    BR                NDA      ID1      ID2       ID3
     1.84349263E-04    3     1000022         5        -5   # BR(~g -> chi^0_1 b b_bar)
     2.48144638E-03    3     1000023         6        -6   # BR(~g -> chi^0_2 t t_bar)
     2.58821165E-03    3     1000025         6        -6   # BR(~g -> chi^0_3 t t_bar)
     6.94561981E-04    3     1000035         6        -6   # BR(~g -> chi^0_4 t t_bar)
     6.61511952E-04    3     1000035         5        -5   # BR(~g -> chi^0_4 b b_bar)
     2.57645919E-03    3     1000024         5        -6   # BR(~g -> chi^+_1 b t_bar)
     2.57645919E-03    3    -1000024        -5         6   # BR(~g -> chi^-_1 b_bar t)
     1.35959230E-03    3     1000037         5        -6   # BR(~g -> chi^+_2 b t_bar)
     1.35959230E-03    3    -1000037        -5         6   # BR(~g -> chi^-_2 b_bar t)
DECAY        25     3.69404052E-03   # Gamma(h0)
     2.53885090E-03   2        22        22   # BR(h0 -> photon photon)
     1.68414726E-03   2        22        23   # BR(h0 -> photon Z)
     3.18680215E-02   2        23        23   # BR(h0 -> Z Z)
     2.59420470E-01   2       -24        24   # BR(h0 -> W W)
     7.72903964E-02   2        21        21   # BR(h0 -> gluon gluon)
     4.79626137E-09   2       -11        11   # BR(h0 -> Electron electron)
     2.13346673E-04   2       -13        13   # BR(h0 -> Muon muon)
     6.15165223E-02   2       -15        15   # BR(h0 -> Tau tau)
     1.35844563E-07   2        -2         2   # BR(h0 -> Up up)
     2.63646846E-02   2        -4         4   # BR(h0 -> Charm charm)
     5.54566599E-07   2        -1         1   # BR(h0 -> Down down)
     2.00573858E-04   2        -3         3   # BR(h0 -> Strange strange)
     5.33461699E-01   2        -5         5   # BR(h0 -> Bottom bottom)
     5.44059293E-03   2   1000022   1000022   # BR(h0 -> neutralino1 neutralino1)
DECAY        35     3.12890629E+01   # Gamma(HH)
     3.48515236E-07   2        22        22   # BR(HH -> photon photon)
     3.11182911E-07   2        22        23   # BR(HH -> photon Z)
     3.40125675E-05   2        23        23   # BR(HH -> Z Z)
     1.15498442E-05   2       -24        24   # BR(HH -> W W)
     2.36224298E-05   2        21        21   # BR(HH -> gluon gluon)
     4.62214680E-10   2       -11        11   # BR(HH -> Electron electron)
     2.05795033E-05   2       -13        13   # BR(HH -> Muon muon)
     5.94352923E-03   2       -15        15   # BR(HH -> Tau tau)
     5.49677763E-12   2        -2         2   # BR(HH -> Up up)
     1.06630199E-06   2        -4         4   # BR(HH -> Charm charm)
     7.86044953E-02   2        -6         6   # BR(HH -> Top top)
     3.43172116E-08   2        -1         1   # BR(HH -> Down down)
     1.24129218E-05   2        -3         3   # BR(HH -> Strange strange)
     3.27766489E-02   2        -5         5   # BR(HH -> Bottom bottom)
     8.41826687E-03   2  -1000024   1000024   # BR(HH -> Chargino1 chargino1)
     2.56679812E-01   2  -1000024   1000037   # BR(HH -> Chargino1 chargino2)
     2.56679812E-01   2  -1000037   1000024   # BR(HH -> Chargino2 chargino1)
     2.34948157E-04   2  -1000037   1000037   # BR(HH -> Chargino2 chargino2)
     3.29932641E-03   2   1000022   1000022   # BR(HH -> neutralino1 neutralino1)
     3.35980684E-02   2   1000022   1000023   # BR(HH -> neutralino1 neutralino2)
     6.28190567E-02   2   1000022   1000025   # BR(HH -> neutralino1 neutralino3)
     3.25950947E-03   2   1000022   1000035   # BR(HH -> neutralino1 neutralino4)
     9.66725406E-05   2   1000023   1000023   # BR(HH -> neutralino2 neutralino2)
     1.71286160E-04   2   1000023   1000025   # BR(HH -> neutralino2 neutralino3)
     7.36489064E-02   2   1000023   1000035   # BR(HH -> neutralino2 neutralino4)
     1.96883711E-03   2   1000025   1000025   # BR(HH -> neutralino3 neutralino3)
     1.81373181E-01   2   1000025   1000035   # BR(HH -> neutralino3 neutralino4)
     1.20092207E-04   2   1000035   1000035   # BR(HH -> neutralino4 neutralino4)
     2.03612766E-04   2        25        25   # BR(HH -> h0 h0)
DECAY        36     3.11506134E+01   # Gamma(A0)
     4.38077837E-07   2        22        22   # BR(A0 -> photon photon)
     4.47146721E-07   2        22        23   # BR(A0 -> photon Z)
     4.30046708E-05   2        21        21   # BR(A0 -> gluon gluon)
     4.49472574E-10   2       -11        11   # BR(A0 -> Electron electron)
     2.00120598E-05   2       -13        13   # BR(A0 -> Muon muon)
     5.77965735E-03   2       -15        15   # BR(A0 -> Tau tau)
     5.23157630E-12   2        -2         2   # BR(A0 -> Up up)
     1.01480537E-06   2        -4         4   # BR(A0 -> Charm charm)
     7.60454982E-02   2        -6         6   # BR(A0 -> Top top)
     3.33708060E-08   2        -1         1   # BR(A0 -> Down down)
     1.20705546E-05   2        -3         3   # BR(A0 -> Strange strange)
     3.18724901E-02   2        -5         5   # BR(A0 -> Bottom bottom)
     1.21040489E-02   2  -1000024   1000024   # BR(A0 -> Chargino1 chargino1)
     2.54789496E-01   2  -1000024   1000037   # BR(A0 -> Chargino1 chargino2)
     2.54789496E-01   2  -1000037   1000024   # BR(A0 -> Chargino2 chargino1)
     2.64289181E-03   2  -1000037   1000037   # BR(A0 -> Chargino2 chargino2)
     4.15104798E-03   2   1000022   1000022   # BR(A0 -> neutralino1 neutralino1)
     6.60680266E-02   2   1000022   1000023   # BR(A0 -> neutralino1 neutralino2)
     3.10570455E-02   2   1000022   1000025   # BR(A0 -> neutralino1 neutralino3)
     3.38525505E-03   2   1000022   1000035   # BR(A0 -> neutralino1 neutralino4)
     2.00347796E-04   2   1000023   1000023   # BR(A0 -> neutralino2 neutralino2)
     5.93857236E-04   2   1000023   1000025   # BR(A0 -> neutralino2 neutralino3)
     1.79259998E-01   2   1000023   1000035   # BR(A0 -> neutralino2 neutralino4)
     1.07133457E-03   2   1000025   1000025   # BR(A0 -> neutralino3 neutralino3)
     7.47270761E-02   2   1000025   1000035   # BR(A0 -> neutralino3 neutralino4)
     1.33300955E-03   2   1000035   1000035   # BR(A0 -> neutralino4 neutralino4)
     5.24015379E-05   2        23        25   # BR(A0 -> Z h0)
     3.21294322E-37   2        25        25   # BR(A0 -> h0 h0)
DECAY        37     3.18614914E+01   # Gamma(Hp)
     5.25558360E-10   2       -11        12   # BR(Hp -> Electron nu_e)
     2.24692614E-05   2       -13        14   # BR(Hp -> Muon nu_mu)
     6.35558395E-03   2       -15        16   # BR(Hp -> Tau nu_tau)
     3.39103338E-08   2        -1         2   # BR(Hp -> Down up)
     5.71729768E-07   2        -3         2   # BR(Hp -> Strange up)
     3.71088693E-07   2        -5         2   # BR(Hp -> Bottom up)
     5.71230652E-08   2        -1         4   # BR(Hp -> Down charm)
     1.34073889E-05   2        -3         4   # BR(Hp -> Strange charm)
     5.19675323E-05   2        -5         4   # BR(Hp -> Bottom charm)
     6.06859689E-06   2        -1         6   # BR(Hp -> Down top)
     1.32333563E-04   2        -3         6   # BR(Hp -> Strange top)
     1.28354629E-01   2        -5         6   # BR(Hp -> Bottom top)
     9.79800079E-02   2   1000022   1000024   # BR(Hp -> neutralino1 chargino1)
     6.57808515E-03   2   1000022   1000037   # BR(Hp -> neutralino1 chargino2)
     3.45680672E-03   2   1000023   1000024   # BR(Hp -> neutralino2 chargino1)
     2.53400877E-01   2   1000023   1000037   # BR(Hp -> neutralino2 chargino2)
     1.18603954E-03   2   1000024   1000025   # BR(Hp -> chargino1 neutralino3)
     2.49659537E-01   2   1000025   1000037   # BR(Hp -> neutralino3 chargino2)
     2.52749874E-01   2   1000024   1000035   # BR(Hp -> chargino1 neutralino4)
     1.93899656E-08   2   1000035   1000037   # BR(Hp -> neutralino4 chargino2)
     5.12593341E-05   2        24        25   # BR(Hp -> W h0)
DECAY         6     2.43000000E+00   # top
#    BR                NDA      ID1      ID2
     1.00000000E+00    2           5        24   # BR(t -> b W)
Block HiggsBoundsInputHiggsCouplingsFermions
# ScalarNormEffCoupSq PseudoSNormEffCoupSq NP IP1 IP2 IP2
    9.13630853E-01    0.00000000E+00        3  25   5   5  # h0-b-b eff. coupling^2, normalised to SM
    3.34677203E+01    0.00000000E+00        3  35   5   5  # H0-b-b eff. coupling^2, normalised to SM
    0.00000000E+00    3.33813511E+01        3  36   5   5  # A0-b-b eff. coupling^2, normalised to SM
#
    1.00258735E+00    0.00000000E+00        3  25   6   6  # h0-t-t eff. coupling^2, normalised to SM
    2.73694989E-02    0.00000000E+00        3  35   6   6  # H0-t-t eff. coupling^2, normalised to SM
    0.00000000E+00    2.99568461E-02        3  36   6   6  # A0-t-t eff. coupling^2, normalised to SM
#
    9.13630853E-01    0.00000000E+00        3  25  15  15  # h0-tau-tau eff. coupling^2, normalised to SM
    3.34677203E+01    0.00000000E+00        3  35  15  15  # H0-tau-tau eff. coupling^2, normalised to SM
    0.00000000E+00    3.33813511E+01        3  36  15  15  # A0-tau-tau eff. coupling^2, normalised to SM
#
Block HiggsBoundsInputHiggsCouplingsBosons
    9.99941659E-01        3  25  24  24  # h0-W-W eff. coupling^2, normalised to SM
    5.83408247E-05        3  35  24  24  # H0-W-W eff. coupling^2, normalised to SM
    0.00000000E+00        3  36  24  24  # A0-W-W eff. coupling^2, normalised to SM
#
    9.99941659E-01        3  25  23  23  # h0-Z-Z eff. coupling^2, normalised to SM
    5.83408247E-05        3  35  23  23  # H0-Z-Z eff. coupling^2, normalised to SM
    0.00000000E+00        3  36  23  23  # A0-Z-Z eff. coupling^2, normalised to SM
#
    1.26425521E+00        3  25  21  21  # h0-g-g eff. coupling^2, normalised to SM
    2.34878704E-02        3  35  21  21  # H0-g-g eff. coupling^2, normalised to SM
    1.85456216E-01        3  36  21  21  # A0-g-g eff. coupling^2, normalised to SM
#
    0.00000000E+00        3  25  25  23  # h0-h0-Z eff. coupling^2, normalised to SM
    0.00000000E+00        3  35  25  23  # H0-h0-Z eff. coupling^2, normalised to SM
    5.83408247E-05        3  36  25  23  # A0-h0-Z eff. coupling^2, normalised to SM
    0.00000000E+00        3  35  35  23  # H0-H0-Z eff. coupling^2, normalised to SM
    9.99941659E-01        3  36  35  23  # A0-H0-Z eff. coupling^2, normalised to SM
    0.00000000E+00        3  36  36  23  # A0-A0-Z eff. coupling^2, normalised to SM
#
    0.00000000E+00        4  25  21  21  23  # h0-g-g-Z eff. coupling^2, normalised to SM
    0.00000000E+00        4  35  21  21  23  # H0-g-g-Z eff. coupling^2, normalised to SM
    0.00000000E+00        4  36  21  21  23  # A0-g-g-Z eff. coupling^2, normalised to SM
Block SPhenoLowEnergy  # low energy observables
    1    3.22872951E-04   # BR(b -> s gamma)
    2    1.59181674E-06   # BR(b -> s mu+ mu-)
    3    3.52917650E-05   # BR(b -> s nu nu)
    4    2.73823291E-15   # BR(Bd -> e+ e-)
    5    1.16974194E-10   # BR(Bd -> mu+ mu-)
    6    2.44869880E-08   # BR(Bd -> tau+ tau-)
    7    9.22696701E-14   # BR(Bs -> e+ e-)
    8    3.94175713E-09   # BR(Bs -> mu+ mu-)
    9    8.36067093E-07   # BR(Bs -> tau+ tau-)
   10    9.67794292E-05   # BR(B_u -> tau nu)
   11    9.99694452E-01   # BR(B_u -> tau nu)/BR(B_u -> tau nu)_SM
   12    5.42639972E-01   # |Delta(M_Bd)| [ps^-1] 
   13    1.93888586E+01   # |Delta(M_Bs)| [ps^-1] 
   14    0.00000000E+00   # neutron EDM according to the chiral quark model
   15    0.00000000E+00   # neutron EDM according to the relativistic quark-parton model
   16    2.15992745E-03   # epsilon_K
   17    2.28168492E-15   # Delta(M_K)
   18    2.48287798E-11   # BR(K^0 -> pi^0 nu nu)
   19    8.29718533E-11   # BR(K^+ -> pi^+ nu nu)
   20    4.07224029E-17   # Delta(g-2)_electron/2
   21    1.74100978E-12   # Delta(g-2)_muon/2
   22    4.92427967E-10   # Delta(g-2)_tau/2
   23    0.00000000E+00   # electric dipole moment of the electron
   24    0.00000000E+00   # electric dipole moment of the muon
   25    0.00000000E+00   # electric dipole moment of the tau
   26    0.00000000E+00   # Br(mu -> e gamma)
   27    0.00000000E+00   # Br(tau -> e gamma)
   28    0.00000000E+00   # Br(tau -> mu gamma)
   29    0.00000000E+00   # Br(mu -> 3 e)
   30    0.00000000E+00   # Br(tau -> 3 e)
   31    0.00000000E+00   # Br(tau -> 3 mu)
   39   -2.19893064E-04   # Delta(rho_parameter)
   40    0.00000000E+00   # BR(Z -> e mu)
   41    0.00000000E+00   # BR(Z -> e tau)
   42    0.00000000E+00   # BR(Z -> mu tau)
Block FWCOEF Q=  1.60000000E+02  # Wilson coefficients at scale Q
#    id        order  M        value         comment
     0305 4422   00   0    -1.88819110E-01   # C7
     0305 4422   00   2    -1.90821969E-01   # C7
     0305 4322   00   2    -1.17730879E-04   # C7'
     0305 6421   00   0    -9.52278348E-02   # C8
     0305 6421   00   2    -1.01637075E-01   # C8
     0305 6321   00   2    -1.79396203E-04   # C8'
 03051111 4133   00   0     1.61941381E+00   # C9 e+e-
 03051111 4133   00   2     1.61999291E+00   # C9 e+e-
 03051111 4233   00   2     9.85833965E-06   # C9' e+e-
 03051111 4137   00   0    -4.44210591E+00   # C10 e+e-
 03051111 4137   00   2    -4.44429017E+00   # C10 e+e-
 03051111 4237   00   2    -7.31705303E-05   # C10' e+e-
 03051313 4133   00   0     1.61941381E+00   # C9 mu+mu-
 03051313 4133   00   2     1.61999290E+00   # C9 mu+mu-
 03051313 4233   00   2     9.85833937E-06   # C9' mu+mu-
 03051313 4137   00   0    -4.44210591E+00   # C10 mu+mu-
 03051313 4137   00   2    -4.44429018E+00   # C10 mu+mu-
 03051313 4237   00   2    -7.31705303E-05   # C10' mu+mu-
 03051212 4137   00   0     1.50535012E+00   # C11 nu_1 nu_1
 03051212 4137   00   2     1.50582491E+00   # C11 nu_1 nu_1
 03051212 4237   00   2     1.58473970E-05   # C11' nu_1 nu_1
 03051414 4137   00   0     1.50535012E+00   # C11 nu_2 nu_2
 03051414 4137   00   2     1.50582491E+00   # C11 nu_2 nu_2
 03051414 4237   00   2     1.58473970E-05   # C11' nu_2 nu_2
 03051616 4137   00   0     1.50535012E+00   # C11 nu_3 nu_3
 03051616 4137   00   2     1.50582491E+00   # C11 nu_3 nu_3
 03051616 4237   00   2     1.58474106E-05   # C11' nu_3 nu_3
Block IMFWCOEF Q=  1.60000000E+02  # Im(Wilson coefficients) at scale Q
#    id        order  M        value         comment
     0305 4422   00   0     3.85826727E-07   # C7
     0305 4422   00   2     2.45339778E-06   # C7
     0305 4322   00   2     6.08477242E-07   # C7'
     0305 6421   00   0     3.30486108E-07   # C8
     0305 6421   00   2    -2.01583427E-06   # C8
     0305 6321   00   2     2.83954760E-07   # C8'
 03051111 4133   00   2    -1.12427751E-06   # C9 e+e-
 03051111 4233   00   2     1.95432503E-07   # C9' e+e-
 03051111 4137   00   2     1.21320633E-05   # C10 e+e-
 03051111 4237   00   2    -1.45172560E-06   # C10' e+e-
 03051313 4133   00   2    -1.12427760E-06   # C9 mu+mu-
 03051313 4233   00   2     1.95432502E-07   # C9' mu+mu-
 03051313 4137   00   2     1.21320634E-05   # C10 mu+mu-
 03051313 4237   00   2    -1.45172560E-06   # C10' mu+mu-
 03051212 4137   00   2    -2.59784419E-06   # C11 nu_1 nu_1
 03051212 4237   00   2     3.14418656E-07   # C11' nu_1 nu_1
 03051414 4137   00   2    -2.59784418E-06   # C11 nu_2 nu_2
 03051414 4237   00   2     3.14418656E-07   # C11' nu_2 nu_2
 03051616 4137   00   2    -2.59784308E-06   # C11 nu_3 nu_3
 03051616 4237   00   2     3.14418655E-07   # C11' nu_3 nu_3
