# SUSY Les Houches Accord 2 - MSSM spectrum + Decays
# SPheno v4.0.5be
# W. Porod, Comput. Phys. Commun. 153 (2003) 275-315, hep-ph/0301101;
# W. Porod, F.~Staub, Comput. Phys. Commun. 183 (2012) 2458
#                     arXiv:1104.1573 [hep-ph] 
# in case of problems send email to porod@physik.uni-wuerzburg.de
# Created: 20.12.2022,  13:15
Block SPINFO         # Program information
     1   SPheno      # spectrum calculator
     2   v4.0.5be    # version number
#
Block SPhenoINFO     # SPheno specific information
    1      2         # using 2-loop RGEs
    2      2         # using pole masses for boundary conditions at mZ
Block MODSEL  # Model selection
    1    0    # general MSSM
Block MINPAR  # Input parameters
    3    3.98719778E+01  # tanb at m_Z    
    4    1.00000000E+00  # Sign(mu)
Block EXTPAR  # non-universal input parameters
    0    2.86447949E+03  # scale for input parameters
    1    2.75619112E+02  # M_1
    2   -5.46609845E+02  # M_2
    3    4.42644520E+03  # M_3
   11   -4.33392019E+03  # A_t
   12    6.30116025E+02  # A_b
   13    4.61511516E+02  # A_tau
   23    1.74859974E+02  # mu
   25    3.88912633E+01  # tan(beta)
   26    2.28587262E+03  # m_A, pole mass
   31    1.00000000E+04  # M_L11
   32    1.00000000E+04  # M_L22
   33    1.00000000E+04  # M_L33
   34    1.00000000E+04  # M_E11
   35    1.00000000E+04  # M_E22
   36    1.00000000E+04  # M_E33
   41    1.00000000E+04  # M_Q11
   42    1.00000000E+04  # M_Q22
   43    2.54468437E+03  # M_Q33
   44    1.00000000E+04  # M_U11
   45    1.00000000E+04  # M_U22
   46    3.16016936E+03  # M_U33
   47    1.00000000E+04  # M_D11
   48    1.00000000E+04  # M_D22
   49    2.28775076E+03  # M_D33
Block SMINPUTS  # SM parameters
         1     1.27908970E+02  # alpha_em^-1(MZ)^MSbar
         2     1.16637870E-05  # G_mu [GeV^-2]
         3     1.18400000E-01  # alpha_s(MZ)^MSbar
         4     9.11876000E+01  # m_Z(pole)
         5     4.18000000E+00  # m_b(m_b), MSbar
         6     1.73200000E+02  # m_t(pole)
         7     1.77700000E+00  # m_tau(pole)
         8     0.00000000E+00  # m_nu_3
        11     5.10998930E-04  # m_e(pole)
        12     0.00000000E+00  # m_nu_1
        13     1.05658372E-01  # m_muon(pole)
        14     0.00000000E+00  # m_nu_2
        21     5.00000000E-03  # m_d(2 GeV), MSbar
        22     2.50000000E-03  # m_u(2 GeV), MSbar
        23     9.50000000E-02  # m_s(2 GeV), MSbar
        24     1.27000000E+00  # m_c(m_c), MSbar
Block gauge Q=  2.86447949E+03  # (SUSY scale)
   1    3.55362975E-01  # g'(Q)^DRbar
   2    6.65198874E-01  # g(Q)^DRbar
   3    1.21977796E+00  # g3(Q)^DRbar
Block Yu Q=  2.86447949E+03  # (SUSY scale)
  1  1     8.38714331E-06   # Y_u(Q)^DRbar
  2  2     4.26066880E-03   # Y_c(Q)^DRbar
  3  3     1.01323428E+00   # Y_t(Q)^DRbar
Block Yd Q=  2.86447949E+03  # (SUSY scale)
  1  1     6.55460254E-04   # Y_d(Q)^DRbar
  2  2     1.24537448E-02   # Y_s(Q)^DRbar
  3  3     6.50011181E-01   # Y_b(Q)^DRbar
Block Ye Q=  2.86447949E+03  # (SUSY scale)
  1  1     1.14382607E-04   # Y_e(Q)^DRbar
  2  2     2.36506955E-02   # Y_mu(Q)^DRbar
  3  3     3.97765791E-01   # Y_tau(Q)^DRbar
Block Au Q=  2.86447949E+03  # (SUSY scale)
  1  1     0.00000000E+00   # A_u(Q)^DRbar
  2  2     0.00000000E+00   # A_c(Q)^DRbar
  3  3    -4.33392011E+03   # A_t(Q)^DRbar
Block Ad Q=  2.86447949E+03  # (SUSY scale)
  1  1     0.00000000E+00   # A_d(Q)^DRbar
  2  2     0.00000000E+00   # A_s(Q)^DRbar
  3  3     6.30116035E+02   # A_b(Q)^DRbar
Block Ae Q=  2.86447949E+03  # (SUSY scale)
  1  1     0.00000000E+00   # A_e(Q)^DRbar
  2  2     0.00000000E+00   # A_mu(Q)^DRbar
  3  3     4.61511517E+02   # A_tau(Q)^DRbar
Block MSOFT Q=  2.86447949E+03  # soft SUSY breaking masses at Q
   1    2.75619112E+02  # M_1
   2   -5.46609845E+02  # M_2
   3    4.42644520E+03  # M_3
  21    5.02478573E+06  # M^2_(H,d)
  22    1.28301785E+05  # M^2_(H,u)
  31    1.00000000E+04  # M_(L,11)
  32    1.00000000E+04  # M_(L,22)
  33    1.00000000E+04  # M_(L,33)
  34    1.00000000E+04  # M_(E,11)
  35    1.00000000E+04  # M_(E,22)
  36    1.00000000E+04  # M_(E,33)
  41    1.00000000E+04  # M_(Q,11)
  42    1.00000000E+04  # M_(Q,22)
  43    2.54468437E+03  # M_(Q,33)
  44    1.00000000E+04  # M_(U,11)
  45    1.00000000E+04  # M_(U,22)
  46    3.16016936E+03  # M_(U,33)
  47    1.00000000E+04  # M_(D,11)
  48    1.00000000E+04  # M_(D,22)
  49    2.28775076E+03  # M_(D,33)
Block MASS  # Mass spectrum
#   PDG code      mass          particle
         6     1.73200000E+02  # m_t(pole)
        23     9.11876000E+01  # m_Z(pole)
        24     8.04299946E+01  # W+
        15     1.77700000E+00  # m_tau(pole)
        25     1.25898613E+02  # h0
        35     2.28500137E+03  # H0
        36     2.28587262E+03  # A0
        37     2.28783719E+03  # H+
   1000001     1.00767423E+04  # ~d_L
   2000001     1.00529109E+04  # ~d_R
   1000002     1.00764351E+04  # ~u_L
   2000002     1.00559248E+04  # ~u_R
   1000003     1.00767515E+04  # ~s_L
   2000003     1.00529245E+04  # ~s_R
   1000004     1.00764438E+04  # ~c_L
   2000004     1.00559265E+04  # ~c_R
   1000005     2.36473010E+03  # ~b_1
   2000005     2.60170614E+03  # ~b_2
   1000006     2.58203314E+03  # ~t_1
   2000006     3.17782241E+03  # ~t_2
   1000011     1.00213007E+04  # ~e_L-
   2000011     1.00088602E+04  # ~e_R-
   1000012     1.00205324E+04  # ~nu_eL
   1000013     1.00213362E+04  # ~mu_L-
   2000013     1.00089292E+04  # ~mu_R-
   1000014     1.00205678E+04  # ~nu_muL
   1000015     1.00283714E+04  # ~tau_1-
   2000015     1.00314619E+04  # ~tau_2-
   1000016     1.00305871E+04  # ~nu_tauL
   1000021     4.81550014E+03  # ~g
   1000022     1.80767402E+02  # ~chi_10
   1000023     1.81734928E+02  # ~chi_20
   1000025     2.90819946E+02  # ~chi_30
   1000035     6.05753764E+02  # ~chi_40
   1000024     1.84115403E+02  # ~chi_1+
   1000037     6.05962624E+02  # ~chi_2+
# Higgs mixing
Block alpha # Effective Higgs mixing angle
          -2.51760067E-02   # alpha
Block Hmix Q=  2.86447949E+03  # Higgs mixing parameters
   1    1.74859974E+02  # mu
   2    3.88912633E+01  # tan[beta](Q)
   3    2.43281481E+02  # v(Q)
   4    5.22521363E+06  # m^2_A(Q)
Block stopmix # stop mixing matrix
   1  1     9.83961700E-01   # Re[R_st(1,1)]
   1  2     1.78379854E-01   # Re[R_st(1,2)]
   2  1    -1.78379854E-01   # Re[R_st(2,1)]
   2  2     9.83961700E-01   # Re[R_st(2,2)]
Block sbotmix # sbottom mixing matrix
   1  1     1.07053870E-02   # Re[R_sb(1,1)]
   1  2     9.99942696E-01   # Re[R_sb(1,2)]
   2  1    -9.99942696E-01   # Re[R_sb(2,1)]
   2  2     1.07053870E-02   # Re[R_sb(2,2)]
Block staumix # stau mixing matrix
   1  1     1.81239189E-01   # Re[R_sta(1,1)]
   1  2     9.83439046E-01   # Re[R_sta(1,2)]
   2  1    -9.83439046E-01   # Re[R_sta(2,1)]
   2  2     1.81239189E-01   # Re[R_sta(2,2)]
Block Nmix # neutralino mixing matrix
   1  1    -3.06641670E-01   # Re[N(1,1)]
   1  2    -7.12011231E-02   # Re[N(1,2)]
   1  3    -6.81809318E-01   # Re[N(1,3)]
   1  4     6.60331235E-01   # Re[N(1,4)]
   2  1     6.44366184E-02   # Re[N(2,1)]
   2  2     1.31036882E-01   # Re[N(2,2)]
   2  3    -7.09929270E-01   # Re[N(2,3)]
   2  4    -6.88968569E-01   # Re[N(2,4)]
   3  1    -9.49613342E-01   # Re[N(3,1)]
   3  2     2.42829052E-02   # Re[N(3,2)]
   3  3     1.71678249E-01   # Re[N(3,3)]
   3  4    -2.61096570E-01   # Re[N(3,4)]
   4  1     7.30125889E-03   # Re[N(4,1)]
   4  2    -9.88519133E-01   # Re[N(4,2)]
   4  3    -4.07806798E-02   # Re[N(4,3)]
   4  4    -1.45305030E-01   # Re[N(4,4)]
Block Umix # chargino mixing matrix
   1  1    -5.81371368E-02   # Re[U(1,1)]
   1  2     9.98308606E-01   # Re[U(1,2)]
   2  1    -9.98308606E-01   # Re[U(2,1)]
   2  2    -5.81371368E-02   # Re[U(2,2)]
Block Vmix # chargino mixing matrix
   1  1     2.06629030E-01   # Re[V(1,1)]
   1  2     9.78419360E-01   # Re[V(1,2)]
   2  1     9.78419360E-01   # Re[V(2,1)]
   2  2    -2.06629030E-01   # Re[V(2,2)]
DECAY        23     2.49520000E+00   # Z
DECAY        24     2.08500000E+00   # W
DECAY   2000011     5.02110864E+01   # ~e^-_R
#    BR                NDA      ID1      ID2
     9.41171100E-02    2     1000022        11   # BR(~e^-_R -> chi^0_1 e^-)
     4.15595943E-03    2     1000023        11   # BR(~e^-_R -> chi^0_2 e^-)
     9.01673876E-01    2     1000025        11   # BR(~e^-_R -> chi^0_3 e^-)
DECAY   1000011     1.43941783E+02   # ~e^-_L
#    BR                NDA      ID1      ID2
     1.69141703E-02    2     1000022        11   # BR(~e^-_L -> chi^0_1 e^-)
     8.38383112E-03    2     1000023        11   # BR(~e^-_L -> chi^0_2 e^-)
     7.13738416E-02    2     1000025        11   # BR(~e^-_L -> chi^0_3 e^-)
     2.94915117E-01    2     1000035        11   # BR(~e^-_L -> chi^0_4 e^-)
     2.07006706E-03    2    -1000024        12   # BR(~e^-_L -> chi^-_1 nu_e)
     6.06342973E-01    2    -1000037        12   # BR(~e^-_L -> chi^-_2 nu_e)
#    BR                NDA      ID1      ID2       ID3
DECAY   2000013     5.04340322E+01   # ~mu^-_R
#    BR                NDA      ID1      ID2
     9.47276223E-02    2     1000022        13   # BR(~mu^-_R -> chi^0_1 mu^-)
     5.24990155E-03    2     1000023        13   # BR(~mu^-_R -> chi^0_2 mu^-)
     8.97759184E-01    2     1000025        13   # BR(~mu^-_R -> chi^0_3 mu^-)
     2.19946761E-03    2    -1000024        14   # BR(~mu^-_R -> chi^-_1 nu_mu)
DECAY   1000013     1.44053737E+02   # ~mu^-_L
#    BR                NDA      ID1      ID2
     1.72607138E-02    2     1000022        13   # BR(~mu^-_L -> chi^0_1 mu^-)
     8.76724392E-03    2     1000023        13   # BR(~mu^-_L -> chi^0_2 mu^-)
     7.13414014E-02    2     1000025        13   # BR(~mu^-_L -> chi^0_3 mu^-)
     2.94688257E-01    2     1000035        13   # BR(~mu^-_L -> chi^0_4 mu^-)
     2.06846560E-03    2    -1000024        14   # BR(~mu^-_L -> chi^-_1 nu_mu)
     6.05873919E-01    2    -1000037        14   # BR(~mu^-_L -> chi^-_2 nu_mu)
#    BR                NDA      ID1      ID2       ID3
DECAY   1000015     1.15451713E+02   # ~tau^-_1
#    BR                NDA      ID1      ID2
     1.74646215E-01    2     1000022        15   # BR(~tau^-_1 -> chi^0_1 tau^-)
     1.47703078E-01    2     1000023        15   # BR(~tau^-_1 -> chi^0_2 tau^-)
     3.80478638E-01    2     1000025        15   # BR(~tau^-_1 -> chi^0_3 tau^-)
     7.92965925E-03    2     1000035        15   # BR(~tau^-_1 -> chi^0_4 tau^-)
     2.72896504E-01    2    -1000024        16   # BR(~tau^-_1 -> chi^-_1 nu_tau)
     1.63459056E-02    2    -1000037        16   # BR(~tau^-_1 -> chi^-_2 nu_tau)
DECAY   2000015     1.73587672E+02   # ~tau^-_2
#    BR                NDA      ID1      ID2
     9.41401346E-02    2     1000022        15   # BR(~tau^-_2 -> chi^0_1 tau^-)
     9.31310208E-02    2     1000023        15   # BR(~tau^-_2 -> chi^0_2 tau^-)
     7.82224561E-02    2     1000025        15   # BR(~tau^-_2 -> chi^0_3 tau^-)
     2.40140853E-01    2     1000035        15   # BR(~tau^-_2 -> chi^0_4 tau^-)
     1.32317516E-03    2    -1000024        16   # BR(~tau^-_2 -> chi^-_1 nu_tau)
     4.93042361E-01    2    -1000037        16   # BR(~tau^-_2 -> chi^-_2 nu_tau)
#    BR                NDA      ID1      ID2       ID3
DECAY   1000012     1.43946816E+02   # ~nu_e
#    BR                NDA      ID1      ID2
     2.62636368E-03    2     1000022        12   # BR(~nu_e -> chi^0_1 nu_e)
     2.85812927E-03    2     1000023        12   # BR(~nu_e -> chi^0_2 nu_e)
     8.64384524E-02    2     1000025        12   # BR(~nu_e -> chi^0_3 nu_e)
     2.99572973E-01    2     1000035        12   # BR(~nu_e -> chi^0_4 nu_e)
     2.61463808E-02    2     1000024        11   # BR(~nu_e -> chi^+_1 e^-)
     5.82357701E-01    2     1000037        11   # BR(~nu_e -> chi^+_2 e^-)
#    BR                NDA      ID1      ID2       ID3
DECAY   1000014     1.44058760E+02   # ~nu_mu
#    BR                NDA      ID1      ID2
     2.62433209E-03    2     1000022        14   # BR(~nu_mu -> chi^0_1 nu_mu)
     2.85591840E-03    2     1000023        14   # BR(~nu_mu -> chi^0_2 nu_mu)
     8.63715896E-02    2     1000025        14   # BR(~nu_mu -> chi^0_3 nu_mu)
     2.99341256E-01    2     1000035        14   # BR(~nu_mu -> chi^0_4 nu_mu)
     2.68970569E-02    2     1000024        13   # BR(~nu_mu -> chi^+_1 mu^-)
     5.81909847E-01    2     1000037        13   # BR(~nu_mu -> chi^+_2 mu^-)
#    BR                NDA      ID1      ID2       ID3
DECAY   1000016     1.75643870E+02   # ~nu_tau
#    BR                NDA      ID1      ID2
     2.15456724E-03    2     1000022        16   # BR(~nu_tau -> chi^0_1 nu_tau)
     2.34469880E-03    2     1000023        16   # BR(~nu_tau -> chi^0_2 nu_tau)
     7.09109120E-02    2     1000025        16   # BR(~nu_tau -> chi^0_3 nu_tau)
     2.45761378E-01    2     1000035        16   # BR(~nu_tau -> chi^0_4 nu_tau)
     2.00475925E-01    2     1000024        15   # BR(~nu_tau -> chi^+_1 tau^-)
     4.78352519E-01    2     1000037        15   # BR(~nu_tau -> chi^+_2 tau^-)
#    BR                NDA      ID1      ID2       ID3
DECAY   2000001     4.76740943E+02   # ~d_R
#    BR                NDA      ID1      ID2
     1.10633253E-03    2     1000022         1   # BR(~d_R -> chi^0_1 d)
     1.05983434E-02    2     1000025         1   # BR(~d_R -> chi^0_3 d)
     9.88245581E-01    2     1000021         1   # BR(~d_R -> ~g d)
DECAY   1000001     6.07094235E+02   # ~d_L
#    BR                NDA      ID1      ID2
     1.04376755E-03    2     1000023         1   # BR(~d_L -> chi^0_2 d)
     2.72762607E-03    2     1000025         1   # BR(~d_L -> chi^0_3 d)
     7.10615262E-02    2     1000035         1   # BR(~d_L -> chi^0_4 d)
     4.93531046E-04    2    -1000024         2   # BR(~d_L -> chi^-_1 u)
     1.44570656E-01    2    -1000037         2   # BR(~d_L -> chi^-_2 u)
     7.80082717E-01    2     1000021         1   # BR(~d_L -> ~g d)
DECAY   2000003     4.76804170E+02   # ~s_R
#    BR                NDA      ID1      ID2
     1.13632560E-03    2     1000022         3   # BR(~s_R -> chi^0_1 s)
     1.05988617E-02    2     1000025         3   # BR(~s_R -> chi^0_3 s)
     9.88117463E-01    2     1000021         3   # BR(~s_R -> ~g s)
DECAY   1000003     6.07129924E+02   # ~s_L
#    BR                NDA      ID1      ID2
     1.06942931E-03    2     1000023         3   # BR(~s_L -> chi^0_2 s)
     2.72897109E-03    2     1000025         3   # BR(~s_L -> chi^0_3 s)
     7.10574996E-02    2     1000035         3   # BR(~s_L -> chi^0_4 s)
     4.99236257E-04    2    -1000024         4   # BR(~s_L -> chi^-_1 c)
     1.44562547E-01    2    -1000037         4   # BR(~s_L -> chi^-_2 c)
     7.80038417E-01    2     1000021         3   # BR(~s_L -> ~g s)
DECAY   1000005     4.03321915E+01   # ~b_1
#    BR                NDA      ID1      ID2
     2.29932063E-01    2     1000022         5   # BR(~b_1 -> chi^0_1 b)
     2.46115536E-01    2     1000023         5   # BR(~b_1 -> chi^0_2 b)
     4.20608609E-02    2     1000025         5   # BR(~b_1 -> chi^0_3 b)
     4.72652203E-04    2     1000035         5   # BR(~b_1 -> chi^0_4 b)
     4.80472825E-01    2    -1000024         6   # BR(~b_1 -> chi^-_1 t)
     9.46062257E-04    2    -1000037         6   # BR(~b_1 -> chi^-_2 t)
DECAY   2000005     1.04861117E+02   # ~b_2
#    BR                NDA      ID1      ID2
     9.58433962E-02    2     1000022         5   # BR(~b_2 -> chi^0_1 b)
     1.05407491E-01    2     1000023         5   # BR(~b_2 -> chi^0_2 b)
     1.02689135E-02    2     1000025         5   # BR(~b_2 -> chi^0_3 b)
     9.61326611E-02    2     1000035         5   # BR(~b_2 -> chi^0_4 b)
     4.76112813E-01    2    -1000024         6   # BR(~b_2 -> chi^-_1 t)
     2.16150799E-01    2    -1000037         6   # BR(~b_2 -> chi^-_2 t)
DECAY   2000002     4.93867921E+02   # ~u_R
#    BR                NDA      ID1      ID2
     4.27282195E-03    2     1000022         2   # BR(~u_R -> chi^0_1 u)
     1.88675257E-04    2     1000023         2   # BR(~u_R -> chi^0_2 u)
     4.09354922E-02    2     1000025         2   # BR(~u_R -> chi^0_3 u)
     9.54600604E-01    2     1000021         2   # BR(~u_R -> ~g u)
DECAY   1000002     6.07083668E+02   # ~u_L
#    BR                NDA      ID1      ID2
     1.15553717E-03    2     1000022         2   # BR(~u_L -> chi^0_1 u)
     1.48278364E-03    2     1000023         2   # BR(~u_L -> chi^0_2 u)
     1.52961973E-03    2     1000025         2   # BR(~u_L -> chi^0_3 u)
     7.06876936E-02    2     1000035         2   # BR(~u_L -> chi^0_4 u)
     6.23439048E-03    2     1000024         1   # BR(~u_L -> chi^+_1 d)
     1.38865616E-01    2     1000037         1   # BR(~u_L -> chi^+_2 d)
     7.80044359E-01    2     1000021         2   # BR(~u_L -> ~g u)
DECAY   2000004     4.93875325E+02   # ~c_R
#    BR                NDA      ID1      ID2
     4.27596156E-03    2     1000022         4   # BR(~c_R -> chi^0_1 c)
     1.92160413E-04    2     1000023         4   # BR(~c_R -> chi^0_2 c)
     4.09353866E-02    2     1000025         4   # BR(~c_R -> chi^0_3 c)
     9.54586584E-01    2     1000021         4   # BR(~c_R -> ~g c)
DECAY   1000004     6.07119264E+02   # ~c_L
#    BR                NDA      ID1      ID2
     1.15808285E-03    2     1000022         4   # BR(~c_L -> chi^0_1 c)
     1.48554195E-03    2     1000023         4   # BR(~c_L -> chi^0_2 c)
     1.52993885E-03    2     1000025         4   # BR(~c_L -> chi^0_3 c)
     7.06837308E-02    2     1000035         4   # BR(~c_L -> chi^0_4 c)
     6.28489383E-03    2     1000024         3   # BR(~c_L -> chi^+_1 s)
     1.38857767E-01    2     1000037         3   # BR(~c_L -> chi^+_2 s)
     7.80000045E-01    2     1000021         4   # BR(~c_L -> ~g c)
DECAY   1000006     1.05423108E+02   # ~t_1
#    BR                NDA      ID1      ID2
     2.87993114E-04    2     1000022         4   # BR(~t_1 -> chi^0_1 c)
     2.20325345E-01    2     1000022         6   # BR(~t_1 -> chi^0_1 t)
     3.69515832E-04    2     1000023         4   # BR(~t_1 -> chi^0_2 c)
     2.29363122E-01    2     1000023         6   # BR(~t_1 -> chi^0_2 t)
     2.53011214E-02    2     1000025         6   # BR(~t_1 -> chi^0_3 t)
     1.07619317E-01    2     1000035         6   # BR(~t_1 -> chi^0_4 t)
     1.97460087E-01    2     1000024         5   # BR(~t_1 -> chi^+_1 b)
     2.00425506E-01    2     1000037         5   # BR(~t_1 -> chi^+_2 b)
#    BR                NDA      ID1      ID2       ID3
     1.88065815E-02    3     1000022        24         5   # BR(~t_1 -> chi^0_1 W^+ b)
DECAY   2000006     1.89970567E+02   # ~t_2
#    BR                NDA      ID1      ID2
     1.47211142E-01    2     1000022         6   # BR(~t_2 -> chi^0_1 t)
     1.64308267E-01    2     1000023         6   # BR(~t_2 -> chi^0_2 t)
     6.28296918E-02    2     1000025         6   # BR(~t_2 -> chi^0_3 t)
     1.37614017E-03    2     1000035         6   # BR(~t_2 -> chi^0_4 t)
     3.34992922E-01    2     1000024         5   # BR(~t_2 -> chi^+_1 b)
     2.51229569E-03    2     1000037         5   # BR(~t_2 -> chi^+_2 b)
     1.27231057E-01    2     2000005        24   # BR(~t_2 -> ~b_2 W^+)
     6.70220286E-02    2     1000006        23   # BR(~t_2 -> ~t_1 Z)
     9.24797622E-02    2     1000006        25   # BR(~t_2 -> ~t_1 h^0)
DECAY   1000024     5.98887482E-10   # chi^+_1
#    BR                NDA      ID1      ID2       ID3
     2.90390635E-01    3     1000022        -1         2   # BR(chi^+_1 -> chi^0_1 d_bar u)
     1.44834149E-01    3     1000022        -3         4   # BR(chi^+_1 -> chi^0_1 s_bar c)
     9.67965113E-02    3     1000022       -11        12   # BR(chi^+_1 -> chi^0_1 e^+ nu_e)
     9.63172285E-02    3     1000022       -13        14   # BR(chi^+_1 -> chi^0_1 mu^+ nu_mu)
     2.38504363E-02    3     1000022       -15        16   # BR(chi^+_1 -> chi^0_1 tau^+ nu_tau)
     1.81681948E-01    3     1000023        -1         2   # BR(chi^+_1 -> chi^0_2 d_bar u)
     4.32205026E-02    3     1000023        -3         4   # BR(chi^+_1 -> chi^0_2 s_bar c)
     6.05623139E-02    3     1000023       -11        12   # BR(chi^+_1 -> chi^0_2 e^+ nu_e)
     5.99722956E-02    3     1000023       -13        14   # BR(chi^+_1 -> chi^0_2 mu^+ nu_mu)
     2.37397962E-03    3     1000023       -15        16   # BR(chi^+_1 -> chi^0_2 tau^+ nu_tau)
DECAY   1000037     4.87111082E+00   # chi^+_2
#    BR                NDA      ID1      ID2
     2.42747247E-01    2     1000022        24   # BR(chi^+_2 -> chi^0_1 W^+)
     2.64274635E-01    2     1000023        24   # BR(chi^+_2 -> chi^0_2 W^+)
     1.57167787E-02    2     1000025        24   # BR(chi^+_2 -> chi^0_3 W^+)
     2.49858611E-01    2     1000024        23   # BR(chi^+_2 -> chi^+_1 Z)
     2.24522036E-01    2     1000024        25   # BR(chi^+_2 -> chi^+_1 h^0)
#    BR                NDA      ID1      ID2       ID3
     1.87239145E-04    3     1000024         6        -6   # BR(chi^+_2 -> chi^+_1 t t_bar)
     1.20985992E-03    3     1000022        -5         6   # BR(chi^+_2 -> chi^0_1 b_bar t)
     1.44667825E-03    3     1000023        -5         6   # BR(chi^+_2 -> chi^0_2 b_bar t)
DECAY   1000022     0.00000000E+00   # chi^0_1
DECAY   1000023     9.72634192E-11   # chi^0_2
#    BR                NDA      ID1      ID2
     1.23758268E-02    2     1000022       111   # BR(chi^0_2 -> chi^0_1 pi^0)
     9.80556517E-01    2     1000022        22   # BR(chi^0_2 -> chi^0_1 photon)
#    BR                NDA      ID1      ID2       ID3
     9.10200572E-04    3     1000022        11       -11   # BR(chi^0_2 -> chi^0_1 e^- e^+)
     7.63844689E-04    3     1000022        13       -13   # BR(chi^0_2 -> chi^0_1 mu^- mu^+)
     5.39361056E-03    3     1000022        12       -12   # BR(chi^0_2 -> chi^0_1 nu_e nu_bar_e)
DECAY   1000025     3.42247012E-01   # chi^0_3
#    BR                NDA      ID1      ID2
     1.75790026E-01    2     1000024       -24   # BR(chi^0_3 -> chi^+_1 W^-)
     1.75790026E-01    2    -1000024        24   # BR(chi^0_3 -> chi^-_1 W^+)
     2.17247639E-02    2     1000022        23   # BR(chi^0_3 -> chi^0_1 Z)
     6.26628398E-01    2     1000023        23   # BR(chi^0_3 -> chi^0_2 Z)
#    BR                NDA      ID1      ID2       ID3
DECAY   1000035     5.73285453E+00   # chi^0_4
#    BR                NDA      ID1      ID2
     2.32605072E-01    2     1000024       -24   # BR(chi^0_4 -> chi^+_1 W^-)
     2.32605072E-01    2    -1000024        24   # BR(chi^0_4 -> chi^-_1 W^+)
     1.59608534E-01    2     1000022        23   # BR(chi^0_4 -> chi^0_1 Z)
     5.26226158E-02    2     1000023        23   # BR(chi^0_4 -> chi^0_2 Z)
     1.33564152E-02    2     1000025        23   # BR(chi^0_4 -> chi^0_3 Z)
     1.54167306E-01    2     1000022        25   # BR(chi^0_4 -> chi^0_1 h^0)
     1.39582544E-01    2     1000023        25   # BR(chi^0_4 -> chi^0_2 h^0)
     1.21499064E-02    2     1000025        25   # BR(chi^0_4 -> chi^0_3 h^0)
#    BR                NDA      ID1      ID2       ID3
     1.58155445E-03    3     1000024         5        -6   # BR(chi^0_4 -> chi^+_1 b t_bar)
     1.58155445E-03    3    -1000024        -5         6   # BR(chi^0_4 -> chi^-_1 b_bar t)
DECAY   1000021     2.82894146E+02   # ~g
#    BR                NDA      ID1      ID2
     2.18004482E-02    2     1000006        -4   # BR(~g -> ~t_1 c_bar)
     2.18004482E-02    2    -1000006         4   # BR(~g -> ~t^*_1 c)
     1.23186504E-01    2     1000006        -6   # BR(~g -> ~t_1 t_bar)
     1.23186504E-01    2    -1000006         6   # BR(~g -> ~t^*_1 t)
     8.35674379E-02    2     2000006        -6   # BR(~g -> ~t_2 t_bar)
     8.35674379E-02    2    -2000006         6   # BR(~g -> ~t^*_2 t)
     1.45068752E-01    2     1000005        -5   # BR(~g -> ~b_1 b_bar)
     1.45068752E-01    2    -1000005         5   # BR(~g -> ~b^*_1 b)
     1.26325521E-01    2     2000005        -5   # BR(~g -> ~b_2 b_bar)
     1.26325521E-01    2    -2000005         5   # BR(~g -> ~b^*_2 b)
#    BR                NDA      ID1      ID2       ID3
DECAY        25     4.01006537E-03   # Gamma(h0)
     2.33192862E-03   2        22        22   # BR(h0 -> photon photon)
     1.56510890E-03   2        22        23   # BR(h0 -> photon Z)
     2.99111375E-02   2        23        23   # BR(h0 -> Z Z)
     2.42772988E-01   2       -24        24   # BR(h0 -> W W)
     7.16730547E-02   2        21        21   # BR(h0 -> gluon gluon)
     5.02348677E-09   2       -11        11   # BR(h0 -> Electron electron)
     2.23454167E-04   2       -13        13   # BR(h0 -> Muon muon)
     6.44310809E-02   2       -15        15   # BR(h0 -> Tau tau)
     1.41890522E-07   2        -2         2   # BR(h0 -> Up up)
     2.75348056E-02   2        -4         4   # BR(h0 -> Charm charm)
     5.80754352E-07   2        -1         1   # BR(h0 -> Down down)
     2.10045788E-04   2        -3         3   # BR(h0 -> Strange strange)
     5.59345668E-01   2        -5         5   # BR(h0 -> Bottom bottom)
DECAY        35     7.44645649E+01   # Gamma(HH)
     6.04343915E-08   2        22        22   # BR(HH -> photon photon)
     1.28862570E-07   2        22        23   # BR(HH -> photon Z)
     3.77205710E-07   2        23        23   # BR(HH -> Z Z)
     1.65379988E-07   2       -24        24   # BR(HH -> W W)
     8.76397428E-06   2        21        21   # BR(HH -> gluon gluon)
     7.75106622E-09   2       -11        11   # BR(HH -> Electron electron)
     3.45086299E-04   2       -13        13   # BR(HH -> Muon muon)
     9.96608531E-02   2       -15        15   # BR(HH -> Tau tau)
     5.43838556E-14   2        -2         2   # BR(HH -> Up up)
     1.05488343E-08   2        -4         4   # BR(HH -> Charm charm)
     7.35645312E-04   2        -6         6   # BR(HH -> Top top)
     5.85085685E-07   2        -1         1   # BR(HH -> Down down)
     2.11629135E-04   2        -3         3   # BR(HH -> Strange strange)
     5.35091307E-01   2        -5         5   # BR(HH -> Bottom bottom)
     1.21820367E-02   2  -1000024   1000024   # BR(HH -> Chargino1 chargino1)
     1.03466267E-01   2  -1000024   1000037   # BR(HH -> Chargino1 chargino2)
     1.03466267E-01   2  -1000037   1000024   # BR(HH -> Chargino2 chargino1)
     7.85589616E-04   2  -1000037   1000037   # BR(HH -> Chargino2 chargino2)
     1.48605132E-03   2   1000022   1000022   # BR(HH -> neutralino1 neutralino1)
     1.94385951E-03   2   1000022   1000023   # BR(HH -> neutralino1 neutralino2)
     1.72528279E-02   2   1000022   1000025   # BR(HH -> neutralino1 neutralino3)
     5.40636245E-02   2   1000022   1000035   # BR(HH -> neutralino1 neutralino4)
     5.82164015E-04   2   1000023   1000023   # BR(HH -> neutralino2 neutralino2)
     1.42633349E-02   2   1000023   1000025   # BR(HH -> neutralino2 neutralino3)
     4.93167194E-02   2   1000023   1000035   # BR(HH -> neutralino2 neutralino4)
     1.39708847E-03   2   1000025   1000025   # BR(HH -> neutralino3 neutralino3)
     3.34016670E-03   2   1000025   1000035   # BR(HH -> neutralino3 neutralino4)
     3.97512014E-04   2   1000035   1000035   # BR(HH -> neutralino4 neutralino4)
     1.87066614E-06   2        25        25   # BR(HH -> h0 h0)
DECAY        36     7.18133331E+01   # Gamma(A0)
     2.27528927E-09   2        22        22   # BR(A0 -> photon photon)
     4.43213910E-08   2        22        23   # BR(A0 -> photon Z)
     1.66810902E-05   2        21        21   # BR(A0 -> gluon gluon)
     7.58540248E-09   2       -11        11   # BR(A0 -> Electron electron)
     3.37710349E-04   2       -13        13   # BR(A0 -> Muon muon)
     9.75309421E-02   2       -15        15   # BR(A0 -> Tau tau)
     5.06680018E-14   2        -2         2   # BR(A0 -> Up up)
     9.82748923E-09   2        -4         4   # BR(A0 -> Charm charm)
     7.01829904E-04   2        -6         6   # BR(A0 -> Top top)
     5.72551114E-07   2        -1         1   # BR(A0 -> Down down)
     2.07095652E-04   2        -3         3   # BR(A0 -> Strange strange)
     5.23636757E-01   2        -5         5   # BR(A0 -> Bottom bottom)
     1.25645411E-02   2  -1000024   1000024   # BR(A0 -> Chargino1 chargino1)
     1.07409420E-01   2  -1000024   1000037   # BR(A0 -> Chargino1 chargino2)
     1.07409420E-01   2  -1000037   1000024   # BR(A0 -> Chargino2 chargino1)
     7.51398237E-04   2  -1000037   1000037   # BR(A0 -> Chargino2 chargino2)
     1.43039598E-03   2   1000022   1000022   # BR(A0 -> neutralino1 neutralino1)
     2.00621630E-03   2   1000022   1000023   # BR(A0 -> neutralino1 neutralino2)
     1.54614376E-02   2   1000022   1000025   # BR(A0 -> neutralino1 neutralino3)
     5.51004230E-02   2   1000022   1000035   # BR(A0 -> neutralino1 neutralino4)
     6.81298643E-04   2   1000023   1000023   # BR(A0 -> neutralino2 neutralino2)
     1.69241667E-02   2   1000023   1000025   # BR(A0 -> neutralino2 neutralino3)
     5.23096774E-02   2   1000023   1000035   # BR(A0 -> neutralino2 neutralino4)
     1.81655980E-03   2   1000025   1000025   # BR(A0 -> neutralino3 neutralino3)
     3.31974012E-03   2   1000025   1000035   # BR(A0 -> neutralino3 neutralino4)
     3.83102919E-04   2   1000035   1000035   # BR(A0 -> neutralino4 neutralino4)
     5.48987754E-07   2        23        25   # BR(A0 -> Z h0)
     1.68874310E-39   2        25        25   # BR(A0 -> h0 h0)
DECAY        37     7.35022590E+01   # Gamma(Hp)
     8.18315205E-09   2       -11        12   # BR(Hp -> Electron nu_e)
     3.49855308E-04   2       -13        14   # BR(Hp -> Muon nu_mu)
     9.89589254E-02   2       -15        16   # BR(Hp -> Tau nu_tau)
     5.35228490E-07   2        -1         2   # BR(Hp -> Down up)
     9.00638841E-06   2        -3         2   # BR(Hp -> Strange up)
     5.62814025E-06   2        -5         2   # BR(Hp -> Bottom up)
     2.53911483E-08   2        -1         4   # BR(Hp -> Down charm)
     1.92907954E-04   2        -3         4   # BR(Hp -> Strange charm)
     7.88140811E-04   2        -5         4   # BR(Hp -> Bottom charm)
     5.16798096E-08   2        -1         6   # BR(Hp -> Down top)
     1.41012772E-06   2        -3         6   # BR(Hp -> Strange top)
     5.31268931E-01   2        -5         6   # BR(Hp -> Bottom top)
     1.53862977E-03   2   1000022   1000024   # BR(Hp -> neutralino1 chargino1)
     1.14388030E-01   2   1000022   1000037   # BR(Hp -> neutralino1 chargino2)
     1.04082634E-02   2   1000023   1000024   # BR(Hp -> neutralino2 chargino1)
     1.00534766E-01   2   1000023   1000037   # BR(Hp -> neutralino2 chargino2)
     2.74594970E-02   2   1000024   1000025   # BR(Hp -> chargino1 neutralino3)
     6.56849185E-03   2   1000025   1000037   # BR(Hp -> neutralino3 chargino2)
     1.07526336E-01   2   1000024   1000035   # BR(Hp -> chargino1 neutralino4)
     2.14520046E-08   2   1000035   1000037   # BR(Hp -> neutralino4 chargino2)
     5.38347863E-07   2        24        25   # BR(Hp -> W h0)
     3.39448877E-12   2        24        35   # BR(Hp -> W HH)
     5.41760141E-13   2        24        36   # BR(Hp -> W A0)
DECAY         6     2.43000000E+00   # top
#    BR                NDA      ID1      ID2
     1.00000000E+00    2           5        24   # BR(t -> b W)
Block HiggsBoundsInputHiggsCouplingsFermions
# ScalarNormEffCoupSq PseudoSNormEffCoupSq NP IP1 IP2 IP2
    9.59120271E-01    0.00000000E+00        3  25   5   5  # h0-b-b eff. coupling^2, normalised to SM
    1.51257124E+03    0.00000000E+00        3  35   5   5  # H0-b-b eff. coupling^2, normalised to SM
    0.00000000E+00    1.51253036E+03        3  36   5   5  # A0-b-b eff. coupling^2, normalised to SM
#
    1.00002703E+00    0.00000000E+00        3  25   6   6  # h0-t-t eff. coupling^2, normalised to SM
    6.34116376E-04    0.00000000E+00        3  35   6   6  # H0-t-t eff. coupling^2, normalised to SM
    0.00000000E+00    6.61143753E-04        3  36   6   6  # A0-t-t eff. coupling^2, normalised to SM
#
    9.59120271E-01    0.00000000E+00        3  25  15  15  # h0-tau-tau eff. coupling^2, normalised to SM
    1.51257124E+03    0.00000000E+00        3  35  15  15  # H0-tau-tau eff. coupling^2, normalised to SM
    0.00000000E+00    1.51253036E+03        3  36  15  15  # A0-tau-tau eff. coupling^2, normalised to SM
#
Block HiggsBoundsInputHiggsCouplingsBosons
    9.99999718E-01        3  25  24  24  # h0-W-W eff. coupling^2, normalised to SM
    2.82008487E-07        3  35  24  24  # H0-W-W eff. coupling^2, normalised to SM
    0.00000000E+00        3  36  24  24  # A0-W-W eff. coupling^2, normalised to SM
#
    9.99999718E-01        3  25  23  23  # h0-Z-Z eff. coupling^2, normalised to SM
    2.82008487E-07        3  35  23  23  # H0-Z-Z eff. coupling^2, normalised to SM
    0.00000000E+00        3  36  23  23  # A0-Z-Z eff. coupling^2, normalised to SM
#
    1.25943424E+00        3  25  21  21  # h0-g-g eff. coupling^2, normalised to SM
    8.60036326E-03        3  35  21  21  # H0-g-g eff. coupling^2, normalised to SM
    1.26923232E-01        3  36  21  21  # A0-g-g eff. coupling^2, normalised to SM
#
    0.00000000E+00        3  25  25  23  # h0-h0-Z eff. coupling^2, normalised to SM
    0.00000000E+00        3  35  25  23  # H0-h0-Z eff. coupling^2, normalised to SM
    2.82008487E-07        3  36  25  23  # A0-h0-Z eff. coupling^2, normalised to SM
    0.00000000E+00        3  35  35  23  # H0-H0-Z eff. coupling^2, normalised to SM
    9.99999718E-01        3  36  35  23  # A0-H0-Z eff. coupling^2, normalised to SM
    0.00000000E+00        3  36  36  23  # A0-A0-Z eff. coupling^2, normalised to SM
#
    0.00000000E+00        4  25  21  21  23  # h0-g-g-Z eff. coupling^2, normalised to SM
    0.00000000E+00        4  35  21  21  23  # H0-g-g-Z eff. coupling^2, normalised to SM
    0.00000000E+00        4  36  21  21  23  # A0-g-g-Z eff. coupling^2, normalised to SM
Block SPhenoLowEnergy  # low energy observables
    1    3.15245756E-04   # BR(b -> s gamma)
    2    1.59071162E-06   # BR(b -> s mu+ mu-)
    3    3.52467194E-05   # BR(b -> s nu nu)
    4    3.11670808E-15   # BR(Bd -> e+ e-)
    5    1.33140635E-10   # BR(Bd -> mu+ mu-)
    6    2.77789606E-08   # BR(Bd -> tau+ tau-)
    7    1.04236497E-13   # BR(Bs -> e+ e-)
    8    4.45292960E-09   # BR(Bs -> mu+ mu-)
    9    9.41548365E-07   # BR(Bs -> tau+ tau-)
   10    9.51838718E-05   # BR(B_u -> tau nu)
   11    9.83212954E-01   # BR(B_u -> tau nu)/BR(B_u -> tau nu)_SM
   12    5.41940679E-01   # |Delta(M_Bd)| [ps^-1] 
   13    1.93534236E+01   # |Delta(M_Bs)| [ps^-1] 
   14    0.00000000E+00   # neutron EDM according to the chiral quark model
   15    0.00000000E+00   # neutron EDM according to the relativistic quark-parton model
   16    2.15731091E-03   # epsilon_K
   17    2.28165999E-15   # Delta(M_K)
   18    2.47987153E-11   # BR(K^0 -> pi^0 nu nu)
   19    8.29008363E-11   # BR(K^+ -> pi^+ nu nu)
   20   -3.47918888E-16   # Delta(g-2)_electron/2
   21   -1.48747459E-11   # Delta(g-2)_muon/2
   22   -4.21726682E-09   # Delta(g-2)_tau/2
   23    0.00000000E+00   # electric dipole moment of the electron
   24    0.00000000E+00   # electric dipole moment of the muon
   25    0.00000000E+00   # electric dipole moment of the tau
   26    0.00000000E+00   # Br(mu -> e gamma)
   27    0.00000000E+00   # Br(tau -> e gamma)
   28    0.00000000E+00   # Br(tau -> mu gamma)
   29    0.00000000E+00   # Br(mu -> 3 e)
   30    0.00000000E+00   # Br(tau -> 3 e)
   31    0.00000000E+00   # Br(tau -> 3 mu)
   39    6.81108561E-05   # Delta(rho_parameter)
   40    0.00000000E+00   # BR(Z -> e mu)
   41    0.00000000E+00   # BR(Z -> e tau)
   42    0.00000000E+00   # BR(Z -> mu tau)
Block FWCOEF Q=  1.60000000E+02  # Wilson coefficients at scale Q
#    id        order  M        value         comment
     0305 4422   00   0    -1.88819110E-01   # C7
     0305 4422   00   2    -1.80827569E-01   # C7
     0305 4322   00   2    -1.20647893E-04   # C7'
     0305 6421   00   0    -9.52278348E-02   # C8
     0305 6421   00   2    -9.95584098E-02   # C8
     0305 6321   00   2    -2.28987269E-04   # C8'
 03051111 4133   00   0     1.61526915E+00   # C9 e+e-
 03051111 4133   00   2     1.61556985E+00   # C9 e+e-
 03051111 4233   00   2     3.33109935E-04   # C9' e+e-
 03051111 4137   00   0    -4.43796125E+00   # C10 e+e-
 03051111 4137   00   2    -4.43580611E+00   # C10 e+e-
 03051111 4237   00   2    -2.50578781E-03   # C10' e+e-
 03051313 4133   00   0     1.61526915E+00   # C9 mu+mu-
 03051313 4133   00   2     1.61556972E+00   # C9 mu+mu-
 03051313 4233   00   2     3.33109067E-04   # C9' mu+mu-
 03051313 4137   00   0    -4.43796125E+00   # C10 mu+mu-
 03051313 4137   00   2    -4.43580625E+00   # C10 mu+mu-
 03051313 4237   00   2    -2.50578735E-03   # C10' mu+mu-
 03051212 4137   00   0     1.50535012E+00   # C11 nu_1 nu_1
 03051212 4137   00   2     1.50488461E+00   # C11 nu_1 nu_1
 03051212 4237   00   2     5.43239085E-04   # C11' nu_1 nu_1
 03051414 4137   00   0     1.50535012E+00   # C11 nu_2 nu_2
 03051414 4137   00   2     1.50488461E+00   # C11 nu_2 nu_2
 03051414 4237   00   2     5.43239251E-04   # C11' nu_2 nu_2
 03051616 4137   00   0     1.50535012E+00   # C11 nu_3 nu_3
 03051616 4137   00   2     1.50488461E+00   # C11 nu_3 nu_3
 03051616 4237   00   2     5.43285972E-04   # C11' nu_3 nu_3
Block IMFWCOEF Q=  1.60000000E+02  # Im(Wilson coefficients) at scale Q
#    id        order  M        value         comment
     0305 4422   00   0     3.85830840E-07   # C7
     0305 4422   00   2    -7.51276827E-06   # C7
     0305 4322   00   2     1.44037198E-06   # C7'
     0305 6421   00   0     3.30489631E-07   # C8
     0305 6421   00   2    -7.81455217E-06   # C8
     0305 6321   00   2     4.63964527E-07   # C8'
 03051111 4133   00   2     2.49343287E-07   # C9 e+e-
 03051111 4233   00   2     7.03642302E-06   # C9' e+e-
 03051111 4137   00   2     3.59995036E-06   # C10 e+e-
 03051111 4237   00   2    -5.29376139E-05   # C10' e+e-
 03051313 4133   00   2     2.49339911E-07   # C9 mu+mu-
 03051313 4233   00   2     7.03642120E-06   # C9' mu+mu-
 03051313 4137   00   2     3.59995423E-06   # C10 mu+mu-
 03051313 4237   00   2    -5.29376194E-05   # C10' mu+mu-
 03051212 4137   00   2    -7.49830197E-07   # C11 nu_1 nu_1
 03051212 4237   00   2     1.14765456E-05   # C11' nu_1 nu_1
 03051414 4137   00   2    -7.49830015E-07   # C11 nu_2 nu_2
 03051414 4237   00   2     1.14765456E-05   # C11' nu_2 nu_2
 03051616 4137   00   2    -7.49779287E-07   # C11 nu_3 nu_3
 03051616 4237   00   2     1.14765455E-05   # C11' nu_3 nu_3
