# SUSY Les Houches Accord 2 - MSSM spectrum + Decays
# SPheno v4.0.5be
# W. Porod, Comput. Phys. Commun. 153 (2003) 275-315, hep-ph/0301101;
# W. Porod, F.~Staub, Comput. Phys. Commun. 183 (2012) 2458
#                     arXiv:1104.1573 [hep-ph] 
# in case of problems send email to porod@physik.uni-wuerzburg.de
# Created: 20.12.2022,  16:15
Block SPINFO         # Program information
     1   SPheno      # spectrum calculator
     2   v4.0.5be    # version number
#
Block SPhenoINFO     # SPheno specific information
    1      2         # using 2-loop RGEs
    2      2         # using pole masses for boundary conditions at mZ
Block MODSEL  # Model selection
    1    0    # general MSSM
Block MINPAR  # Input parameters
    3    4.39341956E+01  # tanb at m_Z    
    4    1.00000000E+00  # Sign(mu)
Block EXTPAR  # non-universal input parameters
    0    4.55780621E+03  # scale for input parameters
    1    4.91733043E+02  # M_1
    2    8.22496893E+02  # M_2
    3    3.68449548E+03  # M_3
   11   -3.43001237E+03  # A_t
   12   -1.39095992E+03  # A_b
   13    1.54066381E+03  # A_tau
   23    2.28517618E+02  # mu
   25    4.29286190E+01  # tan(beta)
   26    3.92598017E+03  # m_A, pole mass
   31    1.00000000E+04  # M_L11
   32    1.00000000E+04  # M_L22
   33    1.00000000E+04  # M_L33
   34    1.00000000E+04  # M_E11
   35    1.00000000E+04  # M_E22
   36    1.00000000E+04  # M_E33
   41    1.00000000E+04  # M_Q11
   42    1.00000000E+04  # M_Q22
   43    4.08138009E+03  # M_Q33
   44    1.00000000E+04  # M_U11
   45    1.00000000E+04  # M_U22
   46    4.94133042E+03  # M_U33
   47    1.00000000E+04  # M_D11
   48    1.00000000E+04  # M_D22
   49    3.32810475E+03  # M_D33
Block SMINPUTS  # SM parameters
         1     1.27908970E+02  # alpha_em^-1(MZ)^MSbar
         2     1.16637870E-05  # G_mu [GeV^-2]
         3     1.18400000E-01  # alpha_s(MZ)^MSbar
         4     9.11876000E+01  # m_Z(pole)
         5     4.18000000E+00  # m_b(m_b), MSbar
         6     1.73200000E+02  # m_t(pole)
         7     1.77700000E+00  # m_tau(pole)
         8     0.00000000E+00  # m_nu_3
        11     5.10998930E-04  # m_e(pole)
        12     0.00000000E+00  # m_nu_1
        13     1.05658372E-01  # m_muon(pole)
        14     0.00000000E+00  # m_nu_2
        21     5.00000000E-03  # m_d(2 GeV), MSbar
        22     2.50000000E-03  # m_u(2 GeV), MSbar
        23     9.50000000E-02  # m_s(2 GeV), MSbar
        24     1.27000000E+00  # m_c(m_c), MSbar
Block gauge Q=  4.55780621E+03  # (SUSY scale)
   1    3.55362975E-01  # g'(Q)^DRbar
   2    6.65198874E-01  # g(Q)^DRbar
   3    1.21977796E+00  # g3(Q)^DRbar
Block Yu Q=  4.55780621E+03  # (SUSY scale)
  1  1     8.38664664E-06   # Y_u(Q)^DRbar
  2  2     4.26041649E-03   # Y_c(Q)^DRbar
  3  3     1.01317428E+00   # Y_t(Q)^DRbar
Block Yd Q=  4.55780621E+03  # (SUSY scale)
  1  1     7.23461643E-04   # Y_d(Q)^DRbar
  2  2     1.37457712E-02   # Y_s(Q)^DRbar
  3  3     7.17447250E-01   # Y_b(Q)^DRbar
Block Ye Q=  4.55780621E+03  # (SUSY scale)
  1  1     1.26249347E-04   # Y_e(Q)^DRbar
  2  2     2.61043609E-02   # Y_mu(Q)^DRbar
  3  3     4.39032406E-01   # Y_tau(Q)^DRbar
Block Au Q=  4.55780621E+03  # (SUSY scale)
  1  1     0.00000000E+00   # A_u(Q)^DRbar
  2  2     0.00000000E+00   # A_c(Q)^DRbar
  3  3    -3.43001365E+03   # A_t(Q)^DRbar
Block Ad Q=  4.55780621E+03  # (SUSY scale)
  1  1     0.00000000E+00   # A_d(Q)^DRbar
  2  2     0.00000000E+00   # A_s(Q)^DRbar
  3  3    -1.39095965E+03   # A_b(Q)^DRbar
Block Ae Q=  4.55780621E+03  # (SUSY scale)
  1  1     0.00000000E+00   # A_e(Q)^DRbar
  2  2     0.00000000E+00   # A_mu(Q)^DRbar
  3  3     1.54066363E+03   # A_tau(Q)^DRbar
Block MSOFT Q=  4.55780621E+03  # soft SUSY breaking masses at Q
   1    4.91733043E+02  # M_1
   2    8.22496893E+02  # M_2
   3    3.68449548E+03  # M_3
  21    1.56311914E+07  # M^2_(H,d)
  22    4.06820264E+05  # M^2_(H,u)
  31    1.00000000E+04  # M_(L,11)
  32    1.00000000E+04  # M_(L,22)
  33    1.00000000E+04  # M_(L,33)
  34    1.00000000E+04  # M_(E,11)
  35    1.00000000E+04  # M_(E,22)
  36    1.00000000E+04  # M_(E,33)
  41    1.00000000E+04  # M_(Q,11)
  42    1.00000000E+04  # M_(Q,22)
  43    4.08138009E+03  # M_(Q,33)
  44    1.00000000E+04  # M_(U,11)
  45    1.00000000E+04  # M_(U,22)
  46    4.94133042E+03  # M_(U,33)
  47    1.00000000E+04  # M_(D,11)
  48    1.00000000E+04  # M_(D,22)
  49    3.32810475E+03  # M_(D,33)
Block MASS  # Mass spectrum
#   PDG code      mass          particle
         6     1.73200000E+02  # m_t(pole)
        23     9.11876000E+01  # m_Z(pole)
        24     8.04299946E+01  # W+
        15     1.77700000E+00  # m_tau(pole)
        25     1.24281606E+02  # h0
        35     3.92455416E+03  # H0
        36     3.92598017E+03  # A0
        37     3.92390408E+03  # H+
   1000001     1.01117300E+04  # ~d_L
   2000001     1.00870603E+04  # ~d_R
   1000002     1.01113652E+04  # ~u_L
   2000002     1.00895970E+04  # ~u_R
   1000003     1.01117301E+04  # ~s_L
   2000003     1.00870604E+04  # ~s_R
   1000004     1.01113653E+04  # ~c_L
   2000004     1.00895972E+04  # ~c_R
   1000005     3.45819327E+03  # ~b_1
   2000005     4.17714560E+03  # ~b_2
   1000006     4.17462017E+03  # ~t_1
   2000006     4.97616468E+03  # ~t_2
   1000011     1.00209804E+04  # ~e_L-
   2000011     1.00095245E+04  # ~e_R-
   1000012     1.00202100E+04  # ~nu_eL
   1000013     1.00209805E+04  # ~mu_L-
   2000013     1.00095241E+04  # ~mu_R-
   1000014     1.00202099E+04  # ~nu_muL
   1000015     1.00095870E+04  # ~tau_1-
   2000015     1.00210876E+04  # ~tau_2-
   1000016     1.00202751E+04  # ~nu_tauL
   1000021     4.19659997E+03  # ~g
   1000022     2.40961563E+02  # ~chi_10
   1000023     2.54020484E+02  # ~chi_20
   1000025     4.98826312E+02  # ~chi_30
   1000035     8.95208753E+02  # ~chi_40
   1000024     2.47701585E+02  # ~chi_1+
   1000037     8.95203245E+02  # ~chi_2+
# Higgs mixing
Block alpha # Effective Higgs mixing angle
          -2.27951134E-02   # alpha
Block Hmix Q=  4.55780621E+03  # Higgs mixing parameters
   1    2.28517618E+02  # mu
   2    4.29286190E+01  # tan[beta](Q)
   3    2.42812105E+02  # v(Q)
   4    1.54133203E+07  # m^2_A(Q)
Block stopmix # stop mixing matrix
   1  1     9.97664937E-01   # Re[R_st(1,1)]
   1  2     6.82984209E-02   # Re[R_st(1,2)]
   2  1    -6.82984209E-02   # Re[R_st(2,1)]
   2  2     9.97664937E-01   # Re[R_st(2,2)]
Block sbotmix # sbottom mixing matrix
   1  1     4.09147277E-03   # Re[R_sb(1,1)]
   1  2     9.99991630E-01   # Re[R_sb(1,2)]
   2  1    -9.99991630E-01   # Re[R_sb(2,1)]
   2  2     4.09147277E-03   # Re[R_sb(2,2)]
Block staumix # stau mixing matrix
   1  1     6.22706801E-02   # Re[R_sta(1,1)]
   1  2     9.98059298E-01   # Re[R_sta(1,2)]
   2  1    -9.98059298E-01   # Re[R_sta(2,1)]
   2  2     6.22706801E-02   # Re[R_sta(2,2)]
Block Nmix # neutralino mixing matrix
   1  1    -1.23078065E-01   # Re[N(1,1)]
   1  2     8.69840850E-02   # Re[N(1,2)]
   1  3    -7.11264422E-01   # Re[N(1,3)]
   1  4     6.86577367E-01   # Re[N(1,4)]
   2  1    -4.11047580E-02   # Re[N(2,1)]
   2  2     4.91905615E-02   # Re[N(2,2)]
   2  3     6.99846963E-01   # Re[N(2,3)]
   2  4     7.11410511E-01   # Re[N(2,4)]
   3  1     9.91482456E-01   # Re[N(3,1)]
   3  2     2.40415675E-02   # Re[N(3,2)]
   3  3    -5.89521062E-02   # Re[N(3,3)]
   3  4     1.13618620E-01   # Re[N(3,4)]
   4  1    -1.11681397E-02   # Re[N(4,1)]
   4  2     9.94704007E-01   # Re[N(4,2)]
   4  3     2.90137777E-02   # Re[N(4,3)]
   4  4    -9.79663856E-02   # Re[N(4,4)]
Block Umix # chargino mixing matrix
   1  1    -4.09519508E-02   # Re[U(1,1)]
   1  2     9.99161117E-01   # Re[U(1,2)]
   2  1     9.99161117E-01   # Re[U(2,1)]
   2  2     4.09519508E-02   # Re[U(2,2)]
Block Vmix # chargino mixing matrix
   1  1    -1.38312314E-01   # Re[V(1,1)]
   1  2     9.90388663E-01   # Re[V(1,2)]
   2  1     9.90388663E-01   # Re[V(2,1)]
   2  2     1.38312314E-01   # Re[V(2,2)]
DECAY        23     2.49520000E+00   # Z
DECAY        24     2.08500000E+00   # W
DECAY   2000011     5.00478452E+01   # ~e^-_R
#    BR                NDA      ID1      ID2
     1.52051701E-02    2     1000022        11   # BR(~e^-_R -> chi^0_1 e^-)
     1.69576283E-03    2     1000023        11   # BR(~e^-_R -> chi^0_2 e^-)
     9.82975660E-01    2     1000025        11   # BR(~e^-_R -> chi^0_3 e^-)
     1.23344237E-04    2     1000035        11   # BR(~e^-_R -> chi^0_4 e^-)
DECAY   1000011     1.42758054E+02   # ~e^-_L
#    BR                NDA      ID1      ID2
     1.39148356E-04    2     1000022        11   # BR(~e^-_L -> chi^0_1 e^-)
     2.28833639E-04    2     1000023        11   # BR(~e^-_L -> chi^0_2 e^-)
     9.42596140E-02    2     1000025        11   # BR(~e^-_L -> chi^0_3 e^-)
     2.97245603E-01    2     1000035        11   # BR(~e^-_L -> chi^0_4 e^-)
     1.03504939E-03    2    -1000024        12   # BR(~e^-_L -> chi^-_1 nu_e)
     6.07091752E-01    2    -1000037        12   # BR(~e^-_L -> chi^-_2 nu_e)
#    BR                NDA      ID1      ID2       ID3
DECAY   2000013     5.03188919E+01   # ~mu^-_R
#    BR                NDA      ID1      ID2
     1.64859198E-02    2     1000022        13   # BR(~mu^-_R -> chi^0_1 mu^-)
     3.00572191E-03    2     1000023        13   # BR(~mu^-_R -> chi^0_2 mu^-)
     9.77690076E-01    2     1000025        13   # BR(~mu^-_R -> chi^0_3 mu^-)
     1.24913780E-04    2     1000035        13   # BR(~mu^-_R -> chi^0_4 mu^-)
     2.68891828E-03    2    -1000024        14   # BR(~mu^-_R -> chi^-_1 nu_mu)
DECAY   1000013     1.42893736E+02   # ~mu^-_L
#    BR                NDA      ID1      ID2
     6.19415920E-04    2     1000022        13   # BR(~mu^-_L -> chi^0_1 mu^-)
     6.93657448E-04    2     1000023        13   # BR(~mu^-_L -> chi^0_2 mu^-)
     9.41733994E-02    2     1000025        13   # BR(~mu^-_L -> chi^0_3 mu^-)
     2.96964152E-01    2     1000035        13   # BR(~mu^-_L -> chi^0_4 mu^-)
     1.03406659E-03    2    -1000024        14   # BR(~mu^-_L -> chi^-_1 nu_mu)
     6.06515308E-01    2    -1000037        14   # BR(~mu^-_L -> chi^-_2 nu_mu)
#    BR                NDA      ID1      ID2       ID3
DECAY   1000015     1.26935833E+02   # ~tau^-_1
#    BR                NDA      ID1      ID2
     1.63137902E-01    2     1000022        15   # BR(~tau^-_1 -> chi^0_1 tau^-)
     1.46575916E-01    2     1000023        15   # BR(~tau^-_1 -> chi^0_2 tau^-)
     3.86327057E-01    2     1000025        15   # BR(~tau^-_1 -> chi^0_3 tau^-)
     4.43188470E-04    2     1000035        15   # BR(~tau^-_1 -> chi^0_4 tau^-)
     3.02667490E-01    2    -1000024        16   # BR(~tau^-_1 -> chi^-_1 nu_tau)
     8.48445694E-04    2    -1000037        16   # BR(~tau^-_1 -> chi^-_2 nu_tau)
DECAY   2000015     1.80921354E+02   # ~tau^-_2
#    BR                NDA      ID1      ID2
     1.04383332E-01    2     1000022        15   # BR(~tau^-_2 -> chi^0_1 tau^-)
     1.05483853E-01    2     1000023        15   # BR(~tau^-_2 -> chi^0_2 tau^-)
     7.67175194E-02    2     1000025        15   # BR(~tau^-_2 -> chi^0_3 tau^-)
     2.34622771E-01    2     1000035        15   # BR(~tau^-_2 -> chi^0_4 tau^-)
     4.78792506E-01    2    -1000037        16   # BR(~tau^-_2 -> chi^-_2 nu_tau)
#    BR                NDA      ID1      ID2       ID3
DECAY   1000012     1.42762409E+02   # ~nu_e
#    BR                NDA      ID1      ID2
     7.19847354E-03    2     1000022        12   # BR(~nu_e -> chi^0_1 nu_e)
     1.56189671E-03    2     1000023        12   # BR(~nu_e -> chi^0_2 nu_e)
     7.85913102E-02    2     1000025        12   # BR(~nu_e -> chi^0_3 nu_e)
     3.04430018E-01    2     1000035        12   # BR(~nu_e -> chi^0_4 nu_e)
     1.18055894E-02    2     1000024        11   # BR(~nu_e -> chi^+_1 e^-)
     5.96412712E-01    2     1000037        11   # BR(~nu_e -> chi^+_2 e^-)
#    BR                NDA      ID1      ID2       ID3
DECAY   1000014     1.42898077E+02   # ~nu_mu
#    BR                NDA      ID1      ID2
     7.19163922E-03    2     1000022        14   # BR(~nu_mu -> chi^0_1 nu_mu)
     1.56041382E-03    2     1000023        14   # BR(~nu_mu -> chi^0_2 nu_mu)
     7.85166947E-02    2     1000025        14   # BR(~nu_mu -> chi^0_3 nu_mu)
     3.04140988E-01    2     1000035        14   # BR(~nu_mu -> chi^0_4 nu_mu)
     1.27422211E-02    2     1000024        13   # BR(~nu_mu -> chi^+_1 mu^-)
     5.95848043E-01    2     1000037        13   # BR(~nu_mu -> chi^+_2 mu^-)
#    BR                NDA      ID1      ID2       ID3
DECAY   1000016     1.81139502E+02   # ~nu_tau
#    BR                NDA      ID1      ID2
     5.67340700E-03    2     1000022        16   # BR(~nu_tau -> chi^0_1 nu_tau)
     1.23099372E-03    2     1000023        16   # BR(~nu_tau -> chi^0_2 nu_tau)
     6.19409809E-02    2     1000025        16   # BR(~nu_tau -> chi^0_3 nu_tau)
     2.39933608E-01    2     1000035        16   # BR(~nu_tau -> chi^0_4 nu_tau)
     2.20813155E-01    2     1000024        15   # BR(~nu_tau -> chi^+_1 tau^-)
     4.70407856E-01    2     1000037        15   # BR(~nu_tau -> chi^+_2 tau^-)
#    BR                NDA      ID1      ID2       ID3
DECAY   2000001     5.50037134E+02   # ~d_R
#    BR                NDA      ID1      ID2
     1.55013858E-04    2     1000022         1   # BR(~d_R -> chi^0_1 d)
     1.00156224E-02    2     1000025         1   # BR(~d_R -> chi^0_3 d)
     9.89810545E-01    2     1000021         1   # BR(~d_R -> ~g d)
DECAY   1000001     6.79726737E+02   # ~d_L
#    BR                NDA      ID1      ID2
     7.75726643E-04    2     1000022         1   # BR(~d_L -> chi^0_1 d)
     2.08909256E-04    2     1000023         1   # BR(~d_L -> chi^0_2 d)
     1.51566948E-03    2     1000025         1   # BR(~d_L -> chi^0_3 d)
     6.40298044E-02    2     1000035         1   # BR(~d_L -> chi^0_4 d)
     2.19357314E-04    2    -1000024         2   # BR(~d_L -> chi^-_1 u)
     1.28694711E-01    2    -1000037         2   # BR(~d_L -> chi^-_2 u)
     8.04555822E-01    2     1000021         1   # BR(~d_L -> ~g d)
DECAY   2000003     5.50112675E+02   # ~s_R
#    BR                NDA      ID1      ID2
     1.89725472E-04    2     1000022         3   # BR(~s_R -> chi^0_1 s)
     1.00144851E-02    2     1000025         3   # BR(~s_R -> chi^0_3 s)
     9.89674644E-01    2     1000021         3   # BR(~s_R -> ~g s)
DECAY   1000003     6.79768252E+02   # ~s_L
#    BR                NDA      ID1      ID2
     8.03856106E-04    2     1000022         3   # BR(~s_L -> chi^0_1 s)
     2.36173011E-04    2     1000023         3   # BR(~s_L -> chi^0_2 s)
     1.51576985E-03    2     1000025         3   # BR(~s_L -> chi^0_3 s)
     6.40259412E-02    2     1000035         3   # BR(~s_L -> chi^0_4 s)
     2.24605886E-04    2    -1000024         4   # BR(~s_L -> chi^-_1 c)
     1.28686955E-01    2    -1000037         4   # BR(~s_L -> chi^-_2 c)
     8.04506699E-01    2     1000021         3   # BR(~s_L -> ~g s)
DECAY   1000005     7.17617042E+01   # ~b_1
#    BR                NDA      ID1      ID2
     2.47913972E-01    2     1000022         5   # BR(~b_1 -> chi^0_1 b)
     2.39011344E-01    2     1000023         5   # BR(~b_1 -> chi^0_2 b)
     2.69316160E-02    2     1000025         5   # BR(~b_1 -> chi^0_3 b)
     3.00722382E-04    2     1000035         5   # BR(~b_1 -> chi^0_4 b)
     4.85253001E-01    2    -1000024         6   # BR(~b_1 -> chi^-_1 t)
     5.89345272E-04    2    -1000037         6   # BR(~b_1 -> chi^-_2 t)
DECAY   2000005     1.77690792E+02   # ~b_2
#    BR                NDA      ID1      ID2
     1.22050448E-01    2     1000022         5   # BR(~b_2 -> chi^0_1 b)
     1.17427465E-01    2     1000023         5   # BR(~b_2 -> chi^0_2 b)
     3.18985989E-03    2     1000025         5   # BR(~b_2 -> chi^0_3 b)
     9.37831182E-02    2     1000035         5   # BR(~b_2 -> chi^0_4 b)
     4.66123099E-01    2    -1000024         6   # BR(~b_2 -> chi^-_1 t)
     1.97210599E-01    2    -1000037         6   # BR(~b_2 -> chi^-_2 t)
     1.44433750E-04    2     1000005        25   # BR(~b_2 -> ~b_1 h^0)
DECAY   2000002     5.67107263E+02   # ~u_R
#    BR                NDA      ID1      ID2
     6.01168708E-04    2     1000022         2   # BR(~u_R -> chi^0_1 u)
     3.88664595E-02    2     1000025         2   # BR(~u_R -> chi^0_3 u)
     9.60460449E-01    2     1000021         2   # BR(~u_R -> ~g u)
DECAY   1000002     6.79710329E+02   # ~u_L
#    BR                NDA      ID1      ID2
     2.76897530E-04    2     1000022         2   # BR(~u_L -> chi^0_1 u)
     1.14647654E-04    2     1000023         2   # BR(~u_L -> chi^0_2 u)
     2.62196783E-03    2     1000025         2   # BR(~u_L -> chi^0_3 u)
     6.35189459E-02    2     1000035         2   # BR(~u_L -> chi^0_4 u)
     2.50233912E-03    2     1000024         1   # BR(~u_L -> chi^+_1 d)
     1.26443146E-01    2     1000037         1   # BR(~u_L -> chi^+_2 d)
     8.04522056E-01    2     1000021         2   # BR(~u_L -> ~g u)
DECAY   2000004     5.67114528E+02   # ~c_R
#    BR                NDA      ID1      ID2
     6.04185382E-04    2     1000022         4   # BR(~c_R -> chi^0_1 c)
     3.88660450E-02    2     1000025         4   # BR(~c_R -> chi^0_3 c)
     9.60448125E-01    2     1000021         4   # BR(~c_R -> ~g c)
DECAY   1000004     6.79751812E+02   # ~c_L
#    BR                NDA      ID1      ID2
     2.79409439E-04    2     1000022         4   # BR(~c_L -> chi^0_1 c)
     1.17355497E-04    2     1000023         4   # BR(~c_L -> chi^0_2 c)
     2.62187638E-03    2     1000025         4   # BR(~c_L -> chi^0_3 c)
     6.35151213E-02    2     1000035         4   # BR(~c_L -> chi^0_4 c)
     2.55778534E-03    2     1000024         3   # BR(~c_L -> chi^+_1 s)
     1.26435523E-01    2     1000037         3   # BR(~c_L -> chi^+_2 s)
     8.04472929E-01    2     1000021         4   # BR(~c_L -> ~g c)
DECAY   1000006     1.90598169E+02   # ~t_1
#    BR                NDA      ID1      ID2
     1.68492753E-04    2     1000022         4   # BR(~t_1 -> chi^0_1 c)
     2.11839100E-01    2     1000022         6   # BR(~t_1 -> chi^0_1 t)
     2.25292840E-01    2     1000023         6   # BR(~t_1 -> chi^0_2 t)
     7.89221297E-03    2     1000025         6   # BR(~t_1 -> chi^0_3 t)
     8.77870419E-02    2     1000035         6   # BR(~t_1 -> chi^0_4 t)
     2.32410700E-01    2     1000024         5   # BR(~t_1 -> chi^+_1 b)
     1.66720051E-01    2     1000037         5   # BR(~t_1 -> chi^+_2 b)
     1.31147741E-04    2     1000005        24   # BR(~t_1 -> ~b_1 W^+)
#    BR                NDA      ID1      ID2       ID3
     6.76886940E-02    3     1000022        24         5   # BR(~t_1 -> chi^0_1 W^+ b)
DECAY   2000006     2.65370566E+02   # ~t_2
#    BR                NDA      ID1      ID2
     1.77351138E-01    2     1000022         6   # BR(~t_2 -> chi^0_1 t)
     1.91254223E-01    2     1000023         6   # BR(~t_2 -> chi^0_2 t)
     4.64528349E-02    2     1000025         6   # BR(~t_2 -> chi^0_3 t)
     6.02209776E-03    2     1000035         6   # BR(~t_2 -> chi^0_4 t)
     3.68256753E-01    2     1000024         5   # BR(~t_2 -> chi^+_1 b)
     1.19307174E-02    2     1000037         5   # BR(~t_2 -> chi^+_2 b)
     1.16478961E-01    2     1000021         6   # BR(~t_2 -> ~g t)
     3.73908532E-02    2     2000005        24   # BR(~t_2 -> ~b_2 W^+)
     1.86895065E-02    2     1000006        23   # BR(~t_2 -> ~t_1 Z)
     2.61695207E-02    2     1000006        25   # BR(~t_2 -> ~t_1 h^0)
DECAY   1000024     1.73360606E-08   # chi^+_1
#    BR                NDA      ID1      ID2       ID3
     3.64018973E-01    3     1000022        -1         2   # BR(chi^+_1 -> chi^0_1 d_bar u)
     3.06452000E-01    3     1000022        -3         4   # BR(chi^+_1 -> chi^0_1 s_bar c)
     1.21339720E-01    3     1000022       -11        12   # BR(chi^+_1 -> chi^0_1 e^+ nu_e)
     1.21190919E-01    3     1000022       -13        14   # BR(chi^+_1 -> chi^0_1 mu^+ nu_mu)
     8.69983870E-02    3     1000022       -15        16   # BR(chi^+_1 -> chi^0_1 tau^+ nu_tau)
DECAY   1000037     7.82915400E+00   # chi^+_2
#    BR                NDA      ID1      ID2
     2.34816732E-01    2     1000022        24   # BR(chi^+_2 -> chi^0_1 W^+)
     2.56812729E-01    2     1000023        24   # BR(chi^+_2 -> chi^0_2 W^+)
     1.28164222E-02    2     1000025        24   # BR(chi^+_2 -> chi^0_3 W^+)
     2.48005299E-01    2     1000024        23   # BR(chi^+_2 -> chi^+_1 Z)
     2.38786646E-01    2     1000024        25   # BR(chi^+_2 -> chi^+_1 h^0)
#    BR                NDA      ID1      ID2       ID3
     2.32505208E-03    3     1000024         6        -6   # BR(chi^+_2 -> chi^+_1 t t_bar)
     3.15799031E-03    3     1000022        -5         6   # BR(chi^+_2 -> chi^0_1 b_bar t)
     3.21054047E-03    3     1000023        -5         6   # BR(chi^+_2 -> chi^0_2 b_bar t)
DECAY   1000022     0.00000000E+00   # chi^0_1
DECAY   1000023     1.43609512E-06   # chi^0_2
#    BR                NDA      ID1      ID2
     2.18402786E-01    2     1000022        22   # BR(chi^0_2 -> chi^0_1 photon)
#    BR                NDA      ID1      ID2       ID3
     1.00036750E-01    3     1000022         2        -2   # BR(chi^0_2 -> chi^0_1 u u_bar)
     8.82100207E-02    3     1000022         4        -4   # BR(chi^0_2 -> chi^0_1 c c_bar)
     1.28266975E-01    3     1000022         1        -1   # BR(chi^0_2 -> chi^0_1 d d_bar)
     1.28188503E-01    3     1000022         3        -3   # BR(chi^0_2 -> chi^0_1 s s_bar)
     3.34311210E-02    3     1000022         5        -5   # BR(chi^0_2 -> chi^0_1 b b_bar)
     2.89462178E-02    3     1000022        11       -11   # BR(chi^0_2 -> chi^0_1 e^- e^+)
     2.89183127E-02    3     1000022        13       -13   # BR(chi^0_2 -> chi^0_1 mu^- mu^+)
     2.20856886E-02    3     1000022        15       -15   # BR(chi^0_2 -> chi^0_1 tau^- tau^+)
     1.71530158E-01    3     1000022        12       -12   # BR(chi^0_2 -> chi^0_1 nu_e nu_bar_e)
     9.56506738E-03    3     1000024         1        -2   # BR(chi^0_2 -> chi^+_1 d u_bar)
     9.56506738E-03    3    -1000024        -1         2   # BR(chi^0_2 -> chi^-_1 d_bar u)
     7.86754385E-03    3     1000024         3        -4   # BR(chi^0_2 -> chi^+_1 s c_bar)
     7.86754385E-03    3    -1000024        -3         4   # BR(chi^0_2 -> chi^-_1 s_bar c)
     3.18835688E-03    3     1000024        11       -12   # BR(chi^0_2 -> chi^+_1 e^- nu_bar_e)
     3.18835688E-03    3    -1000024       -11        12   # BR(chi^0_2 -> chi^-_1 e^+ nu_e)
     3.18392376E-03    3     1000024        13       -14   # BR(chi^0_2 -> chi^+_1 mu^- nu_bar_mu)
     3.18392376E-03    3    -1000024       -13        14   # BR(chi^0_2 -> chi^-_1 mu^+ nu_mu)
     2.18684177E-03    3     1000024        15       -16   # BR(chi^0_2 -> chi^+_1 tau^- nu_bar_tau)
     2.18684177E-03    3    -1000024       -15        16   # BR(chi^0_2 -> chi^-_1 tau^+ nu_tau)
DECAY   1000025     1.24073508E+00   # chi^0_3
#    BR                NDA      ID1      ID2
     2.24812889E-01    2     1000024       -24   # BR(chi^0_3 -> chi^+_1 W^-)
     2.24812889E-01    2    -1000024        24   # BR(chi^0_3 -> chi^-_1 W^+)
     2.28108848E-02    2     1000022        23   # BR(chi^0_3 -> chi^0_1 Z)
     2.39017769E-01    2     1000023        23   # BR(chi^0_3 -> chi^0_2 Z)
     1.42819090E-01    2     1000022        25   # BR(chi^0_3 -> chi^0_1 h^0)
     1.45479152E-01    2     1000023        25   # BR(chi^0_3 -> chi^0_2 h^0)
#    BR                NDA      ID1      ID2       ID3
     1.20207412E-04    3     1000024         5        -6   # BR(chi^0_3 -> chi^+_1 b t_bar)
     1.20207412E-04    3    -1000024        -5         6   # BR(chi^0_3 -> chi^-_1 b_bar t)
DECAY   1000035     8.80217300E+00   # chi^0_4
#    BR                NDA      ID1      ID2
     2.23671677E-01    2     1000024       -24   # BR(chi^0_4 -> chi^+_1 W^-)
     2.23671677E-01    2    -1000024        24   # BR(chi^0_4 -> chi^-_1 W^+)
     4.90063845E-02    2     1000022        23   # BR(chi^0_4 -> chi^0_1 Z)
     1.78115482E-01    2     1000023        23   # BR(chi^0_4 -> chi^0_2 Z)
     8.62520430E-04    2     1000025        23   # BR(chi^0_4 -> chi^0_3 Z)
     1.52638650E-01    2     1000022        25   # BR(chi^0_4 -> chi^0_1 h^0)
     1.55070059E-01    2     1000023        25   # BR(chi^0_4 -> chi^0_2 h^0)
     9.54418361E-03    2     1000025        25   # BR(chi^0_4 -> chi^0_3 h^0)
#    BR                NDA      ID1      ID2       ID3
     7.72010814E-04    3     1000022         6        -6   # BR(chi^0_4 -> chi^0_1 t t_bar)
     7.48360848E-04    3     1000023         6        -6   # BR(chi^0_4 -> chi^0_2 t t_bar)
     2.94294702E-03    3     1000024         5        -6   # BR(chi^0_4 -> chi^+_1 b t_bar)
     2.94294702E-03    3    -1000024        -5         6   # BR(chi^0_4 -> chi^-_1 b_bar t)
DECAY   1000021     1.37671061E+01   # ~g
#    BR                NDA      ID1      ID2
     2.04307435E-04    2     1000006        -4   # BR(~g -> ~t_1 c_bar)
     2.04307435E-04    2    -1000006         4   # BR(~g -> ~t^*_1 c)
     4.64683000E-01    2     1000005        -5   # BR(~g -> ~b_1 b_bar)
     4.64683000E-01    2    -1000005         5   # BR(~g -> ~b^*_1 b)
     3.77700719E-04    2     2000005        -5   # BR(~g -> ~b_2 b_bar)
     3.77700719E-04    2    -2000005         5   # BR(~g -> ~b^*_2 b)
     1.10416972E-04    2     1000022        21   # BR(~g -> chi^0_1 g)
     1.50040805E-04    2     1000023        21   # BR(~g -> chi^0_2 g)
#    BR                NDA      ID1      ID2       ID3
     1.75741453E-02    3     1000022         6        -6   # BR(~g -> chi^0_1 t t_bar)
     1.89223936E-02    3     1000023         6        -6   # BR(~g -> chi^0_2 t t_bar)
     1.33480397E-03    3     1000025         6        -6   # BR(~g -> chi^0_3 t t_bar)
     5.34214942E-03    3     1000035         6        -6   # BR(~g -> chi^0_4 t t_bar)
     8.45648254E-03    3     1000024         5        -6   # BR(~g -> chi^+_1 b t_bar)
     8.45648254E-03    3    -1000024        -5         6   # BR(~g -> chi^-_1 b_bar t)
     4.32487385E-03    3     1000037         5        -6   # BR(~g -> chi^+_2 b t_bar)
     4.32487385E-03    3    -1000037        -5         6   # BR(~g -> chi^-_2 b_bar t)
DECAY        25     3.78661049E-03   # Gamma(h0)
     2.34747489E-03   2        22        22   # BR(h0 -> photon photon)
     1.43797060E-03   2        22        23   # BR(h0 -> photon Z)
     2.58861152E-02   2        23        23   # BR(h0 -> Z Z)
     2.16924228E-01   2       -24        24   # BR(h0 -> W W)
     7.31184521E-02   2        21        21   # BR(h0 -> gluon gluon)
     5.23285123E-09   2       -11        11   # BR(h0 -> Electron electron)
     2.32766181E-04   2       -13        13   # BR(h0 -> Muon muon)
     6.71140098E-02   2       -15        15   # BR(h0 -> Tau tau)
     1.48893829E-07   2        -2         2   # BR(h0 -> Up up)
     2.88928372E-02   2        -4         4   # BR(h0 -> Charm charm)
     6.06365739E-07   2        -1         1   # BR(h0 -> Down down)
     2.19308544E-04   2        -3         3   # BR(h0 -> Strange strange)
     5.83826077E-01   2        -5         5   # BR(h0 -> Bottom bottom)
DECAY        35     1.41619373E+02   # Gamma(HH)
     3.71776241E-09   2        22        22   # BR(HH -> photon photon)
     1.60964992E-08   2        22        23   # BR(HH -> photon Z)
     9.60813024E-08   2        23        23   # BR(HH -> Z Z)
     2.07504244E-08   2       -24        24   # BR(HH -> W W)
     4.10818164E-06   2        21        21   # BR(HH -> gluon gluon)
     8.38207303E-09   2       -11        11   # BR(HH -> Electron electron)
     3.73242951E-04   2       -13        13   # BR(HH -> Muon muon)
     1.07801679E-01   2       -15        15   # BR(HH -> Tau tau)
     3.96051756E-14   2        -2         2   # BR(HH -> Up up)
     7.68349216E-09   2        -4         4   # BR(HH -> Charm charm)
     5.61207799E-04   2        -6         6   # BR(HH -> Top top)
     5.91764474E-07   2        -1         1   # BR(HH -> Down down)
     2.14045355E-04   2        -3         3   # BR(HH -> Strange strange)
     5.50821734E-01   2        -5         5   # BR(HH -> Bottom bottom)
     4.83960885E-03   2  -1000024   1000024   # BR(HH -> Chargino1 chargino1)
     1.00464325E-01   2  -1000024   1000037   # BR(HH -> Chargino1 chargino2)
     1.00464325E-01   2  -1000037   1000024   # BR(HH -> Chargino2 chargino1)
     2.70915078E-04   2  -1000037   1000037   # BR(HH -> Chargino2 chargino2)
     2.53405045E-03   2   1000022   1000022   # BR(HH -> neutralino1 neutralino1)
     3.66154735E-04   2   1000022   1000023   # BR(HH -> neutralino1 neutralino2)
     1.28074253E-02   2   1000022   1000025   # BR(HH -> neutralino1 neutralino3)
     4.81767746E-02   2   1000022   1000035   # BR(HH -> neutralino1 neutralino4)
     6.41323760E-04   2   1000023   1000023   # BR(HH -> neutralino2 neutralino2)
     1.47458280E-02   2   1000023   1000025   # BR(HH -> neutralino2 neutralino3)
     5.42857871E-02   2   1000023   1000035   # BR(HH -> neutralino2 neutralino4)
     1.19912710E-04   2   1000025   1000025   # BR(HH -> neutralino3 neutralino3)
     3.66491382E-04   2   1000025   1000035   # BR(HH -> neutralino3 neutralino4)
     1.39835846E-04   2   1000035   1000035   # BR(HH -> neutralino4 neutralino4)
     4.80032591E-07   2        25        25   # BR(HH -> h0 h0)
DECAY        36     1.34991456E+02   # Gamma(A0)
     3.76430783E-08   2        22        22   # BR(A0 -> photon photon)
     5.38326772E-08   2        22        23   # BR(A0 -> photon Z)
     7.66762372E-06   2        21        21   # BR(A0 -> gluon gluon)
     8.16862476E-09   2       -11        11   # BR(A0 -> Electron electron)
     3.63734809E-04   2       -13        13   # BR(A0 -> Muon muon)
     1.05055597E-01   2       -15        15   # BR(A0 -> Tau tau)
     3.58404567E-14   2        -2         2   # BR(A0 -> Up up)
     6.95289778E-09   2        -4         4   # BR(A0 -> Charm charm)
     5.11285734E-04   2        -6         6   # BR(A0 -> Top top)
     5.76660628E-07   2        -1         1   # BR(A0 -> Down down)
     2.08582910E-04   2        -3         3   # BR(A0 -> Strange strange)
     5.36772062E-01   2        -5         5   # BR(A0 -> Bottom bottom)
     5.28638489E-03   2  -1000024   1000024   # BR(A0 -> Chargino1 chargino1)
     1.05244660E-01   2  -1000024   1000037   # BR(A0 -> Chargino1 chargino2)
     1.05244660E-01   2  -1000037   1000024   # BR(A0 -> Chargino2 chargino1)
     4.73360832E-04   2  -1000037   1000037   # BR(A0 -> Chargino2 chargino2)
     2.94003457E-03   2   1000022   1000022   # BR(A0 -> neutralino1 neutralino1)
     2.88122347E-04   2   1000022   1000023   # BR(A0 -> neutralino1 neutralino2)
     1.50692301E-02   2   1000022   1000025   # BR(A0 -> neutralino1 neutralino3)
     5.79297087E-02   2   1000022   1000035   # BR(A0 -> neutralino1 neutralino4)
     6.22109567E-04   2   1000023   1000023   # BR(A0 -> neutralino2 neutralino2)
     1.37194823E-02   2   1000023   1000025   # BR(A0 -> neutralino2 neutralino3)
     4.93195704E-02   2   1000023   1000035   # BR(A0 -> neutralino2 neutralino4)
     1.62701530E-04   2   1000025   1000025   # BR(A0 -> neutralino3 neutralino3)
     5.36648790E-04   2   1000025   1000035   # BR(A0 -> neutralino3 neutralino4)
     2.43503919E-04   2   1000035   1000035   # BR(A0 -> neutralino4 neutralino4)
     2.08435000E-07   2        23        25   # BR(A0 -> Z h0)
     4.79938378E-14   2        23        35   # BR(A0 -> Z HH)
     1.79278738E-41   2        25        25   # BR(A0 -> h0 h0)
DECAY        37     1.41926880E+02   # Gamma(Hp)
     8.82510173E-09   2       -11        12   # BR(Hp -> Electron nu_e)
     3.77300662E-04   2       -13        14   # BR(Hp -> Muon nu_mu)
     1.06722113E-01   2       -15        16   # BR(Hp -> Tau nu_tau)
     5.42639830E-07   2        -1         2   # BR(Hp -> Down up)
     9.18741483E-06   2        -3         2   # BR(Hp -> Strange up)
     5.84978043E-06   2        -5         2   # BR(Hp -> Bottom up)
     2.57450209E-08   2        -1         4   # BR(Hp -> Down charm)
     1.95574781E-04   2        -3         4   # BR(Hp -> Strange charm)
     8.19178687E-04   2        -5         4   # BR(Hp -> Bottom charm)
     3.59357466E-08   2        -1         6   # BR(Hp -> Down top)
     1.07475879E-06   2        -3         6   # BR(Hp -> Strange top)
     5.52716860E-01   2        -5         6   # BR(Hp -> Bottom top)
     1.24331060E-05   2   1000022   1000024   # BR(Hp -> neutralino1 chargino1)
     1.04415112E-01   2   1000022   1000037   # BR(Hp -> neutralino1 chargino2)
     6.16827154E-04   2   1000023   1000024   # BR(Hp -> neutralino2 chargino1)
     9.96806742E-02   2   1000023   1000037   # BR(Hp -> neutralino2 chargino2)
     3.34409534E-02   2   1000024   1000025   # BR(Hp -> chargino1 neutralino3)
     9.15573014E-04   2   1000025   1000037   # BR(Hp -> neutralino3 chargino2)
     1.00070435E-01   2   1000024   1000035   # BR(Hp -> chargino1 neutralino4)
     4.15418302E-08   2   1000035   1000037   # BR(Hp -> neutralino4 chargino2)
     1.98006009E-07   2        24        25   # BR(Hp -> W h0)
DECAY         6     2.43000000E+00   # top
#    BR                NDA      ID1      ID2
     1.00000000E+00    2           5        24   # BR(t -> b W)
Block HiggsBoundsInputHiggsCouplingsFermions
# ScalarNormEffCoupSq PseudoSNormEffCoupSq NP IP1 IP2 IP2
    9.57938712E-01    0.00000000E+00        3  25   5   5  # h0-b-b eff. coupling^2, normalised to SM
    1.84290839E+03    0.00000000E+00        3  35   5   5  # H0-b-b eff. coupling^2, normalised to SM
    0.00000000E+00    1.84286633E+03        3  36   5   5  # A0-b-b eff. coupling^2, normalised to SM
#
    1.00002282E+00    0.00000000E+00        3  25   6   6  # h0-t-t eff. coupling^2, normalised to SM
    5.19809113E-04    0.00000000E+00        3  35   6   6  # H0-t-t eff. coupling^2, normalised to SM
    0.00000000E+00    5.42632954E-04        3  36   6   6  # A0-t-t eff. coupling^2, normalised to SM
#
    9.57938712E-01    0.00000000E+00        3  25  15  15  # h0-tau-tau eff. coupling^2, normalised to SM
    1.84290839E+03    0.00000000E+00        3  35  15  15  # H0-tau-tau eff. coupling^2, normalised to SM
    0.00000000E+00    1.84286633E+03        3  36  15  15  # A0-tau-tau eff. coupling^2, normalised to SM
#
Block HiggsBoundsInputHiggsCouplingsBosons
    9.99999755E-01        3  25  24  24  # h0-W-W eff. coupling^2, normalised to SM
    2.45181284E-07        3  35  24  24  # H0-W-W eff. coupling^2, normalised to SM
    0.00000000E+00        3  36  24  24  # A0-W-W eff. coupling^2, normalised to SM
#
    9.99999755E-01        3  25  23  23  # h0-Z-Z eff. coupling^2, normalised to SM
    2.45181284E-07        3  35  23  23  # H0-Z-Z eff. coupling^2, normalised to SM
    0.00000000E+00        3  36  23  23  # A0-Z-Z eff. coupling^2, normalised to SM
#
    1.26953953E+00        3  25  21  21  # h0-g-g eff. coupling^2, normalised to SM
    7.45467040E-03        3  35  21  21  # H0-g-g eff. coupling^2, normalised to SM
    1.22081991E-01        3  36  21  21  # A0-g-g eff. coupling^2, normalised to SM
#
    0.00000000E+00        3  25  25  23  # h0-h0-Z eff. coupling^2, normalised to SM
    0.00000000E+00        3  35  25  23  # H0-h0-Z eff. coupling^2, normalised to SM
    2.45181284E-07        3  36  25  23  # A0-h0-Z eff. coupling^2, normalised to SM
    0.00000000E+00        3  35  35  23  # H0-H0-Z eff. coupling^2, normalised to SM
    9.99999755E-01        3  36  35  23  # A0-H0-Z eff. coupling^2, normalised to SM
    0.00000000E+00        3  36  36  23  # A0-A0-Z eff. coupling^2, normalised to SM
#
    0.00000000E+00        4  25  21  21  23  # h0-g-g-Z eff. coupling^2, normalised to SM
    0.00000000E+00        4  35  21  21  23  # H0-g-g-Z eff. coupling^2, normalised to SM
    0.00000000E+00        4  36  21  21  23  # A0-g-g-Z eff. coupling^2, normalised to SM
Block SPhenoLowEnergy  # low energy observables
    1    3.17351093E-04   # BR(b -> s gamma)
    2    1.59083221E-06   # BR(b -> s mu+ mu-)
    3    3.52558117E-05   # BR(b -> s nu nu)
    4    2.82259482E-15   # BR(Bd -> e+ e-)
    5    1.20577370E-10   # BR(Bd -> mu+ mu-)
    6    2.52025567E-08   # BR(Bd -> tau+ tau-)
    7    9.44159479E-14   # BR(Bs -> e+ e-)
    8    4.03342521E-09   # BR(Bs -> mu+ mu-)
    9    8.54290101E-07   # BR(Bs -> tau+ tau-)
   10    9.61224588E-05   # BR(B_u -> tau nu)
   11    9.92908199E-01   # BR(B_u -> tau nu)/BR(B_u -> tau nu)_SM
   12    5.41824707E-01   # |Delta(M_Bd)| [ps^-1] 
   13    1.93553032E+01   # |Delta(M_Bs)| [ps^-1] 
   14    0.00000000E+00   # neutron EDM according to the chiral quark model
   15    0.00000000E+00   # neutron EDM according to the relativistic quark-parton model
   16    2.15674724E-03   # epsilon_K
   17    2.28165312E-15   # Delta(M_K)
   18    2.48013423E-11   # BR(K^0 -> pi^0 nu nu)
   19    8.29085455E-11   # BR(K^+ -> pi^+ nu nu)
   20    3.55381585E-16   # Delta(g-2)_electron/2
   21    1.51938220E-11   # Delta(g-2)_muon/2
   22    4.30935305E-09   # Delta(g-2)_tau/2
   23    0.00000000E+00   # electric dipole moment of the electron
   24    0.00000000E+00   # electric dipole moment of the muon
   25    0.00000000E+00   # electric dipole moment of the tau
   26    0.00000000E+00   # Br(mu -> e gamma)
   27    0.00000000E+00   # Br(tau -> e gamma)
   28    0.00000000E+00   # Br(tau -> mu gamma)
   29    0.00000000E+00   # Br(mu -> 3 e)
   30    0.00000000E+00   # Br(tau -> 3 e)
   31    0.00000000E+00   # Br(tau -> 3 mu)
   39    6.79701747E-05   # Delta(rho_parameter)
   40    0.00000000E+00   # BR(Z -> e mu)
   41    0.00000000E+00   # BR(Z -> e tau)
   42    0.00000000E+00   # BR(Z -> mu tau)
Block FWCOEF Q=  1.60000000E+02  # Wilson coefficients at scale Q
#    id        order  M        value         comment
     0305 4422   00   0    -1.88819110E-01   # C7
     0305 4422   00   2    -1.84371577E-01   # C7
     0305 4322   00   2    -1.63115971E-05   # C7'
     0305 6421   00   0    -9.52278348E-02   # C8
     0305 6421   00   2    -9.76558748E-02   # C8
     0305 6321   00   2    -1.01029704E-04   # C8'
 03051111 4133   00   0     1.63179134E+00   # C9 e+e-
 03051111 4133   00   2     1.63200890E+00   # C9 e+e-
 03051111 4233   00   2     4.79345691E-04   # C9' e+e-
 03051111 4137   00   0    -4.45448345E+00   # C10 e+e-
 03051111 4137   00   2    -4.45325932E+00   # C10 e+e-
 03051111 4237   00   2    -3.52158475E-03   # C10' e+e-
 03051313 4133   00   0     1.63179134E+00   # C9 mu+mu-
 03051313 4133   00   2     1.63200877E+00   # C9 mu+mu-
 03051313 4233   00   2     4.79345386E-04   # C9' mu+mu-
 03051313 4137   00   0    -4.45448345E+00   # C10 mu+mu-
 03051313 4137   00   2    -4.45325946E+00   # C10 mu+mu-
 03051313 4237   00   2    -3.52158502E-03   # C10' mu+mu-
 03051212 4137   00   0     1.50535012E+00   # C11 nu_1 nu_1
 03051212 4137   00   2     1.50508729E+00   # C11 nu_1 nu_1
 03051212 4237   00   2     7.60626164E-04   # C11' nu_1 nu_1
 03051414 4137   00   0     1.50535012E+00   # C11 nu_2 nu_2
 03051414 4137   00   2     1.50508729E+00   # C11 nu_2 nu_2
 03051414 4237   00   2     7.60626199E-04   # C11' nu_2 nu_2
 03051616 4137   00   0     1.50535012E+00   # C11 nu_3 nu_3
 03051616 4137   00   2     1.50508729E+00   # C11 nu_3 nu_3
 03051616 4237   00   2     7.60636088E-04   # C11' nu_3 nu_3
Block IMFWCOEF Q=  1.60000000E+02  # Im(Wilson coefficients) at scale Q
#    id        order  M        value         comment
     0305 4422   00   0     3.85824141E-07   # C7
     0305 4422   00   2     1.25373325E-05   # C7
     0305 4322   00   2     1.26100211E-06   # C7'
     0305 6421   00   0     3.30483892E-07   # C8
     0305 6421   00   2    -8.39019164E-06   # C8
     0305 6321   00   2     2.29576100E-07   # C8'
 03051111 4133   00   2     4.65547673E-07   # C9 e+e-
 03051111 4233   00   2     9.13017921E-06   # C9' e+e-
 03051111 4137   00   2     4.69096359E-08   # C10 e+e-
 03051111 4237   00   2    -6.70784746E-05   # C10' e+e-
 03051313 4133   00   2     4.65543014E-07   # C9 mu+mu-
 03051313 4233   00   2     9.13017668E-06   # C9' mu+mu-
 03051313 4137   00   2     4.69143554E-08   # C10 mu+mu-
 03051313 4237   00   2    -6.70784822E-05   # C10' mu+mu-
 03051212 4137   00   2     1.78549432E-08   # C11 nu_1 nu_1
 03051212 4237   00   2     1.44882630E-05   # C11' nu_1 nu_1
 03051414 4137   00   2     1.78551631E-08   # C11 nu_2 nu_2
 03051414 4237   00   2     1.44882630E-05   # C11' nu_2 nu_2
 03051616 4137   00   2     1.79168977E-08   # C11 nu_3 nu_3
 03051616 4237   00   2     1.44882630E-05   # C11' nu_3 nu_3
