# SUSY Les Houches Accord 2 - MSSM spectrum + Decays
# SPheno v4.0.5be
# W. Porod, Comput. Phys. Commun. 153 (2003) 275-315, hep-ph/0301101;
# W. Porod, F.~Staub, Comput. Phys. Commun. 183 (2012) 2458
#                     arXiv:1104.1573 [hep-ph] 
# in case of problems send email to porod@physik.uni-wuerzburg.de
# Created: 12.05.2022,  22:28
Block SPINFO         # Program information
     1   SPheno      # spectrum calculator
     2   v4.0.5be    # version number
#
Block SPhenoINFO     # SPheno specific information
    1      2         # using 2-loop RGEs
    2      2         # using pole masses for boundary conditions at mZ
Block MODSEL  # Model selection
    1    0    # general MSSM
Block MINPAR  # Input parameters
    3    3.41885963E+01  # tanb at m_Z    
    4    1.00000000E+00  # Sign(mu)
Block EXTPAR  # non-universal input parameters
    0    3.43001758E+03  # scale for input parameters
    1    2.60371179E+02  # M_1
    2    9.61377573E+02  # M_2
    3    4.87911858E+03  # M_3
   11    2.80944688E+03  # A_t
   12   -8.68482432E+02  # A_b
   13    3.38368738E+00  # A_tau
   23    1.31762585E+03  # mu
   25    3.29626224E+01  # tan(beta)
   26    1.45032899E+03  # m_A, pole mass
   31    1.00000000E+04  # M_L11
   32    1.00000000E+04  # M_L22
   33    1.00000000E+04  # M_L33
   34    1.00000000E+04  # M_E11
   35    1.00000000E+04  # M_E22
   36    1.00000000E+04  # M_E33
   41    1.00000000E+04  # M_Q11
   42    1.00000000E+04  # M_Q22
   43    3.42494731E+03  # M_Q33
   44    1.00000000E+04  # M_U11
   45    1.00000000E+04  # M_U22
   46    3.27173047E+03  # M_U33
   47    1.00000000E+04  # M_D11
   48    1.00000000E+04  # M_D22
   49    4.84919528E+03  # M_D33
Block SMINPUTS  # SM parameters
         1     1.27908970E+02  # alpha_em^-1(MZ)^MSbar
         2     1.16637870E-05  # G_mu [GeV^-2]
         3     1.18400000E-01  # alpha_s(MZ)^MSbar
         4     9.11876000E+01  # m_Z(pole)
         5     4.18000000E+00  # m_b(m_b), MSbar
         6     1.73200000E+02  # m_t(pole)
         7     1.77700000E+00  # m_tau(pole)
         8     0.00000000E+00  # m_nu_3
        11     5.10998930E-04  # m_e(pole)
        12     0.00000000E+00  # m_nu_1
        13     1.05658372E-01  # m_muon(pole)
        14     0.00000000E+00  # m_nu_2
        21     5.00000000E-03  # m_d(2 GeV), MSbar
        22     2.50000000E-03  # m_u(2 GeV), MSbar
        23     9.50000000E-02  # m_s(2 GeV), MSbar
        24     1.27000000E+00  # m_c(m_c), MSbar
Block gauge Q=  3.43001758E+03  # (SUSY scale)
   1    3.55362975E-01  # g'(Q)^DRbar
   2    6.65198874E-01  # g(Q)^DRbar
   3    1.21977796E+00  # g3(Q)^DRbar
Block Yu Q=  3.43001758E+03  # (SUSY scale)
  1  1     8.38822956E-06   # Y_u(Q)^DRbar
  2  2     4.26122061E-03   # Y_c(Q)^DRbar
  3  3     1.01336551E+00   # Y_t(Q)^DRbar
Block Yd Q=  3.43001758E+03  # (SUSY scale)
  1  1     5.55612887E-04   # Y_d(Q)^DRbar
  2  2     1.05566448E-02   # Y_s(Q)^DRbar
  3  3     5.50993880E-01   # Y_b(Q)^DRbar
Block Ye Q=  3.43001758E+03  # (SUSY scale)
  1  1     9.69585117E-05   # Y_e(Q)^DRbar
  2  2     2.00479451E-02   # Y_mu(Q)^DRbar
  3  3     3.37173456E-01   # Y_tau(Q)^DRbar
Block Au Q=  3.43001758E+03  # (SUSY scale)
  1  1     0.00000000E+00   # A_u(Q)^DRbar
  2  2     0.00000000E+00   # A_c(Q)^DRbar
  3  3     2.80944646E+03   # A_t(Q)^DRbar
Block Ad Q=  3.43001758E+03  # (SUSY scale)
  1  1     0.00000000E+00   # A_d(Q)^DRbar
  2  2     0.00000000E+00   # A_s(Q)^DRbar
  3  3    -8.68482887E+02   # A_b(Q)^DRbar
Block Ae Q=  3.43001758E+03  # (SUSY scale)
  1  1     0.00000000E+00   # A_e(Q)^DRbar
  2  2     0.00000000E+00   # A_mu(Q)^DRbar
  3  3     3.38368744E+00   # A_tau(Q)^DRbar
Block MSOFT Q=  3.43001758E+03  # soft SUSY breaking masses at Q
   1    2.60371179E+02  # M_1
   2    9.61377573E+02  # M_2
   3    4.87911858E+03  # M_3
  21    1.96855552E+05  # M^2_(H,d)
  22   -1.51107723E+06  # M^2_(H,u)
  31    1.00000000E+04  # M_(L,11)
  32    1.00000000E+04  # M_(L,22)
  33    1.00000000E+04  # M_(L,33)
  34    1.00000000E+04  # M_(E,11)
  35    1.00000000E+04  # M_(E,22)
  36    1.00000000E+04  # M_(E,33)
  41    1.00000000E+04  # M_(Q,11)
  42    1.00000000E+04  # M_(Q,22)
  43    3.42494731E+03  # M_(Q,33)
  44    1.00000000E+04  # M_(U,11)
  45    1.00000000E+04  # M_(U,22)
  46    3.27173047E+03  # M_(U,33)
  47    1.00000000E+04  # M_(D,11)
  48    1.00000000E+04  # M_(D,22)
  49    4.84919528E+03  # M_(D,33)
Block MASS  # Mass spectrum
#   PDG code      mass          particle
         6     1.73200000E+02  # m_t(pole)
        23     9.11876000E+01  # m_Z(pole)
        24     8.04299946E+01  # W+
        15     1.77700000E+00  # m_tau(pole)
        25     1.22732440E+02  # h0
        35     1.45038162E+03  # H0
        36     1.45032899E+03  # A0
        37     1.45521917E+03  # H+
   1000001     1.00825664E+04  # ~d_L
   2000001     1.00590093E+04  # ~d_R
   1000002     1.00822972E+04  # ~u_L
   2000002     1.00619349E+04  # ~u_R
   1000003     1.00825706E+04  # ~s_L
   2000003     1.00590151E+04  # ~s_R
   1000004     1.00823010E+04  # ~c_L
   2000004     1.00619360E+04  # ~c_R
   1000005     3.52391448E+03  # ~b_1
   2000005     4.95081891E+03  # ~b_2
   1000006     3.32327088E+03  # ~t_1
   2000006     3.54019309E+03  # ~t_2
   1000011     1.00208144E+04  # ~e_L-
   2000011     1.00089637E+04  # ~e_R-
   1000012     1.00200514E+04  # ~nu_eL
   1000013     1.00208362E+04  # ~mu_L-
   2000013     1.00089929E+04  # ~mu_R-
   1000014     1.00200687E+04  # ~nu_muL
   1000015     1.00168231E+04  # ~tau_1-
   2000015     1.00274108E+04  # ~tau_2-
   1000016     1.00249557E+04  # ~nu_tauL
   1000021     5.31020200E+03  # ~g
   1000022     2.62157080E+02  # ~chi_10
   1000023     1.02509551E+03  # ~chi_20
   1000025     1.33462747E+03  # ~chi_30
   1000035     1.34453046E+03  # ~chi_40
   1000024     1.02454855E+03  # ~chi_1+
   1000037     1.34458553E+03  # ~chi_2+
# Higgs mixing
Block alpha # Effective Higgs mixing angle
          -2.96031374E-02   # alpha
Block Hmix Q=  3.43001758E+03  # Higgs mixing parameters
   1    1.31762585E+03  # mu
   2    3.29626224E+01  # tan[beta](Q)
   3    2.43114475E+02  # v(Q)
   4    2.10345418E+06  # m^2_A(Q)
Block stopmix # stop mixing matrix
   1  1    -2.65664995E-01   # Re[R_st(1,1)]
   1  2     9.64065408E-01   # Re[R_st(1,2)]
   2  1    -9.64065408E-01   # Re[R_st(2,1)]
   2  2    -2.65664995E-01   # Re[R_st(2,2)]
Block sbotmix # sbottom mixing matrix
   1  1     9.99972981E-01   # Re[R_sb(1,1)]
   1  2     7.35105871E-03   # Re[R_sb(1,2)]
   2  1    -7.35105871E-03   # Re[R_sb(2,1)]
   2  2     9.99972981E-01   # Re[R_sb(2,2)]
Block staumix # stau mixing matrix
   1  1     4.04244638E-01   # Re[R_sta(1,1)]
   1  2     9.14650902E-01   # Re[R_sta(1,2)]
   2  1    -9.14650902E-01   # Re[R_sta(2,1)]
   2  2     4.04244638E-01   # Re[R_sta(2,2)]
Block Nmix # neutralino mixing matrix
   1  1     9.99348389E-01   # Re[N(1,1)]
   1  2    -8.84240227E-04   # Re[N(1,2)]
   1  3     3.51921696E-02   # Re[N(1,3)]
   1  4    -7.97035036E-03   # Re[N(1,4)]
   2  1     6.70466617E-03   # Re[N(2,1)]
   2  2     9.83987188E-01   # Re[N(2,2)]
   2  3    -1.41029483E-01   # Re[N(2,3)]
   2  4     1.08788541E-01   # Re[N(2,4)]
   3  1    -1.92105839E-02   # Re[N(3,1)]
   3  2     2.31629380E-02   # Re[N(3,2)]
   3  3     7.06289106E-01   # Re[N(3,3)]
   3  4     7.07283629E-01   # Re[N(3,4)]
   4  1    -2.98127168E-02   # Re[N(4,1)]
   4  2     1.76725524E-01   # Re[N(4,2)]
   4  3     6.92840454E-01   # Re[N(4,3)]
   4  4    -6.98463597E-01   # Re[N(4,4)]
Block Umix # chargino mixing matrix
   1  1    -9.79136945E-01   # Re[U(1,1)]
   1  2     2.03201483E-01   # Re[U(1,2)]
   2  1     2.03201483E-01   # Re[U(2,1)]
   2  2     9.79136945E-01   # Re[U(2,2)]
Block Vmix # chargino mixing matrix
   1  1    -9.87464550E-01   # Re[V(1,1)]
   1  2     1.57840943E-01   # Re[V(1,2)]
   2  1     1.57840943E-01   # Re[V(2,1)]
   2  2     9.87464550E-01   # Re[V(2,2)]
DECAY        23     2.49520000E+00   # Z
DECAY        24     2.08500000E+00   # W
DECAY   2000011     5.02202006E+01   # ~e^-_R
#    BR                NDA      ID1      ID2
     9.98741082E-01    2     1000022        11   # BR(~e^-_R -> chi^0_1 e^-)
     3.56562221E-04    2     1000025        11   # BR(~e^-_R -> chi^0_3 e^-)
     8.58242369E-04    2     1000035        11   # BR(~e^-_R -> chi^0_4 e^-)
DECAY   1000011     1.42065772E+02   # ~e^-_L
#    BR                NDA      ID1      ID2
     8.80759646E-02    2     1000022        11   # BR(~e^-_L -> chi^0_1 e^-)
     2.96492871E-01    2     1000023        11   # BR(~e^-_L -> chi^0_2 e^-)
     7.74112685E-03    2     1000035        11   # BR(~e^-_L -> chi^0_4 e^-)
     5.82916118E-01    2    -1000024        12   # BR(~e^-_L -> chi^-_1 nu_e)
     2.47240626E-02    2    -1000037        12   # BR(~e^-_L -> chi^-_2 nu_e)
#    BR                NDA      ID1      ID2       ID3
DECAY   2000013     5.03747793E+01   # ~mu^-_R
#    BR                NDA      ID1      ID2
     9.95681247E-01    2     1000022        13   # BR(~mu^-_R -> chi^0_1 mu^-)
     1.12004566E-03    2     1000025        13   # BR(~mu^-_R -> chi^0_3 mu^-)
     1.59095311E-03    2     1000035        13   # BR(~mu^-_R -> chi^0_4 mu^-)
     1.46864119E-03    2    -1000037        14   # BR(~mu^-_R -> chi^-_2 nu_mu)
DECAY   1000013     1.42143407E+02   # ~mu^-_L
#    BR                NDA      ID1      ID2
     8.80287495E-02    2     1000022        13   # BR(~mu^-_L -> chi^0_1 mu^-)
     2.96342577E-01    2     1000023        13   # BR(~mu^-_L -> chi^0_2 mu^-)
     3.21134247E-04    2     1000025        13   # BR(~mu^-_L -> chi^0_3 mu^-)
     7.99785522E-03    2     1000035        13   # BR(~mu^-_L -> chi^0_4 mu^-)
     5.82599067E-01    2    -1000024        14   # BR(~mu^-_L -> chi^-_1 nu_mu)
     2.47106168E-02    2    -1000037        14   # BR(~mu^-_L -> chi^-_2 nu_mu)
#    BR                NDA      ID1      ID2       ID3
DECAY   1000015     1.05560292E+02   # ~tau^-_1
#    BR                NDA      ID1      ID2
     4.21607265E-01    2     1000022        15   # BR(~tau^-_1 -> chi^0_1 tau^-)
     9.93506241E-02    2     1000023        15   # BR(~tau^-_1 -> chi^0_2 tau^-)
     9.84002901E-02    2     1000025        15   # BR(~tau^-_1 -> chi^0_3 tau^-)
     7.28881379E-02    2     1000035        15   # BR(~tau^-_1 -> chi^0_4 tau^-)
     1.96404717E-01    2    -1000024        16   # BR(~tau^-_1 -> chi^-_1 nu_tau)
     1.11348966E-01    2    -1000037        16   # BR(~tau^-_1 -> chi^-_2 nu_tau)
DECAY   2000015     1.52454161E+02   # ~tau^-_2
#    BR                NDA      ID1      ID2
     1.19868426E-01    2     1000022        15   # BR(~tau^-_2 -> chi^0_1 tau^-)
     2.13419168E-01    2     1000023        15   # BR(~tau^-_2 -> chi^0_2 tau^-)
     7.51587784E-02    2     1000025        15   # BR(~tau^-_2 -> chi^0_3 tau^-)
     9.47077938E-02    2     1000035        15   # BR(~tau^-_2 -> chi^0_4 tau^-)
     4.13441344E-01    2    -1000024        16   # BR(~tau^-_2 -> chi^-_1 nu_tau)
     8.34044902E-02    2    -1000037        16   # BR(~tau^-_2 -> chi^-_2 nu_tau)
#    BR                NDA      ID1      ID2       ID3
DECAY   1000012     1.42069671E+02   # ~nu_e
#    BR                NDA      ID1      ID2
     8.86522127E-02    2     1000022        12   # BR(~nu_e -> chi^0_1 nu_e)
     2.92175915E-01    2     1000023        12   # BR(~nu_e -> chi^0_2 nu_e)
     3.34643859E-04    2     1000025        12   # BR(~nu_e -> chi^0_3 nu_e)
     1.11105984E-02    2     1000035        12   # BR(~nu_e -> chi^0_4 nu_e)
     5.92810425E-01    2     1000024        11   # BR(~nu_e -> chi^+_1 e^-)
     1.49162058E-02    2     1000037        11   # BR(~nu_e -> chi^+_2 e^-)
#    BR                NDA      ID1      ID2       ID3
DECAY   1000014     1.42147233E+02   # ~nu_mu
#    BR                NDA      ID1      ID2
     8.86039928E-02    2     1000022        14   # BR(~nu_mu -> chi^0_1 nu_mu)
     2.92017014E-01    2     1000023        14   # BR(~nu_mu -> chi^0_2 nu_mu)
     3.34461879E-04    2     1000025        14   # BR(~nu_mu -> chi^0_3 nu_mu)
     1.11045564E-02    2     1000035        14   # BR(~nu_mu -> chi^0_4 nu_mu)
     5.92510795E-01    2     1000024        13   # BR(~nu_mu -> chi^+_1 mu^-)
     1.54291802E-02    2     1000037        13   # BR(~nu_mu -> chi^+_2 mu^-)
#    BR                NDA      ID1      ID2       ID3
DECAY   1000016     1.64020998E+02   # ~nu_tau
#    BR                NDA      ID1      ID2
     7.68253587E-02    2     1000022        16   # BR(~nu_tau -> chi^0_1 nu_tau)
     2.53202409E-01    2     1000023        16   # BR(~nu_tau -> chi^0_2 nu_tau)
     2.90009778E-04    2     1000025        16   # BR(~nu_tau -> chi^0_3 nu_tau)
     9.62869571E-03    2     1000035        16   # BR(~nu_tau -> chi^0_4 nu_tau)
     5.19320400E-01    2     1000024        15   # BR(~nu_tau -> chi^+_1 tau^-)
     1.40733126E-01    2     1000037        15   # BR(~nu_tau -> chi^+_2 tau^-)
#    BR                NDA      ID1      ID2       ID3
DECAY   2000001     4.18719417E+02   # ~d_R
#    BR                NDA      ID1      ID2
     1.33763544E-02    2     1000022         1   # BR(~d_R -> chi^0_1 d)
     9.86606495E-01    2     1000021         1   # BR(~d_R -> ~g d)
DECAY   1000001     5.47302962E+02   # ~d_L
#    BR                NDA      ID1      ID2
     2.58998300E-03    2     1000022         1   # BR(~d_L -> chi^0_1 d)
     7.67088801E-02    2     1000023         1   # BR(~d_L -> chi^0_2 d)
     2.59225185E-03    2     1000035         1   # BR(~d_L -> chi^0_4 d)
     1.52281742E-01    2    -1000024         2   # BR(~d_L -> chi^-_1 u)
     6.46017102E-03    2    -1000037         2   # BR(~d_L -> chi^-_2 u)
     7.59311604E-01    2     1000021         1   # BR(~d_L -> ~g d)
DECAY   2000003     4.18762957E+02   # ~s_R
#    BR                NDA      ID1      ID2
     1.33750370E-02    2     1000022         3   # BR(~s_R -> chi^0_1 s)
     9.86505360E-01    2     1000021         3   # BR(~s_R -> ~g s)
DECAY   1000003     5.47328492E+02   # ~s_L
#    BR                NDA      ID1      ID2
     2.58991362E-03    2     1000022         3   # BR(~s_L -> chi^0_1 s)
     7.67061263E-02    2     1000023         3   # BR(~s_L -> chi^0_2 s)
     2.61099655E-03    2     1000035         3   # BR(~s_L -> chi^0_4 s)
     1.52274853E-01    2    -1000024         4   # BR(~s_L -> chi^-_1 c)
     6.46614761E-03    2    -1000037         4   # BR(~s_L -> chi^-_2 c)
     7.59276986E-01    2     1000021         3   # BR(~s_L -> ~g s)
DECAY   1000005     1.09571997E+02   # ~b_1
#    BR                NDA      ID1      ID2
     4.76119568E-03    2     1000022         5   # BR(~b_1 -> chi^0_1 b)
     1.18048854E-01    2     1000023         5   # BR(~b_1 -> chi^0_2 b)
     7.11282721E-02    2     1000025         5   # BR(~b_1 -> chi^0_3 b)
     7.12897515E-02    2     1000035         5   # BR(~b_1 -> chi^0_4 b)
     2.36877518E-01    2    -1000024         6   # BR(~b_1 -> chi^-_1 t)
     4.77930596E-01    2    -1000037         6   # BR(~b_1 -> chi^-_2 t)
     1.99638130E-02    2     1000006       -24   # BR(~b_1 -> ~t_1 W^-)
DECAY   2000005     5.55151720E+01   # ~b_2
#    BR                NDA      ID1      ID2
     4.99787310E-02    2     1000022         5   # BR(~b_2 -> chi^0_1 b)
     8.97876761E-03    2     1000023         5   # BR(~b_2 -> chi^0_2 b)
     2.31214287E-01    2     1000025         5   # BR(~b_2 -> chi^0_3 b)
     2.22640637E-01    2     1000035         5   # BR(~b_2 -> chi^0_4 b)
     1.86282513E-02    2    -1000024         6   # BR(~b_2 -> chi^-_1 t)
     4.43689117E-01    2    -1000037         6   # BR(~b_2 -> chi^-_2 t)
     9.37131292E-04    2     1000006       -24   # BR(~b_2 -> ~t_1 W^-)
     8.67303668E-03    2     2000006       -24   # BR(~b_2 -> ~t_2 W^-)
     7.23901061E-04    2     1000006       -37   # BR(~b_2 -> ~t_1 H^-)
     4.79503787E-03    2     1000005        23   # BR(~b_2 -> ~b_1 Z)
     9.74110197E-03    2     1000005        25   # BR(~b_2 -> ~b_1 h^0)
DECAY   2000002     4.35855672E+02   # ~u_R
#    BR                NDA      ID1      ID2
     5.14167697E-02    2     1000022         2   # BR(~u_R -> chi^0_1 u)
     9.48518399E-01    2     1000021         2   # BR(~u_R -> ~g u)
DECAY   1000002     5.47294650E+02   # ~u_L
#    BR                NDA      ID1      ID2
     2.53898451E-03    2     1000022         2   # BR(~u_L -> chi^0_1 u)
     7.70811095E-02    2     1000023         2   # BR(~u_L -> chi^0_2 u)
     2.29859162E-03    2     1000035         2   # BR(~u_L -> chi^0_4 u)
     1.54881133E-01    2     1000024         1   # BR(~u_L -> chi^+_1 d)
     3.89794259E-03    2     1000037         1   # BR(~u_L -> chi^+_2 d)
     7.59271734E-01    2     1000021         2   # BR(~u_L -> ~g u)
DECAY   2000004     4.35862773E+02   # ~c_R
#    BR                NDA      ID1      ID2
     5.14159361E-02    2     1000022         4   # BR(~c_R -> chi^0_1 c)
     9.48503139E-01    2     1000021         4   # BR(~c_R -> ~g c)
DECAY   1000004     5.47320101E+02   # ~c_L
#    BR                NDA      ID1      ID2
     2.53886774E-03    2     1000022         4   # BR(~c_L -> chi^0_1 c)
     7.70776250E-02    2     1000023         4   # BR(~c_L -> chi^0_2 c)
     2.30162397E-03    2     1000035         4   # BR(~c_L -> chi^0_4 c)
     1.54875634E-01    2     1000024         3   # BR(~c_L -> chi^+_1 s)
     3.93543758E-03    2     1000037         3   # BR(~c_L -> chi^+_2 s)
     7.59237096E-01    2     1000021         4   # BR(~c_L -> ~g c)
DECAY   1000006     1.02588418E+02   # ~t_1
#    BR                NDA      ID1      ID2
     6.55421722E-02    2     1000022         6   # BR(~t_1 -> chi^0_1 t)
     6.47176089E-04    2     1000023         6   # BR(~t_1 -> chi^0_2 t)
     2.34230947E-01    2     1000025         6   # BR(~t_1 -> chi^0_3 t)
     2.45303571E-01    2     1000035         6   # BR(~t_1 -> chi^0_4 t)
     6.83912680E-04    2     1000024         5   # BR(~t_1 -> chi^+_1 b)
     4.53506897E-01    2     1000037         5   # BR(~t_1 -> chi^+_2 b)
#    BR                NDA      ID1      ID2       ID3
DECAY   2000006     1.10842061E+02   # ~t_2
#    BR                NDA      ID1      ID2
     9.74150706E-03    2     1000022         6   # BR(~t_2 -> chi^0_1 t)
     1.24432042E-01    2     1000023         6   # BR(~t_2 -> chi^0_2 t)
     2.35846292E-01    2     1000025         6   # BR(~t_2 -> chi^0_3 t)
     2.16180739E-01    2     1000035         6   # BR(~t_2 -> chi^0_4 t)
     2.49737184E-01    2     1000024         5   # BR(~t_2 -> chi^+_1 b)
     1.38397081E-01    2     1000037         5   # BR(~t_2 -> chi^+_2 b)
     1.11837882E-02    2     1000006        23   # BR(~t_2 -> ~t_1 Z)
     1.44813672E-02    2     1000006        25   # BR(~t_2 -> ~t_1 h^0)
DECAY   1000024     2.30420468E-02   # chi^+_1
#    BR                NDA      ID1      ID2
     9.83673120E-01    2     1000022        24   # BR(chi^+_1 -> chi^0_1 W^+)
#    BR                NDA      ID1      ID2       ID3
     1.62918946E-02    3     1000022        -5         6   # BR(chi^+_1 -> chi^0_1 b_bar t)
DECAY   1000037     6.17710096E+00   # chi^+_2
#    BR                NDA      ID1      ID2
     1.46164318E-01    2     1000022        24   # BR(chi^+_2 -> chi^0_1 W^+)
     3.00239736E-01    2     1000023        24   # BR(chi^+_2 -> chi^0_2 W^+)
     2.79463737E-01    2     1000024        23   # BR(chi^+_2 -> chi^+_1 Z)
     2.69701936E-01    2     1000024        25   # BR(chi^+_2 -> chi^+_1 h^0)
#    BR                NDA      ID1      ID2       ID3
     3.56311902E-03    3     1000022        -5         6   # BR(chi^+_2 -> chi^0_1 b_bar t)
     8.55348098E-04    3     1000023        -5         6   # BR(chi^+_2 -> chi^0_2 b_bar t)
DECAY   1000022     0.00000000E+00   # chi^0_1
DECAY   1000023     2.07293088E-02   # chi^0_2
#    BR                NDA      ID1      ID2
     2.45404340E-01    2     1000022        23   # BR(chi^0_2 -> chi^0_1 Z)
     7.48037546E-01    2     1000022        25   # BR(chi^0_2 -> chi^0_1 h^0)
#    BR                NDA      ID1      ID2       ID3
     6.20497862E-03    3     1000022         6        -6   # BR(chi^0_2 -> chi^0_1 t t_bar)
     3.12578544E-04    3     1000022         5        -5   # BR(chi^0_2 -> chi^0_1 b b_bar)
DECAY   1000025     8.80363756E+00   # chi^0_3
#    BR                NDA      ID1      ID2
     2.30106310E-01    2     1000024       -24   # BR(chi^0_3 -> chi^+_1 W^-)
     2.30106310E-01    2    -1000024        24   # BR(chi^0_3 -> chi^-_1 W^+)
     7.63527989E-02    2     1000022        23   # BR(chi^0_3 -> chi^0_1 Z)
     2.20934171E-01    2     1000023        23   # BR(chi^0_3 -> chi^0_2 Z)
     6.09526457E-02    2     1000022        25   # BR(chi^0_3 -> chi^0_1 h^0)
     1.78903300E-01    2     1000023        25   # BR(chi^0_3 -> chi^0_2 h^0)
     1.07467976E-04    2     1000023        22   # BR(chi^0_3 -> chi^0_2 photon)
#    BR                NDA      ID1      ID2       ID3
     1.27929898E-03    3     1000022         6        -6   # BR(chi^0_3 -> chi^0_1 t t_bar)
     5.95218285E-04    3     1000024         5        -6   # BR(chi^0_3 -> chi^+_1 b t_bar)
     5.95218285E-04    3    -1000024        -5         6   # BR(chi^0_3 -> chi^-_1 b_bar t)
DECAY   1000035     5.82553447E+00   # chi^0_4
#    BR                NDA      ID1      ID2
     2.80945108E-01    2     1000024       -24   # BR(chi^0_4 -> chi^+_1 W^-)
     2.80945108E-01    2    -1000024        24   # BR(chi^0_4 -> chi^-_1 W^+)
     4.49906577E-02    2     1000022        23   # BR(chi^0_4 -> chi^0_1 Z)
     5.47001413E-03    2     1000023        23   # BR(chi^0_4 -> chi^0_2 Z)
     1.00579235E-01    2     1000022        25   # BR(chi^0_4 -> chi^0_1 h^0)
     2.83229084E-01    2     1000023        25   # BR(chi^0_4 -> chi^0_2 h^0)
#    BR                NDA      ID1      ID2       ID3
     1.89655887E-03    3     1000022         6        -6   # BR(chi^0_4 -> chi^0_1 t t_bar)
     9.24865608E-04    3     1000024         5        -6   # BR(chi^0_4 -> chi^+_1 b t_bar)
     9.24865608E-04    3    -1000024        -5         6   # BR(chi^0_4 -> chi^-_1 b_bar t)
DECAY   1000021     1.58630658E+02   # ~g
#    BR                NDA      ID1      ID2
     1.92964074E-01    2     1000006        -6   # BR(~g -> ~t_1 t_bar)
     1.92964074E-01    2    -1000006         6   # BR(~g -> ~t^*_1 t)
     1.43281029E-01    2     2000006        -6   # BR(~g -> ~t_2 t_bar)
     1.43281029E-01    2    -2000006         6   # BR(~g -> ~t^*_2 t)
     1.55149977E-01    2     1000005        -5   # BR(~g -> ~b_1 b_bar)
     1.55149977E-01    2    -1000005         5   # BR(~g -> ~b^*_1 b)
     8.47397904E-03    2     2000005        -5   # BR(~g -> ~b_2 b_bar)
     8.47397904E-03    2    -2000005         5   # BR(~g -> ~b^*_2 b)
#    BR                NDA      ID1      ID2       ID3
DECAY        25     3.28510991E-03   # Gamma(h0)
     2.56560892E-03   2        22        22   # BR(h0 -> photon photon)
     1.43520854E-03   2        22        23   # BR(h0 -> photon Z)
     2.44506061E-02   2        23        23   # BR(h0 -> Z Z)
     2.11408405E-01   2       -24        24   # BR(h0 -> W W)
     8.12218216E-02   2        21        21   # BR(h0 -> gluon gluon)
     5.23699492E-09   2       -11        11   # BR(h0 -> Electron electron)
     2.32949612E-04   2       -13        13   # BR(h0 -> Muon muon)
     6.71645439E-02   2       -15        15   # BR(h0 -> Tau tau)
     1.46299199E-07   2        -2         2   # BR(h0 -> Up up)
     2.83924282E-02   2        -4         4   # BR(h0 -> Charm charm)
     6.07742297E-07   2        -1         1   # BR(h0 -> Down down)
     2.19805565E-04   2        -3         3   # BR(h0 -> Strange strange)
     5.82907863E-01   2        -5         5   # BR(h0 -> Bottom bottom)
DECAY        35     1.74473780E+01   # Gamma(HH)
     4.47048835E-08   2        22        22   # BR(HH -> photon photon)
     6.97761824E-08   2        22        23   # BR(HH -> photon Z)
     5.45597583E-06   2        23        23   # BR(HH -> Z Z)
     4.56887574E-06   2       -24        24   # BR(HH -> W W)
     2.87762416E-05   2        21        21   # BR(HH -> gluon gluon)
     1.36179363E-08   2       -11        11   # BR(HH -> Electron electron)
     6.06198521E-04   2       -13        13   # BR(HH -> Muon muon)
     1.75056891E-01   2       -15        15   # BR(HH -> Tau tau)
     1.35488607E-13   2        -2         2   # BR(HH -> Up up)
     2.62801714E-08   2        -4         4   # BR(HH -> Charm charm)
     1.47714250E-03   2        -6         6   # BR(HH -> Top top)
     1.03657454E-06   2        -1         1   # BR(HH -> Down down)
     3.74908766E-04   2        -3         3   # BR(HH -> Strange strange)
     8.21704759E-01   2        -5         5   # BR(HH -> Bottom bottom)
     1.83754451E-04   2   1000022   1000022   # BR(HH -> neutralino1 neutralino1)
     4.99662899E-04   2   1000022   1000023   # BR(HH -> neutralino1 neutralino2)
     5.66907295E-05   2        25        25   # BR(HH -> h0 h0)
DECAY        36     1.70072363E+01   # Gamma(A0)
     3.86492563E-08   2        22        22   # BR(A0 -> photon photon)
     2.19211922E-08   2        22        23   # BR(A0 -> photon Z)
     6.08072640E-05   2        21        21   # BR(A0 -> gluon gluon)
     1.36042648E-08   2       -11        11   # BR(A0 -> Electron electron)
     6.05589777E-04   2       -13        13   # BR(A0 -> Muon muon)
     1.74882221E-01   2       -15        15   # BR(A0 -> Tau tau)
     1.32478621E-13   2        -2         2   # BR(A0 -> Up up)
     2.56951136E-08   2        -4         4   # BR(A0 -> Charm charm)
     1.53676332E-03   2        -6         6   # BR(A0 -> Top top)
     1.03554004E-06   2        -1         1   # BR(A0 -> Down down)
     3.74534366E-04   2        -3         3   # BR(A0 -> Strange strange)
     8.20900690E-01   2        -5         5   # BR(A0 -> Bottom bottom)
     2.22123530E-04   2   1000022   1000022   # BR(A0 -> neutralino1 neutralino1)
     1.40867892E-03   2   1000022   1000023   # BR(A0 -> neutralino1 neutralino2)
     7.45630070E-06   2        23        25   # BR(A0 -> Z h0)
     2.64842505E-38   2        25        25   # BR(A0 -> h0 h0)
DECAY        37     1.92840915E+01   # Gamma(Hp)
     1.45865448E-08   2       -11        12   # BR(Hp -> Electron nu_e)
     6.23620342E-04   2       -13        14   # BR(Hp -> Muon nu_mu)
     1.76394894E-01   2       -15        16   # BR(Hp -> Tau nu_tau)
     9.80774126E-07   2        -1         2   # BR(Hp -> Down up)
     1.64090461E-05   2        -3         2   # BR(Hp -> Strange up)
     8.76714952E-06   2        -5         2   # BR(Hp -> Bottom up)
     4.70492407E-08   2        -1         4   # BR(Hp -> Down charm)
     3.53466963E-04   2        -3         4   # BR(Hp -> Strange charm)
     1.22771323E-03   2        -5         4   # BR(Hp -> Bottom charm)
     1.76368019E-07   2        -1         6   # BR(Hp -> Down top)
     4.35287536E-06   2        -3         6   # BR(Hp -> Strange top)
     8.19648131E-01   2        -5         6   # BR(Hp -> Bottom top)
     1.71476489E-03   2   1000022   1000024   # BR(Hp -> neutralino1 chargino1)
     6.66211474E-06   2        24        25   # BR(Hp -> W h0)
     1.86571716E-10   2        24        35   # BR(Hp -> W HH)
     1.96941524E-10   2        24        36   # BR(Hp -> W A0)
DECAY         6     2.43000000E+00   # top
#    BR                NDA      ID1      ID2
     1.00000000E+00    2           5        24   # BR(t -> b W)
Block HiggsBoundsInputHiggsCouplingsFermions
# ScalarNormEffCoupSq PseudoSNormEffCoupSq NP IP1 IP2 IP2
    9.52777839E-01    0.00000000E+00        3  25   5   5  # h0-b-b eff. coupling^2, normalised to SM
    1.08658170E+03    0.00000000E+00        3  35   5   5  # H0-b-b eff. coupling^2, normalised to SM
    0.00000000E+00    1.08653448E+03        3  36   5   5  # A0-b-b eff. coupling^2, normalised to SM
#
    1.00004346E+00    0.00000000E+00        3  25   6   6  # h0-t-t eff. coupling^2, normalised to SM
    8.76896096E-04    0.00000000E+00        3  35   6   6  # H0-t-t eff. coupling^2, normalised to SM
    0.00000000E+00    9.20357359E-04        3  36   6   6  # A0-t-t eff. coupling^2, normalised to SM
#
    9.52777839E-01    0.00000000E+00        3  25  15  15  # h0-tau-tau eff. coupling^2, normalised to SM
    1.08658170E+03    0.00000000E+00        3  35  15  15  # H0-tau-tau eff. coupling^2, normalised to SM
    0.00000000E+00    1.08653448E+03        3  36  15  15  # A0-tau-tau eff. coupling^2, normalised to SM
#
Block HiggsBoundsInputHiggsCouplingsBosons
    9.99999474E-01        3  25  24  24  # h0-W-W eff. coupling^2, normalised to SM
    5.25556388E-07        3  35  24  24  # H0-W-W eff. coupling^2, normalised to SM
    0.00000000E+00        3  36  24  24  # A0-W-W eff. coupling^2, normalised to SM
#
    9.99999474E-01        3  25  23  23  # h0-Z-Z eff. coupling^2, normalised to SM
    5.25556388E-07        3  35  23  23  # H0-Z-Z eff. coupling^2, normalised to SM
    0.00000000E+00        3  36  23  23  # A0-Z-Z eff. coupling^2, normalised to SM
#
    1.26677730E+00        3  25  21  21  # h0-g-g eff. coupling^2, normalised to SM
    8.63760747E-03        3  35  21  21  # H0-g-g eff. coupling^2, normalised to SM
    1.25394541E-01        3  36  21  21  # A0-g-g eff. coupling^2, normalised to SM
#
    0.00000000E+00        3  25  25  23  # h0-h0-Z eff. coupling^2, normalised to SM
    0.00000000E+00        3  35  25  23  # H0-h0-Z eff. coupling^2, normalised to SM
    5.25556388E-07        3  36  25  23  # A0-h0-Z eff. coupling^2, normalised to SM
    0.00000000E+00        3  35  35  23  # H0-H0-Z eff. coupling^2, normalised to SM
    9.99999474E-01        3  36  35  23  # A0-H0-Z eff. coupling^2, normalised to SM
    0.00000000E+00        3  36  36  23  # A0-A0-Z eff. coupling^2, normalised to SM
#
    0.00000000E+00        4  25  21  21  23  # h0-g-g-Z eff. coupling^2, normalised to SM
    0.00000000E+00        4  35  21  21  23  # H0-g-g-Z eff. coupling^2, normalised to SM
    0.00000000E+00        4  36  21  21  23  # A0-g-g-Z eff. coupling^2, normalised to SM
Block SPhenoLowEnergy  # low energy observables
    1    3.41394236E-04   # BR(b -> s gamma)
    2    1.58795752E-06   # BR(b -> s mu+ mu-)
    3    3.52486782E-05   # BR(b -> s nu nu)
    4    2.69242457E-15   # BR(Bd -> e+ e-)
    5    1.15017406E-10   # BR(Bd -> mu+ mu-)
    6    2.40827419E-08   # BR(Bd -> tau+ tau-)
    7    8.98898459E-14   # BR(Bs -> e+ e-)
    8    3.84009423E-09   # BR(Bs -> mu+ mu-)
    9    8.14688347E-07   # BR(Bs -> tau+ tau-)
   10    9.32941745E-05   # BR(B_u -> tau nu)
   11    9.63693105E-01   # BR(B_u -> tau nu)/BR(B_u -> tau nu)_SM
   12    5.42025893E-01   # |Delta(M_Bd)| [ps^-1] 
   13    1.93497781E+01   # |Delta(M_Bs)| [ps^-1] 
   14    0.00000000E+00   # neutron EDM according to the chiral quark model
   15    0.00000000E+00   # neutron EDM according to the relativistic quark-parton model
   16    2.15767327E-03   # epsilon_K
   17    2.28166546E-15   # Delta(M_K)
   18    2.47965346E-11   # BR(K^0 -> pi^0 nu nu)
   19    8.28968389E-11   # BR(K^+ -> pi^+ nu nu)
   20    3.08780340E-16   # Delta(g-2)_electron/2
   21    1.32013694E-11   # Delta(g-2)_muon/2
   22    3.73746927E-09   # Delta(g-2)_tau/2
   23    0.00000000E+00   # electric dipole moment of the electron
   24    0.00000000E+00   # electric dipole moment of the muon
   25    0.00000000E+00   # electric dipole moment of the tau
   26    0.00000000E+00   # Br(mu -> e gamma)
   27    0.00000000E+00   # Br(tau -> e gamma)
   28    0.00000000E+00   # Br(tau -> mu gamma)
   29    0.00000000E+00   # Br(mu -> 3 e)
   30    0.00000000E+00   # Br(tau -> 3 e)
   31    0.00000000E+00   # Br(tau -> 3 mu)
   39    6.93139362E-05   # Delta(rho_parameter)
   40    0.00000000E+00   # BR(Z -> e mu)
   41    0.00000000E+00   # BR(Z -> e tau)
   42    0.00000000E+00   # BR(Z -> mu tau)
Block FWCOEF Q=  1.60000000E+02  # Wilson coefficients at scale Q
#    id        order  M        value         comment
     0305 4422   00   0    -1.88819110E-01   # C7
     0305 4422   00   2    -2.10099860E-01   # C7
     0305 4322   00   2    -4.10453202E-04   # C7'
     0305 6421   00   0    -9.52278348E-02   # C8
     0305 6421   00   2    -1.20872274E-01   # C8
     0305 6321   00   2    -5.04781156E-04   # C8'
 03051111 4133   00   0     1.62139943E+00   # C9 e+e-
 03051111 4133   00   2     1.62162462E+00   # C9 e+e-
 03051111 4233   00   2     1.50242047E-04   # C9' e+e-
 03051111 4137   00   0    -4.44409153E+00   # C10 e+e-
 03051111 4137   00   2    -4.44207386E+00   # C10 e+e-
 03051111 4237   00   2    -1.12004216E-03   # C10' e+e-
 03051313 4133   00   0     1.62139943E+00   # C9 mu+mu-
 03051313 4133   00   2     1.62162453E+00   # C9 mu+mu-
 03051313 4233   00   2     1.50239979E-04   # C9' mu+mu-
 03051313 4137   00   0    -4.44409153E+00   # C10 mu+mu-
 03051313 4137   00   2    -4.44207395E+00   # C10 mu+mu-
 03051313 4237   00   2    -1.12004026E-03   # C10' mu+mu-
 03051212 4137   00   0     1.50535012E+00   # C11 nu_1 nu_1
 03051212 4137   00   2     1.50491447E+00   # C11 nu_1 nu_1
 03051212 4237   00   2     2.42483094E-04   # C11' nu_1 nu_1
 03051414 4137   00   0     1.50535012E+00   # C11 nu_2 nu_2
 03051414 4137   00   2     1.50491447E+00   # C11 nu_2 nu_2
 03051414 4237   00   2     2.42483532E-04   # C11' nu_2 nu_2
 03051616 4137   00   0     1.50535012E+00   # C11 nu_3 nu_3
 03051616 4137   00   2     1.50491447E+00   # C11 nu_3 nu_3
 03051616 4237   00   2     2.42607031E-04   # C11' nu_3 nu_3
Block IMFWCOEF Q=  1.60000000E+02  # Im(Wilson coefficients) at scale Q
#    id        order  M        value         comment
     0305 4422   00   0     3.85791590E-07   # C7
     0305 4422   00   2     6.93413093E-06   # C7
     0305 4322   00   2    -7.67888378E-09   # C7'
     0305 6421   00   0     3.30456011E-07   # C8
     0305 6421   00   2    -9.88926966E-07   # C8
     0305 6321   00   2    -8.38250176E-08   # C8'
 03051111 4133   00   2     2.73943254E-07   # C9 e+e-
 03051111 4233   00   2     4.28511922E-06   # C9' e+e-
 03051111 4137   00   2     2.39548825E-07   # C10 e+e-
 03051111 4237   00   2    -3.19558073E-05   # C10' e+e-
 03051313 4133   00   2     2.73941553E-07   # C9 mu+mu-
 03051313 4233   00   2     4.28511843E-06   # C9' mu+mu-
 03051313 4137   00   2     2.39550635E-07   # C10 mu+mu-
 03051313 4237   00   2    -3.19558097E-05   # C10' mu+mu-
 03051212 4137   00   2    -3.10794684E-08   # C11 nu_1 nu_1
 03051212 4237   00   2     6.91826505E-06   # C11' nu_1 nu_1
 03051414 4137   00   2    -3.10793860E-08   # C11 nu_2 nu_2
 03051414 4237   00   2     6.91826505E-06   # C11' nu_2 nu_2
 03051616 4137   00   2    -3.10563592E-08   # C11 nu_3 nu_3
 03051616 4237   00   2     6.91826505E-06   # C11' nu_3 nu_3
