# SUSY Les Houches Accord 2 - MSSM spectrum + Decays
# SPheno v4.0.5be
# W. Porod, Comput. Phys. Commun. 153 (2003) 275-315, hep-ph/0301101;
# W. Porod, F.~Staub, Comput. Phys. Commun. 183 (2012) 2458
#                     arXiv:1104.1573 [hep-ph] 
# in case of problems send email to porod@physik.uni-wuerzburg.de
# Created: 07.09.2021,  18:30
Block SPINFO         # Program information
     1   SPheno      # spectrum calculator
     2   v4.0.5be    # version number
#
Block SPhenoINFO     # SPheno specific information
    1      2         # using 2-loop RGEs
    2      2         # using pole masses for boundary conditions at mZ
Block MODSEL  # Model selection
    1    0    # general MSSM
Block MINPAR  # Input parameters
    3    5.08303535E+01  # tanb at m_Z    
    4   -1.00000000E+00  # Sign(mu)
Block EXTPAR  # non-universal input parameters
    0    4.15355960E+03  # scale for input parameters
    1    3.14548047E+02  # M_1
    2    1.14520144E+03  # M_2
    3    2.83729029E+03  # M_3
   11   -3.44137709E+03  # A_t
   12   -1.22680910E+03  # A_b
   13   -1.29721468E+03  # A_tau
   23   -3.19751736E+02  # mu
   25    5.02747606E+01  # tan(beta)
   26    4.97906281E+03  # m_A, pole mass
   31    1.00000000E+04  # M_L11
   32    1.00000000E+04  # M_L22
   33    1.00000000E+04  # M_L33
   34    1.00000000E+04  # M_E11
   35    1.00000000E+04  # M_E22
   36    1.00000000E+04  # M_E33
   41    1.00000000E+04  # M_Q11
   42    1.00000000E+04  # M_Q22
   43    4.62209193E+03  # M_Q33
   44    1.00000000E+04  # M_U11
   45    1.00000000E+04  # M_U22
   46    3.67188731E+03  # M_U33
   47    1.00000000E+04  # M_D11
   48    1.00000000E+04  # M_D22
   49    2.54923497E+03  # M_D33
Block SMINPUTS  # SM parameters
         1     1.27908970E+02  # alpha_em^-1(MZ)^MSbar
         2     1.16637870E-05  # G_mu [GeV^-2]
         3     1.18400000E-01  # alpha_s(MZ)^MSbar
         4     9.11876000E+01  # m_Z(pole)
         5     4.18000000E+00  # m_b(m_b), MSbar
         6     1.73200000E+02  # m_t(pole)
         7     1.77700000E+00  # m_tau(pole)
         8     0.00000000E+00  # m_nu_3
        11     5.10998930E-04  # m_e(pole)
        12     0.00000000E+00  # m_nu_1
        13     1.05658372E-01  # m_muon(pole)
        14     0.00000000E+00  # m_nu_2
        21     5.00000000E-03  # m_d(2 GeV), MSbar
        22     2.50000000E-03  # m_u(2 GeV), MSbar
        23     9.50000000E-02  # m_s(2 GeV), MSbar
        24     1.27000000E+00  # m_c(m_c), MSbar
Block gauge Q=  4.15355960E+03  # (SUSY scale)
   1    3.55362975E-01  # g'(Q)^DRbar
   2    6.65198874E-01  # g(Q)^DRbar
   3    1.21977796E+00  # g3(Q)^DRbar
Block Yu Q=  4.15355960E+03  # (SUSY scale)
  1  1     8.38603057E-06   # Y_u(Q)^DRbar
  2  2     4.26010353E-03   # Y_c(Q)^DRbar
  3  3     1.01309985E+00   # Y_t(Q)^DRbar
Block Yd Q=  4.15355960E+03  # (SUSY scale)
  1  1     8.47201468E-04   # Y_d(Q)^DRbar
  2  2     1.60968279E-02   # Y_s(Q)^DRbar
  3  3     8.40158382E-01   # Y_b(Q)^DRbar
Block Ye Q=  4.15355960E+03  # (SUSY scale)
  1  1     1.47842851E-04   # Y_e(Q)^DRbar
  2  2     3.05692127E-02   # Y_mu(Q)^DRbar
  3  3     5.14123869E-01   # Y_tau(Q)^DRbar
Block Au Q=  4.15355960E+03  # (SUSY scale)
  1  1     0.00000000E+00   # A_u(Q)^DRbar
  2  2     0.00000000E+00   # A_c(Q)^DRbar
  3  3    -3.44137863E+03   # A_t(Q)^DRbar
Block Ad Q=  4.15355960E+03  # (SUSY scale)
  1  1     0.00000000E+00   # A_d(Q)^DRbar
  2  2     0.00000000E+00   # A_s(Q)^DRbar
  3  3    -1.22680917E+03   # A_b(Q)^DRbar
Block Ae Q=  4.15355960E+03  # (SUSY scale)
  1  1     0.00000000E+00   # A_e(Q)^DRbar
  2  2     0.00000000E+00   # A_mu(Q)^DRbar
  3  3    -1.29721450E+03   # A_tau(Q)^DRbar
Block MSOFT Q=  4.15355960E+03  # soft SUSY breaking masses at Q
   1    3.14548047E+02  # M_1
   2    1.14520144E+03  # M_2
   3    2.83729029E+03  # M_3
  21    2.50009895E+07  # M^2_(H,d)
  22    2.71452009E+05  # M^2_(H,u)
  31    1.00000000E+04  # M_(L,11)
  32    1.00000000E+04  # M_(L,22)
  33    1.00000000E+04  # M_(L,33)
  34    1.00000000E+04  # M_(E,11)
  35    1.00000000E+04  # M_(E,22)
  36    1.00000000E+04  # M_(E,33)
  41    1.00000000E+04  # M_(Q,11)
  42    1.00000000E+04  # M_(Q,22)
  43    4.62209193E+03  # M_(Q,33)
  44    1.00000000E+04  # M_(U,11)
  45    1.00000000E+04  # M_(U,22)
  46    3.67188731E+03  # M_(U,33)
  47    1.00000000E+04  # M_(D,11)
  48    1.00000000E+04  # M_(D,22)
  49    2.54923497E+03  # M_(D,33)
Block MASS  # Mass spectrum
#   PDG code      mass          particle
         6     1.73200000E+02  # m_t(pole)
        23     9.11876000E+01  # m_Z(pole)
        24     8.04299946E+01  # W+
        15     1.77700000E+00  # m_tau(pole)
        25     1.24262461E+02  # h0
        35     4.97609308E+03  # H0
        36     4.97906281E+03  # A0
        37     4.97555220E+03  # H+
   1000001     1.01127468E+04  # ~d_L
   2000001     1.00883188E+04  # ~d_R
   1000002     1.01123835E+04  # ~u_L
   2000002     1.00909992E+04  # ~u_R
   1000003     1.01127494E+04  # ~s_L
   2000003     1.00883233E+04  # ~s_R
   1000004     1.01123860E+04  # ~c_L
   2000004     1.00909997E+04  # ~c_R
   1000005     2.64692339E+03  # ~b_1
   2000005     4.65498707E+03  # ~b_2
   1000006     3.70210795E+03  # ~t_1
   2000006     4.66006328E+03  # ~t_2
   1000011     1.00207268E+04  # ~e_L-
   2000011     1.00093975E+04  # ~e_R-
   1000012     1.00199603E+04  # ~nu_eL
   1000013     1.00207392E+04  # ~mu_L-
   2000013     1.00094199E+04  # ~mu_R-
   1000014     1.00199722E+04  # ~nu_muL
   1000015     1.00159643E+04  # ~tau_1-
   2000015     1.00244041E+04  # ~tau_2-
   1000016     1.00234288E+04  # ~nu_tauL
   1000021     3.31260240E+03  # ~g
   1000022     2.93633279E+02  # ~chi_10
   1000023     3.39860064E+02  # ~chi_20
   1000025     3.56916367E+02  # ~chi_30
   1000035     1.23810458E+03  # ~chi_40
   1000024     3.35015963E+02  # ~chi_1+
   1000037     1.23752631E+03  # ~chi_2+
# Higgs mixing
Block alpha # Effective Higgs mixing angle
          -1.96878771E-02   # alpha
Block Hmix Q=  4.15355960E+03  # Higgs mixing parameters
   1   -3.19751736E+02  # mu
   2    5.02747606E+01  # tan[beta](Q)
   3    2.42899051E+02  # v(Q)
   4    2.47910665E+07  # m^2_A(Q)
Block stopmix # stop mixing matrix
   1  1     6.32313438E-02   # Re[R_st(1,1)]
   1  2     9.97998896E-01   # Re[R_st(1,2)]
   2  1    -9.97998896E-01   # Re[R_st(2,1)]
   2  2     6.32313438E-02   # Re[R_st(2,2)]
Block sbotmix # sbottom mixing matrix
   1  1    -2.12820388E-03   # Re[R_sb(1,1)]
   1  2     9.99997735E-01   # Re[R_sb(1,2)]
   2  1    -9.99997735E-01   # Re[R_sb(2,1)]
   2  2    -2.12820388E-03   # Re[R_sb(2,2)]
Block staumix # stau mixing matrix
   1  1    -1.56131482E-01   # Re[R_sta(1,1)]
   1  2     9.87736281E-01   # Re[R_sta(1,2)]
   2  1    -9.87736281E-01   # Re[R_sta(2,1)]
   2  2    -1.56131482E-01   # Re[R_sta(2,2)]
Block Nmix # neutralino mixing matrix
   1  1    -7.84439771E-01   # Re[N(1,1)]
   1  2     3.38264740E-02   # Re[N(1,2)]
   1  3     4.67326245E-01   # Re[N(1,3)]
   1  4     4.06344924E-01   # Re[N(1,4)]
   2  1     4.91442200E-02   # Re[N(2,1)]
   2  2    -3.70767485E-02   # Re[N(2,2)]
   2  3     7.02055339E-01   # Re[N(2,3)]
   2  4    -7.09456455E-01   # Re[N(2,4)]
   3  1    -6.18245274E-01   # Re[N(3,1)]
   3  2    -5.14258264E-02   # Re[N(3,2)]
   3  3    -5.37047748E-01   # Re[N(3,3)]
   3  4    -5.71583661E-01   # Re[N(3,4)]
   4  1    -3.44574237E-03   # Re[N(4,1)]
   4  2     9.97414893E-01   # Re[N(4,2)]
   4  3    -1.74412816E-02   # Re[N(4,3)]
   4  4    -6.96237014E-02   # Re[N(4,4)]
Block Umix # chargino mixing matrix
   1  1    -2.46897454E-02   # Re[U(1,1)]
   1  2    -9.99695162E-01   # Re[U(1,2)]
   2  1     9.99695162E-01   # Re[U(2,1)]
   2  2    -2.46897454E-02   # Re[U(2,2)]
Block Vmix # chargino mixing matrix
   1  1    -9.85009484E-02   # Re[V(1,1)]
   1  2     9.95136957E-01   # Re[V(1,2)]
   2  1     9.95136957E-01   # Re[V(2,1)]
   2  2     9.85009484E-02   # Re[V(2,2)]
DECAY        23     2.49520000E+00   # Z
DECAY        24     2.08500000E+00   # W
DECAY   2000011     5.01911785E+01   # ~e^-_R
#    BR                NDA      ID1      ID2
     6.15540230E-01    2     1000022        11   # BR(~e^-_R -> chi^0_1 e^-)
     2.41454689E-03    2     1000023        11   # BR(~e^-_R -> chi^0_2 e^-)
     3.82033601E-01    2     1000025        11   # BR(~e^-_R -> chi^0_3 e^-)
DECAY   1000011     1.40886250E+02   # ~e^-_L
#    BR                NDA      ID1      ID2
     4.63814915E-02    2     1000022        11   # BR(~e^-_L -> chi^0_1 e^-)
     4.54974899E-02    2     1000025        11   # BR(~e^-_L -> chi^0_3 e^-)
     3.00897864E-01    2     1000035        11   # BR(~e^-_L -> chi^0_4 e^-)
     3.80825140E-04    2    -1000024        12   # BR(~e^-_L -> chi^-_1 nu_e)
     6.06805728E-01    2    -1000037        12   # BR(~e^-_L -> chi^-_2 nu_e)
#    BR                NDA      ID1      ID2       ID3
DECAY   2000013     5.05626098E+01   # ~mu^-_R
#    BR                NDA      ID1      ID2
     6.11822234E-01    2     1000022        13   # BR(~mu^-_R -> chi^0_1 mu^-)
     4.20652076E-03    2     1000023        13   # BR(~mu^-_R -> chi^0_2 mu^-)
     3.80286755E-01    2     1000025        13   # BR(~mu^-_R -> chi^0_3 mu^-)
     3.66977706E-03    2    -1000024        14   # BR(~mu^-_R -> chi^-_1 nu_mu)
DECAY   1000013     1.41072304E+02   # ~mu^-_L
#    BR                NDA      ID1      ID2
     4.66082731E-02    2     1000022        13   # BR(~mu^-_L -> chi^0_1 mu^-)
     6.85919173E-04    2     1000023        13   # BR(~mu^-_L -> chi^0_2 mu^-)
     4.58174482E-02    2     1000025        13   # BR(~mu^-_L -> chi^0_3 mu^-)
     3.00501804E-01    2     1000035        13   # BR(~mu^-_L -> chi^0_4 mu^-)
     3.80323358E-04    2    -1000024        14   # BR(~mu^-_L -> chi^-_1 nu_mu)
     6.06006232E-01    2    -1000037        14   # BR(~mu^-_L -> chi^-_2 nu_mu)
#    BR                NDA      ID1      ID2       ID3
DECAY   1000015     1.56277329E+02   # ~tau^-_1
#    BR                NDA      ID1      ID2
     2.87591857E-01    2     1000022        15   # BR(~tau^-_1 -> chi^0_1 tau^-)
     1.62270805E-01    2     1000023        15   # BR(~tau^-_1 -> chi^0_2 tau^-)
     2.03533494E-01    2     1000025        15   # BR(~tau^-_1 -> chi^0_3 tau^-)
     5.10508994E-03    2     1000035        15   # BR(~tau^-_1 -> chi^0_4 tau^-)
     3.31194871E-01    2    -1000024        16   # BR(~tau^-_1 -> chi^-_1 nu_tau)
     1.03038824E-02    2    -1000037        16   # BR(~tau^-_1 -> chi^-_2 nu_tau)
DECAY   2000015     1.92583678E+02   # ~tau^-_2
#    BR                NDA      ID1      ID2
     8.03881427E-02    2     1000022        15   # BR(~tau^-_2 -> chi^0_1 tau^-)
     1.38068259E-01    2     1000023        15   # BR(~tau^-_2 -> chi^0_2 tau^-)
     1.25200403E-01    2     1000025        15   # BR(~tau^-_2 -> chi^0_3 tau^-)
     2.16227949E-01    2     1000035        15   # BR(~tau^-_2 -> chi^0_4 tau^-)
     4.23533639E-03    2    -1000024        16   # BR(~tau^-_2 -> chi^-_1 nu_tau)
     4.35879910E-01    2    -1000037        16   # BR(~tau^-_2 -> chi^-_2 nu_tau)
#    BR                NDA      ID1      ID2       ID3
DECAY   1000012     1.40890448E+02   # ~nu_e
#    BR                NDA      ID1      ID2
     6.40955085E-02    2     1000022        12   # BR(~nu_e -> chi^0_1 nu_e)
     1.25260762E-03    2     1000023        12   # BR(~nu_e -> chi^0_2 nu_e)
     2.42793598E-02    2     1000025        12   # BR(~nu_e -> chi^0_3 nu_e)
     3.03093727E-01    2     1000035        12   # BR(~nu_e -> chi^0_4 nu_e)
     6.06078825E-03    2     1000024        11   # BR(~nu_e -> chi^+_1 e^-)
     6.01218009E-01    2     1000037        11   # BR(~nu_e -> chi^+_2 e^-)
#    BR                NDA      ID1      ID2       ID3
DECAY   1000014     1.41076480E+02   # ~nu_mu
#    BR                NDA      ID1      ID2
     6.40110643E-02    2     1000022        14   # BR(~nu_mu -> chi^0_1 nu_mu)
     1.25095734E-03    2     1000023        14   # BR(~nu_mu -> chi^0_2 nu_mu)
     2.42473724E-02    2     1000025        14   # BR(~nu_mu -> chi^0_3 nu_mu)
     3.02694430E-01    2     1000035        14   # BR(~nu_mu -> chi^0_4 nu_mu)
     7.36943822E-03    2     1000024        13   # BR(~nu_mu -> chi^+_1 mu^-)
     6.00426738E-01    2     1000037        13   # BR(~nu_mu -> chi^+_2 mu^-)
#    BR                NDA      ID1      ID2       ID3
DECAY   1000016     1.93532035E+02   # ~nu_tau
#    BR                NDA      ID1      ID2
     4.66774486E-02    2     1000022        16   # BR(~nu_tau -> chi^0_1 nu_tau)
     9.12209808E-04    2     1000023        16   # BR(~nu_tau -> chi^0_2 nu_tau)
     1.76814139E-02    2     1000025        16   # BR(~nu_tau -> chi^0_3 nu_tau)
     2.20731982E-01    2     1000035        16   # BR(~nu_tau -> chi^0_4 nu_tau)
     2.75991832E-01    2     1000024        15   # BR(~nu_tau -> chi^+_1 tau^-)
     4.38005114E-01    2     1000037        15   # BR(~nu_tau -> chi^+_2 tau^-)
#    BR                NDA      ID1      ID2       ID3
DECAY   2000001     6.39467297E+02   # ~d_R
#    BR                NDA      ID1      ID2
     5.41064997E-03    2     1000022         1   # BR(~d_R -> chi^0_1 d)
     3.35818449E-03    2     1000025         1   # BR(~d_R -> chi^0_3 d)
     9.91209505E-01    2     1000021         1   # BR(~d_R -> ~g d)
DECAY   1000001     7.67101430E+02   # ~d_L
#    BR                NDA      ID1      ID2
     1.74408806E-03    2     1000022         1   # BR(~d_L -> chi^0_1 d)
     1.21683274E-04    2     1000023         1   # BR(~d_L -> chi^0_2 d)
     1.99272410E-04    2     1000025         1   # BR(~d_L -> chi^0_3 d)
     5.60773426E-02    2     1000035         1   # BR(~d_L -> chi^0_4 d)
     1.12532785E-01    2    -1000037         2   # BR(~d_L -> chi^-_2 u)
     8.29254241E-01    2     1000021         1   # BR(~d_L -> ~g d)
DECAY   2000003     6.39571206E+02   # ~s_R
#    BR                NDA      ID1      ID2
     5.42745244E-03    2     1000022         3   # BR(~s_R -> chi^0_1 s)
     3.38096731E-03    2     1000025         3   # BR(~s_R -> chi^0_3 s)
     9.91049121E-01    2     1000021         3   # BR(~s_R -> ~g s)
DECAY   1000003     7.67157220E+02   # ~s_L
#    BR                NDA      ID1      ID2
     1.75873612E-03    2     1000022         3   # BR(~s_L -> chi^0_1 s)
     1.54997873E-04    2     1000023         3   # BR(~s_L -> chi^0_2 s)
     2.18753259E-04    2     1000025         3   # BR(~s_L -> chi^0_3 s)
     5.60732994E-02    2     1000035         3   # BR(~s_L -> chi^0_4 s)
     1.12524678E-01    2    -1000037         4   # BR(~s_L -> chi^-_2 c)
     8.29194250E-01    2     1000021         3   # BR(~s_L -> ~g s)
DECAY   1000005     7.30776817E+01   # ~b_1
#    BR                NDA      ID1      ID2
     1.20781558E-01    2     1000022         5   # BR(~b_1 -> chi^0_1 b)
     2.42491922E-01    2     1000023         5   # BR(~b_1 -> chi^0_2 b)
     1.48661472E-01    2     1000025         5   # BR(~b_1 -> chi^0_3 b)
     4.87821137E-01    2    -1000024         6   # BR(~b_1 -> chi^-_1 t)
     1.61803582E-04    2    -1000037         6   # BR(~b_1 -> chi^-_2 t)
DECAY   2000005     3.15341855E+02   # ~b_2
#    BR                NDA      ID1      ID2
     4.67514820E-02    2     1000022         5   # BR(~b_2 -> chi^0_1 b)
     1.01241186E-01    2     1000023         5   # BR(~b_2 -> chi^0_2 b)
     5.93801996E-02    2     1000025         5   # BR(~b_2 -> chi^0_3 b)
     5.59450806E-02    2     1000035         5   # BR(~b_2 -> chi^0_4 b)
     2.94598334E-01    2    -1000024         6   # BR(~b_2 -> chi^-_1 t)
     1.15048408E-01    2    -1000037         6   # BR(~b_2 -> chi^-_2 t)
     2.83878911E-01    2     1000021         5   # BR(~b_2 -> ~g b)
     4.27222502E-02    2     1000006       -24   # BR(~b_2 -> ~t_1 W^-)
     1.52201919E-04    2     1000005        23   # BR(~b_2 -> ~b_1 Z)
     2.81947116E-04    2     1000005        25   # BR(~b_2 -> ~b_1 h^0)
DECAY   2000002     6.56585657E+02   # ~u_R
#    BR                NDA      ID1      ID2
     2.10837665E-02    2     1000022         2   # BR(~u_R -> chi^0_1 u)
     1.30857634E-02    2     1000025         2   # BR(~u_R -> chi^0_3 u)
     9.65747371E-01    2     1000021         2   # BR(~u_R -> ~g u)
DECAY   1000002     7.67087170E+02   # ~u_L
#    BR                NDA      ID1      ID2
     6.49165470E-04    2     1000022         2   # BR(~u_L -> chi^0_1 u)
     1.50999765E-03    2     1000025         2   # BR(~u_L -> chi^0_3 u)
     5.59384282E-02    2     1000035         2   # BR(~u_L -> chi^0_4 u)
     1.12367706E-03    2     1000024         1   # BR(~u_L -> chi^+_1 d)
     1.11506740E-01    2     1000037         1   # BR(~u_L -> chi^+_2 d)
     8.29225541E-01    2     1000021         2   # BR(~u_L -> ~g u)
DECAY   2000004     6.56592942E+02   # ~c_R
#    BR                NDA      ID1      ID2
     2.10844452E-02    2     1000022         4   # BR(~c_R -> chi^0_1 c)
     1.30874298E-02    2     1000025         4   # BR(~c_R -> chi^0_3 c)
     9.65736680E-01    2     1000021         4   # BR(~c_R -> ~g c)
DECAY   1000004     7.67142917E+02   # ~c_L
#    BR                NDA      ID1      ID2
     6.49903317E-04    2     1000022         4   # BR(~c_L -> chi^0_1 c)
     1.51143833E-03    2     1000025         4   # BR(~c_L -> chi^0_3 c)
     5.59344006E-02    2     1000035         4   # BR(~c_L -> chi^0_4 c)
     1.19116819E-03    2     1000024         3   # BR(~c_L -> chi^+_1 s)
     1.11498706E-01    2     1000037         3   # BR(~c_L -> chi^+_2 s)
     8.29165547E-01    2     1000021         4   # BR(~c_L -> ~g c)
DECAY   1000006     1.67289071E+02   # ~t_1
#    BR                NDA      ID1      ID2
     1.07157677E-01    2     1000022         6   # BR(~t_1 -> chi^0_1 t)
     2.23575268E-01    2     1000023         6   # BR(~t_1 -> chi^0_2 t)
     1.59300900E-01    2     1000025         6   # BR(~t_1 -> chi^0_3 t)
     5.73917575E-04    2     1000035         6   # BR(~t_1 -> chi^0_4 t)
     4.43277806E-01    2     1000024         5   # BR(~t_1 -> chi^+_1 b)
     1.15852538E-03    2     1000037         5   # BR(~t_1 -> chi^+_2 b)
     1.63118780E-04    2     1000021         4   # BR(~t_1 -> ~g c)
     6.47623917E-02    2     1000021         6   # BR(~t_1 -> ~g t)
#    BR                NDA      ID1      ID2       ID3
DECAY   2000006     3.16316468E+02   # ~t_2
#    BR                NDA      ID1      ID2
     4.68075135E-02    2     1000022         6   # BR(~t_2 -> chi^0_1 t)
     1.48728272E-01    2     1000023         6   # BR(~t_2 -> chi^0_2 t)
     1.01260569E-01    2     1000025         6   # BR(~t_2 -> chi^0_3 t)
     5.79247153E-02    2     1000035         6   # BR(~t_2 -> chi^0_4 t)
     2.03806563E-01    2     1000024         5   # BR(~t_2 -> chi^+_1 b)
     1.12737129E-01    2     1000037         5   # BR(~t_2 -> chi^+_2 b)
     2.77551786E-01    2     1000021         6   # BR(~t_2 -> ~g t)
     3.04420315E-04    2     1000005        24   # BR(~t_2 -> ~b_1 W^+)
     2.14560895E-02    2     1000006        23   # BR(~t_2 -> ~t_1 Z)
     2.94229425E-02    2     1000006        25   # BR(~t_2 -> ~t_1 h^0)
DECAY   1000024     6.56261507E-05   # chi^+_1
#    BR                NDA      ID1      ID2       ID3
     3.34128488E-01    3     1000022        -1         2   # BR(chi^+_1 -> chi^0_1 d_bar u)
     3.32736522E-01    3     1000022        -3         4   # BR(chi^+_1 -> chi^0_1 s_bar c)
     1.11376439E-01    3     1000022       -11        12   # BR(chi^+_1 -> chi^0_1 e^+ nu_e)
     1.11375889E-01    3     1000022       -13        14   # BR(chi^+_1 -> chi^0_1 mu^+ nu_mu)
     1.10382661E-01    3     1000022       -15        16   # BR(chi^+_1 -> chi^0_1 tau^+ nu_tau)
DECAY   1000037     1.06166788E+01   # chi^+_2
#    BR                NDA      ID1      ID2
     6.99394996E-02    2     1000022        24   # BR(chi^+_2 -> chi^0_1 W^+)
     2.49522407E-01    2     1000023        24   # BR(chi^+_2 -> chi^0_2 W^+)
     1.76688125E-01    2     1000025        24   # BR(chi^+_2 -> chi^0_3 W^+)
     2.45701901E-01    2     1000024        23   # BR(chi^+_2 -> chi^+_1 Z)
     2.41476242E-01    2     1000024        25   # BR(chi^+_2 -> chi^+_1 h^0)
#    BR                NDA      ID1      ID2       ID3
     5.53856423E-03    3     1000024         6        -6   # BR(chi^+_2 -> chi^+_1 t t_bar)
     1.59420588E-03    3     1000022        -5         6   # BR(chi^+_2 -> chi^0_1 b_bar t)
     5.76631585E-03    3     1000023        -5         6   # BR(chi^+_2 -> chi^0_2 b_bar t)
     3.76760480E-03    3     1000025        -5         6   # BR(chi^+_2 -> chi^0_3 b_bar t)
DECAY   1000022     0.00000000E+00   # chi^0_1
DECAY   1000023     2.98117101E-04   # chi^0_2
#    BR                NDA      ID1      ID2
     1.62403963E-02    2     1000022        22   # BR(chi^0_2 -> chi^0_1 photon)
#    BR                NDA      ID1      ID2       ID3
     1.18279031E-01    3     1000022         2        -2   # BR(chi^0_2 -> chi^0_1 u u_bar)
     1.17218815E-01    3     1000022         4        -4   # BR(chi^0_2 -> chi^0_1 c c_bar)
     1.51656984E-01    3     1000022         1        -1   # BR(chi^0_2 -> chi^0_1 d d_bar)
     1.51650492E-01    3     1000022         3        -3   # BR(chi^0_2 -> chi^0_1 s s_bar)
     1.40061235E-01    3     1000022         5        -5   # BR(chi^0_2 -> chi^0_1 b b_bar)
     3.42245229E-02    3     1000022        11       -11   # BR(chi^0_2 -> chi^0_1 e^- e^+)
     3.42221883E-02    3     1000022        13       -13   # BR(chi^0_2 -> chi^0_1 mu^- mu^+)
     3.35725940E-02    3     1000022        15       -15   # BR(chi^0_2 -> chi^0_1 tau^- tau^+)
     2.02810334E-01    3     1000022        12       -12   # BR(chi^0_2 -> chi^0_1 nu_e nu_bar_e)
DECAY   1000025     1.34479908E-05   # chi^0_3
#    BR                NDA      ID1      ID2
     4.91541940E-03    2     1000022        22   # BR(chi^0_3 -> chi^0_1 photon)
     4.47525770E-02    2     1000023        22   # BR(chi^0_3 -> chi^0_2 photon)
#    BR                NDA      ID1      ID2       ID3
     1.50388113E-02    3     1000022         2        -2   # BR(chi^0_3 -> chi^0_1 u u_bar)
     1.49860335E-02    3     1000022         4        -4   # BR(chi^0_3 -> chi^0_1 c c_bar)
     1.92666330E-02    3     1000022         1        -1   # BR(chi^0_3 -> chi^0_1 d d_bar)
     1.92663477E-02    3     1000022         3        -3   # BR(chi^0_3 -> chi^0_1 s s_bar)
     2.00380896E-02    3     1000022         5        -5   # BR(chi^0_3 -> chi^0_1 b b_bar)
     4.33432138E-03    3     1000022        11       -11   # BR(chi^0_3 -> chi^0_1 e^- e^+)
     4.33427828E-03    3     1000022        13       -13   # BR(chi^0_3 -> chi^0_1 mu^- mu^+)
     4.32146612E-03    3     1000022        15       -15   # BR(chi^0_3 -> chi^0_1 tau^- tau^+)
     2.57843675E-02    3     1000022        12       -12   # BR(chi^0_3 -> chi^0_1 nu_e nu_bar_e)
     2.60764088E-02    3     1000023         2        -2   # BR(chi^0_3 -> chi^0_2 u u_bar)
     2.42310131E-02    3     1000023         4        -4   # BR(chi^0_3 -> chi^0_2 c c_bar)
     3.34352160E-02    3     1000023         1        -1   # BR(chi^0_3 -> chi^0_2 d d_bar)
     3.34233095E-02    3     1000023         3        -3   # BR(chi^0_3 -> chi^0_2 s s_bar)
     1.62824621E-02    3     1000023         5        -5   # BR(chi^0_3 -> chi^0_2 b b_bar)
     7.54540568E-03    3     1000023        11       -11   # BR(chi^0_3 -> chi^0_2 e^- e^+)
     7.54116736E-03    3     1000023        13       -13   # BR(chi^0_3 -> chi^0_2 mu^- mu^+)
     6.44782768E-03    3     1000023        15       -15   # BR(chi^0_3 -> chi^0_2 tau^- tau^+)
     4.47123251E-02    3     1000023        12       -12   # BR(chi^0_3 -> chi^0_2 nu_e nu_bar_e)
     1.04812963E-01    3     1000024         1        -2   # BR(chi^0_3 -> chi^+_1 d u_bar)
     1.04812963E-01    3    -1000024        -1         2   # BR(chi^0_3 -> chi^-_1 d_bar u)
     1.03121148E-01    3     1000024         3        -4   # BR(chi^0_3 -> chi^+_1 s c_bar)
     1.03121148E-01    3    -1000024        -3         4   # BR(chi^0_3 -> chi^-_1 s_bar c)
     3.49375492E-02    3     1000024        11       -12   # BR(chi^0_3 -> chi^+_1 e^- nu_bar_e)
     3.49375492E-02    3    -1000024       -11        12   # BR(chi^0_3 -> chi^-_1 e^+ nu_e)
     3.49372366E-02    3     1000024        13       -14   # BR(chi^0_3 -> chi^+_1 mu^- nu_bar_mu)
     3.49372366E-02    3    -1000024       -13        14   # BR(chi^0_3 -> chi^-_1 mu^+ nu_mu)
     3.38243636E-02    3     1000024        15       -16   # BR(chi^0_3 -> chi^+_1 tau^- nu_bar_tau)
     3.38243636E-02    3    -1000024       -15        16   # BR(chi^0_3 -> chi^-_1 tau^+ nu_tau)
DECAY   1000035     1.20458825E+01   # chi^0_4
#    BR                NDA      ID1      ID2
     2.19092547E-01    2     1000024       -24   # BR(chi^0_4 -> chi^+_1 W^-)
     2.19092547E-01    2    -1000024        24   # BR(chi^0_4 -> chi^-_1 W^+)
     1.84315092E-02    2     1000022        23   # BR(chi^0_4 -> chi^0_1 Z)
     1.62650484E-01    2     1000023        23   # BR(chi^0_4 -> chi^0_2 Z)
     3.86757543E-02    2     1000025        23   # BR(chi^0_4 -> chi^0_3 Z)
     4.28202416E-02    2     1000022        25   # BR(chi^0_4 -> chi^0_1 h^0)
     1.71952939E-01    2     1000023        25   # BR(chi^0_4 -> chi^0_2 h^0)
     1.13515808E-01    2     1000025        25   # BR(chi^0_4 -> chi^0_3 h^0)
#    BR                NDA      ID1      ID2       ID3
     6.54494167E-04    3     1000022         6        -6   # BR(chi^0_4 -> chi^0_1 t t_bar)
     2.20229282E-03    3     1000023         6        -6   # BR(chi^0_4 -> chi^0_2 t t_bar)
     1.45165290E-03    3     1000025         6        -6   # BR(chi^0_4 -> chi^0_3 t t_bar)
     4.72385823E-03    3     1000024         5        -6   # BR(chi^0_4 -> chi^+_1 b t_bar)
     4.72385823E-03    3    -1000024        -5         6   # BR(chi^0_4 -> chi^-_1 b_bar t)
DECAY   1000021     1.31443151E+01   # ~g
#    BR                NDA      ID1      ID2
     4.87500535E-01    2     1000005        -5   # BR(~g -> ~b_1 b_bar)
     4.87500535E-01    2    -1000005         5   # BR(~g -> ~b^*_1 b)
#    BR                NDA      ID1      ID2       ID3
     1.96981605E-03    3     1000022         6        -6   # BR(~g -> chi^0_1 t t_bar)
     2.56847605E-04    3     1000022         5        -5   # BR(~g -> chi^0_1 b b_bar)
     5.12259045E-03    3     1000023         6        -6   # BR(~g -> chi^0_2 t t_bar)
     5.45018469E-04    3     1000023         5        -5   # BR(~g -> chi^0_2 b b_bar)
     3.81683193E-03    3     1000025         6        -6   # BR(~g -> chi^0_3 t t_bar)
     3.17919142E-04    3     1000025         5        -5   # BR(~g -> chi^0_3 b b_bar)
     2.42327954E-04    3     1000035         6        -6   # BR(~g -> chi^0_4 t t_bar)
     2.12183521E-04    3     1000035         5        -5   # BR(~g -> chi^0_4 b b_bar)
     5.69752428E-03    3     1000024         5        -6   # BR(~g -> chi^+_1 b t_bar)
     5.69752428E-03    3    -1000024        -5         6   # BR(~g -> chi^-_1 b_bar t)
     4.55967605E-04    3     1000037         5        -6   # BR(~g -> chi^+_2 b t_bar)
     4.55967605E-04    3    -1000037        -5         6   # BR(~g -> chi^-_2 b_bar t)
DECAY        25     3.53097710E-03   # Gamma(h0)
     2.51073730E-03   2        22        22   # BR(h0 -> photon photon)
     1.53839215E-03   2        22        23   # BR(h0 -> photon Z)
     2.76929370E-02   2        23        23   # BR(h0 -> Z Z)
     2.32154423E-01   2       -24        24   # BR(h0 -> W W)
     7.83948569E-02   2        21        21   # BR(h0 -> gluon gluon)
     5.06635236E-09   2       -11        11   # BR(h0 -> Electron electron)
     2.25360015E-04   2       -13        13   # BR(h0 -> Muon muon)
     6.49785097E-02   2       -15        15   # BR(h0 -> Tau tau)
     1.44412256E-07   2        -2         2   # BR(h0 -> Up up)
     2.80259816E-02   2        -4         4   # BR(h0 -> Charm charm)
     5.87059213E-07   2        -1         1   # BR(h0 -> Down down)
     2.12325267E-04   2        -3         3   # BR(h0 -> Strange strange)
     5.64265741E-01   2        -5         5   # BR(h0 -> Bottom bottom)
DECAY        35     2.01885899E+02   # Gamma(HH)
     1.46699432E-08   2        22        22   # BR(HH -> photon photon)
     2.77925797E-08   2        22        23   # BR(HH -> photon Z)
     2.12843768E-08   2        23        23   # BR(HH -> Z Z)
     3.53806503E-09   2       -24        24   # BR(HH -> W W)
     3.50886211E-06   2        21        21   # BR(HH -> gluon gluon)
     8.75907049E-09   2       -11        11   # BR(HH -> Electron electron)
     3.90056269E-04   2       -13        13   # BR(HH -> Muon muon)
     1.12661924E-01   2       -15        15   # BR(HH -> Tau tau)
     2.16323014E-14   2        -2         2   # BR(HH -> Up up)
     4.19684880E-09   2        -4         4   # BR(HH -> Charm charm)
     3.27116346E-04   2        -6         6   # BR(HH -> Top top)
     6.15969839E-07   2        -1         1   # BR(HH -> Down down)
     2.22786023E-04   2        -3         3   # BR(HH -> Strange strange)
     5.89443525E-01   2        -5         5   # BR(HH -> Bottom bottom)
     2.24641896E-03   2  -1000024   1000024   # BR(HH -> Chargino1 chargino1)
     8.83423673E-02   2  -1000024   1000037   # BR(HH -> Chargino1 chargino2)
     8.83423673E-02   2  -1000037   1000024   # BR(HH -> Chargino2 chargino1)
     1.22654407E-04   2  -1000037   1000037   # BR(HH -> Chargino2 chargino2)
     1.01025736E-02   2   1000022   1000022   # BR(HH -> neutralino1 neutralino1)
     6.47544292E-03   2   1000022   1000023   # BR(HH -> neutralino1 neutralino2)
     9.04495362E-05   2   1000022   1000025   # BR(HH -> neutralino1 neutralino3)
     2.42304837E-02   2   1000022   1000035   # BR(HH -> neutralino1 neutralino4)
     4.01612056E-04   2   1000023   1000023   # BR(HH -> neutralino2 neutralino2)
     6.60414305E-03   2   1000023   1000025   # BR(HH -> neutralino2 neutralino3)
     4.37564539E-02   2   1000023   1000035   # BR(HH -> neutralino2 neutralino4)
     5.00824803E-03   2   1000025   1000025   # BR(HH -> neutralino3 neutralino3)
     2.11651996E-02   2   1000025   1000035   # BR(HH -> neutralino3 neutralino4)
     6.17446413E-05   2   1000035   1000035   # BR(HH -> neutralino4 neutralino4)
     2.27903882E-07   2        25        25   # BR(HH -> h0 h0)
DECAY        36     1.88671151E+02   # Gamma(A0)
     4.55334782E-10   2        22        22   # BR(A0 -> photon photon)
     4.27266092E-09   2        22        23   # BR(A0 -> photon Z)
     6.10536838E-06   2        21        21   # BR(A0 -> gluon gluon)
     8.49742040E-09   2       -11        11   # BR(A0 -> Electron electron)
     3.78406380E-04   2       -13        13   # BR(A0 -> Muon muon)
     1.09297101E-01   2       -15        15   # BR(A0 -> Tau tau)
     1.98399282E-14   2        -2         2   # BR(A0 -> Up up)
     3.84903521E-09   2        -4         4   # BR(A0 -> Charm charm)
     3.01806702E-04   2        -6         6   # BR(A0 -> Top top)
     5.97527865E-07   2        -1         1   # BR(A0 -> Down down)
     2.16117007E-04   2        -3         3   # BR(A0 -> Strange strange)
     5.71817461E-01   2        -5         5   # BR(A0 -> Bottom bottom)
     2.39603342E-03   2  -1000024   1000024   # BR(A0 -> Chargino1 chargino1)
     9.46094586E-02   2  -1000024   1000037   # BR(A0 -> Chargino1 chargino2)
     9.46094586E-02   2  -1000037   1000024   # BR(A0 -> Chargino2 chargino1)
     1.23134277E-04   2  -1000037   1000037   # BR(A0 -> Chargino2 chargino2)
     1.02185554E-02   2   1000022   1000022   # BR(A0 -> neutralino1 neutralino1)
     7.54448172E-03   2   1000022   1000023   # BR(A0 -> neutralino1 neutralino2)
     8.25908974E-05   2   1000022   1000025   # BR(A0 -> neutralino1 neutralino3)
     2.56868752E-02   2   1000022   1000035   # BR(A0 -> neutralino1 neutralino4)
     4.73660347E-04   2   1000023   1000023   # BR(A0 -> neutralino2 neutralino2)
     7.37093879E-03   2   1000023   1000025   # BR(A0 -> neutralino2 neutralino3)
     4.75689837E-02   2   1000023   1000035   # BR(A0 -> neutralino2 neutralino4)
     5.02038481E-03   2   1000025   1000025   # BR(A0 -> neutralino3 neutralino3)
     2.22156892E-02   2   1000025   1000035   # BR(A0 -> neutralino3 neutralino4)
     6.20797671E-05   2   1000035   1000035   # BR(A0 -> neutralino4 neutralino4)
     6.28197840E-08   2        23        25   # BR(A0 -> Z h0)
     1.34527282E-12   2        23        35   # BR(A0 -> Z HH)
     4.62094399E-40   2        25        25   # BR(A0 -> h0 h0)
DECAY        37     2.19353916E+02   # Gamma(Hp)
     9.69176380E-09   2       -11        12   # BR(Hp -> Electron nu_e)
     4.14353173E-04   2       -13        14   # BR(Hp -> Muon nu_mu)
     1.17202691E-01   2       -15        16   # BR(Hp -> Tau nu_tau)
     5.87291504E-07   2        -1         2   # BR(Hp -> Down up)
     9.96769663E-06   2        -3         2   # BR(Hp -> Strange up)
     6.44587408E-06   2        -5         2   # BR(Hp -> Bottom up)
     2.77747913E-08   2        -1         4   # BR(Hp -> Down charm)
     2.11644204E-04   2        -3         4   # BR(Hp -> Strange charm)
     9.02653204E-04   2        -5         4   # BR(Hp -> Bottom charm)
     2.15338310E-08   2        -1         6   # BR(Hp -> Down top)
     7.85951833E-07   2        -3         6   # BR(Hp -> Strange top)
     6.08118719E-01   2        -5         6   # BR(Hp -> Bottom top)
     1.15586775E-02   2   1000022   1000024   # BR(Hp -> neutralino1 chargino1)
     4.47121667E-02   2   1000022   1000037   # BR(Hp -> neutralino1 chargino2)
     1.52424128E-04   2   1000023   1000024   # BR(Hp -> neutralino2 chargino1)
     8.08832674E-02   2   1000023   1000037   # BR(Hp -> neutralino2 chargino2)
     1.53725869E-02   2   1000024   1000025   # BR(Hp -> chargino1 neutralino3)
     3.89331564E-02   2   1000025   1000037   # BR(Hp -> neutralino3 chargino2)
     8.15197591E-02   2   1000024   1000035   # BR(Hp -> chargino1 neutralino4)
     7.81791693E-10   2   1000035   1000037   # BR(Hp -> neutralino4 chargino2)
     5.39303927E-08   2        24        25   # BR(Hp -> W h0)
DECAY         6     2.43000000E+00   # top
#    BR                NDA      ID1      ID2
     1.00000000E+00    2           5        24   # BR(t -> b W)
Block HiggsBoundsInputHiggsCouplingsFermions
# ScalarNormEffCoupSq PseudoSNormEffCoupSq NP IP1 IP2 IP2
    9.79971575E-01    0.00000000E+00        3  25   5   5  # h0-b-b eff. coupling^2, normalised to SM
    2.52757158E+03    0.00000000E+00        3  35   5   5  # H0-b-b eff. coupling^2, normalised to SM
    0.00000000E+00    2.52755155E+03        3  36   5   5  # A0-b-b eff. coupling^2, normalised to SM
#
    1.00000792E+00    0.00000000E+00        3  25   6   6  # h0-t-t eff. coupling^2, normalised to SM
    3.87715761E-04    0.00000000E+00        3  35   6   6  # H0-t-t eff. coupling^2, normalised to SM
    0.00000000E+00    3.95639804E-04        3  36   6   6  # A0-t-t eff. coupling^2, normalised to SM
#
    9.79971575E-01    0.00000000E+00        3  25  15  15  # h0-tau-tau eff. coupling^2, normalised to SM
    2.52757158E+03    0.00000000E+00        3  35  15  15  # H0-tau-tau eff. coupling^2, normalised to SM
    0.00000000E+00    2.52755155E+03        3  36  15  15  # A0-tau-tau eff. coupling^2, normalised to SM
#
Block HiggsBoundsInputHiggsCouplingsBosons
    9.99999960E-01        3  25  24  24  # h0-W-W eff. coupling^2, normalised to SM
    4.00787363E-08        3  35  24  24  # H0-W-W eff. coupling^2, normalised to SM
    0.00000000E+00        3  36  24  24  # A0-W-W eff. coupling^2, normalised to SM
#
    9.99999960E-01        3  25  23  23  # h0-Z-Z eff. coupling^2, normalised to SM
    4.00787363E-08        3  35  23  23  # H0-Z-Z eff. coupling^2, normalised to SM
    0.00000000E+00        3  36  23  23  # A0-Z-Z eff. coupling^2, normalised to SM
#
    1.26673430E+00        3  25  21  21  # h0-g-g eff. coupling^2, normalised to SM
    9.63007705E-03        3  35  21  21  # H0-g-g eff. coupling^2, normalised to SM
    1.30296295E-01        3  36  21  21  # A0-g-g eff. coupling^2, normalised to SM
#
    0.00000000E+00        3  25  25  23  # h0-h0-Z eff. coupling^2, normalised to SM
    0.00000000E+00        3  35  25  23  # H0-h0-Z eff. coupling^2, normalised to SM
    4.00787363E-08        3  36  25  23  # A0-h0-Z eff. coupling^2, normalised to SM
    0.00000000E+00        3  35  35  23  # H0-H0-Z eff. coupling^2, normalised to SM
    9.99999960E-01        3  36  35  23  # A0-H0-Z eff. coupling^2, normalised to SM
    0.00000000E+00        3  36  36  23  # A0-A0-Z eff. coupling^2, normalised to SM
#
    0.00000000E+00        4  25  21  21  23  # h0-g-g-Z eff. coupling^2, normalised to SM
    0.00000000E+00        4  35  21  21  23  # H0-g-g-Z eff. coupling^2, normalised to SM
    0.00000000E+00        4  36  21  21  23  # A0-g-g-Z eff. coupling^2, normalised to SM
Block SPhenoLowEnergy  # low energy observables
    1    3.33516996E-04   # BR(b -> s gamma)
    2    1.58883435E-06   # BR(b -> s mu+ mu-)
    3    3.52511701E-05   # BR(b -> s nu nu)
    4    1.78381983E-15   # BR(Bd -> e+ e-)
    5    7.62040121E-11   # BR(Bd -> mu+ mu-)
    6    1.60250857E-08   # BR(Bd -> tau+ tau-)
    7    6.09218097E-14   # BR(Bs -> e+ e-)
    8    2.60261995E-09   # BR(Bs -> mu+ mu-)
    9    5.54509058E-07   # BR(Bs -> tau+ tau-)
   10    9.62226033E-05   # BR(B_u -> tau nu)
   11    9.93942654E-01   # BR(B_u -> tau nu)/BR(B_u -> tau nu)_SM
   12    5.42022226E-01   # |Delta(M_Bd)| [ps^-1] 
   13    1.93603365E+01   # |Delta(M_Bs)| [ps^-1] 
   14    0.00000000E+00   # neutron EDM according to the chiral quark model
   15    0.00000000E+00   # neutron EDM according to the relativistic quark-parton model
   16    2.15763036E-03   # epsilon_K
   17    2.28166196E-15   # Delta(M_K)
   18    2.47974435E-11   # BR(K^0 -> pi^0 nu nu)
   19    8.28996257E-11   # BR(K^+ -> pi^+ nu nu)
   20   -5.00779827E-16   # Delta(g-2)_electron/2
   21   -2.14102427E-11   # Delta(g-2)_muon/2
   22   -6.08225887E-09   # Delta(g-2)_tau/2
   23    0.00000000E+00   # electric dipole moment of the electron
   24    0.00000000E+00   # electric dipole moment of the muon
   25    0.00000000E+00   # electric dipole moment of the tau
   26    0.00000000E+00   # Br(mu -> e gamma)
   27    0.00000000E+00   # Br(tau -> e gamma)
   28    0.00000000E+00   # Br(tau -> mu gamma)
   29    0.00000000E+00   # Br(mu -> 3 e)
   30    0.00000000E+00   # Br(tau -> 3 e)
   31    0.00000000E+00   # Br(tau -> 3 mu)
   39    6.91698169E-05   # Delta(rho_parameter)
   40    0.00000000E+00   # BR(Z -> e mu)
   41    0.00000000E+00   # BR(Z -> e tau)
   42    0.00000000E+00   # BR(Z -> mu tau)
Block FWCOEF Q=  1.60000000E+02  # Wilson coefficients at scale Q
#    id        order  M        value         comment
     0305 4422   00   0    -1.88819110E-01   # C7
     0305 4422   00   2    -2.04772703E-01   # C7
     0305 4322   00   2    -1.64797570E-04   # C7'
     0305 6421   00   0    -9.52278348E-02   # C8
     0305 6421   00   2    -1.03741471E-01   # C8
     0305 6321   00   2    -9.60434772E-05   # C8'
 03051111 4133   00   0     1.62889182E+00   # C9 e+e-
 03051111 4133   00   2     1.62920282E+00   # C9 e+e-
 03051111 4233   00   2     5.51308278E-04   # C9' e+e-
 03051111 4137   00   0    -4.45158392E+00   # C10 e+e-
 03051111 4137   00   2    -4.44992544E+00   # C10 e+e-
 03051111 4237   00   2    -4.06604404E-03   # C10' e+e-
 03051313 4133   00   0     1.62889182E+00   # C9 mu+mu-
 03051313 4133   00   2     1.62920258E+00   # C9 mu+mu-
 03051313 4233   00   2     5.51307927E-04   # C9' mu+mu-
 03051313 4137   00   0    -4.45158392E+00   # C10 mu+mu-
 03051313 4137   00   2    -4.44992569E+00   # C10 mu+mu-
 03051313 4237   00   2    -4.06604460E-03   # C10' mu+mu-
 03051212 4137   00   0     1.50535012E+00   # C11 nu_1 nu_1
 03051212 4137   00   2     1.50499288E+00   # C11 nu_1 nu_1
 03051212 4237   00   2     8.78795510E-04   # C11' nu_1 nu_1
 03051414 4137   00   0     1.50535012E+00   # C11 nu_2 nu_2
 03051414 4137   00   2     1.50499288E+00   # C11 nu_2 nu_2
 03051414 4237   00   2     8.78795536E-04   # C11' nu_2 nu_2
 03051616 4137   00   0     1.50535012E+00   # C11 nu_3 nu_3
 03051616 4137   00   2     1.50499288E+00   # C11 nu_3 nu_3
 03051616 4237   00   2     8.78802893E-04   # C11' nu_3 nu_3
Block IMFWCOEF Q=  1.60000000E+02  # Im(Wilson coefficients) at scale Q
#    id        order  M        value         comment
     0305 4422   00   0     3.85807566E-07   # C7
     0305 4422   00   2    -1.43652739E-05   # C7
     0305 4322   00   2    -1.91713262E-06   # C7'
     0305 6421   00   0     3.30469695E-07   # C8
     0305 6421   00   2     1.71436965E-05   # C8
     0305 6321   00   2    -3.46646141E-07   # C8'
 03051111 4133   00   2     3.88377781E-07   # C9 e+e-
 03051111 4233   00   2     1.03527199E-05   # C9' e+e-
 03051111 4137   00   2    -6.26778252E-07   # C10 e+e-
 03051111 4237   00   2    -7.63569610E-05   # C10' e+e-
 03051313 4133   00   2     3.88372874E-07   # C9 mu+mu-
 03051313 4233   00   2     1.03527158E-05   # C9' mu+mu-
 03051313 4137   00   2    -6.26773524E-07   # C10 mu+mu-
 03051313 4237   00   2    -7.63569732E-05   # C10' mu+mu-
 03051212 4137   00   2     1.56896574E-07   # C11 nu_1 nu_1
 03051212 4237   00   2     1.65030576E-05   # C11' nu_1 nu_1
 03051414 4137   00   2     1.56896787E-07   # C11 nu_2 nu_2
 03051414 4237   00   2     1.65030576E-05   # C11' nu_2 nu_2
 03051616 4137   00   2     1.56955927E-07   # C11 nu_3 nu_3
 03051616 4237   00   2     1.65030576E-05   # C11' nu_3 nu_3
