# SUSY Les Houches Accord 2 - MSSM spectrum + Decays
# SPheno v4.0.5be
# W. Porod, Comput. Phys. Commun. 153 (2003) 275-315, hep-ph/0301101;
# W. Porod, F.~Staub, Comput. Phys. Commun. 183 (2012) 2458
#                     arXiv:1104.1573 [hep-ph] 
# in case of problems send email to porod@physik.uni-wuerzburg.de
# Created: 15.03.2021,  23:01
Block SPINFO         # Program information
     1   SPheno      # spectrum calculator
     2   v4.0.5be    # version number
#
Block SPhenoINFO     # SPheno specific information
    1      2         # using 2-loop RGEs
    2      2         # using pole masses for boundary conditions at mZ
Block MODSEL  # Model selection
    1    0    # general MSSM
Block MINPAR  # Input parameters
    3    4.72576636E+01  # tanb at m_Z    
    4    1.00000000E+00  # Sign(mu)
Block EXTPAR  # non-universal input parameters
    0    4.15248960E+03  # scale for input parameters
    1    8.84387164E+02  # M_1
    2    4.65832143E+02  # M_2
    3    1.35733214E+03  # M_3
   11   -2.56716019E+02  # A_t
   12    1.63472378E+03  # A_b
   13   -3.15341520E+02  # A_tau
   23    2.14952346E+02  # mu
   25    4.63902695E+01  # tan(beta)
   26    4.76396587E+03  # m_A, pole mass
   31    1.00000000E+04  # M_L11
   32    1.00000000E+04  # M_L22
   33    1.00000000E+04  # M_L33
   34    1.00000000E+04  # M_E11
   35    1.00000000E+04  # M_E22
   36    1.00000000E+04  # M_E33
   41    1.00000000E+04  # M_Q11
   42    1.00000000E+04  # M_Q22
   43    4.44104553E+03  # M_Q33
   44    1.00000000E+04  # M_U11
   45    1.00000000E+04  # M_U22
   46    3.87498952E+03  # M_U33
   47    1.00000000E+04  # M_D11
   48    1.00000000E+04  # M_D22
   49    3.07232992E+03  # M_D33
Block SMINPUTS  # SM parameters
         1     1.27908970E+02  # alpha_em^-1(MZ)^MSbar
         2     1.16637870E-05  # G_mu [GeV^-2]
         3     1.18400000E-01  # alpha_s(MZ)^MSbar
         4     9.11876000E+01  # m_Z(pole)
         5     4.18000000E+00  # m_b(m_b), MSbar
         6     1.73200000E+02  # m_t(pole)
         7     1.77700000E+00  # m_tau(pole)
         8     0.00000000E+00  # m_nu_3
        11     5.10998930E-04  # m_e(pole)
        12     0.00000000E+00  # m_nu_1
        13     1.05658372E-01  # m_muon(pole)
        14     0.00000000E+00  # m_nu_2
        21     5.00000000E-03  # m_d(2 GeV), MSbar
        22     2.50000000E-03  # m_u(2 GeV), MSbar
        23     9.50000000E-02  # m_s(2 GeV), MSbar
        24     1.27000000E+00  # m_c(m_c), MSbar
Block gauge Q=  4.15248960E+03  # (SUSY scale)
   1    3.55362975E-01  # g'(Q)^DRbar
   2    6.65198874E-01  # g(Q)^DRbar
   3    1.21977796E+00  # g3(Q)^DRbar
Block Yu Q=  4.15248960E+03  # (SUSY scale)
  1  1     8.38631990E-06   # Y_u(Q)^DRbar
  2  2     4.26025051E-03   # Y_c(Q)^DRbar
  3  3     1.01313480E+00   # Y_t(Q)^DRbar
Block Yd Q=  4.15248960E+03  # (SUSY scale)
  1  1     7.81769221E-04   # Y_d(Q)^DRbar
  2  2     1.48536152E-02   # Y_s(Q)^DRbar
  3  3     7.75270096E-01   # Y_b(Q)^DRbar
Block Ye Q=  4.15248960E+03  # (SUSY scale)
  1  1     1.36424446E-04   # Y_e(Q)^DRbar
  2  2     2.82082486E-02   # Y_mu(Q)^DRbar
  3  3     4.74416336E-01   # Y_tau(Q)^DRbar
Block Au Q=  4.15248960E+03  # (SUSY scale)
  1  1     0.00000000E+00   # A_u(Q)^DRbar
  2  2     0.00000000E+00   # A_c(Q)^DRbar
  3  3    -2.56716023E+02   # A_t(Q)^DRbar
Block Ad Q=  4.15248960E+03  # (SUSY scale)
  1  1     0.00000000E+00   # A_d(Q)^DRbar
  2  2     0.00000000E+00   # A_s(Q)^DRbar
  3  3     1.63472381E+03   # A_b(Q)^DRbar
Block Ae Q=  4.15248960E+03  # (SUSY scale)
  1  1     0.00000000E+00   # A_e(Q)^DRbar
  2  2     0.00000000E+00   # A_mu(Q)^DRbar
  3  3    -3.15341516E+02   # A_tau(Q)^DRbar
Block MSOFT Q=  4.15248960E+03  # soft SUSY breaking masses at Q
   1    8.84387164E+02  # M_1
   2    4.65832143E+02  # M_2
   3    1.35733214E+03  # M_3
  21    2.29092195E+07  # M^2_(H,d)
  22    3.65682333E+05  # M^2_(H,u)
  31    1.00000000E+04  # M_(L,11)
  32    1.00000000E+04  # M_(L,22)
  33    1.00000000E+04  # M_(L,33)
  34    1.00000000E+04  # M_(E,11)
  35    1.00000000E+04  # M_(E,22)
  36    1.00000000E+04  # M_(E,33)
  41    1.00000000E+04  # M_(Q,11)
  42    1.00000000E+04  # M_(Q,22)
  43    4.44104553E+03  # M_(Q,33)
  44    1.00000000E+04  # M_(U,11)
  45    1.00000000E+04  # M_(U,22)
  46    3.87498952E+03  # M_(U,33)
  47    1.00000000E+04  # M_(D,11)
  48    1.00000000E+04  # M_(D,22)
  49    3.07232992E+03  # M_(D,33)
Block MASS  # Mass spectrum
#   PDG code      mass          particle
         6     1.73200000E+02  # m_t(pole)
        23     9.11876000E+01  # m_Z(pole)
        24     8.04299946E+01  # W+
        15     1.77700000E+00  # m_tau(pole)
        25     1.23230259E+02  # h0
        35     4.76140316E+03  # H0
        36     4.76396587E+03  # A0
        37     4.76190889E+03  # H+
   1000001     1.01223445E+04  # ~d_L
   2000001     1.00971010E+04  # ~d_R
   1000002     1.01219786E+04  # ~u_L
   2000002     1.00998312E+04  # ~u_R
   1000003     1.01223465E+04  # ~s_L
   2000003     1.00971044E+04  # ~s_R
   1000004     1.01219806E+04  # ~c_L
   2000004     1.00998316E+04  # ~c_R
   1000005     3.08073616E+03  # ~b_1
   2000005     4.45586053E+03  # ~b_2
   1000006     3.86818583E+03  # ~t_1
   2000006     4.45768912E+03  # ~t_2
   1000011     1.00211995E+04  # ~e_L-
   2000011     1.00092749E+04  # ~e_R-
   1000012     1.00204263E+04  # ~nu_eL
   1000013     1.00212090E+04  # ~mu_L-
   2000013     1.00092927E+04  # ~mu_R-
   1000014     1.00204355E+04  # ~nu_muL
   1000015     1.00142949E+04  # ~tau_1-
   2000015     1.00239067E+04  # ~tau_2-
   1000016     1.00230472E+04  # ~nu_tauL
   1000021     1.71012564E+03  # ~g
   1000022     2.22443866E+02  # ~chi_10
   1000023     2.40145206E+02  # ~chi_20
   1000025     5.28042713E+02  # ~chi_30
   1000035     8.90961229E+02  # ~chi_40
   1000024     2.27889068E+02  # ~chi_1+
   1000037     5.27713956E+02  # ~chi_2+
# Higgs mixing
Block alpha # Effective Higgs mixing angle
          -2.11822842E-02   # alpha
Block Hmix Q=  4.15248960E+03  # Higgs mixing parameters
   1    2.14952346E+02  # mu
   2    4.63902695E+01  # tan[beta](Q)
   3    2.42895872E+02  # v(Q)
   4    2.26953708E+07  # m^2_A(Q)
Block stopmix # stop mixing matrix
   1  1     1.11269049E-02   # Re[R_st(1,1)]
   1  2     9.99938094E-01   # Re[R_st(1,2)]
   2  1    -9.99938094E-01   # Re[R_st(2,1)]
   2  2     1.11269049E-02   # Re[R_st(2,2)]
Block sbotmix # sbottom mixing matrix
   1  1     1.66666397E-03   # Re[R_sb(1,1)]
   1  2     9.99998611E-01   # Re[R_sb(1,2)]
   2  1    -9.99998611E-01   # Re[R_sb(2,1)]
   2  2     1.66666397E-03   # Re[R_sb(2,2)]
Block staumix # stau mixing matrix
   1  1     9.40559572E-02   # Re[R_sta(1,1)]
   1  2     9.95566912E-01   # Re[R_sta(1,2)]
   2  1    -9.95566912E-01   # Re[R_sta(2,1)]
   2  2     9.40559572E-02   # Re[R_sta(2,2)]
Block Nmix # neutralino mixing matrix
   1  1    -4.60829650E-02   # Re[N(1,1)]
   1  2     1.91811862E-01   # Re[N(1,2)]
   1  3    -7.11552062E-01   # Re[N(1,3)]
   1  4     6.74372473E-01   # Re[N(1,4)]
   2  1    -2.75027957E-02   # Re[N(2,1)]
   2  2     7.49417123E-02   # Re[N(2,2)]
   2  3     6.97187716E-01   # Re[N(2,3)]
   2  4     7.12430084E-01   # Re[N(2,4)]
   3  1     2.27984767E-02   # Re[N(3,1)]
   3  2     9.78499548E-01   # Re[N(3,2)]
   3  3     8.59043910E-02   # Re[N(3,3)]
   3  4    -1.86116363E-01   # Re[N(3,4)]
   4  1    -9.98298646E-01   # Re[N(4,1)]
   4  2     1.14273752E-02   # Re[N(4,2)]
   4  3     1.56008492E-02   # Re[N(4,3)]
   4  4    -5.50076592E-02   # Re[N(4,4)]
Block Umix # chargino mixing matrix
   1  1    -1.24556802E-01   # Re[U(1,1)]
   1  2     9.92212479E-01   # Re[U(1,2)]
   2  1     9.92212479E-01   # Re[U(2,1)]
   2  2     1.24556802E-01   # Re[U(2,2)]
Block Vmix # chargino mixing matrix
   1  1    -2.70097225E-01   # Re[V(1,1)]
   1  2     9.62833054E-01   # Re[V(1,2)]
   2  1     9.62833054E-01   # Re[V(2,1)]
   2  2     2.70097225E-01   # Re[V(2,2)]
DECAY        23     2.49520000E+00   # Z
DECAY        24     2.08500000E+00   # W
DECAY   2000011     4.95015356E+01   # ~e^-_R
#    BR                NDA      ID1      ID2
     2.15549887E-03    2     1000022        11   # BR(~e^-_R -> chi^0_1 e^-)
     7.67648778E-04    2     1000023        11   # BR(~e^-_R -> chi^0_2 e^-)
     5.25145675E-04    2     1000025        11   # BR(~e^-_R -> chi^0_3 e^-)
     9.96551632E-01    2     1000035        11   # BR(~e^-_R -> chi^0_4 e^-)
DECAY   1000011     1.44000851E+02   # ~e^-_L
#    BR                NDA      ID1      ID2
     8.55398736E-03    2     1000022        11   # BR(~e^-_L -> chi^0_1 e^-)
     1.11062035E-03    2     1000023        11   # BR(~e^-_L -> chi^0_2 e^-)
     2.98956980E-01    2     1000025        11   # BR(~e^-_L -> chi^0_3 e^-)
     8.21132614E-02    2     1000035        11   # BR(~e^-_L -> chi^0_4 e^-)
     9.49452860E-03    2    -1000024        12   # BR(~e^-_L -> chi^-_1 nu_e)
     5.99770622E-01    2    -1000037        12   # BR(~e^-_L -> chi^-_2 nu_e)
#    BR                NDA      ID1      ID2       ID3
DECAY   2000013     4.98181641E+01   # ~mu^-_R
#    BR                NDA      ID1      ID2
     3.75049055E-03    2     1000022        13   # BR(~mu^-_R -> chi^0_1 mu^-)
     2.30691427E-03    2     1000023        13   # BR(~mu^-_R -> chi^0_2 mu^-)
     5.45148546E-04    2     1000025        13   # BR(~mu^-_R -> chi^0_3 mu^-)
     9.90220446E-01    2     1000035        13   # BR(~mu^-_R -> chi^0_4 mu^-)
     3.12793026E-03    2    -1000024        14   # BR(~mu^-_R -> chi^-_1 nu_mu)
DECAY   1000013     1.44159447E+02   # ~mu^-_L
#    BR                NDA      ID1      ID2
     9.10117169E-03    2     1000022        13   # BR(~mu^-_L -> chi^0_1 mu^-)
     1.64365677E-03    2     1000023        13   # BR(~mu^-_L -> chi^0_2 mu^-)
     2.98636449E-01    2     1000025        13   # BR(~mu^-_L -> chi^0_3 mu^-)
     8.20232682E-02    2     1000035        13   # BR(~mu^-_L -> chi^0_4 mu^-)
     9.48409226E-03    2    -1000024        14   # BR(~mu^-_L -> chi^-_1 nu_mu)
     5.99111362E-01    2    -1000037        14   # BR(~mu^-_L -> chi^-_2 nu_mu)
#    BR                NDA      ID1      ID2       ID3
DECAY   1000015     1.39558563E+02   # ~tau^-_1
#    BR                NDA      ID1      ID2
     1.72530984E-01    2     1000022        15   # BR(~tau^-_1 -> chi^0_1 tau^-)
     1.52551936E-01    2     1000023        15   # BR(~tau^-_1 -> chi^0_2 tau^-)
     3.44760065E-04    2     1000025        15   # BR(~tau^-_1 -> chi^0_3 tau^-)
     3.50860247E-01    2     1000035        15   # BR(~tau^-_1 -> chi^0_4 tau^-)
     3.23697089E-01    2    -1000024        16   # BR(~tau^-_1 -> chi^-_1 nu_tau)
DECAY   2000015     1.88424380E+02   # ~tau^-_2
#    BR                NDA      ID1      ID2
     1.20166739E-01    2     1000022        15   # BR(~tau^-_2 -> chi^0_1 tau^-)
     1.19255632E-01    2     1000023        15   # BR(~tau^-_2 -> chi^0_2 tau^-)
     2.31915828E-01    2     1000025        15   # BR(~tau^-_2 -> chi^0_3 tau^-)
     6.49618825E-02    2     1000035        15   # BR(~tau^-_2 -> chi^0_4 tau^-)
     1.54388800E-03    2    -1000024        16   # BR(~tau^-_2 -> chi^-_1 nu_tau)
     4.62156031E-01    2    -1000037        16   # BR(~tau^-_2 -> chi^-_2 nu_tau)
#    BR                NDA      ID1      ID2       ID3
DECAY   1000012     1.44006109E+02   # ~nu_e
#    BR                NDA      ID1      ID2
     1.43323220E-02    2     1000022        12   # BR(~nu_e -> chi^0_1 nu_e)
     2.45786279E-03    2     1000023        12   # BR(~nu_e -> chi^0_2 nu_e)
     2.84403624E-01    2     1000025        12   # BR(~nu_e -> chi^0_3 nu_e)
     8.94522800E-02    2     1000035        12   # BR(~nu_e -> chi^0_4 nu_e)
     4.46405526E-02    2     1000024        11   # BR(~nu_e -> chi^+_1 e^-)
     5.64713358E-01    2     1000037        11   # BR(~nu_e -> chi^+_2 e^-)
#    BR                NDA      ID1      ID2       ID3
DECAY   1000014     1.44164688E+02   # ~nu_mu
#    BR                NDA      ID1      ID2
     1.43165698E-02    2     1000022        14   # BR(~nu_mu -> chi^0_1 nu_mu)
     2.45516143E-03    2     1000023        14   # BR(~nu_mu -> chi^0_2 nu_mu)
     2.84091048E-01    2     1000025        14   # BR(~nu_mu -> chi^0_3 nu_mu)
     8.93539685E-02    2     1000035        14   # BR(~nu_mu -> chi^0_4 nu_mu)
     4.56735644E-02    2     1000024        13   # BR(~nu_mu -> chi^+_1 mu^-)
     5.64109688E-01    2     1000037        13   # BR(~nu_mu -> chi^+_2 mu^-)
#    BR                NDA      ID1      ID2       ID3
DECAY   1000016     1.88874338E+02   # ~nu_tau
#    BR                NDA      ID1      ID2
     1.09304570E-02    2     1000022        16   # BR(~nu_tau -> chi^0_1 nu_tau)
     1.87447406E-03    2     1000023        16   # BR(~nu_tau -> chi^0_2 nu_tau)
     2.16899190E-01    2     1000025        16   # BR(~nu_tau -> chi^0_3 nu_tau)
     6.82207631E-02    2     1000035        16   # BR(~nu_tau -> chi^0_4 nu_tau)
     2.67731401E-01    2     1000024        15   # BR(~nu_tau -> chi^+_1 tau^-)
     4.34343715E-01    2     1000037        15   # BR(~nu_tau -> chi^+_2 tau^-)
#    BR                NDA      ID1      ID2       ID3
DECAY   2000001     7.57479277E+02   # ~d_R
#    BR                NDA      ID1      ID2
     7.30162365E-03    2     1000035         1   # BR(~d_R -> chi^0_4 d)
     9.92672794E-01    2     1000021         1   # BR(~d_R -> ~g d)
DECAY   1000001     8.88370739E+02   # ~d_L
#    BR                NDA      ID1      ID2
     2.00458228E-03    2     1000022         1   # BR(~d_L -> chi^0_1 d)
     3.19392860E-04    2     1000023         1   # BR(~d_L -> chi^0_2 d)
     4.73623349E-02    2     1000025         1   # BR(~d_L -> chi^0_3 d)
     1.76753260E-03    2     1000035         1   # BR(~d_L -> chi^0_4 d)
     1.55458533E-03    2    -1000024         2   # BR(~d_L -> chi^-_1 u)
     9.82121987E-02    2    -1000037         2   # BR(~d_L -> chi^-_2 u)
     8.48779373E-01    2     1000021         1   # BR(~d_L -> ~g d)
DECAY   2000003     7.57567858E+02   # ~s_R
#    BR                NDA      ID1      ID2
     7.30078647E-03    2     1000035         3   # BR(~s_R -> chi^0_4 s)
     9.92557095E-01    2     1000021         3   # BR(~s_R -> ~g s)
DECAY   1000003     8.88418841E+02   # ~s_L
#    BR                NDA      ID1      ID2
     2.02969962E-03    2     1000022         3   # BR(~s_L -> chi^0_1 s)
     3.43589658E-04    2     1000023         3   # BR(~s_L -> chi^0_2 s)
     4.73601466E-02    2     1000025         3   # BR(~s_L -> chi^0_3 s)
     1.76744924E-03    2     1000035         3   # BR(~s_L -> chi^0_4 s)
     1.55831043E-03    2    -1000024         4   # BR(~s_L -> chi^-_1 c)
     9.82072004E-02    2    -1000037         4   # BR(~s_L -> chi^-_2 c)
     8.48733604E-01    2     1000021         3   # BR(~s_L -> ~g s)
DECAY   1000005     1.90429907E+02   # ~b_1
#    BR                NDA      ID1      ID2
     9.70010115E-02    2     1000022         5   # BR(~b_1 -> chi^0_1 b)
     9.28708296E-02    2     1000023         5   # BR(~b_1 -> chi^0_2 b)
     1.31880935E-03    2     1000025         5   # BR(~b_1 -> chi^0_3 b)
     7.59614720E-03    2     1000035         5   # BR(~b_1 -> chi^0_4 b)
     1.87221458E-01    2    -1000024         6   # BR(~b_1 -> chi^-_1 t)
     2.74456724E-03    2    -1000037         6   # BR(~b_1 -> chi^-_2 t)
     6.11247178E-01    2     1000021         5   # BR(~b_1 -> ~g b)
DECAY   2000005     4.56866236E+02   # ~b_2
#    BR                NDA      ID1      ID2
     6.04229943E-02    2     1000022         5   # BR(~b_2 -> chi^0_1 b)
     5.66449253E-02    2     1000023         5   # BR(~b_2 -> chi^0_2 b)
     4.04833159E-02    2     1000025         5   # BR(~b_2 -> chi^0_3 b)
     1.44441751E-03    2     1000035         5   # BR(~b_2 -> chi^0_4 b)
     1.84267487E-01    2    -1000024         6   # BR(~b_2 -> chi^-_1 t)
     9.66711955E-02    2    -1000037         6   # BR(~b_2 -> chi^-_2 t)
     5.59753122E-01    2     1000021         5   # BR(~b_2 -> ~g b)
     2.37119088E-04    2     1000006       -24   # BR(~b_2 -> ~t_1 W^-)
DECAY   2000002     7.74362438E+02   # ~u_R
#    BR                NDA      ID1      ID2
     2.85776827E-02    2     1000035         2   # BR(~u_R -> chi^0_4 u)
     9.71323459E-01    2     1000021         2   # BR(~u_R -> ~g u)
DECAY   1000002     8.88360052E+02   # ~u_L
#    BR                NDA      ID1      ID2
     1.68901032E-03    2     1000022         2   # BR(~u_L -> chi^0_1 u)
     2.45773342E-04    2     1000023         2   # BR(~u_L -> chi^0_2 u)
     4.81537442E-02    2     1000025         2   # BR(~u_L -> chi^0_3 u)
     1.36626113E-03    2     1000035         2   # BR(~u_L -> chi^0_4 u)
     7.31000196E-03    2     1000024         1   # BR(~u_L -> chi^+_1 d)
     9.24799127E-02    2     1000037         1   # BR(~u_L -> chi^+_2 d)
     8.48755296E-01    2     1000021         2   # BR(~u_L -> ~g u)
DECAY   2000004     7.74369726E+02   # ~c_R
#    BR                NDA      ID1      ID2
     2.85774288E-02    2     1000035         4   # BR(~c_R -> chi^0_4 c)
     9.71314322E-01    2     1000021         4   # BR(~c_R -> ~g c)
DECAY   1000004     8.88408121E+02   # ~c_L
#    BR                NDA      ID1      ID2
     1.69078761E-03    2     1000022         4   # BR(~c_L -> chi^0_1 c)
     2.47845461E-04    2     1000023         4   # BR(~c_L -> chi^0_2 c)
     4.81512906E-02    2     1000025         4   # BR(~c_L -> chi^0_3 c)
     1.36619949E-03    2     1000035         4   # BR(~c_L -> chi^0_4 c)
     7.35865358E-03    2     1000024         3   # BR(~c_L -> chi^+_1 s)
     9.24756980E-02    2     1000037         3   # BR(~c_L -> chi^+_2 s)
     8.48709525E-01    2     1000021         4   # BR(~c_L -> ~g c)
DECAY   1000006     3.60662205E+02   # ~t_1
#    BR                NDA      ID1      ID2
     9.88881456E-02    2     1000022         6   # BR(~t_1 -> chi^0_1 t)
     1.09991971E-01    2     1000023         6   # BR(~t_1 -> chi^0_2 t)
     6.89387783E-03    2     1000025         6   # BR(~t_1 -> chi^0_3 t)
     2.19943783E-02    2     1000035         6   # BR(~t_1 -> chi^0_4 t)
     2.02445974E-01    2     1000024         5   # BR(~t_1 -> chi^+_1 b)
     1.45956260E-02    2     1000037         5   # BR(~t_1 -> chi^+_2 b)
     5.45188546E-01    2     1000021         6   # BR(~t_1 -> ~g t)
#    BR                NDA      ID1      ID2       ID3
DECAY   2000006     4.55824332E+02   # ~t_2
#    BR                NDA      ID1      ID2
     9.11524596E-02    2     1000022         6   # BR(~t_2 -> chi^0_1 t)
     1.00514546E-01    2     1000023         6   # BR(~t_2 -> chi^0_2 t)
     4.76394312E-02    2     1000025         6   # BR(~t_2 -> chi^0_3 t)
     1.68168431E-03    2     1000035         6   # BR(~t_2 -> chi^0_4 t)
     1.20016324E-01    2     1000024         5   # BR(~t_2 -> chi^+_1 b)
     8.00855061E-02    2     1000037         5   # BR(~t_2 -> chi^+_2 b)
     5.58656173E-01    2     1000021         6   # BR(~t_2 -> ~g t)
     1.18904553E-04    2     1000006        23   # BR(~t_2 -> ~t_1 Z)
DECAY   1000024     6.15535677E-09   # chi^+_1
#    BR                NDA      ID1      ID2       ID3
     3.79426964E-01    3     1000022        -1         2   # BR(chi^+_1 -> chi^0_1 d_bar u)
     2.91826311E-01    3     1000022        -3         4   # BR(chi^+_1 -> chi^0_1 s_bar c)
     1.26475700E-01    3     1000022       -11        12   # BR(chi^+_1 -> chi^0_1 e^+ nu_e)
     1.26237876E-01    3     1000022       -13        14   # BR(chi^+_1 -> chi^0_1 mu^+ nu_mu)
     7.60331484E-02    3     1000022       -15        16   # BR(chi^+_1 -> chi^0_1 tau^+ nu_tau)
DECAY   1000037     4.08452800E+00   # chi^+_2
#    BR                NDA      ID1      ID2
     2.47178050E-01    2     1000022        24   # BR(chi^+_2 -> chi^0_1 W^+)
     2.94014153E-01    2     1000023        24   # BR(chi^+_2 -> chi^0_2 W^+)
     2.48043625E-01    2     1000024        23   # BR(chi^+_2 -> chi^+_1 Z)
     2.09961348E-01    2     1000024        25   # BR(chi^+_2 -> chi^+_1 h^0)
#    BR                NDA      ID1      ID2       ID3
     4.32680109E-04    3     1000022        -5         6   # BR(chi^+_2 -> chi^0_1 b_bar t)
     3.70064153E-04    3     1000023        -5         6   # BR(chi^+_2 -> chi^0_2 b_bar t)
DECAY   1000022     0.00000000E+00   # chi^0_1
DECAY   1000023     7.75347751E-06   # chi^0_2
#    BR                NDA      ID1      ID2
     1.01123902E-01    2     1000022        22   # BR(chi^0_2 -> chi^0_1 photon)
#    BR                NDA      ID1      ID2       ID3
     8.16255080E-02    3     1000022         2        -2   # BR(chi^0_2 -> chi^0_1 u u_bar)
     7.62539337E-02    3     1000022         4        -4   # BR(chi^0_2 -> chi^0_1 c c_bar)
     1.04659810E-01    3     1000022         1        -1   # BR(chi^0_2 -> chi^0_1 d d_bar)
     1.04625255E-01    3     1000022         3        -3   # BR(chi^0_2 -> chi^0_1 s s_bar)
     5.38812861E-02    3     1000022         5        -5   # BR(chi^0_2 -> chi^0_1 b b_bar)
     2.36187632E-02    3     1000022        11       -11   # BR(chi^0_2 -> chi^0_1 e^- e^+)
     2.36064639E-02    3     1000022        13       -13   # BR(chi^0_2 -> chi^0_1 mu^- mu^+)
     2.04157225E-02    3     1000022        15       -15   # BR(chi^0_2 -> chi^0_1 tau^- tau^+)
     1.39960881E-01    3     1000022        12       -12   # BR(chi^0_2 -> chi^0_1 nu_e nu_bar_e)
     4.63227465E-02    3     1000024         1        -2   # BR(chi^0_2 -> chi^+_1 d u_bar)
     4.63227465E-02    3    -1000024        -1         2   # BR(chi^0_2 -> chi^-_1 d_bar u)
     4.39586651E-02    3     1000024         3        -4   # BR(chi^0_2 -> chi^+_1 s c_bar)
     4.39586651E-02    3    -1000024        -3         4   # BR(chi^0_2 -> chi^-_1 s_bar c)
     1.54409234E-02    3     1000024        11       -12   # BR(chi^0_2 -> chi^+_1 e^- nu_bar_e)
     1.54409234E-02    3    -1000024       -11        12   # BR(chi^0_2 -> chi^-_1 e^+ nu_e)
     1.54352775E-02    3     1000024        13       -14   # BR(chi^0_2 -> chi^+_1 mu^- nu_bar_mu)
     1.54352775E-02    3    -1000024       -13        14   # BR(chi^0_2 -> chi^-_1 mu^+ nu_mu)
     1.39566245E-02    3     1000024        15       -16   # BR(chi^0_2 -> chi^+_1 tau^- nu_bar_tau)
     1.39566245E-02    3    -1000024       -15        16   # BR(chi^0_2 -> chi^-_1 tau^+ nu_tau)
DECAY   1000025     4.84369776E+00   # chi^0_3
#    BR                NDA      ID1      ID2
     2.35860797E-01    2     1000024       -24   # BR(chi^0_3 -> chi^+_1 W^-)
     2.35860797E-01    2    -1000024        24   # BR(chi^0_3 -> chi^-_1 W^+)
     2.62335668E-02    2     1000022        23   # BR(chi^0_3 -> chi^0_1 Z)
     2.13148439E-01    2     1000023        23   # BR(chi^0_3 -> chi^0_2 Z)
     1.36949641E-01    2     1000022        25   # BR(chi^0_3 -> chi^0_1 h^0)
     1.51166364E-01    2     1000023        25   # BR(chi^0_3 -> chi^0_2 h^0)
#    BR                NDA      ID1      ID2       ID3
     3.78889705E-04    3     1000024         5        -6   # BR(chi^0_3 -> chi^+_1 b t_bar)
     3.78889705E-04    3    -1000024        -5         6   # BR(chi^0_3 -> chi^-_1 b_bar t)
DECAY   1000035     2.63132337E+00   # chi^0_4
#    BR                NDA      ID1      ID2
     1.88390546E-01    2     1000024       -24   # BR(chi^0_4 -> chi^+_1 W^-)
     1.88390546E-01    2    -1000024        24   # BR(chi^0_4 -> chi^-_1 W^+)
     2.93625214E-02    2     1000037       -24   # BR(chi^0_4 -> chi^+_2 W^-)
     2.93625214E-02    2    -1000037        24   # BR(chi^0_4 -> chi^-_2 W^+)
     5.18158939E-02    2     1000022        23   # BR(chi^0_4 -> chi^0_1 Z)
     1.86263138E-01    2     1000023        23   # BR(chi^0_4 -> chi^0_2 Z)
     2.14140416E-03    2     1000025        23   # BR(chi^0_4 -> chi^0_3 Z)
     1.39120903E-01    2     1000022        25   # BR(chi^0_4 -> chi^0_1 h^0)
     1.51057753E-01    2     1000023        25   # BR(chi^0_4 -> chi^0_2 h^0)
     2.76867520E-02    2     1000025        25   # BR(chi^0_4 -> chi^0_3 h^0)
#    BR                NDA      ID1      ID2       ID3
     7.52393598E-04    3     1000022         6        -6   # BR(chi^0_4 -> chi^0_1 t t_bar)
     7.63544185E-04    3     1000023         6        -6   # BR(chi^0_4 -> chi^0_2 t t_bar)
     2.32117848E-03    3     1000024         5        -6   # BR(chi^0_4 -> chi^+_1 b t_bar)
     2.32117848E-03    3    -1000024        -5         6   # BR(chi^0_4 -> chi^-_1 b_bar t)
     1.22312077E-04    3     1000037         5        -6   # BR(chi^0_4 -> chi^+_2 b t_bar)
     1.22312077E-04    3    -1000037        -5         6   # BR(chi^0_4 -> chi^-_2 b_bar t)
DECAY   1000021     1.05191213E-02   # ~g
#    BR                NDA      ID1      ID2
     4.42925807E-03    2     1000022        21   # BR(~g -> chi^0_1 g)
     6.25355766E-03    2     1000023        21   # BR(~g -> chi^0_2 g)
     2.80764993E-04    2     1000025        21   # BR(~g -> chi^0_3 g)
#    BR                NDA      ID1      ID2       ID3
     8.71506001E-02    3     1000022         6        -6   # BR(~g -> chi^0_1 t t_bar)
     1.41264499E-01    3     1000022         5        -5   # BR(~g -> chi^0_1 b b_bar)
     9.85712091E-02    3     1000023         6        -6   # BR(~g -> chi^0_2 t t_bar)
     1.32799798E-01    3     1000023         5        -5   # BR(~g -> chi^0_2 b b_bar)
     3.12153989E-04    3     1000025         2        -2   # BR(~g -> chi^0_3 u u_bar)
     3.12157604E-04    3     1000025         4        -4   # BR(~g -> chi^0_3 c c_bar)
     1.60149182E-02    3     1000025         6        -6   # BR(~g -> chi^0_3 t t_bar)
     3.06908163E-04    3     1000025         1        -1   # BR(~g -> chi^0_3 d d_bar)
     3.06913129E-04    3     1000025         3        -3   # BR(~g -> chi^0_3 s s_bar)
     1.04740852E-02    3     1000025         5        -5   # BR(~g -> chi^0_3 b b_bar)
     2.08791771E-03    3     1000035         6        -6   # BR(~g -> chi^0_4 t t_bar)
     2.13525686E-03    3     1000035         5        -5   # BR(~g -> chi^0_4 b b_bar)
     2.19705998E-01    3     1000024         5        -6   # BR(~g -> chi^+_1 b t_bar)
     2.19705998E-01    3    -1000024        -5         6   # BR(~g -> chi^-_1 b_bar t)
     6.18237351E-04    3     1000037         1        -2   # BR(~g -> chi^+_2 d u_bar)
     6.18237351E-04    3    -1000037        -1         2   # BR(~g -> chi^-_2 d_bar u)
     6.18246607E-04    3     1000037         3        -4   # BR(~g -> chi^+_2 s c_bar)
     6.18246607E-04    3    -1000037        -3         4   # BR(~g -> chi^-_2 s_bar c)
     2.75082562E-02    3     1000037         5        -6   # BR(~g -> chi^+_2 b t_bar)
     2.75082562E-02    3    -1000037        -5         6   # BR(~g -> chi^-_2 b_bar t)
DECAY        25     3.39439262E-03   # Gamma(h0)
     2.53109700E-03   2        22        22   # BR(h0 -> photon photon)
     1.45661149E-03   2        22        23   # BR(h0 -> photon Z)
     2.52429131E-02   2        23        23   # BR(h0 -> Z Z)
     2.16067645E-01   2       -24        24   # BR(h0 -> W W)
     7.96102164E-02   2        21        21   # BR(h0 -> gluon gluon)
     5.19252995E-09   2       -11        11   # BR(h0 -> Electron electron)
     2.30972027E-04   2       -13        13   # BR(h0 -> Muon muon)
     6.65952170E-02   2       -15        15   # BR(h0 -> Tau tau)
     1.48148386E-07   2        -2         2   # BR(h0 -> Up up)
     2.87505899E-02   2        -4         4   # BR(h0 -> Charm charm)
     6.02564887E-07   2        -1         1   # BR(h0 -> Down down)
     2.17933306E-04   2        -3         3   # BR(h0 -> Strange strange)
     5.79296049E-01   2        -5         5   # BR(h0 -> Bottom bottom)
DECAY        35     1.76062971E+02   # Gamma(HH)
     3.86723020E-09   2        22        22   # BR(HH -> photon photon)
     1.90267270E-08   2        22        23   # BR(HH -> photon Z)
     4.77071837E-08   2        23        23   # BR(HH -> Z Z)
     8.30397893E-09   2       -24        24   # BR(HH -> W W)
     3.42082172E-06   2        21        21   # BR(HH -> gluon gluon)
     8.41345089E-09   2       -11        11   # BR(HH -> Electron electron)
     3.74663468E-04   2       -13        13   # BR(HH -> Muon muon)
     1.08215198E-01   2       -15        15   # BR(HH -> Tau tau)
     2.89231159E-14   2        -2         2   # BR(HH -> Up up)
     5.61134905E-09   2        -4         4   # BR(HH -> Charm charm)
     4.05739209E-04   2        -6         6   # BR(HH -> Top top)
     5.83274547E-07   2        -1         1   # BR(HH -> Down down)
     2.10975257E-04   2        -3         3   # BR(HH -> Strange strange)
     5.36944900E-01   2        -5         5   # BR(HH -> Bottom bottom)
     1.81225986E-02   2  -1000024   1000024   # BR(HH -> Chargino1 chargino1)
     9.75180224E-02   2  -1000024   1000037   # BR(HH -> Chargino1 chargino2)
     9.75180224E-02   2  -1000037   1000024   # BR(HH -> Chargino2 chargino1)
     3.14964902E-03   2  -1000037   1000037   # BR(HH -> Chargino2 chargino2)
     5.68615518E-03   2   1000022   1000022   # BR(HH -> neutralino1 neutralino1)
     1.02912125E-03   2   1000022   1000023   # BR(HH -> neutralino1 neutralino2)
     4.54877883E-02   2   1000022   1000025   # BR(HH -> neutralino1 neutralino3)
     1.43986625E-02   2   1000022   1000035   # BR(HH -> neutralino1 neutralino4)
     1.02497836E-03   2   1000023   1000023   # BR(HH -> neutralino2 neutralino2)
     5.22659231E-02   2   1000023   1000025   # BR(HH -> neutralino2 neutralino3)
     1.57498091E-02   2   1000023   1000035   # BR(HH -> neutralino2 neutralino4)
     1.52746264E-03   2   1000025   1000025   # BR(HH -> neutralino3 neutralino3)
     3.57479518E-04   2   1000025   1000035   # BR(HH -> neutralino3 neutralino4)
     8.48554298E-06   2   1000035   1000035   # BR(HH -> neutralino4 neutralino4)
     2.69520070E-07   2        25        25   # BR(HH -> h0 h0)
DECAY        36     1.65831995E+02   # Gamma(A0)
     3.57725081E-08   2        22        22   # BR(A0 -> photon photon)
     5.86724689E-08   2        22        23   # BR(A0 -> photon Z)
     6.19521363E-06   2        21        21   # BR(A0 -> gluon gluon)
     8.12706770E-09   2       -11        11   # BR(A0 -> Electron electron)
     3.61911979E-04   2       -13        13   # BR(A0 -> Muon muon)
     1.04532221E-01   2       -15        15   # BR(A0 -> Tau tau)
     2.60706286E-14   2        -2         2   # BR(A0 -> Up up)
     5.05778806E-09   2        -4         4   # BR(A0 -> Charm charm)
     3.67157828E-04   2        -6         6   # BR(A0 -> Top top)
     5.63381179E-07   2        -1         1   # BR(A0 -> Down down)
     2.03780547E-04   2        -3         3   # BR(A0 -> Strange strange)
     5.18639908E-01   2        -5         5   # BR(A0 -> Bottom bottom)
     2.01423035E-02   2  -1000024   1000024   # BR(A0 -> Chargino1 chargino1)
     1.02709445E-01   2  -1000024   1000037   # BR(A0 -> Chargino1 chargino2)
     1.02709445E-01   2  -1000037   1000024   # BR(A0 -> Chargino2 chargino1)
     4.22177758E-03   2  -1000037   1000037   # BR(A0 -> Chargino2 chargino2)
     6.58722548E-03   2   1000022   1000022   # BR(A0 -> neutralino1 neutralino1)
     8.77757545E-04   2   1000022   1000023   # BR(A0 -> neutralino1 neutralino2)
     5.30570012E-02   2   1000022   1000025   # BR(A0 -> neutralino1 neutralino3)
     1.70778041E-02   2   1000022   1000035   # BR(A0 -> neutralino1 neutralino4)
     1.00678834E-03   2   1000023   1000023   # BR(A0 -> neutralino2 neutralino2)
     5.01216575E-02   2   1000023   1000025   # BR(A0 -> neutralino2 neutralino3)
     1.48212906E-02   2   1000023   1000035   # BR(A0 -> neutralino2 neutralino4)
     2.03274565E-03   2   1000025   1000025   # BR(A0 -> neutralino3 neutralino3)
     5.08313584E-04   2   1000025   1000035   # BR(A0 -> neutralino3 neutralino4)
     1.44668353E-05   2   1000035   1000035   # BR(A0 -> neutralino4 neutralino4)
     1.31740262E-07   2        23        25   # BR(A0 -> Z h0)
     7.32378506E-13   2        23        35   # BR(A0 -> Z HH)
     1.56884942E-41   2        25        25   # BR(A0 -> h0 h0)
DECAY        37     1.91492611E+02   # Gamma(Hp)
     9.18404958E-09   2       -11        12   # BR(Hp -> Electron nu_e)
     3.92646804E-04   2       -13        14   # BR(Hp -> Muon nu_mu)
     1.11062891E-01   2       -15        16   # BR(Hp -> Tau nu_tau)
     5.54636732E-07   2        -1         2   # BR(Hp -> Down up)
     9.40979528E-06   2        -3         2   # BR(Hp -> Strange up)
     5.95746757E-06   2        -5         2   # BR(Hp -> Bottom up)
     2.62829468E-08   2        -1         4   # BR(Hp -> Down charm)
     1.99891796E-04   2        -3         4   # BR(Hp -> Strange charm)
     8.34258795E-04   2        -5         4   # BR(Hp -> Bottom charm)
     2.74175912E-08   2        -1         6   # BR(Hp -> Down top)
     8.96459002E-07   2        -3         6   # BR(Hp -> Strange top)
     5.62289891E-01   2        -5         6   # BR(Hp -> Bottom top)
     2.20532028E-04   2   1000022   1000024   # BR(Hp -> neutralino1 chargino1)
     1.04032924E-01   2   1000022   1000037   # BR(Hp -> neutralino1 chargino2)
     4.02446771E-03   2   1000023   1000024   # BR(Hp -> neutralino2 chargino1)
     9.24989151E-02   2   1000023   1000037   # BR(Hp -> neutralino2 chargino2)
     9.83896542E-02   2   1000024   1000025   # BR(Hp -> chargino1 neutralino3)
     6.95681923E-07   2   1000025   1000037   # BR(Hp -> neutralino3 chargino2)
     2.52745718E-02   2   1000024   1000035   # BR(Hp -> chargino1 neutralino4)
     7.61664809E-04   2   1000035   1000037   # BR(Hp -> neutralino4 chargino2)
     1.13966634E-07   2        24        25   # BR(Hp -> W h0)
DECAY         6     2.43000000E+00   # top
#    BR                NDA      ID1      ID2
     1.00000000E+00    2           5        24   # BR(t -> b W)
Block HiggsBoundsInputHiggsCouplingsFermions
# ScalarNormEffCoupSq PseudoSNormEffCoupSq NP IP1 IP2 IP2
    9.65908915E-01    0.00000000E+00        3  25   5   5  # h0-b-b eff. coupling^2, normalised to SM
    2.15209120E+03    0.00000000E+00        3  35   5   5  # H0-b-b eff. coupling^2, normalised to SM
    0.00000000E+00    2.15205710E+03        3  36   5   5  # A0-b-b eff. coupling^2, normalised to SM
#
    1.00001584E+00    0.00000000E+00        3  25   6   6  # h0-t-t eff. coupling^2, normalised to SM
    4.48830523E-04    0.00000000E+00        3  35   6   6  # H0-t-t eff. coupling^2, normalised to SM
    0.00000000E+00    4.64671685E-04        3  36   6   6  # A0-t-t eff. coupling^2, normalised to SM
#
    9.65908915E-01    0.00000000E+00        3  25  15  15  # h0-tau-tau eff. coupling^2, normalised to SM
    2.15209120E+03    0.00000000E+00        3  35  15  15  # H0-tau-tau eff. coupling^2, normalised to SM
    0.00000000E+00    2.15205710E+03        3  36  15  15  # A0-tau-tau eff. coupling^2, normalised to SM
#
Block HiggsBoundsInputHiggsCouplingsBosons
    9.99999863E-01        3  25  24  24  # h0-W-W eff. coupling^2, normalised to SM
    1.37361068E-07        3  35  24  24  # H0-W-W eff. coupling^2, normalised to SM
    0.00000000E+00        3  36  24  24  # A0-W-W eff. coupling^2, normalised to SM
#
    9.99999863E-01        3  25  23  23  # h0-Z-Z eff. coupling^2, normalised to SM
    1.37361068E-07        3  35  23  23  # H0-Z-Z eff. coupling^2, normalised to SM
    0.00000000E+00        3  36  23  23  # A0-Z-Z eff. coupling^2, normalised to SM
#
    1.26844910E+00        3  25  21  21  # h0-g-g eff. coupling^2, normalised to SM
    8.10839212E-03        3  35  21  21  # H0-g-g eff. coupling^2, normalised to SM
    1.24165968E-01        3  36  21  21  # A0-g-g eff. coupling^2, normalised to SM
#
    0.00000000E+00        3  25  25  23  # h0-h0-Z eff. coupling^2, normalised to SM
    0.00000000E+00        3  35  25  23  # H0-h0-Z eff. coupling^2, normalised to SM
    1.37361068E-07        3  36  25  23  # A0-h0-Z eff. coupling^2, normalised to SM
    0.00000000E+00        3  35  35  23  # H0-H0-Z eff. coupling^2, normalised to SM
    9.99999863E-01        3  36  35  23  # A0-H0-Z eff. coupling^2, normalised to SM
    0.00000000E+00        3  36  36  23  # A0-A0-Z eff. coupling^2, normalised to SM
#
    0.00000000E+00        4  25  21  21  23  # h0-g-g-Z eff. coupling^2, normalised to SM
    0.00000000E+00        4  35  21  21  23  # H0-g-g-Z eff. coupling^2, normalised to SM
    0.00000000E+00        4  36  21  21  23  # A0-g-g-Z eff. coupling^2, normalised to SM
Block SPhenoLowEnergy  # low energy observables
    1    3.20168475E-04   # BR(b -> s gamma)
    2    1.58958073E-06   # BR(b -> s mu+ mu-)
    3    3.52363500E-05   # BR(b -> s nu nu)
    4    2.59827307E-15   # BR(Bd -> e+ e-)
    5    1.10995152E-10   # BR(Bd -> mu+ mu-)
    6    2.32285919E-08   # BR(Bd -> tau+ tau-)
    7    8.69452861E-14   # BR(Bs -> e+ e-)
    8    3.71429692E-09   # BR(Bs -> mu+ mu-)
    9    7.87663547E-07   # BR(Bs -> tau+ tau-)
   10    9.62703238E-05   # BR(B_u -> tau nu)
   11    9.94435588E-01   # BR(B_u -> tau nu)/BR(B_u -> tau nu)_SM
   12    5.42084673E-01   # |Delta(M_Bd)| [ps^-1] 
   13    1.93660832E+01   # |Delta(M_Bs)| [ps^-1] 
   14    0.00000000E+00   # neutron EDM according to the chiral quark model
   15    0.00000000E+00   # neutron EDM according to the relativistic quark-parton model
   16    2.15780216E-03   # epsilon_K
   17    2.28166367E-15   # Delta(M_K)
   18    2.47879750E-11   # BR(K^0 -> pi^0 nu nu)
   19    8.28765789E-11   # BR(K^+ -> pi^+ nu nu)
   20    3.72302421E-16   # Delta(g-2)_electron/2
   21    1.59173760E-11   # Delta(g-2)_muon/2
   22    4.52370551E-09   # Delta(g-2)_tau/2
   23    0.00000000E+00   # electric dipole moment of the electron
   24    0.00000000E+00   # electric dipole moment of the muon
   25    0.00000000E+00   # electric dipole moment of the tau
   26    0.00000000E+00   # Br(mu -> e gamma)
   27    0.00000000E+00   # Br(tau -> e gamma)
   28    0.00000000E+00   # Br(tau -> mu gamma)
   29    0.00000000E+00   # Br(mu -> 3 e)
   30    0.00000000E+00   # Br(tau -> 3 e)
   31    0.00000000E+00   # Br(tau -> 3 mu)
   39    7.36149983E-05   # Delta(rho_parameter)
   40    0.00000000E+00   # BR(Z -> e mu)
   41    0.00000000E+00   # BR(Z -> e tau)
   42    0.00000000E+00   # BR(Z -> mu tau)
Block FWCOEF Q=  1.60000000E+02  # Wilson coefficients at scale Q
#    id        order  M        value         comment
     0305 4422   00   0    -1.88819110E-01   # C7
     0305 4422   00   2    -1.87685431E-01   # C7
     0305 4322   00   2    -2.78505428E-05   # C7'
     0305 6421   00   0    -9.52278348E-02   # C8
     0305 6421   00   2    -9.96535567E-02   # C8
     0305 6321   00   2    -1.09049216E-04   # C8'
 03051111 4133   00   0     1.62868683E+00   # C9 e+e-
 03051111 4133   00   2     1.62900300E+00   # C9 e+e-
 03051111 4233   00   2     4.90150349E-04   # C9' e+e-
 03051111 4137   00   0    -4.45137893E+00   # C10 e+e-
 03051111 4137   00   2    -4.44823760E+00   # C10 e+e-
 03051111 4237   00   2    -3.61485686E-03   # C10' e+e-
 03051313 4133   00   0     1.62868683E+00   # C9 mu+mu-
 03051313 4133   00   2     1.62900282E+00   # C9 mu+mu-
 03051313 4233   00   2     4.90150046E-04   # C9' mu+mu-
 03051313 4137   00   0    -4.45137893E+00   # C10 mu+mu-
 03051313 4137   00   2    -4.44823778E+00   # C10 mu+mu-
 03051313 4237   00   2    -3.61485733E-03   # C10' mu+mu-
 03051212 4137   00   0     1.50535012E+00   # C11 nu_1 nu_1
 03051212 4137   00   2     1.50467264E+00   # C11 nu_1 nu_1
 03051212 4237   00   2     7.81316468E-04   # C11' nu_1 nu_1
 03051414 4137   00   0     1.50535012E+00   # C11 nu_2 nu_2
 03051414 4137   00   2     1.50467264E+00   # C11 nu_2 nu_2
 03051414 4237   00   2     7.81316491E-04   # C11' nu_2 nu_2
 03051616 4137   00   0     1.50535012E+00   # C11 nu_3 nu_3
 03051616 4137   00   2     1.50467265E+00   # C11 nu_3 nu_3
 03051616 4237   00   2     7.81322953E-04   # C11' nu_3 nu_3
Block IMFWCOEF Q=  1.60000000E+02  # Im(Wilson coefficients) at scale Q
#    id        order  M        value         comment
     0305 4422   00   0     3.85819014E-07   # C7
     0305 4422   00   2     1.54047312E-05   # C7
     0305 4322   00   2     6.13500054E-07   # C7'
     0305 6421   00   0     3.30479501E-07   # C8
     0305 6421   00   2    -3.21430900E-05   # C8
     0305 6321   00   2    -4.72608823E-07   # C8'
 03051111 4133   00   2     7.12300066E-07   # C9 e+e-
 03051111 4233   00   2     9.22618277E-06   # C9' e+e-
 03051111 4137   00   2    -3.67498839E-07   # C10 e+e-
 03051111 4237   00   2    -6.80468597E-05   # C10' e+e-
 03051313 4133   00   2     7.12294824E-07   # C9 mu+mu-
 03051313 4233   00   2     9.22617928E-06   # C9' mu+mu-
 03051313 4137   00   2    -3.67493338E-07   # C10 mu+mu-
 03051313 4237   00   2    -6.80468702E-05   # C10' mu+mu-
 03051212 4137   00   2     1.06096945E-07   # C11 nu_1 nu_1
 03051212 4237   00   2     1.47076737E-05   # C11' nu_1 nu_1
 03051414 4137   00   2     1.06097205E-07   # C11 nu_2 nu_2
 03051414 4237   00   2     1.47076737E-05   # C11' nu_2 nu_2
 03051616 4137   00   2     1.06169384E-07   # C11 nu_3 nu_3
 03051616 4237   00   2     1.47076737E-05   # C11' nu_3 nu_3
