# SUSY Les Houches Accord 2 - MSSM spectrum + Decays
# SPheno v4.0.5be
# W. Porod, Comput. Phys. Commun. 153 (2003) 275-315, hep-ph/0301101;
# W. Porod, F.~Staub, Comput. Phys. Commun. 183 (2012) 2458
#                     arXiv:1104.1573 [hep-ph] 
# in case of problems send email to porod@physik.uni-wuerzburg.de
# Created: 07.09.2021,  21:18
Block SPINFO         # Program information
     1   SPheno      # spectrum calculator
     2   v4.0.5be    # version number
#
Block SPhenoINFO     # SPheno specific information
    1      2         # using 2-loop RGEs
    2      2         # using pole masses for boundary conditions at mZ
Block MODSEL  # Model selection
    1    0    # general MSSM
Block MINPAR  # Input parameters
    3    3.21127219E+01  # tanb at m_Z    
    4   -1.00000000E+00  # Sign(mu)
Block EXTPAR  # non-universal input parameters
    0    2.73096147E+03  # scale for input parameters
    1   -1.86628952E+02  # M_1
    2   -2.00174536E+02  # M_2
    3    2.20786569E+03  # M_3
   11   -1.88245310E+03  # A_t
   12   -1.34577166E+03  # A_b
   13   -1.27753848E+03  # A_tau
   23   -4.10156461E+02  # mu
   25    3.10876639E+01  # tan(beta)
   26    2.76425221E+03  # m_A, pole mass
   31    1.00000000E+04  # M_L11
   32    1.00000000E+04  # M_L22
   33    1.00000000E+04  # M_L33
   34    1.00000000E+04  # M_E11
   35    1.00000000E+04  # M_E22
   36    1.00000000E+04  # M_E33
   41    1.00000000E+04  # M_Q11
   42    1.00000000E+04  # M_Q22
   43    2.30401383E+03  # M_Q33
   44    1.00000000E+04  # M_U11
   45    1.00000000E+04  # M_U22
   46    3.11775601E+03  # M_U33
   47    1.00000000E+04  # M_D11
   48    1.00000000E+04  # M_D22
   49    3.79522512E+03  # M_D33
Block SMINPUTS  # SM parameters
         1     1.27908970E+02  # alpha_em^-1(MZ)^MSbar
         2     1.16637870E-05  # G_mu [GeV^-2]
         3     1.18400000E-01  # alpha_s(MZ)^MSbar
         4     9.11876000E+01  # m_Z(pole)
         5     4.18000000E+00  # m_b(m_b), MSbar
         6     1.73200000E+02  # m_t(pole)
         7     1.77700000E+00  # m_tau(pole)
         8     0.00000000E+00  # m_nu_3
        11     5.10998930E-04  # m_e(pole)
        12     0.00000000E+00  # m_nu_1
        13     1.05658372E-01  # m_muon(pole)
        14     0.00000000E+00  # m_nu_2
        21     5.00000000E-03  # m_d(2 GeV), MSbar
        22     2.50000000E-03  # m_u(2 GeV), MSbar
        23     9.50000000E-02  # m_s(2 GeV), MSbar
        24     1.27000000E+00  # m_c(m_c), MSbar
Block gauge Q=  2.73096147E+03  # (SUSY scale)
   1    3.55362975E-01  # g'(Q)^DRbar
   2    6.65198874E-01  # g(Q)^DRbar
   3    1.21977796E+00  # g3(Q)^DRbar
Block Yu Q=  2.73096147E+03  # (SUSY scale)
  1  1     8.38870876E-06   # Y_u(Q)^DRbar
  2  2     4.26146405E-03   # Y_c(Q)^DRbar
  3  3     1.01342340E+00   # Y_t(Q)^DRbar
Block Yd Q=  2.73096147E+03  # (SUSY scale)
  1  1     5.24038811E-04   # Y_d(Q)^DRbar
  2  2     9.95673740E-03   # Y_s(Q)^DRbar
  3  3     5.19682290E-01   # Y_b(Q)^DRbar
Block Ye Q=  2.73096147E+03  # (SUSY scale)
  1  1     9.14486045E-05   # Y_e(Q)^DRbar
  2  2     1.89086711E-02   # Y_mu(Q)^DRbar
  3  3     3.18012741E-01   # Y_tau(Q)^DRbar
Block Au Q=  2.73096147E+03  # (SUSY scale)
  1  1     0.00000000E+00   # A_u(Q)^DRbar
  2  2     0.00000000E+00   # A_c(Q)^DRbar
  3  3    -1.88245365E+03   # A_t(Q)^DRbar
Block Ad Q=  2.73096147E+03  # (SUSY scale)
  1  1     0.00000000E+00   # A_d(Q)^DRbar
  2  2     0.00000000E+00   # A_s(Q)^DRbar
  3  3    -1.34577162E+03   # A_b(Q)^DRbar
Block Ae Q=  2.73096147E+03  # (SUSY scale)
  1  1     0.00000000E+00   # A_e(Q)^DRbar
  2  2     0.00000000E+00   # A_mu(Q)^DRbar
  3  3    -1.27753836E+03   # A_tau(Q)^DRbar
Block MSOFT Q=  2.73096147E+03  # soft SUSY breaking masses at Q
   1   -1.86628952E+02  # M_1
   2   -2.00174536E+02  # M_2
   3    2.20786569E+03  # M_3
  21    7.32182555E+06  # M^2_(H,d)
  22    9.00603439E+03  # M^2_(H,u)
  31    1.00000000E+04  # M_(L,11)
  32    1.00000000E+04  # M_(L,22)
  33    1.00000000E+04  # M_(L,33)
  34    1.00000000E+04  # M_(E,11)
  35    1.00000000E+04  # M_(E,22)
  36    1.00000000E+04  # M_(E,33)
  41    1.00000000E+04  # M_(Q,11)
  42    1.00000000E+04  # M_(Q,22)
  43    2.30401383E+03  # M_(Q,33)
  44    1.00000000E+04  # M_(U,11)
  45    1.00000000E+04  # M_(U,22)
  46    3.11775601E+03  # M_(U,33)
  47    1.00000000E+04  # M_(D,11)
  48    1.00000000E+04  # M_(D,22)
  49    3.79522512E+03  # M_(D,33)
Block MASS  # Mass spectrum
#   PDG code      mass          particle
         6     1.73200000E+02  # m_t(pole)
        23     9.11876000E+01  # m_Z(pole)
        24     8.04299946E+01  # W+
        15     1.77700000E+00  # m_tau(pole)
        25     1.22573030E+02  # h0
        35     2.76353691E+03  # H0
        36     2.76425221E+03  # A0
        37     2.76591677E+03  # H+
   1000001     1.01114020E+04  # ~d_L
   2000001     1.00860978E+04  # ~d_R
   1000002     1.01110309E+04  # ~u_L
   2000002     1.00892124E+04  # ~u_R
   1000003     1.01114081E+04  # ~s_L
   2000003     1.00861078E+04  # ~s_R
   1000004     1.01110370E+04  # ~c_L
   2000004     1.00892144E+04  # ~c_R
   1000005     2.37447664E+03  # ~b_1
   2000005     3.83984796E+03  # ~b_2
   1000006     2.37376781E+03  # ~t_1
   2000006     3.14190398E+03  # ~t_2
   1000011     1.00214954E+04  # ~e_L-
   2000011     1.00089192E+04  # ~e_R-
   1000012     1.00207211E+04  # ~nu_eL
   1000013     1.00215216E+04  # ~mu_L-
   2000013     1.00089693E+04  # ~mu_R-
   1000014     1.00207470E+04  # ~nu_muL
   1000015     1.00231497E+04  # ~tau_1-
   2000015     1.00290808E+04  # ~tau_2-
   1000016     1.00281203E+04  # ~nu_tauL
   1000021     2.59728958E+03  # ~g
   1000022     1.84045917E+02  # ~chi_10
   1000023     2.09327200E+02  # ~chi_20
   1000025     4.08357913E+02  # ~chi_30
   1000035     4.24490553E+02  # ~chi_40
   1000024     2.07728794E+02  # ~chi_1+
   1000037     4.25005308E+02  # ~chi_2+
# Higgs mixing
Block alpha # Effective Higgs mixing angle
          -3.12389950E-02   # alpha
Block Hmix Q=  2.73096147E+03  # Higgs mixing parameters
   1   -4.10156461E+02  # mu
   2    3.10876639E+01  # tan[beta](Q)
   3    2.43354664E+02  # v(Q)
   4    7.64109028E+06  # m^2_A(Q)
Block stopmix # stop mixing matrix
   1  1     9.97780531E-01   # Re[R_st(1,1)]
   1  2     6.65883815E-02   # Re[R_st(1,2)]
   2  1    -6.65883815E-02   # Re[R_st(2,1)]
   2  2     9.97780531E-01   # Re[R_st(2,2)]
Block sbotmix # sbottom mixing matrix
   1  1    -9.99995913E-01   # Re[R_sb(1,1)]
   1  2     2.85898925E-03   # Re[R_sb(1,2)]
   2  1    -2.85898925E-03   # Re[R_sb(2,1)]
   2  2    -9.99995913E-01   # Re[R_sb(2,2)]
Block staumix # stau mixing matrix
   1  1    -1.80103659E-01   # Re[R_sta(1,1)]
   1  2     9.83647636E-01   # Re[R_sta(1,2)]
   2  1    -9.83647636E-01   # Re[R_sta(2,1)]
   2  2    -1.80103659E-01   # Re[R_sta(2,2)]
Block Nmix # neutralino mixing matrix
   1  1     9.50828836E-01   # Re[N(1,1)]
   1  2    -2.23763023E-01   # Re[N(1,2)]
   1  3    -1.92638030E-01   # Re[N(1,3)]
   1  4     9.35159057E-02   # Re[N(1,4)]
   2  1    -2.75022318E-01   # Re[N(2,1)]
   2  2    -9.27855092E-01   # Re[N(2,2)]
   2  3    -2.21203926E-01   # Re[N(2,3)]
   2  4     1.20484339E-01   # Re[N(2,4)]
   3  1     5.05720321E-02   # Re[N(3,1)]
   3  2    -8.91812950E-02   # Re[N(3,2)]
   3  3     6.97494667E-01   # Re[N(3,3)]
   3  4     7.09218130E-01   # Re[N(3,4)]
   4  1    -1.33152993E-01   # Re[N(4,1)]
   4  2     2.84713426E-01   # Re[N(4,2)]
   4  3    -6.53804712E-01   # Re[N(4,3)]
   4  4     6.88293501E-01   # Re[N(4,4)]
Block Umix # chargino mixing matrix
   1  1    -9.28305284E-01   # Re[U(1,1)]
   1  2    -3.71818907E-01   # Re[U(1,2)]
   2  1    -3.71818907E-01   # Re[U(2,1)]
   2  2     9.28305284E-01   # Re[U(2,2)]
Block Vmix # chargino mixing matrix
   1  1     9.79480933E-01   # Re[V(1,1)]
   1  2     2.01536849E-01   # Re[V(1,2)]
   2  1     2.01536849E-01   # Re[V(2,1)]
   2  2    -9.79480933E-01   # Re[V(2,2)]
DECAY        23     2.49520000E+00   # Z
DECAY        24     2.08500000E+00   # W
DECAY   2000011     5.02534649E+01   # ~e^-_R
#    BR                NDA      ID1      ID2
     9.04141939E-01    2     1000022        11   # BR(~e^-_R -> chi^0_1 e^-)
     7.56278146E-02    2     1000023        11   # BR(~e^-_R -> chi^0_2 e^-)
     2.55095127E-03    2     1000025        11   # BR(~e^-_R -> chi^0_3 e^-)
     1.76792620E-02    2     1000035        11   # BR(~e^-_R -> chi^0_4 e^-)
DECAY   1000011     1.44754392E+02   # ~e^-_L
#    BR                NDA      ID1      ID2
     2.45938557E-02    2     1000022        11   # BR(~e^-_L -> chi^0_1 e^-)
     3.51691750E-01    2     1000023        11   # BR(~e^-_L -> chi^0_2 e^-)
     1.17368045E-03    2     1000025        11   # BR(~e^-_L -> chi^0_3 e^-)
     1.38505446E-02    2     1000035        11   # BR(~e^-_L -> chi^0_4 e^-)
     5.24737740E-01    2    -1000024        12   # BR(~e^-_L -> chi^-_1 nu_e)
     8.39524288E-02    2    -1000037        12   # BR(~e^-_L -> chi^-_2 nu_e)
#    BR                NDA      ID1      ID2       ID3
DECAY   2000013     5.03956417E+01   # ~mu^-_R
#    BR                NDA      ID1      ID2
     9.01648075E-01    2     1000022        13   # BR(~mu^-_R -> chi^0_1 mu^-)
     7.54838914E-02    2     1000023        13   # BR(~mu^-_R -> chi^0_2 mu^-)
     3.22873752E-03    2     1000025        13   # BR(~mu^-_R -> chi^0_3 mu^-)
     1.82311552E-02    2     1000035        13   # BR(~mu^-_R -> chi^0_4 mu^-)
     1.95135938E-04    2    -1000024        14   # BR(~mu^-_R -> chi^-_1 nu_mu)
     1.21300516E-03    2    -1000037        14   # BR(~mu^-_R -> chi^-_2 nu_mu)
DECAY   1000013     1.44825824E+02   # ~mu^-_L
#    BR                NDA      ID1      ID2
     2.46000418E-02    2     1000022        13   # BR(~mu^-_L -> chi^0_1 mu^-)
     3.51543274E-01    2     1000023        13   # BR(~mu^-_L -> chi^0_2 mu^-)
     1.41175737E-03    2     1000025        13   # BR(~mu^-_L -> chi^0_3 mu^-)
     1.40533826E-02    2     1000035        13   # BR(~mu^-_L -> chi^0_4 mu^-)
     5.24480302E-01    2    -1000024        14   # BR(~mu^-_L -> chi^-_1 nu_mu)
     8.39112426E-02    2    -1000037        14   # BR(~mu^-_L -> chi^-_2 nu_mu)
#    BR                NDA      ID1      ID2       ID3
DECAY   1000015     9.29626333E+01   # ~tau^-_1
#    BR                NDA      ID1      ID2
     4.98878783E-01    2     1000022        15   # BR(~tau^-_1 -> chi^0_1 tau^-)
     8.76052722E-02    2     1000023        15   # BR(~tau^-_1 -> chi^0_2 tau^-)
     9.73974137E-02    2     1000025        15   # BR(~tau^-_1 -> chi^0_3 tau^-)
     7.60010433E-02    2     1000035        15   # BR(~tau^-_1 -> chi^0_4 tau^-)
     1.10945821E-01    2    -1000024        16   # BR(~tau^-_1 -> chi^-_1 nu_tau)
     1.29171666E-01    2    -1000037        16   # BR(~tau^-_1 -> chi^-_2 nu_tau)
DECAY   2000015     1.62541062E+02   # ~tau^-_2
#    BR                NDA      ID1      ID2
     2.57335175E-02    2     1000022        15   # BR(~tau^-_2 -> chi^0_1 tau^-)
     2.98877952E-01    2     1000023        15   # BR(~tau^-_2 -> chi^0_2 tau^-)
     6.64871504E-02    2     1000025        15   # BR(~tau^-_2 -> chi^0_3 tau^-)
     8.00779656E-02    2     1000035        15   # BR(~tau^-_2 -> chi^0_4 tau^-)
     4.21327204E-01    2    -1000024        16   # BR(~tau^-_2 -> chi^-_1 nu_tau)
     1.07496210E-01    2    -1000037        16   # BR(~tau^-_2 -> chi^-_2 nu_tau)
#    BR                NDA      ID1      ID2       ID3
DECAY   1000012     1.44759975E+02   # ~nu_e
#    BR                NDA      ID1      ID2
     1.63021544E-01    2     1000022        12   # BR(~nu_e -> chi^0_1 nu_e)
     1.85652803E-01    2     1000023        12   # BR(~nu_e -> chi^0_2 nu_e)
     4.10021560E-03    2     1000025        12   # BR(~nu_e -> chi^0_3 nu_e)
     3.84431511E-02    2     1000035        12   # BR(~nu_e -> chi^0_4 nu_e)
     5.84120253E-01    2     1000024        11   # BR(~nu_e -> chi^+_1 e^-)
     2.46620333E-02    2     1000037        11   # BR(~nu_e -> chi^+_2 e^-)
#    BR                NDA      ID1      ID2       ID3
DECAY   1000014     1.44831397E+02   # ~nu_mu
#    BR                NDA      ID1      ID2
     1.62941574E-01    2     1000022        14   # BR(~nu_mu -> chi^0_1 nu_mu)
     1.85561731E-01    2     1000023        14   # BR(~nu_mu -> chi^0_2 nu_mu)
     4.09820430E-03    2     1000025        14   # BR(~nu_mu -> chi^0_3 nu_mu)
     3.84242935E-02    2     1000035        14   # BR(~nu_mu -> chi^0_4 nu_mu)
     5.83901687E-01    2     1000024        13   # BR(~nu_mu -> chi^+_1 mu^-)
     2.50725101E-02    2     1000037        13   # BR(~nu_mu -> chi^+_2 mu^-)
#    BR                NDA      ID1      ID2       ID3
DECAY   1000016     1.64978457E+02   # ~nu_tau
#    BR                NDA      ID1      ID2
     1.43148650E-01    2     1000022        16   # BR(~nu_tau -> chi^0_1 nu_tau)
     1.63021128E-01    2     1000023        16   # BR(~nu_tau -> chi^0_2 nu_tau)
     3.60039913E-03    2     1000025        16   # BR(~nu_tau -> chi^0_3 nu_tau)
     3.37569426E-02    2     1000035        16   # BR(~nu_tau -> chi^0_4 nu_tau)
     5.29805499E-01    2     1000024        15   # BR(~nu_tau -> chi^+_1 tau^-)
     1.26667381E-01    2     1000037        15   # BR(~nu_tau -> chi^+_2 tau^-)
#    BR                NDA      ID1      ID2       ID3
DECAY   2000001     6.99670702E+02   # ~d_R
#    BR                NDA      ID1      ID2
     7.27121644E-03    2     1000022         1   # BR(~d_R -> chi^0_1 d)
     6.08213266E-04    2     1000023         1   # BR(~d_R -> chi^0_2 d)
     1.42218432E-04    2     1000035         1   # BR(~d_R -> chi^0_4 d)
     9.91957719E-01    2     1000021         1   # BR(~d_R -> ~g d)
DECAY   1000001     8.31048711E+02   # ~d_L
#    BR                NDA      ID1      ID2
     8.26919714E-03    2     1000022         1   # BR(~d_L -> chi^0_1 d)
     4.13309891E-02    2     1000023         1   # BR(~d_L -> chi^0_2 d)
     5.14640478E-04    2     1000025         1   # BR(~d_L -> chi^0_3 d)
     5.07640072E-03    2     1000035         1   # BR(~d_L -> chi^0_4 d)
     9.22216793E-02    2    -1000024         2   # BR(~d_L -> chi^-_1 u)
     1.47551996E-02    2    -1000037         2   # BR(~d_L -> chi^-_2 u)
     8.37831894E-01    2     1000021         1   # BR(~d_L -> ~g d)
DECAY   2000003     6.99711139E+02   # ~s_R
#    BR                NDA      ID1      ID2
     7.27185496E-03    2     1000022         3   # BR(~s_R -> chi^0_1 s)
     6.09564706E-04    2     1000023         3   # BR(~s_R -> chi^0_2 s)
     1.54286127E-04    2     1000035         3   # BR(~s_R -> chi^0_4 s)
     9.91901655E-01    2     1000021         3   # BR(~s_R -> ~g s)
DECAY   1000003     8.31072796E+02   # ~s_L
#    BR                NDA      ID1      ID2
     8.26985005E-03    2     1000022         3   # BR(~s_L -> chi^0_1 s)
     4.13309866E-02    2     1000023         3   # BR(~s_L -> chi^0_2 s)
     5.26229283E-04    2     1000025         3   # BR(~s_L -> chi^0_3 s)
     5.08644869E-03    2     1000035         3   # BR(~s_L -> chi^0_4 s)
     9.22192358E-02    2    -1000024         4   # BR(~s_L -> chi^-_1 c)
     1.47589884E-02    2    -1000037         4   # BR(~s_L -> chi^-_2 c)
     8.37808261E-01    2     1000021         3   # BR(~s_L -> ~g s)
DECAY   1000005     8.82959961E+01   # ~b_1
#    BR                NDA      ID1      ID2
     2.34772110E-02    2     1000022         5   # BR(~b_1 -> chi^0_1 b)
     9.71171713E-02    2     1000023         5   # BR(~b_1 -> chi^0_2 b)
     6.72032900E-02    2     1000025         5   # BR(~b_1 -> chi^0_3 b)
     6.82332621E-02    2     1000035         5   # BR(~b_1 -> chi^0_4 b)
     2.19117394E-01    2    -1000024         6   # BR(~b_1 -> chi^-_1 t)
     5.24851671E-01    2    -1000037         6   # BR(~b_1 -> chi^-_2 t)
DECAY   2000005     1.31776712E+02   # ~b_2
#    BR                NDA      ID1      ID2
     2.03115804E-02    2     1000022         5   # BR(~b_2 -> chi^0_1 b)
     8.69927075E-03    2     1000023         5   # BR(~b_2 -> chi^0_2 b)
     7.45569739E-02    2     1000025         5   # BR(~b_2 -> chi^0_3 b)
     6.57605845E-02    2     1000035         5   # BR(~b_2 -> chi^0_4 b)
     2.10405584E-02    2    -1000024         6   # BR(~b_2 -> chi^-_1 t)
     1.31484836E-01    2    -1000037         6   # BR(~b_2 -> chi^-_2 t)
     6.76865073E-01    2     1000021         5   # BR(~b_2 -> ~g b)
     5.58360903E-04    2     1000006       -24   # BR(~b_2 -> ~t_1 W^-)
     2.79727326E-04    2     1000005        23   # BR(~b_2 -> ~b_1 Z)
     4.42659822E-04    2     1000005        25   # BR(~b_2 -> ~b_1 h^0)
DECAY   2000002     7.16833267E+02   # ~u_R
#    BR                NDA      ID1      ID2
     2.83972767E-02    2     1000022         2   # BR(~u_R -> chi^0_1 u)
     2.37532472E-03    2     1000023         2   # BR(~u_R -> chi^0_2 u)
     5.55295337E-04    2     1000035         2   # BR(~u_R -> chi^0_4 u)
     9.68591980E-01    2     1000021         2   # BR(~u_R -> ~g u)
DECAY   1000002     8.31036559E+02   # ~u_L
#    BR                NDA      ID1      ID2
     1.58641027E-04    2     1000022         2   # BR(~u_L -> chi^0_1 u)
     5.10556080E-02    2     1000023         2   # BR(~u_L -> chi^0_2 u)
     3.43120475E-04    2     1000025         2   # BR(~u_L -> chi^0_3 u)
     3.63525746E-03    2     1000035         2   # BR(~u_L -> chi^0_4 u)
     1.02667687E-01    2     1000024         1   # BR(~u_L -> chi^+_1 d)
     4.33497998E-03    2     1000037         1   # BR(~u_L -> chi^+_2 d)
     8.37804706E-01    2     1000021         2   # BR(~u_L -> ~g u)
DECAY   2000004     7.16840682E+02   # ~c_R
#    BR                NDA      ID1      ID2
     2.83970324E-02    2     1000022         4   # BR(~c_R -> chi^0_1 c)
     2.37537413E-03    2     1000023         4   # BR(~c_R -> chi^0_2 c)
     5.57689254E-04    2     1000035         4   # BR(~c_R -> chi^0_4 c)
     9.68582165E-01    2     1000021         4   # BR(~c_R -> ~g c)
DECAY   1000004     8.31060611E+02   # ~c_L
#    BR                NDA      ID1      ID2
     1.58674965E-04    2     1000022         4   # BR(~c_L -> chi^0_1 c)
     5.10542237E-02    2     1000023         4   # BR(~c_L -> chi^0_2 c)
     3.45315052E-04    2     1000025         4   # BR(~c_L -> chi^0_3 c)
     3.63722731E-03    2     1000035         4   # BR(~c_L -> chi^0_4 c)
     1.02668082E-01    2     1000024         3   # BR(~c_L -> chi^+_1 s)
     4.35540623E-03    2     1000037         3   # BR(~c_L -> chi^+_2 s)
     8.37781071E-01    2     1000021         4   # BR(~c_L -> ~g c)
DECAY   1000006     8.92999733E+01   # ~t_1
#    BR                NDA      ID1      ID2
     2.98879989E-03    2     1000022         6   # BR(~t_1 -> chi^0_1 t)
     1.16608504E-02    2     1000023         4   # BR(~t_1 -> chi^0_2 c)
     1.13645642E-01    2     1000023         6   # BR(~t_1 -> chi^0_2 t)
     2.52290027E-01    2     1000025         6   # BR(~t_1 -> chi^0_3 t)
     2.50191137E-01    2     1000035         6   # BR(~t_1 -> chi^0_4 t)
     2.30294844E-01    2     1000024         5   # BR(~t_1 -> chi^+_1 b)
     1.34655491E-01    2     1000037         5   # BR(~t_1 -> chi^+_2 b)
#    BR                NDA      ID1      ID2       ID3
     4.23685448E-03    3     1000022        24         5   # BR(~t_1 -> chi^0_1 W^+ b)
DECAY   2000006     1.68576960E+02   # ~t_2
#    BR                NDA      ID1      ID2
     4.20008766E-02    2     1000022         6   # BR(~t_2 -> chi^0_1 t)
     1.09823967E-02    2     1000023         6   # BR(~t_2 -> chi^0_2 t)
     1.86410800E-01    2     1000025         6   # BR(~t_2 -> chi^0_3 t)
     1.68016990E-01    2     1000035         6   # BR(~t_2 -> chi^0_4 t)
     2.25160545E-02    2     1000024         5   # BR(~t_2 -> chi^+_1 b)
     3.44600796E-01    2     1000037         5   # BR(~t_2 -> chi^+_2 b)
     1.33063170E-01    2     1000021         6   # BR(~t_2 -> ~g t)
     4.30451713E-02    2     1000005        24   # BR(~t_2 -> ~b_1 W^+)
     2.13753400E-02    2     1000006        23   # BR(~t_2 -> ~t_1 Z)
     2.79884054E-02    2     1000006        25   # BR(~t_2 -> ~t_1 h^0)
DECAY   1000024     6.89866802E-06   # chi^+_1
#    BR                NDA      ID1      ID2       ID3
     3.35839212E-01    3     1000022        -1         2   # BR(chi^+_1 -> chi^0_1 d_bar u)
     3.31266345E-01    3     1000022        -3         4   # BR(chi^+_1 -> chi^0_1 s_bar c)
     1.11946682E-01    3     1000022       -11        12   # BR(chi^+_1 -> chi^0_1 e^+ nu_e)
     1.11939366E-01    3     1000022       -13        14   # BR(chi^+_1 -> chi^0_1 mu^+ nu_mu)
     1.09008394E-01    3     1000022       -15        16   # BR(chi^+_1 -> chi^0_1 tau^+ nu_tau)
DECAY   1000037     2.59312908E+00   # chi^+_2
#    BR                NDA      ID1      ID2
     2.65903067E-02    2     1000022        24   # BR(chi^+_2 -> chi^0_1 W^+)
     4.99243477E-01    2     1000023        24   # BR(chi^+_2 -> chi^0_2 W^+)
     2.80696088E-01    2     1000024        23   # BR(chi^+_2 -> chi^+_1 Z)
     1.93412626E-01    2     1000024        25   # BR(chi^+_2 -> chi^+_1 h^0)
#    BR                NDA      ID1      ID2       ID3
DECAY   1000022     0.00000000E+00   # chi^0_1
DECAY   1000023     3.46883821E-08   # chi^0_2
#    BR                NDA      ID1      ID2
     1.25350985E-01    2     1000022        22   # BR(chi^0_2 -> chi^0_1 photon)
#    BR                NDA      ID1      ID2       ID3
     1.07671901E-01    3     1000022         2        -2   # BR(chi^0_2 -> chi^0_1 u u_bar)
     1.04291611E-01    3     1000022         4        -4   # BR(chi^0_2 -> chi^0_1 c c_bar)
     1.38262865E-01    3     1000022         1        -1   # BR(chi^0_2 -> chi^0_1 d d_bar)
     1.38241637E-01    3     1000022         3        -3   # BR(chi^0_2 -> chi^0_1 s s_bar)
     1.05897146E-01    3     1000022         5        -5   # BR(chi^0_2 -> chi^0_1 b b_bar)
     3.10814387E-02    3     1000022        11       -11   # BR(chi^0_2 -> chi^0_1 e^- e^+)
     3.10742211E-02    3     1000022        13       -13   # BR(chi^0_2 -> chi^0_1 mu^- mu^+)
     2.91222604E-02    3     1000022        15       -15   # BR(chi^0_2 -> chi^0_1 tau^- tau^+)
     1.84202126E-01    3     1000022        12       -12   # BR(chi^0_2 -> chi^0_1 nu_e nu_bar_e)
     1.43317144E-03    3     1000024         1        -2   # BR(chi^0_2 -> chi^+_1 d u_bar)
     1.43317144E-03    3    -1000024        -1         2   # BR(chi^0_2 -> chi^-_1 d_bar u)
     4.77754129E-04    3     1000024        11       -12   # BR(chi^0_2 -> chi^+_1 e^- nu_bar_e)
     4.77754129E-04    3    -1000024       -11        12   # BR(chi^0_2 -> chi^-_1 e^+ nu_e)
     4.67543012E-04    3     1000024        13       -14   # BR(chi^0_2 -> chi^+_1 mu^- nu_bar_mu)
     4.67543012E-04    3    -1000024       -13        14   # BR(chi^0_2 -> chi^-_1 mu^+ nu_mu)
DECAY   1000025     3.27389677E+00   # chi^0_3
#    BR                NDA      ID1      ID2
     2.15977484E-01    2     1000024       -24   # BR(chi^0_3 -> chi^+_1 W^-)
     2.15977484E-01    2    -1000024        24   # BR(chi^0_3 -> chi^-_1 W^+)
     1.69112364E-01    2     1000022        23   # BR(chi^0_3 -> chi^0_1 Z)
     1.98976711E-01    2     1000023        23   # BR(chi^0_3 -> chi^0_2 Z)
     9.55048286E-02    2     1000022        25   # BR(chi^0_3 -> chi^0_1 h^0)
     1.04415194E-01    2     1000023        25   # BR(chi^0_3 -> chi^0_2 h^0)
#    BR                NDA      ID1      ID2       ID3
DECAY   1000035     2.84315367E+00   # chi^0_4
#    BR                NDA      ID1      ID2
     3.73040979E-01    2     1000024       -24   # BR(chi^0_4 -> chi^+_1 W^-)
     3.73040979E-01    2    -1000024        24   # BR(chi^0_4 -> chi^-_1 W^+)
     2.14003396E-02    2     1000022        23   # BR(chi^0_4 -> chi^0_1 Z)
     1.80183089E-02    2     1000023        23   # BR(chi^0_4 -> chi^0_2 Z)
     1.03391184E-01    2     1000022        25   # BR(chi^0_4 -> chi^0_1 h^0)
     1.11002451E-01    2     1000023        25   # BR(chi^0_4 -> chi^0_2 h^0)
#    BR                NDA      ID1      ID2       ID3
DECAY   1000021     3.59327950E+00   # ~g
#    BR                NDA      ID1      ID2
     3.07910408E-02    2     1000006        -4   # BR(~g -> ~t_1 c_bar)
     3.07910408E-02    2    -1000006         4   # BR(~g -> ~t^*_1 c)
     1.68573712E-01    2     1000006        -6   # BR(~g -> ~t_1 t_bar)
     1.68573712E-01    2    -1000006         6   # BR(~g -> ~t^*_1 t)
     2.88463417E-01    2     1000005        -5   # BR(~g -> ~b_1 b_bar)
     2.88463417E-01    2    -1000005         5   # BR(~g -> ~b^*_1 b)
     9.12138540E-04    2     1000025        21   # BR(~g -> chi^0_3 g)
     7.72645825E-04    2     1000035        21   # BR(~g -> chi^0_4 g)
#    BR                NDA      ID1      ID2       ID3
     1.39300285E-03    3     1000022         6        -6   # BR(~g -> chi^0_1 t t_bar)
     1.35720662E-04    3     1000022         5        -5   # BR(~g -> chi^0_1 b b_bar)
     2.73294763E-04    3     1000023         6        -6   # BR(~g -> chi^0_2 t t_bar)
     5.01198978E-03    3     1000025         6        -6   # BR(~g -> chi^0_3 t t_bar)
     4.13250177E-04    3     1000025         5        -5   # BR(~g -> chi^0_3 b b_bar)
     4.33209345E-03    3     1000035         6        -6   # BR(~g -> chi^0_4 t t_bar)
     3.60804762E-04    3     1000035         5        -5   # BR(~g -> chi^0_4 b b_bar)
     3.87026119E-04    3     1000024         5        -6   # BR(~g -> chi^+_1 b t_bar)
     3.87026119E-04    3    -1000024        -5         6   # BR(~g -> chi^-_1 b_bar t)
     4.85286085E-03    3     1000037         5        -6   # BR(~g -> chi^+_2 b t_bar)
     4.85286085E-03    3    -1000037        -5         6   # BR(~g -> chi^-_2 b_bar t)
DECAY        25     3.12024903E-03   # Gamma(h0)
     2.69815565E-03   2        22        22   # BR(h0 -> photon photon)
     1.49675432E-03   2        22        23   # BR(h0 -> photon Z)
     2.52120978E-02   2        23        23   # BR(h0 -> Z Z)
     2.18698428E-01   2       -24        24   # BR(h0 -> W W)
     8.53739760E-02   2        21        21   # BR(h0 -> gluon gluon)
     5.12723986E-09   2       -11        11   # BR(h0 -> Electron electron)
     2.28067447E-04   2       -13        13   # BR(h0 -> Muon muon)
     6.57567936E-02   2       -15        15   # BR(h0 -> Tau tau)
     1.45787927E-07   2        -2         2   # BR(h0 -> Up up)
     2.82944214E-02   2        -4         4   # BR(h0 -> Charm charm)
     5.95547139E-07   2        -1         1   # BR(h0 -> Down down)
     2.15394671E-04   2        -3         3   # BR(h0 -> Strange strange)
     5.72025164E-01   2        -5         5   # BR(h0 -> Bottom bottom)
DECAY        35     6.74718840E+01   # Gamma(HH)
     3.11711546E-08   2        22        22   # BR(HH -> photon photon)
     1.23593045E-07   2        22        23   # BR(HH -> photon Z)
     7.81276952E-07   2        23        23   # BR(HH -> Z Z)
     2.63209715E-07   2       -24        24   # BR(HH -> W W)
     5.03098003E-06   2        21        21   # BR(HH -> gluon gluon)
     5.44374246E-09   2       -11        11   # BR(HH -> Electron electron)
     2.42374816E-04   2       -13        13   # BR(HH -> Muon muon)
     6.99998546E-02   2       -15        15   # BR(HH -> Tau tau)
     8.80357850E-14   2        -2         2   # BR(HH -> Up up)
     1.70774992E-08   2        -4         4   # BR(HH -> Charm charm)
     1.37267141E-03   2        -6         6   # BR(HH -> Top top)
     4.08412852E-07   2        -1         1   # BR(HH -> Down down)
     1.47719927E-04   2        -3         3   # BR(HH -> Strange strange)
     4.06739780E-01   2        -5         5   # BR(HH -> Bottom bottom)
     3.49173618E-02   2  -1000024   1000024   # BR(HH -> Chargino1 chargino1)
     1.38322849E-01   2  -1000024   1000037   # BR(HH -> Chargino1 chargino2)
     1.38322849E-01   2  -1000037   1000024   # BR(HH -> Chargino2 chargino1)
     5.99953768E-03   2  -1000037   1000037   # BR(HH -> Chargino2 chargino2)
     1.40305477E-02   2   1000022   1000022   # BR(HH -> neutralino1 neutralino1)
     1.08278042E-02   2   1000022   1000023   # BR(HH -> neutralino1 neutralino2)
     6.60207462E-02   2   1000022   1000025   # BR(HH -> neutralino1 neutralino3)
     4.21554822E-02   2   1000022   1000035   # BR(HH -> neutralino1 neutralino4)
     2.08775364E-03   2   1000023   1000023   # BR(HH -> neutralino2 neutralino2)
     2.45971655E-02   2   1000023   1000025   # BR(HH -> neutralino2 neutralino3)
     1.55585685E-02   2   1000023   1000035   # BR(HH -> neutralino2 neutralino4)
     2.01749798E-03   2   1000025   1000025   # BR(HH -> neutralino3 neutralino3)
     1.46486487E-02   2   1000025   1000035   # BR(HH -> neutralino3 neutralino4)
     1.19801733E-02   2   1000035   1000035   # BR(HH -> neutralino4 neutralino4)
     3.95184922E-06   2        25        25   # BR(HH -> h0 h0)
DECAY        36     6.57384842E+01   # Gamma(A0)
     1.03151277E-07   2        22        22   # BR(A0 -> photon photon)
     2.06908889E-07   2        22        23   # BR(A0 -> photon Z)
     1.31564447E-05   2        21        21   # BR(A0 -> gluon gluon)
     5.28567340E-09   2       -11        11   # BR(A0 -> Electron electron)
     2.35337511E-04   2       -13        13   # BR(A0 -> Muon muon)
     6.79675498E-02   2       -15        15   # BR(A0 -> Tau tau)
     8.34052670E-14   2        -2         2   # BR(A0 -> Up up)
     1.61781595E-08   2        -4         4   # BR(A0 -> Charm charm)
     1.32407381E-03   2        -6         6   # BR(A0 -> Top top)
     3.96542432E-07   2        -1         1   # BR(A0 -> Down down)
     1.43426302E-04   2        -3         3   # BR(A0 -> Strange strange)
     3.94924629E-01   2        -5         5   # BR(A0 -> Bottom bottom)
     3.87250940E-02   2  -1000024   1000024   # BR(A0 -> Chargino1 chargino1)
     1.39192805E-01   2  -1000024   1000037   # BR(A0 -> Chargino1 chargino2)
     1.39192805E-01   2  -1000037   1000024   # BR(A0 -> Chargino2 chargino1)
     8.91957205E-03   2  -1000037   1000037   # BR(A0 -> Chargino2 chargino2)
     1.55324954E-02   2   1000022   1000022   # BR(A0 -> neutralino1 neutralino1)
     1.20226723E-02   2   1000022   1000023   # BR(A0 -> neutralino1 neutralino2)
     5.68801079E-02   2   1000022   1000025   # BR(A0 -> neutralino1 neutralino3)
     5.19151926E-02   2   1000022   1000035   # BR(A0 -> neutralino1 neutralino4)
     2.32509671E-03   2   1000023   1000023   # BR(A0 -> neutralino2 neutralino2)
     2.11243256E-02   2   1000023   1000025   # BR(A0 -> neutralino2 neutralino3)
     1.92127602E-02   2   1000023   1000035   # BR(A0 -> neutralino2 neutralino4)
     2.00685740E-03   2   1000025   1000025   # BR(A0 -> neutralino3 neutralino3)
     1.28285862E-02   2   1000025   1000035   # BR(A0 -> neutralino3 neutralino4)
     1.55114930E-02   2   1000035   1000035   # BR(A0 -> neutralino4 neutralino4)
     1.23553055E-06   2        23        25   # BR(A0 -> Z h0)
     3.77718522E-39   2        25        25   # BR(A0 -> h0 h0)
DECAY        37     7.36295003E+01   # Gamma(Hp)
     6.40622454E-09   2       -11        12   # BR(Hp -> Electron nu_e)
     2.73886107E-04   2       -13        14   # BR(Hp -> Muon nu_mu)
     7.74705559E-02   2       -15        16   # BR(Hp -> Tau nu_tau)
     4.17471746E-07   2        -1         2   # BR(Hp -> Down up)
     7.04001835E-06   2        -3         2   # BR(Hp -> Strange up)
     4.68690026E-06   2        -5         2   # BR(Hp -> Bottom up)
     2.03423881E-08   2        -1         4   # BR(Hp -> Down charm)
     1.50464894E-04   2        -3         4   # BR(Hp -> Strange charm)
     6.56333711E-04   2        -5         4   # BR(Hp -> Bottom charm)
     9.44603890E-08   2        -1         6   # BR(Hp -> Down top)
     2.28183192E-06   2        -3         6   # BR(Hp -> Strange top)
     4.43832010E-01   2        -5         6   # BR(Hp -> Bottom top)
     1.33241996E-02   2   1000022   1000024   # BR(Hp -> neutralino1 chargino1)
     2.28732015E-03   2   1000022   1000037   # BR(Hp -> neutralino1 chargino2)
     5.14299892E-03   2   1000023   1000024   # BR(Hp -> neutralino2 chargino1)
     1.82324405E-01   2   1000023   1000037   # BR(Hp -> neutralino2 chargino2)
     1.31445632E-01   2   1000024   1000025   # BR(Hp -> chargino1 neutralino3)
     1.04069435E-02   2   1000025   1000037   # BR(Hp -> neutralino3 chargino2)
     1.29763035E-01   2   1000024   1000035   # BR(Hp -> chargino1 neutralino4)
     2.90656171E-03   2   1000035   1000037   # BR(Hp -> neutralino4 chargino2)
     1.10593166E-06   2        24        25   # BR(Hp -> W h0)
     1.41105405E-12   2        24        35   # BR(Hp -> W HH)
     2.36236219E-13   2        24        36   # BR(Hp -> W A0)
DECAY         6     2.43000000E+00   # top
#    BR                NDA      ID1      ID2
     1.00000000E+00    2           5        24   # BR(t -> b W)
Block HiggsBoundsInputHiggsCouplingsFermions
# ScalarNormEffCoupSq PseudoSNormEffCoupSq NP IP1 IP2 IP2
    9.43796034E-01    0.00000000E+00        3  25   5   5  # h0-b-b eff. coupling^2, normalised to SM
    9.66499051E+02    0.00000000E+00        3  35   5   5  # H0-b-b eff. coupling^2, normalised to SM
    0.00000000E+00    9.66442847E+02        3  36   5   5  # A0-b-b eff. coupling^2, normalised to SM
#
    1.00005816E+00    0.00000000E+00        3  25   6   6  # h0-t-t eff. coupling^2, normalised to SM
    9.76566837E-04    0.00000000E+00        3  35   6   6  # H0-t-t eff. coupling^2, normalised to SM
    0.00000000E+00    1.03472234E-03        3  36   6   6  # A0-t-t eff. coupling^2, normalised to SM
#
    9.43796034E-01    0.00000000E+00        3  25  15  15  # h0-tau-tau eff. coupling^2, normalised to SM
    9.66499051E+02    0.00000000E+00        3  35  15  15  # H0-tau-tau eff. coupling^2, normalised to SM
    0.00000000E+00    9.66442847E+02        3  36  15  15  # A0-tau-tau eff. coupling^2, normalised to SM
#
Block HiggsBoundsInputHiggsCouplingsBosons
    9.99999159E-01        3  25  24  24  # h0-W-W eff. coupling^2, normalised to SM
    8.40920716E-07        3  35  24  24  # H0-W-W eff. coupling^2, normalised to SM
    0.00000000E+00        3  36  24  24  # A0-W-W eff. coupling^2, normalised to SM
#
    9.99999159E-01        3  25  23  23  # h0-Z-Z eff. coupling^2, normalised to SM
    8.40920716E-07        3  35  23  23  # H0-Z-Z eff. coupling^2, normalised to SM
    0.00000000E+00        3  36  23  23  # A0-Z-Z eff. coupling^2, normalised to SM
#
    1.26457605E+00        3  25  21  21  # h0-g-g eff. coupling^2, normalised to SM
    3.70349862E-03        3  35  21  21  # H0-g-g eff. coupling^2, normalised to SM
    1.08353109E-01        3  36  21  21  # A0-g-g eff. coupling^2, normalised to SM
#
    0.00000000E+00        3  25  25  23  # h0-h0-Z eff. coupling^2, normalised to SM
    0.00000000E+00        3  35  25  23  # H0-h0-Z eff. coupling^2, normalised to SM
    8.40920716E-07        3  36  25  23  # A0-h0-Z eff. coupling^2, normalised to SM
    0.00000000E+00        3  35  35  23  # H0-H0-Z eff. coupling^2, normalised to SM
    9.99999159E-01        3  36  35  23  # A0-H0-Z eff. coupling^2, normalised to SM
    0.00000000E+00        3  36  36  23  # A0-A0-Z eff. coupling^2, normalised to SM
#
    0.00000000E+00        4  25  21  21  23  # h0-g-g-Z eff. coupling^2, normalised to SM
    0.00000000E+00        4  35  21  21  23  # H0-g-g-Z eff. coupling^2, normalised to SM
    0.00000000E+00        4  36  21  21  23  # A0-g-g-Z eff. coupling^2, normalised to SM
Block SPhenoLowEnergy  # low energy observables
    1    3.40993927E-04   # BR(b -> s gamma)
    2    1.58692822E-06   # BR(b -> s mu+ mu-)
    3    3.52222278E-05   # BR(b -> s nu nu)
    4    2.16733696E-15   # BR(Bd -> e+ e-)
    5    9.25863299E-11   # BR(Bd -> mu+ mu-)
    6    1.93911640E-08   # BR(Bd -> tau+ tau-)
    7    7.32863714E-14   # BR(Bs -> e+ e-)
    8    3.13079671E-09   # BR(Bs -> mu+ mu-)
    9    6.64381829E-07   # BR(Bs -> tau+ tau-)
   10    9.60008003E-05   # BR(B_u -> tau nu)
   11    9.91651514E-01   # BR(B_u -> tau nu)/BR(B_u -> tau nu)_SM
   12    5.42336449E-01   # |Delta(M_Bd)| [ps^-1] 
   13    1.93734923E+01   # |Delta(M_Bs)| [ps^-1] 
   14    0.00000000E+00   # neutron EDM according to the chiral quark model
   15    0.00000000E+00   # neutron EDM according to the relativistic quark-parton model
   16    2.15891142E-03   # epsilon_K
   17    2.28167515E-15   # Delta(M_K)
   18    2.47798912E-11   # BR(K^0 -> pi^0 nu nu)
   19    8.28568174E-11   # BR(K^+ -> pi^+ nu nu)
   20    1.92624980E-16   # Delta(g-2)_electron/2
   21    8.23538151E-12   # Delta(g-2)_muon/2
   22    2.33432412E-09   # Delta(g-2)_tau/2
   23    0.00000000E+00   # electric dipole moment of the electron
   24    0.00000000E+00   # electric dipole moment of the muon
   25    0.00000000E+00   # electric dipole moment of the tau
   26    0.00000000E+00   # Br(mu -> e gamma)
   27    0.00000000E+00   # Br(tau -> e gamma)
   28    0.00000000E+00   # Br(tau -> mu gamma)
   29    0.00000000E+00   # Br(mu -> 3 e)
   30    0.00000000E+00   # Br(tau -> 3 e)
   31    0.00000000E+00   # Br(tau -> 3 mu)
   39    7.88174720E-05   # Delta(rho_parameter)
   40    0.00000000E+00   # BR(Z -> e mu)
   41    0.00000000E+00   # BR(Z -> e tau)
   42    0.00000000E+00   # BR(Z -> mu tau)
Block FWCOEF Q=  1.60000000E+02  # Wilson coefficients at scale Q
#    id        order  M        value         comment
     0305 4422   00   0    -1.88819110E-01   # C7
     0305 4422   00   2    -2.12421031E-01   # C7
     0305 4322   00   2    -1.88296027E-04   # C7'
     0305 6421   00   0    -9.52278348E-02   # C8
     0305 6421   00   2    -1.11665937E-01   # C8
     0305 6321   00   2    -1.94968293E-04   # C8'
 03051111 4133   00   0     1.61331652E+00   # C9 e+e-
 03051111 4133   00   2     1.61391125E+00   # C9 e+e-
 03051111 4233   00   2     2.66701800E-04   # C9' e+e-
 03051111 4137   00   0    -4.43600862E+00   # C10 e+e-
 03051111 4137   00   2    -4.43142127E+00   # C10 e+e-
 03051111 4237   00   2    -2.01077711E-03   # C10' e+e-
 03051313 4133   00   0     1.61331652E+00   # C9 mu+mu-
 03051313 4133   00   2     1.61391117E+00   # C9 mu+mu-
 03051313 4233   00   2     2.66701574E-04   # C9' mu+mu-
 03051313 4137   00   0    -4.43600862E+00   # C10 mu+mu-
 03051313 4137   00   2    -4.43142135E+00   # C10 mu+mu-
 03051313 4237   00   2    -2.01077713E-03   # C10' mu+mu-
 03051212 4137   00   0     1.50535012E+00   # C11 nu_1 nu_1
 03051212 4137   00   2     1.50435743E+00   # C11 nu_1 nu_1
 03051212 4237   00   2     4.36115700E-04   # C11' nu_1 nu_1
 03051414 4137   00   0     1.50535012E+00   # C11 nu_2 nu_2
 03051414 4137   00   2     1.50435743E+00   # C11 nu_2 nu_2
 03051414 4237   00   2     4.36115736E-04   # C11' nu_2 nu_2
 03051616 4137   00   0     1.50535012E+00   # C11 nu_3 nu_3
 03051616 4137   00   2     1.50435743E+00   # C11 nu_3 nu_3
 03051616 4237   00   2     4.36125824E-04   # C11' nu_3 nu_3
Block IMFWCOEF Q=  1.60000000E+02  # Im(Wilson coefficients) at scale Q
#    id        order  M        value         comment
     0305 4422   00   0     3.85810876E-07   # C7
     0305 4422   00   2     1.13555515E-05   # C7
     0305 4322   00   2    -7.07877960E-07   # C7'
     0305 6421   00   0     3.30472530E-07   # C8
     0305 6421   00   2     1.34761203E-05   # C8
     0305 6321   00   2    -7.68091055E-08   # C8'
 03051111 4133   00   2     2.09138420E-06   # C9 e+e-
 03051111 4233   00   2     5.28543584E-06   # C9' e+e-
 03051111 4137   00   2     1.89999483E-06   # C10 e+e-
 03051111 4237   00   2    -3.98546438E-05   # C10' e+e-
 03051313 4133   00   2     2.09138102E-06   # C9 mu+mu-
 03051313 4233   00   2     5.28543476E-06   # C9' mu+mu-
 03051313 4137   00   2     1.89999822E-06   # C10 mu+mu-
 03051313 4237   00   2    -3.98546470E-05   # C10' mu+mu-
 03051212 4137   00   2    -3.71608741E-07   # C11 nu_1 nu_1
 03051212 4237   00   2     8.64404051E-06   # C11' nu_1 nu_1
 03051414 4137   00   2    -3.71608571E-07   # C11 nu_2 nu_2
 03051414 4237   00   2     8.64404051E-06   # C11' nu_2 nu_2
 03051616 4137   00   2    -3.71560717E-07   # C11 nu_3 nu_3
 03051616 4237   00   2     8.64404049E-06   # C11' nu_3 nu_3
