# SUSY Les Houches Accord 2 - MSSM spectrum + Decays
# SPheno v4.0.5be
# W. Porod, Comput. Phys. Commun. 153 (2003) 275-315, hep-ph/0301101;
# W. Porod, F.~Staub, Comput. Phys. Commun. 183 (2012) 2458
#                     arXiv:1104.1573 [hep-ph] 
# in case of problems send email to porod@physik.uni-wuerzburg.de
# Created: 15.05.2022,  16:45
Block SPINFO         # Program information
     1   SPheno      # spectrum calculator
     2   v4.0.5be    # version number
#
Block SPhenoINFO     # SPheno specific information
    1      2         # using 2-loop RGEs
    2      2         # using pole masses for boundary conditions at mZ
Block MODSEL  # Model selection
    1    0    # general MSSM
Block MINPAR  # Input parameters
    3    4.18823153E+01  # tanb at m_Z    
    4    1.00000000E+00  # Sign(mu)
Block EXTPAR  # non-universal input parameters
    0    3.14981298E+03  # scale for input parameters
    1    1.10428448E+02  # M_1
    2   -9.19972834E+02  # M_2
    3    4.32883631E+03  # M_3
   11    8.18241028E+02  # A_t
   12    3.77427682E+02  # A_b
   13    3.51315434E+00  # A_tau
   23    9.57174088E+02  # mu
   25    4.07073099E+01  # tan(beta)
   26    4.38119178E+03  # m_A, pole mass
   31    2.85258177E+02  # M_L11
   32    2.85258177E+02  # M_L22
   33    1.57524825E+03  # M_L33
   34    5.56639494E+01  # M_E11
   35    5.56639494E+01  # M_E22
   36    9.06199522E+02  # M_E33
   41    1.00000000E+04  # M_Q11
   42    1.00000000E+04  # M_Q22
   43    3.97781022E+03  # M_Q33
   44    1.00000000E+04  # M_U11
   45    1.00000000E+04  # M_U22
   46    2.34519585E+03  # M_U33
   47    1.00000000E+04  # M_D11
   48    1.00000000E+04  # M_D22
   49    3.04256843E+03  # M_D33
Block SMINPUTS  # SM parameters
         1     1.27908970E+02  # alpha_em^-1(MZ)^MSbar
         2     1.16637870E-05  # G_mu [GeV^-2]
         3     1.18400000E-01  # alpha_s(MZ)^MSbar
         4     9.11876000E+01  # m_Z(pole)
         5     4.18000000E+00  # m_b(m_b), MSbar
         6     1.73200000E+02  # m_t(pole)
         7     1.77700000E+00  # m_tau(pole)
         8     0.00000000E+00  # m_nu_3
        11     5.10998930E-04  # m_e(pole)
        12     0.00000000E+00  # m_nu_1
        13     1.05658372E-01  # m_muon(pole)
        14     0.00000000E+00  # m_nu_2
        21     5.00000000E-03  # m_d(2 GeV), MSbar
        22     2.50000000E-03  # m_u(2 GeV), MSbar
        23     9.50000000E-02  # m_s(2 GeV), MSbar
        24     1.27000000E+00  # m_c(m_c), MSbar
Block gauge Q=  3.14981298E+03  # (SUSY scale)
   1    3.55362975E-01  # g'(Q)^DRbar
   2    6.65198874E-01  # g(Q)^DRbar
   3    1.21977796E+00  # g3(Q)^DRbar
Block Yu Q=  3.14981298E+03  # (SUSY scale)
  1  1     8.38690161E-06   # Y_u(Q)^DRbar
  2  2     4.26054602E-03   # Y_c(Q)^DRbar
  3  3     1.01320508E+00   # Y_t(Q)^DRbar
Block Yd Q=  3.14981298E+03  # (SUSY scale)
  1  1     6.86047520E-04   # Y_d(Q)^DRbar
  2  2     1.30349029E-02   # Y_s(Q)^DRbar
  3  3     6.80344164E-01   # Y_b(Q)^DRbar
Block Ye Q=  3.14981298E+03  # (SUSY scale)
  1  1     1.19720309E-04   # Y_e(Q)^DRbar
  2  2     2.47543629E-02   # Y_mu(Q)^DRbar
  3  3     4.16327661E-01   # Y_tau(Q)^DRbar
Block Au Q=  3.14981298E+03  # (SUSY scale)
  1  1     0.00000000E+00   # A_u(Q)^DRbar
  2  2     0.00000000E+00   # A_c(Q)^DRbar
  3  3     8.18241038E+02   # A_t(Q)^DRbar
Block Ad Q=  3.14981298E+03  # (SUSY scale)
  1  1     0.00000000E+00   # A_d(Q)^DRbar
  2  2     0.00000000E+00   # A_s(Q)^DRbar
  3  3     3.77427689E+02   # A_b(Q)^DRbar
Block Ae Q=  3.14981298E+03  # (SUSY scale)
  1  1     0.00000000E+00   # A_e(Q)^DRbar
  2  2     0.00000000E+00   # A_mu(Q)^DRbar
  3  3     3.51315431E+00   # A_tau(Q)^DRbar
Block MSOFT Q=  3.14981298E+03  # soft SUSY breaking masses at Q
   1    1.10428448E+02  # M_1
   2   -9.19972834E+02  # M_2
   3    4.32883631E+03  # M_3
  21    1.84117507E+07  # M^2_(H,d)
  22   -7.45590620E+05  # M^2_(H,u)
  31    2.85258177E+02  # M_(L,11)
  32    2.85258177E+02  # M_(L,22)
  33    1.57524825E+03  # M_(L,33)
  34    5.56639494E+01  # M_(E,11)
  35    5.56639494E+01  # M_(E,22)
  36    9.06199522E+02  # M_(E,33)
  41    1.00000000E+04  # M_(Q,11)
  42    1.00000000E+04  # M_(Q,22)
  43    3.97781022E+03  # M_(Q,33)
  44    1.00000000E+04  # M_(U,11)
  45    1.00000000E+04  # M_(U,22)
  46    2.34519585E+03  # M_(U,33)
  47    1.00000000E+04  # M_(D,11)
  48    1.00000000E+04  # M_(D,22)
  49    3.04256843E+03  # M_(D,33)
Block MASS  # Mass spectrum
#   PDG code      mass          particle
         6     1.73200000E+02  # m_t(pole)
        23     9.11876000E+01  # m_Z(pole)
        24     8.04299946E+01  # W+
        15     1.77700000E+00  # m_tau(pole)
        25     1.20152669E+02  # h0
        35     4.37976373E+03  # H0
        36     4.38119178E+03  # A0
        37     4.38081566E+03  # H+
   1000001     1.00834076E+04  # ~d_L
   2000001     1.00596025E+04  # ~d_R
   1000002     1.00831385E+04  # ~u_L
   2000002     1.00626069E+04  # ~u_R
   1000003     1.00834149E+04  # ~s_L
   2000003     1.00596143E+04  # ~s_R
   1000004     1.00831455E+04  # ~c_L
   2000004     1.00626083E+04  # ~c_R
   1000005     3.14663622E+03  # ~b_1
   2000005     4.07417280E+03  # ~b_2
   1000006     2.43407448E+03  # ~t_1
   2000006     4.07601407E+03  # ~t_2
   1000011     3.21410917E+02  # ~e_L-
   2000011     1.14623072E+02  # ~e_R-
   1000012     3.11000834E+02  # ~nu_eL
   1000013     3.21568404E+02  # ~mu_L-
   2000013     1.14027052E+02  # ~mu_R-
   1000014     3.10974188E+02  # ~nu_muL
   1000015     8.98653739E+02  # ~tau_1-
   2000015     1.57894867E+03  # ~tau_2-
   1000016     1.57551126E+03  # ~nu_tauL
   1000021     4.75228875E+03  # ~g
   1000022     1.07760066E+02  # ~chi_10
   1000023     9.19663687E+02  # ~chi_20
   1000025     9.73563358E+02  # ~chi_30
   1000035     1.02749147E+03  # ~chi_40
   1000024     9.19747954E+02  # ~chi_1+
   1000037     1.02772853E+03  # ~chi_2+
# Higgs mixing
Block alpha # Effective Higgs mixing angle
          -2.38942489E-02   # alpha
Block Hmix Q=  3.14981298E+03  # Higgs mixing parameters
   1    9.57174088E+02  # mu
   2    4.07073099E+01  # tan[beta](Q)
   3    2.43220161E+02  # v(Q)
   4    1.91948414E+07  # m^2_A(Q)
Block stopmix # stop mixing matrix
   1  1    -9.82365014E-03   # Re[R_st(1,1)]
   1  2     9.99951747E-01   # Re[R_st(1,2)]
   2  1    -9.99951747E-01   # Re[R_st(2,1)]
   2  2    -9.82365014E-03   # Re[R_st(2,2)]
Block sbotmix # sbottom mixing matrix
   1  1     1.17081614E-02   # Re[R_sb(1,1)]
   1  2     9.99931457E-01   # Re[R_sb(1,2)]
   2  1    -9.99931457E-01   # Re[R_sb(2,1)]
   2  2     1.17081614E-02   # Re[R_sb(2,2)]
Block staumix # stau mixing matrix
   1  1     4.00307216E-02   # Re[R_sta(1,1)]
   1  2     9.99198449E-01   # Re[R_sta(1,2)]
   2  1    -9.99198449E-01   # Re[R_sta(2,1)]
   2  2     4.00307216E-02   # Re[R_sta(2,2)]
Block Nmix # neutralino mixing matrix
   1  1    -9.98891092E-01   # Re[N(1,1)]
   1  2    -5.50116126E-04   # Re[N(1,2)]
   1  3    -4.66598942E-02   # Re[N(1,3)]
   1  4     6.25596436E-03   # Re[N(1,4)]
   2  1     2.00879308E-02   # Re[N(2,1)]
   2  2     7.25183260E-01   # Re[N(2,2)]
   2  3    -5.01755418E-01   # Re[N(2,3)]
   2  4    -4.71112742E-01   # Re[N(2,4)]
   3  1     3.73920458E-02   # Re[N(3,1)]
   3  2    -2.95430473E-02   # Re[N(3,2)]
   3  3    -7.05305654E-01   # Re[N(3,3)]
   3  4     7.07299780E-01   # Re[N(3,4)]
   4  1     2.03689810E-02   # Re[N(4,1)]
   4  2    -6.87921613E-01   # Re[N(4,2)]
   4  3    -4.98606348E-01   # Re[N(4,3)]
   4  4    -5.27011071E-01   # Re[N(4,4)]
Block Umix # chargino mixing matrix
   1  1    -6.88399127E-01   # Re[U(1,1)]
   1  2     7.25332091E-01   # Re[U(1,2)]
   2  1    -7.25332091E-01   # Re[U(2,1)]
   2  2    -6.88399127E-01   # Re[U(2,2)]
Block Vmix # chargino mixing matrix
   1  1     7.29908683E-01   # Re[V(1,1)]
   1  2     6.83544669E-01   # Re[V(1,2)]
   2  1     6.83544669E-01   # Re[V(2,1)]
   2  2    -7.29908683E-01   # Re[V(2,2)]
DECAY        23     2.49520000E+00   # Z
DECAY        24     2.08500000E+00   # W
DECAY   2000011     7.75455905E-03   # ~e^-_R
#    BR                NDA      ID1      ID2
     1.00000000E+00    2     1000022        11   # BR(~e^-_R -> chi^0_1 e^-)
#    BR                NDA      ID1      ID2       ID3
DECAY   1000011     3.18027375E-01   # ~e^-_L
#    BR                NDA      ID1      ID2
     9.99998455E-01    2     1000022        11   # BR(~e^-_L -> chi^0_1 e^-)
#    BR                NDA      ID1      ID2       ID3
DECAY   2000013     6.53147783E-03   # ~mu^-_R
#    BR                NDA      ID1      ID2
     1.00000000E+00    2     1000022        13   # BR(~mu^-_R -> chi^0_1 mu^-)
DECAY   1000013     3.30161883E-01   # ~mu^-_L
#    BR                NDA      ID1      ID2
     9.63978633E-01    2     1000022        13   # BR(~mu^-_L -> chi^0_1 mu^-)
     3.60206596E-02    2     2000013        25   # BR(~mu^-_L -> ~mu^-_R h^0)
#    BR                NDA      ID1      ID2       ID3
DECAY   1000015     4.38471356E+00   # ~tau^-_1
#    BR                NDA      ID1      ID2
     1.00000000E+00    2     1000022        15   # BR(~tau^-_1 -> chi^0_1 tau^-)
DECAY   2000015     1.33125020E+01   # ~tau^-_2
#    BR                NDA      ID1      ID2
     1.48258765E-01    2     1000022        15   # BR(~tau^-_2 -> chi^0_1 tau^-)
     1.62116342E-01    2     1000023        15   # BR(~tau^-_2 -> chi^0_2 tau^-)
     7.86948712E-02    2     1000025        15   # BR(~tau^-_2 -> chi^0_3 tau^-)
     1.17760020E-01    2     1000035        15   # BR(~tau^-_2 -> chi^0_4 tau^-)
     2.04390090E-01    2    -1000024        16   # BR(~tau^-_2 -> chi^-_1 nu_tau)
     1.90941090E-01    2    -1000037        16   # BR(~tau^-_2 -> chi^-_2 nu_tau)
     4.83010198E-02    2     1000015        23   # BR(~tau^-_2 -> ~tau^-_1 Z)
     4.95378014E-02    2     1000015        25   # BR(~tau^-_2 -> ~tau^-_1 h^0)
#    BR                NDA      ID1      ID2       ID3
DECAY   1000012     3.01199425E-01   # ~nu_e
#    BR                NDA      ID1      ID2
     1.00000000E+00    2     1000022        12   # BR(~nu_e -> chi^0_1 nu_e)
DECAY   1000014     3.01159534E-01   # ~nu_mu
#    BR                NDA      ID1      ID2
     1.00000000E+00    2     1000022        14   # BR(~nu_mu -> chi^0_1 nu_mu)
DECAY   1000016     1.33376980E+01   # ~nu_tau
#    BR                NDA      ID1      ID2
     1.46370184E-01    2     1000022        16   # BR(~nu_tau -> chi^0_1 nu_tau)
     1.15348390E-01    2     1000023        16   # BR(~nu_tau -> chi^0_2 nu_tau)
     4.87167438E-04    2     1000025        16   # BR(~nu_tau -> chi^0_3 nu_tau)
     8.38511799E-02    2     1000035        16   # BR(~nu_tau -> chi^0_4 nu_tau)
     3.34459919E-01    2     1000024        15   # BR(~nu_tau -> chi^+_1 tau^-)
     2.23535714E-01    2     1000037        15   # BR(~nu_tau -> chi^+_2 tau^-)
     9.59474444E-02    2     1000015        24   # BR(~nu_tau -> ~tau^-_1 W^+)
DECAY   2000001     4.84783675E+02   # ~d_R
#    BR                NDA      ID1      ID2
     1.15566361E-02    2     1000022         1   # BR(~d_R -> chi^0_1 d)
     9.88417783E-01    2     1000021         1   # BR(~d_R -> ~g d)
DECAY   1000001     6.13674619E+02   # ~d_L
#    BR                NDA      ID1      ID2
     2.27361985E-03    2     1000022         1   # BR(~d_L -> chi^0_1 d)
     3.70354515E-02    2     1000023         1   # BR(~d_L -> chi^0_2 d)
     3.38728978E-02    2     1000035         1   # BR(~d_L -> chi^0_4 d)
     6.74102679E-02    2    -1000024         2   # BR(~d_L -> chi^-_1 u)
     7.45256534E-02    2    -1000037         2   # BR(~d_L -> chi^-_2 u)
     7.84789011E-01    2     1000021         1   # BR(~d_L -> ~g d)
DECAY   2000003     4.84851446E+02   # ~s_R
#    BR                NDA      ID1      ID2
     1.15551865E-02    2     1000022         3   # BR(~s_R -> chi^0_1 s)
     9.88282116E-01    2     1000021         3   # BR(~s_R -> ~g s)
DECAY   1000003     6.13712398E+02   # ~s_L
#    BR                NDA      ID1      ID2
     2.27360207E-03    2     1000022         3   # BR(~s_L -> chi^0_1 s)
     3.70469058E-02    2     1000023         3   # BR(~s_L -> chi^0_2 s)
     1.20133143E-04    2     1000025         3   # BR(~s_L -> chi^0_3 s)
     3.38843289E-02    2     1000035         3   # BR(~s_L -> chi^0_4 s)
     6.74088703E-02    2    -1000024         4   # BR(~s_L -> chi^-_1 c)
     7.45242425E-02    2    -1000037         4   # BR(~s_L -> chi^-_2 c)
     7.84741917E-01    2     1000021         3   # BR(~s_L -> ~g s)
DECAY   1000005     4.89842257E+01   # ~b_1
#    BR                NDA      ID1      ID2
     3.72174064E-02    2     1000022         5   # BR(~b_1 -> chi^0_1 b)
     1.27466692E-01    2     1000023         5   # BR(~b_1 -> chi^0_2 b)
     2.40386897E-01    2     1000025         5   # BR(~b_1 -> chi^0_3 b)
     1.14733611E-01    2     1000035         5   # BR(~b_1 -> chi^0_4 b)
     2.63793353E-01    2    -1000024         6   # BR(~b_1 -> chi^-_1 t)
     2.16401677E-01    2    -1000037         6   # BR(~b_1 -> chi^-_2 t)
DECAY   2000005     1.57186934E+02   # ~b_2
#    BR                NDA      ID1      ID2
     4.00657990E-03    2     1000022         5   # BR(~b_2 -> chi^0_1 b)
     1.06318459E-01    2     1000023         5   # BR(~b_2 -> chi^0_2 b)
     1.05816869E-01    2     1000025         5   # BR(~b_2 -> chi^0_3 b)
     1.01100448E-01    2     1000035         5   # BR(~b_2 -> chi^0_4 b)
     3.10517018E-01    2    -1000024         6   # BR(~b_2 -> chi^-_1 t)
     3.60880027E-01    2    -1000037         6   # BR(~b_2 -> chi^-_2 t)
     7.48259592E-03    2     1000006       -24   # BR(~b_2 -> ~t_1 W^-)
     1.29849436E-03    2     1000005        23   # BR(~b_2 -> ~b_1 Z)
     2.57950796E-03    2     1000005        25   # BR(~b_2 -> ~b_1 h^0)
DECAY   2000002     5.01941807E+02   # ~u_R
#    BR                NDA      ID1      ID2
     4.46596975E-02    2     1000022         2   # BR(~u_R -> chi^0_1 u)
     9.55242920E-01    2     1000021         2   # BR(~u_R -> ~g u)
DECAY   1000002     6.13667010E+02   # ~u_L
#    BR                NDA      ID1      ID2
     2.30188780E-03    2     1000022         2   # BR(~u_L -> chi^0_1 u)
     3.77728448E-02    2     1000023         2   # BR(~u_L -> chi^0_2 u)
     3.31654232E-02    2     1000035         2   # BR(~u_L -> chi^0_4 u)
     7.57837960E-02    2     1000024         1   # BR(~u_L -> chi^+_1 d)
     6.61850014E-02    2     1000037         1   # BR(~u_L -> chi^+_2 d)
     7.84753875E-01    2     1000021         2   # BR(~u_L -> ~g u)
DECAY   2000004     5.01949053E+02   # ~c_R
#    BR                NDA      ID1      ID2
     4.46590575E-02    2     1000022         4   # BR(~c_R -> chi^0_1 c)
     9.55229355E-01    2     1000021         4   # BR(~c_R -> ~g c)
DECAY   1000004     6.13704721E+02   # ~c_L
#    BR                NDA      ID1      ID2
     2.30174810E-03    2     1000022         4   # BR(~c_L -> chi^0_1 c)
     3.77718558E-02    2     1000023         4   # BR(~c_L -> chi^0_2 c)
     3.31650085E-02    2     1000035         4   # BR(~c_L -> chi^0_4 c)
     7.58078604E-02    2     1000024         3   # BR(~c_L -> chi^+_1 s)
     6.62066734E-02    2     1000037         3   # BR(~c_L -> chi^+_2 s)
     7.84706770E-01    2     1000021         4   # BR(~c_L -> ~g c)
DECAY   1000006     7.48710368E+01   # ~t_1
#    BR                NDA      ID1      ID2
     7.14032466E-02    2     1000022         6   # BR(~t_1 -> chi^0_1 t)
     1.08248700E-01    2     1000023         6   # BR(~t_1 -> chi^0_2 t)
     2.32104553E-01    2     1000025         6   # BR(~t_1 -> chi^0_3 t)
     1.21166072E-01    2     1000035         6   # BR(~t_1 -> chi^0_4 t)
     2.31104793E-01    2     1000024         5   # BR(~t_1 -> chi^+_1 b)
     2.35968584E-01    2     1000037         5   # BR(~t_1 -> chi^+_2 b)
#    BR                NDA      ID1      ID2       ID3
DECAY   2000006     1.57331314E+02   # ~t_2
#    BR                NDA      ID1      ID2
     3.65577220E-03    2     1000022         6   # BR(~t_2 -> chi^0_1 t)
     1.61251798E-01    2     1000023         6   # BR(~t_2 -> chi^0_2 t)
     2.34357531E-01    2     1000025         6   # BR(~t_2 -> chi^0_3 t)
     1.72913739E-01    2     1000035         6   # BR(~t_2 -> chi^0_4 t)
     2.19543637E-01    2     1000024         5   # BR(~t_2 -> chi^+_1 b)
     1.95455896E-01    2     1000037         5   # BR(~t_2 -> chi^+_2 b)
     2.61739329E-03    2     1000005        24   # BR(~t_2 -> ~b_1 W^+)
     3.74464619E-03    2     1000006        23   # BR(~t_2 -> ~t_1 Z)
     6.45958768E-03    2     1000006        25   # BR(~t_2 -> ~t_1 h^0)
DECAY   1000024     6.63875577E+00   # chi^+_1
#    BR                NDA      ID1      ID2
     2.22708669E-01    2    -1000011        12   # BR(chi^+_1 -> ~e^+_L nu_e)
     4.30730449E-04    2    -2000013        14   # BR(chi^+_1 -> ~mu^+_R nu_mu)
     2.22647939E-01    2    -1000013        14   # BR(chi^+_1 -> ~mu^+_L nu_mu)
     2.90261196E-04    2    -1000015        16   # BR(chi^+_1 -> ~tau^+_1 nu_tau)
     2.54835380E-01    2     1000012       -11   # BR(chi^+_1 -> ~nu_e e^+)
     2.55190267E-01    2     1000014       -13   # BR(chi^+_1 -> ~nu_mu mu^+)
     4.32598821E-02    2     1000022        24   # BR(chi^+_1 -> chi^0_1 W^+)
#    BR                NDA      ID1      ID2       ID3
     6.33914217E-04    3     1000022        -5         6   # BR(chi^+_1 -> chi^0_1 b_bar t)
DECAY   1000037     9.08588455E+00   # chi^+_2
#    BR                NDA      ID1      ID2
     2.13200513E-01    2    -1000011        12   # BR(chi^+_2 -> ~e^+_L nu_e)
     3.18740146E-04    2    -2000013        14   # BR(chi^+_2 -> ~mu^+_R nu_mu)
     2.13155205E-01    2    -1000013        14   # BR(chi^+_2 -> ~mu^+_L nu_mu)
     4.44701286E-03    2    -1000015        16   # BR(chi^+_2 -> ~tau^+_1 nu_tau)
     1.91967839E-01    2     1000012       -11   # BR(chi^+_2 -> ~nu_e e^+)
     1.92247365E-01    2     1000014       -13   # BR(chi^+_2 -> ~nu_mu mu^+)
     4.25990077E-02    2     1000022        24   # BR(chi^+_2 -> chi^0_1 W^+)
     1.28951538E-01    2     1000023        24   # BR(chi^+_2 -> chi^0_2 W^+)
     1.23171306E-02    2     1000024        23   # BR(chi^+_2 -> chi^+_1 Z)
#    BR                NDA      ID1      ID2       ID3
     7.44583158E-04    3     1000022        -5         6   # BR(chi^+_2 -> chi^0_1 b_bar t)
DECAY   1000022     0.00000000E+00   # chi^0_1
DECAY   1000023     6.94769270E+00   # chi^0_2
#    BR                NDA      ID1      ID2
     1.30061893E-04    2     2000011       -11   # BR(chi^0_2 -> ~e^-_R e^+)
     1.30061893E-04    2    -2000011        11   # BR(chi^0_2 -> ~e^+_R e^-)
     1.21580960E-01    2     1000011       -11   # BR(chi^0_2 -> ~e^-_L e^+)
     1.21580960E-01    2    -1000011        11   # BR(chi^0_2 -> ~e^+_L e^-)
     3.26958726E-04    2     2000013       -13   # BR(chi^0_2 -> ~mu^-_R mu^+)
     3.26958726E-04    2    -2000013        13   # BR(chi^0_2 -> ~mu^+_R mu^-)
     1.21706576E-01    2     1000013       -13   # BR(chi^0_2 -> ~mu^-_L mu^+)
     1.21706576E-01    2    -1000013        13   # BR(chi^0_2 -> ~mu^+_L mu^-)
     1.32457215E-04    2     1000015       -15   # BR(chi^0_2 -> ~tau^-_1 tau^+)
     1.32457215E-04    2    -1000015        15   # BR(chi^0_2 -> ~tau^+_1 tau^-)
     1.16633783E-01    2     1000012       -12   # BR(chi^0_2 -> ~nu_e nu_bar_e)
     1.16633783E-01    2    -1000012        12   # BR(chi^0_2 -> ~nu^*_e nu_e)
     1.16638944E-01    2     1000014       -14   # BR(chi^0_2 -> ~nu_mu nu_bar_mu)
     1.16638944E-01    2    -1000014        14   # BR(chi^0_2 -> ~nu^*_mu nu_mu)
     2.55591059E-02    2     1000022        23   # BR(chi^0_2 -> chi^0_1 Z)
     1.99119887E-02    2     1000022        25   # BR(chi^0_2 -> chi^0_1 h^0)
#    BR                NDA      ID1      ID2       ID3
     2.23140860E-04    3     1000022         6        -6   # BR(chi^0_2 -> chi^0_1 t t_bar)
DECAY   1000025     7.07891708E-01   # chi^0_3
#    BR                NDA      ID1      ID2
     4.69801922E-03    2     2000011       -11   # BR(chi^0_3 -> ~e^-_R e^+)
     4.69801922E-03    2    -2000011        11   # BR(chi^0_3 -> ~e^+_R e^-)
     2.20028504E-04    2     1000011       -11   # BR(chi^0_3 -> ~e^-_L e^+)
     2.20028504E-04    2    -1000011        11   # BR(chi^0_3 -> ~e^+_L e^-)
     8.75393446E-03    2     2000013       -13   # BR(chi^0_3 -> ~mu^-_R mu^+)
     8.75393446E-03    2    -2000013        13   # BR(chi^0_3 -> ~mu^+_R mu^-)
     3.52938571E-03    2     1000013       -13   # BR(chi^0_3 -> ~mu^-_L mu^+)
     3.52938571E-03    2    -1000013        13   # BR(chi^0_3 -> ~mu^+_L mu^-)
     2.57304110E-02    2     1000015       -15   # BR(chi^0_3 -> ~tau^-_1 tau^+)
     2.57304110E-02    2    -1000015        15   # BR(chi^0_3 -> ~tau^+_1 tau^-)
     5.98434518E-03    2     1000012       -12   # BR(chi^0_3 -> ~nu_e nu_bar_e)
     5.98434518E-03    2    -1000012        12   # BR(chi^0_3 -> ~nu^*_e nu_e)
     5.98457824E-03    2     1000014       -14   # BR(chi^0_3 -> ~nu_mu nu_bar_mu)
     5.98457824E-03    2    -1000014        14   # BR(chi^0_3 -> ~nu^*_mu nu_mu)
     3.48724036E-01    2     1000022        23   # BR(chi^0_3 -> chi^0_1 Z)
     5.32917146E-01    2     1000022        25   # BR(chi^0_3 -> chi^0_1 h^0)
#    BR                NDA      ID1      ID2       ID3
     5.90226378E-03    3     1000022         6        -6   # BR(chi^0_3 -> chi^0_1 t t_bar)
     1.71784919E-04    3     1000023         2        -2   # BR(chi^0_3 -> chi^0_2 u u_bar)
     1.70704036E-04    3     1000023         4        -4   # BR(chi^0_3 -> chi^0_2 c c_bar)
     2.20261038E-04    3     1000023         1        -1   # BR(chi^0_3 -> chi^0_2 d d_bar)
     2.20254474E-04    3     1000023         3        -3   # BR(chi^0_3 -> chi^0_2 s s_bar)
     2.08234380E-04    3     1000023         5        -5   # BR(chi^0_3 -> chi^0_2 b b_bar)
     2.94454020E-04    3     1000023        12       -12   # BR(chi^0_3 -> chi^0_2 nu_e nu_bar_e)
     1.88980240E-04    3     1000024         1        -2   # BR(chi^0_3 -> chi^+_1 d u_bar)
     1.88980240E-04    3    -1000024        -1         2   # BR(chi^0_3 -> chi^-_1 d_bar u)
     1.88552098E-04    3     1000024         3        -4   # BR(chi^0_3 -> chi^+_1 s c_bar)
     1.88552098E-04    3    -1000024        -3         4   # BR(chi^0_3 -> chi^-_1 s_bar c)
DECAY   1000035     9.29787233E+00   # chi^0_4
#    BR                NDA      ID1      ID2
     1.12342810E-04    2     2000011       -11   # BR(chi^0_4 -> ~e^-_R e^+)
     1.12342810E-04    2    -2000011        11   # BR(chi^0_4 -> ~e^+_R e^-)
     9.07304854E-02    2     1000011       -11   # BR(chi^0_4 -> ~e^-_L e^+)
     9.07304854E-02    2    -1000011        11   # BR(chi^0_4 -> ~e^+_L e^-)
     2.75673622E-04    2     2000013       -13   # BR(chi^0_4 -> ~mu^-_R mu^+)
     2.75673622E-04    2    -2000013        13   # BR(chi^0_4 -> ~mu^+_R mu^-)
     9.08458504E-02    2     1000013       -13   # BR(chi^0_4 -> ~mu^-_L mu^+)
     9.08458504E-02    2    -1000013        13   # BR(chi^0_4 -> ~mu^+_L mu^-)
     2.30102122E-03    2     1000015       -15   # BR(chi^0_4 -> ~tau^-_1 tau^+)
     2.30102122E-03    2    -1000015        15   # BR(chi^0_4 -> ~tau^+_1 tau^-)
     9.79980434E-02    2     1000012       -12   # BR(chi^0_4 -> ~nu_e nu_bar_e)
     9.79980434E-02    2    -1000012        12   # BR(chi^0_4 -> ~nu^*_e nu_e)
     9.80014305E-02    2     1000014       -14   # BR(chi^0_4 -> ~nu_mu nu_bar_mu)
     9.80014305E-02    2    -1000014        14   # BR(chi^0_4 -> ~nu^*_mu nu_mu)
     9.46956766E-02    2     1000024       -24   # BR(chi^0_4 -> chi^+_1 W^-)
     9.46956766E-02    2    -1000024        24   # BR(chi^0_4 -> chi^-_1 W^+)
     2.72200810E-02    2     1000022        23   # BR(chi^0_4 -> chi^0_1 Z)
     2.23855161E-02    2     1000022        25   # BR(chi^0_4 -> chi^0_1 h^0)
#    BR                NDA      ID1      ID2       ID3
     3.40374725E-04    3     1000022         6        -6   # BR(chi^0_4 -> chi^0_1 t t_bar)
DECAY   1000021     1.40359340E+02   # ~g
#    BR                NDA      ID1      ID2
     2.72846152E-01    2     1000006        -6   # BR(~g -> ~t_1 t_bar)
     2.72846152E-01    2    -1000006         6   # BR(~g -> ~t^*_1 t)
     3.38319369E-02    2     2000006        -6   # BR(~g -> ~t_2 t_bar)
     3.38319369E-02    2    -2000006         6   # BR(~g -> ~t^*_2 t)
     1.58022257E-01    2     1000005        -5   # BR(~g -> ~b_1 b_bar)
     1.58022257E-01    2    -1000005         5   # BR(~g -> ~b^*_1 b)
     3.52008851E-02    2     2000005        -5   # BR(~g -> ~b_2 b_bar)
     3.52008851E-02    2    -2000005         5   # BR(~g -> ~b^*_2 b)
#    BR                NDA      ID1      ID2       ID3
DECAY        25     3.02154961E-03   # Gamma(h0)
     2.20487771E-03   2        22        22   # BR(h0 -> photon photon)
     1.26901827E-03   2        22        23   # BR(h0 -> photon Z)
     1.88317372E-02   2        23        23   # BR(h0 -> Z Z)
     1.71495912E-01   2       -24        24   # BR(h0 -> W W)
     8.31819565E-02   2        21        21   # BR(h0 -> gluon gluon)
     5.40273603E-09   2       -11        11   # BR(h0 -> Electron electron)
     2.40642740E-04   2       -13        13   # BR(h0 -> Muon muon)
     7.10676820E-02   2       -15        15   # BR(h0 -> Tau tau)
     1.58974253E-07   2        -2         2   # BR(h0 -> Up up)
     3.08501670E-02   2        -4         4   # BR(h0 -> Charm charm)
     6.46310465E-07   2        -1         1   # BR(h0 -> Down down)
     2.33754461E-04   2        -3         3   # BR(h0 -> Strange strange)
     6.20623441E-01   2        -5         5   # BR(h0 -> Bottom bottom)
DECAY        35     1.10293329E+02   # Gamma(HH)
     2.52265466E-08   2        22        22   # BR(HH -> photon photon)
     6.72163399E-08   2        22        23   # BR(HH -> photon Z)
     5.32293588E-08   2        23        23   # BR(HH -> Z Z)
     1.01426461E-08   2       -24        24   # BR(HH -> W W)
     3.11125953E-06   2        21        21   # BR(HH -> gluon gluon)
     5.42874905E-09   2       -11        11   # BR(HH -> Electron electron)
     2.41471477E-04   2       -13        13   # BR(HH -> Muon muon)
     1.05315915E-01   2       -15        15   # BR(HH -> Tau tau)
     4.61504427E-14   2        -2         2   # BR(HH -> Up up)
     8.95331241E-09   2        -4         4   # BR(HH -> Charm charm)
     4.91436511E-04   2        -6         6   # BR(HH -> Top top)
     6.21073739E-07   2        -1         1   # BR(HH -> Down down)
     2.24629912E-04   2        -3         3   # BR(HH -> Strange strange)
     4.53574759E-01   2        -5         5   # BR(HH -> Bottom bottom)
     6.62188326E-02   2  -1000024   1000024   # BR(HH -> Chargino1 chargino1)
     7.58697824E-02   2  -1000024   1000037   # BR(HH -> Chargino1 chargino2)
     7.58697824E-02   2  -1000037   1000024   # BR(HH -> Chargino2 chargino1)
     4.74326762E-02   2  -1000037   1000037   # BR(HH -> Chargino2 chargino2)
     1.90867354E-04   2   1000022   1000022   # BR(HH -> neutralino1 neutralino1)
     1.12281519E-02   2   1000022   1000023   # BR(HH -> neutralino1 neutralino2)
     1.94142344E-02   2   1000022   1000025   # BR(HH -> neutralino1 neutralino3)
     1.15098640E-02   2   1000022   1000035   # BR(HH -> neutralino1 neutralino4)
     3.12168072E-02   2   1000023   1000023   # BR(HH -> neutralino2 neutralino2)
     4.11178683E-02   2   1000023   1000025   # BR(HH -> neutralino2 neutralino3)
     4.50297108E-03   2   1000023   1000035   # BR(HH -> neutralino2 neutralino4)
     2.86078892E-04   2   1000025   1000025   # BR(HH -> neutralino3 neutralino3)
     2.82722541E-02   2   1000025   1000035   # BR(HH -> neutralino3 neutralino4)
     2.70125680E-02   2   1000035   1000035   # BR(HH -> neutralino4 neutralino4)
     6.28730545E-07   2        25        25   # BR(HH -> h0 h0)
     2.05252086E-08   2  -1000011   1000011   # BR(HH -> Selectron1 selectron1)
     1.49317596E-13   2  -2000011   1000011   # BR(HH -> Selectron2 selectron1)
     1.49317596E-13   2  -1000011   2000011   # BR(HH -> Selectron1 selectron2)
     3.14604023E-08   2  -2000011   2000011   # BR(HH -> Selectron2 selectron2)
     1.79143384E-08   2  -1000013   1000013   # BR(HH -> Smuon1 smuon1)
     6.31071973E-09   2  -2000013   1000013   # BR(HH -> Smuon2 smuon1)
     6.31071973E-09   2  -1000013   2000013   # BR(HH -> Smuon1 smuon2)
     3.43158625E-08   2  -2000013   2000013   # BR(HH -> Smuon2 smuon2)
     3.89010898E-08   2  -1000015   1000015   # BR(HH -> Stau1 stau1)
     2.03956456E-06   2  -2000015   1000015   # BR(HH -> Stau2 stau1)
     2.03956456E-06   2  -1000015   2000015   # BR(HH -> Stau1 stau2)
     6.91703171E-09   2  -2000015   2000015   # BR(HH -> Stau2 stau2)
DECAY        36     1.06437868E+02   # Gamma(A0)
     1.68735124E-09   2        22        22   # BR(A0 -> photon photon)
     2.31565577E-08   2        22        23   # BR(A0 -> photon Z)
     6.79152194E-06   2        21        21   # BR(A0 -> gluon gluon)
     5.27199158E-09   2       -11        11   # BR(A0 -> Electron electron)
     2.34499463E-04   2       -13        13   # BR(A0 -> Muon muon)
     1.02287061E-01   2       -15        15   # BR(A0 -> Tau tau)
     4.19759243E-14   2        -2         2   # BR(A0 -> Up up)
     8.14314906E-09   2        -4         4   # BR(A0 -> Charm charm)
     4.44559123E-04   2        -6         6   # BR(A0 -> Top top)
     6.03197190E-07   2        -1         1   # BR(A0 -> Down down)
     2.18166745E-04   2        -3         3   # BR(A0 -> Strange strange)
     4.40507099E-01   2        -5         5   # BR(A0 -> Bottom bottom)
     7.53407613E-02   2  -1000024   1000024   # BR(A0 -> Chargino1 chargino1)
     7.20551323E-02   2  -1000024   1000037   # BR(A0 -> Chargino1 chargino2)
     7.20551323E-02   2  -1000037   1000024   # BR(A0 -> Chargino2 chargino1)
     5.56819369E-02   2  -1000037   1000037   # BR(A0 -> Chargino2 chargino2)
     2.00990341E-04   2   1000022   1000022   # BR(A0 -> neutralino1 neutralino1)
     1.05842974E-02   2   1000022   1000023   # BR(A0 -> neutralino1 neutralino2)
     2.26805599E-02   2   1000022   1000025   # BR(A0 -> neutralino1 neutralino3)
     1.04203499E-02   2   1000022   1000035   # BR(A0 -> neutralino1 neutralino4)
     3.53772633E-02   2   1000023   1000023   # BR(A0 -> neutralino2 neutralino2)
     3.89224425E-02   2   1000023   1000025   # BR(A0 -> neutralino2 neutralino3)
     5.08829389E-03   2   1000023   1000035   # BR(A0 -> neutralino2 neutralino4)
     4.04065458E-04   2   1000025   1000025   # BR(A0 -> neutralino3 neutralino3)
     2.54980918E-02   2   1000025   1000035   # BR(A0 -> neutralino3 neutralino4)
     3.19874630E-02   2   1000035   1000035   # BR(A0 -> neutralino4 neutralino4)
     1.29154466E-07   2        23        25   # BR(A0 -> Z h0)
     6.13094287E-14   2        23        35   # BR(A0 -> Z HH)
     1.51268845E-39   2        25        25   # BR(A0 -> h0 h0)
     1.61701227E-13   2  -2000011   1000011   # BR(A0 -> Selectron2 selectron1)
     1.61701227E-13   2  -1000011   2000011   # BR(A0 -> Selectron1 selectron2)
     6.91323319E-09   2  -2000013   1000013   # BR(A0 -> Smuon2 smuon1)
     6.91323319E-09   2  -1000013   2000013   # BR(A0 -> Smuon1 smuon2)
     2.12919794E-06   2  -2000015   1000015   # BR(A0 -> Stau2 stau1)
     2.12919794E-06   2  -1000015   2000015   # BR(A0 -> Stau1 stau2)
DECAY        37     1.24773261E+02   # Gamma(Hp)
     1.01848698E-08   2       -11        12   # BR(Hp -> Electron nu_e)
     4.35434996E-04   2       -13        14   # BR(Hp -> Muon nu_mu)
     1.23165823E-01   2       -15        16   # BR(Hp -> Tau nu_tau)
     5.89558903E-07   2        -1         2   # BR(Hp -> Down up)
     9.99270899E-06   2        -3         2   # BR(Hp -> Strange up)
     5.14831352E-06   2        -5         2   # BR(Hp -> Bottom up)
     2.81003584E-08   2        -1         4   # BR(Hp -> Down charm)
     2.12466665E-04   2        -3         4   # BR(Hp -> Strange charm)
     7.20948242E-04   2        -5         4   # BR(Hp -> Bottom charm)
     4.96643377E-08   2        -1         6   # BR(Hp -> Down top)
     1.39986005E-06   2        -3         6   # BR(Hp -> Strange top)
     4.86511579E-01   2        -5         6   # BR(Hp -> Bottom top)
     1.87994825E-02   2   1000022   1000024   # BR(Hp -> neutralino1 chargino1)
     1.91917843E-02   2   1000022   1000037   # BR(Hp -> neutralino1 chargino2)
     1.85811566E-05   2   1000023   1000024   # BR(Hp -> neutralino2 chargino1)
     1.22317447E-01   2   1000023   1000037   # BR(Hp -> neutralino2 chargino2)
     7.53166985E-02   2   1000024   1000025   # BR(Hp -> chargino1 neutralino3)
     4.11844434E-02   2   1000025   1000037   # BR(Hp -> neutralino3 chargino2)
     1.12028470E-01   2   1000024   1000035   # BR(Hp -> chargino1 neutralino4)
     7.56275755E-05   2   1000035   1000037   # BR(Hp -> neutralino4 chargino2)
     1.10178818E-07   2        24        25   # BR(Hp -> W h0)
     1.40568536E-14   2        24        35   # BR(Hp -> W HH)
     1.92860337E-13   2  -1000011   1000012   # BR(Hp -> Selectron1 snu_e1)
     1.09263818E-07   2  -2000011   1000012   # BR(Hp -> Selectron2 snu_e1)
     8.23599067E-09   2  -1000013   1000014   # BR(Hp -> Smuon1 snu_mu1)
     1.12480292E-07   2  -2000013   1000014   # BR(Hp -> Smuon2 snu_mu1)
     3.60077418E-06   2  -1000015   1000016   # BR(Hp -> Stau1 snu_tau1)
     5.43813982E-08   2  -2000015   1000016   # BR(Hp -> Stau2 snu_tau1)
DECAY         6     2.43000000E+00   # top
#    BR                NDA      ID1      ID2
     1.00000000E+00    2           5        24   # BR(t -> b W)
Block HiggsBoundsInputHiggsCouplingsFermions
# ScalarNormEffCoupSq PseudoSNormEffCoupSq NP IP1 IP2 IP2
    9.46478875E-01    0.00000000E+00        3  25   5   5  # h0-b-b eff. coupling^2, normalised to SM
    1.65713860E+03    0.00000000E+00        3  35   5   5  # H0-b-b eff. coupling^2, normalised to SM
    0.00000000E+00    1.65708508E+03        3  36   5   5  # A0-b-b eff. coupling^2, normalised to SM
#
    1.00003230E+00    0.00000000E+00        3  25   6   6  # h0-t-t eff. coupling^2, normalised to SM
    5.71170959E-04    0.00000000E+00        3  35   6   6  # H0-t-t eff. coupling^2, normalised to SM
    0.00000000E+00    6.03469316E-04        3  36   6   6  # A0-t-t eff. coupling^2, normalised to SM
#
    9.46478875E-01    0.00000000E+00        3  25  15  15  # h0-tau-tau eff. coupling^2, normalised to SM
    1.65713860E+03    0.00000000E+00        3  35  15  15  # H0-tau-tau eff. coupling^2, normalised to SM
    0.00000000E+00    1.65708508E+03        3  36  15  15  # A0-tau-tau eff. coupling^2, normalised to SM
#
Block HiggsBoundsInputHiggsCouplingsBosons
    9.99999556E-01        3  25  24  24  # h0-W-W eff. coupling^2, normalised to SM
    4.44120662E-07        3  35  24  24  # H0-W-W eff. coupling^2, normalised to SM
    0.00000000E+00        3  36  24  24  # A0-W-W eff. coupling^2, normalised to SM
#
    9.99999556E-01        3  25  23  23  # h0-Z-Z eff. coupling^2, normalised to SM
    4.44120662E-07        3  35  23  23  # H0-Z-Z eff. coupling^2, normalised to SM
    0.00000000E+00        3  36  23  23  # A0-Z-Z eff. coupling^2, normalised to SM
#
    1.26763472E+00        3  25  21  21  # h0-g-g eff. coupling^2, normalised to SM
    5.83408236E-03        3  35  21  21  # H0-g-g eff. coupling^2, normalised to SM
    1.15840716E-01        3  36  21  21  # A0-g-g eff. coupling^2, normalised to SM
#
    0.00000000E+00        3  25  25  23  # h0-h0-Z eff. coupling^2, normalised to SM
    0.00000000E+00        3  35  25  23  # H0-h0-Z eff. coupling^2, normalised to SM
    4.44120662E-07        3  36  25  23  # A0-h0-Z eff. coupling^2, normalised to SM
    0.00000000E+00        3  35  35  23  # H0-H0-Z eff. coupling^2, normalised to SM
    9.99999556E-01        3  36  35  23  # A0-H0-Z eff. coupling^2, normalised to SM
    0.00000000E+00        3  36  36  23  # A0-A0-Z eff. coupling^2, normalised to SM
#
    0.00000000E+00        4  25  21  21  23  # h0-g-g-Z eff. coupling^2, normalised to SM
    0.00000000E+00        4  35  21  21  23  # H0-g-g-Z eff. coupling^2, normalised to SM
    0.00000000E+00        4  36  21  21  23  # A0-g-g-Z eff. coupling^2, normalised to SM
Block SPhenoLowEnergy  # low energy observables
    1    3.21633884E-04   # BR(b -> s gamma)
    2    1.58939924E-06   # BR(b -> s mu+ mu-)
    3    3.52373676E-05   # BR(b -> s nu nu)
    4    2.66148106E-15   # BR(Bd -> e+ e-)
    5    1.13695564E-10   # BR(Bd -> mu+ mu-)
    6    2.38026922E-08   # BR(Bd -> tau+ tau-)
    7    8.92559108E-14   # BR(Bs -> e+ e-)
    8    3.81301421E-09   # BR(Bs -> mu+ mu-)
    9    8.08870664E-07   # BR(Bs -> tau+ tau-)
   10    9.62852030E-05   # BR(B_u -> tau nu)
   11    9.94589285E-01   # BR(B_u -> tau nu)/BR(B_u -> tau nu)_SM
   12    5.42160528E-01   # |Delta(M_Bd)| [ps^-1] 
   13    1.93690070E+01   # |Delta(M_Bs)| [ps^-1] 
   14    0.00000000E+00   # neutron EDM according to the chiral quark model
   15    0.00000000E+00   # neutron EDM according to the relativistic quark-parton model
   16    2.15815134E-03   # epsilon_K
   17    2.28166712E-15   # Delta(M_K)
   18    2.47890406E-11   # BR(K^0 -> pi^0 nu nu)
   19    8.28789067E-11   # BR(K^+ -> pi^+ nu nu)
   20    4.32101734E-13   # Delta(g-2)_electron/2
   21    1.98157660E-08   # Delta(g-2)_muon/2
   22   -5.49720077E-08   # Delta(g-2)_tau/2
   23    0.00000000E+00   # electric dipole moment of the electron
   24    0.00000000E+00   # electric dipole moment of the muon
   25    0.00000000E+00   # electric dipole moment of the tau
   26    0.00000000E+00   # Br(mu -> e gamma)
   27    0.00000000E+00   # Br(tau -> e gamma)
   28    0.00000000E+00   # Br(tau -> mu gamma)
   29    0.00000000E+00   # Br(mu -> 3 e)
   30    0.00000000E+00   # Br(tau -> 3 e)
   31    0.00000000E+00   # Br(tau -> 3 mu)
   39    1.13100030E-04   # Delta(rho_parameter)
   40    0.00000000E+00   # BR(Z -> e mu)
   41    0.00000000E+00   # BR(Z -> e tau)
   42    0.00000000E+00   # BR(Z -> mu tau)
Block FWCOEF Q=  1.60000000E+02  # Wilson coefficients at scale Q
#    id        order  M        value         comment
     0305 4422   00   0    -1.88819110E-01   # C7
     0305 4422   00   2    -1.89937578E-01   # C7
     0305 4322   00   2    -6.06425868E-05   # C7'
     0305 6421   00   0    -9.52278348E-02   # C8
     0305 6421   00   2    -9.89475406E-02   # C8
     0305 6321   00   2    -9.31731185E-05   # C8'
 03051111 4133   00   0     1.61869329E+00   # C9 e+e-
 03051111 4133   00   2     1.61898293E+00   # C9 e+e-
 03051111 4233   00   2     2.90504894E-04   # C9' e+e-
 03051111 4137   00   0    -4.44138539E+00   # C10 e+e-
 03051111 4137   00   2    -4.43826648E+00   # C10 e+e-
 03051111 4237   00   2    -2.17505520E-03   # C10' e+e-
 03051313 4133   00   0     1.61869329E+00   # C9 mu+mu-
 03051313 4133   00   2     1.61897945E+00   # C9 mu+mu-
 03051313 4233   00   2     2.90503554E-04   # C9' mu+mu-
 03051313 4137   00   0    -4.44138539E+00   # C10 mu+mu-
 03051313 4137   00   2    -4.43826997E+00   # C10 mu+mu-
 03051313 4237   00   2    -2.17505681E-03   # C10' mu+mu-
 03051212 4137   00   0     1.50535012E+00   # C11 nu_1 nu_1
 03051212 4137   00   2     1.50468207E+00   # C11 nu_1 nu_1
 03051212 4237   00   2     4.71158826E-04   # C11' nu_1 nu_1
 03051414 4137   00   0     1.50535012E+00   # C11 nu_2 nu_2
 03051414 4137   00   2     1.50468211E+00   # C11 nu_2 nu_2
 03051414 4237   00   2     4.71158845E-04   # C11' nu_2 nu_2
 03051616 4137   00   0     1.50535012E+00   # C11 nu_3 nu_3
 03051616 4137   00   2     1.50468210E+00   # C11 nu_3 nu_3
 03051616 4237   00   2     4.71165759E-04   # C11' nu_3 nu_3
Block IMFWCOEF Q=  1.60000000E+02  # Im(Wilson coefficients) at scale Q
#    id        order  M        value         comment
     0305 4422   00   0     3.85810947E-07   # C7
     0305 4422   00   2    -4.75472490E-06   # C7
     0305 4322   00   2     1.68973196E-07   # C7'
     0305 6421   00   0     3.30472591E-07   # C8
     0305 6421   00   2    -4.60379428E-06   # C8
     0305 6321   00   2    -7.38757628E-09   # C8'
 03051111 4133   00   2    -2.32263046E-07   # C9 e+e-
 03051111 4233   00   2     5.60662493E-06   # C9' e+e-
 03051111 4137   00   2     7.95440414E-07   # C10 e+e-
 03051111 4237   00   2    -4.19791556E-05   # C10' e+e-
 03051313 4133   00   2    -2.32150955E-07   # C9 mu+mu-
 03051313 4233   00   2     5.60660266E-06   # C9' mu+mu-
 03051313 4137   00   2     7.95356779E-07   # C10 mu+mu-
 03051313 4237   00   2    -4.19791861E-05   # C10' mu+mu-
 03051212 4137   00   2    -3.78951253E-08   # C11 nu_1 nu_1
 03051212 4237   00   2     9.09351758E-06   # C11' nu_1 nu_1
 03051414 4137   00   2    -3.77793302E-08   # C11 nu_2 nu_2
 03051414 4237   00   2     9.09351759E-06   # C11' nu_2 nu_2
 03051616 4137   00   2    -3.80366229E-08   # C11 nu_3 nu_3
 03051616 4237   00   2     9.09354531E-06   # C11' nu_3 nu_3
