# SUSY Les Houches Accord 2 - MSSM spectrum + Decays
# SPheno v4.0.5be
# W. Porod, Comput. Phys. Commun. 153 (2003) 275-315, hep-ph/0301101;
# W. Porod, F.~Staub, Comput. Phys. Commun. 183 (2012) 2458
#                     arXiv:1104.1573 [hep-ph] 
# in case of problems send email to porod@physik.uni-wuerzburg.de
# Created: 07.09.2021,  15:10
Block SPINFO         # Program information
     1   SPheno      # spectrum calculator
     2   v4.0.5be    # version number
#
Block SPhenoINFO     # SPheno specific information
    1      2         # using 2-loop RGEs
    2      2         # using pole masses for boundary conditions at mZ
Block MODSEL  # Model selection
    1    0    # general MSSM
Block MINPAR  # Input parameters
    3    9.66804471E+00  # tanb at m_Z    
    4    1.00000000E+00  # Sign(mu)
Block EXTPAR  # non-universal input parameters
    0    2.83303451E+03  # scale for input parameters
    1   -1.49832295E+02  # M_1
    2    2.16649313E+02  # M_2
    3    3.68375949E+03  # M_3
   11    6.22014111E+03  # A_t
   12    4.01939332E+02  # A_b
   13   -1.34336489E+03  # A_tau
   23    1.70094758E+02  # mu
   25    9.20171984E+00  # tan(beta)
   26    4.86032893E+02  # m_A, pole mass
   31    1.00000000E+04  # M_L11
   32    1.00000000E+04  # M_L22
   33    1.00000000E+04  # M_L33
   34    1.00000000E+04  # M_E11
   35    1.00000000E+04  # M_E22
   36    1.00000000E+04  # M_E33
   41    1.00000000E+04  # M_Q11
   42    1.00000000E+04  # M_Q22
   43    3.53285308E+03  # M_Q33
   44    1.00000000E+04  # M_U11
   45    1.00000000E+04  # M_U22
   46    2.24229170E+03  # M_U33
   47    1.00000000E+04  # M_D11
   48    1.00000000E+04  # M_D22
   49    3.46320150E+03  # M_D33
Block SMINPUTS  # SM parameters
         1     1.27908970E+02  # alpha_em^-1(MZ)^MSbar
         2     1.16637870E-05  # G_mu [GeV^-2]
         3     1.18400000E-01  # alpha_s(MZ)^MSbar
         4     9.11876000E+01  # m_Z(pole)
         5     4.18000000E+00  # m_b(m_b), MSbar
         6     1.73200000E+02  # m_t(pole)
         7     1.77700000E+00  # m_tau(pole)
         8     0.00000000E+00  # m_nu_3
        11     5.10998930E-04  # m_e(pole)
        12     0.00000000E+00  # m_nu_1
        13     1.05658372E-01  # m_muon(pole)
        14     0.00000000E+00  # m_nu_2
        21     5.00000000E-03  # m_d(2 GeV), MSbar
        22     2.50000000E-03  # m_u(2 GeV), MSbar
        23     9.50000000E-02  # m_s(2 GeV), MSbar
        24     1.27000000E+00  # m_c(m_c), MSbar
Block gauge Q=  2.83303451E+03  # (SUSY scale)
   1    3.55362975E-01  # g'(Q)^DRbar
   2    6.65198874E-01  # g(Q)^DRbar
   3    1.21977796E+00  # g3(Q)^DRbar
Block Yu Q=  2.83303451E+03  # (SUSY scale)
  1  1     8.43373790E-06   # Y_u(Q)^DRbar
  2  2     4.28433885E-03   # Y_c(Q)^DRbar
  3  3     1.01886328E+00   # Y_t(Q)^DRbar
Block Yd Q=  2.83303451E+03  # (SUSY scale)
  1  1     1.55944246E-04   # Y_d(Q)^DRbar
  2  2     2.96294067E-03   # Y_s(Q)^DRbar
  3  3     1.54647826E-01   # Y_b(Q)^DRbar
Block Ye Q=  2.83303451E+03  # (SUSY scale)
  1  1     2.72134112E-05   # Y_e(Q)^DRbar
  2  2     5.62687035E-03   # Y_mu(Q)^DRbar
  3  3     9.46347026E-02   # Y_tau(Q)^DRbar
Block Au Q=  2.83303451E+03  # (SUSY scale)
  1  1     0.00000000E+00   # A_u(Q)^DRbar
  2  2     0.00000000E+00   # A_c(Q)^DRbar
  3  3     6.22014120E+03   # A_t(Q)^DRbar
Block Ad Q=  2.83303451E+03  # (SUSY scale)
  1  1     0.00000000E+00   # A_d(Q)^DRbar
  2  2     0.00000000E+00   # A_s(Q)^DRbar
  3  3     4.01939334E+02   # A_b(Q)^DRbar
Block Ae Q=  2.83303451E+03  # (SUSY scale)
  1  1     0.00000000E+00   # A_e(Q)^DRbar
  2  2     0.00000000E+00   # A_mu(Q)^DRbar
  3  3    -1.34336490E+03   # A_tau(Q)^DRbar
Block MSOFT Q=  2.83303451E+03  # soft SUSY breaking masses at Q
   1   -1.49832295E+02  # M_1
   2    2.16649313E+02  # M_2
   3    3.68375949E+03  # M_3
  21    1.90520910E+05  # M^2_(H,d)
  22    1.10121842E+05  # M^2_(H,u)
  31    1.00000000E+04  # M_(L,11)
  32    1.00000000E+04  # M_(L,22)
  33    1.00000000E+04  # M_(L,33)
  34    1.00000000E+04  # M_(E,11)
  35    1.00000000E+04  # M_(E,22)
  36    1.00000000E+04  # M_(E,33)
  41    1.00000000E+04  # M_(Q,11)
  42    1.00000000E+04  # M_(Q,22)
  43    3.53285308E+03  # M_(Q,33)
  44    1.00000000E+04  # M_(U,11)
  45    1.00000000E+04  # M_(U,22)
  46    2.24229170E+03  # M_(U,33)
  47    1.00000000E+04  # M_(D,11)
  48    1.00000000E+04  # M_(D,22)
  49    3.46320150E+03  # M_(D,33)
Block MASS  # Mass spectrum
#   PDG code      mass          particle
         6     1.73200000E+02  # m_t(pole)
        23     9.11876000E+01  # m_Z(pole)
        24     8.04299946E+01  # W+
        15     1.77700000E+00  # m_tau(pole)
        25     1.29134457E+02  # h0
        35     4.86187331E+02  # H0
        36     4.86032893E+02  # A0
        37     4.92682794E+02  # H+
   1000001     1.00900409E+04  # ~d_L
   2000001     1.00650198E+04  # ~d_R
   1000002     1.00896811E+04  # ~u_L
   2000002     1.00683428E+04  # ~u_R
   1000003     1.00900422E+04  # ~s_L
   2000003     1.00650206E+04  # ~s_R
   1000004     1.00896824E+04  # ~c_L
   2000004     1.00683446E+04  # ~c_R
   1000005     3.56619577E+03  # ~b_1
   2000005     3.56706912E+03  # ~b_2
   1000006     2.23999250E+03  # ~t_1
   2000006     3.58308546E+03  # ~t_2
   1000011     1.00217017E+04  # ~e_L-
   2000011     1.00086539E+04  # ~e_R-
   1000012     1.00209420E+04  # ~nu_eL
   1000013     1.00217039E+04  # ~mu_L-
   2000013     1.00086580E+04  # ~mu_R-
   1000014     1.00209441E+04  # ~nu_muL
   1000015     1.00098315E+04  # ~tau_1-
   2000015     1.00223134E+04  # ~tau_2-
   1000016     1.00215475E+04  # ~nu_tauL
   1000021     4.10440956E+03  # ~g
   1000022     1.38099043E+02  # ~chi_10
   1000023     1.46009417E+02  # ~chi_20
   1000025     2.03312928E+02  # ~chi_30
   1000035     2.84693679E+02  # ~chi_40
   1000024     1.47354755E+02  # ~chi_1+
   1000037     2.85696253E+02  # ~chi_2+
# Higgs mixing
Block alpha # Effective Higgs mixing angle
          -1.14292544E-01   # alpha
Block Hmix Q=  2.83303451E+03  # Higgs mixing parameters
   1    1.70094758E+02  # mu
   2    9.20171984E+00  # tan[beta](Q)
   3    2.43280014E+02  # v(Q)
   4    2.36227973E+05  # m^2_A(Q)
Block stopmix # stop mixing matrix
   1  1    -1.14639644E-01   # Re[R_st(1,1)]
   1  2     9.93407143E-01   # Re[R_st(1,2)]
   2  1    -9.93407143E-01   # Re[R_st(2,1)]
   2  2    -1.14639644E-01   # Re[R_st(2,2)]
Block sbotmix # sbottom mixing matrix
   1  1     5.44049990E-01   # Re[R_sb(1,1)]
   1  2     8.39052804E-01   # Re[R_sb(1,2)]
   2  1    -8.39052804E-01   # Re[R_sb(2,1)]
   2  2     5.44049990E-01   # Re[R_sb(2,2)]
Block staumix # stau mixing matrix
   1  1     2.06210466E-02   # Re[R_sta(1,1)]
   1  2     9.99787364E-01   # Re[R_sta(1,2)]
   2  1    -9.99787364E-01   # Re[R_sta(2,1)]
   2  2     2.06210466E-02   # Re[R_sta(2,2)]
Block Nmix # neutralino mixing matrix
   1  1     8.56574584E-01   # Re[N(1,1)]
   1  2     5.43577570E-02   # Re[N(1,2)]
   1  3     4.17023746E-01   # Re[N(1,3)]
   1  4     2.99025771E-01   # Re[N(1,4)]
   2  1    -9.18567221E-02   # Re[N(2,1)]
   2  2    -5.24799588E-01   # Re[N(2,2)]
   2  3     6.47653533E-01   # Re[N(2,3)]
   2  4    -5.44694993E-01   # Re[N(2,4)]
   3  1    -5.05449608E-01   # Re[N(3,1)]
   3  2     1.06437674E-01   # Re[N(3,2)]
   3  3     5.59619597E-01   # Re[N(3,3)]
   3  4     6.48087665E-01   # Re[N(3,4)]
   4  1     4.86108877E-02   # Re[N(4,1)]
   4  2    -8.42793954E-01   # Re[N(4,2)]
   4  3    -3.05715558E-01   # Re[N(4,3)]
   4  4     4.40310494E-01   # Re[N(4,4)]
Block Umix # chargino mixing matrix
   1  1    -4.33631743E-01   # Re[U(1,1)]
   1  2     9.01090179E-01   # Re[U(1,2)]
   2  1     9.01090179E-01   # Re[U(2,1)]
   2  2     4.33631743E-01   # Re[U(2,2)]
Block Vmix # chargino mixing matrix
   1  1    -6.32851378E-01   # Re[V(1,1)]
   1  2     7.74273294E-01   # Re[V(1,2)]
   2  1     7.74273294E-01   # Re[V(2,1)]
   2  2     6.32851378E-01   # Re[V(2,2)]
DECAY        23     2.49520000E+00   # Z
DECAY        24     2.08500000E+00   # W
DECAY   2000011     5.02648077E+01   # ~e^-_R
#    BR                NDA      ID1      ID2
     7.33805780E-01    2     1000022        11   # BR(~e^-_R -> chi^0_1 e^-)
     8.43826616E-03    2     1000023        11   # BR(~e^-_R -> chi^0_2 e^-)
     2.55395580E-01    2     1000025        11   # BR(~e^-_R -> chi^0_3 e^-)
     2.36037079E-03    2     1000035        11   # BR(~e^-_R -> chi^0_4 e^-)
DECAY   1000011     1.44738590E+02   # ~e^-_L
#    BR                NDA      ID1      ID2
     7.98478662E-02    2     1000022        11   # BR(~e^-_L -> chi^0_1 e^-)
     1.00324034E-01    2     1000023        11   # BR(~e^-_L -> chi^0_2 e^-)
     8.14862069E-03    2     1000025        11   # BR(~e^-_L -> chi^0_3 e^-)
     2.03009855E-01    2     1000035        11   # BR(~e^-_L -> chi^0_4 e^-)
     1.14563063E-01    2    -1000024        12   # BR(~e^-_L -> chi^-_1 nu_e)
     4.94106561E-01    2    -1000037        12   # BR(~e^-_L -> chi^-_2 nu_e)
#    BR                NDA      ID1      ID2       ID3
DECAY   2000013     5.02774285E+01   # ~mu^-_R
#    BR                NDA      ID1      ID2
     7.33643675E-01    2     1000022        13   # BR(~mu^-_R -> chi^0_1 mu^-)
     8.48872416E-03    2     1000023        13   # BR(~mu^-_R -> chi^0_2 mu^-)
     2.55370813E-01    2     1000025        13   # BR(~mu^-_R -> chi^0_3 mu^-)
     2.37147953E-03    2     1000035        13   # BR(~mu^-_R -> chi^0_4 mu^-)
     1.01768875E-04    2    -1000024        14   # BR(~mu^-_R -> chi^-_1 nu_mu)
DECAY   1000013     1.44744930E+02   # ~mu^-_L
#    BR                NDA      ID1      ID2
     7.98519680E-02    2     1000022        13   # BR(~mu^-_L -> chi^0_1 mu^-)
     1.00337946E-01    2     1000023        13   # BR(~mu^-_L -> chi^0_2 mu^-)
     8.16191173E-03    2     1000025        13   # BR(~mu^-_L -> chi^0_3 mu^-)
     2.03005077E-01    2     1000035        13   # BR(~mu^-_L -> chi^0_4 mu^-)
     1.14558070E-01    2    -1000024        14   # BR(~mu^-_L -> chi^-_1 nu_mu)
     4.94085027E-01    2    -1000037        14   # BR(~mu^-_L -> chi^-_2 nu_mu)
#    BR                NDA      ID1      ID2       ID3
DECAY   1000015     5.38750064E+01   # ~tau^-_1
#    BR                NDA      ID1      ID2
     6.91408144E-01    2     1000022        15   # BR(~tau^-_1 -> chi^0_1 tau^-)
     2.39537888E-02    2     1000023        15   # BR(~tau^-_1 -> chi^0_2 tau^-)
     2.47148548E-01    2     1000025        15   # BR(~tau^-_1 -> chi^0_3 tau^-)
     3.72313832E-03    2     1000035        15   # BR(~tau^-_1 -> chi^0_4 tau^-)
     3.07335879E-02    2    -1000024        16   # BR(~tau^-_1 -> chi^-_1 nu_tau)
     3.03279243E-03    2    -1000037        16   # BR(~tau^-_1 -> chi^-_2 nu_tau)
DECAY   2000015     1.46492172E+02   # ~tau^-_2
#    BR                NDA      ID1      ID2
     8.06697399E-02    2     1000022        15   # BR(~tau^-_2 -> chi^0_1 tau^-)
     1.03429391E-01    2     1000023        15   # BR(~tau^-_2 -> chi^0_2 tau^-)
     1.24255185E-02    2     1000025        15   # BR(~tau^-_2 -> chi^0_3 tau^-)
     2.02307194E-01    2     1000035        15   # BR(~tau^-_2 -> chi^0_4 tau^-)
     1.11774813E-01    2    -1000024        16   # BR(~tau^-_2 -> chi^-_1 nu_tau)
     4.89393344E-01    2    -1000037        16   # BR(~tau^-_2 -> chi^-_2 nu_tau)
#    BR                NDA      ID1      ID2       ID3
DECAY   1000012     1.44743133E+02   # ~nu_e
#    BR                NDA      ID1      ID2
     4.95313819E-02    2     1000022        12   # BR(~nu_e -> chi^0_1 nu_e)
     6.89360568E-02    2     1000023        12   # BR(~nu_e -> chi^0_2 nu_e)
     4.31511294E-02    2     1000025        12   # BR(~nu_e -> chi^0_3 nu_e)
     2.29622757E-01    2     1000035        12   # BR(~nu_e -> chi^0_4 nu_e)
     2.43982886E-01    2     1000024        11   # BR(~nu_e -> chi^+_1 e^-)
     3.64775789E-01    2     1000037        11   # BR(~nu_e -> chi^+_2 e^-)
#    BR                NDA      ID1      ID2       ID3
DECAY   1000014     1.44749471E+02   # ~nu_mu
#    BR                NDA      ID1      ID2
     4.95292234E-02    2     1000022        14   # BR(~nu_mu -> chi^0_1 nu_mu)
     6.89330527E-02    2     1000023        14   # BR(~nu_mu -> chi^0_2 nu_mu)
     4.31492490E-02    2     1000025        14   # BR(~nu_mu -> chi^0_3 nu_mu)
     2.29612751E-01    2     1000035        14   # BR(~nu_mu -> chi^0_4 nu_mu)
     2.44007643E-01    2     1000024        13   # BR(~nu_mu -> chi^+_1 mu^-)
     3.64768081E-01    2     1000037        13   # BR(~nu_mu -> chi^+_2 mu^-)
#    BR                NDA      ID1      ID2       ID3
DECAY   1000016     1.46536256E+02   # ~nu_tau
#    BR                NDA      ID1      ID2
     4.89282388E-02    2     1000022        16   # BR(~nu_tau -> chi^0_1 nu_tau)
     6.80966236E-02    2     1000023        16   # BR(~nu_tau -> chi^0_2 nu_tau)
     4.26256809E-02    2     1000025        16   # BR(~nu_tau -> chi^0_3 nu_tau)
     2.26826677E-01    2     1000035        16   # BR(~nu_tau -> chi^0_4 nu_tau)
     2.50900772E-01    2     1000024        15   # BR(~nu_tau -> chi^+_1 tau^-)
     3.62622007E-01    2     1000037        15   # BR(~nu_tau -> chi^+_2 tau^-)
#    BR                NDA      ID1      ID2       ID3
DECAY   2000001     5.57824496E+02   # ~d_R
#    BR                NDA      ID1      ID2
     7.38832449E-03    2     1000022         1   # BR(~d_R -> chi^0_1 d)
     2.57146571E-03    2     1000025         1   # BR(~d_R -> chi^0_3 d)
     9.89931470E-01    2     1000021         1   # BR(~d_R -> ~g d)
DECAY   1000001     6.89137893E+02   # ~d_L
#    BR                NDA      ID1      ID2
     6.20918379E-04    2     1000022         1   # BR(~d_L -> chi^0_1 d)
     1.66529639E-02    2     1000023         1   # BR(~d_L -> chi^0_2 d)
     2.48495792E-03    2     1000025         1   # BR(~d_L -> chi^0_3 d)
     4.66462539E-02    2     1000035         1   # BR(~d_L -> chi^0_4 d)
     2.42257268E-02    2    -1000024         2   # BR(~d_L -> chi^-_1 u)
     1.04486413E-01    2    -1000037         2   # BR(~d_L -> chi^-_2 u)
     8.04882766E-01    2     1000021         1   # BR(~d_L -> ~g d)
DECAY   2000003     5.57828078E+02   # ~s_R
#    BR                NDA      ID1      ID2
     7.38882385E-03    2     1000022         3   # BR(~s_R -> chi^0_1 s)
     2.57243286E-03    2     1000025         3   # BR(~s_R -> chi^0_3 s)
     9.89925253E-01    2     1000021         3   # BR(~s_R -> ~g s)
DECAY   1000003     6.89143476E+02   # ~s_L
#    BR                NDA      ID1      ID2
     6.21356724E-04    2     1000022         3   # BR(~s_L -> chi^0_1 s)
     1.66539002E-02    2     1000023         3   # BR(~s_L -> chi^0_2 s)
     2.48573616E-03    2     1000025         3   # BR(~s_L -> chi^0_3 s)
     4.66461202E-02    2     1000035         3   # BR(~s_L -> chi^0_4 s)
     2.42287344E-02    2    -1000024         4   # BR(~s_L -> chi^-_1 c)
     1.04487721E-01    2    -1000037         4   # BR(~s_L -> chi^-_2 c)
     8.04876431E-01    2     1000021         3   # BR(~s_L -> ~g s)
DECAY   1000005     6.69802507E+01   # ~b_1
#    BR                NDA      ID1      ID2
     3.21583092E-02    2     1000022         5   # BR(~b_1 -> chi^0_1 b)
     5.02367099E-02    2     1000023         5   # BR(~b_1 -> chi^0_2 b)
     1.12971994E-03    2     1000025         5   # BR(~b_1 -> chi^0_3 b)
     3.35903520E-02    2     1000035         5   # BR(~b_1 -> chi^0_4 b)
     2.71323085E-01    2    -1000024         6   # BR(~b_1 -> chi^-_1 t)
     2.05386705E-01    2    -1000037         6   # BR(~b_1 -> chi^-_2 t)
     3.95485174E-01    2     1000006       -24   # BR(~b_1 -> ~t_1 W^-)
     1.06899458E-02    2     1000006       -37   # BR(~b_1 -> ~t_1 H^-)
DECAY   2000005     1.51940899E+02   # ~b_2
#    BR                NDA      ID1      ID2
     2.73463765E-04    2     1000022         5   # BR(~b_2 -> chi^0_1 b)
     1.39195757E-02    2     1000023         5   # BR(~b_2 -> chi^0_2 b)
     1.37433718E-02    2     1000025         5   # BR(~b_2 -> chi^0_3 b)
     6.12457633E-02    2     1000035         5   # BR(~b_2 -> chi^0_4 b)
     2.15352522E-01    2    -1000024         6   # BR(~b_2 -> chi^-_1 t)
     2.69933448E-01    2    -1000037         6   # BR(~b_2 -> chi^-_2 t)
     4.15375712E-01    2     1000006       -24   # BR(~b_2 -> ~t_1 W^-)
     1.01561435E-02    2     1000006       -37   # BR(~b_2 -> ~t_1 H^-)
DECAY   2000002     5.75009056E+02   # ~u_R
#    BR                NDA      ID1      ID2
     2.86795431E-02    2     1000022         2   # BR(~u_R -> chi^0_1 u)
     3.29795326E-04    2     1000023         2   # BR(~u_R -> chi^0_2 u)
     9.98175162E-03    2     1000025         2   # BR(~u_R -> chi^0_3 u)
     9.60916658E-01    2     1000021         2   # BR(~u_R -> ~g u)
DECAY   1000002     6.89122073E+02   # ~u_L
#    BR                NDA      ID1      ID2
     2.75743348E-03    2     1000022         2   # BR(~u_L -> chi^0_1 u)
     1.88646534E-02    2     1000023         2   # BR(~u_L -> chi^0_2 u)
     4.47680384E-02    2     1000035         2   # BR(~u_L -> chi^0_4 u)
     5.15979754E-02    2     1000024         1   # BR(~u_L -> chi^+_1 d)
     7.71447378E-02    2     1000037         1   # BR(~u_L -> chi^+_2 d)
     8.04849778E-01    2     1000021         2   # BR(~u_L -> ~g u)
DECAY   2000004     5.75016552E+02   # ~c_R
#    BR                NDA      ID1      ID2
     2.86797457E-02    2     1000022         4   # BR(~c_R -> chi^0_1 c)
     3.31687536E-04    2     1000023         4   # BR(~c_R -> chi^0_2 c)
     9.98430444E-03    2     1000025         4   # BR(~c_R -> chi^0_3 c)
     9.60904385E-01    2     1000021         4   # BR(~c_R -> ~g c)
DECAY   1000004     6.89127625E+02   # ~c_L
#    BR                NDA      ID1      ID2
     2.75788913E-03    2     1000022         4   # BR(~c_L -> chi^0_1 c)
     1.88660873E-02    2     1000023         4   # BR(~c_L -> chi^0_2 c)
     4.47687201E-02    2     1000035         4   # BR(~c_L -> chi^0_4 c)
     5.15996355E-02    2     1000024         3   # BR(~c_L -> chi^+_1 s)
     7.71446054E-02    2     1000037         3   # BR(~c_L -> chi^+_2 s)
     8.04843436E-01    2     1000021         4   # BR(~c_L -> ~g c)
DECAY   1000006     9.49954675E+01   # ~t_1
#    BR                NDA      ID1      ID2
     8.70150773E-02    2     1000022         6   # BR(~t_1 -> chi^0_1 t)
     1.29814912E-01    2     1000023         6   # BR(~t_1 -> chi^0_2 t)
     1.98712956E-01    2     1000025         6   # BR(~t_1 -> chi^0_3 t)
     1.10607526E-01    2     1000035         6   # BR(~t_1 -> chi^0_4 t)
     2.51640948E-01    2     1000024         5   # BR(~t_1 -> chi^+_1 b)
     2.22208162E-01    2     1000037         5   # BR(~t_1 -> chi^+_2 b)
#    BR                NDA      ID1      ID2       ID3
DECAY   2000006     2.33474789E+02   # ~t_2
#    BR                NDA      ID1      ID2
     2.72143219E-02    2     1000022         6   # BR(~t_2 -> chi^0_1 t)
     1.20803212E-01    2     1000023         6   # BR(~t_2 -> chi^0_2 t)
     1.39627384E-01    2     1000025         6   # BR(~t_2 -> chi^0_3 t)
     9.41388432E-02    2     1000035         6   # BR(~t_2 -> chi^0_4 t)
     8.45469733E-02    2     1000024         5   # BR(~t_2 -> chi^+_1 b)
     5.91005476E-02    2     1000037         5   # BR(~t_2 -> chi^+_2 b)
     1.95099550E-01    2     1000006        23   # BR(~t_2 -> ~t_1 Z)
     4.94193028E-03    2     1000006        36   # BR(~t_2 -> ~t_1 A^0)
     2.69412058E-01    2     1000006        25   # BR(~t_2 -> ~t_1 h^0)
     5.11517940E-03    2     1000006        35   # BR(~t_2 -> ~t_1 H^0)
DECAY   1000024     4.91213474E-08   # chi^+_1
#    BR                NDA      ID1      ID2       ID3
     3.49870292E-01    3     1000022        -1         2   # BR(chi^+_1 -> chi^0_1 d_bar u)
     3.19184475E-01    3     1000022        -3         4   # BR(chi^+_1 -> chi^0_1 s_bar c)
     1.16612548E-01    3     1000022       -11        12   # BR(chi^+_1 -> chi^0_1 e^+ nu_e)
     1.16537030E-01    3     1000022       -13        14   # BR(chi^+_1 -> chi^0_1 mu^+ nu_mu)
     9.76840102E-02    3     1000022       -15        16   # BR(chi^+_1 -> chi^0_1 tau^+ nu_tau)
DECAY   1000037     1.19759347E+00   # chi^+_2
#    BR                NDA      ID1      ID2
     2.85427678E-01    2     1000022        24   # BR(chi^+_2 -> chi^0_1 W^+)
     3.35812527E-01    2     1000023        24   # BR(chi^+_2 -> chi^0_2 W^+)
     1.08580088E-01    2     1000025        24   # BR(chi^+_2 -> chi^0_3 W^+)
     2.38378450E-01    2     1000024        23   # BR(chi^+_2 -> chi^+_1 Z)
     3.18007922E-02    2     1000024        25   # BR(chi^+_2 -> chi^+_1 h^0)
#    BR                NDA      ID1      ID2       ID3
DECAY   1000022     0.00000000E+00   # chi^0_1
DECAY   1000023     2.44195204E-08   # chi^0_2
#    BR                NDA      ID1      ID2
     3.91164904E-01    2     1000022        22   # BR(chi^0_2 -> chi^0_1 photon)
#    BR                NDA      ID1      ID2       ID3
     9.09326820E-02    3     1000022         2        -2   # BR(chi^0_2 -> chi^0_1 u u_bar)
     6.42617248E-02    3     1000022         4        -4   # BR(chi^0_2 -> chi^0_1 c c_bar)
     1.16590471E-01    3     1000022         1        -1   # BR(chi^0_2 -> chi^0_1 d d_bar)
     1.16394976E-01    3     1000022         3        -3   # BR(chi^0_2 -> chi^0_1 s s_bar)
     2.63075872E-02    3     1000022        11       -11   # BR(chi^0_2 -> chi^0_1 e^- e^+)
     2.62381811E-02    3     1000022        13       -13   # BR(chi^0_2 -> chi^0_1 mu^- mu^+)
     1.22059738E-02    3     1000022        15       -15   # BR(chi^0_2 -> chi^0_1 tau^- tau^+)
     1.55903500E-01    3     1000022        12       -12   # BR(chi^0_2 -> chi^0_1 nu_e nu_bar_e)
DECAY   1000025     4.01173019E-03   # chi^0_3
#    BR                NDA      ID1      ID2
     4.77229749E-03    2     1000023        22   # BR(chi^0_3 -> chi^0_2 photon)
#    BR                NDA      ID1      ID2       ID3
     2.10854579E-04    3     1000022         2        -2   # BR(chi^0_3 -> chi^0_1 u u_bar)
     2.10121033E-04    3     1000022         4        -4   # BR(chi^0_3 -> chi^0_1 c c_bar)
     2.70271226E-04    3     1000022         1        -1   # BR(chi^0_3 -> chi^0_1 d d_bar)
     2.70266838E-04    3     1000022         3        -3   # BR(chi^0_3 -> chi^0_1 s s_bar)
     2.61908191E-04    3     1000022         5        -5   # BR(chi^0_3 -> chi^0_1 b b_bar)
     3.61583844E-04    3     1000022        12       -12   # BR(chi^0_3 -> chi^0_1 nu_e nu_bar_e)
     3.21930795E-02    3     1000023         2        -2   # BR(chi^0_3 -> chi^0_2 u u_bar)
     3.20194172E-02    3     1000023         4        -4   # BR(chi^0_3 -> chi^0_2 c c_bar)
     4.12773394E-02    3     1000023         1        -1   # BR(chi^0_3 -> chi^0_2 d d_bar)
     4.12762846E-02    3     1000023         3        -3   # BR(chi^0_3 -> chi^0_2 s s_bar)
     3.92845279E-02    3     1000023         5        -5   # BR(chi^0_3 -> chi^0_2 b b_bar)
     9.31546688E-03    3     1000023        11       -11   # BR(chi^0_3 -> chi^0_2 e^- e^+)
     9.31508378E-03    3     1000023        13       -13   # BR(chi^0_3 -> chi^0_2 mu^- mu^+)
     9.20788115E-03    3     1000023        15       -15   # BR(chi^0_3 -> chi^0_2 tau^- tau^+)
     5.52019174E-02    3     1000023        12       -12   # BR(chi^0_3 -> chi^0_2 nu_e nu_bar_e)
     1.20834612E-01    3     1000024         1        -2   # BR(chi^0_3 -> chi^+_1 d u_bar)
     1.20834612E-01    3    -1000024        -1         2   # BR(chi^0_3 -> chi^-_1 d_bar u)
     1.20614312E-01    3     1000024         3        -4   # BR(chi^0_3 -> chi^+_1 s c_bar)
     1.20614312E-01    3    -1000024        -3         4   # BR(chi^0_3 -> chi^-_1 s_bar c)
     4.02791930E-02    3     1000024        11       -12   # BR(chi^0_3 -> chi^+_1 e^- nu_bar_e)
     4.02791930E-02    3    -1000024       -11        12   # BR(chi^0_3 -> chi^-_1 e^+ nu_e)
     4.02788360E-02    3     1000024        13       -14   # BR(chi^0_3 -> chi^+_1 mu^- nu_bar_mu)
     4.02788360E-02    3    -1000024       -13        14   # BR(chi^0_3 -> chi^-_1 mu^+ nu_mu)
     4.01404907E-02    3     1000024        15       -16   # BR(chi^0_3 -> chi^+_1 tau^- nu_bar_tau)
     4.01404907E-02    3    -1000024       -15        16   # BR(chi^0_3 -> chi^-_1 tau^+ nu_tau)
DECAY   1000035     1.27916116E+00   # chi^0_4
#    BR                NDA      ID1      ID2
     3.34961778E-01    2     1000024       -24   # BR(chi^0_4 -> chi^+_1 W^-)
     3.34961778E-01    2    -1000024        24   # BR(chi^0_4 -> chi^-_1 W^+)
     2.38329349E-01    2     1000022        23   # BR(chi^0_4 -> chi^0_1 Z)
     5.63885329E-03    2     1000023        23   # BR(chi^0_4 -> chi^0_2 Z)
     5.59795632E-02    2     1000022        25   # BR(chi^0_4 -> chi^0_1 h^0)
     2.50735682E-02    2     1000023        25   # BR(chi^0_4 -> chi^0_2 h^0)
#    BR                NDA      ID1      ID2       ID3
     5.96084602E-04    3     1000025         2        -2   # BR(chi^0_4 -> chi^0_3 u u_bar)
     5.94882541E-04    3     1000025         4        -4   # BR(chi^0_4 -> chi^0_3 c c_bar)
     7.64320866E-04    3     1000025         1        -1   # BR(chi^0_4 -> chi^0_3 d d_bar)
     7.64314239E-04    3     1000025         3        -3   # BR(chi^0_4 -> chi^0_3 s s_bar)
     7.50843271E-04    3     1000025         5        -5   # BR(chi^0_4 -> chi^0_3 b b_bar)
     1.72478564E-04    3     1000025        11       -11   # BR(chi^0_4 -> chi^0_3 e^- e^+)
     1.72475911E-04    3     1000025        13       -13   # BR(chi^0_4 -> chi^0_3 mu^- mu^+)
     1.71695403E-04    3     1000025        15       -15   # BR(chi^0_4 -> chi^0_3 tau^- tau^+)
     1.02204806E-03    3     1000025        12       -12   # BR(chi^0_4 -> chi^0_3 nu_e nu_bar_e)
DECAY   1000021     8.19996128E+01   # ~g
#    BR                NDA      ID1      ID2
     3.74388043E-01    2     1000006        -6   # BR(~g -> ~t_1 t_bar)
     3.74388043E-01    2    -1000006         6   # BR(~g -> ~t^*_1 t)
     3.66358745E-02    2     2000006        -6   # BR(~g -> ~t_2 t_bar)
     3.66358745E-02    2    -2000006         6   # BR(~g -> ~t^*_2 t)
     4.41517001E-02    2     1000005        -5   # BR(~g -> ~b_1 b_bar)
     4.41517001E-02    2    -1000005         5   # BR(~g -> ~b^*_1 b)
     4.46921900E-02    2     2000005        -5   # BR(~g -> ~b_2 b_bar)
     4.46921900E-02    2    -2000005         5   # BR(~g -> ~b^*_2 b)
#    BR                NDA      ID1      ID2       ID3
DECAY        25     4.64368708E-03   # Gamma(h0)
     2.34097935E-03   2        22        22   # BR(h0 -> photon photon)
     1.83005203E-03   2        22        23   # BR(h0 -> photon Z)
     3.80217949E-02   2        23        23   # BR(h0 -> Z Z)
     2.90960676E-01   2       -24        24   # BR(h0 -> W W)
     6.56765704E-02   2        21        21   # BR(h0 -> gluon gluon)
     4.68439045E-09   2       -11        11   # BR(h0 -> Electron electron)
     2.08372124E-04   2       -13        13   # BR(h0 -> Muon muon)
     6.00858841E-02   2       -15        15   # BR(h0 -> Tau tau)
     1.07532887E-07   2        -2         2   # BR(h0 -> Up up)
     2.08720569E-02   2        -4         4   # BR(h0 -> Charm charm)
     5.39059500E-07   2        -1         1   # BR(h0 -> Down down)
     1.94966531E-04   2        -3         3   # BR(h0 -> Strange strange)
     5.19807996E-01   2        -5         5   # BR(h0 -> Bottom bottom)
DECAY        35     3.76831816E+00   # Gamma(HH)
     3.55359119E-06   2        22        22   # BR(HH -> photon photon)
     6.86783202E-06   2        22        23   # BR(HH -> photon Z)
     5.30059671E-04   2        23        23   # BR(HH -> Z Z)
     1.13006240E-03   2       -24        24   # BR(HH -> W W)
     1.38059450E-04   2        21        21   # BR(HH -> gluon gluon)
     1.76505568E-09   2       -11        11   # BR(HH -> Electron electron)
     7.85449155E-05   2       -13        13   # BR(HH -> Muon muon)
     2.26767779E-02   2       -15        15   # BR(HH -> Tau tau)
     4.23644409E-12   2        -2         2   # BR(HH -> Up up)
     8.21378428E-07   2        -4         4   # BR(HH -> Charm charm)
     2.47820225E-02   2        -6         6   # BR(HH -> Top top)
     1.64613084E-07   2        -1         1   # BR(HH -> Down down)
     5.95392078E-05   2        -3         3   # BR(HH -> Strange strange)
     1.55957467E-01   2        -5         5   # BR(HH -> Bottom bottom)
     1.88403547E-01   2  -1000024   1000024   # BR(HH -> Chargino1 chargino1)
     1.57788428E-01   2  -1000024   1000037   # BR(HH -> Chargino1 chargino2)
     1.57788428E-01   2  -1000037   1000024   # BR(HH -> Chargino2 chargino1)
     5.37512558E-02   2   1000022   1000022   # BR(HH -> neutralino1 neutralino1)
     9.38817866E-02   2   1000022   1000023   # BR(HH -> neutralino1 neutralino2)
     1.91795473E-03   2   1000022   1000025   # BR(HH -> neutralino1 neutralino3)
     1.23540860E-02   2   1000022   1000035   # BR(HH -> neutralino1 neutralino4)
     1.99286547E-02   2   1000023   1000023   # BR(HH -> neutralino2 neutralino2)
     2.58344710E-04   2   1000023   1000025   # BR(HH -> neutralino2 neutralino3)
     2.47366539E-02   2   1000023   1000035   # BR(HH -> neutralino2 neutralino4)
     1.34931784E-02   2   1000025   1000025   # BR(HH -> neutralino3 neutralino3)
     6.40783179E-02   2   1000025   1000035   # BR(HH -> neutralino3 neutralino4)
     6.25542200E-03   2        25        25   # BR(HH -> h0 h0)
DECAY        36     3.57935284E+00   # Gamma(A0)
     8.94631429E-06   2        22        22   # BR(A0 -> photon photon)
     2.03552298E-05   2        22        23   # BR(A0 -> photon Z)
     2.17856277E-04   2        21        21   # BR(A0 -> gluon gluon)
     1.84342451E-09   2       -11        11   # BR(A0 -> Electron electron)
     8.20323237E-05   2       -13        13   # BR(A0 -> Muon muon)
     2.36849234E-02   2       -15        15   # BR(A0 -> Tau tau)
     3.69394062E-12   2        -2         2   # BR(A0 -> Up up)
     7.16066345E-07   2        -4         4   # BR(A0 -> Charm charm)
     4.44065400E-02   2        -6         6   # BR(A0 -> Top top)
     1.71930390E-07   2        -1         1   # BR(A0 -> Down down)
     6.21858235E-05   2        -3         3   # BR(A0 -> Strange strange)
     1.62925014E-01   2        -5         5   # BR(A0 -> Bottom bottom)
     3.65574642E-01   2  -1000024   1000024   # BR(A0 -> Chargino1 chargino1)
     5.72470514E-02   2  -1000024   1000037   # BR(A0 -> Chargino1 chargino2)
     5.72470514E-02   2  -1000037   1000024   # BR(A0 -> Chargino2 chargino1)
     1.14758840E-01   2   1000022   1000022   # BR(A0 -> neutralino1 neutralino1)
     7.11406013E-02   2   1000022   1000023   # BR(A0 -> neutralino1 neutralino2)
     4.42862010E-04   2   1000022   1000025   # BR(A0 -> neutralino1 neutralino3)
     4.58487700E-02   2   1000022   1000035   # BR(A0 -> neutralino1 neutralino4)
     2.19090424E-02   2   1000023   1000023   # BR(A0 -> neutralino2 neutralino2)
     6.23693723E-05   2   1000023   1000025   # BR(A0 -> neutralino2 neutralino3)
     4.09068660E-03   2   1000023   1000035   # BR(A0 -> neutralino2 neutralino4)
     2.38191335E-02   2   1000025   1000025   # BR(A0 -> neutralino3 neutralino3)
     5.51944064E-03   2   1000025   1000035   # BR(A0 -> neutralino3 neutralino4)
     9.30765969E-04   2        23        25   # BR(A0 -> Z h0)
     1.01475432E-35   2        25        25   # BR(A0 -> h0 h0)
DECAY        37     3.56421652E+00   # Gamma(Hp)
     2.13668884E-09   2       -11        12   # BR(Hp -> Electron nu_e)
     9.13501133E-05   2       -13        14   # BR(Hp -> Muon nu_mu)
     2.58383548E-02   2       -15        16   # BR(Hp -> Tau nu_tau)
     1.73349185E-07   2        -1         2   # BR(Hp -> Down up)
     2.85547110E-06   2        -3         2   # BR(Hp -> Strange up)
     1.79600997E-06   2        -5         2   # BR(Hp -> Bottom up)
     5.10606847E-08   2        -1         4   # BR(Hp -> Down charm)
     6.34147589E-05   2        -3         4   # BR(Hp -> Strange charm)
     2.51503781E-04   2        -5         4   # BR(Hp -> Bottom charm)
     3.65127749E-06   2        -1         6   # BR(Hp -> Down top)
     7.96790154E-05   2        -3         6   # BR(Hp -> Strange top)
     1.90635311E-01   2        -5         6   # BR(Hp -> Bottom top)
     5.36467951E-03   2   1000022   1000024   # BR(Hp -> neutralino1 chargino1)
     2.58130696E-01   2   1000022   1000037   # BR(Hp -> neutralino1 chargino2)
     2.18741135E-01   2   1000023   1000024   # BR(Hp -> neutralino2 chargino1)
     2.55818980E-02   2   1000023   1000037   # BR(Hp -> neutralino2 chargino2)
     1.56058963E-02   2   1000024   1000025   # BR(Hp -> chargino1 neutralino3)
     6.82883380E-02   2   1000025   1000037   # BR(Hp -> neutralino3 chargino2)
     1.90305632E-01   2   1000024   1000035   # BR(Hp -> chargino1 neutralino4)
     1.01357327E-03   2        24        25   # BR(Hp -> W h0)
     4.34723871E-09   2        24        35   # BR(Hp -> W HH)
     4.88839229E-09   2        24        36   # BR(Hp -> W A0)
DECAY         6     2.43000000E+00   # top
#    BR                NDA      ID1      ID2
     1.00000000E+00    2           5        24   # BR(t -> b W)
Block HiggsBoundsInputHiggsCouplingsFermions
# ScalarNormEffCoupSq PseudoSNormEffCoupSq NP IP1 IP2 IP2
    1.11424595E+00    0.00000000E+00        3  25   5   5  # h0-b-b eff. coupling^2, normalised to SM
    8.45574021E+01    0.00000000E+00        3  35   5   5  # H0-b-b eff. coupling^2, normalised to SM
    0.00000000E+00    8.46716480E+01        3  36   5   5  # A0-b-b eff. coupling^2, normalised to SM
#
    9.98650718E-01    0.00000000E+00        3  25   6   6  # h0-t-t eff. coupling^2, normalised to SM
    1.31596110E-02    0.00000000E+00        3  35   6   6  # H0-t-t eff. coupling^2, normalised to SM
    0.00000000E+00    1.18103288E-02        3  36   6   6  # A0-t-t eff. coupling^2, normalised to SM
#
    1.11424595E+00    0.00000000E+00        3  25  15  15  # h0-tau-tau eff. coupling^2, normalised to SM
    8.45574021E+01    0.00000000E+00        3  35  15  15  # H0-tau-tau eff. coupling^2, normalised to SM
    0.00000000E+00    8.46716480E+01        3  36  15  15  # A0-tau-tau eff. coupling^2, normalised to SM
#
Block HiggsBoundsInputHiggsCouplingsBosons
    9.99963494E-01        3  25  24  24  # h0-W-W eff. coupling^2, normalised to SM
    3.65057020E-05        3  35  24  24  # H0-W-W eff. coupling^2, normalised to SM
    0.00000000E+00        3  36  24  24  # A0-W-W eff. coupling^2, normalised to SM
#
    9.99963494E-01        3  25  23  23  # h0-Z-Z eff. coupling^2, normalised to SM
    3.65057020E-05        3  35  23  23  # H0-Z-Z eff. coupling^2, normalised to SM
    0.00000000E+00        3  36  23  23  # A0-Z-Z eff. coupling^2, normalised to SM
#
    1.24727653E+00        3  25  21  21  # h0-g-g eff. coupling^2, normalised to SM
    2.00191855E-02        3  35  21  21  # H0-g-g eff. coupling^2, normalised to SM
    1.19421607E-01        3  36  21  21  # A0-g-g eff. coupling^2, normalised to SM
#
    0.00000000E+00        3  25  25  23  # h0-h0-Z eff. coupling^2, normalised to SM
    0.00000000E+00        3  35  25  23  # H0-h0-Z eff. coupling^2, normalised to SM
    3.65057020E-05        3  36  25  23  # A0-h0-Z eff. coupling^2, normalised to SM
    0.00000000E+00        3  35  35  23  # H0-H0-Z eff. coupling^2, normalised to SM
    9.99963494E-01        3  36  35  23  # A0-H0-Z eff. coupling^2, normalised to SM
    0.00000000E+00        3  36  36  23  # A0-A0-Z eff. coupling^2, normalised to SM
#
    0.00000000E+00        4  25  21  21  23  # h0-g-g-Z eff. coupling^2, normalised to SM
    0.00000000E+00        4  35  21  21  23  # H0-g-g-Z eff. coupling^2, normalised to SM
    0.00000000E+00        4  36  21  21  23  # A0-g-g-Z eff. coupling^2, normalised to SM
Block SPhenoLowEnergy  # low energy observables
    1    4.16744938E-04   # BR(b -> s gamma)
    2    1.59124935E-06   # BR(b -> s mu+ mu-)
    3    3.52849179E-05   # BR(b -> s nu nu)
    4    2.44509166E-15   # BR(Bd -> e+ e-)
    5    1.04451550E-10   # BR(Bd -> mu+ mu-)
    6    2.18664748E-08   # BR(Bd -> tau+ tau-)
    7    8.22534639E-14   # BR(Bs -> e+ e-)
    8    3.51386568E-09   # BR(Bs -> mu+ mu-)
    9    7.45340959E-07   # BR(Bs -> tau+ tau-)
   10    9.44620367E-05   # BR(B_u -> tau nu)
   11    9.75756674E-01   # BR(B_u -> tau nu)/BR(B_u -> tau nu)_SM
   12    5.43903121E-01   # |Delta(M_Bd)| [ps^-1] 
   13    1.94255313E+01   # |Delta(M_Bs)| [ps^-1] 
   14    0.00000000E+00   # neutron EDM according to the chiral quark model
   15    0.00000000E+00   # neutron EDM according to the relativistic quark-parton model
   16    2.16570427E-03   # epsilon_K
   17    2.28174789E-15   # Delta(M_K)
   18    2.48227364E-11   # BR(K^0 -> pi^0 nu nu)
   19    8.29586854E-11   # BR(K^+ -> pi^+ nu nu)
   20    3.03198174E-17   # Delta(g-2)_electron/2
   21    1.29626741E-12   # Delta(g-2)_muon/2
   22    3.66657801E-10   # Delta(g-2)_tau/2
   23    0.00000000E+00   # electric dipole moment of the electron
   24    0.00000000E+00   # electric dipole moment of the muon
   25    0.00000000E+00   # electric dipole moment of the tau
   26    0.00000000E+00   # Br(mu -> e gamma)
   27    0.00000000E+00   # Br(tau -> e gamma)
   28    0.00000000E+00   # Br(tau -> mu gamma)
   29    0.00000000E+00   # Br(mu -> 3 e)
   30    0.00000000E+00   # Br(tau -> 3 e)
   31    0.00000000E+00   # Br(tau -> 3 mu)
   39   -2.52249904E-05   # Delta(rho_parameter)
   40    0.00000000E+00   # BR(Z -> e mu)
   41    0.00000000E+00   # BR(Z -> e tau)
   42    0.00000000E+00   # BR(Z -> mu tau)
Block FWCOEF Q=  1.60000000E+02  # Wilson coefficients at scale Q
#    id        order  M        value         comment
     0305 4422   00   0    -1.88819110E-01   # C7
     0305 4422   00   2    -2.83069450E-01   # C7
     0305 4322   00   2    -1.78015299E-03   # C7'
     0305 6421   00   0    -9.52278348E-02   # C8
     0305 6421   00   2    -1.93191333E-01   # C8
     0305 6321   00   2    -1.88067246E-03   # C8'
 03051111 4133   00   0     1.61416411E+00   # C9 e+e-
 03051111 4133   00   2     1.61480834E+00   # C9 e+e-
 03051111 4233   00   2    -7.55031418E-06   # C9' e+e-
 03051111 4137   00   0    -4.43685621E+00   # C10 e+e-
 03051111 4137   00   2    -4.43835912E+00   # C10 e+e-
 03051111 4237   00   2     5.75529238E-05   # C10' e+e-
 03051313 4133   00   0     1.61416411E+00   # C9 mu+mu-
 03051313 4133   00   2     1.61480833E+00   # C9 mu+mu-
 03051313 4233   00   2    -7.55079417E-06   # C9' mu+mu-
 03051313 4137   00   0    -4.43685621E+00   # C10 mu+mu-
 03051313 4137   00   2    -4.43835913E+00   # C10 mu+mu-
 03051313 4237   00   2     5.75534028E-05   # C10' mu+mu-
 03051212 4137   00   0     1.50535012E+00   # C11 nu_1 nu_1
 03051212 4137   00   2     1.50567770E+00   # C11 nu_1 nu_1
 03051212 4237   00   2    -1.24809892E-05   # C11' nu_1 nu_1
 03051414 4137   00   0     1.50535012E+00   # C11 nu_2 nu_2
 03051414 4137   00   2     1.50567770E+00   # C11 nu_2 nu_2
 03051414 4237   00   2    -1.24808851E-05   # C11' nu_2 nu_2
 03051616 4137   00   0     1.50535012E+00   # C11 nu_3 nu_3
 03051616 4137   00   2     1.50567770E+00   # C11 nu_3 nu_3
 03051616 4237   00   2    -1.24515489E-05   # C11' nu_3 nu_3
Block IMFWCOEF Q=  1.60000000E+02  # Im(Wilson coefficients) at scale Q
#    id        order  M        value         comment
     0305 4422   00   0     3.85818826E-07   # C7
     0305 4422   00   2     2.40070422E-06   # C7
     0305 4322   00   2    -4.18466861E-07   # C7'
     0305 6421   00   0     3.30479340E-07   # C8
     0305 6421   00   2    -1.16239981E-06   # C8
     0305 6321   00   2    -2.30959999E-07   # C8'
 03051111 4133   00   2     7.10162034E-07   # C9 e+e-
 03051111 4233   00   2     3.99152231E-07   # C9' e+e-
 03051111 4137   00   2     2.80610576E-06   # C10 e+e-
 03051111 4237   00   2    -2.99902518E-06   # C10' e+e-
 03051313 4133   00   2     7.10161836E-07   # C9 mu+mu-
 03051313 4233   00   2     3.99152225E-07   # C9' mu+mu-
 03051313 4137   00   2     2.80610596E-06   # C10 mu+mu-
 03051313 4237   00   2    -2.99902520E-06   # C10' mu+mu-
 03051212 4137   00   2    -5.78447280E-07   # C11 nu_1 nu_1
 03051212 4237   00   2     6.50319450E-07   # C11' nu_1 nu_1
 03051414 4137   00   2    -5.78447269E-07   # C11 nu_2 nu_2
 03051414 4237   00   2     6.50319450E-07   # C11' nu_2 nu_2
 03051616 4137   00   2    -5.78444236E-07   # C11 nu_3 nu_3
 03051616 4237   00   2     6.50319449E-07   # C11' nu_3 nu_3
