# SUSY Les Houches Accord 2 - MSSM spectrum + Decays
# SPheno v4.0.5be
# W. Porod, Comput. Phys. Commun. 153 (2003) 275-315, hep-ph/0301101;
# W. Porod, F.~Staub, Comput. Phys. Commun. 183 (2012) 2458
#                     arXiv:1104.1573 [hep-ph] 
# in case of problems send email to porod@physik.uni-wuerzburg.de
# Created: 15.05.2022,  06:49
Block SPINFO         # Program information
     1   SPheno      # spectrum calculator
     2   v4.0.5be    # version number
#
Block SPhenoINFO     # SPheno specific information
    1      2         # using 2-loop RGEs
    2      2         # using pole masses for boundary conditions at mZ
Block MODSEL  # Model selection
    1    0    # general MSSM
Block MINPAR  # Input parameters
    3    3.22957566E+01  # tanb at m_Z    
    4   -1.00000000E+00  # Sign(mu)
Block EXTPAR  # non-universal input parameters
    0    2.64128298E+03  # scale for input parameters
    1    2.03962637E+02  # M_1
    2   -6.62683738E+02  # M_2
    3    2.22235140E+03  # M_3
   11    3.64465653E+03  # A_t
   12    1.13112448E+03  # A_b
   13   -8.53505197E+02  # A_tau
   23   -2.14208957E+02  # mu
   25    3.12422009E+01  # tan(beta)
   26    2.06977402E+03  # m_A, pole mass
   31    6.58560964E+02  # M_L11
   32    6.58560964E+02  # M_L22
   33    8.73942541E+02  # M_L33
   34    5.80598297E+02  # M_E11
   35    5.80598297E+02  # M_E22
   36    1.05883905E+03  # M_E33
   41    1.00000000E+04  # M_Q11
   42    1.00000000E+04  # M_Q22
   43    2.73591623E+03  # M_Q33
   44    1.00000000E+04  # M_U11
   45    1.00000000E+04  # M_U22
   46    2.51226407E+03  # M_U33
   47    1.00000000E+04  # M_D11
   48    1.00000000E+04  # M_D22
   49    4.32285248E+03  # M_D33
Block SMINPUTS  # SM parameters
         1     1.27908970E+02  # alpha_em^-1(MZ)^MSbar
         2     1.16637870E-05  # G_mu [GeV^-2]
         3     1.18400000E-01  # alpha_s(MZ)^MSbar
         4     9.11876000E+01  # m_Z(pole)
         5     4.18000000E+00  # m_b(m_b), MSbar
         6     1.73200000E+02  # m_t(pole)
         7     1.77700000E+00  # m_tau(pole)
         8     0.00000000E+00  # m_nu_3
        11     5.10998930E-04  # m_e(pole)
        12     0.00000000E+00  # m_nu_1
        13     1.05658372E-01  # m_muon(pole)
        14     0.00000000E+00  # m_nu_2
        21     5.00000000E-03  # m_d(2 GeV), MSbar
        22     2.50000000E-03  # m_u(2 GeV), MSbar
        23     9.50000000E-02  # m_s(2 GeV), MSbar
        24     1.27000000E+00  # m_c(m_c), MSbar
Block gauge Q=  2.64128298E+03  # (SUSY scale)
   1    3.55362975E-01  # g'(Q)^DRbar
   2    6.65198874E-01  # g(Q)^DRbar
   3    1.21977796E+00  # g3(Q)^DRbar
Block Yu Q=  2.64128298E+03  # (SUSY scale)
  1  1     8.38866598E-06   # Y_u(Q)^DRbar
  2  2     4.26144232E-03   # Y_c(Q)^DRbar
  3  3     1.01341823E+00   # Y_t(Q)^DRbar
Block Yd Q=  2.64128298E+03  # (SUSY scale)
  1  1     5.26641125E-04   # Y_d(Q)^DRbar
  2  2     1.00061814E-02   # Y_s(Q)^DRbar
  3  3     5.22262971E-01   # Y_b(Q)^DRbar
Block Ye Q=  2.64128298E+03  # (SUSY scale)
  1  1     9.19027275E-05   # Y_e(Q)^DRbar
  2  2     1.90025693E-02   # Y_mu(Q)^DRbar
  3  3     3.19591954E-01   # Y_tau(Q)^DRbar
Block Au Q=  2.64128298E+03  # (SUSY scale)
  1  1     0.00000000E+00   # A_u(Q)^DRbar
  2  2     0.00000000E+00   # A_c(Q)^DRbar
  3  3     3.64465653E+03   # A_t(Q)^DRbar
Block Ad Q=  2.64128298E+03  # (SUSY scale)
  1  1     0.00000000E+00   # A_d(Q)^DRbar
  2  2     0.00000000E+00   # A_s(Q)^DRbar
  3  3     1.13112447E+03   # A_b(Q)^DRbar
Block Ae Q=  2.64128298E+03  # (SUSY scale)
  1  1     0.00000000E+00   # A_e(Q)^DRbar
  2  2     0.00000000E+00   # A_mu(Q)^DRbar
  3  3    -8.53505195E+02   # A_tau(Q)^DRbar
Block MSOFT Q=  2.64128298E+03  # soft SUSY breaking masses at Q
   1    2.03962637E+02  # M_1
   2   -6.62683738E+02  # M_2
   3    2.22235140E+03  # M_3
  21    4.29933583E+06  # M^2_(H,d)
  22    1.03745192E+05  # M^2_(H,u)
  31    6.58560964E+02  # M_(L,11)
  32    6.58560964E+02  # M_(L,22)
  33    8.73942541E+02  # M_(L,33)
  34    5.80598297E+02  # M_(E,11)
  35    5.80598297E+02  # M_(E,22)
  36    1.05883905E+03  # M_(E,33)
  41    1.00000000E+04  # M_(Q,11)
  42    1.00000000E+04  # M_(Q,22)
  43    2.73591623E+03  # M_(Q,33)
  44    1.00000000E+04  # M_(U,11)
  45    1.00000000E+04  # M_(U,22)
  46    2.51226407E+03  # M_(U,33)
  47    1.00000000E+04  # M_(D,11)
  48    1.00000000E+04  # M_(D,22)
  49    4.32285248E+03  # M_(D,33)
Block MASS  # Mass spectrum
#   PDG code      mass          particle
         6     1.73200000E+02  # m_t(pole)
        23     9.11876000E+01  # m_Z(pole)
        24     8.04299946E+01  # W+
        15     1.77700000E+00  # m_tau(pole)
        25     1.25021287E+02  # h0
        35     2.06927735E+03  # H0
        36     2.06977402E+03  # A0
        37     2.07235921E+03  # H+
   1000001     1.01105612E+04  # ~d_L
   2000001     1.00855881E+04  # ~d_R
   1000002     1.01102006E+04  # ~u_L
   2000002     1.00885433E+04  # ~u_R
   1000003     1.01105676E+04  # ~s_L
   2000003     1.00855987E+04  # ~s_R
   1000004     1.01102070E+04  # ~c_L
   2000004     1.00885453E+04  # ~c_R
   1000005     2.76816184E+03  # ~b_1
   2000005     4.36440969E+03  # ~b_2
   1000006     2.49301804E+03  # ~t_1
   2000006     2.79836554E+03  # ~t_2
   1000011     6.67896337E+02  # ~e_L-
   2000011     5.92623000E+02  # ~e_R-
   1000012     6.62724578E+02  # ~nu_eL
   1000013     6.67883610E+02  # ~mu_L-
   2000013     5.92580712E+02  # ~mu_R-
   1000014     6.62707527E+02  # ~nu_muL
   1000015     8.75431192E+02  # ~tau_1-
   2000015     1.05751250E+03  # ~tau_2-
   1000016     8.71717097E+02  # ~nu_tauL
   1000021     2.61810947E+03  # ~g
   1000022     1.83509896E+02  # ~chi_10
   1000023     2.19253324E+02  # ~chi_20
   1000025     2.48348582E+02  # ~chi_30
   1000035     7.12515747E+02  # ~chi_40
   1000024     2.20301871E+02  # ~chi_1+
   1000037     7.12717196E+02  # ~chi_2+
# Higgs mixing
Block alpha # Effective Higgs mixing angle
          -3.11319647E-02   # alpha
Block Hmix Q=  2.64128298E+03  # Higgs mixing parameters
   1   -2.14208957E+02  # mu
   2    3.12422009E+01  # tan[beta](Q)
   3    2.43366043E+02  # v(Q)
   4    4.28396449E+06  # m^2_A(Q)
Block stopmix # stop mixing matrix
   1  1    -3.08363765E-01   # Re[R_st(1,1)]
   1  2     9.51268515E-01   # Re[R_st(1,2)]
   2  1    -9.51268515E-01   # Re[R_st(2,1)]
   2  2    -3.08363765E-01   # Re[R_st(2,2)]
Block sbotmix # sbottom mixing matrix
   1  1    -9.99998947E-01   # Re[R_sb(1,1)]
   1  2     1.45104353E-03   # Re[R_sb(1,2)]
   2  1    -1.45104353E-03   # Re[R_sb(2,1)]
   2  2    -9.99998947E-01   # Re[R_sb(2,2)]
Block staumix # stau mixing matrix
   1  1    -9.99526029E-01   # Re[R_sta(1,1)]
   1  2     3.07850225E-02   # Re[R_sta(1,2)]
   2  1    -3.07850225E-02   # Re[R_sta(2,1)]
   2  2    -9.99526029E-01   # Re[R_sta(2,2)]
Block Nmix # neutralino mixing matrix
   1  1     8.17553626E-01   # Re[N(1,1)]
   1  2     3.16453051E-02   # Re[N(1,2)]
   1  3    -4.46911682E-01   # Re[N(1,3)]
   1  4    -3.61765935E-01   # Re[N(1,4)]
   2  1     7.51090863E-02   # Re[N(2,1)]
   2  2     1.18349982E-01   # Re[N(2,2)]
   2  3     7.06944139E-01   # Re[N(2,3)]
   2  4    -6.93240139E-01   # Re[N(2,4)]
   3  1     5.70899925E-01   # Re[N(3,1)]
   3  2    -5.01895231E-02   # Re[N(3,2)]
   3  3     5.46531257E-01   # Re[N(3,3)]
   3  4     6.10620891E-01   # Re[N(3,4)]
   4  1     6.16193726E-03   # Re[N(4,1)]
   4  2    -9.91197694E-01   # Re[N(4,2)]
   4  3     4.24678417E-02   # Re[N(4,3)]
   4  4    -1.25242344E-01   # Re[N(4,4)]
Block Umix # chargino mixing matrix
   1  1    -6.02253901E-02   # Re[U(1,1)]
   1  2    -9.98184804E-01   # Re[U(1,2)]
   2  1    -9.98184804E-01   # Re[U(2,1)]
   2  2     6.02253901E-02   # Re[U(2,2)]
Block Vmix # chargino mixing matrix
   1  1     1.77765220E-01   # Re[V(1,1)]
   1  2     9.84072927E-01   # Re[V(1,2)]
   2  1     9.84072927E-01   # Re[V(2,1)]
   2  2    -1.77765220E-01   # Re[V(2,2)]
DECAY        23     2.49520000E+00   # Z
DECAY        24     2.08500000E+00   # W
DECAY   2000011     2.29898338E+00   # ~e^-_R
#    BR                NDA      ID1      ID2
     7.07659956E-01    2     1000022        11   # BR(~e^-_R -> chi^0_1 e^-)
     5.44348760E-03    2     1000023        11   # BR(~e^-_R -> chi^0_2 e^-)
     2.86896524E-01    2     1000025        11   # BR(~e^-_R -> chi^0_3 e^-)
DECAY   1000011     7.68711291E-01   # ~e^-_L
#    BR                NDA      ID1      ID2
     7.17138231E-01    2     1000022        11   # BR(~e^-_L -> chi^0_1 e^-)
     7.64590868E-02    2     1000023        11   # BR(~e^-_L -> chi^0_2 e^-)
     1.84368785E-01    2     1000025        11   # BR(~e^-_L -> chi^0_3 e^-)
     2.20338889E-02    2    -1000024        12   # BR(~e^-_L -> chi^-_1 nu_e)
#    BR                NDA      ID1      ID2       ID3
DECAY   2000013     2.30502135E+00   # ~mu^-_R
#    BR                NDA      ID1      ID2
     7.06039531E-01    2     1000022        13   # BR(~mu^-_R -> chi^0_1 mu^-)
     6.11556560E-03    2     1000023        13   # BR(~mu^-_R -> chi^0_2 mu^-)
     2.86478272E-01    2     1000025        13   # BR(~mu^-_R -> chi^0_3 mu^-)
     1.36663191E-03    2    -1000024        14   # BR(~mu^-_R -> chi^-_1 nu_mu)
DECAY   1000013     7.72484640E-01   # ~mu^-_L
#    BR                NDA      ID1      ID2
     7.14672250E-01    2     1000022        13   # BR(~mu^-_L -> chi^0_1 mu^-)
     7.85576926E-02    2     1000023        13   # BR(~mu^-_L -> chi^0_2 mu^-)
     1.84844411E-01    2     1000025        13   # BR(~mu^-_L -> chi^0_3 mu^-)
     2.19256383E-02    2    -1000024        14   # BR(~mu^-_L -> chi^-_1 nu_mu)
#    BR                NDA      ID1      ID2       ID3
DECAY   1000015     3.97145386E+00   # ~tau^-_1
#    BR                NDA      ID1      ID2
     2.83271623E-01    2     1000022        15   # BR(~tau^-_1 -> chi^0_1 tau^-)
     2.20164030E-01    2     1000023        15   # BR(~tau^-_1 -> chi^0_2 tau^-)
     1.60152060E-01    2     1000025        15   # BR(~tau^-_1 -> chi^0_3 tau^-)
     1.07624072E-01    2     1000035        15   # BR(~tau^-_1 -> chi^0_4 tau^-)
     9.56635482E-03    2    -1000024        16   # BR(~tau^-_1 -> chi^-_1 nu_tau)
     2.19221859E-01    2    -1000037        16   # BR(~tau^-_1 -> chi^-_2 nu_tau)
#    BR                NDA      ID1      ID2       ID3
DECAY   2000015     8.85253337E+00   # ~tau^-_2
#    BR                NDA      ID1      ID2
     4.19164279E-01    2     1000022        15   # BR(~tau^-_2 -> chi^0_1 tau^-)
     1.13072354E-01    2     1000023        15   # BR(~tau^-_2 -> chi^0_2 tau^-)
     2.42872757E-01    2     1000025        15   # BR(~tau^-_2 -> chi^0_3 tau^-)
     5.58591367E-04    2     1000035        15   # BR(~tau^-_2 -> chi^0_4 tau^-)
     2.19405121E-01    2    -1000024        16   # BR(~tau^-_2 -> chi^-_1 nu_tau)
     1.11459875E-03    2    -1000037        16   # BR(~tau^-_2 -> chi^-_2 nu_tau)
     2.07234353E-03    2     1000016       -24   # BR(~tau^-_2 -> ~nu_tau W^-)
     8.66906792E-04    2     1000015        23   # BR(~tau^-_2 -> ~tau^-_1 Z)
     8.73048578E-04    2     1000015        25   # BR(~tau^-_2 -> ~tau^-_1 h^0)
DECAY   1000012     8.40027644E-01   # ~nu_e
#    BR                NDA      ID1      ID2
     4.85842163E-01    2     1000022        12   # BR(~nu_e -> chi^0_1 nu_e)
     1.68519279E-02    2     1000023        12   # BR(~nu_e -> chi^0_2 nu_e)
     3.23663247E-01    2     1000025        12   # BR(~nu_e -> chi^0_3 nu_e)
     1.73642663E-01    2     1000024        11   # BR(~nu_e -> chi^+_1 e^-)
#    BR                NDA      ID1      ID2       ID3
DECAY   1000014     8.43743293E-01   # ~nu_mu
#    BR                NDA      ID1      ID2
     4.83686048E-01    2     1000022        14   # BR(~nu_mu -> chi^0_1 nu_mu)
     1.67770721E-02    2     1000023        14   # BR(~nu_mu -> chi^0_2 nu_mu)
     3.22224201E-01    2     1000025        14   # BR(~nu_mu -> chi^0_3 nu_mu)
     1.77312679E-01    2     1000024        13   # BR(~nu_mu -> chi^+_1 mu^-)
#    BR                NDA      ID1      ID2       ID3
DECAY   1000016     3.99816877E+00   # ~nu_tau
#    BR                NDA      ID1      ID2
     1.43843005E-01    2     1000022        16   # BR(~nu_tau -> chi^0_1 nu_tau)
     5.15284396E-03    2     1000023        16   # BR(~nu_tau -> chi^0_2 nu_tau)
     1.02206709E-01    2     1000025        16   # BR(~nu_tau -> chi^0_3 nu_tau)
     1.04555599E-01    2     1000035        16   # BR(~nu_tau -> chi^0_4 nu_tau)
     4.39672267E-01    2     1000024        15   # BR(~nu_tau -> chi^+_1 tau^-)
     2.04569577E-01    2     1000037        15   # BR(~nu_tau -> chi^+_2 tau^-)
DECAY   2000001     6.98038782E+02   # ~d_R
#    BR                NDA      ID1      ID2
     5.38802787E-03    2     1000022         1   # BR(~d_R -> chi^0_1 d)
     2.62591545E-03    2     1000025         1   # BR(~d_R -> chi^0_3 d)
     9.91940171E-01    2     1000021         1   # BR(~d_R -> ~g d)
DECAY   1000001     8.28223389E+02   # ~d_L
#    BR                NDA      ID1      ID2
     6.97109111E-04    2     1000022         1   # BR(~d_L -> chi^0_1 d)
     5.91587738E-04    2     1000023         1   # BR(~d_L -> chi^0_2 d)
     1.23752240E-03    2     1000025         1   # BR(~d_L -> chi^0_3 d)
     5.23827192E-02    2     1000035         1   # BR(~d_L -> chi^0_4 d)
     3.89410546E-04    2    -1000024         2   # BR(~d_L -> chi^-_1 u)
     1.06012215E-01    2    -1000037         2   # BR(~d_L -> chi^-_2 u)
     8.38689436E-01    2     1000021         1   # BR(~d_L -> ~g d)
DECAY   2000003     6.98079753E+02   # ~s_R
#    BR                NDA      ID1      ID2
     5.39344574E-03    2     1000022         3   # BR(~s_R -> chi^0_1 s)
     2.63432550E-03    2     1000025         3   # BR(~s_R -> chi^0_3 s)
     9.91883295E-01    2     1000021         3   # BR(~s_R -> ~g s)
DECAY   1000003     8.28247753E+02   # ~s_L
#    BR                NDA      ID1      ID2
     7.01929022E-04    2     1000022         3   # BR(~s_L -> chi^0_1 s)
     6.03677947E-04    2     1000023         3   # BR(~s_L -> chi^0_2 s)
     1.24472065E-03    2     1000025         3   # BR(~s_L -> chi^0_3 s)
     5.23812551E-02    2     1000035         3   # BR(~s_L -> chi^0_4 s)
     3.93665595E-04    2    -1000024         4   # BR(~s_L -> chi^-_1 c)
     1.06009304E-01    2    -1000037         4   # BR(~s_L -> chi^-_2 c)
     8.38665448E-01    2     1000021         3   # BR(~s_L -> ~g s)
DECAY   1000005     1.12979533E+02   # ~b_1
#    BR                NDA      ID1      ID2
     2.77744912E-02    2     1000022         5   # BR(~b_1 -> chi^0_1 b)
     6.68117765E-02    2     1000023         5   # BR(~b_1 -> chi^0_2 b)
     4.14508922E-02    2     1000025         5   # BR(~b_1 -> chi^0_3 b)
     9.27717468E-02    2     1000035         5   # BR(~b_1 -> chi^0_4 b)
     4.75277324E-01    2    -1000024         6   # BR(~b_1 -> chi^-_1 t)
     2.02810819E-01    2    -1000037         6   # BR(~b_1 -> chi^-_2 t)
     2.15041807E-02    2     1000021         5   # BR(~b_1 -> ~g b)
     7.15987704E-02    2     1000006       -24   # BR(~b_1 -> ~t_1 W^-)
DECAY   2000005     1.90700225E+02   # ~b_2
#    BR                NDA      ID1      ID2
     3.31704522E-02    2     1000022         5   # BR(~b_2 -> chi^0_1 b)
     6.18063306E-02    2     1000023         5   # BR(~b_2 -> chi^0_2 b)
     4.10521804E-02    2     1000025         5   # BR(~b_2 -> chi^0_3 b)
     2.25834824E-04    2     1000035         5   # BR(~b_2 -> chi^0_4 b)
     1.22694743E-01    2    -1000024         6   # BR(~b_2 -> chi^-_1 t)
     4.51902815E-04    2    -1000037         6   # BR(~b_2 -> chi^-_2 t)
     7.40278361E-01    2     1000021         5   # BR(~b_2 -> ~g b)
     1.14936961E-04    2     2000006       -24   # BR(~b_2 -> ~t_2 W^-)
     1.20812918E-04    2     1000005        25   # BR(~b_2 -> ~b_1 h^0)
DECAY   2000002     7.15184678E+02   # ~u_R
#    BR                NDA      ID1      ID2
     2.10415290E-02    2     1000022         2   # BR(~u_R -> chi^0_1 u)
     1.77544356E-04    2     1000023         2   # BR(~u_R -> chi^0_2 u)
     1.02547645E-02    2     1000025         2   # BR(~u_R -> chi^0_3 u)
     9.68524978E-01    2     1000021         2   # BR(~u_R -> ~g u)
DECAY   1000002     8.28211162E+02   # ~u_L
#    BR                NDA      ID1      ID2
     1.68659197E-03    2     1000022         2   # BR(~u_L -> chi^0_1 u)
     9.31427758E-04    2     1000023         2   # BR(~u_L -> chi^0_2 u)
     1.42183998E-04    2     1000025         2   # BR(~u_L -> chi^0_3 u)
     5.21501492E-02    2     1000035         2   # BR(~u_L -> chi^0_4 u)
     3.39266914E-03    2     1000024         1   # BR(~u_L -> chi^+_1 d)
     1.03033673E-01    2     1000037         1   # BR(~u_L -> chi^+_2 d)
     8.38663305E-01    2     1000021         2   # BR(~u_L -> ~g u)
DECAY   2000004     7.15192109E+02   # ~c_R
#    BR                NDA      ID1      ID2
     2.10419790E-02    2     1000022         4   # BR(~c_R -> chi^0_1 c)
     1.79989120E-04    2     1000023         4   # BR(~c_R -> chi^0_2 c)
     1.02565594E-02    2     1000025         4   # BR(~c_R -> chi^0_3 c)
     9.68515119E-01    2     1000021         4   # BR(~c_R -> ~g c)
DECAY   1000004     8.28235492E+02   # ~c_L
#    BR                NDA      ID1      ID2
     1.68712054E-03    2     1000022         4   # BR(~c_L -> chi^0_1 c)
     9.33518908E-04    2     1000023         4   # BR(~c_L -> chi^0_2 c)
     1.43822051E-04    2     1000025         4   # BR(~c_L -> chi^0_3 c)
     5.21487150E-02    2     1000035         4   # BR(~c_L -> chi^0_4 c)
     3.41670776E-03    2     1000024         3   # BR(~c_L -> chi^+_1 s)
     1.03030800E-01    2     1000037         3   # BR(~c_L -> chi^+_2 s)
     8.38639315E-01    2     1000021         4   # BR(~c_L -> ~g c)
DECAY   1000006     1.04648843E+02   # ~t_1
#    BR                NDA      ID1      ID2
     7.46680423E-02    2     1000022         6   # BR(~t_1 -> chi^0_1 t)
     2.37015353E-01    2     1000023         6   # BR(~t_1 -> chi^0_2 t)
     2.22108183E-01    2     1000025         6   # BR(~t_1 -> chi^0_3 t)
     7.23439468E-04    2     1000035         6   # BR(~t_1 -> chi^0_4 t)
     4.64812156E-01    2     1000024         5   # BR(~t_1 -> chi^+_1 b)
     4.09232705E-04    2     1000037         5   # BR(~t_1 -> chi^+_2 b)
#    BR                NDA      ID1      ID2       ID3
     2.34909930E-04    3     1000022        24         5   # BR(~t_1 -> chi^0_1 W^+ b)
DECAY   2000006     1.16256002E+02   # ~t_2
#    BR                NDA      ID1      ID2
     8.88381495E-02    2     1000022         6   # BR(~t_2 -> chi^0_1 t)
     2.25211098E-01    2     1000023         6   # BR(~t_2 -> chi^0_2 t)
     1.51423784E-01    2     1000025         6   # BR(~t_2 -> chi^0_3 t)
     1.00975090E-01    2     1000035         6   # BR(~t_2 -> chi^0_4 t)
     1.34325087E-01    2     1000024         5   # BR(~t_2 -> chi^+_1 b)
     1.93031185E-01    2     1000037         5   # BR(~t_2 -> chi^+_2 b)
     1.22664286E-02    2     1000021         6   # BR(~t_2 -> ~g t)
     4.21099978E-02    2     1000006        23   # BR(~t_2 -> ~t_1 Z)
     5.18191802E-02    2     1000006        25   # BR(~t_2 -> ~t_1 h^0)
DECAY   1000024     2.81278505E-05   # chi^+_1
#    BR                NDA      ID1      ID2       ID3
     3.34515610E-01    3     1000022        -1         2   # BR(chi^+_1 -> chi^0_1 d_bar u)
     3.32695784E-01    3     1000022        -3         4   # BR(chi^+_1 -> chi^0_1 s_bar c)
     1.11256949E-01    3     1000022       -11        12   # BR(chi^+_1 -> chi^0_1 e^+ nu_e)
     1.11258670E-01    3     1000022       -13        14   # BR(chi^+_1 -> chi^0_1 mu^+ nu_mu)
     1.10272881E-01    3     1000022       -15        16   # BR(chi^+_1 -> chi^0_1 tau^+ nu_tau)
DECAY   1000037     6.33107314E+00   # chi^+_2
#    BR                NDA      ID1      ID2
     7.32656874E-03    2    -1000011        12   # BR(chi^+_2 -> ~e^+_L nu_e)
     7.33059498E-03    2    -1000013        14   # BR(chi^+_2 -> ~mu^+_L nu_mu)
     8.79275286E-03    2     1000012       -11   # BR(chi^+_2 -> ~nu_e e^+)
     8.79847493E-03    2     1000014       -13   # BR(chi^+_2 -> ~nu_mu mu^+)
     8.65835890E-02    2     1000022        24   # BR(chi^+_2 -> chi^0_1 W^+)
     2.52604680E-01    2     1000023        24   # BR(chi^+_2 -> chi^0_2 W^+)
     1.58093477E-01    2     1000025        24   # BR(chi^+_2 -> chi^0_3 W^+)
     2.40457358E-01    2     1000024        23   # BR(chi^+_2 -> chi^+_1 Z)
     2.25570615E-01    2     1000024        25   # BR(chi^+_2 -> chi^+_1 h^0)
#    BR                NDA      ID1      ID2       ID3
     6.86636305E-04    3     1000024         6        -6   # BR(chi^+_2 -> chi^+_1 t t_bar)
     7.42339648E-04    3     1000022        -5         6   # BR(chi^+_2 -> chi^0_1 b_bar t)
     1.83122590E-03    3     1000023        -5         6   # BR(chi^+_2 -> chi^0_2 b_bar t)
     1.13138827E-03    3     1000025        -5         6   # BR(chi^+_2 -> chi^0_3 b_bar t)
DECAY   1000022     0.00000000E+00   # chi^0_1
DECAY   1000023     5.87684788E-05   # chi^0_2
#    BR                NDA      ID1      ID2
     2.45663177E-02    2     1000022        22   # BR(chi^0_2 -> chi^0_1 photon)
#    BR                NDA      ID1      ID2       ID3
     1.18629517E-01    3     1000022         2        -2   # BR(chi^0_2 -> chi^0_1 u u_bar)
     1.16760516E-01    3     1000022         4        -4   # BR(chi^0_2 -> chi^0_1 c c_bar)
     1.52105816E-01    3     1000022         1        -1   # BR(chi^0_2 -> chi^0_1 d d_bar)
     1.52094230E-01    3     1000022         3        -3   # BR(chi^0_2 -> chi^0_1 s s_bar)
     1.31348662E-01    3     1000022         5        -5   # BR(chi^0_2 -> chi^0_1 b b_bar)
     3.40377688E-02    3     1000022        11       -11   # BR(chi^0_2 -> chi^0_1 e^- e^+)
     3.40359397E-02    3     1000022        13       -13   # BR(chi^0_2 -> chi^0_1 mu^- mu^+)
     3.33027680E-02    3     1000022        15       -15   # BR(chi^0_2 -> chi^0_1 tau^- tau^+)
     2.03118465E-01    3     1000022        12       -12   # BR(chi^0_2 -> chi^0_1 nu_e nu_bar_e)
DECAY   1000025     7.69812296E-05   # chi^0_3
#    BR                NDA      ID1      ID2
     1.48821762E-03    2     1000022        22   # BR(chi^0_3 -> chi^0_1 photon)
     2.77604560E-02    2     1000023        22   # BR(chi^0_3 -> chi^0_2 photon)
#    BR                NDA      ID1      ID2       ID3
     4.13352299E-03    3     1000022         2        -2   # BR(chi^0_3 -> chi^0_1 u u_bar)
     4.11758269E-03    3     1000022         4        -4   # BR(chi^0_3 -> chi^0_1 c c_bar)
     5.29666500E-03    3     1000022         1        -1   # BR(chi^0_3 -> chi^0_1 d d_bar)
     5.29657305E-03    3     1000022         3        -3   # BR(chi^0_3 -> chi^0_1 s s_bar)
     5.15887356E-03    3     1000022         5        -5   # BR(chi^0_3 -> chi^0_1 b b_bar)
     6.16427390E-04    3     1000022        11       -11   # BR(chi^0_3 -> chi^0_1 e^- e^+)
     6.18177468E-04    3     1000022        13       -13   # BR(chi^0_3 -> chi^0_1 mu^- mu^+)
     1.06755842E-03    3     1000022        15       -15   # BR(chi^0_3 -> chi^0_1 tau^- tau^+)
     7.98457741E-03    3     1000022        12       -12   # BR(chi^0_3 -> chi^0_1 nu_e nu_bar_e)
     6.74694696E-02    3     1000023         2        -2   # BR(chi^0_3 -> chi^0_2 u u_bar)
     6.58304890E-02    3     1000023         4        -4   # BR(chi^0_3 -> chi^0_2 c c_bar)
     8.65094126E-02    3     1000023         1        -1   # BR(chi^0_3 -> chi^0_2 d d_bar)
     8.64991676E-02    3     1000023         3        -3   # BR(chi^0_3 -> chi^0_2 s s_bar)
     6.87728787E-02    3     1000023         5        -5   # BR(chi^0_3 -> chi^0_2 b b_bar)
     1.95993527E-02    3     1000023        11       -11   # BR(chi^0_3 -> chi^0_2 e^- e^+)
     1.95968353E-02    3     1000023        13       -13   # BR(chi^0_3 -> chi^0_2 mu^- mu^+)
     1.86643457E-02    3     1000023        15       -15   # BR(chi^0_3 -> chi^0_2 tau^- tau^+)
     1.15795912E-01    3     1000023        12       -12   # BR(chi^0_3 -> chi^0_2 nu_e nu_bar_e)
     6.49341676E-02    3     1000024         1        -2   # BR(chi^0_3 -> chi^+_1 d u_bar)
     6.49341676E-02    3    -1000024        -1         2   # BR(chi^0_3 -> chi^-_1 d_bar u)
     6.43029052E-02    3     1000024         3        -4   # BR(chi^0_3 -> chi^+_1 s c_bar)
     6.43029052E-02    3    -1000024        -3         4   # BR(chi^0_3 -> chi^-_1 s_bar c)
     2.16819378E-02    3     1000024        11       -12   # BR(chi^0_3 -> chi^+_1 e^- nu_bar_e)
     2.16819378E-02    3    -1000024       -11        12   # BR(chi^0_3 -> chi^-_1 e^+ nu_e)
     2.16821072E-02    3     1000024        13       -14   # BR(chi^0_3 -> chi^+_1 mu^- nu_bar_mu)
     2.16821072E-02    3    -1000024       -13        14   # BR(chi^0_3 -> chi^-_1 mu^+ nu_mu)
     2.12606349E-02    3     1000024        15       -16   # BR(chi^0_3 -> chi^+_1 tau^- nu_bar_tau)
     2.12606349E-02    3    -1000024       -15        16   # BR(chi^0_3 -> chi^-_1 tau^+ nu_tau)
DECAY   1000035     7.25772005E+00   # chi^0_4
#    BR                NDA      ID1      ID2
     3.10374352E-03    2     1000011       -11   # BR(chi^0_4 -> ~e^-_L e^+)
     3.10374352E-03    2    -1000011        11   # BR(chi^0_4 -> ~e^+_L e^-)
     3.10548468E-03    2     1000013       -13   # BR(chi^0_4 -> ~mu^-_L mu^+)
     3.10548468E-03    2    -1000013        13   # BR(chi^0_4 -> ~mu^+_L mu^-)
     3.88733369E-03    2     1000012       -12   # BR(chi^0_4 -> ~nu_e nu_bar_e)
     3.88733369E-03    2    -1000012        12   # BR(chi^0_4 -> ~nu^*_e nu_e)
     3.88990012E-03    2     1000014       -14   # BR(chi^0_4 -> ~nu_mu nu_bar_mu)
     3.88990012E-03    2    -1000014        14   # BR(chi^0_4 -> ~nu^*_mu nu_mu)
     2.24706383E-01    2     1000024       -24   # BR(chi^0_4 -> chi^+_1 W^-)
     2.24706383E-01    2    -1000024        24   # BR(chi^0_4 -> chi^-_1 W^+)
     5.85992386E-02    2     1000022        23   # BR(chi^0_4 -> chi^0_1 Z)
     4.20061155E-02    2     1000023        23   # BR(chi^0_4 -> chi^0_2 Z)
     1.19036223E-01    2     1000025        23   # BR(chi^0_4 -> chi^0_3 Z)
     4.74383647E-02    2     1000022        25   # BR(chi^0_4 -> chi^0_1 h^0)
     1.54763035E-01    2     1000023        25   # BR(chi^0_4 -> chi^0_2 h^0)
     9.62821435E-02    2     1000025        25   # BR(chi^0_4 -> chi^0_3 h^0)
#    BR                NDA      ID1      ID2       ID3
     1.82307295E-04    3     1000023         6        -6   # BR(chi^0_4 -> chi^0_2 t t_bar)
     2.01120310E-03    3     1000024         5        -6   # BR(chi^0_4 -> chi^+_1 b t_bar)
     2.01120310E-03    3    -1000024        -5         6   # BR(chi^0_4 -> chi^-_1 b_bar t)
DECAY   1000021     1.57517907E+00   # ~g
#    BR                NDA      ID1      ID2
     1.21571161E-03    2     1000006        -4   # BR(~g -> ~t_1 c_bar)
     1.21571161E-03    2    -1000006         4   # BR(~g -> ~t^*_1 c)
     4.09971192E-04    2     1000022        21   # BR(~g -> chi^0_1 g)
     2.37974231E-03    2     1000023        21   # BR(~g -> chi^0_2 g)
     2.44000338E-03    2     1000025        21   # BR(~g -> chi^0_3 g)
#    BR                NDA      ID1      ID2       ID3
     5.76848019E-02    3     1000022         6        -6   # BR(~g -> chi^0_1 t t_bar)
     5.26848972E-03    3     1000022         5        -5   # BR(~g -> chi^0_1 b b_bar)
     2.11272846E-01    3     1000023         6        -6   # BR(~g -> chi^0_2 t t_bar)
     1.23989692E-02    3     1000023         5        -5   # BR(~g -> chi^0_2 b b_bar)
     1.93741292E-01    3     1000025         6        -6   # BR(~g -> chi^0_3 t t_bar)
     7.60985730E-03    3     1000025         5        -5   # BR(~g -> chi^0_3 b b_bar)
     9.90256401E-03    3     1000035         6        -6   # BR(~g -> chi^0_4 t t_bar)
     1.33017538E-02    3     1000035         5        -5   # BR(~g -> chi^0_4 b b_bar)
     2.25041979E-01    3     1000024         5        -6   # BR(~g -> chi^+_1 b t_bar)
     2.25041979E-01    3    -1000024        -5         6   # BR(~g -> chi^-_1 b_bar t)
     1.54061469E-02    3     1000037         5        -6   # BR(~g -> chi^+_2 b t_bar)
     1.54061469E-02    3    -1000037        -5         6   # BR(~g -> chi^-_2 b_bar t)
DECAY        25     3.45863247E-03   # Gamma(h0)
     2.63035735E-03   2        22        22   # BR(h0 -> photon photon)
     1.68364037E-03   2        22        23   # BR(h0 -> photon Z)
     3.11055007E-02   2        23        23   # BR(h0 -> Z Z)
     2.56846732E-01   2       -24        24   # BR(h0 -> W W)
     8.14777312E-02   2        21        21   # BR(h0 -> gluon gluon)
     4.83537631E-09   2       -11        11   # BR(h0 -> Electron electron)
     2.15086176E-04   2       -13        13   # BR(h0 -> Muon muon)
     6.19778831E-02   2       -15        15   # BR(h0 -> Tau tau)
     1.36115527E-07   2        -2         2   # BR(h0 -> Up up)
     2.64182082E-02   2        -4         4   # BR(h0 -> Charm charm)
     5.58580505E-07   2        -1         1   # BR(h0 -> Down down)
     2.02025524E-04   2        -3         3   # BR(h0 -> Strange strange)
     5.37442136E-01   2        -5         5   # BR(h0 -> Bottom bottom)
DECAY        35     4.92188021E+01   # Gamma(HH)
     3.64961622E-08   2        22        22   # BR(HH -> photon photon)
     1.19450213E-07   2        22        23   # BR(HH -> photon Z)
     1.35422916E-06   2        23        23   # BR(HH -> Z Z)
     6.83749159E-07   2       -24        24   # BR(HH -> W W)
     9.39476944E-06   2        21        21   # BR(HH -> gluon gluon)
     6.26245008E-09   2       -11        11   # BR(HH -> Electron electron)
     2.78802059E-04   2       -13        13   # BR(HH -> Muon muon)
     7.94237133E-02   2       -15        15   # BR(HH -> Tau tau)
     9.69455988E-14   2        -2         2   # BR(HH -> Up up)
     1.88048222E-08   2        -4         4   # BR(HH -> Charm charm)
     1.45032017E-03   2        -6         6   # BR(HH -> Top top)
     4.49699760E-07   2        -1         1   # BR(HH -> Down down)
     1.62666337E-04   2        -3         3   # BR(HH -> Strange strange)
     4.60094778E-01   2        -5         5   # BR(HH -> Bottom bottom)
     1.12446608E-02   2  -1000024   1000024   # BR(HH -> Chargino1 chargino1)
     1.29708834E-01   2  -1000024   1000037   # BR(HH -> Chargino1 chargino2)
     1.29708834E-01   2  -1000037   1000024   # BR(HH -> Chargino2 chargino1)
     5.09041736E-04   2  -1000037   1000037   # BR(HH -> Chargino2 chargino2)
     1.15504294E-02   2   1000022   1000022   # BR(HH -> neutralino1 neutralino1)
     1.51868440E-02   2   1000022   1000023   # BR(HH -> neutralino1 neutralino2)
     2.35725403E-07   2   1000022   1000025   # BR(HH -> neutralino1 neutralino3)
     3.34271851E-02   2   1000022   1000035   # BR(HH -> neutralino1 neutralino4)
     1.13805670E-03   2   1000023   1000023   # BR(HH -> neutralino2 neutralino2)
     8.26829326E-03   2   1000023   1000025   # BR(HH -> neutralino2 neutralino3)
     5.69335868E-02   2   1000023   1000035   # BR(HH -> neutralino2 neutralino4)
     1.33332467E-02   2   1000025   1000025   # BR(HH -> neutralino3 neutralino3)
     4.19562397E-02   2   1000025   1000035   # BR(HH -> neutralino3 neutralino4)
     2.60050396E-04   2   1000035   1000035   # BR(HH -> neutralino4 neutralino4)
     5.49982775E-06   2        25        25   # BR(HH -> h0 h0)
     1.35959429E-07   2  -1000011   1000011   # BR(HH -> Selectron1 selectron1)
     2.90074877E-14   2  -2000011   1000011   # BR(HH -> Selectron2 selectron1)
     2.90074877E-14   2  -1000011   2000011   # BR(HH -> Selectron1 selectron2)
     1.95691573E-07   2  -2000011   2000011   # BR(HH -> Selectron2 selectron2)
     1.34708784E-07   2  -1000013   1000013   # BR(HH -> Smuon1 smuon1)
     1.23987952E-09   2  -2000013   1000013   # BR(HH -> Smuon2 smuon1)
     1.23987952E-09   2  -1000013   2000013   # BR(HH -> Smuon1 smuon2)
     1.95168982E-07   2  -2000013   2000013   # BR(HH -> Smuon2 smuon2)
     1.38903990E-05   2  -1000015   1000015   # BR(HH -> Stau1 stau1)
     2.66516801E-03   2  -2000015   1000015   # BR(HH -> Stau2 stau1)
     2.66516801E-03   2  -1000015   2000015   # BR(HH -> Stau1 stau2)
DECAY        36     4.80536271E+01   # Gamma(A0)
     1.43053066E-07   2        22        22   # BR(A0 -> photon photon)
     2.22390048E-07   2        22        23   # BR(A0 -> photon Z)
     2.16306470E-05   2        21        21   # BR(A0 -> gluon gluon)
     6.13224969E-09   2       -11        11   # BR(A0 -> Electron electron)
     2.73005152E-04   2       -13        13   # BR(A0 -> Muon muon)
     7.77723764E-02   2       -15        15   # BR(A0 -> Tau tau)
     9.20976303E-14   2        -2         2   # BR(A0 -> Up up)
     1.78626863E-08   2        -4         4   # BR(A0 -> Charm charm)
     1.42075302E-03   2        -6         6   # BR(A0 -> Top top)
     4.40335603E-07   2        -1         1   # BR(A0 -> Down down)
     1.59278915E-04   2        -3         3   # BR(A0 -> Strange strange)
     4.50522218E-01   2        -5         5   # BR(A0 -> Bottom bottom)
     1.25336976E-02   2  -1000024   1000024   # BR(A0 -> Chargino1 chargino1)
     1.31990861E-01   2  -1000024   1000037   # BR(A0 -> Chargino1 chargino2)
     1.31990861E-01   2  -1000037   1000024   # BR(A0 -> Chargino2 chargino1)
     1.30676297E-03   2  -1000037   1000037   # BR(A0 -> Chargino2 chargino2)
     1.10007603E-02   2   1000022   1000022   # BR(A0 -> neutralino1 neutralino1)
     1.64251916E-02   2   1000022   1000023   # BR(A0 -> neutralino1 neutralino2)
     9.09183831E-07   2   1000022   1000025   # BR(A0 -> neutralino1 neutralino3)
     2.66576010E-02   2   1000022   1000035   # BR(A0 -> neutralino1 neutralino4)
     1.37259145E-03   2   1000023   1000023   # BR(A0 -> neutralino2 neutralino2)
     9.57950039E-03   2   1000023   1000025   # BR(A0 -> neutralino2 neutralino3)
     7.63577375E-02   2   1000023   1000035   # BR(A0 -> neutralino2 neutralino4)
     1.25441283E-02   2   1000025   1000025   # BR(A0 -> neutralino3 neutralino3)
     3.19176114E-02   2   1000025   1000035   # BR(A0 -> neutralino3 neutralino4)
     6.63277636E-04   2   1000035   1000035   # BR(A0 -> neutralino4 neutralino4)
     1.88718268E-06   2        23        25   # BR(A0 -> Z h0)
     1.58936291E-40   2        25        25   # BR(A0 -> h0 h0)
     3.04869086E-14   2  -2000011   1000011   # BR(A0 -> Selectron2 selectron1)
     3.04869086E-14   2  -1000011   2000011   # BR(A0 -> Selectron1 selectron2)
     1.30341067E-09   2  -2000013   1000013   # BR(A0 -> Smuon2 smuon1)
     1.30341067E-09   2  -1000013   2000013   # BR(A0 -> Smuon1 smuon2)
     2.74326359E-03   2  -2000015   1000015   # BR(A0 -> Stau2 stau1)
     2.74326359E-03   2  -1000015   2000015   # BR(A0 -> Stau1 stau2)
DECAY        37     5.32813839E+01   # Gamma(Hp)
     6.70874262E-09   2       -11        12   # BR(Hp -> Electron nu_e)
     2.86819700E-04   2       -13        14   # BR(Hp -> Muon nu_mu)
     8.11288587E-02   2       -15        16   # BR(Hp -> Tau nu_tau)
     4.51310702E-07   2        -1         2   # BR(Hp -> Down up)
     7.58538044E-06   2        -3         2   # BR(Hp -> Strange up)
     5.23547053E-06   2        -5         2   # BR(Hp -> Bottom up)
     2.18986071E-08   2        -1         4   # BR(Hp -> Down charm)
     1.62676236E-04   2        -3         4   # BR(Hp -> Strange charm)
     7.33152932E-04   2        -5         4   # BR(Hp -> Bottom charm)
     9.92402032E-08   2        -1         6   # BR(Hp -> Down top)
     2.40179120E-06   2        -3         6   # BR(Hp -> Strange top)
     4.94328978E-01   2        -5         6   # BR(Hp -> Bottom top)
     3.73294758E-02   2   1000022   1000024   # BR(Hp -> neutralino1 chargino1)
     5.46981408E-02   2   1000022   1000037   # BR(Hp -> neutralino1 chargino2)
     1.54142499E-03   2   1000023   1000024   # BR(Hp -> neutralino2 chargino1)
     1.26918990E-01   2   1000023   1000037   # BR(Hp -> neutralino2 chargino2)
     8.91727871E-03   2   1000024   1000025   # BR(Hp -> chargino1 neutralino3)
     6.70687232E-02   2   1000025   1000037   # BR(Hp -> neutralino3 chargino2)
     1.21820033E-01   2   1000024   1000035   # BR(Hp -> chargino1 neutralino4)
     2.89414828E-08   2   1000035   1000037   # BR(Hp -> neutralino4 chargino2)
     1.71071926E-06   2        24        25   # BR(Hp -> W h0)
     7.09693977E-12   2        24        35   # BR(Hp -> W HH)
     2.94790686E-12   2        24        36   # BR(Hp -> W A0)
     4.14062645E-14   2  -1000011   1000012   # BR(Hp -> Selectron1 snu_e1)
     7.08230497E-07   2  -2000011   1000012   # BR(Hp -> Selectron2 snu_e1)
     1.77067105E-09   2  -1000013   1000014   # BR(Hp -> Smuon1 snu_mu1)
     7.07515485E-07   2  -2000013   1000014   # BR(Hp -> Smuon2 snu_mu1)
     4.37690752E-06   2  -1000015   1000016   # BR(Hp -> Stau1 snu_tau1)
     5.04211238E-03   2  -2000015   1000016   # BR(Hp -> Stau2 snu_tau1)
DECAY         6     2.43000000E+00   # top
#    BR                NDA      ID1      ID2
     1.00000000E+00    2           5        24   # BR(t -> b W)
Block HiggsBoundsInputHiggsCouplingsFermions
# ScalarNormEffCoupSq PseudoSNormEffCoupSq NP IP1 IP2 IP2
    9.46674549E-01    0.00000000E+00        3  25   5   5  # h0-b-b eff. coupling^2, normalised to SM
    9.76128443E+02    0.00000000E+00        3  35   5   5  # H0-b-b eff. coupling^2, normalised to SM
    0.00000000E+00    9.76075117E+02        3  36   5   5  # A0-b-b eff. coupling^2, normalised to SM
#
    1.00005463E+00    0.00000000E+00        3  25   6   6  # h0-t-t eff. coupling^2, normalised to SM
    9.69878786E-04    0.00000000E+00        3  35   6   6  # H0-t-t eff. coupling^2, normalised to SM
    0.00000000E+00    1.02451131E-03        3  36   6   6  # A0-t-t eff. coupling^2, normalised to SM
#
    9.46674549E-01    0.00000000E+00        3  25  15  15  # h0-tau-tau eff. coupling^2, normalised to SM
    9.76128443E+02    0.00000000E+00        3  35  15  15  # H0-tau-tau eff. coupling^2, normalised to SM
    0.00000000E+00    9.76075117E+02        3  36  15  15  # A0-tau-tau eff. coupling^2, normalised to SM
#
Block HiggsBoundsInputHiggsCouplingsBosons
    9.99999252E-01        3  25  24  24  # h0-W-W eff. coupling^2, normalised to SM
    7.48396850E-07        3  35  24  24  # H0-W-W eff. coupling^2, normalised to SM
    0.00000000E+00        3  36  24  24  # A0-W-W eff. coupling^2, normalised to SM
#
    9.99999252E-01        3  25  23  23  # h0-Z-Z eff. coupling^2, normalised to SM
    7.48396850E-07        3  35  23  23  # H0-Z-Z eff. coupling^2, normalised to SM
    0.00000000E+00        3  36  23  23  # A0-Z-Z eff. coupling^2, normalised to SM
#
    1.26229545E+00        3  25  21  21  # h0-g-g eff. coupling^2, normalised to SM
    5.16481002E-03        3  35  21  21  # H0-g-g eff. coupling^2, normalised to SM
    1.14001452E-01        3  36  21  21  # A0-g-g eff. coupling^2, normalised to SM
#
    0.00000000E+00        3  25  25  23  # h0-h0-Z eff. coupling^2, normalised to SM
    0.00000000E+00        3  35  25  23  # H0-h0-Z eff. coupling^2, normalised to SM
    7.48396850E-07        3  36  25  23  # A0-h0-Z eff. coupling^2, normalised to SM
    0.00000000E+00        3  35  35  23  # H0-H0-Z eff. coupling^2, normalised to SM
    9.99999252E-01        3  36  35  23  # A0-H0-Z eff. coupling^2, normalised to SM
    0.00000000E+00        3  36  36  23  # A0-A0-Z eff. coupling^2, normalised to SM
#
    0.00000000E+00        4  25  21  21  23  # h0-g-g-Z eff. coupling^2, normalised to SM
    0.00000000E+00        4  35  21  21  23  # H0-g-g-Z eff. coupling^2, normalised to SM
    0.00000000E+00        4  36  21  21  23  # A0-g-g-Z eff. coupling^2, normalised to SM
Block SPhenoLowEnergy  # low energy observables
    1    3.13956764E-04   # BR(b -> s gamma)
    2    1.59017058E-06   # BR(b -> s mu+ mu-)
    3    3.52296235E-05   # BR(b -> s nu nu)
    4    3.25428531E-15   # BR(Bd -> e+ e-)
    5    1.39017996E-10   # BR(Bd -> mu+ mu-)
    6    2.90204616E-08   # BR(Bd -> tau+ tau-)
    7    1.10595866E-13   # BR(Bs -> e+ e-)
    8    4.72460441E-09   # BR(Bs -> mu+ mu-)
    9    9.99282990E-07   # BR(Bs -> tau+ tau-)
   10    9.54779478E-05   # BR(B_u -> tau nu)
   11    9.86250648E-01   # BR(B_u -> tau nu)/BR(B_u -> tau nu)_SM
   12    5.42490422E-01   # |Delta(M_Bd)| [ps^-1] 
   13    1.93779726E+01   # |Delta(M_Bs)| [ps^-1] 
   14    0.00000000E+00   # neutron EDM according to the chiral quark model
   15    0.00000000E+00   # neutron EDM according to the relativistic quark-parton model
   16    2.15942664E-03   # epsilon_K
   17    2.28168110E-15   # Delta(M_K)
   18    2.47796475E-11   # BR(K^0 -> pi^0 nu nu)
   19    8.28572781E-11   # BR(K^+ -> pi^+ nu nu)
   20    2.00114760E-15   # Delta(g-2)_electron/2
   21    8.53143883E-11   # Delta(g-2)_muon/2
   22    8.49840056E-08   # Delta(g-2)_tau/2
   23    0.00000000E+00   # electric dipole moment of the electron
   24    0.00000000E+00   # electric dipole moment of the muon
   25    0.00000000E+00   # electric dipole moment of the tau
   26    0.00000000E+00   # Br(mu -> e gamma)
   27    0.00000000E+00   # Br(tau -> e gamma)
   28    0.00000000E+00   # Br(tau -> mu gamma)
   29    0.00000000E+00   # Br(mu -> 3 e)
   30    0.00000000E+00   # Br(tau -> 3 e)
   31    0.00000000E+00   # Br(tau -> 3 mu)
   39    8.11108327E-05   # Delta(rho_parameter)
   40    0.00000000E+00   # BR(Z -> e mu)
   41    0.00000000E+00   # BR(Z -> e tau)
   42    0.00000000E+00   # BR(Z -> mu tau)
Block FWCOEF Q=  1.60000000E+02  # Wilson coefficients at scale Q
#    id        order  M        value         comment
     0305 4422   00   0    -1.88819110E-01   # C7
     0305 4422   00   2    -1.78999084E-01   # C7
     0305 4322   00   2    -1.52649135E-04   # C7'
     0305 6421   00   0    -9.52278348E-02   # C8
     0305 6421   00   2    -9.96090720E-02   # C8
     0305 6321   00   2    -2.55704515E-04   # C8'
 03051111 4133   00   0     1.61214346E+00   # C9 e+e-
 03051111 4133   00   2     1.61284485E+00   # C9 e+e-
 03051111 4233   00   2     2.23473048E-04   # C9' e+e-
 03051111 4137   00   0    -4.43483556E+00   # C10 e+e-
 03051111 4137   00   2    -4.43088497E+00   # C10 e+e-
 03051111 4237   00   2    -1.68813221E-03   # C10' e+e-
 03051313 4133   00   0     1.61214346E+00   # C9 mu+mu-
 03051313 4133   00   2     1.61284215E+00   # C9 mu+mu-
 03051313 4233   00   2     2.23472101E-04   # C9' mu+mu-
 03051313 4137   00   0    -4.43483556E+00   # C10 mu+mu-
 03051313 4137   00   2    -4.43088767E+00   # C10 mu+mu-
 03051313 4237   00   2    -1.68813313E-03   # C10' mu+mu-
 03051212 4137   00   0     1.50535012E+00   # C11 nu_1 nu_1
 03051212 4137   00   2     1.50451261E+00   # C11 nu_1 nu_1
 03051212 4237   00   2     3.66227645E-04   # C11' nu_1 nu_1
 03051414 4137   00   0     1.50535012E+00   # C11 nu_2 nu_2
 03051414 4137   00   2     1.50451261E+00   # C11 nu_2 nu_2
 03051414 4237   00   2     3.66227747E-04   # C11' nu_2 nu_2
 03051616 4137   00   0     1.50535012E+00   # C11 nu_3 nu_3
 03051616 4137   00   2     1.50451252E+00   # C11 nu_3 nu_3
 03051616 4237   00   2     3.66256576E-04   # C11' nu_3 nu_3
Block IMFWCOEF Q=  1.60000000E+02  # Im(Wilson coefficients) at scale Q
#    id        order  M        value         comment
     0305 4422   00   0     3.85831460E-07   # C7
     0305 4422   00   2     1.17508965E-05   # C7
     0305 4322   00   2     1.45841621E-06   # C7'
     0305 6421   00   0     3.30490162E-07   # C8
     0305 6421   00   2     1.18632443E-05   # C8
     0305 6321   00   2     6.93143313E-07   # C8'
 03051111 4133   00   2    -3.76772248E-07   # C9 e+e-
 03051111 4233   00   2     4.82011226E-06   # C9' e+e-
 03051111 4137   00   2     1.53861325E-06   # C10 e+e-
 03051111 4237   00   2    -3.64191427E-05   # C10' e+e-
 03051313 4133   00   2    -3.76793809E-07   # C9 mu+mu-
 03051313 4233   00   2     4.82010380E-06   # C9' mu+mu-
 03051313 4137   00   2     1.53862234E-06   # C10 mu+mu-
 03051313 4237   00   2    -3.64191675E-05   # C10' mu+mu-
 03051212 4137   00   2     3.21981181E-09   # C11 nu_1 nu_1
 03051212 4237   00   2     7.90088781E-06   # C11' nu_1 nu_1
 03051414 4137   00   2     3.22007855E-09   # C11 nu_2 nu_2
 03051414 4237   00   2     7.90088781E-06   # C11' nu_2 nu_2
 03051616 4137   00   2     1.43807170E-09   # C11 nu_3 nu_3
 03051616 4237   00   2     7.90089030E-06   # C11' nu_3 nu_3
