#
#                              ======================
#                              | THE SUSYHIT OUTPUT |
#                              ======================
#
#
#              ------------------------------------------------------
#              |     This is the output of the SUSY-HIT package     |
#              |  created by A.Djouadi, M.Muehlleitner and M.Spira. |
#              |  In case of problems with SUSY-HIT email to        |
#              |           margarete.muehlleitner@cern.ch           |
#              |           michael.spira@psi.ch                     |
#              |           abdelhak.djouadi@cern.ch                 |
#              ------------------------------------------------------
#
#              ------------------------------------------------------
#              |  SUSY Les Houches Accord - MSSM Spectrum + Decays  |
#              |              based on the decay programs           |
#              |                                                    |
#              |                     SDECAY 1.3b                    |
#              |                                                    |
#              |  Authors: M.Muhlleitner, A.Djouadi and Y.Mambrini  |
#              |  Ref.:    Comput.Phys.Commun.168(2005)46           |
#              |           [hep-ph/0311167]                         |
#              |                                                    |
#              |                     HDECAY 3.4                     |
#              |                                                    |
#              |  By: A.Djouadi,J.Kalinowski,M.Muhlleitner,M.Spira  |
#              |  Ref.:    Comput.Phys.Commun.108(1998)56           |
#              |           [hep-ph/9704448]                         |
#              |                                                    |
#              |                                                    |
#              |  If not stated otherwise all DRbar couplings and   |
#              |  soft SUSY breaking masses are given at the scale  |
#              |  Q=  0.34907800E+04
#              |                                                    |
#              ------------------------------------------------------
#
#
BLOCK DCINFO  # Decay Program information
     1   SDECAY/HDECAY # decay calculator
     2   1.3b  /3.4    # version number
#
BLOCK SPINFO  # Spectrum calculator information
     1     SOFTSUSY    # spectrum calculator               
     2     3.4.0       # version number                    
#
BLOCK MODSEL  # Model selection
     1     0   #  nonUniversal                                     
#
BLOCK SMINPUTS  # Standard Model inputs
         1     1.27908970E+02   # alpha_em^-1(M_Z)^MSbar
         2     1.16637870E-05   # G_F [GeV^-2]
         3     1.18400000E-01   # alpha_S(M_Z)^MSbar
         4     9.11876000E+01   # M_Z pole mass
         5     4.18000000E+00   # mb(mb)^MSbar
         6     1.73200000E+02   # mt pole mass
         7     1.77700000E+00   # mtau pole mass
#
BLOCK MINPAR  # Input parameters - minimal models
         3     2.00900000E+01   # tanb                
#
BLOCK EXTPAR  # Input parameters - non-minimal models
         0    -1.00000000E+00   # Set                 
         1    -1.88931000E+03   # M_1(MX)             
         2     1.28400000E+02   # M_2(MX)             
         3     2.98132000E+03   # M_3(MX)             
        11    -8.04640000E+02   # At(MX)              
        12    -1.06565000E+03   # Ab(MX)              
        13    -7.22200000E+02   # Atau(MX)            
        23    -1.55750000E+02   # mu(MX)              
        26     2.51866000E+03   # mA(pole)            
        31     1.96149000E+03   # meL(MX)             
        32     1.96149000E+03   # mmuL(MX)            
        33     2.51695000E+03   # mtauL(MX)           
        34     2.36247000E+03   # meR(MX)             
        35     2.36247000E+03   # mmuR(MX)            
        36     2.14642000E+03   # mtauR(MX)           
        41     3.70808000E+03   # mqL1(MX)            
        42     3.70808000E+03   # mqL2(MX)            
        43     3.69532000E+03   # mqL3(MX)            
        44     1.76786000E+03   # muR(MX)             
        45     1.76786000E+03   # mcR(MX)             
        46     3.29287000E+03   # mtR(MX)             
        47     5.28990000E+02   # mdR(MX)             
        48     5.28990000E+02   # msR(MX)             
        49     3.44815000E+03   # mbR(MX)             
#
BLOCK MASS  # Mass Spectrum
# PDG code           mass       particle
        24     8.03893404E+01   # W+
        25     1.24924121E+02   # h
        35     2.51868394E+03   # H
        36     2.51865996E+03   # A
        37     2.52034171E+03   # H+
         5     4.81876030E+00   # b-quark pole mass calculated from mb(mb)_Msbar
   1000001     3.80407814E+03   # ~d_L
   2000001     8.46199847E+02   # ~d_R
   1000002     3.80338672E+03   # ~u_L
   2000002     1.92831730E+03   # ~u_R
   1000003     3.80407814E+03   # ~s_L
   2000003     8.46199847E+02   # ~s_R
   1000004     3.80338672E+03   # ~c_L
   2000004     1.92831730E+03   # ~c_R
   1000005     3.54131804E+03   # ~b_1
   2000005     3.76636108E+03   # ~b_2
   1000006     3.35369419E+03   # ~t_1
   2000006     3.76942683E+03   # ~t_2
   1000011     1.96650903E+03   # ~e_L
   2000011     2.37266242E+03   # ~e_R
   1000012     1.96457219E+03   # ~nu_eL
   1000013     1.96650903E+03   # ~mu_L
   2000013     2.37266242E+03   # ~mu_R
   1000014     1.96457219E+03   # ~nu_muL
   1000015     2.15383063E+03   # ~tau_1
   2000015     2.52073566E+03   # ~tau_2
   1000016     2.51914672E+03   # ~nu_tauL
   1000021     3.16741461E+03   # ~g
   1000022     1.05018387E+02   # ~chi_10
   1000023    -1.74469136E+02   # ~chi_20
   1000025     2.10525802E+02   # ~chi_30
   1000035    -1.85744792E+03   # ~chi_40
   1000024     1.08764986E+02   # ~chi_1+
   1000037     2.18068041E+02   # ~chi_2+
#
BLOCK NMIX  # Neutralino Mixing Matrix
  1  1     7.12235372E-03   # N_11
  1  2     7.31855133E-01   # N_12
  1  3     5.82346288E-01   # N_13
  1  4     3.53850445E-01   # N_14
  2  1     1.91552718E-02   # N_21
  2  2     1.90889420E-01   # N_22
  2  3    -6.73749134E-01   # N_23
  2  4     7.13622035E-01   # N_24
  3  1    -1.21216952E-02   # N_31
  3  2     6.54177660E-01   # N_32
  3  3    -4.54889409E-01   # N_33
  3  4    -6.04135977E-01   # N_34
  4  1     9.99717666E-01   # N_41
  4  2    -9.39592954E-04   # N_42
  4  3     3.24505701E-03   # N_43
  4  4    -2.35196647E-02   # N_44
#
BLOCK UMIX  # Chargino Mixing Matrix U
  1  1     6.50120215E-01   # U_11
  1  2     7.59831367E-01   # U_12
  2  1    -7.59831367E-01   # U_21
  2  2     6.50120215E-01   # U_22
#
BLOCK VMIX  # Chargino Mixing Matrix V
  1  1     8.83173568E-01   # V_11
  1  2    -4.69046318E-01   # V_12
  2  1    -4.69046318E-01   # V_21
  2  2    -8.83173568E-01   # V_22
#
BLOCK STOPMIX  # Stop Mixing Matrix
  1  1     5.02790117E-02   # cos(theta_t)
  1  2     9.98735211E-01   # sin(theta_t)
  2  1    -9.98735211E-01   # -sin(theta_t)
  2  2     5.02790117E-02   # cos(theta_t)
#
BLOCK SBOTMIX  # Sbottom Mixing Matrix
  1  1    -2.36071431E-03   # cos(theta_b)
  1  2     9.99997214E-01   # sin(theta_b)
  2  1    -9.99997214E-01   # -sin(theta_b)
  2  2    -2.36071431E-03   # cos(theta_b)
#
BLOCK STAUMIX  # Stau Mixing Matrix
  1  1    -2.44359462E-03   # cos(theta_tau)
  1  2     9.99997014E-01   # sin(theta_tau)
  2  1    -9.99997014E-01   # -sin(theta_tau)
  2  2    -2.44359462E-03   # cos(theta_tau)
#
BLOCK ALPHA  # Higgs mixing
          -5.22189538E-02   # Mixing angle in the neutral Higgs boson sector
#
BLOCK HMIX Q=  3.49078000E+03  # DRbar Higgs Parameters
         1    -1.58399380E+02   # mu(Q)MSSM           
         2     1.92018258E+01   # tan                 
         3     2.40322661E+02   # higgs               
         4     6.29567125E+06   # mA^2(Q)MSSM         
#
BLOCK GAUGE Q=  3.49078000E+03  # The gauge couplings
     1     3.65910495E-01   # gprime(Q) DRbar
     2     6.44957743E-01   # g(Q) DRbar
     3     1.00725867E+00   # g3(Q) DRbar
#
BLOCK AU Q=  3.49078000E+03  # The trilinear couplings
  1  1     0.00000000E+00   # A_u(Q) DRbar
  2  2     0.00000000E+00   # A_c(Q) DRbar
  3  3    -8.04639979E+02   # A_t(Q) DRbar
#
BLOCK AD Q=  3.49078000E+03  # The trilinear couplings
  1  1     0.00000000E+00   # A_d(Q) DRbar
  2  2     0.00000000E+00   # A_s(Q) DRbar
  3  3    -1.06564999E+03   # A_b(Q) DRbar
#
BLOCK AE Q=  3.49078000E+03  # The trilinear couplings
  1  1     0.00000000E+00   # A_e(Q) DRbar
  2  2     0.00000000E+00   # A_mu(Q) DRbar
  3  3    -7.22199999E+02   # A_tau(Q) DRbar
#
BLOCK Yu Q=  3.49078000E+03  # The Yukawa couplings
  1  1     0.00000000E+00   # y_u(Q) DRbar
  2  2     0.00000000E+00   # y_c(Q) DRbar
  3  3     8.25436696E-01   # y_t(Q) DRbar
#
BLOCK Yd Q=  3.49078000E+03  # The Yukawa couplings
  1  1     0.00000000E+00   # y_d(Q) DRbar
  2  2     0.00000000E+00   # y_s(Q) DRbar
  3  3     2.58643590E-01   # y_b(Q) DRbar
#
BLOCK Ye Q=  3.49078000E+03  # The Yukawa couplings
  1  1     0.00000000E+00   # y_e(Q) DRbar
  2  2     0.00000000E+00   # y_mu(Q) DRbar
  3  3     1.97314931E-01   # y_tau(Q) DRbar
#
BLOCK MSOFT Q=  3.49078000E+03  # The soft SUSY breaking masses at the scale Q
         1    -1.88931000E+03   # M_1(Q)              
         2     1.28400000E+02   # M_2(Q)              
         3     2.98132000E+03   # M_3(Q)              
        21     6.34477849E+06   # mH1^2(Q)            
        22     3.05255002E+05   # mH2^2(Q)            
        31     1.96149000E+03   # meL(Q)              
        32     1.96149000E+03   # mmuL(Q)             
        33     2.51695000E+03   # mtauL(Q)            
        34     2.36247000E+03   # meR(Q)              
        35     2.36247000E+03   # mmuR(Q)             
        36     2.14642000E+03   # mtauR(Q)            
        41     3.70807999E+03   # mqL1(Q)             
        42     3.70807999E+03   # mqL2(Q)             
        43     3.69531998E+03   # mqL3(Q)             
        44     1.76785998E+03   # muR(Q)              
        45     1.76785998E+03   # mcR(Q)              
        46     3.29286997E+03   # mtR(Q)              
        47     5.28989937E+02   # mdR(Q)              
        48     5.28989937E+02   # msR(Q)              
        49     3.44814999E+03   # mbR(Q)              
#
Block HiggsBoundsInputHiggsCouplingsFermions
# ScalarNormEffCoupSq PseudoSNormEffCoupSq NP   IP1 IP2 IP2
    1.00721662E+00    0.00000000E+00        3  25   5   5  # h0-b-b eff. coupling^2, normalised to SM
    3.68702897E+02    0.00000000E+00        3  35   5   5  # H0-b-b eff. coupling^2, normalised to SM
    0.00000000E+00    3.68710114E+02        3  36   5   5  # A0-b-b eff. coupling^2, normalised to SM
#
    9.99980427E-01    0.00000000E+00        3  25   6   6  # h0-t-t eff. coupling^2, normalised to SM
    2.73173037E-03    0.00000000E+00        3  35   6   6  # H0-t-t eff. coupling^2, normalised to SM
    0.00000000E+00    2.71215777E-03        3  36   6   6  # A0-t-t eff. coupling^2, normalised to SM
#
    1.00721662E+00    0.00000000E+00        3  25  15  15  # h0-tau-tau eff. coupling^2, normalised to SM
    3.68702897E+02    0.00000000E+00        3  35  15  15  # H0-tau-tau eff. coupling^2, normalised to SM
    0.00000000E+00    3.68710114E+02        3  36  15  15  # A0-tau-tau eff. coupling^2, normalised to SM
#
Block HiggsBoundsInputHiggsCouplingsBosons
    9.99999965E-01        3  25  24  24  # h0-W-W eff. coupling^2, normalised to SM
    3.51854767E-08        3  35  24  24  # H0-W-W eff. coupling^2, normalised to SM
    0.00000000E+00        3  36  24  24  # A0-W-W eff. coupling^2, normalised to SM
#
    9.99999965E-01        3  25  23  23  # h0-Z-Z eff. coupling^2, normalised to SM
    3.51854767E-08        3  35  23  23  # H0-Z-Z eff. coupling^2, normalised to SM
    0.00000000E+00        3  36  23  23  # A0-Z-Z eff. coupling^2, normalised to SM
#
    8.91975571E-01        3  25  21  21  # h0-g-g eff. coupling^2, normalised to SM
    9.88360782E-14        3  35  21  21  # H0-g-g eff. coupling^2, normalised to SM
    7.34437299E-12        3  36  21  21  # A0-g-g eff. coupling^2, normalised to SM
#
    0.00000000E+00        3  25  25  23  # h0-h0-Z eff. coupling^2, normalised to SM
    0.00000000E+00        3  35  25  23  # H0-h0-Z eff. coupling^2, normalised to SM
    3.51854767E-08        3  36  25  23  # A0-h0-Z eff. coupling^2, normalised to SM
    0.00000000E+00        3  35  35  23  # H0-H0-Z eff. coupling^2, normalised to SM
    9.99999965E-01        3  36  35  23  # A0-H0-Z eff. coupling^2, normalised to SM
    0.00000000E+00        3  36  36  23  # A0-A0-Z eff. coupling^2, normalised to SM
#
    0.00000000E+00        4  25  21  21  23  # h0-g-g-Z eff. coupling^2, normalised to SM
    0.00000000E+00        4  35  21  21  23  # H0-g-g-Z eff. coupling^2, normalised to SM
    0.00000000E+00        4  36  21  21  23  # A0-g-g-Z eff. coupling^2, normalised to SM
#
#
#
#                             =================
#                             |The decay table|
#                             =================
#
# - The QCD corrections to the decays gluino -> squark  + quark
#                                     squark -> gaugino + quark_prime
#                                     squark -> squark_prime + Higgs
#                                     squark -> gluino  + quark
#   are included.
#
# - The multi-body decays for the inos, stops and sbottoms are included.
#
# - The loop induced decays for the gluino, neutralinos and stops
#   are included.
#
# - The SUSY decays of the top quark are included.
#
#
#         PDG            Width
DECAY         6     1.46501204E+00   # top decays
#          BR         NDA      ID1       ID2
     1.00000000E+00    2           5        24   # BR(t ->  b    W+)
#
#         PDG            Width
DECAY   1000021     1.54570799E+02   # gluino decays
#          BR         NDA      ID1       ID2
     1.71311852E-01    2     2000001        -1   # BR(~g -> ~d_R  db)
     1.71311852E-01    2    -2000001         1   # BR(~g -> ~d_R* d )
     7.86881671E-02    2     2000002        -2   # BR(~g -> ~u_R  ub)
     7.86881671E-02    2    -2000002         2   # BR(~g -> ~u_R* u )
     1.71311852E-01    2     2000003        -3   # BR(~g -> ~s_R  sb)
     1.71311852E-01    2    -2000003         3   # BR(~g -> ~s_R* s )
     7.86881280E-02    2     2000004        -4   # BR(~g -> ~c_R  cb)
     7.86881280E-02    2    -2000004         4   # BR(~g -> ~c_R* c )
#
#         PDG            Width
DECAY   1000006     9.46945146E+01   # stop1 decays
#          BR         NDA      ID1       ID2
     6.66654283E-02    2     1000022         6   # BR(~t_1 -> ~chi_10 t )
     2.45382553E-01    2     1000023         6   # BR(~t_1 -> ~chi_20 t )
     1.62479196E-01    2     1000025         6   # BR(~t_1 -> ~chi_30 t )
     4.03202926E-02    2     1000035         6   # BR(~t_1 -> ~chi_40 t )
     1.21344929E-01    2     1000024         5   # BR(~t_1 -> ~chi_1+ b )
     3.55085148E-01    2     1000037         5   # BR(~t_1 -> ~chi_2+ b )
     8.72245272E-03    2     1000021         6   # BR(~t_1 -> ~g      t )
#
#         PDG            Width
DECAY   2000006     1.19464887E+02   # stop2 decays
#          BR         NDA      ID1       ID2
     1.16471141E-01    2     1000022         6   # BR(~t_2 -> ~chi_10 t )
     2.18001769E-01    2     1000023         6   # BR(~t_2 -> ~chi_20 t )
     2.19638113E-01    2     1000025         6   # BR(~t_2 -> ~chi_30 t )
     2.67677030E-03    2     1000035         6   # BR(~t_2 -> ~chi_40 t )
     2.13322873E-01    2     1000024         5   # BR(~t_2 -> ~chi_1+ b )
     8.91398692E-02    2     1000037         5   # BR(~t_2 -> ~chi_2+ b )
     1.35744554E-01    2     1000021         6   # BR(~t_2 -> ~g      t )
     1.87754060E-03    2     1000006        25   # BR(~t_2 -> ~t_1    h )
     3.12525570E-03    2     1000006        23   # BR(~t_2 -> ~t_1    Z )
     2.11411465E-06    2     1000005        24   # BR(~t_2 -> ~b_1    W+)
#
#         PDG            Width
DECAY   1000005     1.80903114E+01   # sbottom1 decays
#          BR         NDA      ID1       ID2
     8.91219166E-02    2     1000022         5   # BR(~b_1 -> ~chi_10 b )
     1.17469172E-01    2     1000023         5   # BR(~b_1 -> ~chi_20 b )
     5.28997562E-02    2     1000025         5   # BR(~b_1 -> ~chi_30 b )
     6.08533037E-02    2     1000035         5   # BR(~b_1 -> ~chi_40 b )
     1.50918236E-01    2    -1000024         6   # BR(~b_1 -> ~chi_1- t )
     1.07259723E-01    2    -1000037         6   # BR(~b_1 -> ~chi_2- t )
     4.21477874E-01    2     1000021         5   # BR(~b_1 -> ~g      b )
     1.79282502E-08    2     1000006       -24   # BR(~b_1 -> ~t_1    W-)
#
#         PDG            Width
DECAY   2000005     1.20602896E+02   # sbottom2 decays
#          BR         NDA      ID1       ID2
     8.27799165E-02    2     1000022         5   # BR(~b_2 -> ~chi_10 b )
     2.33417726E-02    2     1000023         5   # BR(~b_2 -> ~chi_20 b )
     6.39831260E-02    2     1000025         5   # BR(~b_2 -> ~chi_30 b )
     2.67241342E-03    2     1000035         5   # BR(~b_2 -> ~chi_40 b )
     2.00394173E-01    2    -1000024         6   # BR(~b_2 -> ~chi_1- t )
     4.76745464E-01    2    -1000037         6   # BR(~b_2 -> ~chi_2- t )
     1.44069280E-01    2     1000021         5   # BR(~b_2 -> ~g      b )
     1.47740224E-06    2     1000005        25   # BR(~b_2 -> ~b_1    h )
     9.66516466E-07    2     1000005        23   # BR(~b_2 -> ~b_1    Z )
     6.01141083E-03    2     1000006       -24   # BR(~b_2 -> ~t_1    W-)
#
#         PDG            Width
DECAY   1000002     7.17120434E+01   # sup_L decays
#          BR         NDA      ID1       ID2
     1.12084995E-01    2     1000022         2   # BR(~u_L -> ~chi_10 u)
     7.87082356E-03    2     1000023         2   # BR(~u_L -> ~chi_20 u)
     8.82536293E-02    2     1000025         2   # BR(~u_L -> ~chi_30 u)
     4.32810518E-03    2     1000035         2   # BR(~u_L -> ~chi_40 u)
     3.25225658E-01    2     1000024         1   # BR(~u_L -> ~chi_1+ d)
     9.13434212E-02    2     1000037         1   # BR(~u_L -> ~chi_2+ d)
     3.70893368E-01    2     1000021         2   # BR(~u_L -> ~g      u)
#
#         PDG            Width
DECAY   2000002     4.78029985E-02   # sup_R decays
#           BR         NDA      ID1       ID2
     4.82733785E-03    2     1000022         2   # BR(~u_R -> ~chi_10 u)
     3.45701592E-02    2     1000023         2   # BR(~u_R -> ~chi_20 u)
#           BR         NDA      ID1       ID2       ID3
     8.95927062E-02    3        2       -1        2000001   # BR(~u_R -> u  db  ~d_R)
     2.24693018E-01    3        2       1        -2000001   # BR(~u_R -> u  d  ~d_R*)
     9.00341011E-02    3        2       -3        2000003   # BR(~u_R -> u  sb  ~s_R)
     2.24400149E-01    3        2       3        -2000003   # BR(~u_R -> u  s  ~s_R*)
     1.57115668E-02    3        2       23        1000022   # BR(~u_R -> u  Z  ~chi_10)
     8.75154307E-03    3        2       25        1000022   # BR(~u_R -> u  h  ~chi_10)
     3.03119061E-02    3        2       23        1000023   # BR(~u_R -> u  Z  ~chi_20)
     5.28397816E-02    3        2       25        1000023   # BR(~u_R -> u  h  ~chi_20)
     3.49496905E-02    3        2       23        1000025   # BR(~u_R -> u  Z  ~chi_30)
     1.78999231E-02    3        2       25        1000025   # BR(~u_R -> u  h  ~chi_30)
     2.81823325E-02    3        2       -24        1000024   # BR(~u_R -> u  W-  ~chi_1+)
     2.89856294E-02    3        2       24        -1000024   # BR(~u_R -> u  W+  ~chi_1-)
     5.39275795E-02    3        2       -24        1000037   # BR(~u_R -> u  W-  ~chi_2+)
     6.03225758E-02    3        2       24        -1000037   # BR(~u_R -> u  W+  ~chi_2-)
#
#         PDG            Width
DECAY   1000001     7.17191294E+01   # sdown_L decays
#          BR         NDA      ID1       ID2
     1.11272503E-01    2     1000022         1   # BR(~d_L -> ~chi_10 d)
     7.29604730E-03    2     1000023         1   # BR(~d_L -> ~chi_20 d)
     8.95072610E-02    2     1000025         1   # BR(~d_L -> ~chi_30 d)
     4.41638008E-03    2     1000035         1   # BR(~d_L -> ~chi_40 d)
     1.76245314E-01    2    -1000024         2   # BR(~d_L -> ~chi_1- u)
     2.39727883E-01    2    -1000037         2   # BR(~d_L -> ~chi_2- u)
     3.71534613E-01    2     1000021         1   # BR(~d_L -> ~g      d)
#
#         PDG            Width
DECAY   2000001     2.69423831E-04   # sdown_R decays
#           BR         NDA      ID1       ID2
     9.54636982E-02    2     1000022         1   # BR(~d_R -> ~chi_10 d)
     6.53339563E-01    2     1000023         1   # BR(~d_R -> ~chi_20 d)
     2.51196739E-01    2     1000025         1   # BR(~d_R -> ~chi_30 d)
#
#         PDG            Width
DECAY   1000004     6.66260618E+01   # scharm_L decays
#          BR         NDA      ID1       ID2
     1.26786713E-01    2     1000022         4   # BR(~c_L -> ~chi_10 c)
     8.89921575E-03    2     1000023         4   # BR(~c_L -> ~chi_20 c)
     9.97621704E-02    2     1000025         4   # BR(~c_L -> ~chi_30 c)
     4.84727930E-03    2     1000035         4   # BR(~c_L -> ~chi_40 c)
     3.67875206E-01    2     1000024         3   # BR(~c_L -> ~chi_1+ s)
     1.03250086E-01    2     1000037         3   # BR(~c_L -> ~chi_2+ s)
     2.88579329E-01    2     1000021         4   # BR(~c_L -> ~g      c)
#
#         PDG            Width
DECAY   2000004     4.78276299E-02   # scharm_R decays
#           BR         NDA      ID1       ID2
     4.81386259E-03    2     1000022         4   # BR(~c_R -> ~chi_10 c)
     3.44559041E-02    2     1000023         4   # BR(~c_R -> ~chi_20 c)
#           BR         NDA      ID1       ID2       ID3
     8.93291182E-02    3        4       -1        2000001   # BR(~c_R -> c  db  ~d_R)
     2.25685446E-01    3        4       1        -2000001   # BR(~c_R -> c  d  ~d_R*)
     9.04644452E-02    3        4       -3        2000003   # BR(~c_R -> c  sb  ~s_R)
     2.25037286E-01    3        4       3        -2000003   # BR(~c_R -> c  s  ~s_R*)
     1.55514711E-02    3        4       23        1000022   # BR(~c_R -> c  Z  ~chi_10)
     8.74201797E-03    3        4       25        1000022   # BR(~c_R -> c  h  ~chi_10)
     2.99429431E-02    3        4       23        1000023   # BR(~c_R -> c  Z  ~chi_20)
     5.29212927E-02    3        4       25        1000023   # BR(~c_R -> c  h  ~chi_20)
     3.49275096E-02    3        4       23        1000025   # BR(~c_R -> c  Z  ~chi_30)
     1.75306617E-02    3        4       25        1000025   # BR(~c_R -> c  h  ~chi_30)
     2.80967299E-02    3        4       -24        1000024   # BR(~c_R -> c  W-  ~chi_1+)
     2.91191515E-02    3        4       24        -1000024   # BR(~c_R -> c  W+  ~chi_1-)
     5.41716160E-02    3        4       -24        1000037   # BR(~c_R -> c  W-  ~chi_2+)
     5.92105444E-02    3        4       24        -1000037   # BR(~c_R -> c  W+  ~chi_2-)
#
#         PDG            Width
DECAY   1000003     6.66095979E+01   # sstrange_L decays
#          BR         NDA      ID1       ID2
     1.25910876E-01    2     1000022         3   # BR(~s_L -> ~chi_10 s)
     8.25217352E-03    2     1000023         3   # BR(~s_L -> ~chi_20 s)
     1.01214037E-01    2     1000025         3   # BR(~s_L -> ~chi_30 s)
     4.94785521E-03    2     1000035         3   # BR(~s_L -> ~chi_40 s)
     1.99426193E-01    2    -1000024         4   # BR(~s_L -> ~chi_1- c)
     2.71069492E-01    2    -1000037         4   # BR(~s_L -> ~chi_2- c)
     2.89179373E-01    2     1000021         3   # BR(~s_L -> ~g      s)
#
#         PDG            Width
DECAY   2000003     2.57895909E-04   # sstrange_R decays
#           BR         NDA      ID1       ID2
     9.55125823E-02    2     1000022         3   # BR(~s_R -> ~chi_10 s)
     6.53342579E-01    2     1000023         3   # BR(~s_R -> ~chi_20 s)
     2.51144839E-01    2     1000025         3   # BR(~s_R -> ~chi_30 s)
#
#         PDG            Width
DECAY   1000011     2.40715060E+01   # selectron_L decays
#          BR         NDA      ID1       ID2
     1.82015119E-01    2     1000022        11   # BR(~e_L -> ~chi_10 e-)
     1.35440492E-02    2     1000023        11   # BR(~e_L -> ~chi_20 e-)
     1.38406022E-01    2     1000025        11   # BR(~e_L -> ~chi_30 e-)
     1.26048950E-03    2     1000035        11   # BR(~e_L -> ~chi_40 e-)
     2.83995568E-01    2    -1000024        12   # BR(~e_L -> ~chi_1- nu_e)
     3.80778752E-01    2    -1000037        12   # BR(~e_L -> ~chi_2- nu_e)
#
#         PDG            Width
DECAY   2000011     1.90042822E+00   # selectron_R decays
#          BR         NDA      ID1       ID2
     3.36076464E-04    2     1000022        11   # BR(~e_R -> ~chi_10 e-)
     2.41413576E-03    2     1000023        11   # BR(~e_R -> ~chi_20 e-)
     9.61956942E-04    2     1000025        11   # BR(~e_R -> ~chi_30 e-)
     9.96287831E-01    2     1000035        11   # BR(~e_R -> ~chi_40 e-)
#
#         PDG            Width
DECAY   1000013     2.40715059E+01   # smuon_L decays
#          BR         NDA      ID1       ID2
     1.82015118E-01    2     1000022        13   # BR(~mu_L -> ~chi_10 mu-)
     1.35440491E-02    2     1000023        13   # BR(~mu_L -> ~chi_20 mu-)
     1.38406022E-01    2     1000025        13   # BR(~mu_L -> ~chi_30 mu-)
     1.26048888E-03    2     1000035        13   # BR(~mu_L -> ~chi_40 mu-)
     2.83995569E-01    2    -1000024        14   # BR(~mu_L -> ~chi_1- nu_mu)
     3.80778753E-01    2    -1000037        14   # BR(~mu_L -> ~chi_2- nu_mu)
#
#         PDG            Width
DECAY   2000013     1.90042817E+00   # smuon_R decays
#          BR         NDA      ID1       ID2
     3.36076472E-04    2     1000022        13   # BR(~mu_R -> ~chi_10 mu-)
     2.41413582E-03    2     1000023        13   # BR(~mu_R -> ~chi_20 mu-)
     9.61956964E-04    2     1000025        13   # BR(~mu_R -> ~chi_30 mu-)
     9.96287831E-01    2     1000035        13   # BR(~mu_R -> ~chi_40 mu-)
#
#         PDG            Width
DECAY   1000015     4.05807036E+00   # stau_1 decays
#          BR         NDA      ID1       ID2
     1.40859098E-01    2     1000022        15   # BR(~tau_1 -> ~chi_10  tau-)
     1.84635102E-01    2     1000023        15   # BR(~tau_1 -> ~chi_20  tau-)
     8.24890667E-02    2     1000025        15   # BR(~tau_1 -> ~chi_30  tau-)
     1.85601726E-01    2     1000035        15   # BR(~tau_1 -> ~chi_40  tau-)
     2.39371172E-01    2    -1000024        16   # BR(~tau_1 -> ~chi_1-  nu_tau)
     1.67043836E-01    2    -1000037        16   # BR(~tau_1 -> ~chi_2-  nu_tau)
#
#         PDG            Width
DECAY   2000015     3.36418428E+01   # stau_2 decays
#          BR         NDA      ID1       ID2
     1.86656682E-01    2     1000022        15   # BR(~tau_2 -> ~chi_10  tau-)
     3.86747400E-02    2     1000023        15   # BR(~tau_2 -> ~chi_20  tau-)
     1.40124352E-01    2     1000025        15   # BR(~tau_2 -> ~chi_30  tau-)
     2.07631783E-02    2     1000035        15   # BR(~tau_2 -> ~chi_40  tau-)
     2.60643607E-01    2    -1000024        16   # BR(~tau_2 -> ~chi_1-  nu_tau)
     3.53103923E-01    2    -1000037        16   # BR(~tau_2 -> ~chi_2-  nu_tau)
     1.68155894E-05    2     1000015        25   # BR(~tau_2 -> ~tau_1   h)
     1.67012062E-05    2     1000015        23   # BR(~tau_2 -> ~tau_1   Z)
#
#         PDG            Width
DECAY   1000012     2.41339256E+01   # snu_eL decays
#          BR         NDA      ID1       ID2
     1.77401918E-01    2     1000022        12   # BR(~nu_eL -> ~chi_10 nu_e)
     1.07442387E-02    2     1000023        12   # BR(~nu_eL -> ~chi_20 nu_e)
     1.43828661E-01    2     1000025        12   # BR(~nu_eL -> ~chi_30 nu_e)
     1.22341013E-03    2     1000035        12   # BR(~nu_eL -> ~chi_40 nu_e)
     5.22225927E-01    2     1000024        11   # BR(~nu_eL -> ~chi_1+ e-)
     1.44575845E-01    2     1000037        11   # BR(~nu_eL -> ~chi_2+ e-)
#
#         PDG            Width
DECAY   1000014     2.41339255E+01   # snu_muL decays
#          BR         NDA      ID1       ID2
     1.77401918E-01    2     1000022        14   # BR(~nu_muL -> ~chi_10 nu_mu)
     1.07442387E-02    2     1000023        14   # BR(~nu_muL -> ~chi_20 nu_mu)
     1.43828662E-01    2     1000025        14   # BR(~nu_muL -> ~chi_30 nu_mu)
     1.22341014E-03    2     1000035        14   # BR(~nu_muL -> ~chi_40 nu_mu)
     5.22225926E-01    2     1000024        13   # BR(~nu_muL -> ~chi_1+ mu-)
     1.44575845E-01    2     1000037        13   # BR(~nu_muL -> ~chi_2+ mu-)
#
#         PDG            Width
DECAY   1000016     3.36830414E+01   # snu_tauL decays
#          BR         NDA      ID1       ID2
     1.63356047E-01    2     1000022        16   # BR(~nu_tauL -> ~chi_10 nu_tau)
     9.93296881E-03    2     1000023        16   # BR(~nu_tauL -> ~chi_20 nu_tau)
     1.33349761E-01    2     1000025        16   # BR(~nu_tauL -> ~chi_30 nu_tau)
     2.08000313E-02    2     1000035        16   # BR(~nu_tauL -> ~chi_40 nu_tau)
     5.14292069E-01    2     1000024        15   # BR(~nu_tauL -> ~chi_1+ tau-)
     1.58236350E-01    2     1000037        15   # BR(~nu_tauL -> ~chi_2+ tau-)
     3.27727065E-05    2    -1000015       -24   # BR(~nu_tauL -> ~tau_1+ W-)
#
#         PDG            Width
DECAY   1000024     1.96412988E-09   # chargino1+ decays
#           BR         NDA      ID1       ID2       ID3
     3.59905166E-01    3     1000022         2        -1   # BR(~chi_1+ -> ~chi_10 u    db)
     3.59905166E-01    3     1000022         4        -3   # BR(~chi_1+ -> ~chi_10 c    sb)
     1.20074117E-01    3     1000022       -11        12   # BR(~chi_1+ -> ~chi_10 e+   nu_e)
     1.20074117E-01    3     1000022       -13        14   # BR(~chi_1+ -> ~chi_10 mu+  nu_mu)
     4.00414357E-02    3     1000022       -15        16   # BR(~chi_1+ -> ~chi_10 tau+ nu_tau)
#
#         PDG            Width
DECAY   1000037     2.07445096E-01   # chargino2+ decays
#          BR         NDA      ID1       ID2
     2.80324782E-01    2     1000024        23   # BR(~chi_2+ -> ~chi_1+  Z )
     7.19675218E-01    2     1000022        24   # BR(~chi_2+ -> ~chi_10  W+)
#
#         PDG            Width
DECAY   1000022     0.00000000E+00   # neutralino1 decays
#
#         PDG            Width
DECAY   1000023     2.14864188E-03   # neutralino2 decays
#          BR         NDA      ID1       ID2
     3.89256995E-06    2     1000022        22   # BR(~chi_20 -> ~chi_10 gam)
#           BR         NDA      ID1       ID2       ID3
     3.20375830E-02    3     1000022        -2         2   # BR(~chi_20 -> ~chi_10 ub      u)
     4.15264264E-02    3     1000022        -1         1   # BR(~chi_20 -> ~chi_10 db      d)
     3.20375830E-02    3     1000022        -4         4   # BR(~chi_20 -> ~chi_10 cb      c)
     4.15264264E-02    3     1000022        -3         3   # BR(~chi_20 -> ~chi_10 sb      s)
     3.96063438E-02    3     1000022        -5         5   # BR(~chi_20 -> ~chi_10 bb      b)
     9.50870429E-03    3     1000022       -11        11   # BR(~chi_20 -> ~chi_10 e+      e-)
     9.50870429E-03    3     1000022       -13        13   # BR(~chi_20 -> ~chi_10 mu+     mu-)
     9.45283851E-03    3     1000022       -15        15   # BR(~chi_20 -> ~chi_10 tau+    tau-)
     1.90260507E-02    3     1000022       -12        12   # BR(~chi_20 -> ~chi_10 nu_eb   nu_e)
     1.90260507E-02    3     1000022       -14        14   # BR(~chi_20 -> ~chi_10 nu_mub  nu_mu)
     1.90221385E-02    3     1000022       -16        16   # BR(~chi_20 -> ~chi_10 nu_taub nu_tau)
     1.21319347E-01    3     1000024        -2         1   # BR(~chi_20 -> ~chi_1+ ub      d)
     1.21319347E-01    3    -1000024        -1         2   # BR(~chi_20 -> ~chi_1- db      u)
     1.21319347E-01    3     1000024        -4         3   # BR(~chi_20 -> ~chi_1+ cb      s)
     1.21319347E-01    3    -1000024        -3         4   # BR(~chi_20 -> ~chi_1- sb      c)
     4.04521634E-02    3     1000024       -12        11   # BR(~chi_20 -> ~chi_1+ nu_eb   e-)
     4.04521634E-02    3    -1000024        12       -11   # BR(~chi_20 -> ~chi_1- nu_e    e+)
     4.04521634E-02    3     1000024       -14        13   # BR(~chi_20 -> ~chi_1+ nu_mub  mu-)
     4.04521634E-02    3    -1000024        14       -13   # BR(~chi_20 -> ~chi_1- nu_mu   mu+)
     4.03156084E-02    3     1000024       -16        15   # BR(~chi_20 -> ~chi_1+ nu_taub tau-)
     4.03156084E-02    3    -1000024        16       -15   # BR(~chi_20 -> ~chi_1- nu_tau  tau+)
#
#         PDG            Width
DECAY   1000025     3.01663024E-01   # neutralino3 decays
#          BR         NDA      ID1       ID2
     1.24063378E-02    2     1000022        23   # BR(~chi_30 -> ~chi_10   Z )
     4.93796831E-01    2     1000024       -24   # BR(~chi_30 -> ~chi_1+   W-)
     4.93796831E-01    2    -1000024        24   # BR(~chi_30 -> ~chi_1-   W+)
#
#         PDG            Width
DECAY   1000035     8.83984265E+00   # neutralino4 decays
#          BR         NDA      ID1       ID2
     2.46070114E-02    2     1000022        23   # BR(~chi_40 -> ~chi_10   Z )
     4.95423052E-02    2     1000023        23   # BR(~chi_40 -> ~chi_20   Z )
     5.63319960E-02    2     1000025        23   # BR(~chi_40 -> ~chi_30   Z )
     3.48020698E-02    2     1000024       -24   # BR(~chi_40 -> ~chi_1+   W-)
     3.48020698E-02    2    -1000024        24   # BR(~chi_40 -> ~chi_1-   W+)
     9.25029009E-02    2     1000037       -24   # BR(~chi_40 -> ~chi_2+   W-)
     9.25029009E-02    2    -1000037        24   # BR(~chi_40 -> ~chi_2-   W+)
     1.53878289E-02    2     1000022        25   # BR(~chi_40 -> ~chi_10   h )
     9.41456937E-02    2     1000023        25   # BR(~chi_40 -> ~chi_20   h )
     3.28378170E-02    2     1000025        25   # BR(~chi_40 -> ~chi_30   h )
     1.18134352E-01    2     2000001        -1   # BR(~chi_40 -> ~d_R      db)
     1.18134352E-01    2    -2000001         1   # BR(~chi_40 -> ~d_R*     d )
     1.18134352E-01    2     2000003        -3   # BR(~chi_40 -> ~s _R      sb)
     1.18134352E-01    2    -2000003         3   # BR(~chi_40 -> ~s _R*     s )
#
#         PDG            Width
DECAY        25     4.02100033E-03   # h decays
#          BR         NDA      ID1       ID2
     5.96863444E-01    2           5        -5   # BR(h -> b       bb     )
     6.47738570E-02    2         -15        15   # BR(h -> tau+    tau-   )
     2.29276572E-04    2         -13        13   # BR(h -> mu+     mu-    )
     2.50312869E-04    2           3        -3   # BR(h -> s       sb     )
     2.15582399E-02    2           4        -4   # BR(h -> c       cb     )
     7.93499484E-02    2          21        21   # BR(h -> g       g      )
     2.29690900E-03    2          22        22   # BR(h -> gam     gam    )
     1.54286683E-03    2          22        23   # BR(h -> Z       gam    )
     2.07292416E-01    2          24       -24   # BR(h -> W+      W-     )
     2.58427299E-02    2          23        23   # BR(h -> Z       Z      )
#
#         PDG            Width
DECAY        35     4.51442549E+01   # H decays
#          BR         NDA      ID1       ID2
     2.38595485E-01    2           5        -5   # BR(H -> b       bb     )
     4.27024751E-02    2         -15        15   # BR(H -> tau+    tau-   )
     1.51085642E-04    2         -13        13   # BR(H -> mu+     mu-    )
     9.89935493E-05    2           3        -3   # BR(H -> s       sb     )
     6.40329384E-08    2           4        -4   # BR(H -> c       cb     )
     6.26283289E-03    2           6        -6   # BR(H -> t       tb     )
     2.67586080E-06    2          21        21   # BR(H -> g       g      )
     6.49160827E-08    2          22        22   # BR(H -> gam     gam    )
     3.18782506E-09    2          23        22   # BR(H -> Z       gam    )
     3.99392135E-06    2          24       -24   # BR(H -> W+      W-     )
     1.99145416E-06    2          23        23   # BR(H -> Z       Z      )
     1.58069551E-05    2          25        25   # BR(H -> h       h      )
     2.20275030E-01    2     1000024  -1000024   # BR(H -> ~chi_1+ ~chi_1-)
     5.21291856E-02    2     1000037  -1000037   # BR(H -> ~chi_2+ ~chi_2-)
     9.67788075E-02    2     1000024  -1000037   # BR(H -> ~chi_1+ ~chi_2-)
     9.67788075E-02    2     1000037  -1000024   # BR(H -> ~chi_2+ ~chi_1-)
     8.93744102E-02    2     1000022   1000022   # BR(H -> ~chi_10 ~chi_10)
     6.05936008E-03    2     1000023   1000023   # BR(H -> ~chi_20 ~chi_20)
     4.67233659E-02    2     1000025   1000025   # BR(H -> ~chi_30 ~chi_30)
     2.94954383E-02    2     1000022   1000023   # BR(H -> ~chi_10 ~chi_20)
     4.21580210E-04    2     1000022   1000025   # BR(H -> ~chi_10 ~chi_30)
     5.63817798E-03    2     1000022   1000035   # BR(H -> ~chi_10 ~chi_40)
     6.02509271E-02    2     1000023   1000025   # BR(H -> ~chi_20 ~chi_30)
     4.22838584E-03    2     1000023   1000035   # BR(H -> ~chi_20 ~chi_40)
     4.01083937E-03    2     1000025   1000035   # BR(H -> ~chi_30 ~chi_40)
     1.05935529E-07    2     2000001  -2000001   # BR(H -> ~d_R    ~d_R*  )
     1.05935529E-07    2     2000003  -2000003   # BR(H -> ~s_R    ~s_R*  )
#
#         PDG            Width
DECAY        36     4.51475568E+01   # A decays
#          BR         NDA      ID1       ID2
     2.38599517E-01    2           5        -5   # BR(A -> b       bb     )
     4.26998657E-02    2         -15        15   # BR(A -> tau+    tau-   )
     1.51076109E-04    2         -13        13   # BR(A -> mu+     mu-    )
     9.90063157E-05    2           3        -3   # BR(A -> s       sb     )
     6.41560967E-08    2           4        -4   # BR(A -> c       cb     )
     6.29665859E-03    2           6        -6   # BR(A -> t       tb     )
     2.30638164E-05    2          21        21   # BR(A -> g       g      )
     4.14518971E-08    2          22        22   # BR(A -> gam     gam    )
     1.95601669E-08    2          23        22   # BR(A -> Z       gam    )
     4.04009649E-06    2          23        25   # BR(A -> Z       h      )
     2.01836277E-01    2     1000024  -1000024   # BR(A -> ~chi_1+ ~chi_1-)
     3.38829158E-02    2     1000037  -1000037   # BR(A -> ~chi_2+ ~chi_2-)
     1.15114684E-01    2     1000024  -1000037   # BR(A -> ~chi_1+ ~chi_2-)
     1.15114684E-01    2     1000037  -1000024   # BR(A -> ~chi_2+ ~chi_1-)
     7.92738673E-02    2     1000022   1000022   # BR(A -> ~chi_10 ~chi_10)
     7.70761193E-03    2     1000023   1000023   # BR(A -> ~chi_20 ~chi_20)
     3.64140813E-02    2     1000025   1000025   # BR(A -> ~chi_30 ~chi_30)
     4.00147167E-02    2     1000022   1000023   # BR(A -> ~chi_10 ~chi_20)
     9.65124175E-04    2     1000022   1000025   # BR(A -> ~chi_10 ~chi_30)
     3.73498743E-03    2     1000022   1000035   # BR(A -> ~chi_10 ~chi_40)
     6.79310624E-02    2     1000023   1000025   # BR(A -> ~chi_20 ~chi_30)
     8.37972012E-03    2     1000023   1000035   # BR(A -> ~chi_20 ~chi_40)
     1.75691636E-03    2     1000025   1000035   # BR(A -> ~chi_30 ~chi_40)
#
#         PDG            Width
DECAY        37     4.49755498E+01   # H+ decays
#          BR         NDA      ID1       ID2
     3.98177884E-04    2           4        -5   # BR(H+ -> c       bb     )
     4.28917899E-02    2         -15        16   # BR(H+ -> tau+    nu_tau )
     1.51755154E-04    2         -13        14   # BR(H+ -> mu+     nu_mu  )
     3.98177130E-06    2           2        -5   # BR(H+ -> u       bb     )
     4.96996207E-06    2           2        -3   # BR(H+ -> u       sb     )
     9.78856845E-05    2           4        -3   # BR(H+ -> c       sb     )
     2.42558458E-01    2           6        -5   # BR(H+ -> t       bb     )
     4.06732669E-06    2          24        25   # BR(H+ -> W+      h      )
     3.93418595E-13    2          24        36   # BR(H+ -> W+      A      )
     1.36931124E-04    2     1000024   1000022   # BR(H+ -> ~chi_1+ ~chi_10)
     1.39811246E-01    2     1000024   1000023   # BR(H+ -> ~chi_1+ ~chi_20)
     1.93522313E-01    2     1000024   1000025   # BR(H+ -> ~chi_1+ ~chi_30)
     7.98272051E-03    2     1000024   1000035   # BR(H+ -> ~chi_1+ ~chi_40)
     2.83936781E-01    2     1000037   1000022   # BR(H+ -> ~chi_2+ ~chi_10)
     8.15265734E-02    2     1000037   1000023   # BR(H+ -> ~chi_2+ ~chi_20)
     1.07853007E-03    2     1000037   1000025   # BR(H+ -> ~chi_2+ ~chi_30)
     5.89381956E-03    2     1000037   1000035   # BR(H+ -> ~chi_2+ ~chi_40)

DECAY         5   0.000000e+00 # b decays
DECAY        15   0.000000e+00 # tau decays
DECAY        23     2.49520000E+00   # Z
DECAY        24     2.08500000E+00   # W
