# SUSY Les Houches Accord 2 - MSSM spectrum + Decays
# SPheno v4.0.5be
# W. Porod, Comput. Phys. Commun. 153 (2003) 275-315, hep-ph/0301101;
# W. Porod, F.~Staub, Comput. Phys. Commun. 183 (2012) 2458
#                     arXiv:1104.1573 [hep-ph] 
# in case of problems send email to porod@physik.uni-wuerzburg.de
# Created: 15.05.2022,  19:29
Block SPINFO         # Program information
     1   SPheno      # spectrum calculator
     2   v4.0.5be    # version number
#
Block SPhenoINFO     # SPheno specific information
    1      2         # using 2-loop RGEs
    2      2         # using pole masses for boundary conditions at mZ
Block MODSEL  # Model selection
    1    0    # general MSSM
Block MINPAR  # Input parameters
    3    5.57133786E+01  # tanb at m_Z    
    4    1.00000000E+00  # Sign(mu)
Block EXTPAR  # non-universal input parameters
    0    3.34408500E+03  # scale for input parameters
    1   -1.57801957E+02  # M_1
    2    7.24736423E+02  # M_2
    3    4.29079496E+03  # M_3
   11   -6.07509195E+03  # A_t
   12   -4.23024185E+02  # A_b
   13    1.79077810E+03  # A_tau
   23    1.92828044E+03  # mu
   25    5.52421012E+01  # tan(beta)
   26    3.04364183E+02  # m_A, pole mass
   31    6.71506793E+02  # M_L11
   32    6.71506793E+02  # M_L22
   33    8.38468284E+02  # M_L33
   34    4.88175360E+02  # M_E11
   35    4.88175360E+02  # M_E22
   36    5.51036249E+02  # M_E33
   41    1.00000000E+04  # M_Q11
   42    1.00000000E+04  # M_Q22
   43    3.62848805E+03  # M_Q33
   44    1.00000000E+04  # M_U11
   45    1.00000000E+04  # M_U22
   46    3.01114351E+03  # M_U33
   47    1.00000000E+04  # M_D11
   48    1.00000000E+04  # M_D22
   49    2.35246346E+03  # M_D33
Block SMINPUTS  # SM parameters
         1     1.27908970E+02  # alpha_em^-1(MZ)^MSbar
         2     1.16637870E-05  # G_mu [GeV^-2]
         3     1.18400000E-01  # alpha_s(MZ)^MSbar
         4     9.11876000E+01  # m_Z(pole)
         5     4.18000000E+00  # m_b(m_b), MSbar
         6     1.73200000E+02  # m_t(pole)
         7     1.77700000E+00  # m_tau(pole)
         8     0.00000000E+00  # m_nu_3
        11     5.10998930E-04  # m_e(pole)
        12     0.00000000E+00  # m_nu_1
        13     1.05658372E-01  # m_muon(pole)
        14     0.00000000E+00  # m_nu_2
        21     5.00000000E-03  # m_d(2 GeV), MSbar
        22     2.50000000E-03  # m_u(2 GeV), MSbar
        23     9.50000000E-02  # m_s(2 GeV), MSbar
        24     1.27000000E+00  # m_c(m_c), MSbar
Block gauge Q=  3.34408500E+03  # (SUSY scale)
   1    3.55362975E-01  # g'(Q)^DRbar
   2    6.65198874E-01  # g(Q)^DRbar
   3    1.21977796E+00  # g3(Q)^DRbar
Block Yu Q=  3.34408500E+03  # (SUSY scale)
  1  1     8.38574575E-06   # Y_u(Q)^DRbar
  2  2     4.25995884E-03   # Y_c(Q)^DRbar
  3  3     1.01306544E+00   # Y_t(Q)^DRbar
Block Yd Q=  3.34408500E+03  # (SUSY scale)
  1  1     9.30876630E-04   # Y_d(Q)^DRbar
  2  2     1.76866560E-02   # Y_s(Q)^DRbar
  3  3     9.23137922E-01   # Y_b(Q)^DRbar
Block Ye Q=  3.34408500E+03  # (SUSY scale)
  1  1     1.62444779E-04   # Y_e(Q)^DRbar
  2  2     3.35884282E-02   # Y_mu(Q)^DRbar
  3  3     5.64902107E-01   # Y_tau(Q)^DRbar
Block Au Q=  3.34408500E+03  # (SUSY scale)
  1  1     0.00000000E+00   # A_u(Q)^DRbar
  2  2     0.00000000E+00   # A_c(Q)^DRbar
  3  3    -6.07509184E+03   # A_t(Q)^DRbar
Block Ad Q=  3.34408500E+03  # (SUSY scale)
  1  1     0.00000000E+00   # A_d(Q)^DRbar
  2  2     0.00000000E+00   # A_s(Q)^DRbar
  3  3    -4.23024170E+02   # A_b(Q)^DRbar
Block Ae Q=  3.34408500E+03  # (SUSY scale)
  1  1     0.00000000E+00   # A_e(Q)^DRbar
  2  2     0.00000000E+00   # A_mu(Q)^DRbar
  3  3     1.79077804E+03   # A_tau(Q)^DRbar
Block MSOFT Q=  3.34408500E+03  # soft SUSY breaking masses at Q
   1   -1.57801957E+02  # M_1
   2    7.24736423E+02  # M_2
   3    4.29079496E+03  # M_3
  21   -3.49611021E+06  # M^2_(H,d)
  22   -3.51200542E+06  # M^2_(H,u)
  31    6.71506793E+02  # M_(L,11)
  32    6.71506793E+02  # M_(L,22)
  33    8.38468284E+02  # M_(L,33)
  34    4.88175360E+02  # M_(E,11)
  35    4.88175360E+02  # M_(E,22)
  36    5.51036249E+02  # M_(E,33)
  41    1.00000000E+04  # M_(Q,11)
  42    1.00000000E+04  # M_(Q,22)
  43    3.62848805E+03  # M_(Q,33)
  44    1.00000000E+04  # M_(U,11)
  45    1.00000000E+04  # M_(U,22)
  46    3.01114351E+03  # M_(U,33)
  47    1.00000000E+04  # M_(D,11)
  48    1.00000000E+04  # M_(D,22)
  49    2.35246346E+03  # M_(D,33)
Block MASS  # Mass spectrum
#   PDG code      mass          particle
         6     1.73200000E+02  # m_t(pole)
        23     9.11876000E+01  # m_Z(pole)
        24     8.04299946E+01  # W+
        15     1.77700000E+00  # m_tau(pole)
        25     1.25666577E+02  # h0
        35     3.03635593E+02  # H0
        36     3.04364183E+02  # A0
        37     3.24244023E+02  # H+
   1000001     1.00897418E+04  # ~d_L
   2000001     1.00653137E+04  # ~d_R
   1000002     1.00893812E+04  # ~u_L
   2000002     1.00685712E+04  # ~u_R
   1000003     1.00897530E+04  # ~s_L
   2000003     1.00653290E+04  # ~s_R
   1000004     1.00893906E+04  # ~c_L
   2000004     1.00685723E+04  # ~c_R
   1000005     2.47781312E+03  # ~b_1
   2000005     3.67869921E+03  # ~b_2
   1000006     3.02019045E+03  # ~t_1
   2000006     3.70271501E+03  # ~t_2
   1000011     6.86303495E+02  # ~e_L-
   2000011     4.94577726E+02  # ~e_R-
   1000012     6.81391372E+02  # ~nu_eL
   1000013     6.86816656E+02  # ~mu_L-
   2000013     4.93725352E+02  # ~mu_R-
   1000014     6.81321396E+02  # ~nu_muL
   1000015     3.86904410E+02  # ~tau_1-
   2000015     8.63539926E+02  # ~tau_2-
   1000016     8.06531674E+02  # ~nu_tauL
   1000021     4.71913687E+03  # ~g
   1000022     1.55600810E+02  # ~chi_10
   1000023     7.66996973E+02  # ~chi_20
   1000025     1.92627917E+03  # ~chi_30
   1000035     1.92767857E+03  # ~chi_40
   1000024     7.67108743E+02  # ~chi_1+
   1000037     1.92878805E+03  # ~chi_2+
# Higgs mixing
Block alpha # Effective Higgs mixing angle
          -1.86472904E-02   # alpha
Block Hmix Q=  3.34408500E+03  # Higgs mixing parameters
   1    1.92828044E+03  # mu
   2    5.52421012E+01  # tan[beta](Q)
   3    2.43123392E+02  # v(Q)
   4    9.26375559E+04  # m^2_A(Q)
Block stopmix # stop mixing matrix
   1  1     1.90235814E-01   # Re[R_st(1,1)]
   1  2     9.81738425E-01   # Re[R_st(1,2)]
   2  1    -9.81738425E-01   # Re[R_st(2,1)]
   2  2     1.90235814E-01   # Re[R_st(2,2)]
Block sbotmix # sbottom mixing matrix
   1  1     2.78190042E-02   # Re[R_sb(1,1)]
   1  2     9.99612977E-01   # Re[R_sb(1,2)]
   2  1    -9.99612977E-01   # Re[R_sb(2,1)]
   2  2     2.78190042E-02   # Re[R_sb(2,2)]
Block staumix # stau mixing matrix
   1  1     3.78219579E-01   # Re[R_sta(1,1)]
   1  2     9.25715912E-01   # Re[R_sta(1,2)]
   2  1    -9.25715912E-01   # Re[R_sta(2,1)]
   2  2     3.78219579E-01   # Re[R_sta(2,2)]
Block Nmix # neutralino mixing matrix
   1  1     9.99722855E-01   # Re[N(1,1)]
   1  2     7.26083858E-05   # Re[N(1,2)]
   1  3     2.34991862E-02   # Re[N(1,3)]
   1  4     1.41309186E-03   # Re[N(1,4)]
   2  1    -1.04876985E-03   # Re[N(2,1)]
   2  2    -9.98599572E-01   # Re[N(2,2)]
   2  3     4.89137109E-02   # Re[N(2,3)]
   2  4    -2.01306862E-02   # Re[N(2,4)]
   3  1     1.76081825E-02   # Re[N(3,1)]
   3  2    -2.03690596E-02   # Re[N(3,2)]
   3  3    -7.06513989E-01   # Re[N(3,3)]
   3  4    -7.07186706E-01   # Re[N(3,4)]
   4  1    -1.55905690E-02   # Re[N(4,1)]
   4  2     4.88261374E-02   # Re[N(4,2)]
   4  3     7.05615491E-01   # Re[N(4,3)]
   4  4    -7.06738793E-01   # Re[N(4,4)]
Block Umix # chargino mixing matrix
   1  1    -9.97589447E-01   # Re[U(1,1)]
   1  2     6.93923332E-02   # Re[U(1,2)]
   2  1     6.93923332E-02   # Re[U(2,1)]
   2  2     9.97589447E-01   # Re[U(2,2)]
Block Vmix # chargino mixing matrix
   1  1    -9.99586290E-01   # Re[V(1,1)]
   1  2     2.87619179E-02   # Re[V(1,2)]
   2  1     2.87619179E-02   # Re[V(2,1)]
   2  2     9.99586290E-01   # Re[V(2,2)]
DECAY        23     2.49520000E+00   # Z
DECAY        24     2.08500000E+00   # W
DECAY   2000011     2.01634843E+00   # ~e^-_R
#    BR                NDA      ID1      ID2
     1.00000000E+00    2     1000022        11   # BR(~e^-_R -> chi^0_1 e^-)
#    BR                NDA      ID1      ID2       ID3
DECAY   1000011     7.75535197E-01   # ~e^-_L
#    BR                NDA      ID1      ID2
     9.99999332E-01    2     1000022        11   # BR(~e^-_L -> chi^0_1 e^-)
#    BR                NDA      ID1      ID2       ID3
DECAY   2000013     2.01134913E+00   # ~mu^-_R
#    BR                NDA      ID1      ID2
     1.00000000E+00    2     1000022        13   # BR(~mu^-_R -> chi^0_1 mu^-)
DECAY   1000013     7.98404298E-01   # ~mu^-_L
#    BR                NDA      ID1      ID2
     9.72249511E-01    2     1000022        13   # BR(~mu^-_L -> chi^0_1 mu^-)
     2.77504787E-02    2     2000013        25   # BR(~mu^-_L -> ~mu^-_R h^0)
#    BR                NDA      ID1      ID2       ID3
DECAY   1000015     1.23418752E+00   # ~tau^-_1
#    BR                NDA      ID1      ID2
     1.00000000E+00    2     1000022        15   # BR(~tau^-_1 -> chi^0_1 tau^-)
DECAY   2000015     3.08650327E+01   # ~tau^-_2
#    BR                NDA      ID1      ID2
     4.58411912E-02    2     1000022        15   # BR(~tau^-_2 -> chi^0_1 tau^-)
     4.47818472E-03    2     1000023        15   # BR(~tau^-_2 -> chi^0_2 tau^-)
     8.89433652E-03    2    -1000024        16   # BR(~tau^-_2 -> chi^-_1 nu_tau)
     4.16729485E-01    2     1000015        23   # BR(~tau^-_2 -> ~tau^-_1 Z)
     2.36742287E-01    2     1000015        36   # BR(~tau^-_2 -> ~tau^-_1 A^0)
     1.66286029E-01    2     1000015        25   # BR(~tau^-_2 -> ~tau^-_1 h^0)
     1.20987453E-01    2     1000015        35   # BR(~tau^-_2 -> ~tau^-_1 H^0)
#    BR                NDA      ID1      ID2       ID3
DECAY   1000012     7.68358917E-01   # ~nu_e
#    BR                NDA      ID1      ID2
     1.00000000E+00    2     1000022        12   # BR(~nu_e -> chi^0_1 nu_e)
DECAY   1000014     7.68262644E-01   # ~nu_mu
#    BR                NDA      ID1      ID2
     1.00000000E+00    2     1000022        14   # BR(~nu_mu -> chi^0_1 nu_mu)
DECAY   1000016     3.34818437E+01   # ~nu_tau
#    BR                NDA      ID1      ID2
     2.80253785E-02    2     1000022        16   # BR(~nu_tau -> chi^0_1 nu_tau)
     9.65897455E-04    2     1000023        16   # BR(~nu_tau -> chi^0_2 nu_tau)
     1.92177802E-03    2     1000024        15   # BR(~nu_tau -> chi^+_1 tau^-)
     6.53463814E-01    2     1000015        24   # BR(~nu_tau -> ~tau^-_1 W^+)
     3.15623132E-01    2     1000015        37   # BR(~nu_tau -> ~tau^-_1 H^+)
DECAY   2000001     4.89204807E+02   # ~d_R
#    BR                NDA      ID1      ID2
     1.14749349E-02    2     1000022         1   # BR(~d_R -> chi^0_1 d)
     9.88518498E-01    2     1000021         1   # BR(~d_R -> ~g d)
DECAY   1000001     6.19152182E+02   # ~d_L
#    BR                NDA      ID1      ID2
     2.27029858E-03    2     1000022         1   # BR(~d_L -> chi^0_1 d)
     7.06760488E-02    2     1000023         1   # BR(~d_L -> chi^0_2 d)
     1.77437728E-04    2     1000035         1   # BR(~d_L -> chi^0_4 d)
     1.41118575E-01    2    -1000024         2   # BR(~d_L -> chi^-_1 u)
     6.41214171E-04    2    -1000037         2   # BR(~d_L -> chi^-_2 u)
     7.85079505E-01    2     1000021         1   # BR(~d_L -> ~g d)
DECAY   2000003     4.89322342E+02   # ~s_R
#    BR                NDA      ID1      ID2
     1.14722665E-02    2     1000022         3   # BR(~s_R -> chi^0_1 s)
     1.18212254E-04    2    -1000037         4   # BR(~s_R -> chi^-_2 c)
     9.88284250E-01    2     1000021         3   # BR(~s_R -> ~g s)
DECAY   1000003     6.19215003E+02   # ~s_L
#    BR                NDA      ID1      ID2
     2.27012658E-03    2     1000022         3   # BR(~s_L -> chi^0_1 s)
     7.06691969E-02    2     1000023         3   # BR(~s_L -> chi^0_2 s)
     2.24162201E-04    2     1000035         3   # BR(~s_L -> chi^0_4 s)
     1.41104416E-01    2    -1000024         4   # BR(~s_L -> chi^-_1 c)
     6.46612581E-04    2    -1000037         4   # BR(~s_L -> chi^-_2 c)
     7.85001702E-01    2     1000021         3   # BR(~s_L -> ~g s)
DECAY   1000005     1.43022285E+01   # ~b_1
#    BR                NDA      ID1      ID2
     9.84908748E-02    2     1000022         5   # BR(~b_1 -> chi^0_1 b)
     9.54759414E-03    2     1000023         5   # BR(~b_1 -> chi^0_2 b)
     2.29132782E-01    2     1000025         5   # BR(~b_1 -> chi^0_3 b)
     2.27283032E-01    2     1000035         5   # BR(~b_1 -> chi^0_4 b)
     1.89295745E-02    2    -1000024         6   # BR(~b_1 -> chi^-_1 t)
     4.16616142E-01    2    -1000037         6   # BR(~b_1 -> chi^-_2 t)
DECAY   2000005     1.70624607E+02   # ~b_2
#    BR                NDA      ID1      ID2
     3.07279926E-03    2     1000022         5   # BR(~b_2 -> chi^0_1 b)
     8.68128243E-02    2     1000023         5   # BR(~b_2 -> chi^0_2 b)
     9.62744526E-02    2     1000025         5   # BR(~b_2 -> chi^0_3 b)
     9.61417462E-02    2     1000035         5   # BR(~b_2 -> chi^0_4 b)
     1.70940590E-01    2    -1000024         6   # BR(~b_2 -> chi^-_1 t)
     2.32497286E-01    2    -1000037         6   # BR(~b_2 -> chi^-_2 t)
     2.43051700E-01    2     1000006       -24   # BR(~b_2 -> ~t_1 W^-)
     2.92892072E-02    2     1000006       -37   # BR(~b_2 -> ~t_1 H^-)
     1.24039288E-02    2     1000005        23   # BR(~b_2 -> ~b_1 Z)
     1.07345216E-03    2     1000005        36   # BR(~b_2 -> ~b_1 A^0)
     2.73773259E-02    2     1000005        25   # BR(~b_2 -> ~b_1 h^0)
     1.06468808E-03    2     1000005        35   # BR(~b_2 -> ~b_1 H^0)
DECAY   2000002     5.06394097E+02   # ~u_R
#    BR                NDA      ID1      ID2
     4.43560598E-02    2     1000022         2   # BR(~u_R -> chi^0_1 u)
     9.55621099E-01    2     1000021         2   # BR(~u_R -> ~g u)
DECAY   1000002     6.19133972E+02   # ~u_L
#    BR                NDA      ID1      ID2
     2.27399081E-03    2     1000022         2   # BR(~u_L -> chi^0_1 u)
     7.07284329E-02    2     1000023         2   # BR(~u_L -> chi^0_2 u)
     1.41201643E-04    2     1000035         2   # BR(~u_L -> chi^0_4 u)
     1.41683072E-01    2     1000024         1   # BR(~u_L -> chi^+_1 d)
     1.10416219E-04    2     1000037         1   # BR(~u_L -> chi^+_2 d)
     7.85043108E-01    2     1000021         2   # BR(~u_L -> ~g u)
DECAY   2000004     5.06400927E+02   # ~c_R
#    BR                NDA      ID1      ID2
     4.43554647E-02    2     1000022         4   # BR(~c_R -> chi^0_1 c)
     9.55608371E-01    2     1000021         4   # BR(~c_R -> ~g c)
DECAY   1000004     6.19196549E+02   # ~c_L
#    BR                NDA      ID1      ID2
     2.27376304E-03    2     1000022         4   # BR(~c_L -> chi^0_1 c)
     7.07213514E-02    2     1000023         4   # BR(~c_L -> chi^0_2 c)
     1.43917373E-04    2     1000035         4   # BR(~c_L -> chi^0_4 c)
     1.41669368E-01    2     1000024         3   # BR(~c_L -> chi^+_1 s)
     2.03822512E-04    2     1000037         3   # BR(~c_L -> chi^+_2 s)
     7.84965271E-01    2     1000021         4   # BR(~c_L -> ~g c)
DECAY   1000006     4.99969637E+01   # ~t_1
#    BR                NDA      ID1      ID2
     1.28627591E-01    2     1000022         6   # BR(~t_1 -> chi^0_1 t)
     2.24590530E-03    2     1000023         4   # BR(~t_1 -> chi^0_2 c)
     1.24794244E-02    2     1000023         6   # BR(~t_1 -> chi^0_2 t)
     2.04251801E-01    2     1000025         6   # BR(~t_1 -> chi^0_3 t)
     1.99904726E-01    2     1000035         6   # BR(~t_1 -> chi^0_4 t)
     2.54522759E-02    2     1000024         5   # BR(~t_1 -> chi^+_1 b)
     4.25910667E-01    2     1000037         5   # BR(~t_1 -> chi^+_2 b)
     3.54717876E-04    2     1000005        24   # BR(~t_1 -> ~b_1 W^+)
     6.67238802E-04    2     1000005        37   # BR(~t_1 -> ~b_1 H^+)
#    BR                NDA      ID1      ID2       ID3
DECAY   2000006     1.79120600E+02   # ~t_2
#    BR                NDA      ID1      ID2
     4.45445548E-03    2     1000022         6   # BR(~t_2 -> chi^0_1 t)
     7.84271214E-02    2     1000023         6   # BR(~t_2 -> chi^0_2 t)
     1.13182317E-01    2     1000025         6   # BR(~t_2 -> chi^0_3 t)
     1.15978883E-01    2     1000035         6   # BR(~t_2 -> chi^0_4 t)
     1.59281641E-01    2     1000024         5   # BR(~t_2 -> chi^+_1 b)
     1.88371312E-01    2     1000037         5   # BR(~t_2 -> chi^+_2 b)
     2.40542031E-02    2     1000005        24   # BR(~t_2 -> ~b_1 W^+)
     2.44584700E-03    2     1000005        37   # BR(~t_2 -> ~b_1 H^+)
     1.22681663E-01    2     1000006        23   # BR(~t_2 -> ~t_1 Z)
     1.52245722E-02    2     1000006        36   # BR(~t_2 -> ~t_1 A^0)
     1.62839951E-01    2     1000006        25   # BR(~t_2 -> ~t_1 h^0)
     1.30580348E-02    2     1000006        35   # BR(~t_2 -> ~t_1 H^0)
DECAY   1000024     9.23064188E-01   # chi^+_1
#    BR                NDA      ID1      ID2
     1.44997633E-01    2    -1000011        12   # BR(chi^+_1 -> ~e^+_L nu_e)
     1.43262951E-01    2    -1000013        14   # BR(chi^+_1 -> ~mu^+_L nu_mu)
     3.79264192E-01    2    -1000015        16   # BR(chi^+_1 -> ~tau^+_1 nu_tau)
     1.62710581E-01    2     1000012       -11   # BR(chi^+_1 -> ~nu_e e^+)
     1.62963986E-01    2     1000014       -13   # BR(chi^+_1 -> ~nu_mu mu^+)
     3.46326979E-04    2     1000022        24   # BR(chi^+_1 -> chi^0_1 W^+)
     5.89867668E-03    2          37   1000022   # BR(chi^+_1 -> H^+ chi^0_1)
#    BR                NDA      ID1      ID2       ID3
     5.36061663E-04    3     1000022       -15        16   # BR(chi^+_1 -> chi^0_1 tau^+ nu_tau)
DECAY   1000037     3.59905804E+01   # chi^+_2
#    BR                NDA      ID1      ID2
     8.66442130E-04    2    -1000011        12   # BR(chi^+_2 -> ~e^+_L nu_e)
     5.22654824E-04    2    -2000013        14   # BR(chi^+_2 -> ~mu^+_R nu_mu)
     8.66066373E-04    2    -1000013        14   # BR(chi^+_2 -> ~mu^+_L nu_mu)
     1.24842520E-01    2    -1000015        16   # BR(chi^+_2 -> ~tau^+_1 nu_tau)
     2.23120951E-02    2    -2000015        16   # BR(chi^+_2 -> ~tau^+_2 nu_tau)
     1.49478082E-04    2     1000012       -11   # BR(chi^+_2 -> ~nu_e e^+)
     6.07886106E-04    2     1000014       -13   # BR(chi^+_2 -> ~nu_mu mu^+)
     1.15383190E-01    2     1000016       -15   # BR(chi^+_2 -> ~nu_tau tau^+)
     3.67091769E-02    2     1000022        24   # BR(chi^+_2 -> chi^0_1 W^+)
     1.14495591E-01    2     1000023        24   # BR(chi^+_2 -> chi^0_2 W^+)
     3.11471054E-02    2          37   1000022   # BR(chi^+_2 -> H^+ chi^0_1)
     1.04551419E-01    2          37   1000023   # BR(chi^+_2 -> H^+ chi^0_2)
     1.13068162E-01    2     1000024        23   # BR(chi^+_2 -> chi^+_1 Z)
     1.04846508E-01    2     1000024        36   # BR(chi^+_2 -> chi^+_1 A^0)
     1.15711168E-01    2     1000024        25   # BR(chi^+_2 -> chi^+_1 h^0)
     1.04225701E-01    2     1000024        35   # BR(chi^+_2 -> chi^+_1 H^0)
#    BR                NDA      ID1      ID2       ID3
     4.56661045E-03    3     1000024         6        -6   # BR(chi^+_2 -> chi^+_1 t t_bar)
     1.34230779E-03    3     1000022        -5         6   # BR(chi^+_2 -> chi^0_1 b_bar t)
     3.75244769E-03    3     1000023        -5         6   # BR(chi^+_2 -> chi^0_2 b_bar t)
DECAY   1000022     0.00000000E+00   # chi^0_1
DECAY   1000023     9.23637872E-01   # chi^0_2
#    BR                NDA      ID1      ID2
     7.25016890E-02    2     1000011       -11   # BR(chi^0_2 -> ~e^-_L e^+)
     7.25016890E-02    2    -1000011        11   # BR(chi^0_2 -> ~e^+_L e^-)
     7.16345653E-02    2     1000013       -13   # BR(chi^0_2 -> ~mu^-_L mu^+)
     7.16345653E-02    2    -1000013        13   # BR(chi^0_2 -> ~mu^+_L mu^-)
     1.90390418E-01    2     1000015       -15   # BR(chi^0_2 -> ~tau^-_1 tau^+)
     1.90390418E-01    2    -1000015        15   # BR(chi^0_2 -> ~tau^+_1 tau^-)
     8.08649217E-02    2     1000012       -12   # BR(chi^0_2 -> ~nu_e nu_bar_e)
     8.08649217E-02    2    -1000012        12   # BR(chi^0_2 -> ~nu^*_e nu_e)
     8.09893512E-02    2     1000014       -14   # BR(chi^0_2 -> ~nu_mu nu_bar_mu)
     8.09893512E-02    2    -1000014        14   # BR(chi^0_2 -> ~nu^*_mu nu_mu)
     2.06864030E-04    2     1000022        23   # BR(chi^0_2 -> chi^0_1 Z)
     1.69604116E-03    2     1000022        36   # BR(chi^0_2 -> chi^0_1 A^0)
     2.54072467E-04    2     1000022        25   # BR(chi^0_2 -> chi^0_1 h^0)
     4.52015888E-03    2     1000022        35   # BR(chi^0_2 -> chi^0_1 H^0)
#    BR                NDA      ID1      ID2       ID3
     2.00769350E-04    3     1000022        15       -15   # BR(chi^0_2 -> chi^0_1 tau^- tau^+)
     3.39491962E-04    3     1000022        12       -12   # BR(chi^0_2 -> chi^0_1 nu_e nu_bar_e)
DECAY   1000025     3.91280179E+01   # chi^0_3
#    BR                NDA      ID1      ID2
     2.74183025E-04    2     2000013       -13   # BR(chi^0_3 -> ~mu^-_R mu^+)
     2.74183025E-04    2    -2000013        13   # BR(chi^0_3 -> ~mu^+_R mu^-)
     2.20021665E-04    2     1000013       -13   # BR(chi^0_3 -> ~mu^-_L mu^+)
     2.20021665E-04    2    -1000013        13   # BR(chi^0_3 -> ~mu^+_L mu^-)
     7.01952399E-02    2     1000015       -15   # BR(chi^0_3 -> ~tau^-_1 tau^+)
     7.01952399E-02    2    -1000015        15   # BR(chi^0_3 -> ~tau^+_1 tau^-)
     5.09527035E-02    2     2000015       -15   # BR(chi^0_3 -> ~tau^-_2 tau^+)
     5.09527035E-02    2    -2000015        15   # BR(chi^0_3 -> ~tau^+_2 tau^-)
     1.05043020E-01    2     1000024       -24   # BR(chi^0_3 -> chi^+_1 W^-)
     1.05043020E-01    2    -1000024        24   # BR(chi^0_3 -> chi^-_1 W^+)
     1.00212779E-01    2          37  -1000024   # BR(chi^0_3 -> H^+ chi^-_1)
     1.00212779E-01    2         -37   1000024   # BR(chi^0_3 -> H^- chi^+_1)
     1.48516250E-02    2     1000022        23   # BR(chi^0_3 -> chi^0_1 Z)
     8.88152332E-02    2     1000023        23   # BR(chi^0_3 -> chi^0_2 Z)
     1.17552425E-02    2     1000022        36   # BR(chi^0_3 -> chi^0_1 A^0)
     1.40646063E-02    2     1000023        36   # BR(chi^0_3 -> chi^0_2 A^0)
     1.71220440E-02    2     1000022        25   # BR(chi^0_3 -> chi^0_1 h^0)
     8.48466633E-02    2     1000023        25   # BR(chi^0_3 -> chi^0_2 h^0)
     1.76441148E-02    2     1000022        35   # BR(chi^0_3 -> chi^0_1 H^0)
     8.66753523E-02    2     1000023        35   # BR(chi^0_3 -> chi^0_2 H^0)
#    BR                NDA      ID1      ID2       ID3
     7.76084760E-04    3     1000022         6        -6   # BR(chi^0_3 -> chi^0_1 t t_bar)
     1.87922300E-03    3     1000023         6        -6   # BR(chi^0_3 -> chi^0_2 t t_bar)
     3.60372212E-03    3     1000024         5        -6   # BR(chi^0_3 -> chi^+_1 b t_bar)
     3.60372212E-03    3    -1000024        -5         6   # BR(chi^0_3 -> chi^-_1 b_bar t)
DECAY   1000035     3.58683044E+01   # chi^0_4
#    BR                NDA      ID1      ID2
     1.47923879E-04    2     1000011       -11   # BR(chi^0_4 -> ~e^-_L e^+)
     1.47923879E-04    2    -1000011        11   # BR(chi^0_4 -> ~e^+_L e^-)
     2.90817423E-04    2     2000013       -13   # BR(chi^0_4 -> ~mu^-_R mu^+)
     2.90817423E-04    2    -2000013        13   # BR(chi^0_4 -> ~mu^+_R mu^-)
     3.76696416E-04    2     1000013       -13   # BR(chi^0_4 -> ~mu^-_L mu^+)
     3.76696416E-04    2    -1000013        13   # BR(chi^0_4 -> ~mu^+_L mu^-)
     7.46881445E-02    2     1000015       -15   # BR(chi^0_4 -> ~tau^-_1 tau^+)
     7.46881445E-02    2    -1000015        15   # BR(chi^0_4 -> ~tau^+_1 tau^-)
     5.68425506E-02    2     2000015       -15   # BR(chi^0_4 -> ~tau^-_2 tau^+)
     5.68425506E-02    2    -2000015        15   # BR(chi^0_4 -> ~tau^+_2 tau^-)
     2.95851473E-04    2     1000012       -12   # BR(chi^0_4 -> ~nu_e nu_bar_e)
     2.95851473E-04    2    -1000012        12   # BR(chi^0_4 -> ~nu^*_e nu_e)
     2.95868826E-04    2     1000014       -14   # BR(chi^0_4 -> ~nu_mu nu_bar_mu)
     2.95868826E-04    2    -1000014        14   # BR(chi^0_4 -> ~nu^*_mu nu_mu)
     2.62938920E-04    2     1000016       -16   # BR(chi^0_4 -> ~nu_tau nu_bar_tau)
     2.62938920E-04    2    -1000016        16   # BR(chi^0_4 -> ~nu^*_tau nu_tau)
     1.11655782E-01    2     1000024       -24   # BR(chi^0_4 -> chi^+_1 W^-)
     1.11655782E-01    2    -1000024        24   # BR(chi^0_4 -> chi^-_1 W^+)
     1.04135012E-01    2          37  -1000024   # BR(chi^0_4 -> H^+ chi^-_1)
     1.04135012E-01    2         -37   1000024   # BR(chi^0_4 -> H^- chi^+_1)
     2.06121652E-02    2     1000022        23   # BR(chi^0_4 -> chi^0_1 Z)
     1.67980958E-02    2     1000023        23   # BR(chi^0_4 -> chi^0_2 Z)
     1.37215517E-02    2     1000022        36   # BR(chi^0_4 -> chi^0_1 A^0)
     1.64317411E-02    2     1000023        36   # BR(chi^0_4 -> chi^0_2 A^0)
     2.01193406E-02    2     1000022        25   # BR(chi^0_4 -> chi^0_1 h^0)
     9.91387285E-02    2     1000023        25   # BR(chi^0_4 -> chi^0_2 h^0)
     1.77644211E-02    2     1000022        35   # BR(chi^0_4 -> chi^0_1 H^0)
     8.72332656E-02    2     1000023        35   # BR(chi^0_4 -> chi^0_2 H^0)
#    BR                NDA      ID1      ID2       ID3
     8.09496097E-04    3     1000022         6        -6   # BR(chi^0_4 -> chi^0_1 t t_bar)
     1.96920416E-03    3     1000023         6        -6   # BR(chi^0_4 -> chi^0_2 t t_bar)
     3.65719130E-03    3     1000024         5        -6   # BR(chi^0_4 -> chi^+_1 b t_bar)
     3.65719130E-03    3    -1000024        -5         6   # BR(chi^0_4 -> chi^-_1 b_bar t)
DECAY   1000021     1.63420958E+02   # ~g
#    BR                NDA      ID1      ID2
     1.44142262E-03    2     1000006        -4   # BR(~g -> ~t_1 c_bar)
     1.44142262E-03    2    -1000006         4   # BR(~g -> ~t^*_1 c)
     1.41625459E-01    2     1000006        -6   # BR(~g -> ~t_1 t_bar)
     1.41625459E-01    2    -1000006         6   # BR(~g -> ~t^*_1 t)
     6.68622283E-02    2     2000006        -6   # BR(~g -> ~t_2 t_bar)
     6.68622283E-02    2    -2000006         6   # BR(~g -> ~t^*_2 t)
     2.24188310E-01    2     1000005        -5   # BR(~g -> ~b_1 b_bar)
     2.24188310E-01    2    -1000005         5   # BR(~g -> ~b^*_1 b)
     6.58020639E-02    2     2000005        -5   # BR(~g -> ~b_2 b_bar)
     6.58020639E-02    2    -2000005         5   # BR(~g -> ~b^*_2 b)
#    BR                NDA      ID1      ID2       ID3
DECAY        25     3.77786324E-03   # Gamma(h0)
     2.49844927E-03   2        22        22   # BR(h0 -> photon photon)
     1.62846021E-03   2        22        23   # BR(h0 -> photon Z)
     3.08543478E-02   2        23        23   # BR(h0 -> Z Z)
     2.51561050E-01   2       -24        24   # BR(h0 -> W W)
     7.52777356E-02   2        21        21   # BR(h0 -> gluon gluon)
     4.98909667E-09   2       -11        11   # BR(h0 -> Electron electron)
     2.21911455E-04   2       -13        13   # BR(h0 -> Muon muon)
     6.33569595E-02   2       -15        15   # BR(h0 -> Tau tau)
     1.30845393E-07   2        -2         2   # BR(h0 -> Up up)
     2.53947278E-02   2        -4         4   # BR(h0 -> Charm charm)
     5.66158821E-07   2        -1         1   # BR(h0 -> Down down)
     2.04775068E-04   2        -3         3   # BR(h0 -> Strange strange)
     5.49000882E-01   2        -5         5   # BR(h0 -> Bottom bottom)
DECAY        35     1.22721386E+01   # Gamma(HH)
     2.05932162E-07   2        22        22   # BR(HH -> photon photon)
     5.00783363E-08   2        22        23   # BR(HH -> photon Z)
     1.08858375E-07   2        23        23   # BR(HH -> Z Z)
     2.43331336E-07   2       -24        24   # BR(HH -> W W)
     3.47599142E-04   2        21        21   # BR(HH -> gluon gluon)
     1.48589776E-08   2       -11        11   # BR(HH -> Electron electron)
     6.61146783E-04   2       -13        13   # BR(HH -> Muon muon)
     1.83572347E-01   2       -15        15   # BR(HH -> Tau tau)
     2.09905203E-14   2        -2         2   # BR(HH -> Up up)
     4.06915946E-09   2        -4         4   # BR(HH -> Charm charm)
     9.71078534E-07   2        -1         1   # BR(HH -> Down down)
     3.51438169E-04   2        -3         3   # BR(HH -> Strange strange)
     8.15043636E-01   2        -5         5   # BR(HH -> Bottom bottom)
     2.22340592E-05   2        25        25   # BR(HH -> h0 h0)
DECAY        36     1.22363983E+01   # Gamma(A0)
     1.86720948E-07   2        22        22   # BR(A0 -> photon photon)
     3.23101176E-08   2        22        23   # BR(A0 -> photon Z)
     3.42816048E-04   2        21        21   # BR(A0 -> gluon gluon)
     1.48613416E-08   2       -11        11   # BR(A0 -> Electron electron)
     6.61252747E-04   2       -13        13   # BR(A0 -> Muon muon)
     1.83604513E-01   2       -15        15   # BR(A0 -> Tau tau)
     1.77211088E-14   2        -2         2   # BR(A0 -> Up up)
     3.45307957E-09   2        -4         4   # BR(A0 -> Charm charm)
     9.70876038E-07   2        -1         1   # BR(A0 -> Down down)
     3.51364898E-04   2        -3         3   # BR(A0 -> Strange strange)
     8.15038719E-01   2        -5         5   # BR(A0 -> Bottom bottom)
     1.25628044E-07   2        23        25   # BR(A0 -> Z h0)
     5.39145174E-35   2        25        25   # BR(A0 -> h0 h0)
DECAY        37     8.24329710E+00   # Gamma(Hp)
     2.01906678E-08   2       -11        12   # BR(Hp -> Electron nu_e)
     8.63213928E-04   2       -13        14   # BR(Hp -> Muon nu_mu)
     2.44151540E-01   2       -15        16   # BR(Hp -> Tau nu_tau)
     1.58963047E-06   2        -1         2   # BR(Hp -> Down up)
     2.60187893E-05   2        -3         2   # BR(Hp -> Strange up)
     1.50281216E-05   2        -5         2   # BR(Hp -> Bottom up)
     7.23332641E-08   2        -1         4   # BR(Hp -> Down charm)
     5.73207455E-04   2        -3         4   # BR(Hp -> Strange charm)
     2.10441084E-03   2        -5         4   # BR(Hp -> Bottom charm)
     2.20701436E-08   2        -1         6   # BR(Hp -> Down top)
     9.03720520E-07   2        -3         6   # BR(Hp -> Strange top)
     7.52262612E-01   2        -5         6   # BR(Hp -> Bottom top)
     2.97350133E-07   2        24        25   # BR(Hp -> W h0)
     5.79093630E-07   2        24        35   # BR(Hp -> W HH)
     4.84088664E-07   2        24        36   # BR(Hp -> W A0)
DECAY         6     2.43000000E+00   # top
#    BR                NDA      ID1      ID2
     1.00000000E+00    2           5        24   # BR(t -> b W)
Block HiggsBoundsInputHiggsCouplingsFermions
# ScalarNormEffCoupSq PseudoSNormEffCoupSq NP IP1 IP2 IP2
    1.06136264E+00    0.00000000E+00        3  25   5   5  # h0-b-b eff. coupling^2, normalised to SM
    3.05162838E+03    0.00000000E+00        3  35   5   5  # H0-b-b eff. coupling^2, normalised to SM
    0.00000000E+00    3.05168974E+03        3  36   5   5  # A0-b-b eff. coupling^2, normalised to SM
#
    9.99979892E-01    0.00000000E+00        3  25   6   6  # h0-t-t eff. coupling^2, normalised to SM
    3.47795068E-04    0.00000000E+00        3  35   6   6  # H0-t-t eff. coupling^2, normalised to SM
    0.00000000E+00    3.27687309E-04        3  36   6   6  # A0-t-t eff. coupling^2, normalised to SM
#
    1.06136264E+00    0.00000000E+00        3  25  15  15  # h0-tau-tau eff. coupling^2, normalised to SM
    3.05162838E+03    0.00000000E+00        3  35  15  15  # H0-tau-tau eff. coupling^2, normalised to SM
    0.00000000E+00    3.05168974E+03        3  36  15  15  # A0-tau-tau eff. coupling^2, normalised to SM
#
Block HiggsBoundsInputHiggsCouplingsBosons
    9.99999701E-01        3  25  24  24  # h0-W-W eff. coupling^2, normalised to SM
    2.99353192E-07        3  35  24  24  # H0-W-W eff. coupling^2, normalised to SM
    0.00000000E+00        3  36  24  24  # A0-W-W eff. coupling^2, normalised to SM
#
    9.99999701E-01        3  25  23  23  # h0-Z-Z eff. coupling^2, normalised to SM
    2.99353192E-07        3  35  23  23  # H0-Z-Z eff. coupling^2, normalised to SM
    0.00000000E+00        3  36  23  23  # A0-Z-Z eff. coupling^2, normalised to SM
#
    1.25417306E+00        3  25  21  21  # h0-g-g eff. coupling^2, normalised to SM
    1.03210865E+00        3  35  21  21  # H0-g-g eff. coupling^2, normalised to SM
    5.75331565E-01        3  36  21  21  # A0-g-g eff. coupling^2, normalised to SM
#
    0.00000000E+00        3  25  25  23  # h0-h0-Z eff. coupling^2, normalised to SM
    0.00000000E+00        3  35  25  23  # H0-h0-Z eff. coupling^2, normalised to SM
    2.99353192E-07        3  36  25  23  # A0-h0-Z eff. coupling^2, normalised to SM
    0.00000000E+00        3  35  35  23  # H0-H0-Z eff. coupling^2, normalised to SM
    9.99999701E-01        3  36  35  23  # A0-H0-Z eff. coupling^2, normalised to SM
    0.00000000E+00        3  36  36  23  # A0-A0-Z eff. coupling^2, normalised to SM
#
    0.00000000E+00        4  25  21  21  23  # h0-g-g-Z eff. coupling^2, normalised to SM
    0.00000000E+00        4  35  21  21  23  # H0-g-g-Z eff. coupling^2, normalised to SM
    0.00000000E+00        4  36  21  21  23  # A0-g-g-Z eff. coupling^2, normalised to SM
Block SPhenoLowEnergy  # low energy observables
    1    4.40810738E-04   # BR(b -> s gamma)
    2    1.59314384E-06   # BR(b -> s mu+ mu-)
    3    3.52683407E-05   # BR(b -> s nu nu)
    4    3.02137017E-15   # BR(Bd -> e+ e-)
    5    1.29058283E-10   # BR(Bd -> mu+ mu-)
    6    2.63761867E-08   # BR(Bd -> tau+ tau-)
    7    1.00517525E-13   # BR(Bs -> e+ e-)
    8    4.29375539E-09   # BR(Bs -> mu+ mu-)
    9    8.90484269E-07   # BR(Bs -> tau+ tau-)
   10    2.41762725E-05   # BR(B_u -> tau nu)
   11    2.49731639E-01   # BR(B_u -> tau nu)/BR(B_u -> tau nu)_SM
   12    5.41138845E-01   # |Delta(M_Bd)| [ps^-1] 
   13    1.90427294E+01   # |Delta(M_Bs)| [ps^-1] 
   14    0.00000000E+00   # neutron EDM according to the chiral quark model
   15    0.00000000E+00   # neutron EDM according to the relativistic quark-parton model
   16    2.15623122E-03   # epsilon_K
   17    2.28184452E-15   # Delta(M_K)
   18    2.48074571E-11   # BR(K^0 -> pi^0 nu nu)
   19    8.29227256E-11   # BR(K^+ -> pi^+ nu nu)
   20   -2.69453214E-14   # Delta(g-2)_electron/2
   21   -1.15338417E-09   # Delta(g-2)_muon/2
   22   -2.36866002E-07   # Delta(g-2)_tau/2
   23    0.00000000E+00   # electric dipole moment of the electron
   24    0.00000000E+00   # electric dipole moment of the muon
   25    0.00000000E+00   # electric dipole moment of the tau
   26    0.00000000E+00   # Br(mu -> e gamma)
   27    0.00000000E+00   # Br(tau -> e gamma)
   28    0.00000000E+00   # Br(tau -> mu gamma)
   29    0.00000000E+00   # Br(mu -> 3 e)
   30    0.00000000E+00   # Br(tau -> 3 e)
   31    0.00000000E+00   # Br(tau -> 3 mu)
   39    3.28969746E-04   # Delta(rho_parameter)
   40    0.00000000E+00   # BR(Z -> e mu)
   41    0.00000000E+00   # BR(Z -> e tau)
   42    0.00000000E+00   # BR(Z -> mu tau)
Block FWCOEF Q=  1.60000000E+02  # Wilson coefficients at scale Q
#    id        order  M        value         comment
     0305 4422   00   0    -1.88819110E-01   # C7
     0305 4422   00   2    -3.03679765E-01   # C7
     0305 4322   00   2    -2.41983374E-03   # C7'
     0305 6421   00   0    -9.52278349E-02   # C8
     0305 6421   00   2    -2.18251031E-01   # C8
     0305 6321   00   2    -2.45674565E-03   # C8'
 03051111 4133   00   0     1.62148160E+00   # C9 e+e-
 03051111 4133   00   2     1.62170970E+00   # C9 e+e-
 03051111 4233   00   2    -8.28877467E-04   # C9' e+e-
 03051111 4137   00   0    -4.44417370E+00   # C10 e+e-
 03051111 4137   00   2    -4.44374878E+00   # C10 e+e-
 03051111 4237   00   2     6.18545995E-03   # C10' e+e-
 03051313 4133   00   0     1.62148160E+00   # C9 mu+mu-
 03051313 4133   00   2     1.62170596E+00   # C9 mu+mu-
 03051313 4233   00   2    -8.30653758E-04   # C9' mu+mu-
 03051313 4137   00   0    -4.44417370E+00   # C10 mu+mu-
 03051313 4137   00   2    -4.44375254E+00   # C10 mu+mu-
 03051313 4237   00   2     6.18723474E-03   # C10' mu+mu-
 03051212 4137   00   0     1.50535012E+00   # C11 nu_1 nu_1
 03051212 4137   00   2     1.50527160E+00   # C11 nu_1 nu_1
 03051212 4237   00   2    -1.33911073E-03   # C11' nu_1 nu_1
 03051414 4137   00   0     1.50535012E+00   # C11 nu_2 nu_2
 03051414 4137   00   2     1.50527160E+00   # C11 nu_2 nu_2
 03051414 4237   00   2    -1.33872575E-03   # C11' nu_2 nu_2
 03051616 4137   00   0     1.50535012E+00   # C11 nu_3 nu_3
 03051616 4137   00   2     1.50527218E+00   # C11 nu_3 nu_3
 03051616 4237   00   2    -1.23023321E-03   # C11' nu_3 nu_3
Block IMFWCOEF Q=  1.60000000E+02  # Im(Wilson coefficients) at scale Q
#    id        order  M        value         comment
     0305 4422   00   0     3.85908558E-07   # C7
     0305 4422   00   2     1.46851027E-05   # C7
     0305 4322   00   2     2.73278010E-06   # C7'
     0305 6421   00   0     3.30556201E-07   # C8
     0305 6421   00   2    -9.88625865E-06   # C8
     0305 6321   00   2     9.92674871E-07   # C8'
 03051111 4133   00   2    -5.94043974E-07   # C9 e+e-
 03051111 4233   00   2     1.21959970E-05   # C9' e+e-
 03051111 4137   00   2     2.99790568E-06   # C10 e+e-
 03051111 4237   00   2    -9.09642131E-05   # C10' e+e-
 03051313 4133   00   2    -5.93978332E-07   # C9 mu+mu-
 03051313 4233   00   2     1.21959757E-05   # C9' mu+mu-
 03051313 4137   00   2     2.99782258E-06   # C10 mu+mu-
 03051313 4237   00   2    -9.09642763E-05   # C10' mu+mu-
 03051212 4137   00   2    -4.09970052E-07   # C11 nu_1 nu_1
 03051212 4237   00   2     1.96926811E-05   # C11' nu_1 nu_1
 03051414 4137   00   2    -4.09970230E-07   # C11 nu_2 nu_2
 03051414 4237   00   2     1.96926811E-05   # C11' nu_2 nu_2
 03051616 4137   00   2    -4.10797541E-07   # C11 nu_3 nu_3
 03051616 4237   00   2     1.96926865E-05   # C11' nu_3 nu_3
