# SUSY Les Houches Accord 2 - MSSM spectrum + Decays
# SPheno v4.0.5be
# W. Porod, Comput. Phys. Commun. 153 (2003) 275-315, hep-ph/0301101;
# W. Porod, F.~Staub, Comput. Phys. Commun. 183 (2012) 2458
#                     arXiv:1104.1573 [hep-ph] 
# in case of problems send email to porod@physik.uni-wuerzburg.de
# Created: 07.09.2021,  18:58
Block SPINFO         # Program information
     1   SPheno      # spectrum calculator
     2   v4.0.5be    # version number
#
Block SPhenoINFO     # SPheno specific information
    1      2         # using 2-loop RGEs
    2      2         # using pole masses for boundary conditions at mZ
Block MODSEL  # Model selection
    1    0    # general MSSM
Block MINPAR  # Input parameters
    3    2.45957853E+01  # tanb at m_Z    
    4   -1.00000000E+00  # Sign(mu)
Block EXTPAR  # non-universal input parameters
    0    3.89920295E+03  # scale for input parameters
    1    2.10587164E+02  # M_1
    2   -1.87990069E+03  # M_2
    3    4.13675466E+03  # M_3
   11   -4.36525749E+03  # A_t
   12    1.40245920E+03  # A_b
   13   -1.83800324E+01  # A_tau
   23   -2.17724898E+02  # mu
   25    2.35957016E+01  # tan(beta)
   26    3.40004735E+03  # m_A, pole mass
   31    1.00000000E+04  # M_L11
   32    1.00000000E+04  # M_L22
   33    1.00000000E+04  # M_L33
   34    1.00000000E+04  # M_E11
   35    1.00000000E+04  # M_E22
   36    1.00000000E+04  # M_E33
   41    1.00000000E+04  # M_Q11
   42    1.00000000E+04  # M_Q22
   43    3.89355430E+03  # M_Q33
   44    1.00000000E+04  # M_U11
   45    1.00000000E+04  # M_U22
   46    3.74153765E+03  # M_U33
   47    1.00000000E+04  # M_D11
   48    1.00000000E+04  # M_D22
   49    4.13405883E+03  # M_D33
Block SMINPUTS  # SM parameters
         1     1.27908970E+02  # alpha_em^-1(MZ)^MSbar
         2     1.16637870E-05  # G_mu [GeV^-2]
         3     1.18400000E-01  # alpha_s(MZ)^MSbar
         4     9.11876000E+01  # m_Z(pole)
         5     4.18000000E+00  # m_b(m_b), MSbar
         6     1.73200000E+02  # m_t(pole)
         7     1.77700000E+00  # m_tau(pole)
         8     0.00000000E+00  # m_nu_3
        11     5.10998930E-04  # m_e(pole)
        12     0.00000000E+00  # m_nu_1
        13     1.05658372E-01  # m_muon(pole)
        14     0.00000000E+00  # m_nu_2
        21     5.00000000E-03  # m_d(2 GeV), MSbar
        22     2.50000000E-03  # m_u(2 GeV), MSbar
        23     9.50000000E-02  # m_s(2 GeV), MSbar
        24     1.27000000E+00  # m_c(m_c), MSbar
Block gauge Q=  3.89920295E+03  # (SUSY scale)
   1    3.55362975E-01  # g'(Q)^DRbar
   2    6.65198874E-01  # g(Q)^DRbar
   3    1.21977796E+00  # g3(Q)^DRbar
Block Yu Q=  3.89920295E+03  # (SUSY scale)
  1  1     8.39189841E-06   # Y_u(Q)^DRbar
  2  2     4.26308439E-03   # Y_c(Q)^DRbar
  3  3     1.01380873E+00   # Y_t(Q)^DRbar
Block Yd Q=  3.89920295E+03  # (SUSY scale)
  1  1     3.97899470E-04   # Y_d(Q)^DRbar
  2  2     7.56008992E-03   # Y_s(Q)^DRbar
  3  3     3.94591590E-01   # Y_b(Q)^DRbar
Block Ye Q=  3.89920295E+03  # (SUSY scale)
  1  1     6.94363671E-05   # Y_e(Q)^DRbar
  2  2     1.43572385E-02   # Y_mu(Q)^DRbar
  3  3     2.41465133E-01   # Y_tau(Q)^DRbar
Block Au Q=  3.89920295E+03  # (SUSY scale)
  1  1     0.00000000E+00   # A_u(Q)^DRbar
  2  2     0.00000000E+00   # A_c(Q)^DRbar
  3  3    -4.36526117E+03   # A_t(Q)^DRbar
Block Ad Q=  3.89920295E+03  # (SUSY scale)
  1  1     0.00000000E+00   # A_d(Q)^DRbar
  2  2     0.00000000E+00   # A_s(Q)^DRbar
  3  3     1.40245908E+03   # A_b(Q)^DRbar
Block Ae Q=  3.89920295E+03  # (SUSY scale)
  1  1     0.00000000E+00   # A_e(Q)^DRbar
  2  2     0.00000000E+00   # A_mu(Q)^DRbar
  3  3    -1.83800270E+01   # A_tau(Q)^DRbar
Block MSOFT Q=  3.89920295E+03  # soft SUSY breaking masses at Q
   1    2.10587164E+02  # M_1
   2   -1.87990069E+03  # M_2
   3    4.13675466E+03  # M_3
  21    1.14680780E+07  # M^2_(H,d)
  22    2.57976642E+05  # M^2_(H,u)
  31    1.00000000E+04  # M_(L,11)
  32    1.00000000E+04  # M_(L,22)
  33    1.00000000E+04  # M_(L,33)
  34    1.00000000E+04  # M_(E,11)
  35    1.00000000E+04  # M_(E,22)
  36    1.00000000E+04  # M_(E,33)
  41    1.00000000E+04  # M_(Q,11)
  42    1.00000000E+04  # M_(Q,22)
  43    3.89355430E+03  # M_(Q,33)
  44    1.00000000E+04  # M_(U,11)
  45    1.00000000E+04  # M_(U,22)
  46    3.74153765E+03  # M_(U,33)
  47    1.00000000E+04  # M_(D,11)
  48    1.00000000E+04  # M_(D,22)
  49    4.13405883E+03  # M_(D,33)
Block MASS  # Mass spectrum
#   PDG code      mass          particle
         6     1.73200000E+02  # m_t(pole)
        23     9.11876000E+01  # m_Z(pole)
        24     8.04299946E+01  # W+
        15     1.77700000E+00  # m_tau(pole)
        25     1.24583286E+02  # h0
        35     3.39967518E+03  # H0
        36     3.40004735E+03  # A0
        37     3.40236111E+03  # H+
   1000001     1.00991267E+04  # ~d_L
   2000001     1.00758711E+04  # ~d_R
   1000002     1.00987627E+04  # ~u_L
   2000002     1.00786734E+04  # ~u_R
   1000003     1.00991280E+04  # ~s_L
   2000003     1.00758729E+04  # ~s_R
   1000004     1.00987640E+04  # ~c_L
   2000004     1.00786741E+04  # ~c_R
   1000005     3.99917439E+03  # ~b_1
   2000005     4.26045023E+03  # ~b_2
   1000006     3.77480392E+03  # ~t_1
   2000006     4.02770157E+03  # ~t_2
   1000011     1.00199895E+04  # ~e_L-
   2000011     1.00092011E+04  # ~e_R-
   1000012     1.00192268E+04  # ~nu_eL
   1000013     1.00199944E+04  # ~mu_L-
   2000013     1.00092103E+04  # ~mu_R-
   1000014     1.00192316E+04  # ~nu_muL
   1000015     1.00118150E+04  # ~tau_1-
   2000015     1.00213615E+04  # ~tau_2-
   1000016     1.00205773E+04  # ~nu_tauL
   1000021     4.61429091E+03  # ~g
   1000022     1.93120312E+02  # ~chi_10
   1000023     2.35050397E+02  # ~chi_20
   1000025     2.57080410E+02  # ~chi_30
   1000035     1.99444189E+03  # ~chi_40
   1000024     2.34006604E+02  # ~chi_1+
   1000037     1.99441018E+03  # ~chi_2+
# Higgs mixing
Block alpha # Effective Higgs mixing angle
          -4.07195955E-02   # alpha
Block Hmix Q=  3.89920295E+03  # Higgs mixing parameters
   1   -2.17724898E+02  # mu
   2    2.35957016E+01  # tan[beta](Q)
   3    2.42973855E+02  # v(Q)
   4    1.15603220E+07  # m^2_A(Q)
Block stopmix # stop mixing matrix
   1  1     3.33321579E-01   # Re[R_st(1,1)]
   1  2     9.42813197E-01   # Re[R_st(1,2)]
   2  1    -9.42813197E-01   # Re[R_st(2,1)]
   2  2     3.33321579E-01   # Re[R_st(2,2)]
Block sbotmix # sbottom mixing matrix
   1  1    -9.99984376E-01   # Re[R_sb(1,1)]
   1  2     5.58990666E-03   # Re[R_sb(1,2)]
   2  1    -5.58990666E-03   # Re[R_sb(2,1)]
   2  2    -9.99984376E-01   # Re[R_sb(2,2)]
Block staumix # stau mixing matrix
   1  1    -4.69911253E-02   # Re[R_sta(1,1)]
   1  2     9.98895307E-01   # Re[R_sta(1,2)]
   2  1    -9.98895307E-01   # Re[R_sta(2,1)]
   2  2    -4.69911253E-02   # Re[R_sta(2,2)]
Block Nmix # neutralino mixing matrix
   1  1     8.13414923E-01   # Re[N(1,1)]
   1  2     1.27767483E-02   # Re[N(1,2)]
   1  3    -4.51885644E-01   # Re[N(1,3)]
   1  4    -3.66049563E-01   # Re[N(1,4)]
   2  1     7.30957558E-02   # Re[N(2,1)]
   2  2     3.32961565E-02   # Re[N(2,2)]
   2  3     7.04067922E-01   # Re[N(2,3)]
   2  4    -7.05575466E-01   # Re[N(2,4)]
   3  1     5.77072304E-01   # Re[N(3,1)]
   3  2    -2.07482376E-02   # Re[N(3,2)]
   3  3     5.47766300E-01   # Re[N(3,3)]
   3  4     6.05399990E-01   # Re[N(3,4)]
   4  1     8.54099528E-04   # Re[N(4,1)]
   4  2    -9.99148453E-01   # Re[N(4,2)]
   4  3     6.30931390E-03   # Re[N(4,3)]
   4  4    -4.07655709E-02   # Re[N(4,4)]
Block Umix # chargino mixing matrix
   1  1    -8.92208949E-03   # Re[U(1,1)]
   1  2    -9.99960197E-01   # Re[U(1,2)]
   2  1    -9.99960197E-01   # Re[U(2,1)]
   2  2     8.92208949E-03   # Re[U(2,2)]
Block Vmix # chargino mixing matrix
   1  1     5.76595593E-02   # Re[V(1,1)]
   1  2     9.98336304E-01   # Re[V(1,2)]
   2  1     9.98336304E-01   # Re[V(2,1)]
   2  2    -5.76595593E-02   # Re[V(2,2)]
DECAY        23     2.49520000E+00   # Z
DECAY        24     2.08500000E+00   # W
DECAY   2000011     5.02454219E+01   # ~e^-_R
#    BR                NDA      ID1      ID2
     6.61771832E-01    2     1000022        11   # BR(~e^-_R -> chi^0_1 e^-)
     5.34211668E-03    2     1000023        11   # BR(~e^-_R -> chi^0_2 e^-)
     3.32885359E-01    2     1000025        11   # BR(~e^-_R -> chi^0_3 e^-)
DECAY   1000011     1.34618110E+02   # ~e^-_L
#    BR                NDA      ID1      ID2
     6.55059084E-02    2     1000022        11   # BR(~e^-_L -> chi^0_1 e^-)
     1.71282030E-03    2     1000023        11   # BR(~e^-_L -> chi^0_2 e^-)
     2.70507044E-02    2     1000025        11   # BR(~e^-_L -> chi^0_3 e^-)
     3.01381757E-01    2     1000035        11   # BR(~e^-_L -> chi^0_4 e^-)
     6.04296708E-01    2    -1000037        12   # BR(~e^-_L -> chi^-_2 nu_e)
#    BR                NDA      ID1      ID2       ID3
DECAY   2000013     5.03274682E+01   # ~mu^-_R
#    BR                NDA      ID1      ID2
     6.60860010E-01    2     1000022        13   # BR(~mu^-_R -> chi^0_1 mu^-)
     5.73724855E-03    2     1000023        13   # BR(~mu^-_R -> chi^0_2 mu^-)
     3.32587355E-01    2     1000025        13   # BR(~mu^-_R -> chi^0_3 mu^-)
     8.14624084E-04    2    -1000024        14   # BR(~mu^-_R -> chi^-_1 nu_mu)
DECAY   1000013     1.34659230E+02   # ~mu^-_L
#    BR                NDA      ID1      ID2
     6.55481984E-02    2     1000022        13   # BR(~mu^-_L -> chi^0_1 mu^-)
     1.86339155E-03    2     1000023        13   # BR(~mu^-_L -> chi^0_2 mu^-)
     2.71338939E-02    2     1000025        13   # BR(~mu^-_L -> chi^0_3 mu^-)
     3.01289908E-01    2     1000035        13   # BR(~mu^-_L -> chi^0_4 mu^-)
     6.04112521E-01    2    -1000037        14   # BR(~mu^-_L -> chi^-_2 nu_mu)
#    BR                NDA      ID1      ID2       ID3
DECAY   1000015     7.36231120E+01   # ~tau^-_1
#    BR                NDA      ID1      ID2
     4.88704460E-01    2     1000022        15   # BR(~tau^-_1 -> chi^0_1 tau^-)
     8.16353138E-02    2     1000023        15   # BR(~tau^-_1 -> chi^0_2 tau^-)
     2.68923064E-01    2     1000025        15   # BR(~tau^-_1 -> chi^0_3 tau^-)
     1.05417414E-03    2     1000035        15   # BR(~tau^-_1 -> chi^0_4 tau^-)
     1.57569502E-01    2    -1000024        16   # BR(~tau^-_1 -> chi^-_1 nu_tau)
     2.11348647E-03    2    -1000037        16   # BR(~tau^-_1 -> chi^-_2 nu_tau)
DECAY   2000015     1.46086963E+02   # ~tau^-_2
#    BR                NDA      ID1      ID2
     7.42061345E-02    2     1000022        15   # BR(~tau^-_2 -> chi^0_1 tau^-)
     4.10389503E-02    2     1000023        15   # BR(~tau^-_2 -> chi^0_2 tau^-)
     5.15918359E-02    2     1000025        15   # BR(~tau^-_2 -> chi^0_3 tau^-)
     2.77239536E-01    2     1000035        15   # BR(~tau^-_2 -> chi^0_4 tau^-)
     5.55883527E-01    2    -1000037        16   # BR(~tau^-_2 -> chi^-_2 nu_tau)
#    BR                NDA      ID1      ID2       ID3
DECAY   1000012     1.34621498E+02   # ~nu_e
#    BR                NDA      ID1      ID2
     5.82296179E-02    2     1000022        12   # BR(~nu_e -> chi^0_1 nu_e)
     3.54182954E-02    2     1000025        12   # BR(~nu_e -> chi^0_3 nu_e)
     3.01898411E-01    2     1000035        12   # BR(~nu_e -> chi^0_4 nu_e)
     2.17582052E-03    2     1000024        11   # BR(~nu_e -> chi^+_1 e^-)
     6.02267025E-01    2     1000037        11   # BR(~nu_e -> chi^+_2 e^-)
#    BR                NDA      ID1      ID2       ID3
DECAY   1000014     1.34662613E+02   # ~nu_mu
#    BR                NDA      ID1      ID2
     5.82118671E-02    2     1000022        14   # BR(~nu_mu -> chi^0_1 nu_mu)
     3.54074985E-02    2     1000025        14   # BR(~nu_mu -> chi^0_3 nu_mu)
     3.01806403E-01    2     1000035        14   # BR(~nu_mu -> chi^0_4 nu_mu)
     2.47990431E-03    2     1000024        13   # BR(~nu_mu -> chi^+_1 mu^-)
     6.02083499E-01    2     1000037        13   # BR(~nu_mu -> chi^+_2 mu^-)
#    BR                NDA      ID1      ID2       ID3
DECAY   1000016     1.46252972E+02   # ~nu_tau
#    BR                NDA      ID1      ID2
     5.36058616E-02    2     1000022        16   # BR(~nu_tau -> chi^0_1 nu_tau)
     3.26058903E-02    2     1000025        16   # BR(~nu_tau -> chi^0_3 nu_tau)
     2.77932120E-01    2     1000035        16   # BR(~nu_tau -> chi^0_4 nu_tau)
     8.13842105E-02    2     1000024        15   # BR(~nu_tau -> chi^+_1 tau^-)
     5.54461947E-01    2     1000037        15   # BR(~nu_tau -> chi^+_2 tau^-)
#    BR                NDA      ID1      ID2       ID3
DECAY   2000001     5.02329607E+02   # ~d_R
#    BR                NDA      ID1      ID2
     7.40391967E-03    2     1000022         1   # BR(~d_R -> chi^0_1 d)
     3.72437031E-03    2     1000025         1   # BR(~d_R -> chi^0_3 d)
     9.88811840E-01    2     1000021         1   # BR(~d_R -> ~g d)
DECAY   1000001     6.23641414E+02   # ~d_L
#    BR                NDA      ID1      ID2
     1.24237442E-03    2     1000022         1   # BR(~d_L -> chi^0_1 d)
     1.08591595E-03    2     1000025         1   # BR(~d_L -> chi^0_3 d)
     6.57340216E-02    2     1000035         1   # BR(~d_L -> chi^0_4 d)
     1.31642008E-01    2    -1000037         2   # BR(~d_L -> chi^-_2 u)
     8.00255037E-01    2     1000021         1   # BR(~d_L -> ~g d)
DECAY   2000003     5.02352616E+02   # ~s_R
#    BR                NDA      ID1      ID2
     7.40822298E-03    2     1000022         3   # BR(~s_R -> chi^0_1 s)
     3.73101522E-03    2     1000025         3   # BR(~s_R -> chi^0_3 s)
     9.88766914E-01    2     1000021         3   # BR(~s_R -> ~g s)
DECAY   1000003     6.23656650E+02   # ~s_L
#    BR                NDA      ID1      ID2
     1.24609112E-03    2     1000022         3   # BR(~s_L -> chi^0_1 s)
     1.09139169E-03    2     1000025         3   # BR(~s_L -> chi^0_3 s)
     6.57324261E-02    2     1000035         3   # BR(~s_L -> chi^0_4 s)
     1.31638830E-01    2    -1000037         4   # BR(~s_L -> chi^-_2 c)
     8.00235698E-01    2     1000021         3   # BR(~s_L -> ~g s)
DECAY   1000005     1.28628017E+02   # ~b_1
#    BR                NDA      ID1      ID2
     2.21954993E-02    2     1000022         5   # BR(~b_1 -> chi^0_1 b)
     4.74626319E-02    2     1000023         5   # BR(~b_1 -> chi^0_2 b)
     3.04974406E-02    2     1000025         5   # BR(~b_1 -> chi^0_3 b)
     7.71265733E-02    2     1000035         5   # BR(~b_1 -> chi^0_4 b)
     6.26882223E-01    2    -1000024         6   # BR(~b_1 -> chi^-_1 t)
     1.56172058E-01    2    -1000037         6   # BR(~b_1 -> chi^-_2 t)
     3.96635740E-02    2     1000006       -24   # BR(~b_1 -> ~t_1 W^-)
DECAY   2000005     2.85679148E+01   # ~b_2
#    BR                NDA      ID1      ID2
     1.47650494E-01    2     1000022         5   # BR(~b_2 -> chi^0_1 b)
     2.28070108E-01    2     1000023         5   # BR(~b_2 -> chi^0_2 b)
     1.66212600E-01    2     1000025         5   # BR(~b_2 -> chi^0_3 b)
     4.57672412E-01    2    -1000024         6   # BR(~b_2 -> chi^-_1 t)
     1.00632201E-04    2     1000005        25   # BR(~b_2 -> ~b_1 h^0)
DECAY   2000002     5.19480827E+02   # ~u_R
#    BR                NDA      ID1      ID2
     2.86458117E-02    2     1000022         2   # BR(~u_R -> chi^0_1 u)
     2.31242483E-04    2     1000023         2   # BR(~u_R -> chi^0_2 u)
     1.44095686E-02    2     1000025         2   # BR(~u_R -> chi^0_3 u)
     9.56713348E-01    2     1000021         2   # BR(~u_R -> ~g u)
DECAY   1000002     6.23623221E+02   # ~u_L
#    BR                NDA      ID1      ID2
     1.76961348E-03    2     1000022         2   # BR(~u_L -> chi^0_1 u)
     1.52713106E-04    2     1000023         2   # BR(~u_L -> chi^0_2 u)
     4.78797858E-04    2     1000025         2   # BR(~u_L -> chi^0_3 u)
     6.56931733E-02    2     1000035         2   # BR(~u_L -> chi^0_4 u)
     4.73480296E-04    2     1000024         1   # BR(~u_L -> chi^+_1 d)
     1.31213124E-01    2     1000037         1   # BR(~u_L -> chi^+_2 d)
     8.00219098E-01    2     1000021         2   # BR(~u_L -> ~g u)
DECAY   2000004     5.19488147E+02   # ~c_R
#    BR                NDA      ID1      ID2
     2.86463464E-02    2     1000022         4   # BR(~c_R -> chi^0_1 c)
     2.34727198E-04    2     1000023         4   # BR(~c_R -> chi^0_2 c)
     1.44119363E-02    2     1000025         4   # BR(~c_R -> chi^0_3 c)
     9.56699945E-01    2     1000021         4   # BR(~c_R -> ~g c)
DECAY   1000004     6.23638423E+02   # ~c_L
#    BR                NDA      ID1      ID2
     1.77035483E-03    2     1000022         4   # BR(~c_L -> chi^0_1 c)
     1.55621246E-04    2     1000023         4   # BR(~c_L -> chi^0_2 c)
     4.80928830E-04    2     1000025         4   # BR(~c_L -> chi^0_3 c)
     6.56915853E-02    2     1000035         4   # BR(~c_L -> chi^0_4 c)
     4.91809225E-04    2     1000024         3   # BR(~c_L -> chi^+_1 s)
     1.31209946E-01    2     1000037         3   # BR(~c_L -> chi^+_2 s)
     8.00199754E-01    2     1000021         4   # BR(~c_L -> ~g c)
DECAY   1000006     1.54344803E+02   # ~t_1
#    BR                NDA      ID1      ID2
     1.20226319E-01    2     1000022         6   # BR(~t_1 -> chi^0_1 t)
     2.45886812E-01    2     1000023         6   # BR(~t_1 -> chi^0_2 t)
     1.68109381E-01    2     1000025         6   # BR(~t_1 -> chi^0_3 t)
     9.54981323E-03    2     1000035         6   # BR(~t_1 -> chi^0_4 t)
     4.36314164E-01    2     1000024         5   # BR(~t_1 -> chi^+_1 b)
     1.93252650E-02    2     1000037         5   # BR(~t_1 -> chi^+_2 b)
#    BR                NDA      ID1      ID2       ID3
     5.77159070E-04    3     1000022        24         5   # BR(~t_1 -> chi^0_1 W^+ b)
DECAY   2000006     1.37628266E+02   # ~t_2
#    BR                NDA      ID1      ID2
     6.06247020E-02    2     1000022         6   # BR(~t_2 -> chi^0_1 t)
     2.95361814E-01    2     1000023         6   # BR(~t_2 -> chi^0_2 t)
     2.54910597E-01    2     1000025         6   # BR(~t_2 -> chi^0_3 t)
     6.05940808E-02    2     1000035         6   # BR(~t_2 -> chi^0_4 t)
     1.60692497E-01    2     1000024         5   # BR(~t_2 -> chi^+_1 b)
     1.22071326E-01    2     1000037         5   # BR(~t_2 -> chi^+_2 b)
     2.32891494E-02    2     1000006        23   # BR(~t_2 -> ~t_1 Z)
     2.24558335E-02    2     1000006        25   # BR(~t_2 -> ~t_1 h^0)
DECAY   1000024     5.03356908E-05   # chi^+_1
#    BR                NDA      ID1      ID2       ID3
     3.34153388E-01    3     1000022        -1         2   # BR(chi^+_1 -> chi^0_1 d_bar u)
     3.32717453E-01    3     1000022        -3         4   # BR(chi^+_1 -> chi^0_1 s_bar c)
     1.11384141E-01    3     1000022       -11        12   # BR(chi^+_1 -> chi^0_1 e^+ nu_e)
     1.11383524E-01    3     1000022       -13        14   # BR(chi^+_1 -> chi^0_1 mu^+ nu_mu)
     1.10361494E-01    3     1000022       -15        16   # BR(chi^+_1 -> chi^0_1 tau^+ nu_tau)
DECAY   1000037     1.82139998E+01   # chi^+_2
#    BR                NDA      ID1      ID2
     7.16900023E-02    2     1000022        24   # BR(chi^+_2 -> chi^0_1 W^+)
     2.42342749E-01    2     1000023        24   # BR(chi^+_2 -> chi^0_2 W^+)
     1.69458612E-01    2     1000025        24   # BR(chi^+_2 -> chi^0_3 W^+)
     2.41037858E-01    2     1000024        23   # BR(chi^+_2 -> chi^+_1 Z)
     2.42643935E-01    2     1000024        25   # BR(chi^+_2 -> chi^+_1 h^0)
#    BR                NDA      ID1      ID2       ID3
     1.37039813E-02    3     1000024         6        -6   # BR(chi^+_2 -> chi^+_1 t t_bar)
     2.88649750E-03    3     1000022        -5         6   # BR(chi^+_2 -> chi^0_1 b_bar t)
     9.34396007E-03    3     1000023        -5         6   # BR(chi^+_2 -> chi^0_2 b_bar t)
     6.85099598E-03    3     1000025        -5         6   # BR(chi^+_2 -> chi^0_3 b_bar t)
DECAY   1000022     0.00000000E+00   # chi^0_1
DECAY   1000023     1.40525911E-04   # chi^0_2
#    BR                NDA      ID1      ID2
     1.72338804E-02    2     1000022        22   # BR(chi^0_2 -> chi^0_1 photon)
#    BR                NDA      ID1      ID2       ID3
     1.18614252E-01    3     1000022         2        -2   # BR(chi^0_2 -> chi^0_1 u u_bar)
     1.17291983E-01    3     1000022         4        -4   # BR(chi^0_2 -> chi^0_1 c c_bar)
     1.52086570E-01    3     1000022         1        -1   # BR(chi^0_2 -> chi^0_1 d d_bar)
     1.52078424E-01    3     1000022         3        -3   # BR(chi^0_2 -> chi^0_1 s s_bar)
     1.37166869E-01    3     1000022         5        -5   # BR(chi^0_2 -> chi^0_1 b b_bar)
     3.43209562E-02    3     1000022        11       -11   # BR(chi^0_2 -> chi^0_1 e^- e^+)
     3.43180269E-02    3     1000022        13       -13   # BR(chi^0_2 -> chi^0_1 mu^- mu^+)
     3.35055653E-02    3     1000022        15       -15   # BR(chi^0_2 -> chi^0_1 tau^- tau^+)
     2.03383433E-01    3     1000022        12       -12   # BR(chi^0_2 -> chi^0_1 nu_e nu_bar_e)
DECAY   1000025     2.58343672E-05   # chi^0_3
#    BR                NDA      ID1      ID2
     4.18975468E-03    2     1000022        22   # BR(chi^0_3 -> chi^0_1 photon)
     3.86302469E-02    2     1000023        22   # BR(chi^0_3 -> chi^0_2 photon)
#    BR                NDA      ID1      ID2       ID3
     1.41655534E-02    3     1000022         2        -2   # BR(chi^0_3 -> chi^0_1 u u_bar)
     1.41094039E-02    3     1000022         4        -4   # BR(chi^0_3 -> chi^0_1 c c_bar)
     1.81523404E-02    3     1000022         1        -1   # BR(chi^0_3 -> chi^0_1 d d_bar)
     1.81520078E-02    3     1000022         3        -3   # BR(chi^0_3 -> chi^0_1 s s_bar)
     1.75966816E-02    3     1000022         5        -5   # BR(chi^0_3 -> chi^0_1 b b_bar)
     4.08791675E-03    3     1000022        11       -11   # BR(chi^0_3 -> chi^0_1 e^- e^+)
     4.08780761E-03    3     1000022        13       -13   # BR(chi^0_3 -> chi^0_1 mu^- mu^+)
     4.05715114E-03    3     1000022        15       -15   # BR(chi^0_3 -> chi^0_1 tau^- tau^+)
     2.42895865E-02    3     1000022        12       -12   # BR(chi^0_3 -> chi^0_1 nu_e nu_bar_e)
     5.07493167E-02    3     1000023         2        -2   # BR(chi^0_3 -> chi^0_2 u u_bar)
     4.85821040E-02    3     1000023         4        -4   # BR(chi^0_3 -> chi^0_2 c c_bar)
     6.50709320E-02    3     1000023         1        -1   # BR(chi^0_3 -> chi^0_2 d d_bar)
     6.50571939E-02    3     1000023         3        -3   # BR(chi^0_3 -> chi^0_2 s s_bar)
     4.29725131E-02    3     1000023         5        -5   # BR(chi^0_3 -> chi^0_2 b b_bar)
     1.46848126E-02    3     1000023        11       -11   # BR(chi^0_3 -> chi^0_2 e^- e^+)
     1.46799107E-02    3     1000023        13       -13   # BR(chi^0_3 -> chi^0_2 mu^- mu^+)
     1.33740040E-02    3     1000023        15       -15   # BR(chi^0_3 -> chi^0_2 tau^- tau^+)
     8.70185108E-02    3     1000023        12       -12   # BR(chi^0_3 -> chi^0_2 nu_e nu_bar_e)
     7.33054619E-02    3     1000024         1        -2   # BR(chi^0_3 -> chi^+_1 d u_bar)
     7.33054619E-02    3    -1000024        -1         2   # BR(chi^0_3 -> chi^-_1 d_bar u)
     7.22401539E-02    3     1000024         3        -4   # BR(chi^0_3 -> chi^+_1 s c_bar)
     7.22401539E-02    3    -1000024        -3         4   # BR(chi^0_3 -> chi^-_1 s_bar c)
     2.44352107E-02    3     1000024        11       -12   # BR(chi^0_3 -> chi^+_1 e^- nu_bar_e)
     2.44352107E-02    3    -1000024       -11        12   # BR(chi^0_3 -> chi^-_1 e^+ nu_e)
     2.44349959E-02    3     1000024        13       -14   # BR(chi^0_3 -> chi^+_1 mu^- nu_bar_mu)
     2.44349959E-02    3    -1000024       -13        14   # BR(chi^0_3 -> chi^-_1 mu^+ nu_mu)
     2.37303035E-02    3     1000024        15       -16   # BR(chi^0_3 -> chi^+_1 tau^- nu_bar_tau)
     2.37303035E-02    3    -1000024       -15        16   # BR(chi^0_3 -> chi^-_1 tau^+ nu_tau)
DECAY   1000035     1.91732486E+01   # chi^0_4
#    BR                NDA      ID1      ID2
     2.29952457E-01    2     1000024       -24   # BR(chi^0_4 -> chi^+_1 W^-)
     2.29952457E-01    2    -1000024        24   # BR(chi^0_4 -> chi^-_1 W^+)
     4.32811524E-02    2     1000022        23   # BR(chi^0_4 -> chi^0_1 Z)
     7.99645919E-02    2     1000023        23   # BR(chi^0_4 -> chi^0_2 Z)
     1.06146034E-01    2     1000025        23   # BR(chi^0_4 -> chi^0_3 Z)
     3.59853376E-02    2     1000022        25   # BR(chi^0_4 -> chi^0_1 h^0)
     1.50723490E-01    2     1000023        25   # BR(chi^0_4 -> chi^0_2 h^0)
     9.21850587E-02    2     1000025        25   # BR(chi^0_4 -> chi^0_3 h^0)
#    BR                NDA      ID1      ID2       ID3
     1.82117370E-03    3     1000022         6        -6   # BR(chi^0_4 -> chi^0_1 t t_bar)
     6.20566475E-03    3     1000023         6        -6   # BR(chi^0_4 -> chi^0_2 t t_bar)
     4.22816904E-03    3     1000025         6        -6   # BR(chi^0_4 -> chi^0_3 t t_bar)
     9.74093859E-03    3     1000024         5        -6   # BR(chi^0_4 -> chi^+_1 b t_bar)
     9.74093859E-03    3    -1000024        -5         6   # BR(chi^0_4 -> chi^-_1 b_bar t)
DECAY   1000021     3.30042945E+01   # ~g
#    BR                NDA      ID1      ID2
     8.68525177E-04    2     1000006        -4   # BR(~g -> ~t_1 c_bar)
     8.68525177E-04    2    -1000006         4   # BR(~g -> ~t^*_1 c)
     1.90812388E-01    2     1000006        -6   # BR(~g -> ~t_1 t_bar)
     1.90812388E-01    2    -1000006         6   # BR(~g -> ~t^*_1 t)
     1.34908092E-01    2     2000006        -6   # BR(~g -> ~t_2 t_bar)
     1.34908092E-01    2    -2000006         6   # BR(~g -> ~t^*_2 t)
     1.28136733E-01    2     1000005        -5   # BR(~g -> ~b_1 b_bar)
     1.28136733E-01    2    -1000005         5   # BR(~g -> ~b^*_1 b)
     4.50003274E-02    2     2000005        -5   # BR(~g -> ~b_2 b_bar)
     4.50003274E-02    2    -2000005         5   # BR(~g -> ~b^*_2 b)
     2.06628098E-04    2     1000023        21   # BR(~g -> chi^0_2 g)
     1.73127519E-04    2     1000025        21   # BR(~g -> chi^0_3 g)
#    BR                NDA      ID1      ID2       ID3
DECAY        25     3.51084316E-03   # Gamma(h0)
     2.55675467E-03   2        22        22   # BR(h0 -> photon photon)
     1.59427445E-03   2        22        23   # BR(h0 -> photon Z)
     2.90041110E-02   2        23        23   # BR(h0 -> Z Z)
     2.41590058E-01   2       -24        24   # BR(h0 -> W W)
     7.94167830E-02   2        21        21   # BR(h0 -> gluon gluon)
     4.97707559E-09   2       -11        11   # BR(h0 -> Electron electron)
     2.21389004E-04   2       -13        13   # BR(h0 -> Muon muon)
     6.38339554E-02   2       -15        15   # BR(h0 -> Tau tau)
     1.41478735E-07   2        -2         2   # BR(h0 -> Up up)
     2.74575253E-02   2        -4         4   # BR(h0 -> Charm charm)
     5.76438221E-07   2        -1         1   # BR(h0 -> Down down)
     2.08483961E-04   2        -3         3   # BR(h0 -> Strange strange)
     5.54115942E-01   2        -5         5   # BR(h0 -> Bottom bottom)
DECAY        35     4.76654601E+01   # Gamma(HH)
     1.37054580E-08   2        22        22   # BR(HH -> photon photon)
     2.22826056E-08   2        22        23   # BR(HH -> photon Z)
     1.07117242E-06   2        23        23   # BR(HH -> Z Z)
     2.75394558E-07   2       -24        24   # BR(HH -> W W)
     2.34760995E-06   2        21        21   # BR(HH -> gluon gluon)
     5.98274038E-09   2       -11        11   # BR(HH -> Electron electron)
     2.66389896E-04   2       -13        13   # BR(HH -> Muon muon)
     7.69381536E-02   2       -15        15   # BR(HH -> Tau tau)
     2.66402077E-13   2        -2         2   # BR(HH -> Up up)
     5.16815928E-08   2        -4         4   # BR(HH -> Charm charm)
     3.97909071E-03   2        -6         6   # BR(HH -> Top top)
     4.36304566E-07   2        -1         1   # BR(HH -> Down down)
     1.57812112E-04   2        -3         3   # BR(HH -> Strange strange)
     4.18159831E-01   2        -5         5   # BR(HH -> Bottom bottom)
     2.11709688E-03   2  -1000024   1000024   # BR(HH -> Chargino1 chargino1)
     1.38477643E-01   2  -1000024   1000037   # BR(HH -> Chargino1 chargino2)
     1.38477643E-01   2  -1000037   1000024   # BR(HH -> Chargino2 chargino1)
     2.33200358E-02   2   1000022   1000022   # BR(HH -> neutralino1 neutralino1)
     1.88677126E-02   2   1000022   1000023   # BR(HH -> neutralino1 neutralino2)
     4.48253756E-06   2   1000022   1000025   # BR(HH -> neutralino1 neutralino3)
     4.18570224E-02   2   1000022   1000035   # BR(HH -> neutralino1 neutralino4)
     4.11905907E-06   2   1000023   1000023   # BR(HH -> neutralino2 neutralino2)
     1.90870008E-02   2   1000023   1000025   # BR(HH -> neutralino2 neutralino3)
     5.62828089E-02   2   1000023   1000035   # BR(HH -> neutralino2 neutralino4)
     2.12940511E-02   2   1000025   1000025   # BR(HH -> neutralino3 neutralino3)
     4.06979759E-02   2   1000025   1000035   # BR(HH -> neutralino3 neutralino4)
     6.90732790E-06   2        25        25   # BR(HH -> h0 h0)
DECAY        36     4.67783777E+01   # Gamma(A0)
     6.87135362E-08   2        22        22   # BR(A0 -> photon photon)
     7.67578213E-08   2        22        23   # BR(A0 -> photon Z)
     1.23885414E-05   2        21        21   # BR(A0 -> gluon gluon)
     5.86913666E-09   2       -11        11   # BR(A0 -> Electron electron)
     2.61334259E-04   2       -13        13   # BR(A0 -> Muon muon)
     7.54780885E-02   2       -15        15   # BR(A0 -> Tau tau)
     2.51852742E-13   2        -2         2   # BR(A0 -> Up up)
     4.88573269E-08   2        -4         4   # BR(A0 -> Charm charm)
     3.80331589E-03   2        -6         6   # BR(A0 -> Top top)
     4.28018809E-07   2        -1         1   # BR(A0 -> Down down)
     1.54814976E-04   2        -3         3   # BR(A0 -> Strange strange)
     4.10220528E-01   2        -5         5   # BR(A0 -> Bottom bottom)
     2.24936703E-03   2  -1000024   1000024   # BR(A0 -> Chargino1 chargino1)
     1.41084211E-01   2  -1000024   1000037   # BR(A0 -> Chargino1 chargino2)
     1.41084211E-01   2  -1000037   1000024   # BR(A0 -> Chargino2 chargino1)
     2.09585066E-02   2   1000022   1000022   # BR(A0 -> neutralino1 neutralino1)
     2.23660269E-02   2   1000022   1000023   # BR(A0 -> neutralino1 neutralino2)
     1.89238630E-05   2   1000022   1000025   # BR(A0 -> neutralino1 neutralino3)
     3.09639211E-02   2   1000022   1000035   # BR(A0 -> neutralino1 neutralino4)
     5.02369698E-06   2   1000023   1000023   # BR(A0 -> neutralino2 neutralino2)
     2.24151817E-02   2   1000023   1000025   # BR(A0 -> neutralino2 neutralino3)
     8.30546630E-02   2   1000023   1000035   # BR(A0 -> neutralino2 neutralino4)
     1.84101655E-02   2   1000025   1000025   # BR(A0 -> neutralino3 neutralino3)
     2.74567389E-02   2   1000025   1000035   # BR(A0 -> neutralino3 neutralino4)
     1.96145818E-06   2        23        25   # BR(A0 -> Z h0)
     1.06593707E-39   2        25        25   # BR(A0 -> h0 h0)
DECAY        37     5.05687164E+01   # Gamma(Hp)
     6.73101452E-09   2       -11        12   # BR(Hp -> Electron nu_e)
     2.87771894E-04   2       -13        14   # BR(Hp -> Muon nu_mu)
     8.13982681E-02   2       -15        16   # BR(Hp -> Tau nu_tau)
     4.27076298E-07   2        -1         2   # BR(Hp -> Down up)
     7.21909564E-06   2        -3         2   # BR(Hp -> Strange up)
     4.67298067E-06   2        -5         2   # BR(Hp -> Bottom up)
     2.25530242E-08   2        -1         4   # BR(Hp -> Down charm)
     1.53966009E-04   2        -3         4   # BR(Hp -> Strange charm)
     6.54384622E-04   2        -5         4   # BR(Hp -> Bottom charm)
     2.82685396E-07   2        -1         6   # BR(Hp -> Down top)
     6.39202341E-06   2        -3         6   # BR(Hp -> Strange top)
     4.45541387E-01   2        -5         6   # BR(Hp -> Bottom top)
     4.78553422E-02   2   1000022   1000024   # BR(Hp -> neutralino1 chargino1)
     6.82357762E-02   2   1000022   1000037   # BR(Hp -> neutralino1 chargino2)
     1.15646072E-03   2   1000023   1000024   # BR(Hp -> neutralino2 chargino1)
     1.30451861E-01   2   1000023   1000037   # BR(Hp -> neutralino2 chargino2)
     2.94412695E-02   2   1000024   1000025   # BR(Hp -> chargino1 neutralino3)
     6.38731296E-02   2   1000025   1000037   # BR(Hp -> neutralino3 chargino2)
     1.30929540E-01   2   1000024   1000035   # BR(Hp -> chargino1 neutralino4)
     1.81903831E-06   2        24        25   # BR(Hp -> W h0)
     3.76301072E-12   2        24        35   # BR(Hp -> W HH)
     1.78506694E-12   2        24        36   # BR(Hp -> W A0)
DECAY         6     2.43000000E+00   # top
#    BR                NDA      ID1      ID2
     1.00000000E+00    2           5        24   # BR(t -> b W)
Block HiggsBoundsInputHiggsCouplingsFermions
# ScalarNormEffCoupSq PseudoSNormEffCoupSq NP IP1 IP2 IP2
    9.24297968E-01    0.00000000E+00        3  25   5   5  # h0-b-b eff. coupling^2, normalised to SM
    5.56832836E+02    0.00000000E+00        3  35   5   5  # H0-b-b eff. coupling^2, normalised to SM
    0.00000000E+00    5.56757134E+02        3  36   5   5  # A0-b-b eff. coupling^2, normalised to SM
#
    1.00013597E+00    0.00000000E+00        3  25   6   6  # h0-t-t eff. coupling^2, normalised to SM
    1.66014571E-03    0.00000000E+00        3  35   6   6  # H0-t-t eff. coupling^2, normalised to SM
    0.00000000E+00    1.79611529E-03        3  36   6   6  # A0-t-t eff. coupling^2, normalised to SM
#
    9.24297968E-01    0.00000000E+00        3  25  15  15  # h0-tau-tau eff. coupling^2, normalised to SM
    5.56832836E+02    0.00000000E+00        3  35  15  15  # H0-tau-tau eff. coupling^2, normalised to SM
    0.00000000E+00    5.56757134E+02        3  36  15  15  # A0-tau-tau eff. coupling^2, normalised to SM
#
Block HiggsBoundsInputHiggsCouplingsBosons
    9.99997325E-01        3  25  24  24  # h0-W-W eff. coupling^2, normalised to SM
    2.67537700E-06        3  35  24  24  # H0-W-W eff. coupling^2, normalised to SM
    0.00000000E+00        3  36  24  24  # A0-W-W eff. coupling^2, normalised to SM
#
    9.99997325E-01        3  25  23  23  # h0-Z-Z eff. coupling^2, normalised to SM
    2.67537700E-06        3  35  23  23  # H0-Z-Z eff. coupling^2, normalised to SM
    0.00000000E+00        3  36  23  23  # A0-Z-Z eff. coupling^2, normalised to SM
#
    1.26848176E+00        3  25  21  21  # h0-g-g eff. coupling^2, normalised to SM
    1.15397743E-03        3  35  21  21  # H0-g-g eff. coupling^2, normalised to SM
    9.65980856E-02        3  36  21  21  # A0-g-g eff. coupling^2, normalised to SM
#
    0.00000000E+00        3  25  25  23  # h0-h0-Z eff. coupling^2, normalised to SM
    0.00000000E+00        3  35  25  23  # H0-h0-Z eff. coupling^2, normalised to SM
    2.67537700E-06        3  36  25  23  # A0-h0-Z eff. coupling^2, normalised to SM
    0.00000000E+00        3  35  35  23  # H0-H0-Z eff. coupling^2, normalised to SM
    9.99997325E-01        3  36  35  23  # A0-H0-Z eff. coupling^2, normalised to SM
    0.00000000E+00        3  36  36  23  # A0-A0-Z eff. coupling^2, normalised to SM
#
    0.00000000E+00        4  25  21  21  23  # h0-g-g-Z eff. coupling^2, normalised to SM
    0.00000000E+00        4  35  21  21  23  # H0-g-g-Z eff. coupling^2, normalised to SM
    0.00000000E+00        4  36  21  21  23  # A0-g-g-Z eff. coupling^2, normalised to SM
Block SPhenoLowEnergy  # low energy observables
    1    3.31041080E-04   # BR(b -> s gamma)
    2    1.58907355E-06   # BR(b -> s mu+ mu-)
    3    3.52533996E-05   # BR(b -> s nu nu)
    4    2.20424560E-15   # BR(Bd -> e+ e-)
    5    9.41630557E-11   # BR(Bd -> mu+ mu-)
    6    1.97230197E-08   # BR(Bd -> tau+ tau-)
    7    7.45573144E-14   # BR(Bs -> e+ e-)
    8    3.18509223E-09   # BR(Bs -> mu+ mu-)
    9    6.75950706E-07   # BR(Bs -> tau+ tau-)
   10    9.64879706E-05   # BR(B_u -> tau nu)
   11    9.96683796E-01   # BR(B_u -> tau nu)/BR(B_u -> tau nu)_SM
   12    5.41979801E-01   # |Delta(M_Bd)| [ps^-1] 
   13    1.93634579E+01   # |Delta(M_Bs)| [ps^-1] 
   14    0.00000000E+00   # neutron EDM according to the chiral quark model
   15    0.00000000E+00   # neutron EDM according to the relativistic quark-parton model
   16    2.15729351E-03   # epsilon_K
   17    2.28165817E-15   # Delta(M_K)
   18    2.48021497E-11   # BR(K^0 -> pi^0 nu nu)
   19    8.29090048E-11   # BR(K^+ -> pi^+ nu nu)
   20    2.26781360E-16   # Delta(g-2)_electron/2
   21    9.69562351E-12   # Delta(g-2)_muon/2
   22    2.74338425E-09   # Delta(g-2)_tau/2
   23    0.00000000E+00   # electric dipole moment of the electron
   24    0.00000000E+00   # electric dipole moment of the muon
   25    0.00000000E+00   # electric dipole moment of the tau
   26    0.00000000E+00   # Br(mu -> e gamma)
   27    0.00000000E+00   # Br(tau -> e gamma)
   28    0.00000000E+00   # Br(tau -> mu gamma)
   29    0.00000000E+00   # Br(mu -> 3 e)
   30    0.00000000E+00   # Br(tau -> 3 e)
   31    0.00000000E+00   # Br(tau -> 3 mu)
   39    5.24596971E-05   # Delta(rho_parameter)
   40    0.00000000E+00   # BR(Z -> e mu)
   41    0.00000000E+00   # BR(Z -> e tau)
   42    0.00000000E+00   # BR(Z -> mu tau)
Block FWCOEF Q=  1.60000000E+02  # Wilson coefficients at scale Q
#    id        order  M        value         comment
     0305 4422   00   0    -1.88819110E-01   # C7
     0305 4422   00   2    -2.00923582E-01   # C7
     0305 4322   00   2    -1.53046613E-04   # C7'
     0305 6421   00   0    -9.52278348E-02   # C8
     0305 6421   00   2    -1.05285232E-01   # C8
     0305 6321   00   2    -1.55254419E-04   # C8'
 03051111 4133   00   0     1.62559532E+00   # C9 e+e-
 03051111 4133   00   2     1.62582619E+00   # C9 e+e-
 03051111 4233   00   2     1.39790020E-04   # C9' e+e-
 03051111 4137   00   0    -4.44828742E+00   # C10 e+e-
 03051111 4137   00   2    -4.44673116E+00   # C10 e+e-
 03051111 4237   00   2    -1.03593972E-03   # C10' e+e-
 03051313 4133   00   0     1.62559532E+00   # C9 mu+mu-
 03051313 4133   00   2     1.62582613E+00   # C9 mu+mu-
 03051313 4233   00   2     1.39789978E-04   # C9' mu+mu-
 03051313 4137   00   0    -4.44828742E+00   # C10 mu+mu-
 03051313 4137   00   2    -4.44673121E+00   # C10 mu+mu-
 03051313 4237   00   2    -1.03593974E-03   # C10' mu+mu-
 03051212 4137   00   0     1.50535012E+00   # C11 nu_1 nu_1
 03051212 4137   00   2     1.50501452E+00   # C11 nu_1 nu_1
 03051212 4237   00   2     2.24063613E-04   # C11' nu_1 nu_1
 03051414 4137   00   0     1.50535012E+00   # C11 nu_2 nu_2
 03051414 4137   00   2     1.50501452E+00   # C11 nu_2 nu_2
 03051414 4237   00   2     2.24063619E-04   # C11' nu_2 nu_2
 03051616 4137   00   0     1.50535012E+00   # C11 nu_3 nu_3
 03051616 4137   00   2     1.50501452E+00   # C11 nu_3 nu_3
 03051616 4237   00   2     2.24065306E-04   # C11' nu_3 nu_3
Block IMFWCOEF Q=  1.60000000E+02  # Im(Wilson coefficients) at scale Q
#    id        order  M        value         comment
     0305 4422   00   0     3.85816617E-07   # C7
     0305 4422   00   2     3.43931958E-06   # C7
     0305 4322   00   2    -7.84286158E-07   # C7'
     0305 6421   00   0     3.30477448E-07   # C8
     0305 6421   00   2     5.37668192E-06   # C8
     0305 6321   00   2    -2.38283115E-07   # C8'
 03051111 4133   00   2    -1.82458125E-07   # C9 e+e-
 03051111 4233   00   2     2.72366330E-06   # C9' e+e-
 03051111 4137   00   2     2.78826245E-06   # C10 e+e-
 03051111 4237   00   2    -2.01854712E-05   # C10' e+e-
 03051313 4133   00   2    -1.82458852E-07   # C9 mu+mu-
 03051313 4233   00   2     2.72366305E-06   # C9' mu+mu-
 03051313 4137   00   2     2.78826337E-06   # C10 mu+mu-
 03051313 4237   00   2    -2.01854719E-05   # C10' mu+mu-
 03051212 4137   00   2    -5.85140045E-07   # C11 nu_1 nu_1
 03051212 4237   00   2     4.36592069E-06   # C11' nu_1 nu_1
 03051414 4137   00   2    -5.85140013E-07   # C11 nu_2 nu_2
 03051414 4237   00   2     4.36592069E-06   # C11' nu_2 nu_2
 03051616 4137   00   2    -5.85130897E-07   # C11 nu_3 nu_3
 03051616 4237   00   2     4.36592068E-06   # C11' nu_3 nu_3
