# SUSY Les Houches Accord 2 - MSSM spectrum + Decays
# SPheno v4.0.5be
# W. Porod, Comput. Phys. Commun. 153 (2003) 275-315, hep-ph/0301101;
# W. Porod, F.~Staub, Comput. Phys. Commun. 183 (2012) 2458
#                     arXiv:1104.1573 [hep-ph] 
# in case of problems send email to porod@physik.uni-wuerzburg.de
# Created: 07.09.2021,  17:22
Block SPINFO         # Program information
     1   SPheno      # spectrum calculator
     2   v4.0.5be    # version number
#
Block SPhenoINFO     # SPheno specific information
    1      2         # using 2-loop RGEs
    2      2         # using pole masses for boundary conditions at mZ
Block MODSEL  # Model selection
    1    0    # general MSSM
Block MINPAR  # Input parameters
    3    5.60003820E+01  # tanb at m_Z    
    4    1.00000000E+00  # Sign(mu)
Block EXTPAR  # non-universal input parameters
    0    3.34409080E+03  # scale for input parameters
    1   -4.57288150E+01  # M_1
    2    3.13220545E+02  # M_2
    3    2.89171624E+03  # M_3
   11    6.61290500E+03  # A_t
   12   -1.40533821E+03  # A_b
   13   -4.62217068E+02  # A_tau
   23    1.04492904E+02  # mu
   25    5.55878452E+01  # tan(beta)
   26    3.78470293E+03  # m_A, pole mass
   31    1.00000000E+04  # M_L11
   32    1.00000000E+04  # M_L22
   33    1.00000000E+04  # M_L33
   34    1.00000000E+04  # M_E11
   35    1.00000000E+04  # M_E22
   36    1.00000000E+04  # M_E33
   41    1.00000000E+04  # M_Q11
   42    1.00000000E+04  # M_Q22
   43    4.17896987E+03  # M_Q33
   44    1.00000000E+04  # M_U11
   45    1.00000000E+04  # M_U22
   46    2.66453100E+03  # M_U33
   47    1.00000000E+04  # M_D11
   48    1.00000000E+04  # M_D22
   49    2.45912750E+03  # M_D33
Block SMINPUTS  # SM parameters
         1     1.27908970E+02  # alpha_em^-1(MZ)^MSbar
         2     1.16637870E-05  # G_mu [GeV^-2]
         3     1.18400000E-01  # alpha_s(MZ)^MSbar
         4     9.11876000E+01  # m_Z(pole)
         5     4.18000000E+00  # m_b(m_b), MSbar
         6     1.73200000E+02  # m_t(pole)
         7     1.77700000E+00  # m_tau(pole)
         8     0.00000000E+00  # m_nu_3
        11     5.10998930E-04  # m_e(pole)
        12     0.00000000E+00  # m_nu_1
        13     1.05658372E-01  # m_muon(pole)
        14     0.00000000E+00  # m_nu_2
        21     5.00000000E-03  # m_d(2 GeV), MSbar
        22     2.50000000E-03  # m_u(2 GeV), MSbar
        23     9.50000000E-02  # m_s(2 GeV), MSbar
        24     1.27000000E+00  # m_c(m_c), MSbar
Block gauge Q=  3.34409080E+03  # (SUSY scale)
   1    3.55362975E-01  # g'(Q)^DRbar
   2    6.65198874E-01  # g(Q)^DRbar
   3    1.21977796E+00  # g3(Q)^DRbar
Block Yu Q=  3.34409080E+03  # (SUSY scale)
  1  1     8.38572871E-06   # Y_u(Q)^DRbar
  2  2     4.25995019E-03   # Y_c(Q)^DRbar
  3  3     1.01306338E+00   # Y_t(Q)^DRbar
Block Yd Q=  3.34409080E+03  # (SUSY scale)
  1  1     9.36700809E-04   # Y_d(Q)^DRbar
  2  2     1.77973154E-02   # Y_s(Q)^DRbar
  3  3     9.28913683E-01   # Y_b(Q)^DRbar
Block Ye Q=  3.34409080E+03  # (SUSY scale)
  1  1     1.63461141E-04   # Y_e(Q)^DRbar
  2  2     3.37985796E-02   # Y_mu(Q)^DRbar
  3  3     5.68436508E-01   # Y_tau(Q)^DRbar
Block Au Q=  3.34409080E+03  # (SUSY scale)
  1  1     0.00000000E+00   # A_u(Q)^DRbar
  2  2     0.00000000E+00   # A_c(Q)^DRbar
  3  3     6.61290498E+03   # A_t(Q)^DRbar
Block Ad Q=  3.34409080E+03  # (SUSY scale)
  1  1     0.00000000E+00   # A_d(Q)^DRbar
  2  2     0.00000000E+00   # A_s(Q)^DRbar
  3  3    -1.40533822E+03   # A_b(Q)^DRbar
Block Ae Q=  3.34409080E+03  # (SUSY scale)
  1  1     0.00000000E+00   # A_e(Q)^DRbar
  2  2     0.00000000E+00   # A_mu(Q)^DRbar
  3  3    -4.62217070E+02   # A_tau(Q)^DRbar
Block MSOFT Q=  3.34409080E+03  # soft SUSY breaking masses at Q
   1   -4.57288150E+01  # M_1
   2    3.13220545E+02  # M_2
   3    2.89171624E+03  # M_3
  21    1.42623702E+07  # M^2_(H,d)
  22    1.61331810E+05  # M^2_(H,u)
  31    1.00000000E+04  # M_(L,11)
  32    1.00000000E+04  # M_(L,22)
  33    1.00000000E+04  # M_(L,33)
  34    1.00000000E+04  # M_(E,11)
  35    1.00000000E+04  # M_(E,22)
  36    1.00000000E+04  # M_(E,33)
  41    1.00000000E+04  # M_(Q,11)
  42    1.00000000E+04  # M_(Q,22)
  43    4.17896987E+03  # M_(Q,33)
  44    1.00000000E+04  # M_(U,11)
  45    1.00000000E+04  # M_(U,22)
  46    2.66453100E+03  # M_(U,33)
  47    1.00000000E+04  # M_(D,11)
  48    1.00000000E+04  # M_(D,22)
  49    2.45912750E+03  # M_(D,33)
Block MASS  # Mass spectrum
#   PDG code      mass          particle
         6     1.73200000E+02  # m_t(pole)
        23     9.11876000E+01  # m_Z(pole)
        24     8.04299946E+01  # W+
        15     1.77700000E+00  # m_tau(pole)
        25     1.30389832E+02  # h0
        35     3.78220582E+03  # H0
        36     3.78470293E+03  # A0
        37     3.78414525E+03  # H+
   1000001     1.01073530E+04  # ~d_L
   2000001     1.00822168E+04  # ~d_R
   1000002     1.01069894E+04  # ~u_L
   2000002     1.00851950E+04  # ~u_R
   1000003     1.01073628E+04  # ~s_L
   2000003     1.00822350E+04  # ~s_R
   1000004     1.01069992E+04  # ~c_L
   2000004     1.00851961E+04  # ~c_R
   1000005     2.54843959E+03  # ~b_1
   2000005     4.16708366E+03  # ~b_2
   1000006     2.67655314E+03  # ~t_1
   2000006     4.17811368E+03  # ~t_2
   1000011     1.00214534E+04  # ~e_L-
   2000011     1.00090807E+04  # ~e_R-
   1000012     1.00206846E+04  # ~nu_eL
   1000013     1.00215015E+04  # ~mu_L-
   2000013     1.00091744E+04  # ~mu_R-
   1000014     1.00207326E+04  # ~nu_muL
   1000015     1.00347600E+04  # ~tau_1-
   2000015     1.00359737E+04  # ~tau_2-
   1000016     1.00343102E+04  # ~nu_tauL
   1000021     3.33454005E+03  # ~g
   1000022     4.06637004E+01  # ~chi_10
   1000023     1.12647300E+02  # ~chi_20
   1000025     1.37983399E+02  # ~chi_30
   1000035     3.67337680E+02  # ~chi_40
   1000024     1.12932016E+02  # ~chi_1+
   1000037     3.67239403E+02  # ~chi_2+
# Higgs mixing
Block alpha # Effective Higgs mixing angle
          -1.78903861E-02   # alpha
Block Hmix Q=  3.34409080E+03  # Higgs mixing parameters
   1    1.04492904E+02  # mu
   2    5.55878452E+01  # tan[beta](Q)
   3    2.43095217E+02  # v(Q)
   4    1.43239763E+07  # m^2_A(Q)
Block stopmix # stop mixing matrix
   1  1    -8.68572384E-02   # Re[R_st(1,1)]
   1  2     9.96220769E-01   # Re[R_st(1,2)]
   2  1    -9.96220769E-01   # Re[R_st(2,1)]
   2  2    -8.68572384E-02   # Re[R_st(2,2)]
Block sbotmix # sbottom mixing matrix
   1  1     1.24021095E-03   # Re[R_sb(1,1)]
   1  2     9.99999231E-01   # Re[R_sb(1,2)]
   2  1    -9.99999231E-01   # Re[R_sb(2,1)]
   2  2     1.24021095E-03   # Re[R_sb(2,2)]
Block staumix # stau mixing matrix
   1  1     8.56963719E-01   # Re[R_sta(1,1)]
   1  2     5.15376740E-01   # Re[R_sta(1,2)]
   2  1    -5.15376740E-01   # Re[R_sta(2,1)]
   2  2     8.56963719E-01   # Re[R_sta(2,2)]
Block Nmix # neutralino mixing matrix
   1  1    -9.21249287E-01   # Re[N(1,1)]
   1  2    -2.41430563E-02   # Re[N(1,2)]
   1  3    -3.69378126E-01   # Re[N(1,3)]
   1  4    -1.19484994E-01   # Re[N(1,4)]
   2  1    -1.88065862E-01   # Re[N(2,1)]
   2  2    -2.29168025E-01   # Re[N(2,2)]
   2  3     6.95683077E-01   # Re[N(2,3)]
   2  4    -6.54322783E-01   # Re[N(2,4)]
   3  1     3.39426868E-01   # Re[N(3,1)]
   3  2    -1.16105738E-01   # Re[N(3,2)]
   3  3    -6.10568040E-01   # Re[N(3,3)]
   3  4    -7.06056320E-01   # Re[N(3,4)]
   4  1     2.68399594E-02   # Re[N(4,1)]
   4  2    -9.66135905E-01   # Re[N(4,2)]
   4  3    -8.24107112E-02   # Re[N(4,3)]
   4  4     2.43042186E-01   # Re[N(4,4)]
Block Umix # chargino mixing matrix
   1  1    -1.17452584E-01   # Re[U(1,1)]
   1  2     9.93078492E-01   # Re[U(1,2)]
   2  1     9.93078492E-01   # Re[U(2,1)]
   2  2     1.17452584E-01   # Re[U(2,2)]
Block Vmix # chargino mixing matrix
   1  1    -3.47043447E-01   # Re[V(1,1)]
   1  2     9.37849053E-01   # Re[V(1,2)]
   2  1     9.37849053E-01   # Re[V(2,1)]
   2  2     3.47043447E-01   # Re[V(2,2)]
DECAY        23     2.49520000E+00   # Z
DECAY        24     2.08500000E+00   # W
DECAY   2000011     5.02878258E+01   # ~e^-_R
#    BR                NDA      ID1      ID2
     8.48742261E-01    2     1000022        11   # BR(~e^-_R -> chi^0_1 e^-)
     3.53627774E-02    2     1000023        11   # BR(~e^-_R -> chi^0_2 e^-)
     1.15176352E-01    2     1000025        11   # BR(~e^-_R -> chi^0_3 e^-)
     7.18504113E-04    2     1000035        11   # BR(~e^-_R -> chi^0_4 e^-)
DECAY   1000011     1.44574774E+02   # ~e^-_L
#    BR                NDA      ID1      ID2
     8.13242949E-02    2     1000022        11   # BR(~e^-_L -> chi^0_1 e^-)
     3.31438477E-02    2     1000023        11   # BR(~e^-_L -> chi^0_2 e^-)
     1.29743077E-03    2     1000025        11   # BR(~e^-_L -> chi^0_3 e^-)
     2.75652922E-01    2     1000035        11   # BR(~e^-_L -> chi^0_4 e^-)
     8.41562138E-03    2    -1000024        12   # BR(~e^-_L -> chi^-_1 nu_e)
     6.00165883E-01    2    -1000037        12   # BR(~e^-_L -> chi^-_2 nu_e)
#    BR                NDA      ID1      ID2       ID3
DECAY   2000013     5.07430968E+01   # ~mu^-_R
#    BR                NDA      ID1      ID2
     8.41746748E-01    2     1000022        13   # BR(~mu^-_R -> chi^0_1 mu^-)
     3.72147896E-02    2     1000023        13   # BR(~mu^-_R -> chi^0_2 mu^-)
     1.15814538E-01    2     1000025        13   # BR(~mu^-_R -> chi^0_3 mu^-)
     7.42426878E-04    2     1000035        13   # BR(~mu^-_R -> chi^0_4 mu^-)
     4.41982327E-03    2    -1000024        14   # BR(~mu^-_R -> chi^-_1 nu_mu)
DECAY   1000013     1.44803151E+02   # ~mu^-_L
#    BR                NDA      ID1      ID2
     8.14110092E-02    2     1000022        13   # BR(~mu^-_L -> chi^0_1 mu^-)
     3.38527314E-02    2     1000023        13   # BR(~mu^-_L -> chi^0_2 mu^-)
     1.88149482E-03    2     1000025        13   # BR(~mu^-_L -> chi^0_3 mu^-)
     2.75230157E-01    2     1000035        13   # BR(~mu^-_L -> chi^0_4 mu^-)
     8.40238896E-03    2    -1000024        14   # BR(~mu^-_L -> chi^-_1 nu_mu)
     5.99222218E-01    2    -1000037        14   # BR(~mu^-_L -> chi^-_2 nu_mu)
#    BR                NDA      ID1      ID2       ID3
DECAY   1000015     2.01354116E+02   # ~tau^-_1
#    BR                NDA      ID1      ID2
     1.83573277E-01    2     1000022        15   # BR(~tau^-_1 -> chi^0_1 tau^-)
     1.95818917E-01    2     1000023        15   # BR(~tau^-_1 -> chi^0_2 tau^-)
     8.52198630E-02    2     1000025        15   # BR(~tau^-_1 -> chi^0_3 tau^-)
     1.28893716E-01    2     1000035        15   # BR(~tau^-_1 -> chi^0_4 tau^-)
     1.26956274E-01    2    -1000024        16   # BR(~tau^-_1 -> chi^-_1 nu_tau)
     2.79537953E-01    2    -1000037        16   # BR(~tau^-_1 -> chi^-_2 nu_tau)
#    BR                NDA      ID1      ID2       ID3
DECAY   2000015     1.87316283E+02   # ~tau^-_2
#    BR                NDA      ID1      ID2
     1.87953985E-01    2     1000022        15   # BR(~tau^-_2 -> chi^0_1 tau^-)
     1.57907119E-01    2     1000023        15   # BR(~tau^-_2 -> chi^0_2 tau^-)
     1.97081542E-01    2     1000025        15   # BR(~tau^-_2 -> chi^0_3 tau^-)
     7.93543646E-02    2     1000035        15   # BR(~tau^-_2 -> chi^0_4 tau^-)
     2.09592259E-01    2    -1000024        16   # BR(~tau^-_2 -> chi^-_1 nu_tau)
     1.68110730E-01    2    -1000037        16   # BR(~tau^-_2 -> chi^-_2 nu_tau)
#    BR                NDA      ID1      ID2       ID3
DECAY   1000012     1.44579616E+02   # ~nu_e
#    BR                NDA      ID1      ID2
     6.68166205E-02    2     1000022        12   # BR(~nu_e -> chi^0_1 nu_e)
     5.05168747E-03    2     1000023        12   # BR(~nu_e -> chi^0_2 nu_e)
     2.69781208E-02    2     1000025        12   # BR(~nu_e -> chi^0_3 nu_e)
     2.92481212E-01    2     1000035        12   # BR(~nu_e -> chi^0_4 nu_e)
     7.34650986E-02    2     1000024        11   # BR(~nu_e -> chi^+_1 e^-)
     5.35207261E-01    2     1000037        11   # BR(~nu_e -> chi^+_2 e^-)
#    BR                NDA      ID1      ID2       ID3
DECAY   1000014     1.44807974E+02   # ~nu_mu
#    BR                NDA      ID1      ID2
     6.67115721E-02    2     1000022        14   # BR(~nu_mu -> chi^0_1 nu_mu)
     5.04374527E-03    2     1000023        14   # BR(~nu_mu -> chi^0_2 nu_mu)
     2.69357062E-02    2     1000025        14   # BR(~nu_mu -> chi^0_3 nu_mu)
     2.92021384E-01    2     1000035        14   # BR(~nu_mu -> chi^0_4 nu_mu)
     7.49001245E-02    2     1000024        13   # BR(~nu_mu -> chi^+_1 mu^-)
     5.34387468E-01    2     1000037        13   # BR(~nu_mu -> chi^+_2 mu^-)
#    BR                NDA      ID1      ID2       ID3
DECAY   1000016     2.09261842E+02   # ~nu_tau
#    BR                NDA      ID1      ID2
     4.62265730E-02    2     1000022        16   # BR(~nu_tau -> chi^0_1 nu_tau)
     3.49497382E-03    2     1000023        16   # BR(~nu_tau -> chi^0_2 nu_tau)
     1.86646262E-02    2     1000025        16   # BR(~nu_tau -> chi^0_3 nu_tau)
     2.02352372E-01    2     1000035        16   # BR(~nu_tau -> chi^0_4 nu_tau)
     3.54737843E-01    2     1000024        15   # BR(~nu_tau -> chi^+_1 tau^-)
     3.74523612E-01    2     1000037        15   # BR(~nu_tau -> chi^+_2 tau^-)
DECAY   2000001     6.36870863E+02   # ~d_R
#    BR                NDA      ID1      ID2
     7.50082477E-03    2     1000022         1   # BR(~d_R -> chi^0_1 d)
     3.12653943E-04    2     1000023         1   # BR(~d_R -> chi^0_2 d)
     1.01798248E-03    2     1000025         1   # BR(~d_R -> chi^0_3 d)
     9.91161911E-01    2     1000021         1   # BR(~d_R -> ~g d)
DECAY   1000001     7.68119011E+02   # ~d_L
#    BR                NDA      ID1      ID2
     1.13367711E-03    2     1000022         1   # BR(~d_L -> chi^0_1 d)
     2.21723658E-03    2     1000023         1   # BR(~d_L -> chi^0_2 d)
     1.80467816E-03    2     1000025         1   # BR(~d_L -> chi^0_3 d)
     5.44536283E-02    2     1000035         1   # BR(~d_L -> chi^0_4 d)
     1.59756592E-03    2    -1000024         2   # BR(~d_L -> chi^-_1 u)
     1.13936218E-01    2    -1000037         2   # BR(~d_L -> chi^-_2 u)
     8.24856996E-01    2     1000021         1   # BR(~d_L -> ~g d)
DECAY   2000003     6.36999249E+02   # ~s_R
#    BR                NDA      ID1      ID2
     7.51289643E-03    2     1000022         3   # BR(~s_R -> chi^0_1 s)
     3.60716177E-04    2     1000023         3   # BR(~s_R -> chi^0_2 s)
     1.05484386E-03    2     1000025         3   # BR(~s_R -> chi^0_3 s)
     9.90964810E-01    2     1000021         3   # BR(~s_R -> ~g s)
DECAY   1000003     7.68187201E+02   # ~s_L
#    BR                NDA      ID1      ID2
     1.14485817E-03    2     1000022         3   # BR(~s_L -> chi^0_1 s)
     2.25704716E-03    2     1000023         3   # BR(~s_L -> chi^0_2 s)
     1.83533140E-03    2     1000025         3   # BR(~s_L -> chi^0_3 s)
     5.44494084E-02    2     1000035         3   # BR(~s_L -> chi^0_4 s)
     1.60160210E-03    2    -1000024         4   # BR(~s_L -> chi^-_1 c)
     1.13926787E-01    2    -1000037         4   # BR(~s_L -> chi^-_2 c)
     8.24784966E-01    2     1000021         3   # BR(~s_L -> ~g s)
DECAY   1000005     8.81252390E+01   # ~b_1
#    BR                NDA      ID1      ID2
     8.14972026E-02    2     1000022         5   # BR(~b_1 -> chi^0_1 b)
     2.39946455E-01    2     1000023         5   # BR(~b_1 -> chi^0_2 b)
     1.85723229E-01    2     1000025         5   # BR(~b_1 -> chi^0_3 b)
     3.19603490E-03    2     1000035         5   # BR(~b_1 -> chi^0_4 b)
     4.83231758E-01    2    -1000024         6   # BR(~b_1 -> chi^-_1 t)
     6.40532028E-03    2    -1000037         6   # BR(~b_1 -> chi^-_2 t)
DECAY   2000005     3.28365437E+02   # ~b_2
#    BR                NDA      ID1      ID2
     3.07632637E-02    2     1000022         5   # BR(~b_2 -> chi^0_1 b)
     1.07388720E-01    2     1000023         5   # BR(~b_2 -> chi^0_2 b)
     8.28229379E-02    2     1000025         5   # BR(~b_2 -> chi^0_3 b)
     5.33213610E-02    2     1000035         5   # BR(~b_2 -> chi^0_4 b)
     2.28182720E-01    2    -1000024         6   # BR(~b_2 -> chi^-_1 t)
     1.39598991E-01    2    -1000037         6   # BR(~b_2 -> chi^-_2 t)
     1.29574248E-01    2     1000021         5   # BR(~b_2 -> ~g b)
     2.28253918E-01    2     1000006       -24   # BR(~b_2 -> ~t_1 W^-)
DECAY   2000002     6.54040331E+02   # ~u_R
#    BR                NDA      ID1      ID2
     2.92241545E-02    2     1000022         2   # BR(~u_R -> chi^0_1 u)
     1.21762433E-03    2     1000023         2   # BR(~u_R -> chi^0_2 u)
     3.96580699E-03    2     1000025         2   # BR(~u_R -> chi^0_3 u)
     9.65567673E-01    2     1000021         2   # BR(~u_R -> ~g u)
DECAY   1000002     7.68105160E+02   # ~u_L
#    BR                NDA      ID1      ID2
     2.05115284E-03    2     1000022         2   # BR(~u_L -> chi^0_1 u)
     3.99462728E-03    2     1000023         2   # BR(~u_L -> chi^0_2 u)
     1.79379312E-04    2     1000025         2   # BR(~u_L -> chi^0_3 u)
     5.33857101E-02    2     1000035         2   # BR(~u_L -> chi^0_4 u)
     1.39476352E-02    2     1000024         1   # BR(~u_L -> chi^+_1 d)
     1.01613796E-01    2     1000037         1   # BR(~u_L -> chi^+_2 d)
     8.24827699E-01    2     1000021         2   # BR(~u_L -> ~g u)
DECAY   2000004     6.54047683E+02   # ~c_R
#    BR                NDA      ID1      ID2
     2.92239077E-02    2     1000022         4   # BR(~c_R -> chi^0_1 c)
     1.21999387E-03    2     1000023         4   # BR(~c_R -> chi^0_2 c)
     3.96853603E-03    2     1000025         4   # BR(~c_R -> chi^0_3 c)
     9.65556930E-01    2     1000021         4   # BR(~c_R -> ~g c)
DECAY   1000004     7.68173316E+02   # ~c_L
#    BR                NDA      ID1      ID2
     2.05104055E-03    2     1000022         4   # BR(~c_L -> chi^0_1 c)
     3.99630920E-03    2     1000023         4   # BR(~c_L -> chi^0_2 c)
     1.81730510E-04    2     1000025         4   # BR(~c_L -> chi^0_3 c)
     5.33813058E-02    2     1000035         4   # BR(~c_L -> chi^0_4 c)
     1.40279286E-02    2     1000024         3   # BR(~c_L -> chi^+_1 s)
     1.01606018E-01    2     1000037         3   # BR(~c_L -> chi^+_2 s)
     8.24755667E-01    2     1000021         4   # BR(~c_L -> ~g c)
DECAY   1000006     1.14092980E+02   # ~t_1
#    BR                NDA      ID1      ID2
     5.27413113E-02    2     1000022         6   # BR(~t_1 -> chi^0_1 t)
     2.01691817E-01    2     1000023         6   # BR(~t_1 -> chi^0_2 t)
     2.33228121E-01    2     1000025         6   # BR(~t_1 -> chi^0_3 t)
     3.66156811E-02    2     1000035         6   # BR(~t_1 -> chi^0_4 t)
     4.02157003E-01    2     1000024         5   # BR(~t_1 -> chi^+_1 b)
     7.35329003E-02    2     1000037         5   # BR(~t_1 -> chi^+_2 b)
#    BR                NDA      ID1      ID2       ID3
DECAY   2000006     3.53585100E+02   # ~t_2
#    BR                NDA      ID1      ID2
     4.33814900E-03    2     1000022         6   # BR(~t_2 -> chi^0_1 t)
     1.07839310E-01    2     1000023         6   # BR(~t_2 -> chi^0_2 t)
     1.23745360E-01    2     1000025         6   # BR(~t_2 -> chi^0_3 t)
     5.66137026E-02    2     1000035         6   # BR(~t_2 -> chi^0_4 t)
     2.21164901E-01    2     1000024         5   # BR(~t_2 -> chi^+_1 b)
     8.35744646E-02    2     1000037         5   # BR(~t_2 -> chi^+_2 b)
     1.23501431E-01    2     1000021         6   # BR(~t_2 -> ~g t)
     1.07075708E-01    2     1000006        23   # BR(~t_2 -> ~t_1 Z)
     1.72094126E-01    2     1000006        25   # BR(~t_2 -> ~t_1 h^0)
DECAY   1000024     1.09389823E-03   # chi^+_1
#    BR                NDA      ID1      ID2       ID3
     3.33507102E-01    3     1000022        -1         2   # BR(chi^+_1 -> chi^0_1 d_bar u)
     3.33198992E-01    3     1000022        -3         4   # BR(chi^+_1 -> chi^0_1 s_bar c)
     1.11166494E-01    3     1000022       -11        12   # BR(chi^+_1 -> chi^0_1 e^+ nu_e)
     1.11165908E-01    3     1000022       -13        14   # BR(chi^+_1 -> chi^0_1 mu^+ nu_mu)
     1.10961504E-01    3     1000022       -15        16   # BR(chi^+_1 -> chi^0_1 tau^+ nu_tau)
DECAY   1000037     2.73643925E+00   # chi^+_2
#    BR                NDA      ID1      ID2
     3.59933782E-02    2     1000022        24   # BR(chi^+_2 -> chi^0_1 W^+)
     2.71103033E-01    2     1000023        24   # BR(chi^+_2 -> chi^0_2 W^+)
     2.66783797E-01    2     1000025        24   # BR(chi^+_2 -> chi^0_3 W^+)
     2.46593234E-01    2     1000024        23   # BR(chi^+_2 -> chi^+_1 Z)
     1.79316448E-01    2     1000024        25   # BR(chi^+_2 -> chi^+_1 h^0)
#    BR                NDA      ID1      ID2       ID3
     1.20928395E-04    3     1000023        -5         6   # BR(chi^+_2 -> chi^0_2 b_bar t)
DECAY   1000022     0.00000000E+00   # chi^0_1
DECAY   1000023     4.64958550E-04   # chi^0_2
#    BR                NDA      ID1      ID2
     1.03626881E-03    2     1000022        22   # BR(chi^0_2 -> chi^0_1 photon)
#    BR                NDA      ID1      ID2       ID3
     1.19029818E-01    3     1000022         2        -2   # BR(chi^0_2 -> chi^0_1 u u_bar)
     1.18648861E-01    3     1000022         4        -4   # BR(chi^0_2 -> chi^0_1 c c_bar)
     1.52617232E-01    3     1000022         1        -1   # BR(chi^0_2 -> chi^0_1 d d_bar)
     1.52615192E-01    3     1000022         3        -3   # BR(chi^0_2 -> chi^0_1 s s_bar)
     1.48889661E-01    3     1000022         5        -5   # BR(chi^0_2 -> chi^0_1 b b_bar)
     3.44381087E-02    3     1000022        11       -11   # BR(chi^0_2 -> chi^0_1 e^- e^+)
     3.44372614E-02    3     1000022        13       -13   # BR(chi^0_2 -> chi^0_1 mu^- mu^+)
     3.41988806E-02    3     1000022        15       -15   # BR(chi^0_2 -> chi^0_1 tau^- tau^+)
     2.04088717E-01    3     1000022        12       -12   # BR(chi^0_2 -> chi^0_1 nu_e nu_bar_e)
DECAY   1000025     8.38526849E-03   # chi^0_3
#    BR                NDA      ID1      ID2
     9.90145566E-01    2     1000022        23   # BR(chi^0_3 -> chi^0_1 Z)
     1.23787527E-04    2     1000022        22   # BR(chi^0_3 -> chi^0_1 photon)
     1.40595434E-04    2     1000023        22   # BR(chi^0_3 -> chi^0_2 photon)
#    BR                NDA      ID1      ID2       ID3
     3.24060134E-04    3     1000023         2        -2   # BR(chi^0_3 -> chi^0_2 u u_bar)
     3.13618394E-04    3     1000023         4        -4   # BR(chi^0_3 -> chi^0_2 c c_bar)
     4.15507830E-04    3     1000023         1        -1   # BR(chi^0_3 -> chi^0_2 d d_bar)
     4.15442142E-04    3     1000023         3        -3   # BR(chi^0_3 -> chi^0_2 s s_bar)
     3.06526884E-04    3     1000023         5        -5   # BR(chi^0_3 -> chi^0_2 b b_bar)
     5.55659083E-04    3     1000023        12       -12   # BR(chi^0_3 -> chi^0_2 nu_e nu_bar_e)
     1.17105277E-03    3     1000024         1        -2   # BR(chi^0_3 -> chi^+_1 d u_bar)
     1.17105277E-03    3    -1000024        -1         2   # BR(chi^0_3 -> chi^-_1 d_bar u)
     1.15690442E-03    3     1000024         3        -4   # BR(chi^0_3 -> chi^+_1 s c_bar)
     1.15690442E-03    3    -1000024        -3         4   # BR(chi^0_3 -> chi^-_1 s_bar c)
     3.90353874E-04    3     1000024        11       -12   # BR(chi^0_3 -> chi^+_1 e^- nu_bar_e)
     3.90353874E-04    3    -1000024       -11        12   # BR(chi^0_3 -> chi^-_1 e^+ nu_e)
     3.90331522E-04    3     1000024        13       -14   # BR(chi^0_3 -> chi^+_1 mu^- nu_bar_mu)
     3.90331522E-04    3    -1000024       -13        14   # BR(chi^0_3 -> chi^-_1 mu^+ nu_mu)
     3.81292056E-04    3     1000024        15       -16   # BR(chi^0_3 -> chi^+_1 tau^- nu_bar_tau)
     3.81292056E-04    3    -1000024       -15        16   # BR(chi^0_3 -> chi^-_1 tau^+ nu_tau)
DECAY   1000035     3.13761848E+00   # chi^0_4
#    BR                NDA      ID1      ID2
     2.48325169E-01    2     1000024       -24   # BR(chi^0_4 -> chi^+_1 W^-)
     2.48325169E-01    2    -1000024        24   # BR(chi^0_4 -> chi^-_1 W^+)
     1.88330192E-02    2     1000022        23   # BR(chi^0_4 -> chi^0_1 Z)
     4.58833820E-02    2     1000023        23   # BR(chi^0_4 -> chi^0_2 Z)
     1.92719785E-01    2     1000025        23   # BR(chi^0_4 -> chi^0_3 Z)
     1.24065833E-02    2     1000022        25   # BR(chi^0_4 -> chi^0_1 h^0)
     1.18131859E-01    2     1000023        25   # BR(chi^0_4 -> chi^0_2 h^0)
     1.15129031E-01    2     1000025        25   # BR(chi^0_4 -> chi^0_3 h^0)
#    BR                NDA      ID1      ID2       ID3
     1.10700641E-04    3     1000024         5        -6   # BR(chi^0_4 -> chi^+_1 b t_bar)
     1.10700641E-04    3    -1000024        -5         6   # BR(chi^0_4 -> chi^-_1 b_bar t)
DECAY   1000021     3.00652581E+01   # ~g
#    BR                NDA      ID1      ID2
     4.92736412E-04    2     1000006        -4   # BR(~g -> ~t_1 c_bar)
     4.92736412E-04    2    -1000006         4   # BR(~g -> ~t^*_1 c)
     2.11930913E-01    2     1000006        -6   # BR(~g -> ~t_1 t_bar)
     2.11930913E-01    2    -1000006         6   # BR(~g -> ~t^*_1 t)
     2.83941357E-01    2     1000005        -5   # BR(~g -> ~b_1 b_bar)
     2.83941357E-01    2    -1000005         5   # BR(~g -> ~b^*_1 b)
     1.11539838E-04    2     1000023        21   # BR(~g -> chi^0_2 g)
     1.22014973E-04    2     1000025        21   # BR(~g -> chi^0_3 g)
#    BR                NDA      ID1      ID2       ID3
     1.73263421E-04    3     1000022         5        -5   # BR(~g -> chi^0_1 b b_bar)
     5.64171284E-04    3     1000023         6        -6   # BR(~g -> chi^0_2 t t_bar)
     6.02262218E-04    3     1000023         5        -5   # BR(~g -> chi^0_2 b b_bar)
     6.54291602E-04    3     1000025         6        -6   # BR(~g -> chi^0_3 t t_bar)
     4.64180175E-04    3     1000025         5        -5   # BR(~g -> chi^0_3 b b_bar)
     3.40553543E-04    3     1000035         6        -6   # BR(~g -> chi^0_4 t t_bar)
     3.24358168E-04    3     1000035         5        -5   # BR(~g -> chi^0_4 b b_bar)
     1.21495780E-03    3     1000024         5        -6   # BR(~g -> chi^+_1 b t_bar)
     1.21495780E-03    3    -1000024        -5         6   # BR(~g -> chi^-_1 b_bar t)
     6.75841660E-04    3     1000037         5        -6   # BR(~g -> chi^+_2 b t_bar)
     6.75841660E-04    3    -1000037        -5         6   # BR(~g -> chi^-_2 b_bar t)
DECAY        25     6.54626218E-03   # Gamma(h0)
     1.68759689E-03   2        22        22   # BR(h0 -> photon photon)
     1.40536679E-03   2        22        23   # BR(h0 -> photon Z)
     3.11610223E-02   2        23        23   # BR(h0 -> Z Z)
     2.33726476E-01   2       -24        24   # BR(h0 -> W W)
     4.86283208E-02   2        21        21   # BR(h0 -> gluon gluon)
     2.80626057E-09   2       -11        11   # BR(h0 -> Electron electron)
     1.24829087E-04   2       -13        13   # BR(h0 -> Muon muon)
     3.59963760E-02   2       -15        15   # BR(h0 -> Tau tau)
     7.91531208E-08   2        -2         2   # BR(h0 -> Up up)
     1.53636164E-02   2        -4         4   # BR(h0 -> Charm charm)
     3.22383075E-07   2        -1         1   # BR(h0 -> Down down)
     1.16598546E-04   2        -3         3   # BR(h0 -> Strange strange)
     3.09956694E-01   2        -5         5   # BR(h0 -> Bottom bottom)
     3.21832699E-01   2   1000022   1000022   # BR(h0 -> neutralino1 neutralino1)
DECAY        35     1.74983231E+02   # Gamma(HH)
     2.48424308E-09   2        22        22   # BR(HH -> photon photon)
     1.81888413E-08   2        22        23   # BR(HH -> photon Z)
     6.31594536E-08   2        23        23   # BR(HH -> Z Z)
     1.42503988E-08   2       -24        24   # BR(HH -> W W)
     5.81344903E-06   2        21        21   # BR(HH -> gluon gluon)
     9.35739484E-09   2       -11        11   # BR(HH -> Electron electron)
     4.16670622E-04   2       -13        13   # BR(HH -> Muon muon)
     1.20343889E-01   2       -15        15   # BR(HH -> Tau tau)
     1.61725921E-14   2        -2         2   # BR(HH -> Up up)
     3.13748218E-09   2        -4         4   # BR(HH -> Charm charm)
     2.26188319E-04   2        -6         6   # BR(HH -> Top top)
     6.65808767E-07   2        -1         1   # BR(HH -> Down down)
     2.40818484E-04   2        -3         3   # BR(HH -> Strange strange)
     5.92197364E-01   2        -5         5   # BR(HH -> Bottom bottom)
     2.40456885E-02   2  -1000024   1000024   # BR(HH -> Chargino1 chargino1)
     7.41434080E-02   2  -1000024   1000037   # BR(HH -> Chargino1 chargino2)
     7.41434080E-02   2  -1000037   1000024   # BR(HH -> Chargino2 chargino1)
     1.91745696E-03   2  -1000037   1000037   # BR(HH -> Chargino2 chargino2)
     5.93285512E-03   2   1000022   1000022   # BR(HH -> neutralino1 neutralino1)
     1.18140351E-02   2   1000022   1000023   # BR(HH -> neutralino1 neutralino2)
     1.66808276E-03   2   1000022   1000025   # BR(HH -> neutralino1 neutralino3)
     1.12344905E-02   2   1000022   1000035   # BR(HH -> neutralino1 neutralino4)
     1.54326021E-03   2   1000023   1000023   # BR(HH -> neutralino2 neutralino2)
     1.84792340E-03   2   1000023   1000025   # BR(HH -> neutralino2 neutralino3)
     3.76082556E-02   2   1000023   1000035   # BR(HH -> neutralino2 neutralino4)
     6.87480820E-03   2   1000025   1000025   # BR(HH -> neutralino3 neutralino3)
     3.27421753E-02   2   1000025   1000035   # BR(HH -> neutralino3 neutralino4)
     1.05228446E-03   2   1000035   1000035   # BR(HH -> neutralino4 neutralino4)
     3.47311407E-07   2        25        25   # BR(HH -> h0 h0)
DECAY        36     1.62570210E+02   # Gamma(A0)
     4.45786298E-08   2        22        22   # BR(A0 -> photon photon)
     7.12815702E-08   2        22        23   # BR(A0 -> photon Z)
     9.20204784E-06   2        21        21   # BR(A0 -> gluon gluon)
     9.06841271E-09   2       -11        11   # BR(A0 -> Electron electron)
     4.03795289E-04   2       -13        13   # BR(A0 -> Muon muon)
     1.16625329E-01   2       -15        15   # BR(A0 -> Tau tau)
     1.50021647E-14   2        -2         2   # BR(A0 -> Up up)
     2.91032937E-09   2        -4         4   # BR(A0 -> Charm charm)
     2.11657219E-04   2        -6         6   # BR(A0 -> Top top)
     6.45181346E-07   2        -1         1   # BR(A0 -> Down down)
     2.33357273E-04   2        -3         3   # BR(A0 -> Strange strange)
     5.73856963E-01   2        -5         5   # BR(A0 -> Bottom bottom)
     2.65394570E-02   2  -1000024   1000024   # BR(A0 -> Chargino1 chargino1)
     7.92233627E-02   2  -1000024   1000037   # BR(A0 -> Chargino1 chargino2)
     7.92233627E-02   2  -1000037   1000024   # BR(A0 -> Chargino2 chargino1)
     2.69650623E-03   2  -1000037   1000037   # BR(A0 -> Chargino2 chargino2)
     6.23059655E-03   2   1000022   1000022   # BR(A0 -> neutralino1 neutralino1)
     1.33952228E-02   2   1000022   1000023   # BR(A0 -> neutralino1 neutralino2)
     1.55454160E-03   2   1000022   1000025   # BR(A0 -> neutralino1 neutralino3)
     1.14410761E-02   2   1000022   1000035   # BR(A0 -> neutralino1 neutralino4)
     1.78021720E-03   2   1000023   1000023   # BR(A0 -> neutralino2 neutralino2)
     2.29776270E-03   2   1000023   1000025   # BR(A0 -> neutralino2 neutralino3)
     4.35507557E-02   2   1000023   1000035   # BR(A0 -> neutralino2 neutralino4)
     6.82501358E-03   2   1000025   1000025   # BR(A0 -> neutralino3 neutralino3)
     3.24452050E-02   2   1000025   1000035   # BR(A0 -> neutralino3 neutralino4)
     1.45570739E-03   2   1000035   1000035   # BR(A0 -> neutralino4 neutralino4)
     1.35351977E-07   2        23        25   # BR(A0 -> Z h0)
     6.56081980E-13   2        23        35   # BR(A0 -> Z HH)
     8.45834660E-39   2        25        25   # BR(A0 -> h0 h0)
DECAY        37     1.91842504E+02   # Gamma(Hp)
     1.02297638E-08   2       -11        12   # BR(Hp -> Electron nu_e)
     4.37354355E-04   2       -13        14   # BR(Hp -> Muon nu_mu)
     1.23708714E-01   2       -15        16   # BR(Hp -> Tau nu_tau)
     6.33230454E-07   2        -1         2   # BR(Hp -> Down up)
     1.07161249E-05   2        -3         2   # BR(Hp -> Strange up)
     6.49505980E-06   2        -5         2   # BR(Hp -> Bottom up)
     2.97936563E-08   2        -1         4   # BR(Hp -> Down charm)
     2.28202135E-04   2        -3         4   # BR(Hp -> Strange charm)
     9.09540879E-04   2        -5         4   # BR(Hp -> Bottom charm)
     1.58636126E-08   2        -1         6   # BR(Hp -> Down top)
     6.85480707E-07   2        -3         6   # BR(Hp -> Strange top)
     6.13381890E-01   2        -5         6   # BR(Hp -> Bottom top)
     2.71899174E-02   2   1000022   1000024   # BR(Hp -> neutralino1 chargino1)
     1.99950947E-02   2   1000022   1000037   # BR(Hp -> neutralino1 chargino2)
     4.13045055E-03   2   1000023   1000024   # BR(Hp -> neutralino2 chargino1)
     8.28749930E-02   2   1000023   1000037   # BR(Hp -> neutralino2 chargino2)
     6.21856514E-05   2   1000024   1000025   # BR(Hp -> chargino1 neutralino3)
     5.49880933E-02   2   1000025   1000037   # BR(Hp -> neutralino3 chargino2)
     7.20732290E-02   2   1000024   1000035   # BR(Hp -> chargino1 neutralino4)
     1.63461454E-06   2   1000035   1000037   # BR(Hp -> neutralino4 chargino2)
     1.14693124E-07   2        24        25   # BR(Hp -> W h0)
     1.94724695E-13   2        24        35   # BR(Hp -> W HH)
DECAY         6     2.43000000E+00   # top
#    BR                NDA      ID1      ID2
     1.00000000E+00    2           5        24   # BR(t -> b W)
Block HiggsBoundsInputHiggsCouplingsFermions
# ScalarNormEffCoupSq PseudoSNormEffCoupSq NP IP1 IP2 IP2
    9.89220929E-01    0.00000000E+00        3  25   5   5  # h0-b-b eff. coupling^2, normalised to SM
    3.09001931E+03    0.00000000E+00        3  35   5   5  # H0-b-b eff. coupling^2, normalised to SM
    0.00000000E+00    3.09000853E+03        3  36   5   5  # A0-b-b eff. coupling^2, normalised to SM
#
    1.00000349E+00    0.00000000E+00        3  25   6   6  # h0-t-t eff. coupling^2, normalised to SM
    3.20135339E-04    0.00000000E+00        3  35   6   6  # H0-t-t eff. coupling^2, normalised to SM
    0.00000000E+00    3.23623702E-04        3  36   6   6  # A0-t-t eff. coupling^2, normalised to SM
#
    9.89220929E-01    0.00000000E+00        3  25  15  15  # h0-tau-tau eff. coupling^2, normalised to SM
    3.09001931E+03    0.00000000E+00        3  35  15  15  # H0-tau-tau eff. coupling^2, normalised to SM
    0.00000000E+00    3.09000853E+03        3  36  15  15  # A0-tau-tau eff. coupling^2, normalised to SM
#
Block HiggsBoundsInputHiggsCouplingsBosons
    9.99999991E-01        3  25  24  24  # h0-W-W eff. coupling^2, normalised to SM
    9.45131901E-09        3  35  24  24  # H0-W-W eff. coupling^2, normalised to SM
    0.00000000E+00        3  36  24  24  # A0-W-W eff. coupling^2, normalised to SM
#
    9.99999991E-01        3  25  23  23  # h0-Z-Z eff. coupling^2, normalised to SM
    9.45131901E-09        3  35  23  23  # H0-Z-Z eff. coupling^2, normalised to SM
    0.00000000E+00        3  36  23  23  # A0-Z-Z eff. coupling^2, normalised to SM
#
    1.26019060E+00        3  25  21  21  # h0-g-g eff. coupling^2, normalised to SM
    1.47878367E-02        3  35  21  21  # H0-g-g eff. coupling^2, normalised to SM
    1.48021564E-01        3  36  21  21  # A0-g-g eff. coupling^2, normalised to SM
#
    0.00000000E+00        3  25  25  23  # h0-h0-Z eff. coupling^2, normalised to SM
    0.00000000E+00        3  35  25  23  # H0-h0-Z eff. coupling^2, normalised to SM
    9.45131901E-09        3  36  25  23  # A0-h0-Z eff. coupling^2, normalised to SM
    0.00000000E+00        3  35  35  23  # H0-H0-Z eff. coupling^2, normalised to SM
    9.99999991E-01        3  36  35  23  # A0-H0-Z eff. coupling^2, normalised to SM
    0.00000000E+00        3  36  36  23  # A0-A0-Z eff. coupling^2, normalised to SM
#
    0.00000000E+00        4  25  21  21  23  # h0-g-g-Z eff. coupling^2, normalised to SM
    0.00000000E+00        4  35  21  21  23  # H0-g-g-Z eff. coupling^2, normalised to SM
    0.00000000E+00        4  36  21  21  23  # A0-g-g-Z eff. coupling^2, normalised to SM
Block SPhenoLowEnergy  # low energy observables
    1    3.46145007E-04   # BR(b -> s gamma)
    2    1.58736240E-06   # BR(b -> s mu+ mu-)
    3    3.52393393E-05   # BR(b -> s nu nu)
    4    2.57915660E-15   # BR(Bd -> e+ e-)
    5    1.10178818E-10   # BR(Bd -> mu+ mu-)
    6    2.30749631E-08   # BR(Bd -> tau+ tau-)
    7    8.65946424E-14   # BR(Bs -> e+ e-)
    8    3.69932681E-09   # BR(Bs -> mu+ mu-)
    9    7.85034737E-07   # BR(Bs -> tau+ tau-)
   10    9.56256653E-05   # BR(B_u -> tau nu)
   11    9.87776512E-01   # BR(B_u -> tau nu)/BR(B_u -> tau nu)_SM
   12    5.42231860E-01   # |Delta(M_Bd)| [ps^-1] 
   13    1.93679706E+01   # |Delta(M_Bs)| [ps^-1] 
   14    0.00000000E+00   # neutron EDM according to the chiral quark model
   15    0.00000000E+00   # neutron EDM according to the relativistic quark-parton model
   16    2.15855237E-03   # epsilon_K
   17    2.28167206E-15   # Delta(M_K)
   18    2.47930990E-11   # BR(K^0 -> pi^0 nu nu)
   19    8.28875833E-11   # BR(K^+ -> pi^+ nu nu)
   20    3.15128917E-16   # Delta(g-2)_electron/2
   21    1.34730283E-11   # Delta(g-2)_muon/2
   22    3.83149158E-09   # Delta(g-2)_tau/2
   23    0.00000000E+00   # electric dipole moment of the electron
   24    0.00000000E+00   # electric dipole moment of the muon
   25    0.00000000E+00   # electric dipole moment of the tau
   26    0.00000000E+00   # Br(mu -> e gamma)
   27    0.00000000E+00   # Br(tau -> e gamma)
   28    0.00000000E+00   # Br(tau -> mu gamma)
   29    0.00000000E+00   # Br(mu -> 3 e)
   30    0.00000000E+00   # Br(tau -> 3 e)
   31    0.00000000E+00   # Br(tau -> 3 mu)
   39    7.16341701E-05   # Delta(rho_parameter)
   40    0.00000000E+00   # BR(Z -> e mu)
   41    0.00000000E+00   # BR(Z -> e tau)
   42    0.00000000E+00   # BR(Z -> mu tau)
Block FWCOEF Q=  1.60000000E+02  # Wilson coefficients at scale Q
#    id        order  M        value         comment
     0305 4422   00   0    -1.88819110E-01   # C7
     0305 4422   00   2    -2.17989699E-01   # C7
     0305 4322   00   2    -2.32618761E-04   # C7'
     0305 6421   00   0    -9.52278348E-02   # C8
     0305 6421   00   2    -1.15926826E-01   # C8
     0305 6321   00   2    -2.12450908E-04   # C8'
 03051111 4133   00   0     1.62150064E+00   # C9 e+e-
 03051111 4133   00   2     1.62175283E+00   # C9 e+e-
 03051111 4233   00   2     6.57893673E-04   # C9' e+e-
 03051111 4137   00   0    -4.44419274E+00   # C10 e+e-
 03051111 4137   00   2    -4.44140153E+00   # C10 e+e-
 03051111 4237   00   2    -4.90451729E-03   # C10' e+e-
 03051313 4133   00   0     1.62150064E+00   # C9 mu+mu-
 03051313 4133   00   2     1.62175242E+00   # C9 mu+mu-
 03051313 4233   00   2     6.57892866E-04   # C9' mu+mu-
 03051313 4137   00   0    -4.44419274E+00   # C10 mu+mu-
 03051313 4137   00   2    -4.44140194E+00   # C10 mu+mu-
 03051313 4237   00   2    -4.90451784E-03   # C10' mu+mu-
 03051212 4137   00   0     1.50535012E+00   # C11 nu_1 nu_1
 03051212 4137   00   2     1.50474751E+00   # C11 nu_1 nu_1
 03051212 4237   00   2     1.06177817E-03   # C11' nu_1 nu_1
 03051414 4137   00   0     1.50535012E+00   # C11 nu_2 nu_2
 03051414 4137   00   2     1.50474751E+00   # C11 nu_2 nu_2
 03051414 4237   00   2     1.06177827E-03   # C11' nu_2 nu_2
 03051616 4137   00   0     1.50535012E+00   # C11 nu_3 nu_3
 03051616 4137   00   2     1.50474752E+00   # C11 nu_3 nu_3
 03051616 4237   00   2     1.06180673E-03   # C11' nu_3 nu_3
Block IMFWCOEF Q=  1.60000000E+02  # Im(Wilson coefficients) at scale Q
#    id        order  M        value         comment
     0305 4422   00   0     3.85806284E-07   # C7
     0305 4422   00   2     1.60640164E-05   # C7
     0305 4322   00   2    -2.56232895E-06   # C7'
     0305 6421   00   0     3.30468597E-07   # C8
     0305 6421   00   2    -2.16990443E-05   # C8
     0305 6321   00   2    -1.70385706E-06   # C8'
 03051111 4133   00   2     4.22502563E-07   # C9 e+e-
 03051111 4233   00   2     1.26928516E-05   # C9' e+e-
 03051111 4137   00   2     3.40681972E-06   # C10 e+e-
 03051111 4237   00   2    -9.46287660E-05   # C10' e+e-
 03051313 4133   00   2     4.22495537E-07   # C9 mu+mu-
 03051313 4233   00   2     1.26928456E-05   # C9' mu+mu-
 03051313 4137   00   2     3.40682779E-06   # C10 mu+mu-
 03051313 4237   00   2    -9.46287841E-05   # C10' mu+mu-
 03051212 4137   00   2    -7.07732898E-07   # C11 nu_1 nu_1
 03051212 4237   00   2     2.04861682E-05   # C11' nu_1 nu_1
 03051414 4137   00   2    -7.07732512E-07   # C11 nu_2 nu_2
 03051414 4237   00   2     2.04861682E-05   # C11' nu_2 nu_2
 03051616 4137   00   2    -7.07626218E-07   # C11 nu_3 nu_3
 03051616 4237   00   2     2.04861681E-05   # C11' nu_3 nu_3
