# SUSY Les Houches Accord 2 - MSSM spectrum + Decays
# SPheno v4.0.5be
# W. Porod, Comput. Phys. Commun. 153 (2003) 275-315, hep-ph/0301101;
# W. Porod, F.~Staub, Comput. Phys. Commun. 183 (2012) 2458
#                     arXiv:1104.1573 [hep-ph] 
# in case of problems send email to porod@physik.uni-wuerzburg.de
# Created: 07.09.2021,  19:04
Block SPINFO         # Program information
     1   SPheno      # spectrum calculator
     2   v4.0.5be    # version number
#
Block SPhenoINFO     # SPheno specific information
    1      2         # using 2-loop RGEs
    2      2         # using pole masses for boundary conditions at mZ
Block MODSEL  # Model selection
    1    0    # general MSSM
Block MINPAR  # Input parameters
    3    5.28914371E+01  # tanb at m_Z    
    4    1.00000000E+00  # Sign(mu)
Block EXTPAR  # non-universal input parameters
    0    4.15728610E+03  # scale for input parameters
    1    1.64119356E+02  # M_1
    2   -1.48727198E+03  # M_2
    3    1.60486092E+03  # M_3
   11    5.69504514E+03  # A_t
   12    1.85061192E+03  # A_b
   13   -3.20045321E+02  # A_tau
   23    1.76654220E+02  # mu
   25    5.23039510E+01  # tan(beta)
   26    6.83353924E+02  # m_A, pole mass
   31    1.00000000E+04  # M_L11
   32    1.00000000E+04  # M_L22
   33    1.00000000E+04  # M_L33
   34    1.00000000E+04  # M_E11
   35    1.00000000E+04  # M_E22
   36    1.00000000E+04  # M_E33
   41    1.00000000E+04  # M_Q11
   42    1.00000000E+04  # M_Q22
   43    3.77908853E+03  # M_Q33
   44    1.00000000E+04  # M_U11
   45    1.00000000E+04  # M_U22
   46    4.67019570E+03  # M_U33
   47    1.00000000E+04  # M_D11
   48    1.00000000E+04  # M_D22
   49    2.82774853E+03  # M_D33
Block SMINPUTS  # SM parameters
         1     1.27908970E+02  # alpha_em^-1(MZ)^MSbar
         2     1.16637870E-05  # G_mu [GeV^-2]
         3     1.18400000E-01  # alpha_s(MZ)^MSbar
         4     9.11876000E+01  # m_Z(pole)
         5     4.18000000E+00  # m_b(m_b), MSbar
         6     1.73200000E+02  # m_t(pole)
         7     1.77700000E+00  # m_tau(pole)
         8     0.00000000E+00  # m_nu_3
        11     5.10998930E-04  # m_e(pole)
        12     0.00000000E+00  # m_nu_1
        13     1.05658372E-01  # m_muon(pole)
        14     0.00000000E+00  # m_nu_2
        21     5.00000000E-03  # m_d(2 GeV), MSbar
        22     2.50000000E-03  # m_u(2 GeV), MSbar
        23     9.50000000E-02  # m_s(2 GeV), MSbar
        24     1.27000000E+00  # m_c(m_c), MSbar
Block gauge Q=  4.15728610E+03  # (SUSY scale)
   1    3.55362975E-01  # g'(Q)^DRbar
   2    6.65198874E-01  # g(Q)^DRbar
   3    1.21977796E+00  # g3(Q)^DRbar
Block Yu Q=  4.15728610E+03  # (SUSY scale)
  1  1     8.38590439E-06   # Y_u(Q)^DRbar
  2  2     4.26003943E-03   # Y_c(Q)^DRbar
  3  3     1.01308461E+00   # Y_t(Q)^DRbar
Block Yd Q=  4.15728610E+03  # (SUSY scale)
  1  1     8.81382961E-04   # Y_d(Q)^DRbar
  2  2     1.67462763E-02   # Y_s(Q)^DRbar
  3  3     8.74055712E-01   # Y_b(Q)^DRbar
Block Ye Q=  4.15728610E+03  # (SUSY scale)
  1  1     1.53807772E-04   # Y_e(Q)^DRbar
  2  2     3.18025691E-02   # Y_mu(Q)^DRbar
  3  3     5.34866894E-01   # Y_tau(Q)^DRbar
Block Au Q=  4.15728610E+03  # (SUSY scale)
  1  1     0.00000000E+00   # A_u(Q)^DRbar
  2  2     0.00000000E+00   # A_c(Q)^DRbar
  3  3     5.69504517E+03   # A_t(Q)^DRbar
Block Ad Q=  4.15728610E+03  # (SUSY scale)
  1  1     0.00000000E+00   # A_d(Q)^DRbar
  2  2     0.00000000E+00   # A_s(Q)^DRbar
  3  3     1.85061192E+03   # A_b(Q)^DRbar
Block Ae Q=  4.15728610E+03  # (SUSY scale)
  1  1     0.00000000E+00   # A_e(Q)^DRbar
  2  2     0.00000000E+00   # A_mu(Q)^DRbar
  3  3    -3.20045320E+02   # A_tau(Q)^DRbar
Block MSOFT Q=  4.15728610E+03  # soft SUSY breaking masses at Q
   1    1.64119356E+02  # M_1
   2   -1.48727198E+03  # M_2
   3    1.60486092E+03  # M_3
  21    4.15630982E+05  # M^2_(H,d)
  22    2.95382312E+05  # M^2_(H,u)
  31    1.00000000E+04  # M_(L,11)
  32    1.00000000E+04  # M_(L,22)
  33    1.00000000E+04  # M_(L,33)
  34    1.00000000E+04  # M_(E,11)
  35    1.00000000E+04  # M_(E,22)
  36    1.00000000E+04  # M_(E,33)
  41    1.00000000E+04  # M_(Q,11)
  42    1.00000000E+04  # M_(Q,22)
  43    3.77908853E+03  # M_(Q,33)
  44    1.00000000E+04  # M_(U,11)
  45    1.00000000E+04  # M_(U,22)
  46    4.67019570E+03  # M_(U,33)
  47    1.00000000E+04  # M_(D,11)
  48    1.00000000E+04  # M_(D,22)
  49    2.82774853E+03  # M_(D,33)
Block MASS  # Mass spectrum
#   PDG code      mass          particle
         6     1.73200000E+02  # m_t(pole)
        23     9.11876000E+01  # m_Z(pole)
        24     8.04299946E+01  # W+
        15     1.77700000E+00  # m_tau(pole)
        25     1.26936384E+02  # h0
        35     6.83309601E+02  # H0
        36     6.83353924E+02  # A0
        37     7.03645974E+02  # H+
   1000001     1.01202272E+04  # ~d_L
   2000001     1.00956915E+04  # ~d_R
   1000002     1.01198671E+04  # ~u_L
   2000002     1.00989509E+04  # ~u_R
   1000003     1.01202300E+04  # ~s_L
   2000003     1.00956965E+04  # ~s_R
   1000004     1.01198699E+04  # ~c_L
   2000004     1.00989513E+04  # ~c_R
   1000005     2.84257779E+03  # ~b_1
   2000005     3.76649282E+03  # ~b_2
   1000006     3.75763947E+03  # ~t_1
   2000006     4.59943745E+03  # ~t_2
   1000011     1.00208188E+04  # ~e_L-
   2000011     1.00089275E+04  # ~e_R-
   1000012     1.00200529E+04  # ~nu_eL
   1000013     1.00208326E+04  # ~mu_L-
   2000013     1.00089538E+04  # ~mu_R-
   1000014     1.00200666E+04  # ~nu_muL
   1000015     1.00164685E+04  # ~tau_1-
   2000015     1.00248154E+04  # ~tau_2-
   1000016     1.00239614E+04  # ~nu_tauL
   1000021     1.98822660E+03  # ~g
   1000022     1.47297856E+02  # ~chi_10
   1000023     1.96467752E+02  # ~chi_20
   1000025     2.18099021E+02  # ~chi_30
   1000035     1.58382536E+03  # ~chi_40
   1000024     1.95919566E+02  # ~chi_1+
   1000037     1.58379056E+03  # ~chi_2+
# Higgs mixing
Block alpha # Effective Higgs mixing angle
          -1.98418276E-02   # alpha
Block Hmix Q=  4.15728610E+03  # Higgs mixing parameters
   1    1.76654220E+02  # mu
   2    5.23039510E+01  # tan[beta](Q)
   3    2.42871597E+02  # v(Q)
   4    4.66972585E+05  # m^2_A(Q)
Block stopmix # stop mixing matrix
   1  1    -9.94352935E-01   # Re[R_st(1,1)]
   1  2     1.06123705E-01   # Re[R_st(1,2)]
   2  1    -1.06123705E-01   # Re[R_st(2,1)]
   2  2    -9.94352935E-01   # Re[R_st(2,2)]
Block sbotmix # sbottom mixing matrix
   1  1     2.32973329E-03   # Re[R_sb(1,1)]
   1  2     9.99997286E-01   # Re[R_sb(1,2)]
   2  1    -9.99997286E-01   # Re[R_sb(2,1)]
   2  2     2.32973329E-03   # Re[R_sb(2,2)]
Block staumix # stau mixing matrix
   1  1     9.99143947E-02   # Re[R_sta(1,1)]
   1  2     9.94996037E-01   # Re[R_sta(1,2)]
   2  1    -9.94996037E-01   # Re[R_sta(2,1)]
   2  2     9.99143947E-02   # Re[R_sta(2,2)]
Block Nmix # neutralino mixing matrix
   1  1    -8.43202572E-01   # Re[N(1,1)]
   1  2    -1.56312103E-02   # Re[N(1,2)]
   1  3    -4.27941924E-01   # Re[N(1,3)]
   1  4     3.25008919E-01   # Re[N(1,4)]
   2  1     8.46332931E-02   # Re[N(2,1)]
   2  2     4.00008046E-02   # Re[N(2,2)]
   2  3    -7.03368402E-01   # Re[N(2,3)]
   2  4    -7.04634680E-01   # Re[N(2,4)]
   3  1     5.30890660E-01   # Re[N(3,1)]
   3  2    -2.87249252E-02   # Re[N(3,2)]
   3  3    -5.67549185E-01   # Re[N(3,3)]
   3  4     6.28663590E-01   # Re[N(3,4)]
   4  1     1.31764196E-03   # Re[N(4,1)]
   4  2    -9.98664348E-01   # Re[N(4,2)]
   4  3    -5.15012269E-03   # Re[N(4,3)]
   4  4    -5.13931949E-02   # Re[N(4,4)]
Block Umix # chargino mixing matrix
   1  1    -7.29391840E-03   # Re[U(1,1)]
   1  2     9.99973399E-01   # Re[U(1,2)]
   2  1    -9.99973399E-01   # Re[U(2,1)]
   2  2    -7.29391840E-03   # Re[U(2,2)]
Block Vmix # chargino mixing matrix
   1  1     7.27209867E-02   # Re[V(1,1)]
   1  2     9.97352324E-01   # Re[V(1,2)]
   2  1     9.97352324E-01   # Re[V(2,1)]
   2  2    -7.27209867E-02   # Re[V(2,2)]
DECAY        23     2.49520000E+00   # Z
DECAY        24     2.08500000E+00   # W
DECAY   2000011     5.02619882E+01   # ~e^-_R
#    BR                NDA      ID1      ID2
     7.11095763E-01    2     1000022        11   # BR(~e^-_R -> chi^0_1 e^-)
     7.16148234E-03    2     1000023        11   # BR(~e^-_R -> chi^0_2 e^-)
     2.81741009E-01    2     1000025        11   # BR(~e^-_R -> chi^0_3 e^-)
DECAY   1000011     1.38382172E+02   # ~e^-_L
#    BR                NDA      ID1      ID2
     6.92107200E-02    2     1000022        11   # BR(~e^-_L -> chi^0_1 e^-)
     2.31267102E-03    2     1000023        11   # BR(~e^-_L -> chi^0_2 e^-)
     2.06877427E-02    2     1000025        11   # BR(~e^-_L -> chi^0_3 e^-)
     3.01772123E-01    2     1000035        11   # BR(~e^-_L -> chi^0_4 e^-)
     6.05982856E-01    2    -1000037        12   # BR(~e^-_L -> chi^-_2 nu_e)
#    BR                NDA      ID1      ID2       ID3
DECAY   2000013     5.06645869E+01   # ~mu^-_R
#    BR                NDA      ID1      ID2
     7.06174616E-01    2     1000022        13   # BR(~mu^-_R -> chi^0_1 mu^-)
     9.06958286E-03    2     1000023        13   # BR(~mu^-_R -> chi^0_2 mu^-)
     2.80782104E-01    2     1000025        13   # BR(~mu^-_R -> chi^0_3 mu^-)
     3.97175780E-03    2    -1000024        14   # BR(~mu^-_R -> chi^-_1 nu_mu)
DECAY   1000013     1.38583852E+02   # ~mu^-_L
#    BR                NDA      ID1      ID2
     6.93764242E-02    2     1000022        13   # BR(~mu^-_L -> chi^0_1 mu^-)
     3.02853677E-03    2     1000023        13   # BR(~mu^-_L -> chi^0_2 mu^-)
     2.11258611E-02    2     1000025        13   # BR(~mu^-_L -> chi^0_3 mu^-)
     3.01333450E-01    2     1000035        13   # BR(~mu^-_L -> chi^0_4 mu^-)
     6.05101889E-01    2    -1000037        14   # BR(~mu^-_L -> chi^-_2 nu_mu)
#    BR                NDA      ID1      ID2       ID3
DECAY   1000015     1.64547003E+02   # ~tau^-_1
#    BR                NDA      ID1      ID2
     2.90470167E-01    2     1000022        15   # BR(~tau^-_1 -> chi^0_1 tau^-)
     1.73233408E-01    2     1000023        15   # BR(~tau^-_1 -> chi^0_2 tau^-)
     1.86202899E-01    2     1000025        15   # BR(~tau^-_1 -> chi^0_3 tau^-)
     2.24515453E-03    2     1000035        15   # BR(~tau^-_1 -> chi^0_4 tau^-)
     3.43339937E-01    2    -1000024        16   # BR(~tau^-_1 -> chi^-_1 nu_tau)
     4.50843455E-03    2    -1000037        16   # BR(~tau^-_1 -> chi^-_2 nu_tau)
DECAY   2000015     1.95135638E+02   # ~tau^-_2
#    BR                NDA      ID1      ID2
     9.44568468E-02    2     1000022        15   # BR(~tau^-_2 -> chi^0_1 tau^-)
     1.46371798E-01    2     1000023        15   # BR(~tau^-_2 -> chi^0_2 tau^-)
     1.18402499E-01    2     1000025        15   # BR(~tau^-_2 -> chi^0_3 tau^-)
     2.12218829E-01    2     1000035        15   # BR(~tau^-_2 -> chi^0_4 tau^-)
     2.41336199E-03    2    -1000024        16   # BR(~tau^-_2 -> chi^-_1 nu_tau)
     4.26136665E-01    2    -1000037        16   # BR(~tau^-_2 -> chi^-_2 nu_tau)
#    BR                NDA      ID1      ID2       ID3
DECAY   1000012     1.38386344E+02   # ~nu_e
#    BR                NDA      ID1      ID2
     6.02311648E-02    2     1000022        12   # BR(~nu_e -> chi^0_1 nu_e)
     3.10611183E-02    2     1000025        12   # BR(~nu_e -> chi^0_3 nu_e)
     3.02589521E-01    2     1000035        12   # BR(~nu_e -> chi^0_4 nu_e)
     3.36822983E-03    2     1000024        11   # BR(~nu_e -> chi^+_1 e^-)
     6.02741315E-01    2     1000037        11   # BR(~nu_e -> chi^+_2 e^-)
#    BR                NDA      ID1      ID2       ID3
DECAY   1000014     1.38588007E+02   # ~nu_mu
#    BR                NDA      ID1      ID2
     6.01436029E-02    2     1000022        14   # BR(~nu_mu -> chi^0_1 nu_mu)
     3.10159629E-02    2     1000025        14   # BR(~nu_mu -> chi^0_3 nu_mu)
     3.02149669E-01    2     1000035        14   # BR(~nu_mu -> chi^0_4 nu_mu)
     4.81689891E-03    2     1000024        13   # BR(~nu_mu -> chi^+_1 mu^-)
     6.01865228E-01    2     1000037        13   # BR(~nu_mu -> chi^+_2 mu^-)
#    BR                NDA      ID1      ID2       ID3
DECAY   1000016     1.95452311E+02   # ~nu_tau
#    BR                NDA      ID1      ID2
     4.26621958E-02    2     1000022        16   # BR(~nu_tau -> chi^0_1 nu_tau)
     2.20008371E-02    2     1000025        16   # BR(~nu_tau -> chi^0_3 nu_tau)
     2.14334970E-01    2     1000035        16   # BR(~nu_tau -> chi^0_4 nu_tau)
     2.94038213E-01    2     1000024        15   # BR(~nu_tau -> chi^+_1 tau^-)
     4.26957657E-01    2     1000037        15   # BR(~nu_tau -> chi^+_2 tau^-)
#    BR                NDA      ID1      ID2       ID3
DECAY   2000001     7.41904843E+02   # ~d_R
#    BR                NDA      ID1      ID2
     5.39923055E-03    2     1000022         1   # BR(~d_R -> chi^0_1 d)
     2.13928330E-03    2     1000025         1   # BR(~d_R -> chi^0_3 d)
     9.92406784E-01    2     1000021         1   # BR(~d_R -> ~g d)
DECAY   1000001     8.66933502E+02   # ~d_L
#    BR                NDA      ID1      ID2
     9.29433553E-04    2     1000022         1   # BR(~d_L -> chi^0_1 d)
     7.80006967E-04    2     1000025         1   # BR(~d_L -> chi^0_3 d)
     4.87878813E-02    2     1000035         1   # BR(~d_L -> chi^0_4 d)
     9.77859958E-02    2    -1000037         2   # BR(~d_L -> chi^-_2 u)
     8.51679221E-01    2     1000021         1   # BR(~d_L -> ~g d)
DECAY   2000003     7.42017522E+02   # ~s_R
#    BR                NDA      ID1      ID2
     5.41226995E-03    2     1000022         3   # BR(~s_R -> chi^0_1 s)
     2.16332041E-03    2     1000025         3   # BR(~s_R -> chi^0_3 s)
     9.92256652E-01    2     1000021         3   # BR(~s_R -> ~g s)
DECAY   1000003     8.66993691E+02   # ~s_L
#    BR                NDA      ID1      ID2
     9.41257511E-04    2     1000022         3   # BR(~s_L -> chi^0_1 s)
     8.00852973E-04    2     1000025         3   # BR(~s_L -> chi^0_3 s)
     4.87845109E-02    2     1000035         3   # BR(~s_L -> chi^0_4 s)
     9.77792583E-02    2    -1000037         4   # BR(~s_L -> chi^-_2 c)
     8.51620367E-01    2     1000021         3   # BR(~s_L -> ~g s)
DECAY   1000005     1.45378542E+02   # ~b_1
#    BR                NDA      ID1      ID2
     6.19829065E-02    2     1000022         5   # BR(~b_1 -> chi^0_1 b)
     1.45697310E-01    2     1000023         5   # BR(~b_1 -> chi^0_2 b)
     9.75191487E-02    2     1000025         5   # BR(~b_1 -> chi^0_3 b)
     2.92136985E-01    2    -1000024         6   # BR(~b_1 -> chi^-_1 t)
     4.02657279E-01    2     1000021         5   # BR(~b_1 -> ~g b)
DECAY   2000005     3.26017102E+02   # ~b_2
#    BR                NDA      ID1      ID2
     3.28933363E-02    2     1000022         5   # BR(~b_2 -> chi^0_1 b)
     8.64305839E-02    2     1000023         5   # BR(~b_2 -> chi^0_2 b)
     5.70283069E-02    2     1000025         5   # BR(~b_2 -> chi^0_3 b)
     3.43869631E-02    2     1000035         5   # BR(~b_2 -> chi^0_4 b)
     2.32380640E-01    2    -1000024         6   # BR(~b_2 -> chi^-_1 t)
     7.00404007E-02    2    -1000037         6   # BR(~b_2 -> chi^-_2 t)
     4.74509489E-01    2     1000021         5   # BR(~b_2 -> ~g b)
     6.12696956E-03    2     1000005        36   # BR(~b_2 -> ~b_1 A^0)
     6.12797119E-03    2     1000005        35   # BR(~b_2 -> ~b_1 H^0)
DECAY   2000002     7.59087275E+02   # ~u_R
#    BR                NDA      ID1      ID2
     2.11147319E-02    2     1000022         2   # BR(~u_R -> chi^0_1 u)
     2.12647474E-04    2     1000023         2   # BR(~u_R -> chi^0_2 u)
     8.36587739E-03    2     1000025         2   # BR(~u_R -> chi^0_3 u)
     9.70306694E-01    2     1000021         2   # BR(~u_R -> ~g u)
DECAY   1000002     8.66922409E+02   # ~u_L
#    BR                NDA      ID1      ID2
     1.41154650E-03    2     1000022         2   # BR(~u_L -> chi^0_1 u)
     1.55714181E-04    2     1000023         2   # BR(~u_L -> chi^0_2 u)
     2.22337698E-04    2     1000025         2   # BR(~u_L -> chi^0_3 u)
     4.87407669E-02    2     1000035         2   # BR(~u_L -> chi^0_4 u)
     5.43207554E-04    2     1000024         1   # BR(~u_L -> chi^+_1 d)
     9.72714809E-02    2     1000037         1   # BR(~u_L -> chi^+_2 d)
     8.51654946E-01    2     1000021         2   # BR(~u_L -> ~g u)
DECAY   2000004     7.59094564E+02   # ~c_R
#    BR                NDA      ID1      ID2
     2.11150355E-02    2     1000022         4   # BR(~c_R -> chi^0_1 c)
     2.15028250E-04    2     1000023         4   # BR(~c_R -> chi^0_2 c)
     8.36769516E-03    2     1000025         4   # BR(~c_R -> chi^0_3 c)
     9.70297381E-01    2     1000021         4   # BR(~c_R -> ~g c)
DECAY   1000004     8.66982563E+02   # ~c_L
#    BR                NDA      ID1      ID2
     1.41189407E-03    2     1000022         4   # BR(~c_L -> chi^0_1 c)
     1.57794450E-04    2     1000023         4   # BR(~c_L -> chi^0_2 c)
     2.23986094E-04    2     1000025         4   # BR(~c_L -> chi^0_3 c)
     4.87374065E-02    2     1000035         4   # BR(~c_L -> chi^0_4 c)
     6.08060345E-04    2     1000024         3   # BR(~c_L -> chi^+_1 s)
     9.72647645E-02    2     1000037         3   # BR(~c_L -> chi^+_2 s)
     8.51596094E-01    2     1000021         4   # BR(~c_L -> ~g c)
DECAY   1000006     3.76370843E+02   # ~t_1
#    BR                NDA      ID1      ID2
     3.92444120E-04    2     1000022         4   # BR(~t_1 -> chi^0_1 c)
     1.99839049E-02    2     1000022         6   # BR(~t_1 -> chi^0_1 t)
     1.00429408E-01    2     1000023         6   # BR(~t_1 -> chi^0_2 t)
     8.38686967E-02    2     1000025         6   # BR(~t_1 -> chi^0_3 t)
     2.84764281E-02    2     1000035         6   # BR(~t_1 -> chi^0_4 t)
     1.53983218E-01    2     1000024         5   # BR(~t_1 -> chi^+_1 b)
     5.70818106E-02    2     1000037         5   # BR(~t_1 -> chi^+_2 b)
     1.33167468E-01    2     1000021         4   # BR(~t_1 -> ~g c)
     3.99405171E-01    2     1000021         6   # BR(~t_1 -> ~g t)
     9.72904705E-03    2     1000005        37   # BR(~t_1 -> ~b_1 H^+)
#    BR                NDA      ID1      ID2       ID3
     1.33993915E-02    3     1000022        24         5   # BR(~t_1 -> chi^0_1 W^+ b)
DECAY   2000006     5.00285148E+02   # ~t_2
#    BR                NDA      ID1      ID2
     3.66048273E-02    2     1000022         6   # BR(~t_2 -> chi^0_1 t)
     9.27267379E-02    2     1000023         6   # BR(~t_2 -> chi^0_2 t)
     7.58328005E-02    2     1000025         6   # BR(~t_2 -> chi^0_3 t)
     1.46171619E-03    2     1000035         6   # BR(~t_2 -> chi^0_4 t)
     1.83643941E-01    2     1000024         5   # BR(~t_2 -> chi^+_1 b)
     2.93281738E-03    2     1000037         5   # BR(~t_2 -> chi^+_2 b)
     4.81804040E-01    2     1000021         6   # BR(~t_2 -> ~g t)
     5.25153320E-02    2     2000005        24   # BR(~t_2 -> ~b_2 W^+)
     5.09063762E-04    2     1000005        37   # BR(~t_2 -> ~b_1 H^+)
     1.25351104E-04    2     2000005        37   # BR(~t_2 -> ~b_2 H^+)
     2.66152856E-02    2     1000006        23   # BR(~t_2 -> ~t_1 Z)
     4.50874095E-02    2     1000006        25   # BR(~t_2 -> ~t_1 h^0)
DECAY   1000024     1.00577910E-04   # chi^+_1
#    BR                NDA      ID1      ID2       ID3
     3.33934832E-01    3     1000022        -1         2   # BR(chi^+_1 -> chi^0_1 d_bar u)
     3.32969213E-01    3     1000022        -3         4   # BR(chi^+_1 -> chi^0_1 s_bar c)
     1.11311266E-01    3     1000022       -11        12   # BR(chi^+_1 -> chi^0_1 e^+ nu_e)
     1.11310214E-01    3     1000022       -13        14   # BR(chi^+_1 -> chi^0_1 mu^+ nu_mu)
     1.10474474E-01    3     1000022       -15        16   # BR(chi^+_1 -> chi^0_1 tau^+ nu_tau)
DECAY   1000037     2.31002866E+01   # chi^+_2
#    BR                NDA      ID1      ID2
     3.64117945E-02    2     1000022        24   # BR(chi^+_2 -> chi^0_1 W^+)
     1.49318874E-01    2     1000023        24   # BR(chi^+_2 -> chi^0_2 W^+)
     1.12118893E-01    2     1000025        24   # BR(chi^+_2 -> chi^0_3 W^+)
     3.52522652E-02    2          37   1000022   # BR(chi^+_2 -> H^+ chi^0_1)
     9.41971430E-02    2          37   1000023   # BR(chi^+_2 -> H^+ chi^0_2)
     6.29622436E-02    2          37   1000025   # BR(chi^+_2 -> H^+ chi^0_3)
     1.48335252E-01    2     1000024        23   # BR(chi^+_2 -> chi^+_1 Z)
     9.96348899E-02    2     1000024        36   # BR(chi^+_2 -> chi^+_1 A^0)
     1.46621016E-01    2     1000024        25   # BR(chi^+_2 -> chi^+_1 h^0)
     9.96128549E-02    2     1000024        35   # BR(chi^+_2 -> chi^+_1 H^0)
#    BR                NDA      ID1      ID2       ID3
     5.97277100E-03    3     1000024         6        -6   # BR(chi^+_2 -> chi^+_1 t t_bar)
     1.15397857E-03    3     1000022        -5         6   # BR(chi^+_2 -> chi^0_1 b_bar t)
     4.84786813E-03    3     1000023        -5         6   # BR(chi^+_2 -> chi^0_2 b_bar t)
     3.54831957E-03    3     1000025        -5         6   # BR(chi^+_2 -> chi^0_3 b_bar t)
DECAY   1000022     0.00000000E+00   # chi^0_1
DECAY   1000023     2.55030600E-04   # chi^0_2
#    BR                NDA      ID1      ID2
     1.04923226E-02    2     1000022        22   # BR(chi^0_2 -> chi^0_1 photon)
#    BR                NDA      ID1      ID2       ID3
     1.18761854E-01    3     1000022         2        -2   # BR(chi^0_2 -> chi^0_1 u u_bar)
     1.17837357E-01    3     1000022         4        -4   # BR(chi^0_2 -> chi^0_1 c c_bar)
     1.52275657E-01    3     1000022         1        -1   # BR(chi^0_2 -> chi^0_1 d d_bar)
     1.52270033E-01    3     1000022         3        -3   # BR(chi^0_2 -> chi^0_1 s s_bar)
     1.42200488E-01    3     1000022         5        -5   # BR(chi^0_2 -> chi^0_1 b b_bar)
     3.43634594E-02    3     1000022        11       -11   # BR(chi^0_2 -> chi^0_1 e^- e^+)
     3.43614497E-02    3     1000022        13       -13   # BR(chi^0_2 -> chi^0_1 mu^- mu^+)
     3.38011079E-02    3     1000022        15       -15   # BR(chi^0_2 -> chi^0_1 tau^- tau^+)
     2.03636271E-01    3     1000022        12       -12   # BR(chi^0_2 -> chi^0_1 nu_e nu_bar_e)
DECAY   1000025     3.27910085E-05   # chi^0_3
#    BR                NDA      ID1      ID2
     4.29842789E-03    2     1000022        22   # BR(chi^0_3 -> chi^0_1 photon)
     2.60451881E-02    2     1000023        22   # BR(chi^0_3 -> chi^0_2 photon)
#    BR                NDA      ID1      ID2       ID3
     4.38851529E-02    3     1000022         2        -2   # BR(chi^0_3 -> chi^0_1 u u_bar)
     4.37493248E-02    3     1000022         4        -4   # BR(chi^0_3 -> chi^0_1 c c_bar)
     5.62507767E-02    3     1000022         1        -1   # BR(chi^0_3 -> chi^0_1 d d_bar)
     5.62502798E-02    3     1000022         3        -3   # BR(chi^0_3 -> chi^0_1 s s_bar)
     5.66202762E-02    3     1000022         5        -5   # BR(chi^0_3 -> chi^0_1 b b_bar)
     1.26792651E-02    3     1000022        11       -11   # BR(chi^0_3 -> chi^0_1 e^- e^+)
     1.26792419E-02    3     1000022        13       -13   # BR(chi^0_3 -> chi^0_1 mu^- mu^+)
     1.26654005E-02    3     1000022        15       -15   # BR(chi^0_3 -> chi^0_1 tau^- tau^+)
     7.52500587E-02    3     1000022        12       -12   # BR(chi^0_3 -> chi^0_1 nu_e nu_bar_e)
     3.82535538E-02    3     1000023         2        -2   # BR(chi^0_3 -> chi^0_2 u u_bar)
     3.65588739E-02    3     1000023         4        -4   # BR(chi^0_3 -> chi^0_2 c c_bar)
     4.90488215E-02    3     1000023         1        -1   # BR(chi^0_3 -> chi^0_2 d d_bar)
     4.90380665E-02    3     1000023         3        -3   # BR(chi^0_3 -> chi^0_2 s s_bar)
     3.19370014E-02    3     1000023         5        -5   # BR(chi^0_3 -> chi^0_2 b b_bar)
     1.10690433E-02    3     1000023        11       -11   # BR(chi^0_3 -> chi^0_2 e^- e^+)
     1.10652082E-02    3     1000023        13       -13   # BR(chi^0_3 -> chi^0_2 mu^- mu^+)
     1.00454944E-02    3     1000023        15       -15   # BR(chi^0_3 -> chi^0_2 tau^- tau^+)
     6.55923590E-02    3     1000023        12       -12   # BR(chi^0_3 -> chi^0_2 nu_e nu_bar_e)
     4.99443262E-02    3     1000024         1        -2   # BR(chi^0_3 -> chi^+_1 d u_bar)
     4.99443262E-02    3    -1000024        -1         2   # BR(chi^0_3 -> chi^-_1 d_bar u)
     4.91569999E-02    3     1000024         3        -4   # BR(chi^0_3 -> chi^+_1 s c_bar)
     4.91569999E-02    3    -1000024        -3         4   # BR(chi^0_3 -> chi^-_1 s_bar c)
     1.66481506E-02    3     1000024        11       -12   # BR(chi^0_3 -> chi^+_1 e^- nu_bar_e)
     1.66481506E-02    3    -1000024       -11        12   # BR(chi^0_3 -> chi^-_1 e^+ nu_e)
     1.66479246E-02    3     1000024        13       -14   # BR(chi^0_3 -> chi^+_1 mu^- nu_bar_mu)
     1.66479246E-02    3    -1000024       -13        14   # BR(chi^0_3 -> chi^-_1 mu^+ nu_mu)
     1.61116914E-02    3     1000024        15       -16   # BR(chi^0_3 -> chi^+_1 tau^- nu_bar_tau)
     1.61116914E-02    3    -1000024       -15        16   # BR(chi^0_3 -> chi^-_1 tau^+ nu_tau)
DECAY   1000035     2.39269671E+01   # chi^0_4
#    BR                NDA      ID1      ID2
     1.44251120E-01    2     1000024       -24   # BR(chi^0_4 -> chi^+_1 W^-)
     1.44251120E-01    2    -1000024        24   # BR(chi^0_4 -> chi^-_1 W^+)
     9.14476500E-02    2          37  -1000024   # BR(chi^0_4 -> H^+ chi^-_1)
     9.14476500E-02    2         -37   1000024   # BR(chi^0_4 -> H^- chi^+_1)
     1.97109182E-02    2     1000022        23   # BR(chi^0_4 -> chi^0_1 Z)
     5.74179095E-02    2     1000023        23   # BR(chi^0_4 -> chi^0_2 Z)
     6.63921523E-02    2     1000025        23   # BR(chi^0_4 -> chi^0_3 Z)
     1.38632862E-02    2     1000022        36   # BR(chi^0_4 -> chi^0_1 A^0)
     3.18327062E-02    2     1000023        36   # BR(chi^0_4 -> chi^0_2 A^0)
     2.14983641E-02    2     1000025        36   # BR(chi^0_4 -> chi^0_3 A^0)
     2.15468095E-02    2     1000022        25   # BR(chi^0_4 -> chi^0_1 h^0)
     8.53585395E-02    2     1000023        25   # BR(chi^0_4 -> chi^0_2 h^0)
     7.10422584E-02    2     1000025        25   # BR(chi^0_4 -> chi^0_3 h^0)
     2.06126324E-02    2     1000022        35   # BR(chi^0_4 -> chi^0_1 H^0)
     6.38056521E-02    2     1000023        35   # BR(chi^0_4 -> chi^0_2 H^0)
     3.93032727E-02    2     1000025        35   # BR(chi^0_4 -> chi^0_3 H^0)
#    BR                NDA      ID1      ID2       ID3
     7.15384111E-04    3     1000022         6        -6   # BR(chi^0_4 -> chi^0_1 t t_bar)
     2.81138311E-03    3     1000023         6        -6   # BR(chi^0_4 -> chi^0_2 t t_bar)
     2.13750414E-03    3     1000025         6        -6   # BR(chi^0_4 -> chi^0_3 t t_bar)
     5.25893001E-03    3     1000024         5        -6   # BR(chi^0_4 -> chi^+_1 b t_bar)
     5.25893001E-03    3    -1000024        -5         6   # BR(chi^0_4 -> chi^-_1 b_bar t)
DECAY   1000021     4.19223145E-02   # ~g
#    BR                NDA      ID1      ID2
     6.48003821E-04    2     1000022        21   # BR(~g -> chi^0_1 g)
     2.97956340E-03    2     1000023        21   # BR(~g -> chi^0_2 g)
     1.43216611E-03    2     1000025        21   # BR(~g -> chi^0_3 g)
#    BR                NDA      ID1      ID2       ID3
     1.07166702E-04    3     1000022         2        -2   # BR(~g -> chi^0_1 u u_bar)
     1.07172981E-04    3     1000022         4        -4   # BR(~g -> chi^0_1 c c_bar)
     1.44472503E-02    3     1000022         6        -6   # BR(~g -> chi^0_1 t t_bar)
     7.42532159E-02    3     1000022         5        -5   # BR(~g -> chi^0_1 b b_bar)
     6.69544106E-02    3     1000023         6        -6   # BR(~g -> chi^0_2 t t_bar)
     1.78823552E-01    3     1000023         5        -5   # BR(~g -> chi^0_2 b b_bar)
     5.75539124E-02    3     1000025         6        -6   # BR(~g -> chi^0_3 t t_bar)
     1.17624358E-01    3     1000025         5        -5   # BR(~g -> chi^0_3 b b_bar)
     1.01870369E-04    3     1000035         5        -5   # BR(~g -> chi^0_4 b b_bar)
     2.42356840E-01    3     1000024         5        -6   # BR(~g -> chi^+_1 b t_bar)
     2.42356840E-01    3    -1000024        -5         6   # BR(~g -> chi^-_1 b_bar t)
DECAY        25     4.02472679E-03   # Gamma(h0)
     2.41011241E-03   2        22        22   # BR(h0 -> photon photon)
     1.70857130E-03   2        22        23   # BR(h0 -> photon Z)
     3.38197648E-02   2        23        23   # BR(h0 -> Z Z)
     2.69119415E-01   2       -24        24   # BR(h0 -> W W)
     7.28383396E-02   2        21        21   # BR(h0 -> gluon gluon)
     4.81648705E-09   2       -11        11   # BR(h0 -> Electron electron)
     2.14246941E-04   2       -13        13   # BR(h0 -> Muon muon)
     6.17759200E-02   2       -15        15   # BR(h0 -> Tau tau)
     1.24013987E-07   2        -2         2   # BR(h0 -> Up up)
     2.40695202E-02   2        -4         4   # BR(h0 -> Charm charm)
     5.55869390E-07   2        -1         1   # BR(h0 -> Down down)
     2.01045200E-04   2        -3         3   # BR(h0 -> Strange strange)
     5.33842380E-01   2        -5         5   # BR(h0 -> Bottom bottom)
DECAY        35     2.48596722E+01   # Gamma(HH)
     8.29163790E-08   2        22        22   # BR(HH -> photon photon)
     3.41695178E-08   2        22        23   # BR(HH -> photon Z)
     1.92092578E-06   2        23        23   # BR(HH -> Z Z)
     3.60169885E-06   2       -24        24   # BR(HH -> W W)
     1.10072747E-04   2        21        21   # BR(HH -> gluon gluon)
     1.06422242E-08   2       -11        11   # BR(HH -> Electron electron)
     4.73627272E-04   2       -13        13   # BR(HH -> Muon muon)
     1.36753497E-01   2       -15        15   # BR(HH -> Tau tau)
     3.03223148E-14   2        -2         2   # BR(HH -> Up up)
     5.87934131E-09   2        -4         4   # BR(HH -> Charm charm)
     2.89798229E-04   2        -6         6   # BR(HH -> Top top)
     9.42502855E-07   2        -1         1   # BR(HH -> Down down)
     3.40883361E-04   2        -3         3   # BR(HH -> Strange strange)
     8.36780553E-01   2        -5         5   # BR(HH -> Bottom bottom)
     8.43593446E-04   2  -1000024   1000024   # BR(HH -> Chargino1 chargino1)
     6.25194158E-03   2   1000022   1000022   # BR(HH -> neutralino1 neutralino1)
     7.67762691E-03   2   1000022   1000023   # BR(HH -> neutralino1 neutralino2)
     1.22803787E-05   2   1000022   1000025   # BR(HH -> neutralino1 neutralino3)
     1.35809885E-06   2   1000023   1000023   # BR(HH -> neutralino2 neutralino2)
     6.59098266E-03   2   1000023   1000025   # BR(HH -> neutralino2 neutralino3)
     3.84448896E-03   2   1000025   1000025   # BR(HH -> neutralino3 neutralino3)
     2.26977818E-05   2        25        25   # BR(HH -> h0 h0)
DECAY        36     2.41656004E+01   # Gamma(A0)
     8.06958022E-08   2        22        22   # BR(A0 -> photon photon)
     4.55447535E-08   2        22        23   # BR(A0 -> photon Z)
     1.36633462E-04   2        21        21   # BR(A0 -> gluon gluon)
     1.06295784E-08   2       -11        11   # BR(A0 -> Electron electron)
     4.73064588E-04   2       -13        13   # BR(A0 -> Muon muon)
     1.36594859E-01   2       -15        15   # BR(A0 -> Tau tau)
     2.78549076E-14   2        -2         2   # BR(A0 -> Up up)
     5.39707337E-09   2        -4         4   # BR(A0 -> Charm charm)
     3.63129000E-04   2        -6         6   # BR(A0 -> Top top)
     9.41374642E-07   2        -1         1   # BR(A0 -> Down down)
     3.40475278E-04   2        -3         3   # BR(A0 -> Strange strange)
     8.35828587E-01   2        -5         5   # BR(A0 -> Bottom bottom)
     1.17381872E-03   2  -1000024   1000024   # BR(A0 -> Chargino1 chargino1)
     8.25424920E-03   2   1000022   1000022   # BR(A0 -> neutralino1 neutralino1)
     5.73614499E-03   2   1000022   1000023   # BR(A0 -> neutralino1 neutralino2)
     2.57738267E-05   2   1000022   1000025   # BR(A0 -> neutralino1 neutralino3)
     1.76654542E-06   2   1000023   1000023   # BR(A0 -> neutralino2 neutralino2)
     4.33526004E-03   2   1000023   1000025   # BR(A0 -> neutralino2 neutralino3)
     6.73192715E-03   2   1000025   1000025   # BR(A0 -> neutralino3 neutralino3)
     3.22783653E-06   2        23        25   # BR(A0 -> Z h0)
     5.03524642E-39   2        25        25   # BR(A0 -> h0 h0)
DECAY        37     2.56119587E+01   # Gamma(Hp)
     1.27099199E-08   2       -11        12   # BR(Hp -> Electron nu_e)
     5.43388751E-04   2       -13        14   # BR(Hp -> Muon nu_mu)
     1.53699392E-01   2       -15        16   # BR(Hp -> Tau nu_tau)
     9.71954551E-07   2        -1         2   # BR(Hp -> Down up)
     1.60985267E-05   2        -3         2   # BR(Hp -> Strange up)
     9.57388651E-06   2        -5         2   # BR(Hp -> Bottom up)
     4.48154383E-08   2        -1         4   # BR(Hp -> Down charm)
     3.50265463E-04   2        -3         4   # BR(Hp -> Strange charm)
     1.34067840E-03   2        -5         4   # BR(Hp -> Bottom charm)
     2.66613001E-08   2        -1         6   # BR(Hp -> Down top)
     1.03335200E-06   2        -3         6   # BR(Hp -> Strange top)
     8.18627120E-01   2        -5         6   # BR(Hp -> Bottom top)
     1.72294036E-02   2   1000022   1000024   # BR(Hp -> neutralino1 chargino1)
     5.62970800E-04   2   1000023   1000024   # BR(Hp -> neutralino2 chargino1)
     7.61525292E-03   2   1000024   1000025   # BR(Hp -> chargino1 neutralino3)
     3.40065753E-06   2        24        25   # BR(Hp -> W h0)
     1.83812795E-07   2        24        35   # BR(Hp -> W HH)
     1.81805655E-07   2        24        36   # BR(Hp -> W A0)
DECAY         6     2.43000000E+00   # top
#    BR                NDA      ID1      ID2
     1.00000000E+00    2           5        24   # BR(t -> b W)
Block HiggsBoundsInputHiggsCouplingsFermions
# ScalarNormEffCoupSq PseudoSNormEffCoupSq NP IP1 IP2 IP2
    1.07729356E+00    0.00000000E+00        3  25   5   5  # h0-b-b eff. coupling^2, normalised to SM
    2.73562600E+03    0.00000000E+00        3  35   5   5  # H0-b-b eff. coupling^2, normalised to SM
    0.00000000E+00    2.73570329E+03        3  36   5   5  # A0-b-b eff. coupling^2, normalised to SM
#
    9.99971746E-01    0.00000000E+00        3  25   6   6  # h0-t-t eff. coupling^2, normalised to SM
    3.93790351E-04    0.00000000E+00        3  35   6   6  # H0-t-t eff. coupling^2, normalised to SM
    0.00000000E+00    3.65536717E-04        3  36   6   6  # A0-t-t eff. coupling^2, normalised to SM
#
    1.07729356E+00    0.00000000E+00        3  25  15  15  # h0-tau-tau eff. coupling^2, normalised to SM
    2.73562600E+03    0.00000000E+00        3  35  15  15  # H0-tau-tau eff. coupling^2, normalised to SM
    0.00000000E+00    2.73570329E+03        3  36  15  15  # A0-tau-tau eff. coupling^2, normalised to SM
#
Block HiggsBoundsInputHiggsCouplingsBosons
    9.99999474E-01        3  25  24  24  # h0-W-W eff. coupling^2, normalised to SM
    5.25830988E-07        3  35  24  24  # H0-W-W eff. coupling^2, normalised to SM
    0.00000000E+00        3  36  24  24  # A0-W-W eff. coupling^2, normalised to SM
#
    9.99999474E-01        3  25  23  23  # h0-Z-Z eff. coupling^2, normalised to SM
    5.25830988E-07        3  35  23  23  # H0-Z-Z eff. coupling^2, normalised to SM
    0.00000000E+00        3  36  23  23  # A0-Z-Z eff. coupling^2, normalised to SM
#
    1.26004607E+00        3  25  21  21  # h0-g-g eff. coupling^2, normalised to SM
    5.95864720E-02        3  35  21  21  # H0-g-g eff. coupling^2, normalised to SM
    2.16550110E-01        3  36  21  21  # A0-g-g eff. coupling^2, normalised to SM
#
    0.00000000E+00        3  25  25  23  # h0-h0-Z eff. coupling^2, normalised to SM
    0.00000000E+00        3  35  25  23  # H0-h0-Z eff. coupling^2, normalised to SM
    5.25830988E-07        3  36  25  23  # A0-h0-Z eff. coupling^2, normalised to SM
    0.00000000E+00        3  35  35  23  # H0-H0-Z eff. coupling^2, normalised to SM
    9.99999474E-01        3  36  35  23  # A0-H0-Z eff. coupling^2, normalised to SM
    0.00000000E+00        3  36  36  23  # A0-A0-Z eff. coupling^2, normalised to SM
#
    0.00000000E+00        4  25  21  21  23  # h0-g-g-Z eff. coupling^2, normalised to SM
    0.00000000E+00        4  35  21  21  23  # H0-g-g-Z eff. coupling^2, normalised to SM
    0.00000000E+00        4  36  21  21  23  # A0-g-g-Z eff. coupling^2, normalised to SM
Block SPhenoLowEnergy  # low energy observables
    1    3.91417086E-04   # BR(b -> s gamma)
    2    1.58819221E-06   # BR(b -> s mu+ mu-)
    3    3.52611734E-05   # BR(b -> s nu nu)
    4    2.28218022E-15   # BR(Bd -> e+ e-)
    5    9.74923568E-11   # BR(Bd -> mu+ mu-)
    6    2.04213471E-08   # BR(Bd -> tau+ tau-)
    7    7.55995854E-14   # BR(Bs -> e+ e-)
    8    3.22961691E-09   # BR(Bs -> mu+ mu-)
    9    6.85335000E-07   # BR(Bs -> tau+ tau-)
   10    6.81519794E-05   # BR(B_u -> tau nu)
   11    7.03983856E-01   # BR(B_u -> tau nu)/BR(B_u -> tau nu)_SM
   12    5.41704922E-01   # |Delta(M_Bd)| [ps^-1] 
   13    1.92166108E+01   # |Delta(M_Bs)| [ps^-1] 
   14    0.00000000E+00   # neutron EDM according to the chiral quark model
   15    0.00000000E+00   # neutron EDM according to the relativistic quark-parton model
   16    2.15715184E-03   # epsilon_K
   17    2.28169534E-15   # Delta(M_K)
   18    2.48027011E-11   # BR(K^0 -> pi^0 nu nu)
   19    8.29122721E-11   # BR(K^+ -> pi^+ nu nu)
   20   -5.23350995E-16   # Delta(g-2)_electron/2
   21   -2.23750404E-11   # Delta(g-2)_muon/2
   22   -6.33935781E-09   # Delta(g-2)_tau/2
   23    0.00000000E+00   # electric dipole moment of the electron
   24    0.00000000E+00   # electric dipole moment of the muon
   25    0.00000000E+00   # electric dipole moment of the tau
   26    0.00000000E+00   # Br(mu -> e gamma)
   27    0.00000000E+00   # Br(tau -> e gamma)
   28    0.00000000E+00   # Br(tau -> mu gamma)
   29    0.00000000E+00   # Br(mu -> 3 e)
   30    0.00000000E+00   # Br(tau -> 3 e)
   31    0.00000000E+00   # Br(tau -> 3 mu)
   39    7.45007558E-05   # Delta(rho_parameter)
   40    0.00000000E+00   # BR(Z -> e mu)
   41    0.00000000E+00   # BR(Z -> e tau)
   42    0.00000000E+00   # BR(Z -> mu tau)
Block FWCOEF Q=  1.60000000E+02  # Wilson coefficients at scale Q
#    id        order  M        value         comment
     0305 4422   00   0    -1.88819110E-01   # C7
     0305 4422   00   2    -2.59634146E-01   # C7
     0305 4322   00   2    -1.22552185E-03   # C7'
     0305 6421   00   0    -9.52278348E-02   # C8
     0305 6421   00   2    -1.69168193E-01   # C8
     0305 6321   00   2    -1.36550195E-03   # C8'
 03051111 4133   00   0     1.62902981E+00   # C9 e+e-
 03051111 4133   00   2     1.62937768E+00   # C9 e+e-
 03051111 4233   00   2     2.47025286E-04   # C9' e+e-
 03051111 4137   00   0    -4.45172191E+00   # C10 e+e-
 03051111 4137   00   2    -4.45096162E+00   # C10 e+e-
 03051111 4237   00   2    -1.81871005E-03   # C10' e+e-
 03051313 4133   00   0     1.62902981E+00   # C9 mu+mu-
 03051313 4133   00   2     1.62937746E+00   # C9 mu+mu-
 03051313 4233   00   2     2.46894252E-04   # C9' mu+mu-
 03051313 4137   00   0    -4.45172191E+00   # C10 mu+mu-
 03051313 4137   00   2    -4.45096184E+00   # C10 mu+mu-
 03051313 4237   00   2    -1.81858033E-03   # C10' mu+mu-
 03051212 4137   00   0     1.50535012E+00   # C11 nu_1 nu_1
 03051212 4137   00   2     1.50518727E+00   # C11 nu_1 nu_1
 03051212 4237   00   2     3.93065594E-04   # C11' nu_1 nu_1
 03051414 4137   00   0     1.50535012E+00   # C11 nu_2 nu_2
 03051414 4137   00   2     1.50518727E+00   # C11 nu_2 nu_2
 03051414 4237   00   2     3.93093852E-04   # C11' nu_2 nu_2
 03051616 4137   00   0     1.50535012E+00   # C11 nu_3 nu_3
 03051616 4137   00   2     1.50518728E+00   # C11 nu_3 nu_3
 03051616 4237   00   2     4.01057272E-04   # C11' nu_3 nu_3
Block IMFWCOEF Q=  1.60000000E+02  # Im(Wilson coefficients) at scale Q
#    id        order  M        value         comment
     0305 4422   00   0     3.85807976E-07   # C7
     0305 4422   00   2    -6.98228158E-07   # C7
     0305 4322   00   2    -1.69600572E-06   # C7'
     0305 6421   00   0     3.30470047E-07   # C8
     0305 6421   00   2    -6.90996485E-05   # C8
     0305 6321   00   2    -1.75022826E-06   # C8'
 03051111 4133   00   2     6.91476315E-07   # C9 e+e-
 03051111 4233   00   2     1.47994565E-05   # C9' e+e-
 03051111 4137   00   2    -1.81224544E-06   # C10 e+e-
 03051111 4237   00   2    -1.09140750E-04   # C10' e+e-
 03051313 4133   00   2     6.91470486E-07   # C9 mu+mu-
 03051313 4233   00   2     1.47994504E-05   # C9' mu+mu-
 03051313 4137   00   2    -1.81223974E-06   # C10 mu+mu-
 03051313 4237   00   2    -1.09140769E-04   # C10' mu+mu-
 03051212 4137   00   2     4.17868869E-07   # C11 nu_1 nu_1
 03051212 4237   00   2     2.35879080E-05   # C11' nu_1 nu_1
 03051414 4137   00   2     4.17869106E-07   # C11 nu_2 nu_2
 03051414 4237   00   2     2.35879080E-05   # C11' nu_2 nu_2
 03051616 4137   00   2     4.17934095E-07   # C11 nu_3 nu_3
 03051616 4237   00   2     2.35879079E-05   # C11' nu_3 nu_3
