# SUSY Les Houches Accord 2 - MSSM spectrum + Decays
# SPheno v4.0.5be
# W. Porod, Comput. Phys. Commun. 153 (2003) 275-315, hep-ph/0301101;
# W. Porod, F.~Staub, Comput. Phys. Commun. 183 (2012) 2458
#                     arXiv:1104.1573 [hep-ph] 
# in case of problems send email to porod@physik.uni-wuerzburg.de
# Created: 07.09.2021,  16:14
Block SPINFO         # Program information
     1   SPheno      # spectrum calculator
     2   v4.0.5be    # version number
#
Block SPhenoINFO     # SPheno specific information
    1      2         # using 2-loop RGEs
    2      2         # using pole masses for boundary conditions at mZ
Block MODSEL  # Model selection
    1    0    # general MSSM
Block MINPAR  # Input parameters
    3    5.86689830E+01  # tanb at m_Z    
    4    1.00000000E+00  # Sign(mu)
Block EXTPAR  # non-universal input parameters
    0    3.87714482E+03  # scale for input parameters
    1    1.65653900E+02  # M_1
    2   -9.84679156E+02  # M_2
    3    1.34329155E+03  # M_3
   11    1.93011367E+03  # A_t
   12    7.06972527E+02  # A_b
   13   -4.37284371E+02  # A_tau
   23    1.61865256E+02  # mu
   25    5.85753529E+01  # tan(beta)
   26    3.74910993E+03  # m_A, pole mass
   31    1.00000000E+04  # M_L11
   32    1.00000000E+04  # M_L22
   33    1.00000000E+04  # M_L33
   34    1.00000000E+04  # M_E11
   35    1.00000000E+04  # M_E22
   36    1.00000000E+04  # M_E33
   41    1.00000000E+04  # M_Q11
   42    1.00000000E+04  # M_Q22
   43    3.26949592E+03  # M_Q33
   44    1.00000000E+04  # M_U11
   45    1.00000000E+04  # M_U22
   46    4.60628638E+03  # M_U33
   47    1.00000000E+04  # M_D11
   48    1.00000000E+04  # M_D22
   49    2.47064808E+03  # M_D33
Block SMINPUTS  # SM parameters
         1     1.27908970E+02  # alpha_em^-1(MZ)^MSbar
         2     1.16637870E-05  # G_mu [GeV^-2]
         3     1.18400000E-01  # alpha_s(MZ)^MSbar
         4     9.11876000E+01  # m_Z(pole)
         5     4.18000000E+00  # m_b(m_b), MSbar
         6     1.73200000E+02  # m_t(pole)
         7     1.77700000E+00  # m_tau(pole)
         8     0.00000000E+00  # m_nu_3
        11     5.10998930E-04  # m_e(pole)
        12     0.00000000E+00  # m_nu_1
        13     1.05658372E-01  # m_muon(pole)
        14     0.00000000E+00  # m_nu_2
        21     5.00000000E-03  # m_d(2 GeV), MSbar
        22     2.50000000E-03  # m_u(2 GeV), MSbar
        23     9.50000000E-02  # m_s(2 GeV), MSbar
        24     1.27000000E+00  # m_c(m_c), MSbar
Block gauge Q=  3.87714482E+03  # (SUSY scale)
   1    3.55362975E-01  # g'(Q)^DRbar
   2    6.65198874E-01  # g(Q)^DRbar
   3    1.21977796E+00  # g3(Q)^DRbar
Block Yu Q=  3.87714482E+03  # (SUSY scale)
  1  1     8.38559387E-06   # Y_u(Q)^DRbar
  2  2     4.25988169E-03   # Y_c(Q)^DRbar
  3  3     1.01304709E+00   # Y_t(Q)^DRbar
Block Yd Q=  3.87714482E+03  # (SUSY scale)
  1  1     9.87026894E-04   # Y_d(Q)^DRbar
  2  2     1.87535110E-02   # Y_s(Q)^DRbar
  3  3     9.78821390E-01   # Y_b(Q)^DRbar
Block Ye Q=  3.87714482E+03  # (SUSY scale)
  1  1     1.72243411E-04   # Y_e(Q)^DRbar
  2  2     3.56144745E-02   # Y_mu(Q)^DRbar
  3  3     5.98976872E-01   # Y_tau(Q)^DRbar
Block Au Q=  3.87714482E+03  # (SUSY scale)
  1  1     0.00000000E+00   # A_u(Q)^DRbar
  2  2     0.00000000E+00   # A_c(Q)^DRbar
  3  3     1.93011373E+03   # A_t(Q)^DRbar
Block Ad Q=  3.87714482E+03  # (SUSY scale)
  1  1     0.00000000E+00   # A_d(Q)^DRbar
  2  2     0.00000000E+00   # A_s(Q)^DRbar
  3  3     7.06972545E+02   # A_b(Q)^DRbar
Block Ae Q=  3.87714482E+03  # (SUSY scale)
  1  1     0.00000000E+00   # A_e(Q)^DRbar
  2  2     0.00000000E+00   # A_mu(Q)^DRbar
  3  3    -4.37284354E+02   # A_tau(Q)^DRbar
Block MSOFT Q=  3.87714482E+03  # soft SUSY breaking masses at Q
   1    1.65653900E+02  # M_1
   2   -9.84679156E+02  # M_2
   3    1.34329155E+03  # M_3
  21    1.42311102E+07  # M^2_(H,d)
  22    2.86348190E+05  # M^2_(H,u)
  31    1.00000000E+04  # M_(L,11)
  32    1.00000000E+04  # M_(L,22)
  33    1.00000000E+04  # M_(L,33)
  34    1.00000000E+04  # M_(E,11)
  35    1.00000000E+04  # M_(E,22)
  36    1.00000000E+04  # M_(E,33)
  41    1.00000000E+04  # M_(Q,11)
  42    1.00000000E+04  # M_(Q,22)
  43    3.26949592E+03  # M_(Q,33)
  44    1.00000000E+04  # M_(U,11)
  45    1.00000000E+04  # M_(U,22)
  46    4.60628638E+03  # M_(U,33)
  47    1.00000000E+04  # M_(D,11)
  48    1.00000000E+04  # M_(D,22)
  49    2.47064808E+03  # M_(D,33)
Block MASS  # Mass spectrum
#   PDG code      mass          particle
         6     1.73200000E+02  # m_t(pole)
        23     9.11876000E+01  # m_Z(pole)
        24     8.04299946E+01  # W+
        15     1.77700000E+00  # m_tau(pole)
        25     1.23142514E+02  # h0
        35     3.74554224E+03  # H0
        36     3.74910993E+03  # A0
        37     3.74804835E+03  # H+
   1000001     1.01220164E+04  # ~d_L
   2000001     1.00971551E+04  # ~d_R
   1000002     1.01216506E+04  # ~u_L
   2000002     1.00999672E+04  # ~u_R
   1000003     1.01220216E+04  # ~s_L
   2000003     1.00971648E+04  # ~s_R
   1000004     1.01216558E+04  # ~c_L
   2000004     1.00999679E+04  # ~c_R
   1000005     2.45619265E+03  # ~b_1
   2000005     3.26639546E+03  # ~b_2
   1000006     3.26788799E+03  # ~t_1
   2000006     4.59998997E+03  # ~t_2
   1000011     1.00209039E+04  # ~e_L-
   2000011     1.00093179E+04  # ~e_R-
   1000012     1.00201324E+04  # ~nu_eL
   1000013     1.00209300E+04  # ~mu_L-
   2000013     1.00093681E+04  # ~mu_R-
   1000014     1.00201583E+04  # ~nu_muL
   1000015     1.00235044E+04  # ~tau_1-
   2000015     1.00284091E+04  # ~tau_2-
   1000016     1.00274773E+04  # ~nu_tauL
   1000021     1.68619122E+03  # ~g
   1000022     1.43853725E+02  # ~chi_10
   1000023     1.80018031E+02  # ~chi_20
   1000025     2.09027731E+02  # ~chi_30
   1000035     1.06578776E+03  # ~chi_40
   1000024     1.80163480E+02  # ~chi_1+
   1000037     1.06531342E+03  # ~chi_2+
# Higgs mixing
Block alpha # Effective Higgs mixing angle
          -1.70694115E-02   # alpha
Block Hmix Q=  3.87714482E+03  # Higgs mixing parameters
   1    1.61865256E+02  # mu
   2    5.85753529E+01  # tan[beta](Q)
   3    2.42962697E+02  # v(Q)
   4    1.40558253E+07  # m^2_A(Q)
Block stopmix # stop mixing matrix
   1  1    -9.99722987E-01   # Re[R_st(1,1)]
   1  2     2.35361066E-02   # Re[R_st(1,2)]
   2  1    -2.35361066E-02   # Re[R_st(2,1)]
   2  2    -9.99722987E-01   # Re[R_st(2,2)]
Block sbotmix # sbottom mixing matrix
   1  1     3.80847923E-03   # Re[R_sb(1,1)]
   1  2     9.99992748E-01   # Re[R_sb(1,2)]
   2  1    -9.99992748E-01   # Re[R_sb(2,1)]
   2  2     3.80847923E-03   # Re[R_sb(2,2)]
Block staumix # stau mixing matrix
   1  1     1.75785367E-01   # Re[R_sta(1,1)]
   1  2     9.84428517E-01   # Re[R_sta(1,2)]
   2  1    -9.84428517E-01   # Re[R_sta(2,1)]
   2  2     1.75785367E-01   # Re[R_sta(2,2)]
Block Nmix # neutralino mixing matrix
   1  1    -7.76957749E-01   # Re[N(1,1)]
   1  2    -2.71958610E-02   # Re[N(1,2)]
   1  3    -4.90705629E-01   # Re[N(1,3)]
   1  4     3.93452700E-01   # Re[N(1,4)]
   2  1     8.77026368E-02   # Re[N(2,1)]
   2  2     6.30333816E-02   # Re[N(2,2)]
   2  3    -7.04653410E-01   # Re[N(2,3)]
   2  4    -7.01283546E-01   # Re[N(2,4)]
   3  1     6.23407552E-01   # Re[N(3,1)]
   3  2    -3.82595358E-02   # Re[N(3,2)]
   3  3    -5.12385819E-01   # Re[N(3,3)]
   3  4     5.89372551E-01   # Re[N(3,4)]
   4  1     2.81565422E-03   # Re[N(4,1)]
   4  2    -9.96906909E-01   # Re[N(4,2)]
   4  3    -1.15034629E-02   # Re[N(4,3)]
   4  4    -7.76939931E-02   # Re[N(4,4)]
Block Umix # chargino mixing matrix
   1  1    -1.63104025E-02   # Re[U(1,1)]
   1  2     9.99866977E-01   # Re[U(1,2)]
   2  1    -9.99866977E-01   # Re[U(2,1)]
   2  2    -1.63104025E-02   # Re[U(2,2)]
Block Vmix # chargino mixing matrix
   1  1     1.10026659E-01   # Re[V(1,1)]
   1  2     9.93928636E-01   # Re[V(1,2)]
   2  1     9.93928636E-01   # Re[V(2,1)]
   2  2    -1.10026659E-01   # Re[V(2,2)]
DECAY        23     2.49520000E+00   # Z
DECAY        24     2.08500000E+00   # W
DECAY   2000011     5.02633335E+01   # ~e^-_R
#    BR                NDA      ID1      ID2
     6.03772163E-01    2     1000022        11   # BR(~e^-_R -> chi^0_1 e^-)
     7.69139797E-03    2     1000023        11   # BR(~e^-_R -> chi^0_2 e^-)
     3.88528568E-01    2     1000025        11   # BR(~e^-_R -> chi^0_3 e^-)
DECAY   1000011     1.41937125E+02   # ~e^-_L
#    BR                NDA      ID1      ID2
     6.07569276E-02    2     1000022        11   # BR(~e^-_L -> chi^0_1 e^-)
     3.74990582E-03    2     1000023        11   # BR(~e^-_L -> chi^0_2 e^-)
     2.69789678E-02    2     1000025        11   # BR(~e^-_L -> chi^0_3 e^-)
     3.00975053E-01    2     1000035        11   # BR(~e^-_L -> chi^0_4 e^-)
     1.65231407E-04    2    -1000024        12   # BR(~e^-_L -> chi^-_1 nu_e)
     6.07373914E-01    2    -1000037        12   # BR(~e^-_L -> chi^-_2 nu_e)
#    BR                NDA      ID1      ID2       ID3
DECAY   2000013     5.07683940E+01   # ~mu^-_R
#    BR                NDA      ID1      ID2
     5.98966053E-01    2     1000022        13   # BR(~mu^-_R -> chi^0_1 mu^-)
     1.00835554E-02    2     1000023        13   # BR(~mu^-_R -> chi^0_2 mu^-)
     3.85970285E-01    2     1000025        13   # BR(~mu^-_R -> chi^0_3 mu^-)
     4.97049292E-03    2    -1000024        14   # BR(~mu^-_R -> chi^-_1 nu_mu)
DECAY   1000013     1.42190206E+02   # ~mu^-_L
#    BR                NDA      ID1      ID2
     6.10769792E-02    2     1000022        13   # BR(~mu^-_L -> chi^0_1 mu^-)
     4.62567372E-03    2     1000023        13   # BR(~mu^-_L -> chi^0_2 mu^-)
     2.73974898E-02    2     1000025        13   # BR(~mu^-_L -> chi^0_3 mu^-)
     3.00440404E-01    2     1000035        13   # BR(~mu^-_L -> chi^0_4 mu^-)
     1.64937745E-04    2    -1000024        14   # BR(~mu^-_L -> chi^-_1 nu_mu)
     6.06294515E-01    2    -1000037        14   # BR(~mu^-_L -> chi^-_2 nu_mu)
#    BR                NDA      ID1      ID2       ID3
DECAY   1000015     1.93967139E+02   # ~tau^-_1
#    BR                NDA      ID1      ID2
     2.61060716E-01    2     1000022        15   # BR(~tau^-_1 -> chi^0_1 tau^-)
     1.86187031E-01    2     1000023        15   # BR(~tau^-_1 -> chi^0_2 tau^-)
     1.76016291E-01    2     1000025        15   # BR(~tau^-_1 -> chi^0_3 tau^-)
     5.73161374E-03    2     1000035        15   # BR(~tau^-_1 -> chi^0_4 tau^-)
     3.59433965E-01    2    -1000024        16   # BR(~tau^-_1 -> chi^-_1 nu_tau)
     1.15703821E-02    2    -1000037        16   # BR(~tau^-_1 -> chi^-_2 nu_tau)
DECAY   2000015     2.12940663E+02   # ~tau^-_2
#    BR                NDA      ID1      ID2
     1.07214842E-01    2     1000022        15   # BR(~tau^-_2 -> chi^0_1 tau^-)
     1.68238976E-01    2     1000023        15   # BR(~tau^-_2 -> chi^0_2 tau^-)
     1.25818787E-01    2     1000025        15   # BR(~tau^-_2 -> chi^0_3 tau^-)
     1.95639633E-01    2     1000035        15   # BR(~tau^-_2 -> chi^0_4 tau^-)
     8.37866231E-03    2    -1000024        16   # BR(~tau^-_2 -> chi^-_1 nu_tau)
     3.94709100E-01    2    -1000037        16   # BR(~tau^-_2 -> chi^-_2 nu_tau)
#    BR                NDA      ID1      ID2       ID3
DECAY   1000012     1.41941793E+02   # ~nu_e
#    BR                NDA      ID1      ID2
     4.67263589E-02    2     1000022        12   # BR(~nu_e -> chi^0_1 nu_e)
     4.27986923E-02    2     1000025        12   # BR(~nu_e -> chi^0_3 nu_e)
     3.02762714E-01    2     1000035        12   # BR(~nu_e -> chi^0_4 nu_e)
     7.51819762E-03    2     1000024        11   # BR(~nu_e -> chi^+_1 e^-)
     6.00112737E-01    2     1000037        11   # BR(~nu_e -> chi^+_2 e^-)
#    BR                NDA      ID1      ID2       ID3
DECAY   1000014     1.42194851E+02   # ~nu_mu
#    BR                NDA      ID1      ID2
     4.66433226E-02    2     1000022        14   # BR(~nu_mu -> chi^0_1 nu_mu)
     4.27226359E-02    2     1000025        14   # BR(~nu_mu -> chi^0_3 nu_mu)
     3.02224717E-01    2     1000035        14   # BR(~nu_mu -> chi^0_4 nu_mu)
     9.28134887E-03    2     1000024        13   # BR(~nu_mu -> chi^+_1 mu^-)
     5.99046821E-01    2     1000037        13   # BR(~nu_mu -> chi^+_2 mu^-)
#    BR                NDA      ID1      ID2       ID3
DECAY   1000016     2.13575330E+02   # ~nu_tau
#    BR                NDA      ID1      ID2
     3.10770389E-02    2     1000022        16   # BR(~nu_tau -> chi^0_1 nu_tau)
     2.84648226E-02    2     1000025        16   # BR(~nu_tau -> chi^0_3 nu_tau)
     2.01369816E-01    2     1000035        16   # BR(~nu_tau -> chi^0_4 nu_tau)
     3.39807981E-01    2     1000024        15   # BR(~nu_tau -> chi^+_1 tau^-)
     3.99226271E-01    2     1000037        15   # BR(~nu_tau -> chi^+_2 tau^-)
#    BR                NDA      ID1      ID2       ID3
DECAY   2000001     7.58802829E+02   # ~d_R
#    BR                NDA      ID1      ID2
     4.48287437E-03    2     1000022         1   # BR(~d_R -> chi^0_1 d)
     2.88478902E-03    2     1000025         1   # BR(~d_R -> chi^0_3 d)
     9.92574787E-01    2     1000021         1   # BR(~d_R -> ~g d)
DECAY   1000001     8.87364415E+02   # ~d_L
#    BR                NDA      ID1      ID2
     6.20190663E-04    2     1000022         1   # BR(~d_L -> chi^0_1 d)
     1.12917912E-04    2     1000023         1   # BR(~d_L -> chi^0_2 d)
     1.11783200E-03    2     1000025         1   # BR(~d_L -> chi^0_3 d)
     4.88461645E-02    2     1000035         1   # BR(~d_L -> chi^0_4 d)
     9.81765171E-02    2    -1000037         2   # BR(~d_L -> chi^-_2 u)
     8.51099681E-01    2     1000021         1   # BR(~d_L -> ~g d)
DECAY   2000003     7.58944453E+02   # ~s_R
#    BR                NDA      ID1      ID2
     4.50438496E-03    2     1000022         3   # BR(~s_R -> chi^0_1 s)
     1.03286672E-04    2     1000023         3   # BR(~s_R -> chi^0_2 s)
     2.90860413E-03    2     1000025         3   # BR(~s_R -> chi^0_3 s)
     9.92390628E-01    2     1000021         3   # BR(~s_R -> ~g s)
DECAY   1000003     8.87439149E+02   # ~s_L
#    BR                NDA      ID1      ID2
     6.39293780E-04    2     1000022         3   # BR(~s_L -> chi^0_1 s)
     1.52399126E-04    2     1000023         3   # BR(~s_L -> chi^0_2 s)
     1.13861451E-03    2     1000025         3   # BR(~s_L -> chi^0_3 s)
     4.88420877E-02    2     1000035         3   # BR(~s_L -> chi^0_4 s)
     9.81683511E-02    2    -1000037         4   # BR(~s_L -> chi^-_2 c)
     8.51028494E-01    2     1000021         3   # BR(~s_L -> ~g s)
DECAY   1000005     1.47707705E+02   # ~b_1
#    BR                NDA      ID1      ID2
     8.15732780E-02    2     1000022         5   # BR(~b_1 -> chi^0_1 b)
     1.55777177E-01    2     1000023         5   # BR(~b_1 -> chi^0_2 b)
     8.53598496E-02    2     1000025         5   # BR(~b_1 -> chi^0_3 b)
     3.10321739E-01    2    -1000024         6   # BR(~b_1 -> chi^-_1 t)
     3.66909752E-01    2     1000021         5   # BR(~b_1 -> ~g b)
DECAY   2000005     3.01429167E+02   # ~b_2
#    BR                NDA      ID1      ID2
     4.99847119E-02    2     1000022         5   # BR(~b_2 -> chi^0_1 b)
     1.02033238E-01    2     1000023         5   # BR(~b_2 -> chi^0_2 b)
     5.49828724E-02    2     1000025         5   # BR(~b_2 -> chi^0_3 b)
     3.79138498E-02    2     1000035         5   # BR(~b_2 -> chi^0_4 b)
     2.15998879E-01    2    -1000024         6   # BR(~b_2 -> chi^-_1 t)
     7.87433350E-02    2    -1000037         6   # BR(~b_2 -> chi^-_2 t)
     4.60204132E-01    2     1000021         5   # BR(~b_2 -> ~g b)
DECAY   2000002     7.75944193E+02   # ~u_R
#    BR                NDA      ID1      ID2
     1.75400180E-02    2     1000022         2   # BR(~u_R -> chi^0_1 u)
     2.23439933E-04    2     1000023         2   # BR(~u_R -> chi^0_2 u)
     1.12871282E-02    2     1000025         2   # BR(~u_R -> chi^0_3 u)
     9.70949188E-01    2     1000021         2   # BR(~u_R -> ~g u)
DECAY   1000002     8.87353822E+02   # ~u_L
#    BR                NDA      ID1      ID2
     1.37546130E-03    2     1000022         2   # BR(~u_L -> chi^0_1 u)
     3.10377550E-04    2     1000023         2   # BR(~u_L -> chi^0_2 u)
     2.65513929E-04    2     1000025         2   # BR(~u_L -> chi^0_3 u)
     4.87467359E-02    2     1000035         2   # BR(~u_L -> chi^0_4 u)
     1.21503068E-03    2     1000024         1   # BR(~u_L -> chi^+_1 d)
     9.70113088E-02    2     1000037         1   # BR(~u_L -> chi^+_2 d)
     8.51075572E-01    2     1000021         2   # BR(~u_L -> ~g u)
DECAY   2000004     7.75951508E+02   # ~c_R
#    BR                NDA      ID1      ID2
     1.75405795E-02    2     1000022         4   # BR(~c_R -> chi^0_1 c)
     2.25747120E-04    2     1000023         4   # BR(~c_R -> chi^0_2 c)
     1.12886546E-02    2     1000025         4   # BR(~c_R -> chi^0_3 c)
     9.70940071E-01    2     1000021         4   # BR(~c_R -> ~g c)
DECAY   1000004     8.87428519E+02   # ~c_L
#    BR                NDA      ID1      ID2
     1.37598358E-03    2     1000022         4   # BR(~c_L -> chi^0_1 c)
     3.12375558E-04    2     1000023         4   # BR(~c_L -> chi^0_2 c)
     2.66920544E-04    2     1000025         4   # BR(~c_L -> chi^0_3 c)
     4.87426793E-02    2     1000035         4   # BR(~c_L -> chi^0_4 c)
     1.29443885E-03    2     1000024         3   # BR(~c_L -> chi^+_1 s)
     9.70032153E-02    2     1000037         3   # BR(~c_L -> chi^+_2 s)
     8.51004387E-01    2     1000021         4   # BR(~c_L -> ~g c)
DECAY   1000006     3.70444310E+02   # ~t_1
#    BR                NDA      ID1      ID2
     4.96968648E-04    2     1000022         4   # BR(~t_1 -> chi^0_1 c)
     2.81380146E-02    2     1000022         6   # BR(~t_1 -> chi^0_1 t)
     1.11921935E-04    2     1000023         4   # BR(~t_1 -> chi^0_2 c)
     8.79016616E-02    2     1000023         6   # BR(~t_1 -> chi^0_2 t)
     6.27273330E-02    2     1000025         6   # BR(~t_1 -> chi^0_3 t)
     3.07745323E-02    2     1000035         6   # BR(~t_1 -> chi^0_4 t)
     1.68627380E-01    2     1000024         5   # BR(~t_1 -> chi^+_1 b)
     6.07905715E-02    2     1000037         5   # BR(~t_1 -> chi^+_2 b)
     1.75755308E-01    2     1000021         4   # BR(~t_1 -> ~g c)
     3.69672233E-01    2     1000021         6   # BR(~t_1 -> ~g t)
#    BR                NDA      ID1      ID2       ID3
     1.49286967E-02    3     1000022        24         5   # BR(~t_1 -> chi^0_1 W^+ b)
DECAY   2000006     4.79157068E+02   # ~t_2
#    BR                NDA      ID1      ID2
     4.36249237E-02    2     1000022         6   # BR(~t_2 -> chi^0_1 t)
     9.59056074E-02    2     1000023         6   # BR(~t_2 -> chi^0_2 t)
     7.51009066E-02    2     1000025         6   # BR(~t_2 -> chi^0_3 t)
     1.37205908E-03    2     1000035         6   # BR(~t_2 -> chi^0_4 t)
     1.92372494E-01    2     1000024         5   # BR(~t_2 -> chi^+_1 b)
     2.75857534E-03    2     1000037         5   # BR(~t_2 -> chi^+_2 b)
     5.66512634E-01    2     1000021         6   # BR(~t_2 -> ~g t)
     9.27761980E-03    2     2000005        24   # BR(~t_2 -> ~b_2 W^+)
     4.61588626E-03    2     1000006        23   # BR(~t_2 -> ~t_1 Z)
     8.45888954E-03    2     1000006        25   # BR(~t_2 -> ~t_1 h^0)
DECAY   1000024     3.00208212E-05   # chi^+_1
#    BR                NDA      ID1      ID2       ID3
     3.34398436E-01    3     1000022        -1         2   # BR(chi^+_1 -> chi^0_1 d_bar u)
     3.32517455E-01    3     1000022        -3         4   # BR(chi^+_1 -> chi^0_1 s_bar c)
     1.11465601E-01    3     1000022       -11        12   # BR(chi^+_1 -> chi^0_1 e^+ nu_e)
     1.11464885E-01    3     1000022       -13        14   # BR(chi^+_1 -> chi^0_1 mu^+ nu_mu)
     1.10153624E-01    3     1000022       -15        16   # BR(chi^+_1 -> chi^0_1 tau^+ nu_tau)
DECAY   1000037     9.29533574E+00   # chi^+_2
#    BR                NDA      ID1      ID2
     9.13499579E-02    2     1000022        24   # BR(chi^+_2 -> chi^0_1 W^+)
     2.50235790E-01    2     1000023        24   # BR(chi^+_2 -> chi^0_2 W^+)
     1.57840713E-01    2     1000025        24   # BR(chi^+_2 -> chi^0_3 W^+)
     2.47318152E-01    2     1000024        23   # BR(chi^+_2 -> chi^+_1 Z)
     2.39072236E-01    2     1000024        25   # BR(chi^+_2 -> chi^+_1 h^0)
#    BR                NDA      ID1      ID2       ID3
     4.50986591E-03    3     1000024         6        -6   # BR(chi^+_2 -> chi^+_1 t t_bar)
     1.76142943E-03    3     1000022        -5         6   # BR(chi^+_2 -> chi^0_1 b_bar t)
     4.92730242E-03    3     1000023        -5         6   # BR(chi^+_2 -> chi^0_2 b_bar t)
     2.96583905E-03    3     1000025        -5         6   # BR(chi^+_2 -> chi^0_3 b_bar t)
DECAY   1000022     0.00000000E+00   # chi^0_1
DECAY   1000023     7.04120993E-05   # chi^0_2
#    BR                NDA      ID1      ID2
     2.16622657E-02    2     1000022        22   # BR(chi^0_2 -> chi^0_1 photon)
#    BR                NDA      ID1      ID2       ID3
     1.18747462E-01    3     1000022         2        -2   # BR(chi^0_2 -> chi^0_1 u u_bar)
     1.16922000E-01    3     1000022         4        -4   # BR(chi^0_2 -> chi^0_1 c c_bar)
     1.52257221E-01    3     1000022         1        -1   # BR(chi^0_2 -> chi^0_1 d d_bar)
     1.52245921E-01    3     1000022         3        -3   # BR(chi^0_2 -> chi^0_1 s s_bar)
     1.32596145E-01    3     1000022         5        -5   # BR(chi^0_2 -> chi^0_1 b b_bar)
     3.43593033E-02    3     1000022        11       -11   # BR(chi^0_2 -> chi^0_1 e^- e^+)
     3.43552706E-02    3     1000022        13       -13   # BR(chi^0_2 -> chi^0_1 mu^- mu^+)
     3.32432125E-02    3     1000022        15       -15   # BR(chi^0_2 -> chi^0_1 tau^- tau^+)
     2.03611198E-01    3     1000022        12       -12   # BR(chi^0_2 -> chi^0_1 nu_e nu_bar_e)
DECAY   1000025     7.06748488E-05   # chi^0_3
#    BR                NDA      ID1      ID2
     1.96576787E-03    2     1000022        22   # BR(chi^0_3 -> chi^0_1 photon)
     2.22390300E-02    2     1000023        22   # BR(chi^0_3 -> chi^0_2 photon)
#    BR                NDA      ID1      ID2       ID3
     2.95910992E-03    3     1000022         2        -2   # BR(chi^0_3 -> chi^0_1 u u_bar)
     2.94760543E-03    3     1000022         4        -4   # BR(chi^0_3 -> chi^0_1 c c_bar)
     3.79119995E-03    3     1000022         1        -1   # BR(chi^0_3 -> chi^0_1 d d_bar)
     3.79114097E-03    3     1000022         3        -3   # BR(chi^0_3 -> chi^0_1 s s_bar)
     4.03573478E-03    3     1000022         5        -5   # BR(chi^0_3 -> chi^0_1 b b_bar)
     8.53173916E-04    3     1000022        11       -11   # BR(chi^0_3 -> chi^0_1 e^- e^+)
     8.53160587E-04    3     1000022        13       -13   # BR(chi^0_3 -> chi^0_1 mu^- mu^+)
     8.49344865E-04    3     1000022        15       -15   # BR(chi^0_3 -> chi^0_1 tau^- tau^+)
     5.07405878E-03    3     1000022        12       -12   # BR(chi^0_3 -> chi^0_1 nu_e nu_bar_e)
     6.38621836E-02    3     1000023         2        -2   # BR(chi^0_3 -> chi^0_2 u u_bar)
     6.23005794E-02    3     1000023         4        -4   # BR(chi^0_3 -> chi^0_2 c c_bar)
     8.18843030E-02    3     1000023         1        -1   # BR(chi^0_3 -> chi^0_2 d d_bar)
     8.18745455E-02    3     1000023         3        -3   # BR(chi^0_3 -> chi^0_2 s s_bar)
     6.52801485E-02    3     1000023         5        -5   # BR(chi^0_3 -> chi^0_2 b b_bar)
     1.84792448E-02    3     1000023        11       -11   # BR(chi^0_3 -> chi^0_2 e^- e^+)
     1.84757575E-02    3     1000023        13       -13   # BR(chi^0_3 -> chi^0_2 mu^- mu^+)
     1.75257282E-02    3     1000023        15       -15   # BR(chi^0_3 -> chi^0_2 tau^- tau^+)
     1.09503033E-01    3     1000023        12       -12   # BR(chi^0_3 -> chi^0_2 nu_e nu_bar_e)
     7.22795489E-02    3     1000024         1        -2   # BR(chi^0_3 -> chi^+_1 d u_bar)
     7.22795489E-02    3    -1000024        -1         2   # BR(chi^0_3 -> chi^-_1 d_bar u)
     7.16171186E-02    3     1000024         3        -4   # BR(chi^0_3 -> chi^+_1 s c_bar)
     7.16171186E-02    3    -1000024        -3         4   # BR(chi^0_3 -> chi^-_1 s_bar c)
     2.40933056E-02    3     1000024        11       -12   # BR(chi^0_3 -> chi^+_1 e^- nu_bar_e)
     2.40933056E-02    3    -1000024       -11        12   # BR(chi^0_3 -> chi^-_1 e^+ nu_e)
     2.40931320E-02    3     1000024        13       -14   # BR(chi^0_3 -> chi^+_1 mu^- nu_bar_mu)
     2.40931320E-02    3    -1000024       -13        14   # BR(chi^0_3 -> chi^-_1 mu^+ nu_mu)
     2.36444698E-02    3     1000024        15       -16   # BR(chi^0_3 -> chi^+_1 tau^- nu_bar_tau)
     2.36444698E-02    3    -1000024       -15        16   # BR(chi^0_3 -> chi^-_1 tau^+ nu_tau)
DECAY   1000035     1.01457297E+01   # chi^0_4
#    BR                NDA      ID1      ID2
     2.31104922E-01    2     1000024       -24   # BR(chi^0_4 -> chi^+_1 W^-)
     2.31104922E-01    2    -1000024        24   # BR(chi^0_4 -> chi^-_1 W^+)
     5.06787130E-02    2     1000022        23   # BR(chi^0_4 -> chi^0_1 Z)
     8.06686009E-02    2     1000023        23   # BR(chi^0_4 -> chi^0_2 Z)
     9.72753643E-02    2     1000025        23   # BR(chi^0_4 -> chi^0_3 Z)
     5.30376326E-02    2     1000022        25   # BR(chi^0_4 -> chi^0_1 h^0)
     1.41248055E-01    2     1000023        25   # BR(chi^0_4 -> chi^0_2 h^0)
     1.00233341E-01    2     1000025        25   # BR(chi^0_4 -> chi^0_3 h^0)
#    BR                NDA      ID1      ID2       ID3
     7.67014474E-04    3     1000022         6        -6   # BR(chi^0_4 -> chi^0_1 t t_bar)
     1.92505237E-03    3     1000023         6        -6   # BR(chi^0_4 -> chi^0_2 t t_bar)
     1.20098298E-03    3     1000025         6        -6   # BR(chi^0_4 -> chi^0_3 t t_bar)
     5.34488262E-03    3     1000024         5        -6   # BR(chi^0_4 -> chi^+_1 b t_bar)
     5.34488262E-03    3    -1000024        -5         6   # BR(chi^0_4 -> chi^-_1 b_bar t)
DECAY   1000021     3.53150391E-02   # ~g
#    BR                NDA      ID1      ID2
     7.93956835E-04    2     1000022        21   # BR(~g -> chi^0_1 g)
     2.78833230E-03    2     1000023        21   # BR(~g -> chi^0_2 g)
     9.85530104E-04    2     1000025        21   # BR(~g -> chi^0_3 g)
#    BR                NDA      ID1      ID2       ID3
     1.45214711E-02    3     1000022         6        -6   # BR(~g -> chi^0_1 t t_bar)
     1.05885067E-01    3     1000022         5        -5   # BR(~g -> chi^0_1 b b_bar)
     4.63503233E-02    3     1000023         6        -6   # BR(~g -> chi^0_2 t t_bar)
     2.03185335E-01    3     1000023         5        -5   # BR(~g -> chi^0_2 b b_bar)
     3.45176812E-02    3     1000025         6        -6   # BR(~g -> chi^0_3 t t_bar)
     1.08322794E-01    3     1000025         5        -5   # BR(~g -> chi^0_3 b b_bar)
     3.72104803E-04    3     1000035         6        -6   # BR(~g -> chi^0_4 t t_bar)
     1.18417408E-03    3     1000035         5        -5   # BR(~g -> chi^0_4 b b_bar)
     2.39797864E-01    3     1000024         5        -6   # BR(~g -> chi^+_1 b t_bar)
     2.39797864E-01    3    -1000024        -5         6   # BR(~g -> chi^-_1 b_bar t)
     6.10968685E-04    3     1000037         5        -6   # BR(~g -> chi^+_2 b t_bar)
     6.10968685E-04    3    -1000037        -5         6   # BR(~g -> chi^-_2 b_bar t)
DECAY        25     3.26578887E-03   # Gamma(h0)
     2.61311211E-03   2        22        22   # BR(h0 -> photon photon)
     1.49869329E-03   2        22        23   # BR(h0 -> photon Z)
     2.59409716E-02   2        23        23   # BR(h0 -> Z Z)
     2.22437711E-01   2       -24        24   # BR(h0 -> W W)
     8.25898608E-02   2        21        21   # BR(h0 -> gluon gluon)
     5.11827195E-09   2       -11        11   # BR(h0 -> Electron electron)
     2.27668863E-04   2       -13        13   # BR(h0 -> Muon muon)
     6.56426443E-02   2       -15        15   # BR(h0 -> Tau tau)
     1.45943954E-07   2        -2         2   # BR(h0 -> Up up)
     2.83239989E-02   2        -4         4   # BR(h0 -> Charm charm)
     5.94001578E-07   2        -1         1   # BR(h0 -> Down down)
     2.14835878E-04   2        -3         3   # BR(h0 -> Strange strange)
     5.70509758E-01   2        -5         5   # BR(h0 -> Bottom bottom)
DECAY        35     1.70023000E+02   # Gamma(HH)
     2.08880422E-08   2        22        22   # BR(HH -> photon photon)
     3.21277956E-08   2        22        23   # BR(HH -> photon Z)
     3.54074745E-08   2        23        23   # BR(HH -> Z Z)
     8.08257785E-09   2       -24        24   # BR(HH -> W W)
     6.59547476E-06   2        21        21   # BR(HH -> gluon gluon)
     9.88947293E-09   2       -11        11   # BR(HH -> Electron electron)
     4.40359413E-04   2       -13        13   # BR(HH -> Muon muon)
     1.27185525E-01   2       -15        15   # BR(HH -> Tau tau)
     1.42154176E-14   2        -2         2   # BR(HH -> Up up)
     2.75771092E-09   2        -4         4   # BR(HH -> Charm charm)
     1.96217956E-04   2        -6         6   # BR(HH -> Top top)
     7.04662084E-07   2        -1         1   # BR(HH -> Down down)
     2.54870667E-04   2        -3         3   # BR(HH -> Strange strange)
     6.13205831E-01   2        -5         5   # BR(HH -> Bottom bottom)
     2.47061557E-03   2  -1000024   1000024   # BR(HH -> Chargino1 chargino1)
     7.64705660E-02   2  -1000024   1000037   # BR(HH -> Chargino1 chargino2)
     7.64705660E-02   2  -1000037   1000024   # BR(HH -> Chargino2 chargino1)
     4.02480687E-05   2  -1000037   1000037   # BR(HH -> Chargino2 chargino2)
     5.94572492E-03   2   1000022   1000022   # BR(HH -> neutralino1 neutralino1)
     5.52370803E-03   2   1000022   1000023   # BR(HH -> neutralino1 neutralino2)
     7.39591511E-04   2   1000022   1000025   # BR(HH -> neutralino1 neutralino3)
     2.34890541E-02   2   1000022   1000035   # BR(HH -> neutralino1 neutralino4)
     3.15024314E-05   2   1000023   1000023   # BR(HH -> neutralino2 neutralino2)
     7.87972021E-03   2   1000023   1000025   # BR(HH -> neutralino2 neutralino3)
     3.87357112E-02   2   1000023   1000035   # BR(HH -> neutralino2 neutralino4)
     5.87643404E-03   2   1000025   1000025   # BR(HH -> neutralino3 neutralino3)
     1.50159054E-02   2   1000025   1000035   # BR(HH -> neutralino3 neutralino4)
     2.02028544E-05   2   1000035   1000035   # BR(HH -> neutralino4 neutralino4)
     2.36135514E-07   2        25        25   # BR(HH -> h0 h0)
DECAY        36     1.57327379E+02   # Gamma(A0)
     1.29232895E-09   2        22        22   # BR(A0 -> photon photon)
     3.19493922E-09   2        22        23   # BR(A0 -> photon Z)
     1.02360160E-05   2        21        21   # BR(A0 -> gluon gluon)
     9.60747528E-09   2       -11        11   # BR(A0 -> Electron electron)
     4.27800929E-04   2       -13        13   # BR(A0 -> Muon muon)
     1.23558501E-01   2       -15        15   # BR(A0 -> Tau tau)
     1.31102001E-14   2        -2         2   # BR(A0 -> Up up)
     2.54325888E-09   2        -4         4   # BR(A0 -> Charm charm)
     1.82417423E-04   2        -6         6   # BR(A0 -> Top top)
     6.84482823E-07   2        -1         1   # BR(A0 -> Down down)
     2.47571777E-04   2        -3         3   # BR(A0 -> Strange strange)
     5.95644616E-01   2        -5         5   # BR(A0 -> Bottom bottom)
     2.66580129E-03   2  -1000024   1000024   # BR(A0 -> Chargino1 chargino1)
     8.27513462E-02   2  -1000024   1000037   # BR(A0 -> Chargino1 chargino2)
     8.27513462E-02   2  -1000037   1000024   # BR(A0 -> Chargino2 chargino1)
     3.78097524E-05   2  -1000037   1000037   # BR(A0 -> Chargino2 chargino2)
     6.84787457E-03   2   1000022   1000022   # BR(A0 -> neutralino1 neutralino1)
     5.57848483E-03   2   1000022   1000023   # BR(A0 -> neutralino1 neutralino2)
     8.20251264E-04   2   1000022   1000025   # BR(A0 -> neutralino1 neutralino3)
     2.59314837E-02   2   1000022   1000035   # BR(A0 -> neutralino1 neutralino4)
     3.20805104E-05   2   1000023   1000023   # BR(A0 -> neutralino2 neutralino2)
     7.86000594E-03   2   1000023   1000025   # BR(A0 -> neutralino2 neutralino3)
     4.11366777E-02   2   1000023   1000035   # BR(A0 -> neutralino2 neutralino4)
     6.98314809E-03   2   1000025   1000025   # BR(A0 -> neutralino3 neutralino3)
     1.65127377E-02   2   1000025   1000035   # BR(A0 -> neutralino3 neutralino4)
     1.90330509E-05   2   1000035   1000035   # BR(A0 -> neutralino4 neutralino4)
     7.55342435E-08   2        23        25   # BR(A0 -> Z h0)
     4.03594598E-12   2        23        35   # BR(A0 -> Z HH)
     2.78975551E-40   2        25        25   # BR(A0 -> h0 h0)
DECAY        37     1.96657292E+02   # Gamma(Hp)
     1.08485805E-08   2       -11        12   # BR(Hp -> Electron nu_e)
     4.63810699E-04   2       -13        14   # BR(Hp -> Muon nu_mu)
     1.31192073E-01   2       -15        16   # BR(Hp -> Tau nu_tau)
     6.69827099E-07   2        -1         2   # BR(Hp -> Down up)
     1.13343932E-05   2        -3         2   # BR(Hp -> Strange up)
     6.81384924E-06   2        -5         2   # BR(Hp -> Bottom up)
     3.14867703E-08   2        -1         4   # BR(Hp -> Down charm)
     2.41393113E-04   2        -3         4   # BR(Hp -> Strange charm)
     9.54182807E-04   2        -5         4   # BR(Hp -> Bottom charm)
     1.39856947E-08   2        -1         6   # BR(Hp -> Down top)
     6.64100157E-07   2        -3         6   # BR(Hp -> Strange top)
     6.43462602E-01   2        -5         6   # BR(Hp -> Bottom top)
     1.32811050E-02   2   1000022   1000024   # BR(Hp -> neutralino1 chargino1)
     4.10802172E-02   2   1000022   1000037   # BR(Hp -> neutralino1 chargino2)
     7.51509569E-04   2   1000023   1000024   # BR(Hp -> neutralino2 chargino1)
     6.69557568E-02   2   1000023   1000037   # BR(Hp -> neutralino2 chargino2)
     8.96592627E-03   2   1000024   1000025   # BR(Hp -> chargino1 neutralino3)
     2.61841712E-02   2   1000025   1000037   # BR(Hp -> neutralino3 chargino2)
     6.64476537E-02   2   1000024   1000035   # BR(Hp -> chargino1 neutralino4)
     1.16906893E-10   2   1000035   1000037   # BR(Hp -> neutralino4 chargino2)
     6.04004921E-08   2        24        25   # BR(Hp -> W h0)
     6.84342651E-13   2        24        35   # BR(Hp -> W HH)
DECAY         6     2.43000000E+00   # top
#    BR                NDA      ID1      ID2
     1.00000000E+00    2           5        24   # BR(t -> b W)
Block HiggsBoundsInputHiggsCouplingsFermions
# ScalarNormEffCoupSq PseudoSNormEffCoupSq NP IP1 IP2 IP2
    9.99887877E-01    0.00000000E+00        3  25   5   5  # h0-b-b eff. coupling^2, normalised to SM
    3.43107208E+03    0.00000000E+00        3  35   5   5  # H0-b-b eff. coupling^2, normalised to SM
    0.00000000E+00    3.43107197E+03        3  36   5   5  # A0-b-b eff. coupling^2, normalised to SM
#
    1.00000003E+00    0.00000000E+00        3  25   6   6  # h0-t-t eff. coupling^2, normalised to SM
    2.91421423E-04    0.00000000E+00        3  35   6   6  # H0-t-t eff. coupling^2, normalised to SM
    0.00000000E+00    2.91454102E-04        3  36   6   6  # A0-t-t eff. coupling^2, normalised to SM
#
    9.99887877E-01    0.00000000E+00        3  25  15  15  # h0-tau-tau eff. coupling^2, normalised to SM
    3.43107208E+03    0.00000000E+00        3  35  15  15  # H0-tau-tau eff. coupling^2, normalised to SM
    0.00000000E+00    3.43107197E+03        3  36  15  15  # A0-tau-tau eff. coupling^2, normalised to SM
#
Block HiggsBoundsInputHiggsCouplingsBosons
    1.00000000E+00        3  25  24  24  # h0-W-W eff. coupling^2, normalised to SM
    9.16064595E-13        3  35  24  24  # H0-W-W eff. coupling^2, normalised to SM
    0.00000000E+00        3  36  24  24  # A0-W-W eff. coupling^2, normalised to SM
#
    1.00000000E+00        3  25  23  23  # h0-Z-Z eff. coupling^2, normalised to SM
    9.16064595E-13        3  35  23  23  # H0-Z-Z eff. coupling^2, normalised to SM
    0.00000000E+00        3  36  23  23  # A0-Z-Z eff. coupling^2, normalised to SM
#
    1.26560692E+00        3  25  21  21  # h0-g-g eff. coupling^2, normalised to SM
    1.69832706E-02        3  35  21  21  # H0-g-g eff. coupling^2, normalised to SM
    1.54570837E-01        3  36  21  21  # A0-g-g eff. coupling^2, normalised to SM
#
    0.00000000E+00        3  25  25  23  # h0-h0-Z eff. coupling^2, normalised to SM
    0.00000000E+00        3  35  25  23  # H0-h0-Z eff. coupling^2, normalised to SM
    9.16064595E-13        3  36  25  23  # A0-h0-Z eff. coupling^2, normalised to SM
    0.00000000E+00        3  35  35  23  # H0-H0-Z eff. coupling^2, normalised to SM
    1.00000000E+00        3  36  35  23  # A0-H0-Z eff. coupling^2, normalised to SM
    0.00000000E+00        3  36  36  23  # A0-A0-Z eff. coupling^2, normalised to SM
#
    0.00000000E+00        4  25  21  21  23  # h0-g-g-Z eff. coupling^2, normalised to SM
    0.00000000E+00        4  35  21  21  23  # H0-g-g-Z eff. coupling^2, normalised to SM
    0.00000000E+00        4  36  21  21  23  # A0-g-g-Z eff. coupling^2, normalised to SM
Block SPhenoLowEnergy  # low energy observables
    1    3.30960701E-04   # BR(b -> s gamma)
    2    1.58885268E-06   # BR(b -> s mu+ mu-)
    3    3.52455965E-05   # BR(b -> s nu nu)
    4    2.45568454E-15   # BR(Bd -> e+ e-)
    5    1.04904390E-10   # BR(Bd -> mu+ mu-)
    6    2.19798275E-08   # BR(Bd -> tau+ tau-)
    7    8.18030271E-14   # BR(Bs -> e+ e-)
    8    3.49463586E-09   # BR(Bs -> mu+ mu-)
    9    7.42004331E-07   # BR(Bs -> tau+ tau-)
   10    9.55381551E-05   # BR(B_u -> tau nu)
   11    9.86872566E-01   # BR(B_u -> tau nu)/BR(B_u -> tau nu)_SM
   12    5.41936542E-01   # |Delta(M_Bd)| [ps^-1] 
   13    1.93572171E+01   # |Delta(M_Bs)| [ps^-1] 
   14    0.00000000E+00   # neutron EDM according to the chiral quark model
   15    0.00000000E+00   # neutron EDM according to the relativistic quark-parton model
   16    2.15730348E-03   # epsilon_K
   17    2.28165958E-15   # Delta(M_K)
   18    2.47939772E-11   # BR(K^0 -> pi^0 nu nu)
   19    8.28910920E-11   # BR(K^+ -> pi^+ nu nu)
   20   -6.25633945E-16   # Delta(g-2)_electron/2
   21   -2.67483395E-11   # Delta(g-2)_muon/2
   22   -7.60508376E-09   # Delta(g-2)_tau/2
   23    0.00000000E+00   # electric dipole moment of the electron
   24    0.00000000E+00   # electric dipole moment of the muon
   25    0.00000000E+00   # electric dipole moment of the tau
   26    0.00000000E+00   # Br(mu -> e gamma)
   27    0.00000000E+00   # Br(tau -> e gamma)
   28    0.00000000E+00   # Br(tau -> mu gamma)
   29    0.00000000E+00   # Br(mu -> 3 e)
   30    0.00000000E+00   # Br(tau -> 3 e)
   31    0.00000000E+00   # Br(tau -> 3 mu)
   39    8.48550591E-05   # Delta(rho_parameter)
   40    0.00000000E+00   # BR(Z -> e mu)
   41    0.00000000E+00   # BR(Z -> e tau)
   42    0.00000000E+00   # BR(Z -> mu tau)
Block FWCOEF Q=  1.60000000E+02  # Wilson coefficients at scale Q
#    id        order  M        value         comment
     0305 4422   00   0    -1.88819110E-01   # C7
     0305 4422   00   2    -1.99675516E-01   # C7
     0305 4322   00   2    -1.31215504E-04   # C7'
     0305 6421   00   0    -9.52278348E-02   # C8
     0305 6421   00   2    -1.08976427E-01   # C8
     0305 6321   00   2    -2.19326103E-04   # C8'
 03051111 4133   00   0     1.62690458E+00   # C9 e+e-
 03051111 4133   00   2     1.62727696E+00   # C9 e+e-
 03051111 4233   00   2     9.27293027E-04   # C9' e+e-
 03051111 4137   00   0    -4.44959669E+00   # C10 e+e-
 03051111 4137   00   2    -4.44749587E+00   # C10 e+e-
 03051111 4237   00   2    -6.85618460E-03   # C10' e+e-
 03051313 4133   00   0     1.62690458E+00   # C9 mu+mu-
 03051313 4133   00   2     1.62727675E+00   # C9 mu+mu-
 03051313 4233   00   2     9.27291858E-04   # C9' mu+mu-
 03051313 4137   00   0    -4.44959669E+00   # C10 mu+mu-
 03051313 4137   00   2    -4.44749608E+00   # C10 mu+mu-
 03051313 4237   00   2    -6.85618577E-03   # C10' mu+mu-
 03051212 4137   00   0     1.50535012E+00   # C11 nu_1 nu_1
 03051212 4137   00   2     1.50489757E+00   # C11 nu_1 nu_1
 03051212 4237   00   2     1.48249193E-03   # C11' nu_1 nu_1
 03051414 4137   00   0     1.50535012E+00   # C11 nu_2 nu_2
 03051414 4137   00   2     1.50489757E+00   # C11 nu_2 nu_2
 03051414 4237   00   2     1.48249206E-03   # C11' nu_2 nu_2
 03051616 4137   00   0     1.50535012E+00   # C11 nu_3 nu_3
 03051616 4137   00   2     1.50489758E+00   # C11 nu_3 nu_3
 03051616 4237   00   2     1.48252749E-03   # C11' nu_3 nu_3
Block IMFWCOEF Q=  1.60000000E+02  # Im(Wilson coefficients) at scale Q
#    id        order  M        value         comment
     0305 4422   00   0     3.85812891E-07   # C7
     0305 4422   00   2    -3.38558158E-06   # C7
     0305 4322   00   2    -7.01623197E-07   # C7'
     0305 6421   00   0     3.30474257E-07   # C8
     0305 6421   00   2    -9.30952327E-05   # C8
     0305 6321   00   2    -1.76593520E-06   # C8'
 03051111 4133   00   2     1.05699383E-06   # C9 e+e-
 03051111 4233   00   2     1.76190149E-05   # C9' e+e-
 03051111 4137   00   2    -2.62411386E-06   # C10 e+e-
 03051111 4237   00   2    -1.30279532E-04   # C10' e+e-
 03051313 4133   00   2     1.05698504E-06   # C9 mu+mu-
 03051313 4233   00   2     1.76190045E-05   # C9' mu+mu-
 03051313 4137   00   2    -2.62410450E-06   # C10 mu+mu-
 03051313 4237   00   2    -1.30279563E-04   # C10' mu+mu-
 03051212 4137   00   2     5.97852185E-07   # C11 nu_1 nu_1
 03051212 4237   00   2     2.81699484E-05   # C11' nu_1 nu_1
 03051414 4137   00   2     5.97852595E-07   # C11 nu_2 nu_2
 03051414 4237   00   2     2.81699484E-05   # C11' nu_2 nu_2
 03051616 4137   00   2     5.97965134E-07   # C11 nu_3 nu_3
 03051616 4237   00   2     2.81699483E-05   # C11' nu_3 nu_3
