#
#                              ======================
#                              | THE SUSYHIT OUTPUT |
#                              ======================
#
#
#              ------------------------------------------------------
#              |     This is the output of the SUSY-HIT package     |
#              |  created by A.Djouadi, M.Muehlleitner and M.Spira. |
#              |  In case of problems with SUSY-HIT email to        |
#              |           margarete.muehlleitner@cern.ch           |
#              |           michael.spira@psi.ch                     |
#              |           abdelhak.djouadi@cern.ch                 |
#              ------------------------------------------------------
#
#              ------------------------------------------------------
#              |  SUSY Les Houches Accord - MSSM Spectrum + Decays  |
#              |              based on the decay programs           |
#              |                                                    |
#              |                     SDECAY 1.3b                    |
#              |                                                    |
#              |  Authors: M.Muhlleitner, A.Djouadi and Y.Mambrini  |
#              |  Ref.:    Comput.Phys.Commun.168(2005)46           |
#              |           [hep-ph/0311167]                         |
#              |                                                    |
#              |                     HDECAY 3.4                     |
#              |                                                    |
#              |  By: A.Djouadi,J.Kalinowski,M.Muhlleitner,M.Spira  |
#              |  Ref.:    Comput.Phys.Commun.108(1998)56           |
#              |           [hep-ph/9704448]                         |
#              |                                                    |
#              |                                                    |
#              |  If not stated otherwise all DRbar couplings and   |
#              |  soft SUSY breaking masses are given at the scale  |
#              |  Q=  0.34186940E+04
#              |                                                    |
#              ------------------------------------------------------
#
#
BLOCK DCINFO  # Decay Program information
     1   SDECAY/HDECAY # decay calculator
     2   1.3b  /3.4    # version number
#
BLOCK SPINFO  # Spectrum calculator information
     1     SOFTSUSY    # spectrum calculator               
     2     3.4.0       # version number                    
#
BLOCK MODSEL  # Model selection
     1     0   #  nonUniversal                                     
#
BLOCK SMINPUTS  # Standard Model inputs
         1     1.27908970E+02   # alpha_em^-1(M_Z)^MSbar
         2     1.16637870E-05   # G_F [GeV^-2]
         3     1.18400000E-01   # alpha_S(M_Z)^MSbar
         4     9.11876000E+01   # M_Z pole mass
         5     4.18000000E+00   # mb(mb)^MSbar
         6     1.73200000E+02   # mt pole mass
         7     1.77700000E+00   # mtau pole mass
#
BLOCK MINPAR  # Input parameters - minimal models
         3     6.27000000E+00   # tanb                
#
BLOCK EXTPAR  # Input parameters - non-minimal models
         0    -1.00000000E+00   # Set                 
         1     4.33000000E+01   # M_1(MX)             
         2    -9.75310000E+02   # M_2(MX)             
         3     1.48673000E+03   # M_3(MX)             
        11    -4.60888000E+03   # At(MX)              
        12    -2.77101000E+03   # Ab(MX)              
        13     3.11420000E+03   # Atau(MX)            
        23    -3.16760000E+02   # mu(MX)              
        26     2.98631000E+03   # mA(pole)            
        31     7.61480000E+02   # meL(MX)             
        32     7.61480000E+02   # mmuL(MX)            
        33     4.45680000E+02   # mtauL(MX)           
        34     1.69976000E+03   # meR(MX)             
        35     1.69976000E+03   # mmuR(MX)            
        36     5.60800000E+02   # mtauR(MX)           
        41     3.00115000E+03   # mqL1(MX)            
        42     3.00115000E+03   # mqL2(MX)            
        43     3.86973000E+03   # mqL3(MX)            
        44     3.91375000E+03   # muR(MX)             
        45     3.91375000E+03   # mcR(MX)             
        46     3.01996000E+03   # mtR(MX)             
        47     2.92964000E+03   # mdR(MX)             
        48     2.92964000E+03   # msR(MX)             
        49     3.58446000E+03   # mbR(MX)             
#
BLOCK MASS  # Mass Spectrum
# PDG code           mass       particle
        24     8.03847347E+01   # W+
        25     1.25115800E+02   # h
        35     2.98653037E+03   # H
        36     2.98630992E+03   # A
        37     2.98772414E+03   # H+
         5     4.81876030E+00   # b-quark pole mass calculated from mb(mb)_Msbar
   1000001     3.05476088E+03   # ~d_L
   2000001     2.97707441E+03   # ~d_R
   1000002     3.05393164E+03   # ~u_L
   2000002     3.95843623E+03   # ~u_R
   1000003     3.05476088E+03   # ~s_L
   2000003     2.97707441E+03   # ~s_R
   1000004     3.05393164E+03   # ~c_L
   2000004     3.95843623E+03   # ~c_R
   1000005     3.62800717E+03   # ~b_1
   2000005     3.87169802E+03   # ~b_2
   1000006     2.97980469E+03   # ~t_1
   2000006     3.88259065E+03   # ~t_2
   1000011     7.82912129E+02   # ~e_L
   2000011     1.70172108E+03   # ~e_R
   1000012     7.78843758E+02   # ~nu_eL
   1000013     7.82912129E+02   # ~mu_L
   2000013     1.70172108E+03   # ~mu_R
   1000014     7.78843758E+02   # ~nu_muL
   1000015     4.76762504E+02   # ~tau_1
   2000015     5.62706947E+02   # ~tau_2
   1000016     4.71264717E+02   # ~nu_tauL
   1000021     1.74110937E+03   # ~g
   1000022     4.40875249E+01   # ~chi_10
   1000023    -3.27032350E+02   # ~chi_20
   1000025     3.33130622E+02   # ~chi_30
   1000035    -1.01074405E+03   # ~chi_40
   1000024     3.25344109E+02   # ~chi_1+
   1000037     1.01091379E+03   # ~chi_2+
#
BLOCK NMIX  # Neutralino Mixing Matrix
  1  1     9.91397486E-01   # N_11
  1  2    -1.82320616E-03   # N_12
  1  3    -1.30809695E-01   # N_13
  1  4     4.06506871E-03   # N_14
  2  1     9.57356446E-02   # N_21
  2  2     9.30069980E-02   # N_22
  2  3     7.02555145E-01   # N_23
  2  4    -6.98999752E-01   # N_24
  3  1     8.91589781E-02   # N_31
  3  2    -3.44136949E-02   # N_32
  3  3     6.98255980E-01   # N_33
  3  4     7.09439893E-01   # N_34
  4  1    -4.04823538E-03   # N_41
  4  2     9.95068878E-01   # N_42
  4  3    -4.17573805E-02   # N_43
  4  4     8.98769221E-02   # N_44
#
BLOCK UMIX  # Chargino Mixing Matrix U
  1  1     5.90015298E-02   # U_11
  1  2     9.98257892E-01   # U_12
  2  1    -9.98257892E-01   # U_21
  2  2     5.90015298E-02   # U_22
#
BLOCK VMIX  # Chargino Mixing Matrix V
  1  1    -1.27196254E-01   # V_11
  1  2    -9.91877570E-01   # V_12
  2  1     9.91877570E-01   # V_21
  2  2    -1.27196254E-01   # V_22
#
BLOCK STOPMIX  # Stop Mixing Matrix
  1  1     1.05786340E-01   # cos(theta_t)
  1  2     9.94388883E-01   # sin(theta_t)
  2  1    -9.94388883E-01   # -sin(theta_t)
  2  2     1.05786340E-01   # cos(theta_t)
#
BLOCK SBOTMIX  # Sbottom Mixing Matrix
  1  1     1.28903379E-03   # cos(theta_b)
  1  2     9.99999169E-01   # sin(theta_b)
  2  1    -9.99999169E-01   # -sin(theta_b)
  2  2     1.28903379E-03   # cos(theta_b)
#
BLOCK STAUMIX  # Stau Mixing Matrix
  1  1     9.94855881E-01   # cos(theta_tau)
  1  2    -1.01300425E-01   # sin(theta_tau)
  2  1     1.01300425E-01   # -sin(theta_tau)
  2  2     9.94855881E-01   # cos(theta_tau)
#
BLOCK ALPHA  # Higgs mixing
          -1.66796891E-01   # Mixing angle in the neutral Higgs boson sector
#
BLOCK HMIX Q=  3.41869400E+03  # DRbar Higgs Parameters
         1    -3.21469078E+02   # mu(Q)MSSM           
         2     5.95547519E+00   # tan                 
         3     2.41324327E+02   # higgs               
         4     8.90497285E+06   # mA^2(Q)MSSM         
#
BLOCK GAUGE Q=  3.41869400E+03  # The gauge couplings
     1     3.65965078E-01   # gprime(Q) DRbar
     2     6.40850036E-01   # g(Q) DRbar
     3     1.01604540E+00   # g3(Q) DRbar
#
BLOCK AU Q=  3.41869400E+03  # The trilinear couplings
  1  1     0.00000000E+00   # A_u(Q) DRbar
  2  2     0.00000000E+00   # A_c(Q) DRbar
  3  3    -4.60887999E+03   # A_t(Q) DRbar
#
BLOCK AD Q=  3.41869400E+03  # The trilinear couplings
  1  1     0.00000000E+00   # A_d(Q) DRbar
  2  2     0.00000000E+00   # A_s(Q) DRbar
  3  3    -2.77101000E+03   # A_b(Q) DRbar
#
BLOCK AE Q=  3.41869400E+03  # The trilinear couplings
  1  1     0.00000000E+00   # A_e(Q) DRbar
  2  2     0.00000000E+00   # A_mu(Q) DRbar
  3  3     3.11420000E+03   # A_tau(Q) DRbar
#
BLOCK Yu Q=  3.41869400E+03  # The Yukawa couplings
  1  1     0.00000000E+00   # y_u(Q) DRbar
  2  2     0.00000000E+00   # y_c(Q) DRbar
  3  3     8.30250738E-01   # y_t(Q) DRbar
#
BLOCK Yd Q=  3.41869400E+03  # The Yukawa couplings
  1  1     0.00000000E+00   # y_d(Q) DRbar
  2  2     0.00000000E+00   # y_s(Q) DRbar
  3  3     8.04153943E-02   # y_b(Q) DRbar
#
BLOCK Ye Q=  3.41869400E+03  # The Yukawa couplings
  1  1     0.00000000E+00   # y_e(Q) DRbar
  2  2     0.00000000E+00   # y_mu(Q) DRbar
  3  3     6.23336990E-02   # y_tau(Q) DRbar
#
BLOCK MSOFT Q=  3.41869400E+03  # The soft SUSY breaking masses at the scale Q
         1     4.33000000E+01   # M_1(Q)              
         2    -9.75310000E+02   # M_2(Q)              
         3     1.48673000E+03   # M_3(Q)              
        21     8.54528445E+06   # mH1^2(Q)            
        22     4.03211808E+05   # mH2^2(Q)            
        31     7.61480000E+02   # meL(Q)              
        32     7.61480000E+02   # mmuL(Q)             
        33     4.45680000E+02   # mtauL(Q)            
        34     1.69976000E+03   # meR(Q)              
        35     1.69976000E+03   # mmuR(Q)             
        36     5.60800000E+02   # mtauR(Q)            
        41     3.00115000E+03   # mqL1(Q)             
        42     3.00115000E+03   # mqL2(Q)             
        43     3.86972999E+03   # mqL3(Q)             
        44     3.91375000E+03   # muR(Q)              
        45     3.91375000E+03   # mcR(Q)              
        46     3.01995998E+03   # mtR(Q)              
        47     2.92964000E+03   # mdR(Q)              
        48     2.92964000E+03   # msR(Q)              
        49     3.58446000E+03   # mbR(Q)              
#
Block HiggsBoundsInputHiggsCouplingsFermions
# ScalarNormEffCoupSq PseudoSNormEffCoupSq NP   IP1 IP2 IP2
    1.00520079E+00    0.00000000E+00        3  25   5   5  # h0-b-b eff. coupling^2, normalised to SM
    3.54624839E+01    0.00000000E+00        3  35   5   5  # H0-b-b eff. coupling^2, normalised to SM
    0.00000000E+00    3.54676847E+01        3  36   5   5  # A0-b-b eff. coupling^2, normalised to SM
#
    9.99853365E-01    0.00000000E+00        3  25   6   6  # h0-t-t eff. coupling^2, normalised to SM
    2.83413140E-02    0.00000000E+00        3  35   6   6  # H0-t-t eff. coupling^2, normalised to SM
    0.00000000E+00    2.81946794E-02        3  36   6   6  # A0-t-t eff. coupling^2, normalised to SM
#
    1.00520079E+00    0.00000000E+00        3  25  15  15  # h0-tau-tau eff. coupling^2, normalised to SM
    3.54624839E+01    0.00000000E+00        3  35  15  15  # H0-tau-tau eff. coupling^2, normalised to SM
    0.00000000E+00    3.54676847E+01        3  36  15  15  # A0-tau-tau eff. coupling^2, normalised to SM
#
Block HiggsBoundsInputHiggsCouplingsBosons
    9.99999810E-01        3  25  24  24  # h0-W-W eff. coupling^2, normalised to SM
    1.90173693E-07        3  35  24  24  # H0-W-W eff. coupling^2, normalised to SM
    0.00000000E+00        3  36  24  24  # A0-W-W eff. coupling^2, normalised to SM
#
    9.99999810E-01        3  25  23  23  # h0-Z-Z eff. coupling^2, normalised to SM
    1.90173693E-07        3  35  23  23  # H0-Z-Z eff. coupling^2, normalised to SM
    0.00000000E+00        3  36  23  23  # A0-Z-Z eff. coupling^2, normalised to SM
#
    8.88297971E-01        3  25  21  21  # h0-g-g eff. coupling^2, normalised to SM
    4.35417908E-12        3  35  21  21  # H0-g-g eff. coupling^2, normalised to SM
    1.16184582E-11        3  36  21  21  # A0-g-g eff. coupling^2, normalised to SM
#
    0.00000000E+00        3  25  25  23  # h0-h0-Z eff. coupling^2, normalised to SM
    0.00000000E+00        3  35  25  23  # H0-h0-Z eff. coupling^2, normalised to SM
    1.90173693E-07        3  36  25  23  # A0-h0-Z eff. coupling^2, normalised to SM
    0.00000000E+00        3  35  35  23  # H0-H0-Z eff. coupling^2, normalised to SM
    9.99999810E-01        3  36  35  23  # A0-H0-Z eff. coupling^2, normalised to SM
    0.00000000E+00        3  36  36  23  # A0-A0-Z eff. coupling^2, normalised to SM
#
    0.00000000E+00        4  25  21  21  23  # h0-g-g-Z eff. coupling^2, normalised to SM
    0.00000000E+00        4  35  21  21  23  # H0-g-g-Z eff. coupling^2, normalised to SM
    0.00000000E+00        4  36  21  21  23  # A0-g-g-Z eff. coupling^2, normalised to SM
#
#
#
#                             =================
#                             |The decay table|
#                             =================
#
# - The QCD corrections to the decays gluino -> squark  + quark
#                                     squark -> gaugino + quark_prime
#                                     squark -> squark_prime + Higgs
#                                     squark -> gluino  + quark
#   are included.
#
# - The multi-body decays for the inos, stops and sbottoms are included.
#
# - The loop induced decays for the gluino, neutralinos and stops
#   are included.
#
# - The SUSY decays of the top quark are included.
#
#
#         PDG            Width
DECAY         6     1.44661713E+00   # top decays
#          BR         NDA      ID1       ID2
     1.00000000E+00    2           5        24   # BR(t ->  b    W+)
#
#         PDG            Width
DECAY   1000021     6.36849359E-03   # gluino decays
#          BR         NDA      ID1       ID2
     8.48201982E-05    2     1000022        21   # BR(~g -> ~chi_10 g)
     5.87796681E-03    2     1000023        21   # BR(~g -> ~chi_20 g)
     6.03519020E-03    2     1000025        21   # BR(~g -> ~chi_30 g)
     4.67106518E-05    2     1000035        21   # BR(~g -> ~chi_40 g)
#           BR         NDA      ID1       ID2       ID3
     1.76876054E-02    3     1000022         1        -1   # BR(~g -> ~chi_10 d  db)
     3.58076926E-04    3     1000023         1        -1   # BR(~g -> ~chi_20 d  db)
     3.34948759E-04    3     1000025         1        -1   # BR(~g -> ~chi_30 d  db)
     4.43434132E-03    3     1000035         1        -1   # BR(~g -> ~chi_40 d  db)
     1.91092227E-02    3     1000022         2        -2   # BR(~g -> ~chi_10 u  ub)
     7.06529617E-04    3     1000023         2        -2   # BR(~g -> ~chi_20 u  ub)
     1.47583869E-04    3     1000025         2        -2   # BR(~g -> ~chi_30 u  ub)
     4.42683248E-03    3     1000035         2        -2   # BR(~g -> ~chi_40 u  ub)
     1.76876054E-02    3     1000022         3        -3   # BR(~g -> ~chi_10 s  sb)
     3.58076926E-04    3     1000023         3        -3   # BR(~g -> ~chi_20 s  sb)
     3.34948759E-04    3     1000025         3        -3   # BR(~g -> ~chi_30 s  sb)
     4.43434132E-03    3     1000035         3        -3   # BR(~g -> ~chi_40 s  sb)
     1.91092227E-02    3     1000022         4        -4   # BR(~g -> ~chi_10 c  cb)
     7.06529617E-04    3     1000023         4        -4   # BR(~g -> ~chi_20 c  cb)
     1.47583869E-04    3     1000025         4        -4   # BR(~g -> ~chi_30 c  cb)
     4.42683248E-03    3     1000035         4        -4   # BR(~g -> ~chi_40 c  cb)
     7.04560492E-03    3     1000022         5        -5   # BR(~g -> ~chi_10 b  bb)
     1.37978590E-03    3     1000023         5        -5   # BR(~g -> ~chi_20 b  bb)
     1.33543061E-03    3     1000025         5        -5   # BR(~g -> ~chi_30 b  bb)
     1.39685472E-03    3     1000035         5        -5   # BR(~g -> ~chi_40 b  bb)
     4.71909803E-02    3     1000022         6        -6   # BR(~g -> ~chi_10 t  tb)
     1.78110982E-01    3     1000023         6        -6   # BR(~g -> ~chi_20 t  tb)
     1.93779675E-01    3     1000025         6        -6   # BR(~g -> ~chi_30 t  tb)
     6.83472821E-04    3     1000035         6        -6   # BR(~g -> ~chi_40 t  tb)
     1.07818201E-03    3     1000024         1        -2   # BR(~g -> ~chi_1+ d  ub)
     1.07818201E-03    3    -1000024         2        -1   # BR(~g -> ~chi_1- u  db)
     8.85291401E-03    3     1000037         1        -2   # BR(~g -> ~chi_2+ d  ub)
     8.85291401E-03    3    -1000037         2        -1   # BR(~g -> ~chi_2- u  db)
     1.07818201E-03    3     1000024         3        -4   # BR(~g -> ~chi_1+ s  cb)
     1.07818201E-03    3    -1000024         4        -3   # BR(~g -> ~chi_1- c  sb)
     8.85291401E-03    3     1000037         3        -4   # BR(~g -> ~chi_2+ s  cb)
     8.85291401E-03    3    -1000037         4        -3   # BR(~g -> ~chi_2- c  sb)
     2.09259994E-01    3     1000024         5        -6   # BR(~g -> ~chi_1+ b  tb)
     2.09259994E-01    3    -1000024         6        -5   # BR(~g -> ~chi_1- t  bb)
     2.18893613E-03    3     1000037         5        -6   # BR(~g -> ~chi_2+ b  tb)
     2.18893613E-03    3    -1000037         6        -5   # BR(~g -> ~chi_2- t  bb)
#
#         PDG            Width
DECAY   1000006     1.57122466E+02   # stop1 decays
#          BR         NDA      ID1       ID2
     4.33107639E-02    2     1000022         6   # BR(~t_1 -> ~chi_10 t )
     1.23312750E-01    2     1000023         6   # BR(~t_1 -> ~chi_20 t )
     1.25174800E-01    2     1000025         6   # BR(~t_1 -> ~chi_30 t )
     4.40514517E-03    2     1000035         6   # BR(~t_1 -> ~chi_40 t )
     2.41859953E-01    2     1000024         5   # BR(~t_1 -> ~chi_1+ b )
     8.76638059E-03    2     1000037         5   # BR(~t_1 -> ~chi_2+ b )
     4.53170207E-01    2     1000021         6   # BR(~t_1 -> ~g      t )
#
#         PDG            Width
DECAY   2000006     2.56869670E+02   # stop2 decays
#          BR         NDA      ID1       ID2
     2.57182918E-03    2     1000022         6   # BR(~t_2 -> ~chi_10 t )
     1.00527631E-01    2     1000023         6   # BR(~t_2 -> ~chi_20 t )
     1.04003685E-01    2     1000025         6   # BR(~t_2 -> ~chi_30 t )
     5.22443482E-02    2     1000035         6   # BR(~t_2 -> ~chi_40 t )
     1.02730272E-02    2     1000024         5   # BR(~t_2 -> ~chi_1+ b )
     1.00749805E-01    2     1000037         5   # BR(~t_2 -> ~chi_2+ b )
     5.19510559E-01    2     1000021         6   # BR(~t_2 -> ~g      t )
     5.39917115E-02    2     1000006        25   # BR(~t_2 -> ~t_1    h )
     5.61269903E-02    2     1000006        23   # BR(~t_2 -> ~t_1    Z )
     4.12525803E-07    2     1000005        24   # BR(~t_2 -> ~b_1    W+)
#
#         PDG            Width
DECAY   1000005     1.20775501E+02   # sbottom1 decays
#          BR         NDA      ID1       ID2
     1.75383863E-02    2     1000022         5   # BR(~b_1 -> ~chi_10 b )
     2.03575270E-03    2     1000023         5   # BR(~b_1 -> ~chi_20 b )
     1.99460839E-03    2     1000025         5   # BR(~b_1 -> ~chi_30 b )
     8.14470646E-06    2     1000035         5   # BR(~b_1 -> ~chi_40 b )
     3.76880032E-03    2    -1000024         6   # BR(~b_1 -> ~chi_1- t )
     1.57165460E-05    2    -1000037         6   # BR(~b_1 -> ~chi_2- t )
     9.74638435E-01    2     1000021         5   # BR(~b_1 -> ~g      b )
     1.56452567E-07    2     1000006       -24   # BR(~b_1 -> ~t_1    W-)
#
#         PDG            Width
DECAY   2000005     2.56815908E+02   # sbottom2 decays
#          BR         NDA      ID1       ID2
     2.27066750E-03    2     1000022         5   # BR(~b_2 -> ~chi_10 b )
     1.28372754E-03    2     1000023         5   # BR(~b_2 -> ~chi_20 b )
     1.09006900E-03    2     1000025         5   # BR(~b_2 -> ~chi_30 b )
     5.30370275E-02    2     1000035         5   # BR(~b_2 -> ~chi_40 b )
     2.00004808E-01    2    -1000024         6   # BR(~b_2 -> ~chi_1- t )
     1.09858170E-01    2    -1000037         6   # BR(~b_2 -> ~chi_2- t )
     5.25478032E-01    2     1000021         5   # BR(~b_2 -> ~g      b )
     1.37567462E-07    2     1000005        25   # BR(~b_2 -> ~b_1    h )
     1.76757877E-07    2     1000005        23   # BR(~b_2 -> ~b_1    Z )
     1.06977184E-01    2     1000006       -24   # BR(~b_2 -> ~t_1    W-)
#
#         PDG            Width
DECAY   1000002     1.28053884E+02   # sup_L decays
#          BR         NDA      ID1       ID2
     3.26831131E-03    2     1000022         2   # BR(~u_L -> ~chi_10 u)
     1.13364786E-03    2     1000023         2   # BR(~u_L -> ~chi_20 u)
     2.78517592E-05    2     1000025         2   # BR(~u_L -> ~chi_30 u)
     7.37267862E-02    2     1000035         2   # BR(~u_L -> ~chi_40 u)
     2.96556666E-03    2     1000024         1   # BR(~u_L -> ~chi_1+ d)
     1.46724449E-01    2     1000037         1   # BR(~u_L -> ~chi_2+ d)
     7.72153387E-01    2     1000021         2   # BR(~u_L -> ~g      u)
#
#         PDG            Width
DECAY   2000002     1.92048855E+02   # sup_R decays
#          BR         NDA      ID1       ID2
     4.63299143E-02    2     1000022         2   # BR(~u_R -> ~chi_10 u)
     4.26657900E-04    2     1000023         2   # BR(~u_R -> ~chi_20 u)
     3.69866927E-04    2     1000025         2   # BR(~u_R -> ~chi_30 u)
     6.76845068E-07    2     1000035         2   # BR(~u_R -> ~chi_40 u)
     9.52872884E-01    2     1000021         2   # BR(~u_R -> ~g      u)
#
#         PDG            Width
DECAY   1000001     1.28082352E+02   # sdown_L decays
#          BR         NDA      ID1       ID2
     3.39728071E-03    2     1000022         1   # BR(~d_L -> ~chi_10 d)
     5.12469760E-04    2     1000023         1   # BR(~d_L -> ~chi_20 d)
     2.41754076E-04    2     1000025         1   # BR(~d_L -> ~chi_30 d)
     7.39693168E-02    2     1000035         1   # BR(~d_L -> ~chi_40 d)
     6.38138516E-04    2    -1000024         2   # BR(~d_L -> ~chi_1- u)
     1.48645882E-01    2    -1000037         2   # BR(~d_L -> ~chi_2- u)
     7.72595158E-01    2     1000021         1   # BR(~d_L -> ~g      d)
#
#         PDG            Width
DECAY   2000001     9.32859270E+01   # sdown_R decays
#          BR         NDA      ID1       ID2
     1.78248441E-02    2     1000022         1   # BR(~d_R -> ~chi_10 d)
     1.62589557E-04    2     1000023         1   # BR(~d_R -> ~chi_20 d)
     1.40893410E-04    2     1000025         1   # BR(~d_R -> ~chi_30 d)
     2.33911665E-07    2     1000035         1   # BR(~d_R -> ~chi_40 d)
     9.81871439E-01    2     1000021         1   # BR(~d_R -> ~g      d)
#
#         PDG            Width
DECAY   1000004     1.06425756E+02   # scharm_L decays
#          BR         NDA      ID1       ID2
     4.09290378E-03    2     1000022         4   # BR(~c_L -> ~chi_10 c)
     1.41728231E-03    2     1000023         4   # BR(~c_L -> ~chi_20 c)
     3.48190528E-05    2     1000025         4   # BR(~c_L -> ~chi_30 c)
     9.18945294E-02    2     1000035         4   # BR(~c_L -> ~chi_40 c)
     3.70757517E-03    2     1000024         3   # BR(~c_L -> ~chi_1+ s)
     1.82880250E-01    2     1000037         3   # BR(~c_L -> ~chi_2+ s)
     7.15972640E-01    2     1000021         4   # BR(~c_L -> ~g      c)
#
#         PDG            Width
DECAY   2000004     1.50394961E+02   # scharm_R decays
#          BR         NDA      ID1       ID2
     6.12540886E-02    2     1000022         4   # BR(~c_R -> ~chi_10 c)
     5.63567142E-04    2     1000023         4   # BR(~c_R -> ~chi_20 c)
     4.88544096E-04    2     1000025         4   # BR(~c_R -> ~chi_30 c)
     8.92725331E-07    2     1000035         4   # BR(~c_R -> ~chi_40 c)
     9.37692907E-01    2     1000021         4   # BR(~c_R -> ~g      c)
#
#         PDG            Width
DECAY   1000003     1.06433360E+02   # sstrange_L decays
#          BR         NDA      ID1       ID2
     4.25502680E-03    2     1000022         3   # BR(~s_L -> ~chi_10 s)
     6.40780974E-04    2     1000023         3   # BR(~s_L -> ~chi_20 s)
     3.02274357E-04    2     1000025         3   # BR(~s_L -> ~chi_30 s)
     9.22104489E-02    2     1000035         3   # BR(~s_L -> ~chi_40 s)
     7.97921284E-04    2    -1000024         4   # BR(~s_L -> ~chi_1- c)
     1.85302349E-01    2    -1000037         4   # BR(~s_L -> ~chi_2- c)
     7.16491199E-01    2     1000021         3   # BR(~s_L -> ~g      s)
#
#         PDG            Width
DECAY   2000003     7.23471568E+01   # sstrange_R decays
#          BR         NDA      ID1       ID2
     2.39370298E-02    2     1000022         3   # BR(~s_R -> ~chi_10 s)
     2.17955279E-04    2     1000023         3   # BR(~s_R -> ~chi_20 s)
     1.88864691E-04    2     1000025         3   # BR(~s_R -> ~chi_30 s)
     3.12551526E-07    2     1000035         3   # BR(~s_R -> ~chi_40 s)
     9.75655838E-01    2     1000021         3   # BR(~s_R -> ~g      s)
#
#         PDG            Width
DECAY   1000011     1.07546977E+00   # selectron_L decays
#          BR         NDA      ID1       ID2
     9.41086329E-01    2     1000022        11   # BR(~e_L -> ~chi_10 e-)
     4.41987896E-02    2     1000023        11   # BR(~e_L -> ~chi_20 e-)
     5.43116478E-04    2     1000025        11   # BR(~e_L -> ~chi_30 e-)
     1.41717649E-02    2    -1000024        12   # BR(~e_L -> ~chi_1- nu_e)
#
#         PDG            Width
DECAY   2000011     9.04484805E+00   # selectron_R decays
#          BR         NDA      ID1       ID2
     9.84099394E-01    2     1000022        11   # BR(~e_R -> ~chi_10 e-)
     8.52290465E-03    2     1000023        11   # BR(~e_R -> ~chi_20 e-)
     7.37081866E-03    2     1000025        11   # BR(~e_R -> ~chi_30 e-)
     6.88271965E-06    2     1000035        11   # BR(~e_R -> ~chi_40 e-)
#
#         PDG            Width
DECAY   1000013     1.07546973E+00   # smuon_L decays
#          BR         NDA      ID1       ID2
     9.41086329E-01    2     1000022        13   # BR(~mu_L -> ~chi_10 mu-)
     4.41987888E-02    2     1000023        13   # BR(~mu_L -> ~chi_20 mu-)
     5.43116469E-04    2     1000025        13   # BR(~mu_L -> ~chi_30 mu-)
     1.41717654E-02    2    -1000024        14   # BR(~mu_L -> ~chi_1- nu_mu)
#
#         PDG            Width
DECAY   2000013     9.04484798E+00   # smuon_R decays
#          BR         NDA      ID1       ID2
     9.84099394E-01    2     1000022        13   # BR(~mu_R -> ~chi_10 mu-)
     8.52290464E-03    2     1000023        13   # BR(~mu_R -> ~chi_20 mu-)
     7.37081865E-03    2     1000025        13   # BR(~mu_R -> ~chi_30 mu-)
     6.88271958E-06    2     1000035        13   # BR(~mu_R -> ~chi_40 mu-)
#
#         PDG            Width
DECAY   1000015     6.59499280E-01   # stau_1 decays
#          BR         NDA      ID1       ID2
     9.59788340E-01    2     1000022        15   # BR(~tau_1 -> ~chi_10  tau-)
     2.61078401E-02    2     1000023        15   # BR(~tau_1 -> ~chi_20  tau-)
     6.18324296E-03    2     1000025        15   # BR(~tau_1 -> ~chi_30  tau-)
     7.92057680E-03    2    -1000024        16   # BR(~tau_1 -> ~chi_1-  nu_tau)
#
#         PDG            Width
DECAY   2000015     2.94626380E+00   # stau_2 decays
#          BR         NDA      ID1       ID2
     9.79178018E-01    2     1000022        15   # BR(~tau_2 -> ~chi_10  tau-)
     7.10190354E-03    2     1000023        15   # BR(~tau_2 -> ~chi_20  tau-)
     6.91971288E-03    2     1000025        15   # BR(~tau_2 -> ~chi_30  tau-)
     5.67920314E-03    2    -1000024        16   # BR(~tau_2 -> ~chi_1-  nu_tau)
     1.12116261E-03    2     1000016       -24   # BR(~tau_2 -> ~nu_tauL W-)
#
#         PDG            Width
DECAY   1000012     1.10863241E+00   # snu_eL decays
#          BR         NDA      ID1       ID2
     9.19904708E-01    2     1000022        12   # BR(~nu_eL -> ~chi_10 nu_e)
     2.86164395E-03    2     1000023        12   # BR(~nu_eL -> ~chi_20 nu_e)
     1.39498029E-02    2     1000025        12   # BR(~nu_eL -> ~chi_30 nu_e)
     6.32838456E-02    2     1000024        11   # BR(~nu_eL -> ~chi_1+ e-)
#
#         PDG            Width
DECAY   1000014     1.10863241E+00   # snu_muL decays
#          BR         NDA      ID1       ID2
     9.19904711E-01    2     1000022        14   # BR(~nu_muL -> ~chi_10 nu_mu)
     2.86164396E-03    2     1000023        14   # BR(~nu_muL -> ~chi_20 nu_mu)
     1.39498029E-02    2     1000025        14   # BR(~nu_muL -> ~chi_30 nu_mu)
     6.32838424E-02    2     1000024        13   # BR(~nu_muL -> ~chi_1+ mu-)
#
#         PDG            Width
DECAY   1000016     6.41252918E-01   # snu_tauL decays
#          BR         NDA      ID1       ID2
     9.51629865E-01    2     1000022        16   # BR(~nu_tauL -> ~chi_10 nu_tau)
     1.18592510E-03    2     1000023        16   # BR(~nu_tauL -> ~chi_20 nu_tau)
     5.47170879E-03    2     1000025        16   # BR(~nu_tauL -> ~chi_30 nu_tau)
     4.17125010E-02    2     1000024        15   # BR(~nu_tauL -> ~chi_1+ tau-)
#
#         PDG            Width
DECAY   1000024     1.74716196E-01   # chargino1+ decays
#          BR         NDA      ID1       ID2
     1.00000000E+00    2     1000022        24   # BR(~chi_1+ -> ~chi_10  W+)
#
#         PDG            Width
DECAY   1000037     1.67512063E+01   # chargino2+ decays
#          BR         NDA      ID1       ID2
     4.00651889E-02    2     1000012       -11   # BR(~chi_2+ -> ~nu_eL   e+  )
     4.00651889E-02    2     1000014       -13   # BR(~chi_2+ -> ~nu_muL mu+ )
     1.48578364E-01    2     1000016       -15   # BR(~chi_2+ -> ~nu_tau1 tau+)
     3.93501727E-02    2    -1000011        12   # BR(~chi_2+ -> ~e_L+    nu_e)
     3.93501727E-02    2    -1000013        14   # BR(~chi_2+ -> ~mu_L+   nu_mu)
     1.46847721E-01    2    -1000015        16   # BR(~chi_2+ -> ~tau_1+  nu_tau)
     1.34027913E-03    2    -2000015        16   # BR(~chi_2+ -> ~tau_2+  nu_tau)
     1.38156044E-01    2     1000024        23   # BR(~chi_2+ -> ~chi_1+  Z )
     5.92895428E-04    2     1000022        24   # BR(~chi_2+ -> ~chi_10  W+)
     1.35516011E-01    2     1000023        24   # BR(~chi_2+ -> ~chi_20  W+)
     1.33980370E-01    2     1000025        24   # BR(~chi_2+ -> ~chi_30  W+)
     1.36157592E-01    2     1000024        25   # BR(~chi_2+ -> ~chi_1+  h )
#
#         PDG            Width
DECAY   1000022     0.00000000E+00   # neutralino1 decays
#
#         PDG            Width
DECAY   1000023     1.49008308E-01   # neutralino2 decays
#          BR         NDA      ID1       ID2
     5.29009003E-01    2     1000022        23   # BR(~chi_20 -> ~chi_10   Z )
     4.70990997E-01    2     1000022        25   # BR(~chi_20 -> ~chi_10   h )
#
#         PDG            Width
DECAY   1000025     1.77654613E-01   # neutralino3 decays
#          BR         NDA      ID1       ID2
     5.93329243E-01    2     1000022        23   # BR(~chi_30 -> ~chi_10   Z )
     4.06670757E-01    2     1000022        25   # BR(~chi_30 -> ~chi_10   h )
#
#         PDG            Width
DECAY   1000035     1.67440170E+01   # neutralino4 decays
#          BR         NDA      ID1       ID2
     5.17702389E-04    2     1000022        23   # BR(~chi_40 -> ~chi_10   Z )
     1.64771960E-02    2     1000023        23   # BR(~chi_40 -> ~chi_20   Z )
     1.20342417E-01    2     1000025        23   # BR(~chi_40 -> ~chi_30   Z )
     1.35751236E-01    2     1000024       -24   # BR(~chi_40 -> ~chi_1+   W-)
     1.35751236E-01    2    -1000024        24   # BR(~chi_40 -> ~chi_1-   W+)
     8.92467423E-05    2     1000022        25   # BR(~chi_40 -> ~chi_10   h )
     1.20133405E-01    2     1000023        25   # BR(~chi_40 -> ~chi_20   h )
     1.53821105E-02    2     1000025        25   # BR(~chi_40 -> ~chi_30   h )
     1.94443430E-02    2     1000011       -11   # BR(~chi_40 -> ~e_L-     e+)
     1.94443430E-02    2    -1000011        11   # BR(~chi_40 -> ~e_L+     e-)
     1.94443430E-02    2     1000013       -13   # BR(~chi_40 -> ~mu_L-    mu+)
     1.94443430E-02    2    -1000013        13   # BR(~chi_40 -> ~mu_L+    mu-)
     7.26197709E-02    2     1000015       -15   # BR(~chi_40 -> ~tau_1-   tau+)
     7.26197709E-02    2    -1000015        15   # BR(~chi_40 -> ~tau_1+   tau-)
     6.64447728E-04    2     2000015       -15   # BR(~chi_40 -> ~tau_2-   tau+)
     6.64447728E-04    2    -2000015        15   # BR(~chi_40 -> ~tau_2+   tau-)
     2.02409203E-02    2     1000012       -12   # BR(~chi_40 -> ~nu_eL    nu_eb)
     2.02409203E-02    2    -1000012        12   # BR(~chi_40 -> ~nu_eL*   nu_e )
     2.02409203E-02    2     1000014       -14   # BR(~chi_40 -> ~nu_muL   nu_mub)
     2.02409203E-02    2    -1000014        14   # BR(~chi_40 -> ~nu_muL*  nu_mu )
     7.51229800E-02    2     1000016       -16   # BR(~chi_40 -> ~nu_tau1  nu_taub)
     7.51229800E-02    2    -1000016        16   # BR(~chi_40 -> ~nu_tau1* nu_tau )
#
#         PDG            Width
DECAY        25     4.12637071E-03   # h decays
#          BR         NDA      ID1       ID2
     5.84624682E-01    2           5        -5   # BR(h -> b       bb     )
     6.30870877E-02    2         -15        15   # BR(h -> tau+    tau-   )
     2.23308210E-04    2         -13        13   # BR(h -> mu+     mu-    )
     2.43723955E-04    2           3        -3   # BR(h -> s       sb     )
     2.10309337E-02    2           4        -4   # BR(h -> c       cb     )
     7.75157615E-02    2          21        21   # BR(h -> g       g      )
     2.29876431E-03    2          22        22   # BR(h -> gam     gam    )
     1.52922426E-03    2          22        23   # BR(h -> Z       gam    )
     2.06399523E-01    2          24       -24   # BR(h -> W+      W-     )
     2.57932984E-02    2          23        23   # BR(h -> Z       Z      )
     1.72536929E-02    2     1000022   1000022   # BR(h -> ~chi_10 ~chi_10)
#
#         PDG            Width
DECAY        35     3.83506023E+01   # H decays
#          BR         NDA      ID1       ID2
     3.11058134E-02    2           5        -5   # BR(H -> b       bb     )
     5.62217185E-03    2         -15        15   # BR(H -> tau+    tau-   )
     2.00032944E-05    2         -13        13   # BR(H -> mu+     mu-    )
     1.27870009E-05    2           3        -3   # BR(H -> s       sb     )
     9.06273092E-07    2           4        -4   # BR(H -> c       cb     )
     8.90551336E-02    2           6        -6   # BR(H -> t       tb     )
     4.60038520E-05    2          21        21   # BR(H -> g       g      )
     3.76482328E-07    2          22        22   # BR(H -> gam     gam    )
     6.93430735E-08    2          23        22   # BR(H -> Z       gam    )
     4.24419152E-05    2          24       -24   # BR(H -> W+      W-     )
     2.11737023E-05    2          23        23   # BR(H -> Z       Z      )
     1.49548343E-04    2          25        25   # BR(H -> h       h      )
     8.19108596E-03    2     1000024  -1000024   # BR(H -> ~chi_1+ ~chi_1-)
     3.53324487E-04    2     1000037  -1000037   # BR(H -> ~chi_2+ ~chi_2-)
     2.54556944E-01    2     1000024  -1000037   # BR(H -> ~chi_1+ ~chi_2-)
     2.54556944E-01    2     1000037  -1000024   # BR(H -> ~chi_2+ ~chi_1-)
     3.08329470E-03    2     1000022   1000022   # BR(H -> ~chi_10 ~chi_10)
     3.55481546E-04    2     1000023   1000023   # BR(H -> ~chi_20 ~chi_20)
     2.68565738E-03    2     1000025   1000025   # BR(H -> ~chi_30 ~chi_30)
     1.80617887E-04    2     1000035   1000035   # BR(H -> ~chi_40 ~chi_40)
     3.16011898E-02    2     1000022   1000023   # BR(H -> ~chi_10 ~chi_20)
     5.63525166E-02    2     1000022   1000025   # BR(H -> ~chi_10 ~chi_30)
     3.39981668E-03    2     1000022   1000035   # BR(H -> ~chi_10 ~chi_40)
     6.07811946E-05    2     1000023   1000025   # BR(H -> ~chi_20 ~chi_30)
     7.57174240E-02    2     1000023   1000035   # BR(H -> ~chi_20 ~chi_40)
     1.77120368E-01    2     1000025   1000035   # BR(H -> ~chi_30 ~chi_40)
     5.54101632E-06    2     1000011  -1000011   # BR(H -> ~e_L-   ~e_L+  )
     5.54101632E-06    2     1000013  -1000013   # BR(H -> ~mu_L-  ~mu_L+ )
     1.73467324E-04    2     1000015  -1000015   # BR(H -> ~tau_1- ~tau_1+)
     7.59309735E-05    2     2000015  -2000015   # BR(H -> ~tau_2- ~tau_2+)
     2.69569367E-03    2     1000015  -2000015   # BR(H -> ~tau_1- ~tau_2+)
     2.69569367E-03    2     2000015  -1000015   # BR(H -> ~tau_2- ~tau_1+)
     1.80765438E-05    2     1000012  -1000012   # BR(H -> ~nu_eL  ~nu_eL*   )
     1.80765438E-05    2     1000014  -1000014   # BR(H -> ~nu_muL ~nu_muL*  )
     2.01038139E-05    2     1000016  -1000016   # BR(H -> ~nu_tauL ~nu_tauL*)
#
#         PDG            Width
DECAY        36     3.83499250E+01   # A decays
#          BR         NDA      ID1       ID2
     3.11338494E-02    2           5        -5   # BR(A -> b       bb     )
     5.62269595E-03    2         -15        15   # BR(A -> tau+    tau-   )
     2.00051216E-05    2         -13        13   # BR(A -> mu+     mu-    )
     1.28136331E-05    2           3        -3   # BR(A -> s       sb     )
     9.09890115E-07    2           4        -4   # BR(A -> c       cb     )
     8.93719224E-02    2           6        -6   # BR(A -> t       tb     )
     7.51245474E-05    2          21        21   # BR(A -> g       g      )
     4.09070939E-07    2          22        22   # BR(A -> gam     gam    )
     9.70317336E-08    2          23        22   # BR(A -> Z       gam    )
     4.29897082E-05    2          23        25   # BR(A -> Z       h      )
     1.17328970E-02    2     1000024  -1000024   # BR(A -> ~chi_1+ ~chi_1-)
     3.01377252E-03    2     1000037  -1000037   # BR(A -> ~chi_2+ ~chi_2-)
     2.51444568E-01    2     1000024  -1000037   # BR(A -> ~chi_1+ ~chi_2-)
     2.51444568E-01    2     1000037  -1000024   # BR(A -> ~chi_2+ ~chi_1-)
     3.15144722E-03    2     1000022   1000022   # BR(A -> ~chi_10 ~chi_10)
     7.33889333E-04    2     1000023   1000023   # BR(A -> ~chi_20 ~chi_20)
     1.41784256E-03    2     1000025   1000025   # BR(A -> ~chi_30 ~chi_30)
     1.51963483E-03    2     1000035   1000035   # BR(A -> ~chi_40 ~chi_40)
     6.11172829E-02    2     1000022   1000023   # BR(A -> ~chi_10 ~chi_20)
     2.78510161E-02    2     1000022   1000025   # BR(A -> ~chi_10 ~chi_30)
     2.53033391E-03    2     1000022   1000035   # BR(A -> ~chi_10 ~chi_40)
     5.56011375E-04    2     1000023   1000025   # BR(A -> ~chi_20 ~chi_30)
     1.76062102E-01    2     1000023   1000035   # BR(A -> ~chi_20 ~chi_40)
     7.55117690E-02    2     1000025   1000035   # BR(A -> ~chi_30 ~chi_40)
     2.81602437E-03    2     1000015  -2000015   # BR(A -> ~tau_1- ~tau_2+)
     2.81602437E-03    2    -1000015   2000015   # BR(A -> ~tau_1+ ~tau_2-)
#
#         PDG            Width
DECAY        37     3.82554025E+01   # H+ decays
#          BR         NDA      ID1       ID2
     5.15596878E-05    2           4        -5   # BR(H+ -> c       bb     )
     5.63925797E-03    2         -15        16   # BR(H+ -> tau+    nu_tau )
     2.00640480E-05    2         -13        14   # BR(H+ -> mu+     nu_mu  )
     5.15581566E-07    2           2        -5   # BR(H+ -> u       bb     )
     6.41880682E-07    2           2        -3   # BR(H+ -> u       sb     )
     1.35089753E-05    2           4        -3   # BR(H+ -> c       sb     )
     1.18691770E-01    2           6        -5   # BR(H+ -> t       bb     )
     4.31845713E-05    2          24        25   # BR(H+ -> W+      h      )
     1.94540648E-13    2          24        36   # BR(H+ -> W+      A      )
     9.37367305E-02    2     1000024   1000022   # BR(H+ -> ~chi_1+ ~chi_10)
     2.24475078E-03    2     1000024   1000023   # BR(H+ -> ~chi_1+ ~chi_20)
     8.07099687E-04    2     1000024   1000025   # BR(H+ -> ~chi_1+ ~chi_30)
     2.56240867E-01    2     1000024   1000035   # BR(H+ -> ~chi_1+ ~chi_40)
     5.98062398E-03    2     1000037   1000022   # BR(H+ -> ~chi_2+ ~chi_10)
     2.58949214E-01    2     1000037   1000023   # BR(H+ -> ~chi_2+ ~chi_20)
     2.51863825E-01    2     1000037   1000025   # BR(H+ -> ~chi_2+ ~chi_30)
     2.35791678E-08    2     1000037   1000035   # BR(H+ -> ~chi_2+ ~chi_40)
     2.18045504E-05    2    -1000011   1000012   # BR(H+ -> ~e_L+   ~nu_eL )
     2.18045504E-05    2    -1000013   1000014   # BR(H+ -> ~mu_L+  ~nu_muL)
     1.56534476E-04    2    -1000015   1000016   # BR(H+ -> ~tau_1+ ~nu_tauL)
     5.51621937E-03    2    -2000015   1000016   # BR(H+ -> ~tau_2+ ~nu_tauL)

DECAY         5   0.000000e+00 # b decays
DECAY        15   0.000000e+00 # tau decays
DECAY        23     2.49520000E+00   # Z
DECAY        24     2.08500000E+00   # W
