# SUSY Les Houches Accord 2 - MSSM spectrum + Decays
# SPheno v4.0.5be
# W. Porod, Comput. Phys. Commun. 153 (2003) 275-315, hep-ph/0301101;
# W. Porod, F.~Staub, Comput. Phys. Commun. 183 (2012) 2458
#                     arXiv:1104.1573 [hep-ph] 
# in case of problems send email to porod@physik.uni-wuerzburg.de
# Created: 12.05.2022,  14:14
Block SPINFO         # Program information
     1   SPheno      # spectrum calculator
     2   v4.0.5be    # version number
#
Block SPhenoINFO     # SPheno specific information
    1      2         # using 2-loop RGEs
    2      2         # using pole masses for boundary conditions at mZ
Block MODSEL  # Model selection
    1    0    # general MSSM
Block MINPAR  # Input parameters
    3    4.59956092E+01  # tanb at m_Z    
    4   -1.00000000E+00  # Sign(mu)
Block EXTPAR  # non-universal input parameters
    0    2.88656520E+03  # scale for input parameters
    1    5.71895662E+01  # M_1
    2   -1.15010707E+03  # M_2
    3    4.61465793E+03  # M_3
   11   -4.29279952E+03  # A_t
   12   -1.75968295E+03  # A_b
   13   -8.02020190E+02  # A_tau
   23   -4.11779408E+02  # mu
   25    4.52700834E+01  # tan(beta)
   26    1.53360867E+03  # m_A, pole mass
   31    1.00000000E+04  # M_L11
   32    1.00000000E+04  # M_L22
   33    1.00000000E+04  # M_L33
   34    1.00000000E+04  # M_E11
   35    1.00000000E+04  # M_E22
   36    1.00000000E+04  # M_E33
   41    1.00000000E+04  # M_Q11
   42    1.00000000E+04  # M_Q22
   43    3.84694936E+03  # M_Q33
   44    1.00000000E+04  # M_U11
   45    1.00000000E+04  # M_U22
   46    2.10861098E+03  # M_U33
   47    1.00000000E+04  # M_D11
   48    1.00000000E+04  # M_D22
   49    2.85603993E+03  # M_D33
Block SMINPUTS  # SM parameters
         1     1.27908970E+02  # alpha_em^-1(MZ)^MSbar
         2     1.16637870E-05  # G_mu [GeV^-2]
         3     1.18400000E-01  # alpha_s(MZ)^MSbar
         4     9.11876000E+01  # m_Z(pole)
         5     4.18000000E+00  # m_b(m_b), MSbar
         6     1.73200000E+02  # m_t(pole)
         7     1.77700000E+00  # m_tau(pole)
         8     0.00000000E+00  # m_nu_3
        11     5.10998930E-04  # m_e(pole)
        12     0.00000000E+00  # m_nu_1
        13     1.05658372E-01  # m_muon(pole)
        14     0.00000000E+00  # m_nu_2
        21     5.00000000E-03  # m_d(2 GeV), MSbar
        22     2.50000000E-03  # m_u(2 GeV), MSbar
        23     9.50000000E-02  # m_s(2 GeV), MSbar
        24     1.27000000E+00  # m_c(m_c), MSbar
Block gauge Q=  2.88656520E+03  # (SUSY scale)
   1    3.55362975E-01  # g'(Q)^DRbar
   2    6.65198874E-01  # g(Q)^DRbar
   3    1.21977796E+00  # g3(Q)^DRbar
Block Yu Q=  2.88656520E+03  # (SUSY scale)
  1  1     8.38641747E-06   # Y_u(Q)^DRbar
  2  2     4.26030008E-03   # Y_c(Q)^DRbar
  3  3     1.01314659E+00   # Y_t(Q)^DRbar
Block Yd Q=  2.88656520E+03  # (SUSY scale)
  1  1     7.62900711E-04   # Y_d(Q)^DRbar
  2  2     1.44951135E-02   # Y_s(Q)^DRbar
  3  3     7.56558447E-01   # Y_b(Q)^DRbar
Block Ye Q=  2.88656520E+03  # (SUSY scale)
  1  1     1.33131753E-04   # Y_e(Q)^DRbar
  2  2     2.75274241E-02   # Y_mu(Q)^DRbar
  3  3     4.62965989E-01   # Y_tau(Q)^DRbar
Block Au Q=  2.88656520E+03  # (SUSY scale)
  1  1     0.00000000E+00   # A_u(Q)^DRbar
  2  2     0.00000000E+00   # A_c(Q)^DRbar
  3  3    -4.29280443E+03   # A_t(Q)^DRbar
Block Ad Q=  2.88656520E+03  # (SUSY scale)
  1  1     0.00000000E+00   # A_d(Q)^DRbar
  2  2     0.00000000E+00   # A_s(Q)^DRbar
  3  3    -1.75968091E+03   # A_b(Q)^DRbar
Block Ae Q=  2.88656520E+03  # (SUSY scale)
  1  1     0.00000000E+00   # A_e(Q)^DRbar
  2  2     0.00000000E+00   # A_mu(Q)^DRbar
  3  3    -8.02019751E+02   # A_tau(Q)^DRbar
Block MSOFT Q=  2.88656520E+03  # soft SUSY breaking masses at Q
   1    5.71895662E+01  # M_1
   2   -1.15010707E+03  # M_2
   3    4.61465793E+03  # M_3
  21    1.87557128E+06  # M^2_(H,d)
  22   -8.29501738E+04  # M^2_(H,u)
  31    1.00000000E+04  # M_(L,11)
  32    1.00000000E+04  # M_(L,22)
  33    1.00000000E+04  # M_(L,33)
  34    1.00000000E+04  # M_(E,11)
  35    1.00000000E+04  # M_(E,22)
  36    1.00000000E+04  # M_(E,33)
  41    1.00000000E+04  # M_(Q,11)
  42    1.00000000E+04  # M_(Q,22)
  43    3.84694936E+03  # M_(Q,33)
  44    1.00000000E+04  # M_(U,11)
  45    1.00000000E+04  # M_(U,22)
  46    2.10861098E+03  # M_(U,33)
  47    1.00000000E+04  # M_(D,11)
  48    1.00000000E+04  # M_(D,22)
  49    2.85603993E+03  # M_(D,33)
Block MASS  # Mass spectrum
#   PDG code      mass          particle
         6     1.73200000E+02  # m_t(pole)
        23     9.11876000E+01  # m_Z(pole)
        24     8.04299946E+01  # W+
        15     1.77700000E+00  # m_tau(pole)
        25     1.25177684E+02  # h0
        35     1.53351558E+03  # H0
        36     1.53360867E+03  # A0
        37     1.53644688E+03  # H+
   1000001     1.00723476E+04  # ~d_L
   2000001     1.00497970E+04  # ~d_R
   1000002     1.00721069E+04  # ~u_L
   2000002     1.00529440E+04  # ~u_R
   1000003     1.00723592E+04  # ~s_L
   2000003     1.00498166E+04  # ~s_R
   1000004     1.00721184E+04  # ~c_L
   2000004     1.00529457E+04  # ~c_R
   1000005     2.92624718E+03  # ~b_1
   2000005     3.90314592E+03  # ~b_2
   1000006     2.13107762E+03  # ~t_1
   2000006     3.90988043E+03  # ~t_2
   1000011     1.00206035E+04  # ~e_L-
   2000011     1.00087485E+04  # ~e_R-
   1000012     1.00198425E+04  # ~nu_eL
   1000013     1.00206535E+04  # ~mu_L-
   2000013     1.00088437E+04  # ~mu_R-
   1000014     1.00198916E+04  # ~nu_muL
   1000015     1.00336211E+04  # ~tau_1-
   2000015     1.00371452E+04  # ~tau_2-
   1000016     1.00338837E+04  # ~nu_tauL
   1000021     5.01434449E+03  # ~g
   1000022     5.72935926E+01  # ~chi_10
   1000023     4.16806000E+02  # ~chi_20
   1000025     4.22694030E+02  # ~chi_30
   1000035     1.23987633E+03  # ~chi_40
   1000024     4.16189384E+02  # ~chi_1+
   1000037     1.23911188E+03  # ~chi_2+
# Higgs mixing
Block alpha # Effective Higgs mixing angle
          -2.19974890E-02   # alpha
Block Hmix Q=  2.88656520E+03  # Higgs mixing parameters
   1   -4.11779408E+02  # mu
   2    4.52700834E+01  # tan[beta](Q)
   3    2.43279015E+02  # v(Q)
   4    2.35195555E+06  # m^2_A(Q)
Block stopmix # stop mixing matrix
   1  1     5.69368239E-02   # Re[R_st(1,1)]
   1  2     9.98377783E-01   # Re[R_st(1,2)]
   2  1    -9.98377783E-01   # Re[R_st(2,1)]
   2  2     5.69368239E-02   # Re[R_st(2,2)]
Block sbotmix # sbottom mixing matrix
   1  1    -6.01029931E-03   # Re[R_sb(1,1)]
   1  2     9.99981938E-01   # Re[R_sb(1,2)]
   2  1    -9.99981938E-01   # Re[R_sb(2,1)]
   2  2    -6.01029931E-03   # Re[R_sb(2,2)]
Block staumix # stau mixing matrix
   1  1    -8.45486075E-01   # Re[R_sta(1,1)]
   1  2     5.33997469E-01   # Re[R_sta(1,2)]
   2  1    -5.33997469E-01   # Re[R_sta(2,1)]
   2  2    -8.45486075E-01   # Re[R_sta(2,2)]
Block Nmix # neutralino mixing matrix
   1  1     9.93968568E-01   # Re[N(1,1)]
   1  2     7.08422770E-04   # Re[N(1,2)]
   1  3    -1.08931924E-01   # Re[N(1,3)]
   1  4    -1.26419975E-02   # Re[N(1,4)]
   2  1     6.82847449E-02   # Re[N(2,1)]
   2  2     7.03668721E-02   # Re[N(2,2)]
   2  3     7.05044619E-01   # Re[N(2,3)]
   2  4    -7.02351609E-01   # Re[N(2,4)]
   3  1     8.57711843E-02   # Re[N(3,1)]
   3  2    -3.35138797E-02   # Re[N(3,2)]
   3  3     7.00258752E-01   # Re[N(3,3)]
   3  4     7.07924999E-01   # Re[N(3,4)]
   4  1     2.64264823E-03   # Re[N(4,1)]
   4  2    -9.96957783E-01   # Re[N(4,2)]
   4  3     2.61457682E-02   # Re[N(4,3)]
   4  4    -7.33797921E-02   # Re[N(4,4)]
Block Umix # chargino mixing matrix
   1  1    -3.70224831E-02   # Re[U(1,1)]
   1  2    -9.99314433E-01   # Re[U(1,2)]
   2  1    -9.99314433E-01   # Re[U(2,1)]
   2  2     3.70224831E-02   # Re[U(2,2)]
Block Vmix # chargino mixing matrix
   1  1     1.03931365E-01   # Re[V(1,1)]
   1  2     9.94584472E-01   # Re[V(1,2)]
   2  1     9.94584472E-01   # Re[V(2,1)]
   2  2    -1.03931365E-01   # Re[V(2,2)]
DECAY        23     2.49520000E+00   # Z
DECAY        24     2.08500000E+00   # W
DECAY   2000011     5.02849142E+01   # ~e^-_R
#    BR                NDA      ID1      ID2
     9.88014681E-01    2     1000022        11   # BR(~e^-_R -> chi^0_1 e^-)
     4.64718052E-03    2     1000023        11   # BR(~e^-_R -> chi^0_2 e^-)
     7.33129713E-03    2     1000025        11   # BR(~e^-_R -> chi^0_3 e^-)
DECAY   1000011     1.40900642E+02   # ~e^-_L
#    BR                NDA      ID1      ID2
     8.84912562E-02    2     1000022        11   # BR(~e^-_L -> chi^0_1 e^-)
     3.56121327E-03    2     1000023        11   # BR(~e^-_L -> chi^0_2 e^-)
     3.00819511E-01    2     1000035        11   # BR(~e^-_L -> chi^0_4 e^-)
     8.55156345E-04    2    -1000024        12   # BR(~e^-_L -> chi^-_1 nu_e)
     6.06225608E-01    2    -1000037        12   # BR(~e^-_L -> chi^-_2 nu_e)
#    BR                NDA      ID1      ID2       ID3
DECAY   2000013     5.05861007E+01   # ~mu^-_R
#    BR                NDA      ID1      ID2
     9.82176837E-01    2     1000022        13   # BR(~mu^-_R -> chi^0_1 mu^-)
     6.09705772E-03    2     1000023        13   # BR(~mu^-_R -> chi^0_2 mu^-)
     8.74508288E-03    2     1000025        13   # BR(~mu^-_R -> chi^0_3 mu^-)
     2.96835035E-03    2    -1000024        14   # BR(~mu^-_R -> chi^-_1 nu_mu)
DECAY   1000013     1.41051917E+02   # ~mu^-_L
#    BR                NDA      ID1      ID2
     8.84094989E-02    2     1000022        13   # BR(~mu^-_L -> chi^0_1 mu^-)
     4.08792880E-03    2     1000023        13   # BR(~mu^-_L -> chi^0_2 mu^-)
     5.70489560E-04    2     1000025        13   # BR(~mu^-_L -> chi^0_3 mu^-)
     3.00499188E-01    2     1000035        13   # BR(~mu^-_L -> chi^0_4 mu^-)
     8.54243497E-04    2    -1000024        14   # BR(~mu^-_L -> chi^-_1 nu_mu)
     6.05578652E-01    2    -1000037        14   # BR(~mu^-_L -> chi^-_2 nu_mu)
#    BR                NDA      ID1      ID2       ID3
DECAY   1000015     1.70119643E+02   # ~tau^-_1
#    BR                NDA      ID1      ID2
     1.52255767E-01    2     1000022        15   # BR(~tau^-_1 -> chi^0_1 tau^-)
     1.32584045E-01    2     1000023        15   # BR(~tau^-_1 -> chi^0_2 tau^-)
     1.10763571E-01    2     1000025        15   # BR(~tau^-_1 -> chi^0_3 tau^-)
     1.72678075E-01    2     1000035        15   # BR(~tau^-_1 -> chi^0_4 tau^-)
     8.39078815E-02    2    -1000024        16   # BR(~tau^-_1 -> chi^-_1 nu_tau)
     3.47810661E-01    2    -1000037        16   # BR(~tau^-_1 -> chi^-_2 nu_tau)
DECAY   2000015     1.49344964E+02   # ~tau^-_2
#    BR                NDA      ID1      ID2
     2.50541732E-01    2     1000022        15   # BR(~tau^-_2 -> chi^0_1 tau^-)
     1.37784675E-01    2     1000023        15   # BR(~tau^-_2 -> chi^0_2 tau^-)
     1.56365032E-01    2     1000025        15   # BR(~tau^-_2 -> chi^0_3 tau^-)
     8.79177516E-02    2     1000035        15   # BR(~tau^-_2 -> chi^0_4 tau^-)
     1.90399721E-01    2    -1000024        16   # BR(~tau^-_2 -> chi^-_1 nu_tau)
     1.76991089E-01    2    -1000037        16   # BR(~tau^-_2 -> chi^-_2 nu_tau)
#    BR                NDA      ID1      ID2       ID3
DECAY   1000012     1.40904780E+02   # ~nu_e
#    BR                NDA      ID1      ID2
     8.80110063E-02    2     1000022        12   # BR(~nu_e -> chi^0_1 nu_e)
     3.58195002E-04    2     1000023        12   # BR(~nu_e -> chi^0_2 nu_e)
     1.96298349E-03    2     1000025        12   # BR(~nu_e -> chi^0_3 nu_e)
     3.02494978E-01    2     1000035        12   # BR(~nu_e -> chi^0_4 nu_e)
     6.73850164E-03    2     1000024        11   # BR(~nu_e -> chi^+_1 e^-)
     6.00434335E-01    2     1000037        11   # BR(~nu_e -> chi^+_2 e^-)
#    BR                NDA      ID1      ID2       ID3
DECAY   1000014     1.41056031E+02   # ~nu_mu
#    BR                NDA      ID1      ID2
     8.79170653E-02    2     1000022        14   # BR(~nu_mu -> chi^0_1 nu_mu)
     3.57812685E-04    2     1000023        14   # BR(~nu_mu -> chi^0_2 nu_mu)
     1.96088831E-03    2     1000025        14   # BR(~nu_mu -> chi^0_3 nu_mu)
     3.02172194E-01    2     1000035        14   # BR(~nu_mu -> chi^0_4 nu_mu)
     7.79698503E-03    2     1000024        13   # BR(~nu_mu -> chi^+_1 mu^-)
     5.99795055E-01    2     1000037        13   # BR(~nu_mu -> chi^+_2 mu^-)
#    BR                NDA      ID1      ID2       ID3
DECAY   1000016     1.83750227E+02   # ~nu_tau
#    BR                NDA      ID1      ID2
     6.75838732E-02    2     1000022        16   # BR(~nu_tau -> chi^0_1 nu_tau)
     2.75061460E-04    2     1000023        16   # BR(~nu_tau -> chi^0_2 nu_tau)
     1.50739471E-03    2     1000025        16   # BR(~nu_tau -> chi^0_3 nu_tau)
     2.32306817E-01    2     1000035        16   # BR(~nu_tau -> chi^0_4 nu_tau)
     2.36901320E-01    2     1000024        15   # BR(~nu_tau -> chi^+_1 tau^-)
     4.61425533E-01    2     1000037        15   # BR(~nu_tau -> chi^+_2 tau^-)
#    BR                NDA      ID1      ID2       ID3
DECAY   2000001     4.53070505E+02   # ~d_R
#    BR                NDA      ID1      ID2
     1.22340616E-02    2     1000022         1   # BR(~d_R -> chi^0_1 d)
     9.87617019E-01    2     1000021         1   # BR(~d_R -> ~g d)
DECAY   1000001     5.80214163E+02   # ~d_L
#    BR                NDA      ID1      ID2
     2.37453509E-03    2     1000022         1   # BR(~d_L -> chi^0_1 d)
     2.58093694E-04    2     1000023         1   # BR(~d_L -> chi^0_2 d)
     1.81328543E-04    2     1000025         1   # BR(~d_L -> chi^0_3 d)
     7.37304027E-02    2     1000035         1   # BR(~d_L -> chi^0_4 d)
     2.08748049E-04    2    -1000024         2   # BR(~d_L -> chi^-_1 u)
     1.48024623E-01    2    -1000037         2   # BR(~d_L -> chi^-_2 u)
     7.75222269E-01    2     1000021         1   # BR(~d_L -> ~g d)
DECAY   2000003     4.53156038E+02   # ~s_R
#    BR                NDA      ID1      ID2
     1.22328732E-02    2     1000022         3   # BR(~s_R -> chi^0_1 s)
     1.03455864E-04    2     1000023         3   # BR(~s_R -> chi^0_2 s)
     1.36060822E-04    2     1000025         3   # BR(~s_R -> chi^0_3 s)
     9.87435085E-01    2     1000021         3   # BR(~s_R -> ~g s)
DECAY   1000003     5.80260987E+02   # ~s_L
#    BR                NDA      ID1      ID2
     2.37520477E-03    2     1000022         3   # BR(~s_L -> chi^0_1 s)
     2.93917907E-04    2     1000023         3   # BR(~s_L -> chi^0_2 s)
     2.16669772E-04    2     1000025         3   # BR(~s_L -> chi^0_3 s)
     7.37245905E-02    2     1000035         3   # BR(~s_L -> chi^0_4 s)
     2.14909571E-04    2    -1000024         4   # BR(~s_L -> chi^-_1 c)
     1.48012926E-01    2    -1000037         4   # BR(~s_L -> chi^-_2 c)
     7.75161782E-01    2     1000021         3   # BR(~s_L -> ~g s)
DECAY   1000005     6.53449195E+01   # ~b_1
#    BR                NDA      ID1      ID2
     3.09485234E-02    2     1000022         5   # BR(~b_1 -> chi^0_1 b)
     2.43496079E-01    2     1000023         5   # BR(~b_1 -> chi^0_2 b)
     2.39694366E-01    2     1000025         5   # BR(~b_1 -> chi^0_3 b)
     1.72572641E-04    2     1000035         5   # BR(~b_1 -> chi^0_4 b)
     4.85343784E-01    2    -1000024         6   # BR(~b_1 -> chi^-_1 t)
     3.41560319E-04    2    -1000037         6   # BR(~b_1 -> chi^-_2 t)
DECAY   2000005     2.09013720E+02   # ~b_2
#    BR                NDA      ID1      ID2
     4.98425054E-03    2     1000022         5   # BR(~b_2 -> chi^0_1 b)
     1.03543244E-01    2     1000023         5   # BR(~b_2 -> chi^0_2 b)
     1.02116207E-01    2     1000025         5   # BR(~b_2 -> chi^0_3 b)
     6.62460757E-02    2     1000035         5   # BR(~b_2 -> chi^0_4 b)
     3.67199373E-01    2    -1000024         6   # BR(~b_2 -> chi^-_1 t)
     1.36786149E-01    2    -1000037         6   # BR(~b_2 -> chi^-_2 t)
     2.16254493E-01    2     1000006       -24   # BR(~b_2 -> ~t_1 W^-)
     2.15957960E-03    2     1000006       -37   # BR(~b_2 -> ~t_1 H^-)
     2.89715897E-04    2     1000005        23   # BR(~b_2 -> ~b_1 Z)
     4.20912515E-04    2     1000005        25   # BR(~b_2 -> ~b_1 h^0)
DECAY   2000002     4.70233585E+02   # ~u_R
#    BR                NDA      ID1      ID2
     4.71648748E-02    2     1000022         2   # BR(~u_R -> chi^0_1 u)
     2.21847531E-04    2     1000023         2   # BR(~u_R -> chi^0_2 u)
     3.49983414E-04    2     1000025         2   # BR(~u_R -> chi^0_3 u)
     9.52262971E-01    2     1000021         2   # BR(~u_R -> ~g u)
DECAY   1000002     5.80210510E+02   # ~u_L
#    BR                NDA      ID1      ID2
     2.41281168E-03    2     1000022         2   # BR(~u_L -> chi^0_1 u)
     5.18605202E-04    2     1000023         2   # BR(~u_L -> chi^0_2 u)
     7.35899210E-02    2     1000035         2   # BR(~u_L -> chi^0_4 u)
     1.64524141E-03    2     1000024         1   # BR(~u_L -> chi^+_1 d)
     1.46623881E-01    2     1000037         1   # BR(~u_L -> chi^+_2 d)
     7.75184208E-01    2     1000021         2   # BR(~u_L -> ~g u)
DECAY   2000004     4.70240966E+02   # ~c_R
#    BR                NDA      ID1      ID2
     4.71641418E-02    2     1000022         4   # BR(~c_R -> chi^0_1 c)
     2.25638268E-04    2     1000023         4   # BR(~c_R -> chi^0_2 c)
     3.53833788E-04    2     1000025         4   # BR(~c_R -> chi^0_3 c)
     9.52248332E-01    2     1000021         4   # BR(~c_R -> ~g c)
DECAY   1000004     5.80257288E+02   # ~c_L
#    BR                NDA      ID1      ID2
     2.41262084E-03    2     1000022         4   # BR(~c_L -> chi^0_1 c)
     5.21646166E-04    2     1000023         4   # BR(~c_L -> chi^0_2 c)
     7.35841041E-02    2     1000035         4   # BR(~c_L -> chi^0_4 c)
     1.71711874E-03    2     1000024         3   # BR(~c_L -> chi^+_1 s)
     1.46612336E-01    2     1000037         3   # BR(~c_L -> chi^+_2 s)
     7.75123714E-01    2     1000021         4   # BR(~c_L -> ~g c)
DECAY   1000006     8.38241107E+01   # ~t_1
#    BR                NDA      ID1      ID2
     5.53538967E-02    2     1000022         6   # BR(~t_1 -> chi^0_1 t)
     2.31775898E-01    2     1000023         6   # BR(~t_1 -> chi^0_2 t)
     2.35390835E-01    2     1000025         6   # BR(~t_1 -> chi^0_3 t)
     2.15924593E-03    2     1000035         6   # BR(~t_1 -> chi^0_4 t)
     4.70786417E-01    2     1000024         5   # BR(~t_1 -> chi^+_1 b)
     4.51940846E-03    2     1000037         5   # BR(~t_1 -> chi^+_2 b)
#    BR                NDA      ID1      ID2       ID3
DECAY   2000006     2.20089263E+02   # ~t_2
#    BR                NDA      ID1      ID2
     2.50656736E-03    2     1000022         6   # BR(~t_2 -> chi^0_1 t)
     1.75541350E-01    2     1000023         6   # BR(~t_2 -> chi^0_2 t)
     1.78178689E-01    2     1000025         6   # BR(~t_2 -> chi^0_3 t)
     6.21362315E-02    2     1000035         6   # BR(~t_2 -> chi^0_4 t)
     2.02325909E-01    2     1000024         5   # BR(~t_2 -> chi^+_1 b)
     1.22753457E-01    2     1000037         5   # BR(~t_2 -> chi^+_2 b)
     5.60440509E-04    2     1000005        24   # BR(~t_2 -> ~b_1 W^+)
     1.03243404E-01    2     1000006        23   # BR(~t_2 -> ~t_1 Z)
     1.04845743E-03    2     1000006        36   # BR(~t_2 -> ~t_1 A^0)
     1.50671750E-01    2     1000006        25   # BR(~t_2 -> ~t_1 h^0)
     1.03374410E-03    2     1000006        35   # BR(~t_2 -> ~t_1 H^0)
DECAY   1000024     2.75233724E-01   # chi^+_1
#    BR                NDA      ID1      ID2
     9.98245695E-01    2     1000022        24   # BR(chi^+_1 -> chi^0_1 W^+)
#    BR                NDA      ID1      ID2       ID3
     1.75373140E-03    3     1000022        -5         6   # BR(chi^+_1 -> chi^0_1 b_bar t)
DECAY   1000037     1.09794380E+01   # chi^+_2
#    BR                NDA      ID1      ID2
     1.48998276E-03    2     1000022        24   # BR(chi^+_2 -> chi^0_1 W^+)
     2.50599987E-01    2     1000023        24   # BR(chi^+_2 -> chi^0_2 W^+)
     2.45136186E-01    2     1000025        24   # BR(chi^+_2 -> chi^0_3 W^+)
     2.45899302E-01    2     1000024        23   # BR(chi^+_2 -> chi^+_1 Z)
     2.41681920E-01    2     1000024        25   # BR(chi^+_2 -> chi^+_1 h^0)
#    BR                NDA      ID1      ID2       ID3
     4.96307812E-03    3     1000024         6        -6   # BR(chi^+_2 -> chi^+_1 t t_bar)
     1.35998015E-04    3     1000024         5        -5   # BR(chi^+_2 -> chi^+_1 b b_bar)
     4.96990890E-03    3     1000023        -5         6   # BR(chi^+_2 -> chi^0_2 b_bar t)
     5.05871292E-03    3     1000025        -5         6   # BR(chi^+_2 -> chi^0_3 b_bar t)
DECAY   1000022     0.00000000E+00   # chi^0_1
DECAY   1000023     3.17818282E-01   # chi^0_2
#    BR                NDA      ID1      ID2
     5.54429121E-01    2     1000022        23   # BR(chi^0_2 -> chi^0_1 Z)
     4.45537987E-01    2     1000022        25   # BR(chi^0_2 -> chi^0_1 h^0)
#    BR                NDA      ID1      ID2       ID3
DECAY   1000025     2.47117467E-01   # chi^0_3
#    BR                NDA      ID1      ID2
     4.59466067E-01    2     1000022        23   # BR(chi^0_3 -> chi^0_1 Z)
     5.40520764E-01    2     1000022        25   # BR(chi^0_3 -> chi^0_1 h^0)
#    BR                NDA      ID1      ID2       ID3
DECAY   1000035     1.26412762E+01   # chi^0_4
#    BR                NDA      ID1      ID2
     2.19680841E-01    2     1000024       -24   # BR(chi^0_4 -> chi^+_1 W^-)
     2.19680841E-01    2    -1000024        24   # BR(chi^0_4 -> chi^-_1 W^+)
     7.27646592E-04    2     1000022        23   # BR(chi^0_4 -> chi^0_1 Z)
     3.97637493E-02    2     1000023        23   # BR(chi^0_4 -> chi^0_2 Z)
     1.77205332E-01    2     1000025        23   # BR(chi^0_4 -> chi^0_3 Z)
     5.64917484E-04    2     1000022        25   # BR(chi^0_4 -> chi^0_1 h^0)
     1.70766873E-01    2     1000023        25   # BR(chi^0_4 -> chi^0_2 h^0)
     1.57862759E-01    2     1000025        25   # BR(chi^0_4 -> chi^0_3 h^0)
#    BR                NDA      ID1      ID2       ID3
     1.79720982E-03    3     1000023         6        -6   # BR(chi^0_4 -> chi^0_2 t t_bar)
     1.70640057E-03    3     1000025         6        -6   # BR(chi^0_4 -> chi^0_3 t t_bar)
     5.01895154E-03    3     1000024         5        -6   # BR(chi^0_4 -> chi^+_1 b t_bar)
     5.01895154E-03    3    -1000024        -5         6   # BR(chi^0_4 -> chi^-_1 b_bar t)
DECAY   1000021     2.09631425E+02   # ~g
#    BR                NDA      ID1      ID2
     7.95957269E-04    2     1000006        -4   # BR(~g -> ~t_1 c_bar)
     7.95957269E-04    2    -1000006         4   # BR(~g -> ~t^*_1 c)
     2.35250660E-01    2     1000006        -6   # BR(~g -> ~t_1 t_bar)
     2.35250660E-01    2    -1000006         6   # BR(~g -> ~t^*_1 t)
     5.49575444E-02    2     2000006        -6   # BR(~g -> ~t_2 t_bar)
     5.49575444E-02    2    -2000006         6   # BR(~g -> ~t^*_2 t)
     1.53951083E-01    2     1000005        -5   # BR(~g -> ~b_1 b_bar)
     1.53951083E-01    2    -1000005         5   # BR(~g -> ~b^*_1 b)
     5.49802915E-02    2     2000005        -5   # BR(~g -> ~b_2 b_bar)
     5.49802915E-02    2    -2000005         5   # BR(~g -> ~b^*_2 b)
#    BR                NDA      ID1      ID2       ID3
DECAY        25     3.62341187E-03   # Gamma(h0)
     2.52578039E-03   2        22        22   # BR(h0 -> photon photon)
     1.62915218E-03   2        22        23   # BR(h0 -> photon Z)
     3.02761800E-02   2        23        23   # BR(h0 -> Z Z)
     2.49226991E-01   2       -24        24   # BR(h0 -> W W)
     7.79657249E-02   2        21        21   # BR(h0 -> gluon gluon)
     4.91983220E-09   2       -11        11   # BR(h0 -> Electron electron)
     2.18843032E-04   2       -13        13   # BR(h0 -> Muon muon)
     6.31003730E-02   2       -15        15   # BR(h0 -> Tau tau)
     1.37056494E-07   2        -2         2   # BR(h0 -> Up up)
     2.65997174E-02   2        -4         4   # BR(h0 -> Charm charm)
     5.69487035E-07   2        -1         1   # BR(h0 -> Down down)
     2.05969652E-04   2        -3         3   # BR(h0 -> Strange strange)
     5.47656226E-01   2        -5         5   # BR(h0 -> Bottom bottom)
     5.94331560E-04   2   1000022   1000022   # BR(h0 -> neutralino1 neutralino1)
DECAY        35     4.37963194E+01   # Gamma(HH)
     5.25876514E-08   2        22        22   # BR(HH -> photon photon)
     8.02807194E-08   2        22        23   # BR(HH -> photon Z)
     1.33410803E-06   2        23        23   # BR(HH -> Z Z)
     1.03359644E-06   2       -24        24   # BR(HH -> W W)
     3.05725250E-05   2        21        21   # BR(HH -> gluon gluon)
     1.01913042E-08   2       -11        11   # BR(HH -> Electron electron)
     4.53670594E-04   2       -13        13   # BR(HH -> Muon muon)
     1.31011372E-01   2       -15        15   # BR(HH -> Tau tau)
     3.24225400E-14   2        -2         2   # BR(HH -> Up up)
     6.28862482E-09   2        -4         4   # BR(HH -> Charm charm)
     5.17814735E-04   2        -6         6   # BR(HH -> Top top)
     8.34246888E-07   2        -1         1   # BR(HH -> Down down)
     3.01722400E-04   2        -3         3   # BR(HH -> Strange strange)
     8.29603701E-01   2        -5         5   # BR(HH -> Bottom bottom)
     2.18327404E-03   2  -1000024   1000024   # BR(HH -> Chargino1 chargino1)
     8.99041808E-04   2   1000022   1000022   # BR(HH -> neutralino1 neutralino1)
     1.73558633E-02   2   1000022   1000023   # BR(HH -> neutralino1 neutralino2)
     1.66071172E-02   2   1000022   1000025   # BR(HH -> neutralino1 neutralino3)
     2.42875665E-04   2   1000022   1000035   # BR(HH -> neutralino1 neutralino4)
     1.47809306E-04   2   1000023   1000023   # BR(HH -> neutralino2 neutralino2)
     7.49665484E-05   2   1000023   1000025   # BR(HH -> neutralino2 neutralino3)
     5.56957128E-04   2   1000025   1000025   # BR(HH -> neutralino3 neutralino3)
     9.89115231E-06   2        25        25   # BR(HH -> h0 h0)
DECAY        36     4.24261312E+01   # Gamma(A0)
     1.37224718E-07   2        22        22   # BR(A0 -> photon photon)
     7.34021162E-08   2        22        23   # BR(A0 -> photon Z)
     4.69762311E-05   2        21        21   # BR(A0 -> gluon gluon)
     1.01653607E-08   2       -11        11   # BR(A0 -> Electron electron)
     4.52515936E-04   2       -13        13   # BR(A0 -> Muon muon)
     1.30678682E-01   2       -15        15   # BR(A0 -> Tau tau)
     3.15091823E-14   2        -2         2   # BR(A0 -> Up up)
     6.11222573E-09   2        -4         4   # BR(A0 -> Charm charm)
     5.33243445E-04   2        -6         6   # BR(A0 -> Top top)
     8.32116906E-07   2        -1         1   # BR(A0 -> Down down)
     3.00952200E-04   2        -3         3   # BR(A0 -> Strange strange)
     8.27499473E-01   2        -5         5   # BR(A0 -> Bottom bottom)
     3.25617599E-03   2  -1000024   1000024   # BR(A0 -> Chargino1 chargino1)
     9.23799358E-04   2   1000022   1000022   # BR(A0 -> neutralino1 neutralino1)
     1.87099958E-02   2   1000022   1000023   # BR(A0 -> neutralino1 neutralino2)
     1.63603623E-02   2   1000022   1000025   # BR(A0 -> neutralino1 neutralino3)
     1.83058425E-04   2   1000022   1000035   # BR(A0 -> neutralino1 neutralino4)
     2.32811388E-04   2   1000023   1000023   # BR(A0 -> neutralino2 neutralino2)
     7.28425569E-05   2   1000023   1000025   # BR(A0 -> neutralino2 neutralino3)
     7.46227336E-04   2   1000025   1000025   # BR(A0 -> neutralino3 neutralino3)
     1.82451680E-06   2        23        25   # BR(A0 -> Z h0)
     1.46983627E-38   2        25        25   # BR(A0 -> h0 h0)
DECAY        37     4.74875867E+01   # Gamma(Hp)
     1.13195944E-08   2       -11        12   # BR(Hp -> Electron nu_e)
     4.83948011E-04   2       -13        14   # BR(Hp -> Muon nu_mu)
     1.36887748E-01   2       -15        16   # BR(Hp -> Tau nu_tau)
     8.08803317E-07   2        -1         2   # BR(Hp -> Down up)
     1.35409368E-05   2        -3         2   # BR(Hp -> Strange up)
     8.84824583E-06   2        -5         2   # BR(Hp -> Bottom up)
     3.78552020E-08   2        -1         4   # BR(Hp -> Down charm)
     2.91459885E-04   2        -3         4   # BR(Hp -> Strange charm)
     1.23906975E-03   2        -5         4   # BR(Hp -> Bottom charm)
     4.16762028E-08   2        -1         6   # BR(Hp -> Down top)
     1.32870661E-06   2        -3         6   # BR(Hp -> Strange top)
     8.27015641E-01   2        -5         6   # BR(Hp -> Bottom top)
     3.30742761E-02   2   1000022   1000024   # BR(Hp -> neutralino1 chargino1)
     3.92778840E-04   2   1000022   1000037   # BR(Hp -> neutralino1 chargino2)
     4.80547256E-04   2   1000023   1000024   # BR(Hp -> neutralino2 chargino1)
     1.08270107E-04   2   1000024   1000025   # BR(Hp -> chargino1 neutralino3)
     1.64326328E-06   2        24        25   # BR(Hp -> W h0)
     6.19424773E-12   2        24        35   # BR(Hp -> W HH)
     5.27144973E-12   2        24        36   # BR(Hp -> W A0)
DECAY         6     2.43000000E+00   # top
#    BR                NDA      ID1      ID2
     1.00000000E+00    2           5        24   # BR(t -> b W)
Block HiggsBoundsInputHiggsCouplingsFermions
# ScalarNormEffCoupSq PseudoSNormEffCoupSq NP IP1 IP2 IP2
    9.91997596E-01    0.00000000E+00        3  25   5   5  # h0-b-b eff. coupling^2, normalised to SM
    2.04938845E+03    0.00000000E+00        3  35   5   5  # H0-b-b eff. coupling^2, normalised to SM
    0.00000000E+00    2.04938045E+03        3  36   5   5  # A0-b-b eff. coupling^2, normalised to SM
#
    1.00000390E+00    0.00000000E+00        3  25   6   6  # h0-t-t eff. coupling^2, normalised to SM
    4.84047555E-04    0.00000000E+00        3  35   6   6  # H0-t-t eff. coupling^2, normalised to SM
    0.00000000E+00    4.87952347E-04        3  36   6   6  # A0-t-t eff. coupling^2, normalised to SM
#
    9.91997596E-01    0.00000000E+00        3  25  15  15  # h0-tau-tau eff. coupling^2, normalised to SM
    2.04938845E+03    0.00000000E+00        3  35  15  15  # H0-tau-tau eff. coupling^2, normalised to SM
    0.00000000E+00    2.04938045E+03        3  36  15  15  # A0-tau-tau eff. coupling^2, normalised to SM
#
Block HiggsBoundsInputHiggsCouplingsBosons
    9.99999992E-01        3  25  24  24  # h0-W-W eff. coupling^2, normalised to SM
    7.84332984E-09        3  35  24  24  # H0-W-W eff. coupling^2, normalised to SM
    0.00000000E+00        3  36  24  24  # A0-W-W eff. coupling^2, normalised to SM
#
    9.99999992E-01        3  25  23  23  # h0-Z-Z eff. coupling^2, normalised to SM
    7.84332984E-09        3  35  23  23  # H0-Z-Z eff. coupling^2, normalised to SM
    0.00000000E+00        3  36  23  23  # A0-Z-Z eff. coupling^2, normalised to SM
#
    1.25843325E+00        3  25  21  21  # h0-g-g eff. coupling^2, normalised to SM
    1.76688752E-02        3  35  21  21  # H0-g-g eff. coupling^2, normalised to SM
    1.54263337E-01        3  36  21  21  # A0-g-g eff. coupling^2, normalised to SM
#
    0.00000000E+00        3  25  25  23  # h0-h0-Z eff. coupling^2, normalised to SM
    0.00000000E+00        3  35  25  23  # H0-h0-Z eff. coupling^2, normalised to SM
    7.84332984E-09        3  36  25  23  # A0-h0-Z eff. coupling^2, normalised to SM
    0.00000000E+00        3  35  35  23  # H0-H0-Z eff. coupling^2, normalised to SM
    9.99999992E-01        3  36  35  23  # A0-H0-Z eff. coupling^2, normalised to SM
    0.00000000E+00        3  36  36  23  # A0-A0-Z eff. coupling^2, normalised to SM
#
    0.00000000E+00        4  25  21  21  23  # h0-g-g-Z eff. coupling^2, normalised to SM
    0.00000000E+00        4  35  21  21  23  # H0-g-g-Z eff. coupling^2, normalised to SM
    0.00000000E+00        4  36  21  21  23  # A0-g-g-Z eff. coupling^2, normalised to SM
Block SPhenoLowEnergy  # low energy observables
    1    3.53507198E-04   # BR(b -> s gamma)
    2    1.58721006E-06   # BR(b -> s mu+ mu-)
    3    3.52449486E-05   # BR(b -> s nu nu)
    4    1.00726281E-15   # BR(Bd -> e+ e-)
    5    4.29955196E-11   # BR(Bd -> mu+ mu-)
    6    7.06456458E-09   # BR(Bd -> tau+ tau-)
    7    3.41435310E-14   # BR(Bs -> e+ e-)
    8    1.45753459E-09   # BR(Bs -> mu+ mu-)
    9    2.46345847E-07   # BR(Bs -> tau+ tau-)
   10    9.13587219E-05   # BR(B_u -> tau nu)
   11    9.43700621E-01   # BR(B_u -> tau nu)/BR(B_u -> tau nu)_SM
   12    5.42059448E-01   # |Delta(M_Bd)| [ps^-1] 
   13    1.93217568E+01   # |Delta(M_Bs)| [ps^-1] 
   14    0.00000000E+00   # neutron EDM according to the chiral quark model
   15    0.00000000E+00   # neutron EDM according to the relativistic quark-parton model
   16    2.15844218E-03   # epsilon_K
   17    2.28167552E-15   # Delta(M_K)
   18    2.47973555E-11   # BR(K^0 -> pi^0 nu nu)
   19    8.28972387E-11   # BR(K^+ -> pi^+ nu nu)
   20    4.33004538E-16   # Delta(g-2)_electron/2
   21    1.85123956E-11   # Delta(g-2)_muon/2
   22    5.24343868E-09   # Delta(g-2)_tau/2
   23    0.00000000E+00   # electric dipole moment of the electron
   24    0.00000000E+00   # electric dipole moment of the muon
   25    0.00000000E+00   # electric dipole moment of the tau
   26    0.00000000E+00   # Br(mu -> e gamma)
   27    0.00000000E+00   # Br(tau -> e gamma)
   28    0.00000000E+00   # Br(tau -> mu gamma)
   29    0.00000000E+00   # Br(mu -> 3 e)
   30    0.00000000E+00   # Br(tau -> 3 e)
   31    0.00000000E+00   # Br(tau -> 3 mu)
   39    6.93812228E-05   # Delta(rho_parameter)
   40    0.00000000E+00   # BR(Z -> e mu)
   41    0.00000000E+00   # BR(Z -> e tau)
   42    0.00000000E+00   # BR(Z -> mu tau)
Block FWCOEF Q=  1.60000000E+02  # Wilson coefficients at scale Q
#    id        order  M        value         comment
     0305 4422   00   0    -1.88819110E-01   # C7
     0305 4422   00   2    -2.24599196E-01   # C7
     0305 4322   00   2    -4.82097413E-04   # C7'
     0305 6421   00   0    -9.52278348E-02   # C8
     0305 6421   00   2    -1.26015454E-01   # C8
     0305 6321   00   2    -4.96655977E-04   # C8'
 03051111 4133   00   0     1.61579851E+00   # C9 e+e-
 03051111 4133   00   2     1.61606871E+00   # C9 e+e-
 03051111 4233   00   2     2.64484071E-04   # C9' e+e-
 03051111 4137   00   0    -4.43849061E+00   # C10 e+e-
 03051111 4137   00   2    -4.43614326E+00   # C10 e+e-
 03051111 4237   00   2    -1.98785496E-03   # C10' e+e-
 03051313 4133   00   0     1.61579851E+00   # C9 mu+mu-
 03051313 4133   00   2     1.61606848E+00   # C9 mu+mu-
 03051313 4233   00   2     2.64478464E-04   # C9' mu+mu-
 03051313 4137   00   0    -4.43849061E+00   # C10 mu+mu-
 03051313 4137   00   2    -4.43614349E+00   # C10 mu+mu-
 03051313 4237   00   2    -1.98784990E-03   # C10' mu+mu-
 03051212 4137   00   0     1.50535012E+00   # C11 nu_1 nu_1
 03051212 4137   00   2     1.50484235E+00   # C11 nu_1 nu_1
 03051212 4237   00   2     4.30902991E-04   # C11' nu_1 nu_1
 03051414 4137   00   0     1.50535012E+00   # C11 nu_2 nu_2
 03051414 4137   00   2     1.50484235E+00   # C11 nu_2 nu_2
 03051414 4237   00   2     4.30904177E-04   # C11' nu_2 nu_2
 03051616 4137   00   0     1.50535012E+00   # C11 nu_3 nu_3
 03051616 4137   00   2     1.50484235E+00   # C11 nu_3 nu_3
 03051616 4237   00   2     4.31238233E-04   # C11' nu_3 nu_3
Block IMFWCOEF Q=  1.60000000E+02  # Im(Wilson coefficients) at scale Q
#    id        order  M        value         comment
     0305 4422   00   0     3.85788674E-07   # C7
     0305 4422   00   2     5.78968721E-06   # C7
     0305 4322   00   2    -1.98145185E-06   # C7'
     0305 6421   00   0     3.30453513E-07   # C8
     0305 6421   00   2     6.85017155E-06   # C8
     0305 6321   00   2    -7.42984281E-07   # C8'
 03051111 4133   00   2    -2.76903900E-07   # C9 e+e-
 03051111 4233   00   2     7.37072998E-06   # C9' e+e-
 03051111 4137   00   2     3.92790825E-06   # C10 e+e-
 03051111 4237   00   2    -5.54164669E-05   # C10' e+e-
 03051313 4133   00   2    -2.76906252E-07   # C9 mu+mu-
 03051313 4233   00   2     7.37072753E-06   # C9' mu+mu-
 03051313 4137   00   2     3.92791147E-06   # C10 mu+mu-
 03051313 4237   00   2    -5.54164743E-05   # C10' mu+mu-
 03051212 4137   00   2    -8.32399661E-07   # C11 nu_1 nu_1
 03051212 4237   00   2     1.20125147E-05   # C11' nu_1 nu_1
 03051414 4137   00   2    -8.32399534E-07   # C11 nu_2 nu_2
 03051414 4237   00   2     1.20125147E-05   # C11' nu_2 nu_2
 03051616 4137   00   2    -8.32364341E-07   # C11 nu_3 nu_3
 03051616 4237   00   2     1.20125147E-05   # C11' nu_3 nu_3
