#
#                              ======================
#                              | THE SUSYHIT OUTPUT |
#                              ======================
#
#
#              ------------------------------------------------------
#              |     This is the output of the SUSY-HIT package     |
#              |  created by A.Djouadi, M.Muehlleitner and M.Spira. |
#              |  In case of problems with SUSY-HIT email to        |
#              |           margarete.muehlleitner@cern.ch           |
#              |           michael.spira@psi.ch                     |
#              |           abdelhak.djouadi@cern.ch                 |
#              ------------------------------------------------------
#
#              ------------------------------------------------------
#              |  SUSY Les Houches Accord - MSSM Spectrum + Decays  |
#              |              based on the decay programs           |
#              |                                                    |
#              |                     SDECAY 1.3b                    |
#              |                                                    |
#              |  Authors: M.Muhlleitner, A.Djouadi and Y.Mambrini  |
#              |  Ref.:    Comput.Phys.Commun.168(2005)46           |
#              |           [hep-ph/0311167]                         |
#              |                                                    |
#              |                     HDECAY 3.4                     |
#              |                                                    |
#              |  By: A.Djouadi,J.Kalinowski,M.Muhlleitner,M.Spira  |
#              |  Ref.:    Comput.Phys.Commun.108(1998)56           |
#              |           [hep-ph/9704448]                         |
#              |                                                    |
#              |                                                    |
#              |  If not stated otherwise all DRbar couplings and   |
#              |  soft SUSY breaking masses are given at the scale  |
#              |  Q=  0.32514500E+04
#              |                                                    |
#              ------------------------------------------------------
#
#
BLOCK DCINFO  # Decay Program information
     1   SDECAY/HDECAY # decay calculator
     2   1.3b  /3.4    # version number
#
BLOCK SPINFO  # Spectrum calculator information
     1     SOFTSUSY    # spectrum calculator               
     2     3.4.0       # version number                    
#
BLOCK MODSEL  # Model selection
     1     0   #  nonUniversal                                     
#
BLOCK SMINPUTS  # Standard Model inputs
         1     1.27908970E+02   # alpha_em^-1(M_Z)^MSbar
         2     1.16637870E-05   # G_F [GeV^-2]
         3     1.18400000E-01   # alpha_S(M_Z)^MSbar
         4     9.11876000E+01   # M_Z pole mass
         5     4.18000000E+00   # mb(mb)^MSbar
         6     1.73200000E+02   # mt pole mass
         7     1.77700000E+00   # mtau pole mass
#
BLOCK MINPAR  # Input parameters - minimal models
         3     3.29000000E+01   # tanb                
#
BLOCK EXTPAR  # Input parameters - non-minimal models
         0    -1.00000000E+00   # Set                 
         1     4.17530000E+02   # M_1(MX)             
         2    -1.96452000E+03   # M_2(MX)             
         3     1.91331000E+03   # M_3(MX)             
        11     3.11309000E+03   # At(MX)              
        12     6.10690000E+02   # Ab(MX)              
        13    -1.27590000E+03   # Atau(MX)            
        23     4.14160000E+02   # mu(MX)              
        26     2.89182000E+03   # mA(pole)            
        31     1.12886000E+03   # meL(MX)             
        32     1.12886000E+03   # mmuL(MX)            
        33     2.34635000E+03   # mtauL(MX)           
        34     3.90341000E+03   # meR(MX)             
        35     3.90341000E+03   # mmuR(MX)            
        36     2.03944000E+03   # mtauR(MX)           
        41     4.15610000E+02   # mqL1(MX)            
        42     4.15610000E+02   # mqL2(MX)            
        43     2.92305000E+03   # mqL3(MX)            
        44     3.38610000E+03   # muR(MX)             
        45     3.38610000E+03   # mcR(MX)             
        46     3.61357000E+03   # mtR(MX)             
        47     2.62054000E+03   # mdR(MX)             
        48     2.62054000E+03   # msR(MX)             
        49     1.71793000E+03   # mbR(MX)             
#
BLOCK MASS  # Mass Spectrum
# PDG code           mass       particle
        24     8.03890183E+01   # W+
        25     1.24657625E+02   # h
        35     2.89182591E+03   # H
        36     2.89182144E+03   # A
        37     2.89325216E+03   # H+
         5     4.81876030E+00   # b-quark pole mass calculated from mb(mb)_Msbar
   1000001     7.23995017E+02   # ~d_L
   2000001     2.69182314E+03   # ~d_R
   1000002     7.19587306E+02   # ~u_L
   2000002     3.43950081E+03   # ~u_R
   1000003     7.23995017E+02   # ~s_L
   2000003     2.69182314E+03   # ~s_R
   1000004     7.19587306E+02   # ~c_L
   2000004     3.43950081E+03   # ~c_R
   1000005     1.81293821E+03   # ~b_1
   2000005     2.96358897E+03   # ~b_2
   1000006     2.95965584E+03   # ~t_1
   2000006     3.60484555E+03   # ~t_2
   1000011     1.15887011E+03   # ~e_L
   2000011     3.90948927E+03   # ~e_R
   1000012     1.15591693E+03   # ~nu_eL
   1000013     1.15887011E+03   # ~mu_L
   2000013     3.90948927E+03   # ~mu_R
   1000014     1.15591693E+03   # ~nu_muL
   1000015     2.03656881E+03   # ~tau_1
   2000015     2.35846628E+03   # ~tau_2
   1000016     2.35674492E+03   # ~nu_tauL
   1000021     2.08767315E+03   # ~g
   1000022     3.90697860E+02   # ~chi_10
   1000023    -4.32541055E+02   # ~chi_20
   1000025     4.58123941E+02   # ~chi_30
   1000035    -1.95856317E+03   # ~chi_40
   1000024     4.33202361E+02   # ~chi_1+
   1000037     1.95873135E+03   # ~chi_2+
#
BLOCK NMIX  # Neutralino Mixing Matrix
  1  1     8.07672310E-01   # N_11
  1  2     1.38093857E-02   # N_12
  1  3     4.36483222E-01   # N_13
  1  4    -3.96178164E-01   # N_14
  2  1    -3.54084166E-02   # N_21
  2  2    -3.53995338E-02   # N_22
  2  3     7.06967745E-01   # N_23
  2  4     7.05471278E-01   # N_24
  3  1    -5.88566929E-01   # N_31
  3  2     1.97072974E-02   # N_32
  3  3     5.56430010E-01   # N_33
  3  4    -5.86162295E-01   # N_34
  4  1    -8.08577441E-04   # N_41
  4  2     9.99083478E-01   # N_42
  4  3     8.04040097E-03   # N_43
  4  4     4.20345317E-02   # N_44
#
BLOCK UMIX  # Chargino Mixing Matrix U
  1  1    -1.13995231E-02   # U_11
  1  2     9.99935023E-01   # U_12
  2  1    -9.99935023E-01   # U_21
  2  2    -1.13995231E-02   # U_22
#
BLOCK VMIX  # Chargino Mixing Matrix V
  1  1     5.95086243E-02   # V_11
  1  2     9.98227791E-01   # V_12
  2  1     9.98227791E-01   # V_21
  2  2    -5.95086243E-02   # V_22
#
BLOCK STOPMIX  # Stop Mixing Matrix
  1  1     9.95426603E-01   # cos(theta_t)
  1  2    -9.55294616E-02   # sin(theta_t)
  2  1     9.55294616E-02   # -sin(theta_t)
  2  2     9.95426603E-01   # cos(theta_t)
#
BLOCK SBOTMIX  # Sbottom Mixing Matrix
  1  1     4.96869655E-03   # cos(theta_b)
  1  2     9.99987656E-01   # sin(theta_b)
  2  1    -9.99987656E-01   # -sin(theta_b)
  2  2     4.96869655E-03   # cos(theta_b)
#
BLOCK STAUMIX  # Stau Mixing Matrix
  1  1     1.81045701E-02   # cos(theta_tau)
  1  2     9.99836099E-01   # sin(theta_tau)
  2  1    -9.99836099E-01   # -sin(theta_tau)
  2  2     1.81045701E-02   # cos(theta_tau)
#
BLOCK ALPHA  # Higgs mixing
          -3.15948992E-02   # Mixing angle in the neutral Higgs boson sector
#
BLOCK HMIX Q=  3.25145000E+03  # DRbar Higgs Parameters
         1     4.22317596E+02   # mu(Q)MSSM           
         2     3.17295004E+01   # tan                 
         3     2.42242965E+02   # higgs               
         4     7.93303947E+06   # mA^2(Q)MSSM         
#
BLOCK GAUGE Q=  3.25145000E+03  # The gauge couplings
     1     3.65371511E-01   # gprime(Q) DRbar
     2     6.39898995E-01   # g(Q) DRbar
     3     1.01906178E+00   # g3(Q) DRbar
#
BLOCK AU Q=  3.25145000E+03  # The trilinear couplings
  1  1     0.00000000E+00   # A_u(Q) DRbar
  2  2     0.00000000E+00   # A_c(Q) DRbar
  3  3     3.11309001E+03   # A_t(Q) DRbar
#
BLOCK AD Q=  3.25145000E+03  # The trilinear couplings
  1  1     0.00000000E+00   # A_d(Q) DRbar
  2  2     0.00000000E+00   # A_s(Q) DRbar
  3  3     6.10690006E+02   # A_b(Q) DRbar
#
BLOCK AE Q=  3.25145000E+03  # The trilinear couplings
  1  1     0.00000000E+00   # A_e(Q) DRbar
  2  2     0.00000000E+00   # A_mu(Q) DRbar
  3  3    -1.27590000E+03   # A_tau(Q) DRbar
#
BLOCK Yu Q=  3.25145000E+03  # The Yukawa couplings
  1  1     0.00000000E+00   # y_u(Q) DRbar
  2  2     0.00000000E+00   # y_c(Q) DRbar
  3  3     8.29531095E-01   # y_t(Q) DRbar
#
BLOCK Yd Q=  3.25145000E+03  # The Yukawa couplings
  1  1     0.00000000E+00   # y_d(Q) DRbar
  2  2     0.00000000E+00   # y_s(Q) DRbar
  3  3     3.97078553E-01   # y_b(Q) DRbar
#
BLOCK Ye Q=  3.25145000E+03  # The Yukawa couplings
  1  1     0.00000000E+00   # y_e(Q) DRbar
  2  2     0.00000000E+00   # y_mu(Q) DRbar
  3  3     3.18299694E-01   # y_tau(Q) DRbar
#
BLOCK MSOFT Q=  3.25145000E+03  # The soft SUSY breaking masses at the scale Q
         1     4.17530000E+02   # M_1(Q)              
         2    -1.96452000E+03   # M_2(Q)              
         3     1.91331000E+03   # M_3(Q)              
        21     8.22779520E+06   # mH1^2(Q)            
        22     1.58694735E+04   # mH2^2(Q)            
        31     1.12886000E+03   # meL(Q)              
        32     1.12886000E+03   # mmuL(Q)             
        33     2.34635000E+03   # mtauL(Q)            
        34     3.90341000E+03   # meR(Q)              
        35     3.90341000E+03   # mmuR(Q)             
        36     2.03944000E+03   # mtauR(Q)            
        41     4.15609967E+02   # mqL1(Q)             
        42     4.15609967E+02   # mqL2(Q)             
        43     2.92304999E+03   # mqL3(Q)             
        44     3.38610000E+03   # muR(Q)              
        45     3.38610000E+03   # mcR(Q)              
        46     3.61357000E+03   # mtR(Q)              
        47     2.62053999E+03   # mdR(Q)              
        48     2.62053999E+03   # msR(Q)              
        49     1.71792999E+03   # mbR(Q)              
#
Block HiggsBoundsInputHiggsCouplingsFermions
# ScalarNormEffCoupSq PseudoSNormEffCoupSq NP   IP1 IP2 IP2
    1.00565048E+00    0.00000000E+00        3  25   5   5  # h0-b-b eff. coupling^2, normalised to SM
    1.00675555E+03    0.00000000E+00        3  35   5   5  # H0-b-b eff. coupling^2, normalised to SM
    0.00000000E+00    1.00676120E+03        3  36   5   5  # A0-b-b eff. coupling^2, normalised to SM
#
    9.99994387E-01    0.00000000E+00        3  25   6   6  # h0-t-t eff. coupling^2, normalised to SM
    9.98896744E-04    0.00000000E+00        3  35   6   6  # H0-t-t eff. coupling^2, normalised to SM
    0.00000000E+00    9.93284211E-04        3  36   6   6  # A0-t-t eff. coupling^2, normalised to SM
#
    1.00565048E+00    0.00000000E+00        3  25  15  15  # h0-tau-tau eff. coupling^2, normalised to SM
    1.00675555E+03    0.00000000E+00        3  35  15  15  # H0-tau-tau eff. coupling^2, normalised to SM
    0.00000000E+00    1.00676120E+03        3  36  15  15  # A0-tau-tau eff. coupling^2, normalised to SM
#
Block HiggsBoundsInputHiggsCouplingsBosons
    9.99999992E-01        3  25  24  24  # h0-W-W eff. coupling^2, normalised to SM
    7.90607802E-09        3  35  24  24  # H0-W-W eff. coupling^2, normalised to SM
    0.00000000E+00        3  36  24  24  # A0-W-W eff. coupling^2, normalised to SM
#
    9.99999992E-01        3  25  23  23  # h0-Z-Z eff. coupling^2, normalised to SM
    7.90607802E-09        3  35  23  23  # H0-Z-Z eff. coupling^2, normalised to SM
    0.00000000E+00        3  36  23  23  # A0-Z-Z eff. coupling^2, normalised to SM
#
    8.92634255E-01        3  25  21  21  # h0-g-g eff. coupling^2, normalised to SM
    4.00656818E-13        3  35  21  21  # H0-g-g eff. coupling^2, normalised to SM
    3.51796229E-12        3  36  21  21  # A0-g-g eff. coupling^2, normalised to SM
#
    0.00000000E+00        3  25  25  23  # h0-h0-Z eff. coupling^2, normalised to SM
    0.00000000E+00        3  35  25  23  # H0-h0-Z eff. coupling^2, normalised to SM
    7.90607802E-09        3  36  25  23  # A0-h0-Z eff. coupling^2, normalised to SM
    0.00000000E+00        3  35  35  23  # H0-H0-Z eff. coupling^2, normalised to SM
    9.99999992E-01        3  36  35  23  # A0-H0-Z eff. coupling^2, normalised to SM
    0.00000000E+00        3  36  36  23  # A0-A0-Z eff. coupling^2, normalised to SM
#
    0.00000000E+00        4  25  21  21  23  # h0-g-g-Z eff. coupling^2, normalised to SM
    0.00000000E+00        4  35  21  21  23  # H0-g-g-Z eff. coupling^2, normalised to SM
    0.00000000E+00        4  36  21  21  23  # A0-g-g-Z eff. coupling^2, normalised to SM
#
#
#
#                             =================
#                             |The decay table|
#                             =================
#
# - The QCD corrections to the decays gluino -> squark  + quark
#                                     squark -> gaugino + quark_prime
#                                     squark -> squark_prime + Higgs
#                                     squark -> gluino  + quark
#   are included.
#
# - The multi-body decays for the inos, stops and sbottoms are included.
#
# - The loop induced decays for the gluino, neutralinos and stops
#   are included.
#
# - The SUSY decays of the top quark are included.
#
#
#         PDG            Width
DECAY         6     1.44213485E+00   # top decays
#          BR         NDA      ID1       ID2
     1.00000000E+00    2           5        24   # BR(t ->  b    W+)
#
#         PDG            Width
DECAY   1000021     1.36186094E+02   # gluino decays
#          BR         NDA      ID1       ID2
     1.22430521E-01    2     1000001        -1   # BR(~g -> ~d_L  db)
     1.22430521E-01    2    -1000001         1   # BR(~g -> ~d_L* d )
     1.22837207E-01    2     1000002        -2   # BR(~g -> ~u_L  ub)
     1.22837207E-01    2    -1000002         2   # BR(~g -> ~u_L* u )
     1.22430521E-01    2     1000003        -3   # BR(~g -> ~s_L  sb)
     1.22430521E-01    2    -1000003         3   # BR(~g -> ~s_L* s )
     1.22837184E-01    2     1000004        -4   # BR(~g -> ~c_L  cb)
     1.22837184E-01    2    -1000004         4   # BR(~g -> ~c_L* c )
     9.46456683E-03    2     1000005        -5   # BR(~g -> ~b_1  bb)
     9.46456683E-03    2    -1000005         5   # BR(~g -> ~b_1* b )
#
#         PDG            Width
DECAY   1000006     9.86726036E+01   # stop1 decays
#          BR         NDA      ID1       ID2
     5.87861445E-02    2     1000022         6   # BR(~t_1 -> ~chi_10 t )
     1.94099956E-01    2     1000023         6   # BR(~t_1 -> ~chi_20 t )
     1.43079866E-01    2     1000025         6   # BR(~t_1 -> ~chi_30 t )
     3.77996155E-02    2     1000035         6   # BR(~t_1 -> ~chi_40 t )
     9.71133238E-02    2     1000024         5   # BR(~t_1 -> ~chi_1+ b )
     7.50730044E-02    2     1000037         5   # BR(~t_1 -> ~chi_2+ b )
     3.93067807E-01    2     1000021         6   # BR(~t_1 -> ~g      t )
     9.80282967E-04    2     1000005        24   # BR(~t_1 -> ~b_1    W+)
#
#         PDG            Width
DECAY   2000006     2.10678322E+02   # stop2 decays
#          BR         NDA      ID1       ID2
     6.46311938E-02    2     1000022         6   # BR(~t_2 -> ~chi_10 t )
     1.12811841E-01    2     1000023         6   # BR(~t_2 -> ~chi_20 t )
     8.66311851E-02    2     1000025         6   # BR(~t_2 -> ~chi_30 t )
     1.02550004E-03    2     1000035         6   # BR(~t_2 -> ~chi_40 t )
     2.23138963E-01    2     1000024         5   # BR(~t_2 -> ~chi_1+ b )
     2.05171865E-03    2     1000037         5   # BR(~t_2 -> ~chi_2+ b )
     4.18623328E-01    2     1000021         6   # BR(~t_2 -> ~g      t )
     2.66274574E-02    2     1000006        25   # BR(~t_2 -> ~t_1    h )
     2.19271720E-02    2     1000006        23   # BR(~t_2 -> ~t_1    Z )
     1.31209447E-05    2     1000005        24   # BR(~t_2 -> ~b_1    W+)
     4.25185193E-02    2     2000005        24   # BR(~t_2 -> ~b_2    W+)
#
#         PDG            Width
DECAY   1000005     1.09656915E+01   # sbottom1 decays
#          BR         NDA      ID1       ID2
     1.48578233E-01    2     1000022         5   # BR(~b_1 -> ~chi_10 b )
     2.30678655E-01    2     1000023         5   # BR(~b_1 -> ~chi_20 b )
     1.69496602E-01    2     1000025         5   # BR(~b_1 -> ~chi_30 b )
     4.51246510E-01    2    -1000024         6   # BR(~b_1 -> ~chi_1- t )
#
#         PDG            Width
DECAY   2000005     1.00828991E+02   # sbottom2 decays
#          BR         NDA      ID1       ID2
     1.90206004E-02    2     1000022         5   # BR(~b_2 -> ~chi_10 b )
     4.42229353E-02    2     1000023         5   # BR(~b_2 -> ~chi_20 b )
     2.93812916E-02    2     1000025         5   # BR(~b_2 -> ~chi_30 b )
     3.79224397E-02    2     1000035         5   # BR(~b_2 -> ~chi_40 b )
     3.81182481E-01    2    -1000024         6   # BR(~b_2 -> ~chi_1- t )
     7.63203398E-02    2    -1000037         6   # BR(~b_2 -> ~chi_2- t )
     4.10919215E-01    2     1000021         5   # BR(~b_2 -> ~g      b )
     5.28548414E-04    2     1000005        25   # BR(~b_2 -> ~b_1    h )
     5.02149061E-04    2     1000005        23   # BR(~b_2 -> ~b_1    Z )
#
#         PDG            Width
DECAY   1000002     6.25524720E-02   # sup_L decays
#          BR         NDA      ID1       ID2
     6.77964968E-01    2     1000022         2   # BR(~u_L -> ~chi_10 u)
     3.52316299E-02    2     1000023         2   # BR(~u_L -> ~chi_20 u)
     1.46758805E-01    2     1000025         2   # BR(~u_L -> ~chi_30 u)
     1.40044597E-01    2     1000024         1   # BR(~u_L -> ~chi_1+ d)
#
#         PDG            Width
DECAY   2000002     1.15796971E+02   # sup_R decays
#          BR         NDA      ID1       ID2
     4.28220843E-02    2     1000022         2   # BR(~u_R -> ~chi_10 u)
     8.18341726E-05    2     1000023         2   # BR(~u_R -> ~chi_20 u)
     2.25250581E-02    2     1000025         2   # BR(~u_R -> ~chi_30 u)
     2.02838552E-08    2     1000035         2   # BR(~u_R -> ~chi_40 u)
     9.34571003E-01    2     1000021         2   # BR(~u_R -> ~g      u)
#
#         PDG            Width
DECAY   1000001     5.05311195E-02   # sdown_L decays
#          BR         NDA      ID1       ID2
     5.94721732E-01    2     1000022         1   # BR(~d_L -> ~chi_10 d)
     2.05706852E-02    2     1000023         1   # BR(~d_L -> ~chi_20 d)
     3.78220870E-01    2     1000025         1   # BR(~d_L -> ~chi_30 d)
     6.48671225E-03    2    -1000024         2   # BR(~d_L -> ~chi_1- u)
#
#         PDG            Width
DECAY   2000001     3.51633171E+01   # sdown_R decays
#          BR         NDA      ID1       ID2
     2.69597600E-02    2     1000022         1   # BR(~d_R -> ~chi_10 d)
     5.13295049E-05    2     1000023         1   # BR(~d_R -> ~chi_20 d)
     1.40935291E-02    2     1000025         1   # BR(~d_R -> ~chi_30 d)
     6.37247051E-09    2     1000035         1   # BR(~d_R -> ~chi_40 d)
     9.58895375E-01    2     1000021         1   # BR(~d_R -> ~g      d)
#
#         PDG            Width
DECAY   1000004     6.03037365E-02   # scharm_L decays
#          BR         NDA      ID1       ID2
     6.78395750E-01    2     1000022         4   # BR(~c_L -> ~chi_10 c)
     3.52035355E-02    2     1000023         4   # BR(~c_L -> ~chi_20 c)
     1.46468413E-01    2     1000025         4   # BR(~c_L -> ~chi_30 c)
     1.39932301E-01    2     1000024         3   # BR(~c_L -> ~chi_1+ s)
#
#         PDG            Width
DECAY   2000004     8.34743337E+01   # scharm_R decays
#          BR         NDA      ID1       ID2
     6.18271717E-02    2     1000022         4   # BR(~c_R -> ~chi_10 c)
     1.18128859E-04    2     1000023         4   # BR(~c_R -> ~chi_20 c)
     3.25112144E-02    2     1000025         4   # BR(~c_R -> ~chi_30 c)
     2.90402494E-08    2     1000035         4   # BR(~c_R -> ~chi_40 c)
     9.05543456E-01    2     1000021         4   # BR(~c_R -> ~g      c)
#
#         PDG            Width
DECAY   1000003     4.87146546E-02   # sstrange_L decays
#          BR         NDA      ID1       ID2
     5.95314721E-01    2     1000022         3   # BR(~s_L -> ~chi_10 s)
     2.05625680E-02    2     1000023         3   # BR(~s_L -> ~chi_20 s)
     3.77638834E-01    2     1000025         3   # BR(~s_L -> ~chi_30 s)
     6.48387702E-03    2    -1000024         4   # BR(~s_L -> ~chi_1- c)
#
#         PDG            Width
DECAY   2000003     2.50652036E+01   # sstrange_R decays
#          BR         NDA      ID1       ID2
     3.96222554E-02    2     1000022         3   # BR(~s_R -> ~chi_10 s)
     7.54142513E-05    2     1000023         3   # BR(~s_R -> ~chi_20 s)
     2.07025477E-02    2     1000025         3   # BR(~s_R -> ~chi_30 s)
     9.17726869E-09    2     1000035         3   # BR(~s_R -> ~chi_40 s)
     9.39599774E-01    2     1000021         3   # BR(~s_R -> ~g      s)
#
#         PDG            Width
DECAY   1000011     1.18457579E+00   # selectron_L decays
#          BR         NDA      ID1       ID2
     7.06218080E-01    2     1000022        11   # BR(~e_L -> ~chi_10 e-)
     9.13071588E-03    2     1000023        11   # BR(~e_L -> ~chi_20 e-)
     2.83884795E-01    2     1000025        11   # BR(~e_L -> ~chi_30 e-)
     7.66408902E-04    2    -1000024        12   # BR(~e_L -> ~chi_1- nu_e)
#
#         PDG            Width
DECAY   2000011     2.02997725E+01   # selectron_R decays
#          BR         NDA      ID1       ID2
     6.54049171E-01    2     1000022        11   # BR(~e_R -> ~chi_10 e-)
     1.25133450E-03    2     1000023        11   # BR(~e_R -> ~chi_20 e-)
     3.44699119E-01    2     1000025        11   # BR(~e_R -> ~chi_30 e-)
     3.75224430E-07    2     1000035        11   # BR(~e_R -> ~chi_40 e-)
#
#         PDG            Width
DECAY   1000013     1.18457576E+00   # smuon_L decays
#          BR         NDA      ID1       ID2
     7.06218081E-01    2     1000022        13   # BR(~mu_L -> ~chi_10 mu-)
     9.13071587E-03    2     1000023        13   # BR(~mu_L -> ~chi_20 mu-)
     2.83884795E-01    2     1000025        13   # BR(~mu_L -> ~chi_30 mu-)
     7.66408919E-04    2    -1000024        14   # BR(~mu_L -> ~chi_1- nu_mu)
#
#         PDG            Width
DECAY   2000013     2.02997725E+01   # smuon_R decays
#          BR         NDA      ID1       ID2
     6.54049171E-01    2     1000022        13   # BR(~mu_R -> ~chi_10 mu-)
     1.25133450E-03    2     1000023        13   # BR(~mu_R -> ~chi_20 mu-)
     3.44699119E-01    2     1000025        13   # BR(~mu_R -> ~chi_30 mu-)
     3.75224430E-07    2     1000035        13   # BR(~mu_R -> ~chi_40 mu-)
#
#         PDG            Width
DECAY   1000015     1.74221617E+01   # stau_1 decays
#          BR         NDA      ID1       ID2
     4.19439991E-01    2     1000022        15   # BR(~tau_1 -> ~chi_10  tau-)
     1.08199202E-01    2     1000023        15   # BR(~tau_1 -> ~chi_20  tau-)
     2.57505347E-01    2     1000025        15   # BR(~tau_1 -> ~chi_30  tau-)
     4.17868919E-07    2     1000035        15   # BR(~tau_1 -> ~chi_40  tau-)
     2.14854214E-01    2    -1000024        16   # BR(~tau_1 -> ~chi_1-  nu_tau)
     8.27652845E-07    2    -1000037        16   # BR(~tau_1 -> ~chi_2-  nu_tau)
#
#         PDG            Width
DECAY   2000015     1.02195410E+01   # stau_2 decays
#          BR         NDA      ID1       ID2
     2.80231782E-01    2     1000022        15   # BR(~tau_2 -> ~chi_10  tau-)
     2.19597513E-01    2     1000023        15   # BR(~tau_2 -> ~chi_20  tau-)
     2.24887349E-01    2     1000025        15   # BR(~tau_2 -> ~chi_30  tau-)
     9.02859082E-02    2     1000035        15   # BR(~tau_2 -> ~chi_40  tau-)
     1.00483062E-05    2    -1000024        16   # BR(~tau_2 -> ~chi_1-  nu_tau)
     1.80913522E-01    2    -1000037        16   # BR(~tau_2 -> ~chi_2-  nu_tau)
     2.09257608E-03    2     1000015        25   # BR(~tau_2 -> ~tau_1   h)
     1.98130249E-03    2     1000015        23   # BR(~tau_2 -> ~tau_1   Z)
#
#         PDG            Width
DECAY   1000012     1.18809600E+00   # snu_eL decays
#          BR         NDA      ID1       ID2
     6.22210899E-01    2     1000022        12   # BR(~nu_eL -> ~chi_10 nu_e)
     6.75499240E-04    2     1000023        12   # BR(~nu_eL -> ~chi_20 nu_e)
     3.56377456E-01    2     1000025        12   # BR(~nu_eL -> ~chi_30 nu_e)
     2.07361455E-02    2     1000024        11   # BR(~nu_eL -> ~chi_1+ e-)
#
#         PDG            Width
DECAY   1000014     1.18809600E+00   # snu_muL decays
#          BR         NDA      ID1       ID2
     6.22210899E-01    2     1000022        14   # BR(~nu_muL -> ~chi_10 nu_mu)
     6.75499240E-04    2     1000023        14   # BR(~nu_muL -> ~chi_20 nu_mu)
     3.56377457E-01    2     1000025        14   # BR(~nu_muL -> ~chi_30 nu_mu)
     2.07361451E-02    2     1000024        13   # BR(~nu_muL -> ~chi_1+ mu-)
#
#         PDG            Width
DECAY   1000016     1.02288726E+01   # snu_tauL decays
#          BR         NDA      ID1       ID2
     1.77628545E-01    2     1000022        16   # BR(~nu_tauL -> ~chi_10 nu_tau)
     2.01975881E-04    2     1000023        16   # BR(~nu_tauL -> ~chi_20 nu_tau)
     1.09973172E-01    2     1000025        16   # BR(~nu_tauL -> ~chi_30 nu_tau)
     8.97322707E-02    2     1000035        16   # BR(~nu_tauL -> ~chi_40 nu_tau)
     4.39721393E-01    2     1000024        15   # BR(~nu_tauL -> ~chi_1+ tau-)
     1.78849975E-01    2     1000037        15   # BR(~nu_tauL -> ~chi_2+ tau-)
     3.89266824E-03    2    -1000015       -24   # BR(~nu_tauL -> ~tau_1+ W-)
#
#         PDG            Width
DECAY   1000024     6.06252234E-05   # chargino1+ decays
#           BR         NDA      ID1       ID2       ID3
     3.33694702E-01    3     1000022         2        -1   # BR(~chi_1+ -> ~chi_10 u    db)
     8.42865968E-10    3     1000023         2        -1   # BR(~chi_1+ -> ~chi_20 u    db)
     3.33694702E-01    3     1000022         4        -3   # BR(~chi_1+ -> ~chi_10 c    sb)
     1.11171692E-01    3     1000022       -11        12   # BR(~chi_1+ -> ~chi_10 e+   nu_e)
     2.80942219E-10    3     1000023       -11        12   # BR(~chi_1+ -> ~chi_20 e+   nu_e)
     1.11171692E-01    3     1000022       -13        14   # BR(~chi_1+ -> ~chi_10 mu+  nu_mu)
     2.80942219E-10    3     1000023       -13        14   # BR(~chi_1+ -> ~chi_20 mu+  nu_mu)
     1.10267212E-01    3     1000022       -15        16   # BR(~chi_1+ -> ~chi_10 tau+ nu_tau)
#
#         PDG            Width
DECAY   1000037     9.82669245E+01   # chargino2+ decays
#          BR         NDA      ID1       ID2
     1.77253169E-01    2     1000002        -1   # BR(~chi_2+ -> ~u_L     db)
     1.77185077E-01    2    -1000001         2   # BR(~chi_2+ -> ~d_L*    u )
     1.77253167E-01    2     1000004        -3   # BR(~chi_2+ -> ~c_L     sb)
     1.77185032E-01    2    -1000003         4   # BR(~chi_2+ -> ~s_L*     c )
     3.43636022E-02    2     1000012       -11   # BR(~chi_2+ -> ~nu_eL   e+  )
     3.43636022E-02    2     1000014       -13   # BR(~chi_2+ -> ~nu_muL mu+ )
     3.42929680E-02    2    -1000011        12   # BR(~chi_2+ -> ~e_L+    nu_e)
     3.42929680E-02    2    -1000013        14   # BR(~chi_2+ -> ~mu_L+   nu_mu)
     3.90413012E-02    2     1000024        23   # BR(~chi_2+ -> ~chi_1+  Z )
     1.31571272E-02    2     1000022        24   # BR(~chi_2+ -> ~chi_10  W+)
     3.78819976E-02    2     1000023        24   # BR(~chi_2+ -> ~chi_20  W+)
     2.48155109E-02    2     1000025        24   # BR(~chi_2+ -> ~chi_30  W+)
     3.89144779E-02    2     1000024        25   # BR(~chi_2+ -> ~chi_1+  h )
#
#         PDG            Width
DECAY   1000022     0.00000000E+00   # neutralino1 decays
#
#         PDG            Width
DECAY   1000023     4.42571515E-05   # neutralino2 decays
#          BR         NDA      ID1       ID2
     1.00585723E-03    2     1000022        22   # BR(~chi_20 -> ~chi_10 gam)
#           BR         NDA      ID1       ID2       ID3
     1.18569983E-01    3     1000022        -2         2   # BR(~chi_20 -> ~chi_10 ub      u)
     1.53855848E-01    3     1000022        -1         1   # BR(~chi_20 -> ~chi_10 db      d)
     1.18569983E-01    3     1000022        -4         4   # BR(~chi_20 -> ~chi_10 cb      c)
     1.53855848E-01    3     1000022        -3         3   # BR(~chi_20 -> ~chi_10 sb      s)
     1.36744681E-01    3     1000022        -5         5   # BR(~chi_20 -> ~chi_10 bb      b)
     3.53073959E-02    3     1000022       -11        11   # BR(~chi_20 -> ~chi_10 e+      e-)
     3.53073959E-02    3     1000022       -13        13   # BR(~chi_20 -> ~chi_10 mu+     mu-)
     3.49078141E-02    3     1000022       -15        15   # BR(~chi_20 -> ~chi_10 tau+    tau-)
     7.06229223E-02    3     1000022       -12        12   # BR(~chi_20 -> ~chi_10 nu_eb   nu_e)
     7.06229223E-02    3     1000022       -14        14   # BR(~chi_20 -> ~chi_10 nu_mub  nu_mu)
     7.06293494E-02    3     1000022       -16        16   # BR(~chi_20 -> ~chi_10 nu_taub nu_tau)
#
#         PDG            Width
DECAY   1000025     2.36493918E-05   # neutralino3 decays
#          BR         NDA      ID1       ID2
     3.85669017E-02    2     1000022        22   # BR(~chi_30 -> ~chi_10 gam)
     1.27644227E-02    2     1000023        22   # BR(~chi_30 -> ~chi_20 gam)
#           BR         NDA      ID1       ID2       ID3
     4.15869047E-03    3     1000022        -2         2   # BR(~chi_30 -> ~chi_10 ub      u)
     4.85176076E-03    3     1000022        -1         1   # BR(~chi_30 -> ~chi_10 db      d)
     4.15869047E-03    3     1000022        -4         4   # BR(~chi_30 -> ~chi_10 cb      c)
     4.85176076E-03    3     1000022        -3         3   # BR(~chi_30 -> ~chi_10 sb      s)
     5.15836905E-03    3     1000022        -5         5   # BR(~chi_30 -> ~chi_10 bb      b)
     1.01923794E-03    3     1000022       -11        11   # BR(~chi_30 -> ~chi_10 e+      e-)
     1.01923794E-03    3     1000022       -13        13   # BR(~chi_30 -> ~chi_10 mu+     mu-)
     1.07002162E-03    3     1000022       -15        15   # BR(~chi_30 -> ~chi_10 tau+    tau-)
     2.61355789E-03    3     1000022       -12        12   # BR(~chi_30 -> ~chi_10 nu_eb   nu_e)
     2.61355789E-03    3     1000022       -14        14   # BR(~chi_30 -> ~chi_10 nu_mub  nu_mu)
     2.40288165E-03    3     1000022       -16        16   # BR(~chi_30 -> ~chi_10 nu_taub nu_tau)
     3.48888019E-02    3     1000023        -2         2   # BR(~chi_30 -> ~chi_20 ub      u)
     4.52840390E-02    3     1000023        -1         1   # BR(~chi_30 -> ~chi_20 db      d)
     3.48888019E-02    3     1000023        -4         4   # BR(~chi_30 -> ~chi_20 cb      c)
     4.52840390E-02    3     1000023        -3         3   # BR(~chi_30 -> ~chi_20 sb      s)
     3.30606700E-02    3     1000023        -5         5   # BR(~chi_30 -> ~chi_20 bb      b)
     1.04047116E-02    3     1000023       -11        11   # BR(~chi_30 -> ~chi_20 e+      e-)
     1.04047116E-02    3     1000023       -13        13   # BR(~chi_30 -> ~chi_20 mu+     mu-)
     1.01205708E-02    3     1000023       -15        15   # BR(~chi_30 -> ~chi_20 tau+    tau-)
     2.07997360E-02    3     1000023       -12        12   # BR(~chi_30 -> ~chi_20 nu_eb   nu_e)
     2.07997360E-02    3     1000023       -14        14   # BR(~chi_30 -> ~chi_20 nu_mub  nu_mu)
     2.07985551E-02    3     1000023       -16        16   # BR(~chi_30 -> ~chi_20 nu_taub nu_tau)
     1.04946011E-01    3     1000024        -2         1   # BR(~chi_30 -> ~chi_1+ ub      d)
     1.04946011E-01    3    -1000024        -1         2   # BR(~chi_30 -> ~chi_1- db      u)
     1.04946011E-01    3     1000024        -4         3   # BR(~chi_30 -> ~chi_1+ cb      s)
     1.04946011E-01    3    -1000024        -3         4   # BR(~chi_30 -> ~chi_1- sb      c)
     3.49944564E-02    3     1000024       -12        11   # BR(~chi_30 -> ~chi_1+ nu_eb   e-)
     3.49944564E-02    3    -1000024        12       -11   # BR(~chi_30 -> ~chi_1- nu_e    e+)
     3.49944564E-02    3     1000024       -14        13   # BR(~chi_30 -> ~chi_1+ nu_mub  mu-)
     3.49944564E-02    3    -1000024        14       -13   # BR(~chi_30 -> ~chi_1- nu_mu   mu+)
     3.41273330E-02    3     1000024       -16        15   # BR(~chi_30 -> ~chi_1+ nu_taub tau-)
     3.41273330E-02    3    -1000024        16       -15   # BR(~chi_30 -> ~chi_1- nu_tau  tau+)
#
#         PDG            Width
DECAY   1000035     9.82647691E+01   # neutralino4 decays
#          BR         NDA      ID1       ID2
     8.91146950E-03    2     1000022        23   # BR(~chi_40 -> ~chi_10   Z )
     1.23178721E-02    2     1000023        23   # BR(~chi_40 -> ~chi_20   Z )
     1.77160225E-02    2     1000025        23   # BR(~chi_40 -> ~chi_30   Z )
     3.80888217E-02    2     1000024       -24   # BR(~chi_40 -> ~chi_1+   W-)
     3.80888217E-02    2    -1000024        24   # BR(~chi_40 -> ~chi_1-   W+)
     4.53126448E-03    2     1000022        25   # BR(~chi_40 -> ~chi_10   h )
     2.65570077E-02    2     1000023        25   # BR(~chi_40 -> ~chi_20   h )
     7.70351050E-03    2     1000025        25   # BR(~chi_40 -> ~chi_30   h )
     8.87417456E-02    2     1000002        -2   # BR(~chi_40 -> ~u_L      ub)
     8.87417456E-02    2    -1000002         2   # BR(~chi_40 -> ~u_L*     u )
     8.84594245E-02    2     1000001        -1   # BR(~chi_40 -> ~d_L      db)
     8.84594245E-02    2    -1000001         1   # BR(~chi_40 -> ~d_L*     d )
     8.87417237E-02    2     1000004        -4   # BR(~chi_40 -> ~c_L      cb)
     8.87417237E-02    2    -1000004         4   # BR(~chi_40 -> ~c_L*     c )
     8.84594245E-02    2     1000003        -3   # BR(~chi_40 -> ~s _L      sb)
     8.84594245E-02    2    -1000003         3   # BR(~chi_40 -> ~s _L*     s )
     1.11924709E-08    2     1000005        -5   # BR(~chi_40 -> ~b_1      bb)
     1.11924709E-08    2    -1000005         5   # BR(~chi_40 -> ~b_1*     b )
     1.70972196E-02    2     1000011       -11   # BR(~chi_40 -> ~e_L-     e+)
     1.70972196E-02    2    -1000011        11   # BR(~chi_40 -> ~e_L+     e-)
     1.70972196E-02    2     1000013       -13   # BR(~chi_40 -> ~mu_L-    mu+)
     1.70972196E-02    2    -1000013        13   # BR(~chi_40 -> ~mu_L+    mu-)
     1.72229181E-02    2     1000012       -12   # BR(~chi_40 -> ~nu_eL    nu_eb)
     1.72229181E-02    2    -1000012        12   # BR(~chi_40 -> ~nu_eL*   nu_e )
     1.72229181E-02    2     1000014       -14   # BR(~chi_40 -> ~nu_muL   nu_mub)
     1.72229181E-02    2    -1000014        14   # BR(~chi_40 -> ~nu_muL*  nu_mu )
#
#         PDG            Width
DECAY        25     4.10765090E-03   # h decays
#          BR         NDA      ID1       ID2
     6.12759304E-01    2           5        -5   # BR(h -> b       bb     )
     6.31786663E-02    2         -15        15   # BR(h -> tau+    tau-   )
     2.23645496E-04    2         -13        13   # BR(h -> mu+     mu-    )
     2.44125612E-04    2           3        -3   # BR(h -> s       sb     )
     2.10676169E-02    2           4        -4   # BR(h -> c       cb     )
     7.72143261E-02    2          21        21   # BR(h -> g       g      )
     2.26734962E-03    2          22        22   # BR(h -> gam     gam    )
     1.47452355E-03    2          22        23   # BR(h -> Z       gam    )
     1.97105106E-01    2          24       -24   # BR(h -> W+      W-     )
     2.44653363E-02    2          23        23   # BR(h -> Z       Z      )
#
#         PDG            Width
DECAY        35     4.90092289E+01   # H decays
#          BR         NDA      ID1       ID2
     6.21406168E-01    2           5        -5   # BR(H -> b       bb     )
     1.26994825E-01    2         -15        15   # BR(H -> tau+    tau-   )
     4.59430901E-04    2         -13        13   # BR(H -> mu+     mu-    )
     2.38739213E-04    2           3        -3   # BR(H -> s       sb     )
     2.43066820E-08    2           4        -4   # BR(H -> c       cb     )
     2.38670671E-03    2           6        -6   # BR(H -> t       tb     )
     9.46400414E-06    2          21        21   # BR(H -> g       g      )
     7.20322945E-09    2          22        22   # BR(H -> gam     gam    )
     5.40373641E-09    2          23        22   # BR(H -> Z       gam    )
     1.25309725E-06    2          24       -24   # BR(H -> W+      W-     )
     6.25098624E-07    2          23        23   # BR(H -> Z       Z      )
     5.01077761E-06    2          25        25   # BR(H -> h       h      )
     1.55620900E-03    2     1000024  -1000024   # BR(H -> ~chi_1+ ~chi_1-)
     6.02618276E-02    2     1000024  -1000037   # BR(H -> ~chi_1+ ~chi_2-)
     6.02618276E-02    2     1000037  -1000024   # BR(H -> ~chi_2+ ~chi_1-)
     1.40597242E-02    2     1000022   1000022   # BR(H -> ~chi_10 ~chi_10)
     6.24471825E-05    2     1000023   1000023   # BR(H -> ~chi_20 ~chi_20)
     1.38420404E-02    2     1000025   1000025   # BR(H -> ~chi_30 ~chi_30)
     2.33652529E-02    2     1000022   1000023   # BR(H -> ~chi_10 ~chi_20)
     1.51263706E-03    2     1000022   1000025   # BR(H -> ~chi_10 ~chi_30)
     1.52455385E-02    2     1000022   1000035   # BR(H -> ~chi_10 ~chi_40)
     1.31739461E-02    2     1000023   1000025   # BR(H -> ~chi_20 ~chi_30)
     2.00656446E-02    2     1000023   1000035   # BR(H -> ~chi_20 ~chi_40)
     2.50856129E-02    2     1000025   1000035   # BR(H -> ~chi_30 ~chi_40)
     8.18450167E-07    2     1000002  -1000002   # BR(H -> ~u_L    ~u_L*  )
     8.18450167E-07    2     1000004  -1000004   # BR(H -> ~c_L    ~c_L*  )
     1.19849969E-06    2     1000001  -1000001   # BR(H -> ~d_L    ~d_L*  )
     1.19849969E-06    2     1000003  -1000003   # BR(H -> ~s_L    ~s_L*  )
     1.16996930E-07    2     1000011  -1000011   # BR(H -> ~e_L-   ~e_L+  )
     1.16996930E-07    2     1000013  -1000013   # BR(H -> ~mu_L-  ~mu_L+ )
     3.82441970E-07    2     1000012  -1000012   # BR(H -> ~nu_eL  ~nu_eL*   )
     3.82441970E-07    2     1000014  -1000014   # BR(H -> ~nu_muL ~nu_muL*  )
#
#         PDG            Width
DECAY        36     4.90141226E+01   # A decays
#          BR         NDA      ID1       ID2
     6.21367341E-01    2           5        -5   # BR(A -> b       bb     )
     1.26982842E-01    2         -15        15   # BR(A -> tau+    tau-   )
     4.59386832E-04    2         -13        13   # BR(A -> mu+     mu-    )
     2.38733161E-04    2           3        -3   # BR(A -> s       sb     )
     2.43913323E-08    2           4        -4   # BR(A -> c       cb     )
     2.39549751E-03    2           6        -6   # BR(A -> t       tb     )
     2.80406367E-05    2          21        21   # BR(A -> g       g      )
     7.78752002E-09    2          22        22   # BR(A -> gam     gam    )
     2.08428046E-08    2          23        22   # BR(A -> Z       gam    )
     1.26914818E-06    2          23        25   # BR(A -> Z       h      )
     1.66873345E-03    2     1000024  -1000024   # BR(A -> ~chi_1+ ~chi_1-)
     6.02045031E-02    2     1000024  -1000037   # BR(A -> ~chi_1+ ~chi_2-)
     6.02045031E-02    2     1000037  -1000024   # BR(A -> ~chi_2+ ~chi_1-)
     1.70075254E-02    2     1000022   1000022   # BR(A -> ~chi_10 ~chi_10)
     6.04587998E-05    2     1000023   1000023   # BR(A -> ~chi_20 ~chi_20)
     1.75745308E-02    2     1000025   1000025   # BR(A -> ~chi_30 ~chi_30)
     1.90398779E-02    2     1000022   1000023   # BR(A -> ~chi_10 ~chi_20)
     1.94914647E-03    2     1000022   1000025   # BR(A -> ~chi_10 ~chi_30)
     8.28300987E-03    2     1000022   1000035   # BR(A -> ~chi_10 ~chi_40)
     1.04033206E-02    2     1000023   1000025   # BR(A -> ~chi_20 ~chi_30)
     4.03509724E-02    2     1000023   1000035   # BR(A -> ~chi_20 ~chi_40)
     1.17802547E-02    2     1000025   1000035   # BR(A -> ~chi_30 ~chi_40)
#
#         PDG            Width
DECAY        37     4.71138451E+01   # H+ decays
#          BR         NDA      ID1       ID2
     1.01920728E-03    2           4        -5   # BR(H+ -> c       bb     )
     1.32169894E-01    2         -15        16   # BR(H+ -> tau+    nu_tau )
     4.78152067E-04    2         -13        14   # BR(H+ -> mu+     nu_mu  )
     1.01920596E-05    2           2        -5   # BR(H+ -> u       bb     )
     1.24240340E-05    2           2        -3   # BR(H+ -> u       sb     )
     2.44567035E-04    2           4        -3   # BR(H+ -> c       sb     )
     6.07820191E-01    2           6        -5   # BR(H+ -> t       bb     )
     1.32319360E-06    2          24        25   # BR(H+ -> W+      h      )
     1.67390805E-13    2          24        36   # BR(H+ -> W+      A      )
     4.93196280E-02    2     1000024   1000022   # BR(H+ -> ~chi_1+ ~chi_10)
     4.37825698E-04    2     1000024   1000023   # BR(H+ -> ~chi_1+ ~chi_20)
     1.94474845E-02    2     1000024   1000025   # BR(H+ -> ~chi_1+ ~chi_30)
     6.29212681E-02    2     1000024   1000035   # BR(H+ -> ~chi_1+ ~chi_40)
     2.45278469E-02    2     1000037   1000022   # BR(H+ -> ~chi_2+ ~chi_10)
     6.31485578E-02    2     1000037   1000023   # BR(H+ -> ~chi_2+ ~chi_20)
     3.84363359E-02    2     1000037   1000025   # BR(H+ -> ~chi_2+ ~chi_30)
     4.78329513E-07    2    -1000011   1000012   # BR(H+ -> ~e_L+   ~nu_eL )
     4.78329513E-07    2    -1000013   1000014   # BR(H+ -> ~mu_L+  ~nu_muL)
     2.07297192E-06    2     1000002  -1000001   # BR(H+ -> ~u_L    ~d_L*  )
     2.07297192E-06    2     1000004  -1000003   # BR(H+ -> ~c_L    ~s_L*  )

DECAY         5   0.000000e+00 # b decays
DECAY        15   0.000000e+00 # tau decays
DECAY        23     2.49520000E+00   # Z
DECAY        24     2.08500000E+00   # W
