# SUSY Les Houches Accord 2 - MSSM spectrum + Decays
# SPheno v4.0.5be
# W. Porod, Comput. Phys. Commun. 153 (2003) 275-315, hep-ph/0301101;
# W. Porod, F.~Staub, Comput. Phys. Commun. 183 (2012) 2458
#                     arXiv:1104.1573 [hep-ph] 
# in case of problems send email to porod@physik.uni-wuerzburg.de
# Created: 20.12.2022,  15:08
Block SPINFO         # Program information
     1   SPheno      # spectrum calculator
     2   v4.0.5be    # version number
#
Block SPhenoINFO     # SPheno specific information
    1      2         # using 2-loop RGEs
    2      2         # using pole masses for boundary conditions at mZ
Block MODSEL  # Model selection
    1    0    # general MSSM
Block MINPAR  # Input parameters
    3    2.39768042E+01  # tanb at m_Z    
    4   -1.00000000E+00  # Sign(mu)
Block EXTPAR  # non-universal input parameters
    0    2.65601812E+03  # scale for input parameters
    1   -1.87408134E+03  # M_1
    2    5.96769386E+02  # M_2
    3    4.60523016E+03  # M_3
   11   -4.83083144E+03  # A_t
   12   -1.02088414E+03  # A_b
   13    3.21156264E+02  # A_tau
   23   -2.35337062E+02  # mu
   25    2.30736386E+01  # tan(beta)
   26    8.13784732E+02  # m_A, pole mass
   31    1.00000000E+04  # M_L11
   32    1.00000000E+04  # M_L22
   33    1.00000000E+04  # M_L33
   34    1.00000000E+04  # M_E11
   35    1.00000000E+04  # M_E22
   36    1.00000000E+04  # M_E33
   41    1.00000000E+04  # M_Q11
   42    1.00000000E+04  # M_Q22
   43    2.63181004E+03  # M_Q33
   44    1.00000000E+04  # M_U11
   45    1.00000000E+04  # M_U22
   46    2.70729885E+03  # M_U33
   47    1.00000000E+04  # M_D11
   48    1.00000000E+04  # M_D22
   49    3.86162297E+03  # M_D33
Block SMINPUTS  # SM parameters
         1     1.27908970E+02  # alpha_em^-1(MZ)^MSbar
         2     1.16637870E-05  # G_mu [GeV^-2]
         3     1.18400000E-01  # alpha_s(MZ)^MSbar
         4     9.11876000E+01  # m_Z(pole)
         5     4.18000000E+00  # m_b(m_b), MSbar
         6     1.73200000E+02  # m_t(pole)
         7     1.77700000E+00  # m_tau(pole)
         8     0.00000000E+00  # m_nu_3
        11     5.10998930E-04  # m_e(pole)
        12     0.00000000E+00  # m_nu_1
        13     1.05658372E-01  # m_muon(pole)
        14     0.00000000E+00  # m_nu_2
        21     5.00000000E-03  # m_d(2 GeV), MSbar
        22     2.50000000E-03  # m_u(2 GeV), MSbar
        23     9.50000000E-02  # m_s(2 GeV), MSbar
        24     1.27000000E+00  # m_c(m_c), MSbar
Block gauge Q=  2.65601812E+03  # (SUSY scale)
   1    3.55362975E-01  # g'(Q)^DRbar
   2    6.65198874E-01  # g(Q)^DRbar
   3    1.21977796E+00  # g3(Q)^DRbar
Block Yu Q=  2.65601812E+03  # (SUSY scale)
  1  1     8.39224267E-06   # Y_u(Q)^DRbar
  2  2     4.26325928E-03   # Y_c(Q)^DRbar
  3  3     1.01385032E+00   # Y_t(Q)^DRbar
Block Yd Q=  2.65601812E+03  # (SUSY scale)
  1  1     3.89111770E-04   # Y_d(Q)^DRbar
  2  2     7.39312362E-03   # Y_s(Q)^DRbar
  3  3     3.85876945E-01   # Y_b(Q)^DRbar
Block Ye Q=  2.65601812E+03  # (SUSY scale)
  1  1     6.79028492E-05   # Y_e(Q)^DRbar
  2  2     1.40401556E-02   # Y_mu(Q)^DRbar
  3  3     2.36132320E-01   # Y_tau(Q)^DRbar
Block Au Q=  2.65601812E+03  # (SUSY scale)
  1  1     0.00000000E+00   # A_u(Q)^DRbar
  2  2     0.00000000E+00   # A_c(Q)^DRbar
  3  3    -4.83083135E+03   # A_t(Q)^DRbar
Block Ad Q=  2.65601812E+03  # (SUSY scale)
  1  1     0.00000000E+00   # A_d(Q)^DRbar
  2  2     0.00000000E+00   # A_s(Q)^DRbar
  3  3    -1.02088415E+03   # A_b(Q)^DRbar
Block Ae Q=  2.65601812E+03  # (SUSY scale)
  1  1     0.00000000E+00   # A_e(Q)^DRbar
  2  2     0.00000000E+00   # A_mu(Q)^DRbar
  3  3     3.21156266E+02   # A_tau(Q)^DRbar
Block MSOFT Q=  2.65601812E+03  # soft SUSY breaking masses at Q
   1   -1.87408134E+03  # M_1
   2    5.96769386E+02  # M_2
   3    4.60523016E+03  # M_3
  21    5.00902772E+05  # M^2_(H,d)
  22    7.95579715E+04  # M^2_(H,u)
  31    1.00000000E+04  # M_(L,11)
  32    1.00000000E+04  # M_(L,22)
  33    1.00000000E+04  # M_(L,33)
  34    1.00000000E+04  # M_(E,11)
  35    1.00000000E+04  # M_(E,22)
  36    1.00000000E+04  # M_(E,33)
  41    1.00000000E+04  # M_(Q,11)
  42    1.00000000E+04  # M_(Q,22)
  43    2.63181004E+03  # M_(Q,33)
  44    1.00000000E+04  # M_(U,11)
  45    1.00000000E+04  # M_(U,22)
  46    2.70729885E+03  # M_(U,33)
  47    1.00000000E+04  # M_(D,11)
  48    1.00000000E+04  # M_(D,22)
  49    3.86162297E+03  # M_(D,33)
Block MASS  # Mass spectrum
#   PDG code      mass          particle
         6     1.73200000E+02  # m_t(pole)
        23     9.11876000E+01  # m_Z(pole)
        24     8.04299946E+01  # W+
        15     1.77700000E+00  # m_tau(pole)
        25     1.26265724E+02  # h0
        35     8.13823301E+02  # H0
        36     8.13784732E+02  # A0
        37     8.19910159E+02  # H+
   1000001     1.00679246E+04  # ~d_L
   2000001     1.00447841E+04  # ~d_R
   1000002     1.00677099E+04  # ~u_L
   2000002     1.00475316E+04  # ~u_R
   1000003     1.00679286E+04  # ~s_L
   2000003     1.00447897E+04  # ~s_R
   1000004     1.00677139E+04  # ~c_L
   2000004     1.00475335E+04  # ~c_R
   1000005     2.65454181E+03  # ~b_1
   2000005     3.94113811E+03  # ~b_2
   1000006     2.53580872E+03  # ~t_1
   2000006     2.78192601E+03  # ~t_2
   1000011     1.00210385E+04  # ~e_L-
   2000011     1.00078418E+04  # ~e_R-
   1000012     1.00202750E+04  # ~nu_eL
   1000013     1.00210529E+04  # ~mu_L-
   2000013     1.00078698E+04  # ~mu_R-
   1000014     1.00202893E+04  # ~nu_muL
   1000015     1.00157528E+04  # ~tau_1-
   2000015     1.00251359E+04  # ~tau_2-
   1000016     1.00243424E+04  # ~nu_tauL
   1000021     4.98634147E+03  # ~g
   1000022     2.36986851E+02  # ~chi_10
   1000023     2.47288863E+02  # ~chi_20
   1000025     6.57654388E+02  # ~chi_30
   1000035     1.89615088E+03  # ~chi_40
   1000024     2.40809312E+02  # ~chi_1+
   1000037     6.57829216E+02  # ~chi_2+
# Higgs mixing
Block alpha # Effective Higgs mixing angle
          -4.31293849E-02   # alpha
Block Hmix Q=  2.65601812E+03  # Higgs mixing parameters
   1   -2.35337062E+02  # mu
   2    2.30736386E+01  # tan[beta](Q)
   3    2.43345478E+02  # v(Q)
   4    6.62245590E+05  # m^2_A(Q)
Block stopmix # stop mixing matrix
   1  1     7.38235601E-01   # Re[R_st(1,1)]
   1  2     6.74542954E-01   # Re[R_st(1,2)]
   2  1    -6.74542954E-01   # Re[R_st(2,1)]
   2  2     7.38235601E-01   # Re[R_st(2,2)]
Block sbotmix # sbottom mixing matrix
   1  1    -9.99999406E-01   # Re[R_sb(1,1)]
   1  2     1.08985929E-03   # Re[R_sb(1,2)]
   2  1    -1.08985929E-03   # Re[R_sb(2,1)]
   2  2    -9.99999406E-01   # Re[R_sb(2,2)]
Block staumix # stau mixing matrix
   1  1    -5.43047272E-02   # Re[R_sta(1,1)]
   1  2     9.98524410E-01   # Re[R_sta(1,2)]
   2  1    -9.98524410E-01   # Re[R_sta(2,1)]
   2  2    -5.43047272E-02   # Re[R_sta(2,2)]
Block Nmix # neutralino mixing matrix
   1  1     1.36086912E-02   # Re[N(1,1)]
   1  2     1.30159803E-01   # Re[N(1,2)]
   1  3     7.11802295E-01   # Re[N(1,3)]
   1  4     6.90080229E-01   # Re[N(1,4)]
   2  1     1.97413015E-02   # Re[N(2,1)]
   2  2     6.72714835E-02   # Re[N(2,2)]
   2  3    -7.00860732E-01   # Re[N(2,3)]
   2  4     7.09844393E-01   # Re[N(2,4)]
   3  1    -2.36131320E-03   # Re[N(3,1)]
   3  2     9.89207961E-01   # Re[N(3,2)]
   3  3    -4.59933811E-02   # Re[N(3,3)]
   3  4    -1.39092211E-01   # Re[N(3,4)]
   4  1    -9.99709712E-01   # Re[N(4,1)]
   4  2     7.63723100E-04   # Re[N(4,2)]
   4  3    -4.04177386E-03   # Re[N(4,3)]
   4  4     2.37396725E-02   # Re[N(4,4)]
Block Umix # chargino mixing matrix
   1  1    -6.57650894E-02   # Re[U(1,1)]
   1  2    -9.97835133E-01   # Re[U(1,2)]
   2  1     9.97835133E-01   # Re[U(2,1)]
   2  2    -6.57650894E-02   # Re[U(2,2)]
Block Vmix # chargino mixing matrix
   1  1    -1.98323384E-01   # Re[V(1,1)]
   1  2     9.80136641E-01   # Re[V(1,2)]
   2  1     9.80136641E-01   # Re[V(2,1)]
   2  2     1.98323384E-01   # Re[V(2,2)]
DECAY        23     2.49520000E+00   # Z
DECAY        24     2.08500000E+00   # W
DECAY   2000011     4.67423012E+01   # ~e^-_R
#    BR                NDA      ID1      ID2
     1.99022442E-04    2     1000022        11   # BR(~e^-_R -> chi^0_1 e^-)
     4.18760689E-04    2     1000023        11   # BR(~e^-_R -> chi^0_2 e^-)
     9.99376250E-01    2     1000035        11   # BR(~e^-_R -> chi^0_4 e^-)
DECAY   1000011     1.42902264E+02   # ~e^-_L
#    BR                NDA      ID1      ID2
     5.82308645E-03    2     1000022        11   # BR(~e^-_L -> chi^0_1 e^-)
     1.86683161E-03    2     1000023        11   # BR(~e^-_L -> chi^0_2 e^-)
     2.98672052E-01    2     1000025        11   # BR(~e^-_L -> chi^0_3 e^-)
     8.16120801E-02    2     1000035        11   # BR(~e^-_L -> chi^0_4 e^-)
     2.66683342E-03    2    -1000024        12   # BR(~e^-_L -> chi^-_1 nu_e)
     6.09359116E-01    2    -1000037        12   # BR(~e^-_L -> chi^-_2 nu_e)
#    BR                NDA      ID1      ID2       ID3
DECAY   2000013     4.68208519E+01   # ~mu^-_R
#    BR                NDA      ID1      ID2
     6.22915258E-04    2     1000022        13   # BR(~mu^-_R -> chi^0_1 mu^-)
     8.29303329E-04    2     1000023        13   # BR(~mu^-_R -> chi^0_2 mu^-)
     9.97702829E-01    2     1000035        13   # BR(~mu^-_R -> chi^0_4 mu^-)
     8.33663648E-04    2    -1000024        14   # BR(~mu^-_R -> chi^-_1 nu_mu)
DECAY   1000013     1.42941727E+02   # ~mu^-_L
#    BR                NDA      ID1      ID2
     5.96062779E-03    2     1000022        13   # BR(~mu^-_L -> chi^0_1 mu^-)
     2.00119992E-03    2     1000023        13   # BR(~mu^-_L -> chi^0_2 mu^-)
     2.98590607E-01    2     1000025        13   # BR(~mu^-_L -> chi^0_3 mu^-)
     8.15896878E-02    2     1000035        13   # BR(~mu^-_L -> chi^0_4 mu^-)
     2.66610101E-03    2    -1000024        14   # BR(~mu^-_L -> chi^-_1 nu_mu)
     6.09191776E-01    2    -1000037        14   # BR(~mu^-_L -> chi^-_2 nu_mu)
#    BR                NDA      ID1      ID2       ID3
DECAY   1000015     6.92320825E+01   # ~tau^-_1
#    BR                NDA      ID1      ID2
     8.44161007E-02    2     1000022        15   # BR(~tau^-_1 -> chi^0_1 tau^-)
     7.76489858E-02    2     1000023        15   # BR(~tau^-_1 -> chi^0_2 tau^-)
     5.91920229E-04    2     1000025        15   # BR(~tau^-_1 -> chi^0_3 tau^-)
     6.73780291E-01    2     1000035        15   # BR(~tau^-_1 -> chi^0_4 tau^-)
     1.62359038E-01    2    -1000024        16   # BR(~tau^-_1 -> chi^-_1 nu_tau)
     1.20366430E-03    2    -1000037        16   # BR(~tau^-_1 -> chi^-_2 nu_tau)
DECAY   2000015     1.53816411E+02   # ~tau^-_2
#    BR                NDA      ID1      ID2
     4.06218279E-02    2     1000022        15   # BR(~tau^-_2 -> chi^0_1 tau^-)
     3.78205222E-02    2     1000023        15   # BR(~tau^-_2 -> chi^0_2 tau^-)
     2.77633059E-01    2     1000025        15   # BR(~tau^-_2 -> chi^0_3 tau^-)
     7.65641841E-02    2     1000035        15   # BR(~tau^-_2 -> chi^0_4 tau^-)
     1.23556912E-03    2    -1000024        16   # BR(~tau^-_2 -> chi^-_1 nu_tau)
     5.66124837E-01    2    -1000037        16   # BR(~tau^-_2 -> chi^-_2 nu_tau)
#    BR                NDA      ID1      ID2       ID3
DECAY   1000012     1.42907452E+02   # ~nu_e
#    BR                NDA      ID1      ID2
     4.65557495E-03    2     1000022        12   # BR(~nu_e -> chi^0_1 nu_e)
     9.91863560E-04    2     1000023        12   # BR(~nu_e -> chi^0_2 nu_e)
     3.00165274E-01    2     1000025        12   # BR(~nu_e -> chi^0_3 nu_e)
     8.20700824E-02    2     1000035        12   # BR(~nu_e -> chi^0_4 nu_e)
     2.42495725E-02    2     1000024        11   # BR(~nu_e -> chi^+_1 e^-)
     5.87867633E-01    2     1000037        11   # BR(~nu_e -> chi^+_2 e^-)
#    BR                NDA      ID1      ID2       ID3
DECAY   1000014     1.42946911E+02   # ~nu_mu
#    BR                NDA      ID1      ID2
     4.65429650E-03    2     1000022        14   # BR(~nu_mu -> chi^0_1 nu_mu)
     9.91591188E-04    2     1000023        14   # BR(~nu_mu -> chi^0_2 nu_mu)
     3.00082853E-01    2     1000025        14   # BR(~nu_mu -> chi^0_3 nu_mu)
     8.20475625E-02    2     1000035        14   # BR(~nu_mu -> chi^0_4 nu_mu)
     2.45163076E-02    2     1000024        13   # BR(~nu_mu -> chi^+_1 mu^-)
     5.87707389E-01    2     1000037        13   # BR(~nu_mu -> chi^+_2 mu^-)
#    BR                NDA      ID1      ID2       ID3
DECAY   1000016     1.54073678E+02   # ~nu_tau
#    BR                NDA      ID1      ID2
     4.31992686E-03    2     1000022        16   # BR(~nu_tau -> chi^0_1 nu_tau)
     9.20354292E-04    2     1000023        16   # BR(~nu_tau -> chi^0_2 nu_tau)
     2.78526277E-01    2     1000025        16   # BR(~nu_tau -> chi^0_3 nu_tau)
     7.61576823E-02    2     1000035        16   # BR(~nu_tau -> chi^0_4 nu_tau)
     9.42788423E-02    2     1000024        15   # BR(~nu_tau -> chi^+_1 tau^-)
     5.45796918E-01    2     1000037        15   # BR(~nu_tau -> chi^+_2 tau^-)
#    BR                NDA      ID1      ID2       ID3
DECAY   2000001     4.55467292E+02   # ~d_R
#    BR                NDA      ID1      ID2
     1.14439776E-02    2     1000035         1   # BR(~d_R -> chi^0_4 d)
     9.88548751E-01    2     1000021         1   # BR(~d_R -> ~g d)
DECAY   1000001     5.85771404E+02   # ~d_L
#    BR                NDA      ID1      ID2
     1.23302676E-03    2     1000022         1   # BR(~d_L -> chi^0_1 d)
     3.07163704E-04    2     1000023         1   # BR(~d_L -> chi^0_2 d)
     7.34590239E-02    2     1000025         1   # BR(~d_L -> chi^0_3 d)
     2.24962983E-03    2     1000035         1   # BR(~d_L -> chi^0_4 d)
     6.53640168E-04    2    -1000024         2   # BR(~d_L -> chi^-_1 u)
     1.49364163E-01    2    -1000037         2   # BR(~d_L -> chi^-_2 u)
     7.72733353E-01    2     1000021         1   # BR(~d_L -> ~g d)
DECAY   2000003     4.55489633E+02   # ~s_R
#    BR                NDA      ID1      ID2
     1.14434240E-02    2     1000035         3   # BR(~s_R -> chi^0_4 s)
     9.88501535E-01    2     1000021         3   # BR(~s_R -> ~g s)
DECAY   1000003     5.85786410E+02   # ~s_L
#    BR                NDA      ID1      ID2
     1.24242823E-03    2     1000022         3   # BR(~s_L -> chi^0_1 s)
     3.16299529E-04    2     1000023         3   # BR(~s_L -> chi^0_2 s)
     7.34572104E-02    2     1000025         3   # BR(~s_L -> chi^0_3 s)
     2.24957349E-03    2     1000035         3   # BR(~s_L -> chi^0_4 s)
     6.59586152E-04    2    -1000024         4   # BR(~s_L -> chi^-_1 c)
     1.49360640E-01    2    -1000037         4   # BR(~s_L -> chi^-_2 c)
     7.72714262E-01    2     1000021         3   # BR(~s_L -> ~g s)
DECAY   1000005     9.34644846E+01   # ~b_1
#    BR                NDA      ID1      ID2
     4.39824431E-02    2     1000022         5   # BR(~b_1 -> chi^0_1 b)
     4.11005376E-02    2     1000023         5   # BR(~b_1 -> chi^0_2 b)
     1.08002724E-01    2     1000025         5   # BR(~b_1 -> chi^0_3 b)
     9.58551322E-04    2     1000035         5   # BR(~b_1 -> chi^0_4 b)
     5.44548877E-01    2    -1000024         6   # BR(~b_1 -> chi^-_1 t)
     2.41653601E-01    2    -1000037         6   # BR(~b_1 -> chi^-_2 t)
     1.97532656E-02    2     1000006       -24   # BR(~b_1 -> ~t_1 W^-)
DECAY   2000005     2.51068500E+01   # ~b_2
#    BR                NDA      ID1      ID2
     2.33807384E-01    2     1000022         5   # BR(~b_2 -> chi^0_1 b)
     2.26700719E-01    2     1000023         5   # BR(~b_2 -> chi^0_2 b)
     9.84043068E-04    2     1000025         5   # BR(~b_2 -> chi^0_3 b)
     5.17360428E-02    2     1000035         5   # BR(~b_2 -> chi^0_4 b)
     4.57656911E-01    2    -1000024         6   # BR(~b_2 -> chi^-_1 t)
     2.00299499E-03    2    -1000037         6   # BR(~b_2 -> chi^-_2 t)
     2.15004887E-04    2     1000006       -24   # BR(~b_2 -> ~t_1 W^-)
     1.12414819E-04    2     2000006       -24   # BR(~b_2 -> ~t_2 W^-)
     5.86856351E-03    2     1000006       -37   # BR(~b_2 -> ~t_1 H^-)
     7.11936319E-03    2     2000006       -37   # BR(~b_2 -> ~t_2 H^-)
     1.59411887E-04    2     1000005        23   # BR(~b_2 -> ~b_1 Z)
     6.67014029E-03    2     1000005        36   # BR(~b_2 -> ~b_1 A^0)
     2.97458478E-04    2     1000005        25   # BR(~b_2 -> ~b_1 h^0)
     6.66954831E-03    2     1000005        35   # BR(~b_2 -> ~b_1 H^0)
DECAY   2000002     4.71404844E+02   # ~u_R
#    BR                NDA      ID1      ID2
     4.42421751E-02    2     1000035         2   # BR(~u_R -> chi^0_4 u)
     9.55730229E-01    2     1000021         2   # BR(~u_R -> ~g u)
DECAY   1000002     5.85771392E+02   # ~u_L
#    BR                NDA      ID1      ID2
     1.32831462E-03    2     1000022         2   # BR(~u_L -> chi^0_1 u)
     3.78605696E-04    2     1000023         2   # BR(~u_L -> chi^0_2 u)
     7.33326383E-02    2     1000025         2   # BR(~u_L -> chi^0_3 u)
     2.21130077E-03    2     1000035         2   # BR(~u_L -> chi^0_4 u)
     5.94415637E-03    2     1000024         1   # BR(~u_L -> chi^+_1 d)
     1.44109518E-01    2     1000037         1   # BR(~u_L -> chi^+_2 d)
     7.72695466E-01    2     1000021         2   # BR(~u_L -> ~g u)
DECAY   2000004     4.71412269E+02   # ~c_R
#    BR                NDA      ID1      ID2
     4.42414886E-02    2     1000035         4   # BR(~c_R -> chi^0_4 c)
     9.55715528E-01    2     1000021         4   # BR(~c_R -> ~g c)
DECAY   1000004     5.85786368E+02   # ~c_L
#    BR                NDA      ID1      ID2
     1.33123643E-03    2     1000022         4   # BR(~c_L -> chi^0_1 c)
     3.81723239E-04    2     1000023         4   # BR(~c_L -> chi^0_2 c)
     7.33309129E-02    2     1000025         4   # BR(~c_L -> chi^0_3 c)
     2.21124870E-03    2     1000035         4   # BR(~c_L -> chi^0_4 c)
     5.96254252E-03    2     1000024         3   # BR(~c_L -> chi^+_1 s)
     1.44105971E-01    2     1000037         3   # BR(~c_L -> chi^+_2 s)
     7.72676365E-01    2     1000021         4   # BR(~c_L -> ~g c)
DECAY   1000006     9.43983124E+01   # ~t_1
#    BR                NDA      ID1      ID2
     2.73080856E-01    2     1000022         6   # BR(~t_1 -> chi^0_1 t)
     2.75455033E-01    2     1000023         6   # BR(~t_1 -> chi^0_2 t)
     3.41784941E-02    2     1000025         6   # BR(~t_1 -> chi^0_3 t)
     6.58547510E-03    2     1000035         6   # BR(~t_1 -> chi^0_4 t)
     3.51784144E-01    2     1000024         5   # BR(~t_1 -> chi^+_1 b)
     5.57142054E-02    2     1000037         5   # BR(~t_1 -> chi^+_2 b)
#    BR                NDA      ID1      ID2       ID3
     3.20098655E-03    3     1000022        24         5   # BR(~t_1 -> chi^0_1 W^+ b)
DECAY   2000006     1.14654698E+02   # ~t_2
#    BR                NDA      ID1      ID2
     2.15149420E-01    2     1000022         6   # BR(~t_2 -> chi^0_1 t)
     2.38008419E-01    2     1000023         6   # BR(~t_2 -> chi^0_2 t)
     7.94384978E-02    2     1000025         6   # BR(~t_2 -> chi^0_3 t)
     7.18769250E-03    2     1000035         6   # BR(~t_2 -> chi^0_4 t)
     2.29609873E-01    2     1000024         5   # BR(~t_2 -> chi^+_1 b)
     1.48985728E-01    2     1000037         5   # BR(~t_2 -> chi^+_2 b)
     1.94173351E-02    2     1000005        24   # BR(~t_2 -> ~b_1 W^+)
     6.13680120E-02    2     1000006        23   # BR(~t_2 -> ~t_1 Z)
     8.35023466E-04    2     1000006        25   # BR(~t_2 -> ~t_1 h^0)
DECAY   1000024     9.18294857E-10   # chi^+_1
#    BR                NDA      ID1      ID2       ID3
     4.22025935E-01    3     1000022        -1         2   # BR(chi^+_1 -> chi^0_1 d_bar u)
     2.48031317E-01    3     1000022        -3         4   # BR(chi^+_1 -> chi^0_1 s_bar c)
     1.40675282E-01    3     1000022       -11        12   # BR(chi^+_1 -> chi^0_1 e^+ nu_e)
     1.40140175E-01    3     1000022       -13        14   # BR(chi^+_1 -> chi^0_1 mu^+ nu_mu)
     4.91272915E-02    3     1000022       -15        16   # BR(chi^+_1 -> chi^0_1 tau^+ nu_tau)
DECAY   1000037     5.12053204E+00   # chi^+_2
#    BR                NDA      ID1      ID2
     2.50608058E-01    2     1000022        24   # BR(chi^+_2 -> chi^0_1 W^+)
     2.72039125E-01    2     1000023        24   # BR(chi^+_2 -> chi^0_2 W^+)
     2.49433653E-01    2     1000024        23   # BR(chi^+_2 -> chi^+_1 Z)
     2.24803130E-01    2     1000024        25   # BR(chi^+_2 -> chi^+_1 h^0)
#    BR                NDA      ID1      ID2       ID3
     1.84676973E-04    3     1000024         6        -6   # BR(chi^+_2 -> chi^+_1 t t_bar)
     1.30994683E-03    3     1000022        -5         6   # BR(chi^+_2 -> chi^0_1 b_bar t)
     1.58092515E-03    3     1000023        -5         6   # BR(chi^+_2 -> chi^0_2 b_bar t)
DECAY   1000022     0.00000000E+00   # chi^0_1
DECAY   1000023     5.52827938E-07   # chi^0_2
#    BR                NDA      ID1      ID2
     2.87970018E-01    2     1000022        22   # BR(chi^0_2 -> chi^0_1 photon)
#    BR                NDA      ID1      ID2       ID3
     8.04191807E-02    3     1000022         2        -2   # BR(chi^0_2 -> chi^0_1 u u_bar)
     6.56457250E-02    3     1000022         4        -4   # BR(chi^0_2 -> chi^0_1 c c_bar)
     1.03113236E-01    3     1000022         1        -1   # BR(chi^0_2 -> chi^0_1 d d_bar)
     1.03011504E-01    3     1000022         3        -3   # BR(chi^0_2 -> chi^0_1 s s_bar)
     7.57162067E-03    3     1000022         5        -5   # BR(chi^0_2 -> chi^0_1 b b_bar)
     2.32697200E-02    3     1000022        11       -11   # BR(chi^0_2 -> chi^0_1 e^- e^+)
     2.32335617E-02    3     1000022        13       -13   # BR(chi^0_2 -> chi^0_1 mu^- mu^+)
     1.49848282E-02    3     1000022        15       -15   # BR(chi^0_2 -> chi^0_1 tau^- tau^+)
     1.37892280E-01    3     1000022        12       -12   # BR(chi^0_2 -> chi^0_1 nu_e nu_bar_e)
     2.80071758E-02    3     1000024         1        -2   # BR(chi^0_2 -> chi^+_1 d u_bar)
     2.80071758E-02    3    -1000024        -1         2   # BR(chi^0_2 -> chi^-_1 d_bar u)
     2.32558778E-02    3     1000024         3        -4   # BR(chi^0_2 -> chi^+_1 s c_bar)
     2.32558778E-02    3    -1000024        -3         4   # BR(chi^0_2 -> chi^-_1 s_bar c)
     9.33572309E-03    3     1000024        11       -12   # BR(chi^0_2 -> chi^+_1 e^- nu_bar_e)
     9.33572309E-03    3    -1000024       -11        12   # BR(chi^0_2 -> chi^-_1 e^+ nu_e)
     9.32337902E-03    3     1000024        13       -14   # BR(chi^0_2 -> chi^+_1 mu^- nu_bar_mu)
     9.32337902E-03    3    -1000024       -13        14   # BR(chi^0_2 -> chi^-_1 mu^+ nu_mu)
     6.52200718E-03    3     1000024        15       -16   # BR(chi^0_2 -> chi^+_1 tau^- nu_bar_tau)
     6.52200718E-03    3    -1000024       -15        16   # BR(chi^0_2 -> chi^-_1 tau^+ nu_tau)
DECAY   1000025     6.09973732E+00   # chi^0_3
#    BR                NDA      ID1      ID2
     2.21003663E-01    2     1000024       -24   # BR(chi^0_3 -> chi^+_1 W^-)
     2.21003663E-01    2    -1000024        24   # BR(chi^0_3 -> chi^-_1 W^+)
     4.39566834E-02    2     1000022        23   # BR(chi^0_3 -> chi^0_1 Z)
     1.81719499E-01    2     1000023        23   # BR(chi^0_3 -> chi^0_2 Z)
     1.42877487E-01    2     1000022        25   # BR(chi^0_3 -> chi^0_1 h^0)
     1.87101827E-01    2     1000023        25   # BR(chi^0_3 -> chi^0_2 h^0)
#    BR                NDA      ID1      ID2       ID3
     1.11149719E-03    3     1000024         5        -6   # BR(chi^0_3 -> chi^+_1 b t_bar)
     1.11149719E-03    3    -1000024        -5         6   # BR(chi^0_3 -> chi^-_1 b_bar t)
DECAY   1000035     8.63198817E+00   # chi^0_4
#    BR                NDA      ID1      ID2
     1.45187523E-01    2     1000024       -24   # BR(chi^0_4 -> chi^+_1 W^-)
     1.45187523E-01    2    -1000024        24   # BR(chi^0_4 -> chi^-_1 W^+)
     2.77446717E-03    2     1000037       -24   # BR(chi^0_4 -> chi^+_2 W^-)
     2.77446717E-03    2    -1000037        24   # BR(chi^0_4 -> chi^-_2 W^+)
     9.18244808E-02    2          37  -1000024   # BR(chi^0_4 -> H^+ chi^-_1)
     9.18244808E-02    2         -37   1000024   # BR(chi^0_4 -> H^- chi^+_1)
     5.24146189E-04    2          37  -1000037   # BR(chi^0_4 -> H^+ chi^-_2)
     5.24146189E-04    2         -37   1000037   # BR(chi^0_4 -> H^- chi^+_2)
     9.52307191E-02    2     1000022        23   # BR(chi^0_4 -> chi^0_1 Z)
     5.02477143E-02    2     1000023        23   # BR(chi^0_4 -> chi^0_2 Z)
     2.23900338E-03    2     1000025        23   # BR(chi^0_4 -> chi^0_3 Z)
     2.94898861E-02    2     1000022        36   # BR(chi^0_4 -> chi^0_1 A^0)
     3.34718129E-02    2     1000023        36   # BR(chi^0_4 -> chi^0_2 A^0)
     7.53910705E-02    2     1000022        25   # BR(chi^0_4 -> chi^0_1 h^0)
     9.48383870E-02    2     1000023        25   # BR(chi^0_4 -> chi^0_2 h^0)
     1.88080324E-03    2     1000025        25   # BR(chi^0_4 -> chi^0_3 h^0)
     6.49657628E-02    2     1000022        35   # BR(chi^0_4 -> chi^0_1 H^0)
     5.36792111E-02    2     1000023        35   # BR(chi^0_4 -> chi^0_2 H^0)
     4.68835496E-04    2     1000025        35   # BR(chi^0_4 -> chi^0_3 H^0)
#    BR                NDA      ID1      ID2       ID3
     3.14003267E-03    3     1000022         6        -6   # BR(chi^0_4 -> chi^0_1 t t_bar)
     3.36848955E-03    3     1000023         6        -6   # BR(chi^0_4 -> chi^0_2 t t_bar)
     5.33841135E-03    3     1000024         5        -6   # BR(chi^0_4 -> chi^+_1 b t_bar)
     5.33841135E-03    3    -1000024        -5         6   # BR(chi^0_4 -> chi^-_1 b_bar t)
DECAY   1000021     2.47031657E+02   # ~g
#    BR                NDA      ID1      ID2
     1.48729300E-01    2     1000006        -6   # BR(~g -> ~t_1 t_bar)
     1.48729300E-01    2    -1000006         6   # BR(~g -> ~t^*_1 t)
     1.55671546E-01    2     2000006        -6   # BR(~g -> ~t_2 t_bar)
     1.55671546E-01    2    -2000006         6   # BR(~g -> ~t^*_2 t)
     1.53403240E-01    2     1000005        -5   # BR(~g -> ~b_1 b_bar)
     1.53403240E-01    2    -1000005         5   # BR(~g -> ~b^*_1 b)
     4.20741590E-02    2     2000005        -5   # BR(~g -> ~b_2 b_bar)
     4.20741590E-02    2    -2000005         5   # BR(~g -> ~b^*_2 b)
#    BR                NDA      ID1      ID2       ID3
DECAY        25     4.22030044E-03   # Gamma(h0)
     2.24271529E-03   2        22        22   # BR(h0 -> photon photon)
     1.53542067E-03   2        22        23   # BR(h0 -> photon Z)
     2.97294180E-02   2        23        23   # BR(h0 -> Z Z)
     2.39596392E-01   2       -24        24   # BR(h0 -> W W)
     6.84097362E-02   2        21        21   # BR(h0 -> gluon gluon)
     5.08536067E-09   2       -11        11   # BR(h0 -> Electron electron)
     2.26206633E-04   2       -13        13   # BR(h0 -> Muon muon)
     6.52250427E-02   2       -15        15   # BR(h0 -> Tau tau)
     1.34955741E-07   2        -2         2   # BR(h0 -> Up up)
     2.61892939E-02   2        -4         4   # BR(h0 -> Charm charm)
     5.87786734E-07   2        -1         1   # BR(h0 -> Down down)
     2.12589790E-04   2        -3         3   # BR(h0 -> Strange strange)
     5.66632457E-01   2        -5         5   # BR(h0 -> Bottom bottom)
DECAY        35     7.57672928E+00   # Gamma(HH)
     1.77760341E-07   2        22        22   # BR(HH -> photon photon)
     3.03924498E-07   2        22        23   # BR(HH -> photon Z)
     2.80746108E-05   2        23        23   # BR(HH -> Z Z)
     4.62412784E-05   2       -24        24   # BR(HH -> W W)
     6.16102155E-05   2        21        21   # BR(HH -> gluon gluon)
     1.00257394E-08   2       -11        11   # BR(HH -> Electron electron)
     4.46214619E-04   2       -13        13   # BR(HH -> Muon muon)
     1.28843427E-01   2       -15        15   # BR(HH -> Tau tau)
     6.39296376E-13   2        -2         2   # BR(HH -> Up up)
     1.23968821E-07   2        -4         4   # BR(HH -> Charm charm)
     7.51616302E-03   2        -6         6   # BR(HH -> Top top)
     8.77290773E-07   2        -1         1   # BR(HH -> Down down)
     3.17313624E-04   2        -3         3   # BR(HH -> Strange strange)
     8.32723106E-01   2        -5         5   # BR(HH -> Bottom bottom)
     2.31415087E-02   2  -1000024   1000024   # BR(HH -> Chargino1 chargino1)
     5.07435122E-03   2   1000022   1000022   # BR(HH -> neutralino1 neutralino1)
     7.63009074E-04   2   1000022   1000023   # BR(HH -> neutralino1 neutralino2)
     7.67151708E-04   2   1000023   1000023   # BR(HH -> neutralino2 neutralino2)
     2.70335487E-04   2        25        25   # BR(HH -> h0 h0)
DECAY        36     7.61827648E+00   # Gamma(A0)
     2.39408666E-07   2        22        22   # BR(A0 -> photon photon)
     7.01908023E-07   2        22        23   # BR(A0 -> photon Z)
     1.27830389E-04   2        21        21   # BR(A0 -> gluon gluon)
     9.90308685E-09   2       -11        11   # BR(A0 -> Electron electron)
     4.40755599E-04   2       -13        13   # BR(A0 -> Muon muon)
     1.27269665E-01   2       -15        15   # BR(A0 -> Tau tau)
     5.99611318E-13   2        -2         2   # BR(A0 -> Up up)
     1.16181391E-07   2        -4         4   # BR(A0 -> Charm charm)
     8.69745597E-03   2        -6         6   # BR(A0 -> Top top)
     8.66562794E-07   2        -1         1   # BR(A0 -> Down down)
     3.13433417E-04   2        -3         3   # BR(A0 -> Strange strange)
     8.22576246E-01   2        -5         5   # BR(A0 -> Bottom bottom)
     3.21029463E-02   2  -1000024   1000024   # BR(A0 -> Chargino1 chargino1)
     6.24125189E-03   2   1000022   1000022   # BR(A0 -> neutralino1 neutralino1)
     8.01579244E-04   2   1000022   1000023   # BR(A0 -> neutralino1 neutralino2)
     1.38355514E-03   2   1000023   1000023   # BR(A0 -> neutralino2 neutralino2)
     4.33473693E-05   2        23        25   # BR(A0 -> Z h0)
     1.30012277E-34   2        25        25   # BR(A0 -> h0 h0)
DECAY        37     6.53527010E+00   # Gamma(Hp)
     1.19274047E-08   2       -11        12   # BR(Hp -> Electron nu_e)
     5.09933787E-04   2       -13        14   # BR(Hp -> Muon nu_mu)
     1.44237022E-01   2       -15        16   # BR(Hp -> Tau nu_tau)
     9.05505465E-07   2        -1         2   # BR(Hp -> Down up)
     1.50314997E-05   2        -3         2   # BR(Hp -> Strange up)
     9.45648328E-06   2        -5         2   # BR(Hp -> Bottom up)
     4.75565414E-08   2        -1         4   # BR(Hp -> Down charm)
     3.26441492E-04   2        -3         4   # BR(Hp -> Strange charm)
     1.32424030E-03   2        -5         4   # BR(Hp -> Bottom charm)
     5.99875237E-07   2        -1         6   # BR(Hp -> Down top)
     1.35156465E-05   2        -3         6   # BR(Hp -> Strange top)
     8.43100418E-01   2        -5         6   # BR(Hp -> Bottom top)
     1.98170825E-03   2   1000022   1000024   # BR(Hp -> neutralino1 chargino1)
     8.42842476E-03   2   1000023   1000024   # BR(Hp -> neutralino2 chargino1)
     5.22393648E-05   2        24        25   # BR(Hp -> W h0)
     1.72767800E-09   2        24        35   # BR(Hp -> W HH)
     1.78306407E-09   2        24        36   # BR(Hp -> W A0)
DECAY         6     2.43000000E+00   # top
#    BR                NDA      ID1      ID2
     1.00000000E+00    2           5        24   # BR(t -> b W)
Block HiggsBoundsInputHiggsCouplingsFermions
# ScalarNormEffCoupSq PseudoSNormEffCoupSq NP IP1 IP2 IP2
    9.91572278E-01    0.00000000E+00        3  25   5   5  # h0-b-b eff. coupling^2, normalised to SM
    5.32401226E+02    0.00000000E+00        3  35   5   5  # H0-b-b eff. coupling^2, normalised to SM
    0.00000000E+00    5.32392798E+02        3  36   5   5  # A0-b-b eff. coupling^2, normalised to SM
#
    1.00001583E+00    0.00000000E+00        3  25   6   6  # h0-t-t eff. coupling^2, normalised to SM
    1.86248251E-03    0.00000000E+00        3  35   6   6  # H0-t-t eff. coupling^2, normalised to SM
    0.00000000E+00    1.87831241E-03        3  36   6   6  # A0-t-t eff. coupling^2, normalised to SM
#
    9.91572278E-01    0.00000000E+00        3  25  15  15  # h0-tau-tau eff. coupling^2, normalised to SM
    5.32401226E+02    0.00000000E+00        3  35  15  15  # H0-tau-tau eff. coupling^2, normalised to SM
    0.00000000E+00    5.32392798E+02        3  36  15  15  # A0-tau-tau eff. coupling^2, normalised to SM
#
Block HiggsBoundsInputHiggsCouplingsBosons
    9.99999967E-01        3  25  24  24  # h0-W-W eff. coupling^2, normalised to SM
    3.34935117E-08        3  35  24  24  # H0-W-W eff. coupling^2, normalised to SM
    0.00000000E+00        3  36  24  24  # A0-W-W eff. coupling^2, normalised to SM
#
    9.99999967E-01        3  25  23  23  # h0-Z-Z eff. coupling^2, normalised to SM
    3.34935117E-08        3  35  23  23  # H0-Z-Z eff. coupling^2, normalised to SM
    0.00000000E+00        3  36  23  23  # A0-Z-Z eff. coupling^2, normalised to SM
#
    1.25356144E+00        3  25  21  21  # h0-g-g eff. coupling^2, normalised to SM
    8.94155424E-03        3  35  21  21  # H0-g-g eff. coupling^2, normalised to SM
    1.14405197E-01        3  36  21  21  # A0-g-g eff. coupling^2, normalised to SM
#
    0.00000000E+00        3  25  25  23  # h0-h0-Z eff. coupling^2, normalised to SM
    0.00000000E+00        3  35  25  23  # H0-h0-Z eff. coupling^2, normalised to SM
    3.34935117E-08        3  36  25  23  # A0-h0-Z eff. coupling^2, normalised to SM
    0.00000000E+00        3  35  35  23  # H0-H0-Z eff. coupling^2, normalised to SM
    9.99999967E-01        3  36  35  23  # A0-H0-Z eff. coupling^2, normalised to SM
    0.00000000E+00        3  36  36  23  # A0-A0-Z eff. coupling^2, normalised to SM
#
    0.00000000E+00        4  25  21  21  23  # h0-g-g-Z eff. coupling^2, normalised to SM
    0.00000000E+00        4  35  21  21  23  # H0-g-g-Z eff. coupling^2, normalised to SM
    0.00000000E+00        4  36  21  21  23  # A0-g-g-Z eff. coupling^2, normalised to SM
Block SPhenoLowEnergy  # low energy observables
    1    3.78596107E-04   # BR(b -> s gamma)
    2    1.58774280E-06   # BR(b -> s mu+ mu-)
    3    3.52607707E-05   # BR(b -> s nu nu)
    4    1.99406908E-15   # BR(Bd -> e+ e-)
    5    8.51842569E-11   # BR(Bd -> mu+ mu-)
    6    1.78260349E-08   # BR(Bd -> tau+ tau-)
    7    6.72749473E-14   # BR(Bs -> e+ e-)
    8    2.87397997E-09   # BR(Bs -> mu+ mu-)
    9    6.09380929E-07   # BR(Bs -> tau+ tau-)
   10    9.15923812E-05   # BR(B_u -> tau nu)
   11    9.46114232E-01   # BR(B_u -> tau nu)/BR(B_u -> tau nu)_SM
   12    5.42151725E-01   # |Delta(M_Bd)| [ps^-1] 
   13    1.93480901E+01   # |Delta(M_Bs)| [ps^-1] 
   14    0.00000000E+00   # neutron EDM according to the chiral quark model
   15    0.00000000E+00   # neutron EDM according to the relativistic quark-parton model
   16    2.15841198E-03   # epsilon_K
   17    2.28167507E-15   # Delta(M_K)
   18    2.48030162E-11   # BR(K^0 -> pi^0 nu nu)
   19    8.29126035E-11   # BR(K^+ -> pi^+ nu nu)
   20   -2.15408390E-16   # Delta(g-2)_electron/2
   21   -9.20941071E-12   # Delta(g-2)_muon/2
   22   -2.60716465E-09   # Delta(g-2)_tau/2
   23    0.00000000E+00   # electric dipole moment of the electron
   24    0.00000000E+00   # electric dipole moment of the muon
   25    0.00000000E+00   # electric dipole moment of the tau
   26    0.00000000E+00   # Br(mu -> e gamma)
   27    0.00000000E+00   # Br(tau -> e gamma)
   28    0.00000000E+00   # Br(tau -> mu gamma)
   29    0.00000000E+00   # Br(mu -> 3 e)
   30    0.00000000E+00   # Br(tau -> 3 e)
   31    0.00000000E+00   # Br(tau -> 3 mu)
   39    5.76272333E-05   # Delta(rho_parameter)
   40    0.00000000E+00   # BR(Z -> e mu)
   41    0.00000000E+00   # BR(Z -> e tau)
   42    0.00000000E+00   # BR(Z -> mu tau)
Block FWCOEF Q=  1.60000000E+02  # Wilson coefficients at scale Q
#    id        order  M        value         comment
     0305 4422   00   0    -1.88819110E-01   # C7
     0305 4422   00   2    -2.48119870E-01   # C7
     0305 4322   00   2    -9.84059149E-04   # C7'
     0305 6421   00   0    -9.52278348E-02   # C8
     0305 6421   00   2    -1.54489242E-01   # C8
     0305 6321   00   2    -1.06926783E-03   # C8'
 03051111 4133   00   0     1.61211968E+00   # C9 e+e-
 03051111 4133   00   2     1.61257456E+00   # C9 e+e-
 03051111 4233   00   2     4.18437366E-05   # C9' e+e-
 03051111 4137   00   0    -4.43481178E+00   # C10 e+e-
 03051111 4137   00   2    -4.43395390E+00   # C10 e+e-
 03051111 4237   00   2    -3.15658259E-04   # C10' e+e-
 03051313 4133   00   0     1.61211968E+00   # C9 mu+mu-
 03051313 4133   00   2     1.61257450E+00   # C9 mu+mu-
 03051313 4233   00   2     4.18402255E-05   # C9' mu+mu-
 03051313 4137   00   0    -4.43481178E+00   # C10 mu+mu-
 03051313 4137   00   2    -4.43395395E+00   # C10 mu+mu-
 03051313 4237   00   2    -3.15654799E-04   # C10' mu+mu-
 03051212 4137   00   0     1.50535012E+00   # C11 nu_1 nu_1
 03051212 4137   00   2     1.50516564E+00   # C11 nu_1 nu_1
 03051212 4237   00   2     6.84811674E-05   # C11' nu_1 nu_1
 03051414 4137   00   0     1.50535012E+00   # C11 nu_2 nu_2
 03051414 4137   00   2     1.50516564E+00   # C11 nu_2 nu_2
 03051414 4237   00   2     6.84819266E-05   # C11' nu_2 nu_2
 03051616 4137   00   0     1.50535012E+00   # C11 nu_3 nu_3
 03051616 4137   00   2     1.50516564E+00   # C11 nu_3 nu_3
 03051616 4237   00   2     6.86958613E-05   # C11' nu_3 nu_3
Block IMFWCOEF Q=  1.60000000E+02  # Im(Wilson coefficients) at scale Q
#    id        order  M        value         comment
     0305 4422   00   0     3.85810003E-07   # C7
     0305 4422   00   2    -6.65639644E-06   # C7
     0305 4322   00   2    -1.27469599E-06   # C7'
     0305 6421   00   0     3.30471782E-07   # C8
     0305 6421   00   2     2.17045752E-06   # C8
     0305 6321   00   2    -4.24226681E-07   # C8'
 03051111 4133   00   2     4.14353469E-07   # C9 e+e-
 03051111 4233   00   2     2.49438612E-06   # C9' e+e-
 03051111 4137   00   2     1.91705260E-06   # C10 e+e-
 03051111 4237   00   2    -1.88520843E-05   # C10' e+e-
 03051313 4133   00   2     4.14352213E-07   # C9 mu+mu-
 03051313 4233   00   2     2.49438589E-06   # C9' mu+mu-
 03051313 4137   00   2     1.91705373E-06   # C10 mu+mu-
 03051313 4237   00   2    -1.88520850E-05   # C10' mu+mu-
 03051212 4137   00   2    -3.86670110E-07   # C11 nu_1 nu_1
 03051212 4237   00   2     4.08991776E-06   # C11' nu_1 nu_1
 03051414 4137   00   2    -3.86670053E-07   # C11 nu_2 nu_2
 03051414 4237   00   2     4.08991776E-06   # C11' nu_2 nu_2
 03051616 4137   00   2    -3.86653784E-07   # C11 nu_3 nu_3
 03051616 4237   00   2     4.08991776E-06   # C11' nu_3 nu_3
