#
#                              ======================
#                              | THE SUSYHIT OUTPUT |
#                              ======================
#
#
#              ------------------------------------------------------
#              |     This is the output of the SUSY-HIT package     |
#              |  created by A.Djouadi, M.Muehlleitner and M.Spira. |
#              |  In case of problems with SUSY-HIT email to        |
#              |           margarete.muehlleitner@cern.ch           |
#              |           michael.spira@psi.ch                     |
#              |           abdelhak.djouadi@cern.ch                 |
#              ------------------------------------------------------
#
#              ------------------------------------------------------
#              |  SUSY Les Houches Accord - MSSM Spectrum + Decays  |
#              |              based on the decay programs           |
#              |                                                    |
#              |                     SDECAY 1.3b                    |
#              |                                                    |
#              |  Authors: M.Muhlleitner, A.Djouadi and Y.Mambrini  |
#              |  Ref.:    Comput.Phys.Commun.168(2005)46           |
#              |           [hep-ph/0311167]                         |
#              |                                                    |
#              |                     HDECAY 3.4                     |
#              |                                                    |
#              |  By: A.Djouadi,J.Kalinowski,M.Muhlleitner,M.Spira  |
#              |  Ref.:    Comput.Phys.Commun.108(1998)56           |
#              |           [hep-ph/9704448]                         |
#              |                                                    |
#              |                                                    |
#              |  If not stated otherwise all DRbar couplings and   |
#              |  soft SUSY breaking masses are given at the scale  |
#              |  Q=  0.27600150E+04
#              |                                                    |
#              ------------------------------------------------------
#
#
BLOCK DCINFO  # Decay Program information
     1   SDECAY/HDECAY # decay calculator
     2   1.3b  /3.4    # version number
#
BLOCK SPINFO  # Spectrum calculator information
     1     SOFTSUSY    # spectrum calculator               
     2     3.4.0       # version number                    
#
BLOCK MODSEL  # Model selection
     1     0   #  nonUniversal                                     
#
BLOCK SMINPUTS  # Standard Model inputs
         1     1.27908970E+02   # alpha_em^-1(M_Z)^MSbar
         2     1.16637870E-05   # G_F [GeV^-2]
         3     1.18400000E-01   # alpha_S(M_Z)^MSbar
         4     9.11876000E+01   # M_Z pole mass
         5     4.18000000E+00   # mb(mb)^MSbar
         6     1.73200000E+02   # mt pole mass
         7     1.77700000E+00   # mtau pole mass
#
BLOCK MINPAR  # Input parameters - minimal models
         3     2.68900000E+01   # tanb                
#
BLOCK EXTPAR  # Input parameters - non-minimal models
         0    -1.00000000E+00   # Set                 
         1     1.61790000E+02   # M_1(MX)             
         2    -7.25960000E+02   # M_2(MX)             
         3     2.52989000E+03   # M_3(MX)             
        11     3.56788000E+03   # At(MX)              
        12     3.73934000E+03   # Ab(MX)              
        13     2.94534000E+03   # Atau(MX)            
        23    -1.67690000E+02   # mu(MX)              
        26     2.51148000E+03   # mA(pole)            
        31     3.63352000E+03   # meL(MX)             
        32     3.63352000E+03   # mmuL(MX)            
        33     1.76543000E+03   # mtauL(MX)           
        34     3.00853000E+03   # meR(MX)             
        35     3.00853000E+03   # mmuR(MX)            
        36     2.40307000E+03   # mtauR(MX)           
        41     3.88971000E+03   # mqL1(MX)            
        42     3.88971000E+03   # mqL2(MX)            
        43     3.17213000E+03   # mqL3(MX)            
        44     5.53700000E+02   # muR(MX)             
        45     5.53700000E+02   # mcR(MX)             
        46     2.40072000E+03   # mtR(MX)             
        47     3.09024000E+03   # mdR(MX)             
        48     3.09024000E+03   # msR(MX)             
        49     3.66870000E+02   # mbR(MX)             
#
BLOCK MASS  # Mass Spectrum
# PDG code           mass       particle
        24     8.03965128E+01   # W+
        25     1.27482944E+02   # h
        35     2.51149150E+03   # H
        36     2.51148001E+03   # A
        37     2.51301970E+03   # H+
         5     4.81876030E+00   # b-quark pole mass calculated from mb(mb)_Msbar
   1000001     3.95256070E+03   # ~d_L
   2000001     3.16374332E+03   # ~d_R
   1000002     3.95190361E+03   # ~u_L
   2000002     7.75894023E+02   # ~u_R
   1000003     3.95256070E+03   # ~s_L
   2000003     3.16374332E+03   # ~s_R
   1000004     3.95190361E+03   # ~c_L
   2000004     7.75894023E+02   # ~c_R
   1000005     6.20549465E+02   # ~b_1
   2000005     3.20264268E+03   # ~b_2
   1000006     2.43257503E+03   # ~t_1
   2000006     3.21320559E+03   # ~t_2
   1000011     3.64174485E+03   # ~e_L
   2000011     3.00995980E+03   # ~e_R
   1000012     3.64055068E+03   # ~nu_eL
   1000013     3.64174485E+03   # ~mu_L
   2000013     3.00995980E+03   # ~mu_R
   1000014     3.64055068E+03   # ~nu_muL
   1000015     1.76932592E+03   # ~tau_1
   2000015     2.39754118E+03   # ~tau_2
   1000016     1.76725005E+03   # ~nu_tauL
   1000021     2.71582266E+03   # ~g
   1000022     1.39522463E+02   # ~chi_10
   1000023    -1.73133781E+02   # ~chi_20
   1000025     2.01765771E+02   # ~chi_30
   1000035    -7.74663709E+02   # ~chi_40
   1000024     1.73471893E+02   # ~chi_1+
   1000037     7.74856612E+02   # ~chi_2+
#
BLOCK NMIX  # Neutralino Mixing Matrix
  1  1    -7.91125779E-01   # N_11
  1  2    -3.15148442E-02   # N_12
  1  3     4.81707537E-01   # N_13
  1  4     3.75612387E-01   # N_14
  2  1    -9.54038092E-02   # N_21
  2  2    -9.66982868E-02   # N_22
  2  3    -7.05434850E-01   # N_23
  2  4     6.95635844E-01   # N_24
  3  1     6.04144689E-01   # N_31
  3  2    -4.79437072E-02   # N_32
  3  3     5.19150584E-01   # N_33
  3  4     6.02655180E-01   # N_34
  4  1    -5.22579265E-03   # N_41
  4  2     9.93658723E-01   # N_42
  4  3    -2.83230039E-02   # N_43
  4  4     1.08686897E-01   # N_44
#
BLOCK UMIX  # Chargino Mixing Matrix U
  1  1     4.01146790E-02   # U_11
  1  2     9.99195082E-01   # U_12
  2  1    -9.99195082E-01   # U_21
  2  2     4.01146790E-02   # U_22
#
BLOCK VMIX  # Chargino Mixing Matrix V
  1  1    -1.54125452E-01   # V_11
  1  2    -9.88051287E-01   # V_12
  2  1     9.88051287E-01   # V_21
  2  2    -1.54125452E-01   # V_22
#
BLOCK STOPMIX  # Stop Mixing Matrix
  1  1    -1.08838064E-01   # cos(theta_t)
  1  2     9.94059493E-01   # sin(theta_t)
  2  1    -9.94059493E-01   # -sin(theta_t)
  2  2    -1.08838064E-01   # cos(theta_t)
#
BLOCK SBOTMIX  # Sbottom Mixing Matrix
  1  1    -1.95220036E-03   # cos(theta_b)
  1  2     9.99998094E-01   # sin(theta_b)
  2  1    -9.99998094E-01   # -sin(theta_b)
  2  2    -1.95220036E-03   # cos(theta_b)
#
BLOCK STAUMIX  # Stau Mixing Matrix
  1  1     9.99987520E-01   # cos(theta_tau)
  1  2    -4.99598281E-03   # sin(theta_tau)
  2  1     4.99598281E-03   # -sin(theta_tau)
  2  2     9.99987520E-01   # cos(theta_tau)
#
BLOCK ALPHA  # Higgs mixing
          -3.87649294E-02   # Mixing angle in the neutral Higgs boson sector
#
BLOCK HMIX Q=  2.76001500E+03  # DRbar Higgs Parameters
         1    -1.71033600E+02   # mu(Q)MSSM           
         2     2.58827358E+01   # tan                 
         3     2.41356517E+02   # higgs               
         4     6.39676336E+06   # mA^2(Q)MSSM         
#
BLOCK GAUGE Q=  2.76001500E+03  # The gauge couplings
     1     3.65160322E-01   # gprime(Q) DRbar
     2     6.40080650E-01   # g(Q) DRbar
     3     1.01536548E+00   # g3(Q) DRbar
#
BLOCK AU Q=  2.76001500E+03  # The trilinear couplings
  1  1     0.00000000E+00   # A_u(Q) DRbar
  2  2     0.00000000E+00   # A_c(Q) DRbar
  3  3     3.56788001E+03   # A_t(Q) DRbar
#
BLOCK AD Q=  2.76001500E+03  # The trilinear couplings
  1  1     0.00000000E+00   # A_d(Q) DRbar
  2  2     0.00000000E+00   # A_s(Q) DRbar
  3  3     3.73934001E+03   # A_b(Q) DRbar
#
BLOCK AE Q=  2.76001500E+03  # The trilinear couplings
  1  1     0.00000000E+00   # A_e(Q) DRbar
  2  2     0.00000000E+00   # A_mu(Q) DRbar
  3  3     2.94534000E+03   # A_tau(Q) DRbar
#
BLOCK Yu Q=  2.76001500E+03  # The Yukawa couplings
  1  1     0.00000000E+00   # y_u(Q) DRbar
  2  2     0.00000000E+00   # y_c(Q) DRbar
  3  3     8.41579610E-01   # y_t(Q) DRbar
#
BLOCK Yd Q=  2.76001500E+03  # The Yukawa couplings
  1  1     0.00000000E+00   # y_d(Q) DRbar
  2  2     0.00000000E+00   # y_s(Q) DRbar
  3  3     3.65397003E-01   # y_b(Q) DRbar
#
BLOCK Ye Q=  2.76001500E+03  # The Yukawa couplings
  1  1     0.00000000E+00   # y_e(Q) DRbar
  2  2     0.00000000E+00   # y_mu(Q) DRbar
  3  3     2.67212682E-01   # y_tau(Q) DRbar
#
BLOCK MSOFT Q=  2.76001500E+03  # The soft SUSY breaking masses at the scale Q
         1     1.61790000E+02   # M_1(Q)              
         2    -7.25960000E+02   # M_2(Q)              
         3     2.52989000E+03   # M_3(Q)              
        21     6.35064273E+06   # mH1^2(Q)            
        22     1.49438633E+05   # mH2^2(Q)            
        31     3.63352000E+03   # meL(Q)              
        32     3.63352000E+03   # mmuL(Q)             
        33     1.76543000E+03   # mtauL(Q)            
        34     3.00853000E+03   # meR(Q)              
        35     3.00853000E+03   # mmuR(Q)             
        36     2.40307000E+03   # mtauR(Q)            
        41     3.88971000E+03   # mqL1(Q)             
        42     3.88971000E+03   # mqL2(Q)             
        43     3.17212999E+03   # mqL3(Q)             
        44     5.53699970E+02   # muR(Q)              
        45     5.53699970E+02   # mcR(Q)              
        46     2.40071999E+03   # mtR(Q)              
        47     3.09023999E+03   # mdR(Q)              
        48     3.09023999E+03   # msR(Q)              
        49     3.66869962E+02   # mbR(Q)              
#
Block HiggsBoundsInputHiggsCouplingsFermions
# ScalarNormEffCoupSq PseudoSNormEffCoupSq NP   IP1 IP2 IP2
    1.00769383E+00    0.00000000E+00        3  25   5   5  # h0-b-b eff. coupling^2, normalised to SM
    6.69908319E+02    0.00000000E+00        3  35   5   5  # H0-b-b eff. coupling^2, normalised to SM
    0.00000000E+00    6.69916012E+02        3  36   5   5  # A0-b-b eff. coupling^2, normalised to SM
#
    9.99988515E-01    0.00000000E+00        3  25   6   6  # h0-t-t eff. coupling^2, normalised to SM
    1.50420920E-03    0.00000000E+00        3  35   6   6  # H0-t-t eff. coupling^2, normalised to SM
    0.00000000E+00    1.49272443E-03        3  36   6   6  # A0-t-t eff. coupling^2, normalised to SM
#
    1.00769383E+00    0.00000000E+00        3  25  15  15  # h0-tau-tau eff. coupling^2, normalised to SM
    6.69908319E+02    0.00000000E+00        3  35  15  15  # H0-tau-tau eff. coupling^2, normalised to SM
    0.00000000E+00    6.69916012E+02        3  36  15  15  # A0-tau-tau eff. coupling^2, normalised to SM
#
Block HiggsBoundsInputHiggsCouplingsBosons
    9.99999978E-01        3  25  24  24  # h0-W-W eff. coupling^2, normalised to SM
    2.20060229E-08        3  35  24  24  # H0-W-W eff. coupling^2, normalised to SM
    0.00000000E+00        3  36  24  24  # A0-W-W eff. coupling^2, normalised to SM
#
    9.99999978E-01        3  25  23  23  # h0-Z-Z eff. coupling^2, normalised to SM
    2.20060229E-08        3  35  23  23  # H0-Z-Z eff. coupling^2, normalised to SM
    0.00000000E+00        3  36  23  23  # A0-Z-Z eff. coupling^2, normalised to SM
#
    8.85824163E-01        3  25  21  21  # h0-g-g eff. coupling^2, normalised to SM
    5.75779945E-13        3  35  21  21  # H0-g-g eff. coupling^2, normalised to SM
    1.01800991E-11        3  36  21  21  # A0-g-g eff. coupling^2, normalised to SM
#
    0.00000000E+00        3  25  25  23  # h0-h0-Z eff. coupling^2, normalised to SM
    0.00000000E+00        3  35  25  23  # H0-h0-Z eff. coupling^2, normalised to SM
    2.20060229E-08        3  36  25  23  # A0-h0-Z eff. coupling^2, normalised to SM
    0.00000000E+00        3  35  35  23  # H0-H0-Z eff. coupling^2, normalised to SM
    9.99999978E-01        3  36  35  23  # A0-H0-Z eff. coupling^2, normalised to SM
    0.00000000E+00        3  36  36  23  # A0-A0-Z eff. coupling^2, normalised to SM
#
    0.00000000E+00        4  25  21  21  23  # h0-g-g-Z eff. coupling^2, normalised to SM
    0.00000000E+00        4  35  21  21  23  # H0-g-g-Z eff. coupling^2, normalised to SM
    0.00000000E+00        4  36  21  21  23  # A0-g-g-Z eff. coupling^2, normalised to SM
#
#
#
#                             =================
#                             |The decay table|
#                             =================
#
# - The QCD corrections to the decays gluino -> squark  + quark
#                                     squark -> gaugino + quark_prime
#                                     squark -> squark_prime + Higgs
#                                     squark -> gluino  + quark
#   are included.
#
# - The multi-body decays for the inos, stops and sbottoms are included.
#
# - The loop induced decays for the gluino, neutralinos and stops
#   are included.
#
# - The SUSY decays of the top quark are included.
#
#
#         PDG            Width
DECAY         6     1.44261801E+00   # top decays
#          BR         NDA      ID1       ID2
     1.00000000E+00    2           5        24   # BR(t ->  b    W+)
#
#         PDG            Width
DECAY   1000021     1.39628286E+02   # gluino decays
#          BR         NDA      ID1       ID2
     1.59808812E-01    2     2000002        -2   # BR(~g -> ~u_R  ub)
     1.59808812E-01    2    -2000002         2   # BR(~g -> ~u_R* u )
     1.59808801E-01    2     2000004        -4   # BR(~g -> ~c_R  cb)
     1.59808801E-01    2    -2000004         4   # BR(~g -> ~c_R* c )
     1.73272672E-01    2     1000005        -5   # BR(~g -> ~b_1  bb)
     1.73272672E-01    2    -1000005         5   # BR(~g -> ~b_1* b )
     7.10971444E-03    2     1000006        -6   # BR(~g -> ~t_1  tb)
     7.10971444E-03    2    -1000006         6   # BR(~g -> ~t_1* t )
#
#         PDG            Width
DECAY   1000006     7.30817450E+01   # stop1 decays
#          BR         NDA      ID1       ID2
     1.03568034E-01    2     1000022         6   # BR(~t_1 -> ~chi_10 t )
     2.24409624E-01    2     1000023         6   # BR(~t_1 -> ~chi_20 t )
     2.08555536E-01    2     1000025         6   # BR(~t_1 -> ~chi_30 t )
     9.49363632E-04    2     1000035         6   # BR(~t_1 -> ~chi_40 t )
     4.60580210E-01    2     1000024         5   # BR(~t_1 -> ~chi_1+ b )
     1.93266941E-03    2     1000037         5   # BR(~t_1 -> ~chi_2+ b )
     4.56340329E-06    2     1000005        24   # BR(~t_1 -> ~b_1    W+)
#
#         PDG            Width
DECAY   2000006     1.25708931E+02   # stop2 decays
#          BR         NDA      ID1       ID2
     6.07676622E-02    2     1000022         6   # BR(~t_2 -> ~chi_10 t )
     1.72433444E-01    2     1000023         6   # BR(~t_2 -> ~chi_20 t )
     1.19668511E-01    2     1000025         6   # BR(~t_2 -> ~chi_30 t )
     9.81774498E-02    2     1000035         6   # BR(~t_2 -> ~chi_40 t )
     6.66202526E-02    2     1000024         5   # BR(~t_2 -> ~chi_1+ b )
     1.86484205E-01    2     1000037         5   # BR(~t_2 -> ~chi_2+ b )
     1.13159959E-01    2     1000021         6   # BR(~t_2 -> ~g      t )
     8.94053903E-02    2     1000006        25   # BR(~t_2 -> ~t_1    h )
     1.63015485E-02    2     1000005        37   # BR(~t_2 -> ~b_1    H+)
     7.64236452E-02    2     1000006        23   # BR(~t_2 -> ~t_1    Z )
     5.57932370E-04    2     1000005        24   # BR(~t_2 -> ~b_1    W+)
#
#         PDG            Width
DECAY   1000005     2.86424921E+00   # sbottom1 decays
#          BR         NDA      ID1       ID2
     1.93601497E-01    2     1000022         5   # BR(~b_1 -> ~chi_10 b )
     2.44694842E-01    2     1000023         5   # BR(~b_1 -> ~chi_20 b )
     1.60078384E-01    2     1000025         5   # BR(~b_1 -> ~chi_30 b )
     4.01625277E-01    2    -1000024         6   # BR(~b_1 -> ~chi_1- t )
#
#         PDG            Width
DECAY   2000005     1.22338538E+02   # sbottom2 decays
#          BR         NDA      ID1       ID2
     1.75106856E-02    2     1000022         5   # BR(~b_2 -> ~chi_10 b )
     3.50443444E-02    2     1000023         5   # BR(~b_2 -> ~chi_20 b )
     2.14639160E-02    2     1000025         5   # BR(~b_2 -> ~chi_30 b )
     9.36206220E-02    2     1000035         5   # BR(~b_2 -> ~chi_40 b )
     3.56081647E-01    2    -1000024         6   # BR(~b_2 -> ~chi_1- t )
     1.97430425E-01    2    -1000037         6   # BR(~b_2 -> ~chi_2- t )
     1.12979715E-01    2     1000021         5   # BR(~b_2 -> ~g      b )
     3.24485237E-04    2     1000005        25   # BR(~b_2 -> ~b_1    h )
     7.94752461E-03    2     1000005        35   # BR(~b_2 -> ~b_1    H )
     7.94845573E-03    2     1000005        36   # BR(~b_2 -> ~b_1    A )
     2.95531293E-04    2     1000005        23   # BR(~b_2 -> ~b_1    Z )
     1.49352648E-01    2     1000006       -24   # BR(~b_2 -> ~t_1    W-)
#
#         PDG            Width
DECAY   1000002     1.26510810E+02   # sup_L decays
#          BR         NDA      ID1       ID2
     4.01984023E-03    2     1000022         2   # BR(~u_L -> ~chi_10 u)
     1.59939675E-03    2     1000023         2   # BR(~u_L -> ~chi_20 u)
     5.42805588E-04    2     1000025         2   # BR(~u_L -> ~chi_30 u)
     1.11252493E-01    2     1000035         2   # BR(~u_L -> ~chi_40 u)
     5.76153398E-03    2     1000024         1   # BR(~u_L -> ~chi_1+ d)
     2.20432900E-01    2     1000037         1   # BR(~u_L -> ~chi_2+ d)
     6.56391030E-01    2     1000021         2   # BR(~u_L -> ~g      u)
#
#         PDG            Width
DECAY   2000002     1.73806720E+00   # sup_R decays
#          BR         NDA      ID1       ID2
     6.42806933E-01    2     1000022         2   # BR(~u_R -> ~chi_10 u)
     9.01609789E-03    2     1000023         2   # BR(~u_R -> ~chi_20 u)
     3.48176969E-01    2     1000025         2   # BR(~u_R -> ~chi_30 u)
     3.67632039E-10    2     1000035         2   # BR(~u_R -> ~chi_40 u)
#
#         PDG            Width
DECAY   1000001     1.26530736E+02   # sdown_L decays
#          BR         NDA      ID1       ID2
     1.71729149E-03    2     1000022         1   # BR(~d_L -> ~chi_10 d)
     7.48393077E-04    2     1000023         1   # BR(~d_L -> ~chi_20 d)
     3.21154619E-03    2     1000025         1   # BR(~d_L -> ~chi_30 d)
     1.11702854E-01    2     1000035         1   # BR(~d_L -> ~chi_40 d)
     3.90303643E-04    2    -1000024         2   # BR(~d_L -> ~chi_1- u)
     2.25442187E-01    2    -1000037         2   # BR(~d_L -> ~chi_2- u)
     6.56787425E-01    2     1000021         1   # BR(~d_L -> ~g      d)
#
#         PDG            Width
DECAY   2000001     1.82891259E+01   # sdown_R decays
#          BR         NDA      ID1       ID2
     6.04457381E-02    2     1000022         1   # BR(~d_R -> ~chi_10 d)
     8.77411463E-04    2     1000023         1   # BR(~d_R -> ~chi_20 d)
     3.51165682E-02    2     1000025         1   # BR(~d_R -> ~chi_30 d)
     2.34952881E-06    2     1000035         1   # BR(~d_R -> ~chi_40 d)
     9.03557933E-01    2     1000021         1   # BR(~d_R -> ~g      d)
#
#         PDG            Width
DECAY   1000004     1.05522900E+02   # scharm_L decays
#          BR         NDA      ID1       ID2
     5.04068100E-03    2     1000022         4   # BR(~c_L -> ~chi_10 c)
     2.00517109E-03    2     1000023         4   # BR(~c_L -> ~chi_20 c)
     6.80406130E-04    2     1000025         4   # BR(~c_L -> ~chi_30 c)
     1.39059526E-01    2     1000035         4   # BR(~c_L -> ~chi_40 c)
     7.22324987E-03    2     1000024         3   # BR(~c_L -> ~chi_1+ s)
     2.75528916E-01    2     1000037         3   # BR(~c_L -> ~chi_2+ s)
     5.70462050E-01    2     1000021         4   # BR(~c_L -> ~g      c)
#
#         PDG            Width
DECAY   2000004     1.66777067E+00   # scharm_R decays
#          BR         NDA      ID1       ID2
     6.42908628E-01    2     1000022         4   # BR(~c_R -> ~chi_10 c)
     9.01524609E-03    2     1000023         4   # BR(~c_R -> ~chi_20 c)
     3.48076126E-01    2     1000025         4   # BR(~c_R -> ~chi_30 c)
#
#         PDG            Width
DECAY   1000003     1.05521028E+02   # sstrange_L decays
#          BR         NDA      ID1       ID2
     2.15376574E-03    2     1000022         3   # BR(~s_L -> ~chi_10 s)
     9.38423850E-04    2     1000023         3   # BR(~s_L -> ~chi_20 s)
     4.02635580E-03    2     1000025         3   # BR(~s_L -> ~chi_30 s)
     1.39646385E-01    2     1000035         3   # BR(~s_L -> ~chi_40 s)
     4.89407882E-04    2    -1000024         4   # BR(~s_L -> ~chi_1- c)
     2.81838402E-01    2    -1000037         4   # BR(~s_L -> ~chi_2- c)
     5.70907259E-01    2     1000021         3   # BR(~s_L -> ~g      s)
#
#         PDG            Width
DECAY   2000003     1.38341954E+01   # sstrange_R decays
#          BR         NDA      ID1       ID2
     8.40489483E-02    2     1000022         3   # BR(~s_R -> ~chi_10 s)
     1.21971523E-03    2     1000023         3   # BR(~s_R -> ~chi_20 s)
     4.88061050E-02    2     1000025         3   # BR(~s_R -> ~chi_30 s)
     3.25337370E-06    2     1000035         3   # BR(~s_R -> ~chi_40 s)
     8.65921978E-01    2     1000021         3   # BR(~s_R -> ~g      s)
#
#         PDG            Width
DECAY   1000011     4.54241519E+01   # selectron_L decays
#          BR         NDA      ID1       ID2
     7.59507344E-02    2     1000022        11   # BR(~e_L -> ~chi_10 e-)
     7.42850223E-03    2     1000023        11   # BR(~e_L -> ~chi_20 e-)
     2.85892211E-02    2     1000025        11   # BR(~e_L -> ~chi_30 e-)
     2.92305635E-01    2     1000035        11   # BR(~e_L -> ~chi_40 e-)
     1.04678088E-03    2    -1000024        12   # BR(~e_L -> ~chi_1- nu_e)
     5.94679127E-01    2    -1000037        12   # BR(~e_L -> ~chi_2- nu_e)
#
#         PDG            Width
DECAY   2000011     1.58731934E+01   # selectron_R decays
#          BR         NDA      ID1       ID2
     6.26969561E-01    2     1000022        11   # BR(~e_R -> ~chi_10 e-)
     9.09654676E-03    2     1000023        11   # BR(~e_R -> ~chi_20 e-)
     3.63909937E-01    2     1000025        11   # BR(~e_R -> ~chi_30 e-)
     2.39552517E-05    2     1000035        11   # BR(~e_R -> ~chi_40 e-)
#
#         PDG            Width
DECAY   1000013     4.54241519E+01   # smuon_L decays
#          BR         NDA      ID1       ID2
     7.59507343E-02    2     1000022        13   # BR(~mu_L -> ~chi_10 mu-)
     7.42850222E-03    2     1000023        13   # BR(~mu_L -> ~chi_20 mu-)
     2.85892211E-02    2     1000025        13   # BR(~mu_L -> ~chi_30 mu-)
     2.92305634E-01    2     1000035        13   # BR(~mu_L -> ~chi_40 mu-)
     1.04678088E-03    2    -1000024        14   # BR(~mu_L -> ~chi_1- nu_mu)
     5.94679127E-01    2    -1000037        14   # BR(~mu_L -> ~chi_2- nu_mu)
#
#         PDG            Width
DECAY   2000013     1.58731934E+01   # smuon_R decays
#          BR         NDA      ID1       ID2
     6.26969561E-01    2     1000022        13   # BR(~mu_R -> ~chi_10 mu-)
     9.09654676E-03    2     1000023        13   # BR(~mu_R -> ~chi_20 mu-)
     3.63909937E-01    2     1000025        13   # BR(~mu_R -> ~chi_30 mu-)
     2.39552517E-05    2     1000035        13   # BR(~mu_R -> ~chi_40 mu-)
#
#         PDG            Width
DECAY   1000015     1.89568583E+01   # stau_1 decays
#          BR         NDA      ID1       ID2
     1.18400717E-01    2     1000022        15   # BR(~tau_1 -> ~chi_10  tau-)
     7.32982964E-02    2     1000023        15   # BR(~tau_1 -> ~chi_20  tau-)
     6.70062606E-02    2     1000025        15   # BR(~tau_1 -> ~chi_30  tau-)
     2.43938256E-01    2     1000035        15   # BR(~tau_1 -> ~chi_40  tau-)
     1.32873446E-03    2    -1000024        16   # BR(~tau_1 -> ~chi_1-  nu_tau)
     4.96027736E-01    2    -1000037        16   # BR(~tau_1 -> ~chi_2-  nu_tau)
#
#         PDG            Width
DECAY   2000015     1.93783020E+01   # stau_2 decays
#          BR         NDA      ID1       ID2
     4.47981105E-01    2     1000022        15   # BR(~tau_2 -> ~chi_10  tau-)
     9.23796829E-02    2     1000023        15   # BR(~tau_2 -> ~chi_20  tau-)
     2.83468754E-01    2     1000025        15   # BR(~tau_2 -> ~chi_30  tau-)
     2.04771958E-04    2     1000035        15   # BR(~tau_2 -> ~chi_40  tau-)
     1.73463394E-01    2    -1000024        16   # BR(~tau_2 -> ~chi_1-  nu_tau)
     3.82191357E-04    2    -1000037        16   # BR(~tau_2 -> ~chi_2-  nu_tau)
     1.03943493E-03    2     1000016       -24   # BR(~tau_2 -> ~nu_tauL W-)
     5.53651684E-04    2     1000015        25   # BR(~tau_2 -> ~tau_1   h)
     5.27013623E-04    2     1000015        23   # BR(~tau_2 -> ~tau_1   Z)
#
#         PDG            Width
DECAY   1000012     4.54442600E+01   # snu_eL decays
#          BR         NDA      ID1       ID2
     5.73716827E-02    2     1000022        12   # BR(~nu_eL -> ~chi_10 nu_e)
     5.80739441E-04    2     1000023        12   # BR(~nu_eL -> ~chi_20 nu_e)
     5.00141070E-02    2     1000025        12   # BR(~nu_eL -> ~chi_30 nu_e)
     2.95588541E-01    2     1000035        12   # BR(~nu_eL -> ~chi_40 nu_e)
     1.54405202E-02    2     1000024        11   # BR(~nu_eL -> ~chi_1+ e-)
     5.81004409E-01    2     1000037        11   # BR(~nu_eL -> ~chi_2+ e-)
#
#         PDG            Width
DECAY   1000014     4.54442600E+01   # snu_muL decays
#          BR         NDA      ID1       ID2
     5.73716827E-02    2     1000022        14   # BR(~nu_muL -> ~chi_10 nu_mu)
     5.80739441E-04    2     1000023        14   # BR(~nu_muL -> ~chi_20 nu_mu)
     5.00141071E-02    2     1000025        14   # BR(~nu_muL -> ~chi_30 nu_mu)
     2.95588542E-01    2     1000035        14   # BR(~nu_muL -> ~chi_40 nu_mu)
     1.54405202E-02    2     1000024        13   # BR(~nu_muL -> ~chi_1+ mu-)
     5.81004409E-01    2     1000037        13   # BR(~nu_muL -> ~chi_2+ mu-)
#
#         PDG            Width
DECAY   1000016     1.89882137E+01   # snu_tauL decays
#          BR         NDA      ID1       ID2
     6.60190597E-02    2     1000022        16   # BR(~nu_tauL -> ~chi_10 nu_tau)
     6.64809365E-04    2     1000023        16   # BR(~nu_tauL -> ~chi_20 nu_tau)
     5.69500656E-02    2     1000025        16   # BR(~nu_tauL -> ~chi_30 nu_tau)
     2.45881730E-01    2     1000035        16   # BR(~nu_tauL -> ~chi_40 nu_tau)
     1.47119372E-01    2     1000024        15   # BR(~nu_tauL -> ~chi_1+ tau-)
     4.83364963E-01    2     1000037        15   # BR(~nu_tauL -> ~chi_2+ tau-)
#
#         PDG            Width
DECAY   1000024     1.73076431E-05   # chargino1+ decays
#           BR         NDA      ID1       ID2       ID3
     3.33835830E-01    3     1000022         2        -1   # BR(~chi_1+ -> ~chi_10 u    db)
     1.03748007E-10    3     1000023         2        -1   # BR(~chi_1+ -> ~chi_20 u    db)
     3.33835830E-01    3     1000022         4        -3   # BR(~chi_1+ -> ~chi_10 c    sb)
     1.11271449E-01    3     1000022       -11        12   # BR(~chi_1+ -> ~chi_10 e+   nu_e)
     3.45825837E-11    3     1000023       -11        12   # BR(~chi_1+ -> ~chi_20 e+   nu_e)
     1.11271449E-01    3     1000022       -13        14   # BR(~chi_1+ -> ~chi_10 mu+  nu_mu)
     3.45825837E-11    3     1000023       -13        14   # BR(~chi_1+ -> ~chi_20 mu+  nu_mu)
     1.09785441E-01    3     1000022       -15        16   # BR(~chi_1+ -> ~chi_10 tau+ nu_tau)
#
#         PDG            Width
DECAY   1000037     6.20330334E+00   # chargino2+ decays
#          BR         NDA      ID1       ID2
     2.56084053E-01    2     1000024        23   # BR(~chi_2+ -> ~chi_1+  Z )
     9.09419063E-02    2     1000022        24   # BR(~chi_2+ -> ~chi_10  W+)
     2.51747878E-01    2     1000023        24   # BR(~chi_2+ -> ~chi_20  W+)
     1.61345049E-01    2     1000025        24   # BR(~chi_2+ -> ~chi_30  W+)
     2.39881114E-01    2     1000024        25   # BR(~chi_2+ -> ~chi_1+  h )
#
#         PDG            Width
DECAY   1000022     0.00000000E+00   # neutralino1 decays
#
#         PDG            Width
DECAY   1000023     1.25697621E-05   # neutralino2 decays
#          BR         NDA      ID1       ID2
     2.72569915E-03    2     1000022        22   # BR(~chi_20 -> ~chi_10 gam)
#           BR         NDA      ID1       ID2       ID3
     1.19226560E-01    3     1000022        -2         2   # BR(~chi_20 -> ~chi_10 ub      u)
     1.54584862E-01    3     1000022        -1         1   # BR(~chi_20 -> ~chi_10 db      d)
     1.19226560E-01    3     1000022        -4         4   # BR(~chi_20 -> ~chi_10 cb      c)
     1.54584862E-01    3     1000022        -3         3   # BR(~chi_20 -> ~chi_10 sb      s)
     1.30968405E-01    3     1000022        -5         5   # BR(~chi_20 -> ~chi_10 bb      b)
     3.54774134E-02    3     1000022       -11        11   # BR(~chi_20 -> ~chi_10 e+      e-)
     3.54774134E-02    3     1000022       -13        13   # BR(~chi_20 -> ~chi_10 mu+     mu-)
     3.48738569E-02    3     1000022       -15        15   # BR(~chi_20 -> ~chi_10 tau+    tau-)
     7.09535332E-02    3     1000022       -12        12   # BR(~chi_20 -> ~chi_10 nu_eb   nu_e)
     7.09535332E-02    3     1000022       -14        14   # BR(~chi_20 -> ~chi_10 nu_mub  nu_mu)
     7.09473022E-02    3     1000022       -16        16   # BR(~chi_20 -> ~chi_10 nu_taub nu_tau)
#
#         PDG            Width
DECAY   1000025     3.81452387E-05   # neutralino3 decays
#          BR         NDA      ID1       ID2
     1.88523629E-02    2     1000022        22   # BR(~chi_30 -> ~chi_10 gam)
     2.67139861E-02    2     1000023        22   # BR(~chi_30 -> ~chi_20 gam)
#           BR         NDA      ID1       ID2       ID3
     5.88706342E-03    3     1000022        -2         2   # BR(~chi_30 -> ~chi_10 ub      u)
     6.76900570E-03    3     1000022        -1         1   # BR(~chi_30 -> ~chi_10 db      d)
     5.88706342E-03    3     1000022        -4         4   # BR(~chi_30 -> ~chi_10 cb      c)
     6.76900570E-03    3     1000022        -3         3   # BR(~chi_30 -> ~chi_10 sb      s)
     8.05698809E-03    3     1000022        -5         5   # BR(~chi_30 -> ~chi_10 bb      b)
     1.50852121E-03    3     1000022       -11        11   # BR(~chi_30 -> ~chi_10 e+      e-)
     1.50852121E-03    3     1000022       -13        13   # BR(~chi_30 -> ~chi_10 mu+     mu-)
     1.47754593E-03    3     1000022       -15        15   # BR(~chi_30 -> ~chi_10 tau+    tau-)
     3.12587290E-03    3     1000022       -12        12   # BR(~chi_30 -> ~chi_10 nu_eb   nu_e)
     3.12587290E-03    3     1000022       -14        14   # BR(~chi_30 -> ~chi_10 nu_mub  nu_mu)
     3.17588969E-03    3     1000022       -16        16   # BR(~chi_30 -> ~chi_10 nu_taub nu_tau)
     3.18904723E-02    3     1000023        -2         2   # BR(~chi_30 -> ~chi_20 ub      u)
     4.14076790E-02    3     1000023        -1         1   # BR(~chi_30 -> ~chi_20 db      d)
     3.18904723E-02    3     1000023        -4         4   # BR(~chi_30 -> ~chi_20 cb      c)
     4.14076790E-02    3     1000023        -3         3   # BR(~chi_30 -> ~chi_20 sb      s)
     3.27087093E-02    3     1000023        -5         5   # BR(~chi_30 -> ~chi_20 bb      b)
     9.50812051E-03    3     1000023       -11        11   # BR(~chi_30 -> ~chi_20 e+      e-)
     9.50812051E-03    3     1000023       -13        13   # BR(~chi_30 -> ~chi_20 mu+     mu-)
     9.30001768E-03    3     1000023       -15        15   # BR(~chi_30 -> ~chi_20 tau+    tau-)
     1.90071510E-02    3     1000023       -12        12   # BR(~chi_30 -> ~chi_20 nu_eb   nu_e)
     1.90071510E-02    3     1000023       -14        14   # BR(~chi_30 -> ~chi_20 nu_mub  nu_mu)
     1.90083652E-02    3     1000023       -16        16   # BR(~chi_30 -> ~chi_20 nu_taub nu_tau)
     1.07309137E-01    3     1000024        -2         1   # BR(~chi_30 -> ~chi_1+ ub      d)
     1.07309137E-01    3    -1000024        -1         2   # BR(~chi_30 -> ~chi_1- db      u)
     1.07309137E-01    3     1000024        -4         3   # BR(~chi_30 -> ~chi_1+ cb      s)
     1.07309137E-01    3    -1000024        -3         4   # BR(~chi_30 -> ~chi_1- sb      c)
     3.57717810E-02    3     1000024       -12        11   # BR(~chi_30 -> ~chi_1+ nu_eb   e-)
     3.57717810E-02    3    -1000024        12       -11   # BR(~chi_30 -> ~chi_1- nu_e    e+)
     3.57717810E-02    3     1000024       -14        13   # BR(~chi_30 -> ~chi_1+ nu_mub  mu-)
     3.57717810E-02    3    -1000024        14       -13   # BR(~chi_30 -> ~chi_1- nu_mu   mu+)
     3.50873463E-02    3     1000024       -16        15   # BR(~chi_30 -> ~chi_1+ nu_taub tau-)
     3.50873463E-02    3    -1000024        16       -15   # BR(~chi_30 -> ~chi_1- nu_tau  tau+)
#
#         PDG            Width
DECAY   1000035     6.20221696E+00   # neutralino4 decays
#          BR         NDA      ID1       ID2
     6.43511480E-02    2     1000022        23   # BR(~chi_40 -> ~chi_10   Z )
     6.58625230E-02    2     1000023        23   # BR(~chi_40 -> ~chi_20   Z )
     1.23649519E-01    2     1000025        23   # BR(~chi_40 -> ~chi_30   Z )
     2.55338718E-01    2     1000024       -24   # BR(~chi_40 -> ~chi_1+   W-)
     2.55338718E-01    2    -1000024        24   # BR(~chi_40 -> ~chi_1-   W+)
     2.48460119E-02    2     1000022        25   # BR(~chi_40 -> ~chi_10   h )
     1.76143873E-01    2     1000023        25   # BR(~chi_40 -> ~chi_20   h )
     3.43835031E-02    2     1000025        25   # BR(~chi_40 -> ~chi_30   h )
     4.29933694E-05    2     1000005        -5   # BR(~chi_40 -> ~b_1      bb)
     4.29933694E-05    2    -1000005         5   # BR(~chi_40 -> ~b_1*     b )
#
#         PDG            Width
DECAY        25     4.30819485E-03   # h decays
#          BR         NDA      ID1       ID2
     5.47423238E-01    2           5        -5   # BR(h -> b       bb     )
     6.17233118E-02    2         -15        15   # BR(h -> tau+    tau-   )
     2.18473576E-04    2         -13        13   # BR(h -> mu+     mu-    )
     2.37570418E-04    2           3        -3   # BR(h -> s       sb     )
     2.04516546E-02    2           4        -4   # BR(h -> c       cb     )
     7.83844269E-02    2          21        21   # BR(h -> g       g      )
     2.38474581E-03    2          22        22   # BR(h -> gam     gam    )
     1.79935829E-03    2          22        23   # BR(h -> Z       gam    )
     2.54405658E-01    2          24       -24   # BR(h -> W+      W-     )
     3.29715632E-02    2          23        23   # BR(h -> Z       Z      )
#
#         PDG            Width
DECAY        35     5.24246591E+01   # H decays
#          BR         NDA      ID1       ID2
     3.76913057E-01    2           5        -5   # BR(H -> b       bb     )
     6.57451716E-02    2         -15        15   # BR(H -> tau+    tau-   )
     2.34108105E-04    2         -13        13   # BR(H -> mu+     mu-    )
     1.53773261E-04    2           3        -3   # BR(H -> s       sb     )
     3.02877845E-08    2           4        -4   # BR(H -> c       cb     )
     2.96205837E-03    2           6        -6   # BR(H -> t       tb     )
     5.48440984E-06    2          21        21   # BR(H -> g       g      )
     4.62137652E-08    2          22        22   # BR(H -> gam     gam    )
     3.26767776E-09    2          23        22   # BR(H -> Z       gam    )
     2.13256819E-06    2          24       -24   # BR(H -> W+      W-     )
     1.06333227E-06    2          23        23   # BR(H -> Z       Z      )
     7.45802448E-06    2          25        25   # BR(H -> h       h      )
     9.16528854E-03    2     1000024  -1000024   # BR(H -> ~chi_1+ ~chi_1-)
     2.24106884E-04    2     1000037  -1000037   # BR(H -> ~chi_2+ ~chi_2-)
     1.61125951E-01    2     1000024  -1000037   # BR(H -> ~chi_1+ ~chi_2-)
     1.61125951E-01    2     1000037  -1000024   # BR(H -> ~chi_2+ ~chi_1-)
     1.50693821E-02    2     1000022   1000022   # BR(H -> ~chi_10 ~chi_10)
     3.78023376E-04    2     1000023   1000023   # BR(H -> ~chi_20 ~chi_20)
     1.58343679E-02    2     1000025   1000025   # BR(H -> ~chi_30 ~chi_30)
     1.14179272E-04    2     1000035   1000035   # BR(H -> ~chi_40 ~chi_40)
     1.67589402E-02    2     1000022   1000023   # BR(H -> ~chi_10 ~chi_20)
     1.58634008E-04    2     1000022   1000025   # BR(H -> ~chi_10 ~chi_30)
     4.02734347E-02    2     1000022   1000035   # BR(H -> ~chi_10 ~chi_40)
     1.03508014E-02    2     1000023   1000025   # BR(H -> ~chi_20 ~chi_30)
     7.12788008E-02    2     1000023   1000035   # BR(H -> ~chi_20 ~chi_40)
     5.21139501E-02    2     1000025   1000035   # BR(H -> ~chi_30 ~chi_40)
     2.14132842E-07    2     2000002  -2000002   # BR(H -> ~u_R    ~u_R*  )
     2.14132842E-07    2     2000004  -2000004   # BR(H -> ~c_R    ~c_R*  )
     3.37342283E-06    2     1000005  -1000005   # BR(H -> ~b_1    ~b_1*  )
#
#         PDG            Width
DECAY        36     5.24259323E+01   # A decays
#          BR         NDA      ID1       ID2
     3.76923089E-01    2           5        -5   # BR(A -> b       bb     )
     6.57441653E-02    2         -15        15   # BR(A -> tau+    tau-   )
     2.34104045E-04    2         -13        13   # BR(A -> mu+     mu-    )
     1.53786834E-04    2           3        -3   # BR(A -> s       sb     )
     3.03332677E-08    2           4        -4   # BR(A -> c       cb     )
     2.97703668E-03    2           6        -6   # BR(A -> t       tb     )
     2.30598973E-05    2          21        21   # BR(A -> g       g      )
     9.33129691E-08    2          22        22   # BR(A -> gam     gam    )
     1.72453135E-08    2          23        22   # BR(A -> Z       gam    )
     2.15663126E-06    2          23        25   # BR(A -> Z       h      )
     9.72331924E-03    2     1000024  -1000024   # BR(A -> ~chi_1+ ~chi_1-)
     6.63646826E-04    2     1000037  -1000037   # BR(A -> ~chi_2+ ~chi_2-)
     1.60618238E-01    2     1000024  -1000037   # BR(A -> ~chi_1+ ~chi_2-)
     1.60618238E-01    2     1000037  -1000024   # BR(A -> ~chi_2+ ~chi_1-)
     1.35217908E-02    2     1000022   1000022   # BR(A -> ~chi_10 ~chi_10)
     4.48947292E-04    2     1000023   1000023   # BR(A -> ~chi_20 ~chi_20)
     1.35782435E-02    2     1000025   1000025   # BR(A -> ~chi_30 ~chi_30)
     3.35451223E-04    2     1000035   1000035   # BR(A -> ~chi_40 ~chi_40)
     1.88418556E-02    2     1000022   1000023   # BR(A -> ~chi_10 ~chi_20)
     8.74753507E-05    2     1000022   1000025   # BR(A -> ~chi_10 ~chi_30)
     3.25221597E-02    2     1000022   1000035   # BR(A -> ~chi_10 ~chi_40)
     1.21890953E-02    2     1000023   1000025   # BR(A -> ~chi_20 ~chi_30)
     9.12043969E-02    2     1000023   1000035   # BR(A -> ~chi_20 ~chi_40)
     3.95896037E-02    2     1000025   1000035   # BR(A -> ~chi_30 ~chi_40)
#
#         PDG            Width
DECAY        37     5.29545567E+01   # H+ decays
#          BR         NDA      ID1       ID2
     6.45419381E-04    2           4        -5   # BR(H+ -> c       bb     )
     6.51277702E-02    2         -15        16   # BR(H+ -> tau+    nu_tau )
     2.31909164E-04    2         -13        14   # BR(H+ -> mu+     nu_mu  )
     6.45418272E-06    2           2        -5   # BR(H+ -> u       bb     )
     7.61364417E-06    2           2        -3   # BR(H+ -> u       sb     )
     1.49888409E-04    2           4        -3   # BR(H+ -> c       sb     )
     3.86003321E-01    2           6        -5   # BR(H+ -> t       bb     )
     2.14096171E-06    2          24        25   # BR(H+ -> W+      h      )
     2.14934607E-13    2          24        36   # BR(H+ -> W+      A      )
     4.59704369E-02    2     1000024   1000022   # BR(H+ -> ~chi_1+ ~chi_10)
     2.28400808E-03    2     1000024   1000023   # BR(H+ -> ~chi_1+ ~chi_20)
     1.18979975E-02    2     1000024   1000025   # BR(H+ -> ~chi_1+ ~chi_30)
     1.60854284E-01    2     1000024   1000035   # BR(H+ -> ~chi_1+ ~chi_40)
     7.19683163E-02    2     1000037   1000022   # BR(H+ -> ~chi_2+ ~chi_10)
     1.64440130E-01    2     1000037   1000023   # BR(H+ -> ~chi_2+ ~chi_20)
     9.04103012E-02    2     1000037   1000025   # BR(H+ -> ~chi_2+ ~chi_30)
     9.25007137E-09    2     1000037   1000035   # BR(H+ -> ~chi_2+ ~chi_40)

DECAY         5   0.000000e+00 # b decays
DECAY        15   0.000000e+00 # tau decays
DECAY        23     2.49520000E+00   # Z
DECAY        24     2.08500000E+00   # W
