# SUSY Les Houches Accord 2 - MSSM spectrum + Decays
# SPheno v4.0.5be
# W. Porod, Comput. Phys. Commun. 153 (2003) 275-315, hep-ph/0301101;
# W. Porod, F.~Staub, Comput. Phys. Commun. 183 (2012) 2458
#                     arXiv:1104.1573 [hep-ph] 
# in case of problems send email to porod@physik.uni-wuerzburg.de
# Created: 07.09.2021,  14:49
Block SPINFO         # Program information
     1   SPheno      # spectrum calculator
     2   v4.0.5be    # version number
#
Block SPhenoINFO     # SPheno specific information
    1      2         # using 2-loop RGEs
    2      2         # using pole masses for boundary conditions at mZ
Block MODSEL  # Model selection
    1    0    # general MSSM
Block MINPAR  # Input parameters
    3    2.93239644E+01  # tanb at m_Z    
    4    1.00000000E+00  # Sign(mu)
Block EXTPAR  # non-universal input parameters
    0    2.81927351E+03  # scale for input parameters
    1   -1.83296848E+02  # M_1
    2   -1.74885348E+03  # M_2
    3    2.67402653E+03  # M_3
   11    2.59616336E+03  # A_t
   12    8.91489337E+02  # A_b
   13   -1.73093940E+03  # A_tau
   23    1.80074049E+02  # mu
   25    2.82579542E+01  # tan(beta)
   26    3.47532823E+03  # m_A, pole mass
   31    1.00000000E+04  # M_L11
   32    1.00000000E+04  # M_L22
   33    1.00000000E+04  # M_L33
   34    1.00000000E+04  # M_E11
   35    1.00000000E+04  # M_E22
   36    1.00000000E+04  # M_E33
   41    1.00000000E+04  # M_Q11
   42    1.00000000E+04  # M_Q22
   43    3.00462733E+03  # M_Q33
   44    1.00000000E+04  # M_U11
   45    1.00000000E+04  # M_U22
   46    2.53316398E+03  # M_U33
   47    1.00000000E+04  # M_D11
   48    1.00000000E+04  # M_D22
   49    4.96952685E+03  # M_D33
Block SMINPUTS  # SM parameters
         1     1.27908970E+02  # alpha_em^-1(MZ)^MSbar
         2     1.16637870E-05  # G_mu [GeV^-2]
         3     1.18400000E-01  # alpha_s(MZ)^MSbar
         4     9.11876000E+01  # m_Z(pole)
         5     4.18000000E+00  # m_b(m_b), MSbar
         6     1.73200000E+02  # m_t(pole)
         7     1.77700000E+00  # m_tau(pole)
         8     0.00000000E+00  # m_nu_3
        11     5.10998930E-04  # m_e(pole)
        12     0.00000000E+00  # m_nu_1
        13     1.05658372E-01  # m_muon(pole)
        14     0.00000000E+00  # m_nu_2
        21     5.00000000E-03  # m_d(2 GeV), MSbar
        22     2.50000000E-03  # m_u(2 GeV), MSbar
        23     9.50000000E-02  # m_s(2 GeV), MSbar
        24     1.27000000E+00  # m_c(m_c), MSbar
Block gauge Q=  2.81927351E+03  # (SUSY scale)
   1    3.55362975E-01  # g'(Q)^DRbar
   2    6.65198874E-01  # g(Q)^DRbar
   3    1.21977796E+00  # g3(Q)^DRbar
Block Yu Q=  2.81927351E+03  # (SUSY scale)
  1  1     8.38962049E-06   # Y_u(Q)^DRbar
  2  2     4.26192721E-03   # Y_c(Q)^DRbar
  3  3     1.01353354E+00   # Y_t(Q)^DRbar
Block Yd Q=  2.81927351E+03  # (SUSY scale)
  1  1     4.76390706E-04   # Y_d(Q)^DRbar
  2  2     9.05142341E-03   # Y_s(Q)^DRbar
  3  3     4.72430301E-01   # Y_b(Q)^DRbar
Block Ye Q=  2.81927351E+03  # (SUSY scale)
  1  1     8.31336618E-05   # Y_e(Q)^DRbar
  2  2     1.71894046E-02   # Y_mu(Q)^DRbar
  3  3     2.89097508E-01   # Y_tau(Q)^DRbar
Block Au Q=  2.81927351E+03  # (SUSY scale)
  1  1     0.00000000E+00   # A_u(Q)^DRbar
  2  2     0.00000000E+00   # A_c(Q)^DRbar
  3  3     2.59616283E+03   # A_t(Q)^DRbar
Block Ad Q=  2.81927351E+03  # (SUSY scale)
  1  1     0.00000000E+00   # A_d(Q)^DRbar
  2  2     0.00000000E+00   # A_s(Q)^DRbar
  3  3     8.91489501E+02   # A_b(Q)^DRbar
Block Ae Q=  2.81927351E+03  # (SUSY scale)
  1  1     0.00000000E+00   # A_e(Q)^DRbar
  2  2     0.00000000E+00   # A_mu(Q)^DRbar
  3  3    -1.73093945E+03   # A_tau(Q)^DRbar
Block MSOFT Q=  2.81927351E+03  # soft SUSY breaking masses at Q
   1   -1.83296848E+02  # M_1
   2   -1.74885348E+03  # M_2
   3    2.67402653E+03  # M_3
  21    1.18786457E+07  # M^2_(H,d)
  22    1.18235543E+05  # M^2_(H,u)
  31    1.00000000E+04  # M_(L,11)
  32    1.00000000E+04  # M_(L,22)
  33    1.00000000E+04  # M_(L,33)
  34    1.00000000E+04  # M_(E,11)
  35    1.00000000E+04  # M_(E,22)
  36    1.00000000E+04  # M_(E,33)
  41    1.00000000E+04  # M_(Q,11)
  42    1.00000000E+04  # M_(Q,22)
  43    3.00462733E+03  # M_(Q,33)
  44    1.00000000E+04  # M_(U,11)
  45    1.00000000E+04  # M_(U,22)
  46    2.53316398E+03  # M_(U,33)
  47    1.00000000E+04  # M_(D,11)
  48    1.00000000E+04  # M_(D,22)
  49    4.96952685E+03  # M_(D,33)
Block MASS  # Mass spectrum
#   PDG code      mass          particle
         6     1.73200000E+02  # m_t(pole)
        23     9.11876000E+01  # m_Z(pole)
        24     8.04299946E+01  # W+
        15     1.77700000E+00  # m_tau(pole)
        25     1.22067001E+02  # h0
        35     3.47481131E+03  # H0
        36     3.47532823E+03  # A0
        37     3.47683335E+03  # H+
   1000001     1.01029741E+04  # ~d_L
   2000001     1.00802021E+04  # ~d_R
   1000002     1.01026072E+04  # ~u_L
   2000002     1.00828512E+04  # ~u_R
   1000003     1.01029789E+04  # ~s_L
   2000003     1.00802098E+04  # ~s_R
   1000004     1.01026120E+04  # ~c_L
   2000004     1.00828529E+04  # ~c_R
   1000005     3.07186691E+03  # ~b_1
   2000005     5.01815852E+03  # ~b_2
   1000006     2.57958613E+03  # ~t_1
   2000006     3.08123191E+03  # ~t_2
   1000011     1.00192544E+04  # ~e_L-
   2000011     1.00093099E+04  # ~e_R-
   1000012     1.00184919E+04  # ~nu_eL
   1000013     1.00192742E+04  # ~mu_L-
   2000013     1.00093484E+04  # ~mu_R-
   1000014     1.00185116E+04  # ~nu_muL
   1000015     1.00203571E+04  # ~tau_1-
   2000015     1.00250325E+04  # ~tau_2-
   1000016     1.00241890E+04  # ~nu_tauL
   1000021     3.09479803E+03  # ~g
   1000022     1.58946295E+02  # ~chi_10
   1000023     1.96581945E+02  # ~chi_20
   1000025     2.19543952E+02  # ~chi_30
   1000035     1.85927336E+03  # ~chi_40
   1000024     1.92068727E+02  # ~chi_1+
   1000037     1.85924157E+03  # ~chi_2+
# Higgs mixing
Block alpha # Effective Higgs mixing angle
          -3.41509271E-02   # alpha
Block Hmix Q=  2.81927351E+03  # Higgs mixing parameters
   1    1.80074049E+02  # mu
   2    2.82579542E+01  # tan[beta](Q)
   3    2.43325364E+02  # v(Q)
   4    1.20779063E+07  # m^2_A(Q)
Block stopmix # stop mixing matrix
   1  1    -1.20290438E-01   # Re[R_st(1,1)]
   1  2     9.92738742E-01   # Re[R_st(1,2)]
   2  1    -9.92738742E-01   # Re[R_st(2,1)]
   2  2    -1.20290438E-01   # Re[R_st(2,2)]
Block sbotmix # sbottom mixing matrix
   1  1     9.99999835E-01   # Re[R_sb(1,1)]
   1  2     5.73650886E-04   # Re[R_sb(1,2)]
   2  1    -5.73650886E-04   # Re[R_sb(2,1)]
   2  2     9.99999835E-01   # Re[R_sb(2,2)]
Block staumix # stau mixing matrix
   1  1     1.29598081E-01   # Re[R_sta(1,1)]
   1  2     9.91566608E-01   # Re[R_sta(1,2)]
   2  1    -9.91566608E-01   # Re[R_sta(2,1)]
   2  2     1.29598081E-01   # Re[R_sta(2,2)]
Block Nmix # neutralino mixing matrix
   1  1    -7.14570183E-01   # Re[N(1,1)]
   1  2     1.99726069E-02   # Re[N(1,2)]
   1  3    -5.41441175E-01   # Re[N(1,3)]
   1  4    -4.42529098E-01   # Re[N(1,4)]
   2  1    -8.60915435E-02   # Re[N(2,1)]
   2  2     2.89564955E-02   # Re[N(2,2)]
   2  3     6.96467641E-01   # Re[N(2,3)]
   2  4    -7.11816403E-01   # Re[N(2,4)]
   3  1     6.94245103E-01   # Re[N(3,1)]
   3  2     2.58727525E-02   # Re[N(3,2)]
   3  3    -4.70920641E-01   # Re[N(3,3)]
   3  4    -5.43680133E-01   # Re[N(3,4)]
   4  1     1.19843607E-03   # Re[N(4,1)]
   4  2    -9.99046154E-01   # Re[N(4,2)]
   4  3    -2.83344553E-03   # Re[N(4,3)]
   4  4    -4.35582176E-02   # Re[N(4,4)]
Block Umix # chargino mixing matrix
   1  1    -4.01726112E-03   # Re[U(1,1)]
   1  2     9.99991931E-01   # Re[U(1,2)]
   2  1    -9.99991931E-01   # Re[U(2,1)]
   2  2    -4.01726112E-03   # Re[U(2,2)]
Block Vmix # chargino mixing matrix
   1  1     6.16271208E-02   # Re[V(1,1)]
   1  2     9.98099243E-01   # Re[V(1,2)]
   2  1     9.98099243E-01   # Re[V(2,1)]
   2  2    -6.16271208E-02   # Re[V(2,2)]
DECAY        23     2.49520000E+00   # Z
DECAY        24     2.08500000E+00   # W
DECAY   2000011     5.02565683E+01   # ~e^-_R
#    BR                NDA      ID1      ID2
     5.10724308E-01    2     1000022        11   # BR(~e^-_R -> chi^0_1 e^-)
     7.41143774E-03    2     1000023        11   # BR(~e^-_R -> chi^0_2 e^-)
     4.81862887E-01    2     1000025        11   # BR(~e^-_R -> chi^0_3 e^-)
DECAY   1000011     1.35931054E+02   # ~e^-_L
#    BR                NDA      ID1      ID2
     4.24380755E-02    2     1000022        11   # BR(~e^-_L -> chi^0_1 e^-)
     5.10202759E-02    2     1000025        11   # BR(~e^-_L -> chi^0_3 e^-)
     3.01506096E-01    2     1000035        11   # BR(~e^-_L -> chi^0_4 e^-)
     6.04931006E-01    2    -1000037        12   # BR(~e^-_L -> chi^-_2 nu_e)
#    BR                NDA      ID1      ID2       ID3
DECAY   2000013     5.03743485E+01   # ~mu^-_R
#    BR                NDA      ID1      ID2
     5.09874370E-01    2     1000022        13   # BR(~mu^-_R -> chi^0_1 mu^-)
     7.96025443E-03    2     1000023        13   # BR(~mu^-_R -> chi^0_2 mu^-)
     4.80996877E-01    2     1000025        13   # BR(~mu^-_R -> chi^0_3 mu^-)
     1.16713551E-03    2    -1000024        14   # BR(~mu^-_R -> chi^-_1 nu_mu)
DECAY   1000013     1.35990209E+02   # ~mu^-_L
#    BR                NDA      ID1      ID2
     4.25465984E-02    2     1000022        13   # BR(~mu^-_L -> chi^0_1 mu^-)
     3.03954554E-04    2     1000023        13   # BR(~mu^-_L -> chi^0_2 mu^-)
     5.10941321E-02    2     1000025        13   # BR(~mu^-_L -> chi^0_3 mu^-)
     3.01375626E-01    2     1000035        13   # BR(~mu^-_L -> chi^0_4 mu^-)
     6.04669229E-01    2    -1000037        14   # BR(~mu^-_L -> chi^-_2 nu_mu)
#    BR                NDA      ID1      ID2       ID3
DECAY   1000015     8.47730233E+01   # ~tau^-_1
#    BR                NDA      ID1      ID2
     3.74615174E-01    2     1000022        15   # BR(~tau^-_1 -> chi^0_1 tau^-)
     9.53010426E-02    2     1000023        15   # BR(~tau^-_1 -> chi^0_2 tau^-)
     3.12758521E-01    2     1000025        15   # BR(~tau^-_1 -> chi^0_3 tau^-)
     7.90619429E-03    2     1000035        15   # BR(~tau^-_1 -> chi^0_4 tau^-)
     1.93557812E-01    2    -1000024        16   # BR(~tau^-_1 -> chi^-_1 nu_tau)
     1.58612563E-02    2    -1000037        16   # BR(~tau^-_1 -> chi^-_2 nu_tau)
DECAY   2000015     1.51512194E+02   # ~tau^-_2
#    BR                NDA      ID1      ID2
     6.25410060E-02    2     1000022        15   # BR(~tau^-_2 -> chi^0_1 tau^-)
     5.58482626E-02    2     1000023        15   # BR(~tau^-_2 -> chi^0_2 tau^-)
     7.95605293E-02    2     1000025        15   # BR(~tau^-_2 -> chi^0_3 tau^-)
     2.66254361E-01    2     1000035        15   # BR(~tau^-_2 -> chi^0_4 tau^-)
     1.59447661E-03    2    -1000024        16   # BR(~tau^-_2 -> chi^-_1 nu_tau)
     5.34201364E-01    2    -1000037        16   # BR(~tau^-_2 -> chi^-_2 nu_tau)
#    BR                NDA      ID1      ID2       ID3
DECAY   1000012     1.35934832E+02   # ~nu_e
#    BR                NDA      ID1      ID2
     5.23218410E-02    2     1000022        12   # BR(~nu_e -> chi^0_1 nu_e)
     1.82081038E-03    2     1000023        12   # BR(~nu_e -> chi^0_2 nu_e)
     3.85757304E-02    2     1000025        12   # BR(~nu_e -> chi^0_3 nu_e)
     3.02245269E-01    2     1000035        12   # BR(~nu_e -> chi^0_4 nu_e)
     2.46224345E-03    2     1000024        11   # BR(~nu_e -> chi^+_1 e^-)
     6.02574106E-01    2     1000037        11   # BR(~nu_e -> chi^+_2 e^-)
#    BR                NDA      ID1      ID2       ID3
DECAY   1000014     1.35993981E+02   # ~nu_mu
#    BR                NDA      ID1      ID2
     5.22991871E-02    2     1000022        14   # BR(~nu_mu -> chi^0_1 nu_mu)
     1.82002202E-03    2     1000023        14   # BR(~nu_mu -> chi^0_2 nu_mu)
     3.85590283E-02    2     1000025        14   # BR(~nu_mu -> chi^0_3 nu_mu)
     3.02114489E-01    2     1000035        14   # BR(~nu_mu -> chi^0_4 nu_mu)
     2.89389013E-03    2     1000024        13   # BR(~nu_mu -> chi^+_1 mu^-)
     6.02313383E-01    2     1000037        13   # BR(~nu_mu -> chi^+_2 mu^-)
#    BR                NDA      ID1      ID2       ID3
DECAY   1000016     1.52677279E+02   # ~nu_tau
#    BR                NDA      ID1      ID2
     4.66107943E-02    2     1000022        16   # BR(~nu_tau -> chi^0_1 nu_tau)
     1.62206532E-03    2     1000023        16   # BR(~nu_tau -> chi^0_2 nu_tau)
     3.43651205E-02    2     1000025        16   # BR(~nu_tau -> chi^0_3 nu_tau)
     2.69276191E-01    2     1000035        16   # BR(~nu_tau -> chi^0_4 nu_tau)
     1.11279354E-01    2     1000024        15   # BR(~nu_tau -> chi^+_1 tau^-)
     5.36846474E-01    2     1000037        15   # BR(~nu_tau -> chi^+_2 tau^-)
#    BR                NDA      ID1      ID2       ID3
DECAY   2000001     6.58358981E+02   # ~d_R
#    BR                NDA      ID1      ID2
     4.36258868E-03    2     1000022         1   # BR(~d_R -> chi^0_1 d)
     4.11607813E-03    2     1000025         1   # BR(~d_R -> chi^0_3 d)
     9.91457911E-01    2     1000021         1   # BR(~d_R -> ~g d)
DECAY   1000001     7.80759146E+02   # ~d_L
#    BR                NDA      ID1      ID2
     1.23382063E-03    2     1000022         1   # BR(~d_L -> chi^0_1 d)
     1.11653282E-04    2     1000023         1   # BR(~d_L -> chi^0_2 d)
     5.43755821E-04    2     1000025         1   # BR(~d_L -> chi^0_3 d)
     5.30841647E-02    2     1000035         1   # BR(~d_L -> chi^0_4 d)
     1.06324265E-01    2    -1000037         2   # BR(~d_L -> chi^-_2 u)
     8.38700504E-01    2     1000021         1   # BR(~d_L -> ~g d)
DECAY   2000003     6.58392436E+02   # ~s_R
#    BR                NDA      ID1      ID2
     4.36966181E-03    2     1000022         3   # BR(~s_R -> chi^0_1 s)
     4.12138592E-03    2     1000025         3   # BR(~s_R -> chi^0_3 s)
     9.91408604E-01    2     1000021         3   # BR(~s_R -> ~g s)
DECAY   1000003     7.80779710E+02   # ~s_L
#    BR                NDA      ID1      ID2
     1.23995124E-03    2     1000022         3   # BR(~s_L -> chi^0_1 s)
     1.21844653E-04    2     1000023         3   # BR(~s_L -> chi^0_2 s)
     5.48401636E-04    2     1000025         3   # BR(~s_L -> chi^0_3 s)
     5.30827955E-02    2     1000035         3   # BR(~s_L -> chi^0_4 s)
     1.06321539E-01    2    -1000037         4   # BR(~s_L -> chi^-_2 c)
     8.38678977E-01    2     1000021         3   # BR(~s_L -> ~g s)
DECAY   1000005     9.90707586E+01   # ~b_1
#    BR                NDA      ID1      ID2
     4.31182396E-02    2     1000022         5   # BR(~b_1 -> chi^0_1 b)
     6.64954892E-02    2     1000023         5   # BR(~b_1 -> chi^0_2 b)
     3.14890474E-02    2     1000025         5   # BR(~b_1 -> chi^0_3 b)
     5.47188119E-02    2     1000035         5   # BR(~b_1 -> chi^0_4 b)
     6.22303212E-01    2    -1000024         6   # BR(~b_1 -> chi^-_1 t)
     1.11009225E-01    2    -1000037         6   # BR(~b_1 -> chi^-_2 t)
     7.08659748E-02    2     1000006       -24   # BR(~b_1 -> ~t_1 W^-)
DECAY   2000005     1.99281466E+02   # ~b_2
#    BR                NDA      ID1      ID2
     3.98470814E-02    2     1000022         5   # BR(~b_2 -> chi^0_1 b)
     5.41801026E-02    2     1000023         5   # BR(~b_2 -> chi^0_2 b)
     3.14735251E-02    2     1000025         5   # BR(~b_2 -> chi^0_3 b)
     1.11214953E-01    2    -1000024         6   # BR(~b_2 -> chi^-_1 t)
     7.63198585E-01    2     1000021         5   # BR(~b_2 -> ~g b)
DECAY   2000002     6.75478761E+02   # ~u_R
#    BR                NDA      ID1      ID2
     1.70124767E-02    2     1000022         2   # BR(~u_R -> chi^0_1 u)
     2.46879150E-04    2     1000023         2   # BR(~u_R -> chi^0_2 u)
     1.60511955E-02    2     1000025         2   # BR(~u_R -> chi^0_3 u)
     9.66689404E-01    2     1000021         2   # BR(~u_R -> ~g u)
DECAY   1000002     7.80744733E+02   # ~u_L
#    BR                NDA      ID1      ID2
     6.55083967E-04    2     1000022         2   # BR(~u_L -> chi^0_1 u)
     1.27173441E-03    2     1000025         2   # BR(~u_L -> chi^0_3 u)
     5.30376089E-02    2     1000035         2   # BR(~u_L -> chi^0_4 u)
     4.32360449E-04    2     1000024         1   # BR(~u_L -> chi^+_1 d)
     1.05919735E-01    2     1000037         1   # BR(~u_L -> chi^+_2 d)
     8.38672911E-01    2     1000021         2   # BR(~u_L -> ~g u)
DECAY   2000004     6.75486169E+02   # ~c_R
#    BR                NDA      ID1      ID2
     1.70133493E-02    2     1000022         4   # BR(~c_R -> chi^0_1 c)
     2.49607704E-04    2     1000023         4   # BR(~c_R -> chi^0_2 c)
     1.60526125E-02    2     1000025         4   # BR(~c_R -> chi^0_3 c)
     9.66678988E-01    2     1000021         4   # BR(~c_R -> ~g c)
DECAY   1000004     7.80765263E+02   # ~c_L
#    BR                NDA      ID1      ID2
     6.55982026E-04    2     1000022         4   # BR(~c_L -> chi^0_1 c)
     1.27308283E-03    2     1000025         4   # BR(~c_L -> chi^0_3 c)
     5.30362469E-02    2     1000035         4   # BR(~c_L -> chi^0_4 c)
     4.53365513E-04    2     1000024         3   # BR(~c_L -> chi^+_1 s)
     1.05917007E-01    2     1000037         3   # BR(~c_L -> chi^+_2 s)
     8.38651382E-01    2     1000021         4   # BR(~c_L -> ~g c)
DECAY   1000006     1.09308560E+02   # ~t_1
#    BR                NDA      ID1      ID2
     1.29309752E-01    2     1000022         6   # BR(~t_1 -> chi^0_1 t)
     2.43290683E-01    2     1000023         6   # BR(~t_1 -> chi^0_2 t)
     1.52931513E-01    2     1000025         6   # BR(~t_1 -> chi^0_3 t)
     4.74384170E-01    2     1000024         5   # BR(~t_1 -> chi^+_1 b)
#    BR                NDA      ID1      ID2       ID3
DECAY   2000006     1.01959500E+02   # ~t_2
#    BR                NDA      ID1      ID2
     1.09193335E-01    2     1000022         6   # BR(~t_2 -> chi^0_1 t)
     3.04345044E-01    2     1000023         6   # BR(~t_2 -> chi^0_2 t)
     1.95543795E-01    2     1000025         6   # BR(~t_2 -> chi^0_3 t)
     5.26452533E-02    2     1000035         6   # BR(~t_2 -> chi^0_4 t)
     1.35119547E-01    2     1000024         5   # BR(~t_2 -> chi^+_1 b)
     1.08034000E-01    2     1000037         5   # BR(~t_2 -> chi^+_2 b)
     3.54029337E-02    2     1000006        23   # BR(~t_2 -> ~t_1 Z)
     5.97160918E-02    2     1000006        25   # BR(~t_2 -> ~t_1 h^0)
DECAY   1000024     7.40974145E-05   # chi^+_1
#    BR                NDA      ID1      ID2       ID3
     3.34564085E-01    3     1000022        -1         2   # BR(chi^+_1 -> chi^0_1 d_bar u)
     3.32323272E-01    3     1000022        -3         4   # BR(chi^+_1 -> chi^0_1 s_bar c)
     1.11521627E-01    3     1000022       -11        12   # BR(chi^+_1 -> chi^0_1 e^+ nu_e)
     1.11518025E-01    3     1000022       -13        14   # BR(chi^+_1 -> chi^0_1 mu^+ nu_mu)
     1.10072992E-01    3     1000022       -15        16   # BR(chi^+_1 -> chi^0_1 tau^+ nu_tau)
DECAY   1000037     1.65793133E+01   # chi^+_2
#    BR                NDA      ID1      ID2
     8.77960607E-02    2     1000022        24   # BR(chi^+_2 -> chi^0_1 W^+)
     2.45134786E-01    2     1000023        24   # BR(chi^+_2 -> chi^0_2 W^+)
     1.53406118E-01    2     1000025        24   # BR(chi^+_2 -> chi^0_3 W^+)
     2.42557700E-01    2     1000024        23   # BR(chi^+_2 -> chi^+_1 Z)
     2.40260025E-01    2     1000024        25   # BR(chi^+_2 -> chi^+_1 h^0)
#    BR                NDA      ID1      ID2       ID3
     1.22964539E-02    3     1000024         6        -6   # BR(chi^+_2 -> chi^+_1 t t_bar)
     3.46012287E-03    3     1000022        -5         6   # BR(chi^+_2 -> chi^0_1 b_bar t)
     9.15107627E-03    3     1000023        -5         6   # BR(chi^+_2 -> chi^0_2 b_bar t)
     5.86316420E-03    3     1000025        -5         6   # BR(chi^+_2 -> chi^0_3 b_bar t)
DECAY   1000022     0.00000000E+00   # chi^0_1
DECAY   1000023     1.09353837E-04   # chi^0_2
#    BR                NDA      ID1      ID2
     1.56890429E-02    2     1000022        22   # BR(chi^0_2 -> chi^0_1 photon)
#    BR                NDA      ID1      ID2       ID3
     1.19338201E-01    3     1000022         2        -2   # BR(chi^0_2 -> chi^0_1 u u_bar)
     1.17646047E-01    3     1000022         4        -4   # BR(chi^0_2 -> chi^0_1 c c_bar)
     1.53014902E-01    3     1000022         1        -1   # BR(chi^0_2 -> chi^0_1 d d_bar)
     1.53004434E-01    3     1000022         3        -3   # BR(chi^0_2 -> chi^0_1 s s_bar)
     1.34098129E-01    3     1000022         5        -5   # BR(chi^0_2 -> chi^0_1 b b_bar)
     3.45307661E-02    3     1000022        11       -11   # BR(chi^0_2 -> chi^0_1 e^- e^+)
     3.45269971E-02    3     1000022        13       -13   # BR(chi^0_2 -> chi^0_1 mu^- mu^+)
     3.34863526E-02    3     1000022        15       -15   # BR(chi^0_2 -> chi^0_1 tau^- tau^+)
     2.04626200E-01    3     1000022        12       -12   # BR(chi^0_2 -> chi^0_1 nu_e nu_bar_e)
DECAY   1000025     7.45031626E-05   # chi^0_3
#    BR                NDA      ID1      ID2
     1.98703706E-03    2     1000022        22   # BR(chi^0_3 -> chi^0_1 photon)
     1.26234544E-02    2     1000023        22   # BR(chi^0_3 -> chi^0_2 photon)
#    BR                NDA      ID1      ID2       ID3
     1.00795098E-03    3     1000022         2        -2   # BR(chi^0_3 -> chi^0_1 u u_bar)
     1.00386164E-03    3     1000022         4        -4   # BR(chi^0_3 -> chi^0_1 c c_bar)
     1.29087509E-03    3     1000022         1        -1   # BR(chi^0_3 -> chi^0_1 d d_bar)
     1.29085123E-03    3     1000022         3        -3   # BR(chi^0_3 -> chi^0_1 s s_bar)
     1.25781412E-03    3     1000022         5        -5   # BR(chi^0_3 -> chi^0_1 b b_bar)
     2.90078755E-04    3     1000022        11       -11   # BR(chi^0_3 -> chi^0_1 e^- e^+)
     2.90072602E-04    3     1000022        13       -13   # BR(chi^0_3 -> chi^0_1 mu^- mu^+)
     2.88339268E-04    3     1000022        15       -15   # BR(chi^0_3 -> chi^0_1 tau^- tau^+)
     1.72822399E-03    3     1000022        12       -12   # BR(chi^0_3 -> chi^0_1 nu_e nu_bar_e)
     1.63298860E-02    3     1000023         2        -2   # BR(chi^0_3 -> chi^0_2 u u_bar)
     1.56885274E-02    3     1000023         4        -4   # BR(chi^0_3 -> chi^0_2 c c_bar)
     2.09382571E-02    3     1000023         1        -1   # BR(chi^0_3 -> chi^0_2 d d_bar)
     2.09342007E-02    3     1000023         3        -3   # BR(chi^0_3 -> chi^0_2 s s_bar)
     1.43245488E-02    3     1000023         5        -5   # BR(chi^0_3 -> chi^0_2 b b_bar)
     4.72522032E-03    3     1000023        11       -11   # BR(chi^0_3 -> chi^0_2 e^- e^+)
     4.72377369E-03    3     1000023        13       -13   # BR(chi^0_3 -> chi^0_2 mu^- mu^+)
     4.33676585E-03    3     1000023        15       -15   # BR(chi^0_3 -> chi^0_2 tau^- tau^+)
     2.80003019E-02    3     1000023        12       -12   # BR(chi^0_3 -> chi^0_2 nu_e nu_bar_e)
     1.41929317E-01    3     1000024         1        -2   # BR(chi^0_3 -> chi^+_1 d u_bar)
     1.41929317E-01    3    -1000024        -1         2   # BR(chi^0_3 -> chi^-_1 d_bar u)
     1.40519412E-01    3     1000024         3        -4   # BR(chi^0_3 -> chi^+_1 s c_bar)
     1.40519412E-01    3    -1000024        -3         4   # BR(chi^0_3 -> chi^-_1 s_bar c)
     4.73096559E-02    3     1000024        11       -12   # BR(chi^0_3 -> chi^+_1 e^- nu_bar_e)
     4.73096559E-02    3    -1000024       -11        12   # BR(chi^0_3 -> chi^-_1 e^+ nu_e)
     4.73074184E-02    3     1000024        13       -14   # BR(chi^0_3 -> chi^+_1 mu^- nu_bar_mu)
     4.73074184E-02    3    -1000024       -13        14   # BR(chi^0_3 -> chi^-_1 mu^+ nu_mu)
     4.64041762E-02    3     1000024        15       -16   # BR(chi^0_3 -> chi^+_1 tau^- nu_bar_tau)
     4.64041762E-02    3    -1000024       -15        16   # BR(chi^0_3 -> chi^-_1 tau^+ nu_tau)
DECAY   1000035     1.75238041E+01   # chi^0_4
#    BR                NDA      ID1      ID2
     2.30645304E-01    2     1000024       -24   # BR(chi^0_4 -> chi^+_1 W^-)
     2.30645304E-01    2    -1000024        24   # BR(chi^0_4 -> chi^-_1 W^+)
     3.84683227E-02    2     1000022        23   # BR(chi^0_4 -> chi^0_1 Z)
     1.31410616E-01    2     1000023        23   # BR(chi^0_4 -> chi^0_2 Z)
     5.98479853E-02    2     1000025        23   # BR(chi^0_4 -> chi^0_3 Z)
     4.47021157E-02    2     1000022        25   # BR(chi^0_4 -> chi^0_1 h^0)
     1.49930896E-01    2     1000023        25   # BR(chi^0_4 -> chi^0_2 h^0)
     8.39160583E-02    2     1000025        25   # BR(chi^0_4 -> chi^0_3 h^0)
#    BR                NDA      ID1      ID2       ID3
     2.00737881E-03    3     1000022         6        -6   # BR(chi^0_4 -> chi^0_1 t t_bar)
     5.66053292E-03    3     1000023         6        -6   # BR(chi^0_4 -> chi^0_2 t t_bar)
     3.43827646E-03    3     1000025         6        -6   # BR(chi^0_4 -> chi^0_3 t t_bar)
     9.61073345E-03    3     1000024         5        -6   # BR(chi^0_4 -> chi^+_1 b t_bar)
     9.61073345E-03    3    -1000024        -5         6   # BR(chi^0_4 -> chi^-_1 b_bar t)
DECAY   1000021     9.14786074E+00   # ~g
#    BR                NDA      ID1      ID2
     8.04746993E-04    2     1000006        -4   # BR(~g -> ~t_1 c_bar)
     8.04746993E-04    2    -1000006         4   # BR(~g -> ~t^*_1 c)
     4.82114483E-01    2     1000006        -6   # BR(~g -> ~t_1 t_bar)
     4.82114483E-01    2    -1000006         6   # BR(~g -> ~t^*_1 t)
     1.07305242E-03    2     1000005        -5   # BR(~g -> ~b_1 b_bar)
     1.07305242E-03    2    -1000005         5   # BR(~g -> ~b^*_1 b)
     4.17297739E-04    2     1000022        21   # BR(~g -> chi^0_1 g)
     6.25207981E-04    2     1000023        21   # BR(~g -> chi^0_2 g)
     2.46964870E-04    2     1000025        21   # BR(~g -> chi^0_3 g)
#    BR                NDA      ID1      ID2       ID3
     3.90521904E-03    3     1000022         6        -6   # BR(~g -> chi^0_1 t t_bar)
     1.09300768E-02    3     1000023         6        -6   # BR(~g -> chi^0_2 t t_bar)
     1.15151525E-04    3     1000023         5        -5   # BR(~g -> chi^0_2 b b_bar)
     7.07081053E-03    3     1000025         6        -6   # BR(~g -> chi^0_3 t t_bar)
     9.21046597E-04    3     1000035         6        -6   # BR(~g -> chi^0_4 t t_bar)
     3.04547914E-03    3     1000024         5        -6   # BR(~g -> chi^+_1 b t_bar)
     3.04547914E-03    3    -1000024        -5         6   # BR(~g -> chi^-_1 b_bar t)
     7.54708418E-04    3     1000037         5        -6   # BR(~g -> chi^+_2 b t_bar)
     7.54708418E-04    3    -1000037        -5         6   # BR(~g -> chi^-_2 b_bar t)
DECAY        25     3.12931609E-03   # Gamma(h0)
     2.62965469E-03   2        22        22   # BR(h0 -> photon photon)
     1.41222086E-03   2        22        23   # BR(h0 -> photon Z)
     2.35216549E-02   2        23        23   # BR(h0 -> Z Z)
     2.06138536E-01   2       -24        24   # BR(h0 -> W W)
     8.40727301E-02   2        21        21   # BR(h0 -> gluon gluon)
     5.24444892E-09   2       -11        11   # BR(h0 -> Electron electron)
     2.33280795E-04   2       -13        13   # BR(h0 -> Muon muon)
     6.72592260E-02   2       -15        15   # BR(h0 -> Tau tau)
     1.49701199E-07   2        -2         2   # BR(h0 -> Up up)
     2.90527626E-02   2        -4         4   # BR(h0 -> Charm charm)
     6.09598725E-07   2        -1         1   # BR(h0 -> Down down)
     2.20476879E-04   2        -3         3   # BR(h0 -> Strange strange)
     5.85458693E-01   2        -5         5   # BR(h0 -> Bottom bottom)
DECAY        35     5.78727412E+01   # Gamma(HH)
     1.01014872E-08   2        22        22   # BR(HH -> photon photon)
     2.08312263E-08   2        22        23   # BR(HH -> photon Z)
     5.01651538E-07   2        23        23   # BR(HH -> Z Z)
     1.25502309E-07   2       -24        24   # BR(HH -> W W)
     3.23194367E-06   2        21        21   # BR(HH -> gluon gluon)
     6.73534259E-09   2       -11        11   # BR(HH -> Electron electron)
     2.99903825E-04   2       -13        13   # BR(HH -> Muon muon)
     8.66178437E-02   2       -15        15   # BR(HH -> Tau tau)
     1.51258295E-13   2        -2         2   # BR(HH -> Up up)
     2.93433780E-08   2        -4         4   # BR(HH -> Charm charm)
     2.08244634E-03   2        -6         6   # BR(HH -> Top top)
     4.84504679E-07   2        -1         1   # BR(HH -> Down down)
     1.75241722E-04   2        -3         3   # BR(HH -> Strange strange)
     4.36223543E-01   2        -5         5   # BR(HH -> Bottom bottom)
     2.06849592E-03   2  -1000024   1000024   # BR(HH -> Chargino1 chargino1)
     1.34061823E-01   2  -1000024   1000037   # BR(HH -> Chargino1 chargino2)
     1.34061823E-01   2  -1000037   1000024   # BR(HH -> Chargino2 chargino1)
     2.40862155E-02   2   1000022   1000022   # BR(HH -> neutralino1 neutralino1)
     1.03493455E-02   2   1000022   1000023   # BR(HH -> neutralino1 neutralino2)
     8.14424691E-04   2   1000022   1000025   # BR(HH -> neutralino1 neutralino3)
     4.48110661E-02   2   1000022   1000035   # BR(HH -> neutralino1 neutralino4)
     1.27989602E-03   2   1000023   1000023   # BR(HH -> neutralino2 neutralino2)
     2.00282364E-02   2   1000023   1000025   # BR(HH -> neutralino2 neutralino3)
     6.53351198E-02   2   1000023   1000035   # BR(HH -> neutralino2 neutralino4)
     1.33154067E-02   2   1000025   1000025   # BR(HH -> neutralino3 neutralino3)
     2.43815847E-02   2   1000025   1000035   # BR(HH -> neutralino3 neutralino4)
     3.17316410E-06   2        25        25   # BR(HH -> h0 h0)
DECAY        36     5.65750752E+01   # Gamma(A0)
     3.05078265E-09   2        22        22   # BR(A0 -> photon photon)
     7.92220141E-09   2        22        23   # BR(A0 -> photon Z)
     1.12942357E-05   2        21        21   # BR(A0 -> gluon gluon)
     6.59450252E-09   2       -11        11   # BR(A0 -> Electron electron)
     2.93630077E-04   2       -13        13   # BR(A0 -> Muon muon)
     8.48059691E-02   2       -15        15   # BR(A0 -> Tau tau)
     1.42486848E-13   2        -2         2   # BR(A0 -> Up up)
     2.76409998E-08   2        -4         4   # BR(A0 -> Charm charm)
     1.98002231E-03   2        -6         6   # BR(A0 -> Top top)
     4.74358964E-07   2        -1         1   # BR(A0 -> Down down)
     1.71572461E-04   2        -3         3   # BR(A0 -> Strange strange)
     4.27091953E-01   2        -5         5   # BR(A0 -> Bottom bottom)
     2.11921089E-03   2  -1000024   1000024   # BR(A0 -> Chargino1 chargino1)
     1.37186843E-01   2  -1000024   1000037   # BR(A0 -> Chargino1 chargino2)
     1.37186843E-01   2  -1000037   1000024   # BR(A0 -> Chargino2 chargino1)
     2.21476471E-02   2   1000022   1000022   # BR(A0 -> neutralino1 neutralino1)
     1.27102644E-02   2   1000022   1000023   # BR(A0 -> neutralino1 neutralino2)
     8.55635466E-04   2   1000022   1000025   # BR(A0 -> neutralino1 neutralino3)
     4.62572704E-02   2   1000022   1000035   # BR(A0 -> neutralino1 neutralino4)
     1.52311732E-03   2   1000023   1000023   # BR(A0 -> neutralino2 neutralino2)
     2.24946227E-02   2   1000023   1000025   # BR(A0 -> neutralino2 neutralino3)
     6.64940694E-02   2   1000023   1000035   # BR(A0 -> neutralino2 neutralino4)
     1.17569348E-02   2   1000025   1000025   # BR(A0 -> neutralino3 neutralino3)
     2.49116399E-02   2   1000025   1000035   # BR(A0 -> neutralino3 neutralino4)
     9.40629861E-07   2        23        25   # BR(A0 -> Z h0)
     1.19061733E-39   2        25        25   # BR(A0 -> h0 h0)
DECAY        37     6.38816615E+01   # Gamma(Hp)
     7.73951424E-09   2       -11        12   # BR(Hp -> Electron nu_e)
     3.30888406E-04   2       -13        14   # BR(Hp -> Muon nu_mu)
     9.35940738E-02   2       -15        16   # BR(Hp -> Tau nu_tau)
     4.82495335E-07   2        -1         2   # BR(Hp -> Down up)
     8.15769522E-06   2        -3         2   # BR(Hp -> Strange up)
     5.00779425E-06   2        -5         2   # BR(Hp -> Bottom up)
     2.40352337E-08   2        -1         4   # BR(Hp -> Down charm)
     1.73911194E-04   2        -3         4   # BR(Hp -> Strange charm)
     7.01270476E-04   2        -5         4   # BR(Hp -> Bottom charm)
     1.60553186E-07   2        -1         6   # BR(Hp -> Down top)
     3.75891028E-06   2        -3         6   # BR(Hp -> Strange top)
     4.75271998E-01   2        -5         6   # BR(Hp -> Bottom top)
     2.42180434E-02   2   1000022   1000024   # BR(Hp -> neutralino1 chargino1)
     8.17631811E-02   2   1000022   1000037   # BR(Hp -> neutralino1 chargino2)
     2.88074737E-05   2   1000023   1000024   # BR(Hp -> neutralino2 chargino1)
     1.18253341E-01   2   1000023   1000037   # BR(Hp -> neutralino2 chargino2)
     3.96543263E-02   2   1000024   1000025   # BR(Hp -> chargino1 neutralino3)
     4.42703238E-02   2   1000025   1000037   # BR(Hp -> neutralino3 chargino2)
     1.21721401E-01   2   1000024   1000035   # BR(Hp -> chargino1 neutralino4)
     8.34515944E-07   2        24        25   # BR(Hp -> W h0)
     7.20331703E-13   2        24        35   # BR(Hp -> W HH)
     1.64611943E-13   2        24        36   # BR(Hp -> W A0)
DECAY         6     2.43000000E+00   # top
#    BR                NDA      ID1      ID2
     1.00000000E+00    2           5        24   # BR(t -> b W)
Block HiggsBoundsInputHiggsCouplingsFermions
# ScalarNormEffCoupSq PseudoSNormEffCoupSq NP IP1 IP2 IP2
    9.32097033E-01    0.00000000E+00        3  25   5   5  # h0-b-b eff. coupling^2, normalised to SM
    7.98579879E+02    0.00000000E+00        3  35   5   5  # H0-b-b eff. coupling^2, normalised to SM
    0.00000000E+00    7.98511976E+02        3  36   5   5  # A0-b-b eff. coupling^2, normalised to SM
#
    1.00008504E+00    0.00000000E+00        3  25   6   6  # h0-t-t eff. coupling^2, normalised to SM
    1.16729249E-03    0.00000000E+00        3  35   6   6  # H0-t-t eff. coupling^2, normalised to SM
    0.00000000E+00    1.25232937E-03        3  36   6   6  # A0-t-t eff. coupling^2, normalised to SM
#
    9.32097033E-01    0.00000000E+00        3  25  15  15  # h0-tau-tau eff. coupling^2, normalised to SM
    7.98579879E+02    0.00000000E+00        3  35  15  15  # H0-tau-tau eff. coupling^2, normalised to SM
    0.00000000E+00    7.98511976E+02        3  36  15  15  # A0-tau-tau eff. coupling^2, normalised to SM
#
Block HiggsBoundsInputHiggsCouplingsBosons
    9.99998505E-01        3  25  24  24  # h0-W-W eff. coupling^2, normalised to SM
    1.49469477E-06        3  35  24  24  # H0-W-W eff. coupling^2, normalised to SM
    0.00000000E+00        3  36  24  24  # A0-W-W eff. coupling^2, normalised to SM
#
    9.99998505E-01        3  25  23  23  # h0-Z-Z eff. coupling^2, normalised to SM
    1.49469477E-06        3  35  23  23  # H0-Z-Z eff. coupling^2, normalised to SM
    0.00000000E+00        3  36  23  23  # A0-Z-Z eff. coupling^2, normalised to SM
#
    1.26597612E+00        3  25  21  21  # h0-g-g eff. coupling^2, normalised to SM
    2.13807481E-03        3  35  21  21  # H0-g-g eff. coupling^2, normalised to SM
    1.00805796E-01        3  36  21  21  # A0-g-g eff. coupling^2, normalised to SM
#
    0.00000000E+00        3  25  25  23  # h0-h0-Z eff. coupling^2, normalised to SM
    0.00000000E+00        3  35  25  23  # H0-h0-Z eff. coupling^2, normalised to SM
    1.49469477E-06        3  36  25  23  # A0-h0-Z eff. coupling^2, normalised to SM
    0.00000000E+00        3  35  35  23  # H0-H0-Z eff. coupling^2, normalised to SM
    9.99998505E-01        3  36  35  23  # A0-H0-Z eff. coupling^2, normalised to SM
    0.00000000E+00        3  36  36  23  # A0-A0-Z eff. coupling^2, normalised to SM
#
    0.00000000E+00        4  25  21  21  23  # h0-g-g-Z eff. coupling^2, normalised to SM
    0.00000000E+00        4  35  21  21  23  # H0-g-g-Z eff. coupling^2, normalised to SM
    0.00000000E+00        4  36  21  21  23  # A0-g-g-Z eff. coupling^2, normalised to SM
Block SPhenoLowEnergy  # low energy observables
    1    3.32101210E-04   # BR(b -> s gamma)
    2    1.58844411E-06   # BR(b -> s mu+ mu-)
    3    3.52378767E-05   # BR(b -> s nu nu)
    4    2.44028659E-15   # BR(Bd -> e+ e-)
    5    1.04246368E-10   # BR(Bd -> mu+ mu-)
    6    2.18285245E-08   # BR(Bd -> tau+ tau-)
    7    8.18927475E-14   # BR(Bs -> e+ e-)
    8    3.49845895E-09   # BR(Bs -> mu+ mu-)
    9    7.42254339E-07   # BR(Bs -> tau+ tau-)
   10    9.63867555E-05   # BR(B_u -> tau nu)
   11    9.95638283E-01   # BR(B_u -> tau nu)/BR(B_u -> tau nu)_SM
   12    5.42533831E-01   # |Delta(M_Bd)| [ps^-1] 
   13    1.93831821E+01   # |Delta(M_Bs)| [ps^-1] 
   14    0.00000000E+00   # neutron EDM according to the chiral quark model
   15    0.00000000E+00   # neutron EDM according to the relativistic quark-parton model
   16    2.15964887E-03   # epsilon_K
   17    2.28168221E-15   # Delta(M_K)
   18    2.47866295E-11   # BR(K^0 -> pi^0 nu nu)
   19    8.28739059E-11   # BR(K^+ -> pi^+ nu nu)
   20   -3.42799772E-16   # Delta(g-2)_electron/2
   21   -1.46558160E-11   # Delta(g-2)_muon/2
   22   -4.15021959E-09   # Delta(g-2)_tau/2
   23    0.00000000E+00   # electric dipole moment of the electron
   24    0.00000000E+00   # electric dipole moment of the muon
   25    0.00000000E+00   # electric dipole moment of the tau
   26    0.00000000E+00   # Br(mu -> e gamma)
   27    0.00000000E+00   # Br(tau -> e gamma)
   28    0.00000000E+00   # Br(tau -> mu gamma)
   29    0.00000000E+00   # Br(mu -> 3 e)
   30    0.00000000E+00   # Br(tau -> 3 e)
   31    0.00000000E+00   # Br(tau -> 3 mu)
   39    6.69104358E-05   # Delta(rho_parameter)
   40    0.00000000E+00   # BR(Z -> e mu)
   41    0.00000000E+00   # BR(Z -> e tau)
   42    0.00000000E+00   # BR(Z -> mu tau)
Block FWCOEF Q=  1.60000000E+02  # Wilson coefficients at scale Q
#    id        order  M        value         comment
     0305 4422   00   0    -1.88819110E-01   # C7
     0305 4422   00   2    -2.02256472E-01   # C7
     0305 4322   00   2    -1.42839485E-04   # C7'
     0305 6421   00   0    -9.52278348E-02   # C8
     0305 6421   00   2    -1.05650933E-01   # C8
     0305 6321   00   2    -1.52795726E-04   # C8'
 03051111 4133   00   0     1.61435350E+00   # C9 e+e-
 03051111 4133   00   2     1.61522807E+00   # C9 e+e-
 03051111 4233   00   2     1.89883513E-04   # C9' e+e-
 03051111 4137   00   0    -4.43704560E+00   # C10 e+e-
 03051111 4137   00   2    -4.43398081E+00   # C10 e+e-
 03051111 4237   00   2    -1.42973608E-03   # C10' e+e-
 03051313 4133   00   0     1.61435350E+00   # C9 mu+mu-
 03051313 4133   00   2     1.61522799E+00   # C9 mu+mu-
 03051313 4233   00   2     1.89883427E-04   # C9' mu+mu-
 03051313 4137   00   0    -4.43704560E+00   # C10 mu+mu-
 03051313 4137   00   2    -4.43398089E+00   # C10 mu+mu-
 03051313 4237   00   2    -1.42973614E-03   # C10' mu+mu-
 03051212 4137   00   0     1.50535012E+00   # C11 nu_1 nu_1
 03051212 4137   00   2     1.50468656E+00   # C11 nu_1 nu_1
 03051212 4237   00   2     3.10021774E-04   # C11' nu_1 nu_1
 03051414 4137   00   0     1.50535012E+00   # C11 nu_2 nu_2
 03051414 4137   00   2     1.50468656E+00   # C11 nu_2 nu_2
 03051414 4237   00   2     3.10021785E-04   # C11' nu_2 nu_2
 03051616 4137   00   0     1.50535012E+00   # C11 nu_3 nu_3
 03051616 4137   00   2     1.50468656E+00   # C11 nu_3 nu_3
 03051616 4237   00   2     3.10024854E-04   # C11' nu_3 nu_3
Block IMFWCOEF Q=  1.60000000E+02  # Im(Wilson coefficients) at scale Q
#    id        order  M        value         comment
     0305 4422   00   0     3.85815693E-07   # C7
     0305 4422   00   2    -6.91587396E-06   # C7
     0305 4322   00   2    -7.20837341E-07   # C7'
     0305 6421   00   0     3.30476657E-07   # C8
     0305 6421   00   2    -6.27411686E-06   # C8
     0305 6321   00   2    -3.41242631E-07   # C8'
 03051111 4133   00   2     3.85371270E-07   # C9 e+e-
 03051111 4233   00   2     3.69286803E-06   # C9' e+e-
 03051111 4137   00   2    -7.71276739E-07   # C10 e+e-
 03051111 4237   00   2    -2.78082689E-05   # C10' e+e-
 03051313 4133   00   2     3.85370130E-07   # C9 mu+mu-
 03051313 4233   00   2     3.69286740E-06   # C9' mu+mu-
 03051313 4137   00   2    -7.71275679E-07   # C10 mu+mu-
 03051313 4237   00   2    -2.78082708E-05   # C10' mu+mu-
 03051212 4137   00   2     1.84916631E-07   # C11 nu_1 nu_1
 03051212 4237   00   2     6.02990307E-06   # C11' nu_1 nu_1
 03051414 4137   00   2     1.84916671E-07   # C11 nu_2 nu_2
 03051414 4237   00   2     6.02990307E-06   # C11' nu_2 nu_2
 03051616 4137   00   2     1.84927999E-07   # C11 nu_3 nu_3
 03051616 4237   00   2     6.02990306E-06   # C11' nu_3 nu_3
