# SUSY Les Houches Accord 2 - MSSM spectrum + Decays
# SPheno v4.0.5be
# W. Porod, Comput. Phys. Commun. 153 (2003) 275-315, hep-ph/0301101;
# W. Porod, F.~Staub, Comput. Phys. Commun. 183 (2012) 2458
#                     arXiv:1104.1573 [hep-ph] 
# in case of problems send email to porod@physik.uni-wuerzburg.de
# Created: 20.12.2022,  21:18
Block SPINFO         # Program information
     1   SPheno      # spectrum calculator
     2   v4.0.5be    # version number
#
Block SPhenoINFO     # SPheno specific information
    1      2         # using 2-loop RGEs
    2      2         # using pole masses for boundary conditions at mZ
Block MODSEL  # Model selection
    1    0    # general MSSM
Block MINPAR  # Input parameters
    3    4.80867819E+01  # tanb at m_Z    
    4   -1.00000000E+00  # Sign(mu)
Block EXTPAR  # non-universal input parameters
    0    3.60512084E+03  # scale for input parameters
    1   -1.37571715E+02  # M_1
    2    1.45069223E+03  # M_2
    3    2.43605857E+03  # M_3
   11   -6.09934792E+03  # A_t
   12    3.76802357E+01  # A_b
   13    1.42835853E+03  # A_tau
   23   -6.02339035E+02  # mu
   25    4.74119917E+01  # tan(beta)
   26    4.55284818E+03  # m_A, pole mass
   31    1.00000000E+04  # M_L11
   32    1.00000000E+04  # M_L22
   33    1.00000000E+04  # M_L33
   34    1.00000000E+04  # M_E11
   35    1.00000000E+04  # M_E22
   36    1.00000000E+04  # M_E33
   41    1.00000000E+04  # M_Q11
   42    1.00000000E+04  # M_Q22
   43    3.32607349E+03  # M_Q33
   44    1.00000000E+04  # M_U11
   45    1.00000000E+04  # M_U22
   46    3.96300314E+03  # M_U33
   47    1.00000000E+04  # M_D11
   48    1.00000000E+04  # M_D22
   49    2.34689875E+03  # M_D33
Block SMINPUTS  # SM parameters
         1     1.27908970E+02  # alpha_em^-1(MZ)^MSbar
         2     1.16637870E-05  # G_mu [GeV^-2]
         3     1.18400000E-01  # alpha_s(MZ)^MSbar
         4     9.11876000E+01  # m_Z(pole)
         5     4.18000000E+00  # m_b(m_b), MSbar
         6     1.73200000E+02  # m_t(pole)
         7     1.77700000E+00  # m_tau(pole)
         8     0.00000000E+00  # m_nu_3
        11     5.10998930E-04  # m_e(pole)
        12     0.00000000E+00  # m_nu_1
        13     1.05658372E-01  # m_muon(pole)
        14     0.00000000E+00  # m_nu_2
        21     5.00000000E-03  # m_d(2 GeV), MSbar
        22     2.50000000E-03  # m_u(2 GeV), MSbar
        23     9.50000000E-02  # m_s(2 GeV), MSbar
        24     1.27000000E+00  # m_c(m_c), MSbar
Block gauge Q=  3.60512084E+03  # (SUSY scale)
   1    3.55362975E-01  # g'(Q)^DRbar
   2    6.65198874E-01  # g(Q)^DRbar
   3    1.21977796E+00  # g3(Q)^DRbar
Block Yu Q=  3.60512084E+03  # (SUSY scale)
  1  1     8.38623686E-06   # Y_u(Q)^DRbar
  2  2     4.26020833E-03   # Y_c(Q)^DRbar
  3  3     1.01312477E+00   # Y_t(Q)^DRbar
Block Yd Q=  3.60512084E+03  # (SUSY scale)
  1  1     7.98979381E-04   # Y_d(Q)^DRbar
  2  2     1.51806082E-02   # Y_s(Q)^DRbar
  3  3     7.92337182E-01   # Y_b(Q)^DRbar
Block Ye Q=  3.60512084E+03  # (SUSY scale)
  1  1     1.39427745E-04   # Y_e(Q)^DRbar
  2  2     2.88292355E-02   # Y_mu(Q)^DRbar
  3  3     4.84860315E-01   # Y_tau(Q)^DRbar
Block Au Q=  3.60512084E+03  # (SUSY scale)
  1  1     0.00000000E+00   # A_u(Q)^DRbar
  2  2     0.00000000E+00   # A_c(Q)^DRbar
  3  3    -6.09935342E+03   # A_t(Q)^DRbar
Block Ad Q=  3.60512084E+03  # (SUSY scale)
  1  1     0.00000000E+00   # A_d(Q)^DRbar
  2  2     0.00000000E+00   # A_s(Q)^DRbar
  3  3     3.76802292E+01   # A_b(Q)^DRbar
Block Ae Q=  3.60512084E+03  # (SUSY scale)
  1  1     0.00000000E+00   # A_e(Q)^DRbar
  2  2     0.00000000E+00   # A_mu(Q)^DRbar
  3  3     1.42835796E+03   # A_tau(Q)^DRbar
Block MSOFT Q=  3.60512084E+03  # soft SUSY breaking masses at Q
   1   -1.37571715E+02  # M_1
   2    1.45069223E+03  # M_2
   3    2.43605857E+03  # M_3
  21    2.04277474E+07  # M^2_(H,d)
  22   -1.02778735E+05  # M^2_(H,u)
  31    1.00000000E+04  # M_(L,11)
  32    1.00000000E+04  # M_(L,22)
  33    1.00000000E+04  # M_(L,33)
  34    1.00000000E+04  # M_(E,11)
  35    1.00000000E+04  # M_(E,22)
  36    1.00000000E+04  # M_(E,33)
  41    1.00000000E+04  # M_(Q,11)
  42    1.00000000E+04  # M_(Q,22)
  43    3.32607349E+03  # M_(Q,33)
  44    1.00000000E+04  # M_(U,11)
  45    1.00000000E+04  # M_(U,22)
  46    3.96300314E+03  # M_(U,33)
  47    1.00000000E+04  # M_(D,11)
  48    1.00000000E+04  # M_(D,22)
  49    2.34689875E+03  # M_(D,33)
Block MASS  # Mass spectrum
#   PDG code      mass          particle
         6     1.73200000E+02  # m_t(pole)
        23     9.11876000E+01  # m_Z(pole)
        24     8.04299946E+01  # W+
        15     1.77700000E+00  # m_tau(pole)
        25     1.26564277E+02  # h0
        35     4.55079137E+03  # H0
        36     4.55284818E+03  # A0
        37     4.55138387E+03  # H+
   1000001     1.01125248E+04  # ~d_L
   2000001     1.00885692E+04  # ~d_R
   1000002     1.01121656E+04  # ~u_L
   2000002     1.00914854E+04  # ~u_R
   1000003     1.01125303E+04  # ~s_L
   2000003     1.00885787E+04  # ~s_R
   1000004     1.01121709E+04  # ~c_L
   2000004     1.00914863E+04  # ~c_R
   1000005     2.43033137E+03  # ~b_1
   2000005     3.34916230E+03  # ~b_2
   1000006     3.32508273E+03  # ~t_1
   2000006     3.90874373E+03  # ~t_2
   1000011     1.00203329E+04  # ~e_L-
   2000011     1.00091656E+04  # ~e_R-
   1000012     1.00195730E+04  # ~nu_eL
   1000013     1.00203600E+04  # ~mu_L-
   2000013     1.00092125E+04  # ~mu_R-
   1000014     1.00195980E+04  # ~nu_muL
   1000015     1.00220382E+04  # ~tau_1-
   2000015     1.00288572E+04  # ~tau_2-
   1000016     1.00268167E+04  # ~nu_tauL
   1000021     2.86897972E+03  # ~g
   1000022     1.37560097E+02  # ~chi_10
   1000023     6.04496922E+02  # ~chi_20
   1000025     6.10260470E+02  # ~chi_30
   1000035     1.55256537E+03  # ~chi_40
   1000024     6.04815026E+02  # ~chi_1+
   1000037     1.55253397E+03  # ~chi_2+
# Higgs mixing
Block alpha # Effective Higgs mixing angle
          -2.08148435E-02   # alpha
Block Hmix Q=  3.60512084E+03  # Higgs mixing parameters
   1   -6.02339035E+02  # mu
   2    4.74119917E+01  # tan[beta](Q)
   3    2.43017295E+02  # v(Q)
   4    2.07284266E+07  # m^2_A(Q)
Block stopmix # stop mixing matrix
   1  1     9.80328398E-01   # Re[R_st(1,1)]
   1  2     1.97373333E-01   # Re[R_st(1,2)]
   2  1    -1.97373333E-01   # Re[R_st(2,1)]
   2  2     9.80328398E-01   # Re[R_st(2,2)]
Block sbotmix # sbottom mixing matrix
   1  1    -1.18055576E-02   # Re[R_sb(1,1)]
   1  2     9.99930312E-01   # Re[R_sb(1,2)]
   2  1    -9.99930312E-01   # Re[R_sb(2,1)]
   2  2    -1.18055576E-02   # Re[R_sb(2,2)]
Block staumix # stau mixing matrix
   1  1    -4.36036718E-01   # Re[R_sta(1,1)]
   1  2     8.99928875E-01   # Re[R_sta(1,2)]
   2  1    -8.99928875E-01   # Re[R_sta(2,1)]
   2  2    -4.36036718E-01   # Re[R_sta(2,2)]
Block Nmix # neutralino mixing matrix
   1  1    -9.96854785E-01   # Re[N(1,1)]
   1  2    -1.00088450E-03   # Re[N(1,2)]
   1  3     7.69607761E-02   # Re[N(1,3)]
   1  4    -1.88831869E-02   # Re[N(1,4)]
   2  1    -4.11510840E-02   # Re[N(2,1)]
   2  2    -5.92654021E-02   # Re[N(2,2)]
   2  3    -7.06525338E-01   # Re[N(2,3)]
   2  4    -7.04000105E-01   # Re[N(2,4)]
   3  1     6.77090858E-02   # Re[N(3,1)]
   3  2    -2.69657467E-02   # Re[N(3,2)]
   3  3     7.03118277E-01   # Re[N(3,3)]
   3  4    -7.07328083E-01   # Re[N(3,4)]
   4  1     1.61417210E-03   # Re[N(4,1)]
   4  2    -9.97877477E-01   # Re[N(4,2)]
   4  3     2.28839417E-02   # Re[N(4,3)]
   4  4     6.09447357E-02   # Re[N(4,4)]
Block Umix # chargino mixing matrix
   1  1    -3.24011388E-02   # Re[U(1,1)]
   1  2    -9.99474945E-01   # Re[U(1,2)]
   2  1     9.99474945E-01   # Re[U(2,1)]
   2  2    -3.24011388E-02   # Re[U(2,2)]
Block Vmix # chargino mixing matrix
   1  1    -8.62929101E-02   # Re[V(1,1)]
   1  2     9.96269810E-01   # Re[V(1,2)]
   2  1     9.96269810E-01   # Re[V(2,1)]
   2  2     8.62929101E-02   # Re[V(2,2)]
DECAY        23     2.49520000E+00   # Z
DECAY        24     2.08500000E+00   # W
DECAY   2000011     5.02711938E+01   # ~e^-_R
#    BR                NDA      ID1      ID2
     9.93763156E-01    2     1000022        11   # BR(~e^-_R -> chi^0_1 e^-)
     1.68182822E-03    2     1000023        11   # BR(~e^-_R -> chi^0_2 e^-)
     4.55245646E-03    2     1000025        11   # BR(~e^-_R -> chi^0_3 e^-)
DECAY   1000011     1.38634204E+02   # ~e^-_L
#    BR                NDA      ID1      ID2
     9.05289088E-02    2     1000022        11   # BR(~e^-_L -> chi^0_1 e^-)
     2.08491669E-03    2     1000023        11   # BR(~e^-_L -> chi^0_2 e^-)
     3.01239527E-01    2     1000035        11   # BR(~e^-_L -> chi^0_4 e^-)
     6.63124777E-04    2    -1000024        12   # BR(~e^-_L -> chi^-_1 nu_e)
     6.05456747E-01    2    -1000037        12   # BR(~e^-_L -> chi^-_2 nu_e)
#    BR                NDA      ID1      ID2       ID3
DECAY   2000013     5.05999936E+01   # ~mu^-_R
#    BR                NDA      ID1      ID2
     9.87329660E-01    2     1000022        13   # BR(~mu^-_R -> chi^0_1 mu^-)
     3.29165795E-03    2     1000023        13   # BR(~mu^-_R -> chi^0_2 mu^-)
     6.12782468E-03    2     1000025        13   # BR(~mu^-_R -> chi^0_3 mu^-)
     3.24348879E-03    2    -1000024        14   # BR(~mu^-_R -> chi^-_1 nu_mu)
DECAY   1000013     1.38799081E+02   # ~mu^-_L
#    BR                NDA      ID1      ID2
     9.04286831E-02    2     1000022        13   # BR(~mu^-_L -> chi^0_1 mu^-)
     2.67397157E-03    2     1000023        13   # BR(~mu^-_L -> chi^0_2 mu^-)
     6.12493810E-04    2     1000025        13   # BR(~mu^-_L -> chi^0_3 mu^-)
     3.00883178E-01    2     1000035        13   # BR(~mu^-_L -> chi^0_4 mu^-)
     6.62338883E-04    2    -1000024        14   # BR(~mu^-_L -> chi^-_1 nu_mu)
     6.04739335E-01    2    -1000037        14   # BR(~mu^-_L -> chi^-_2 nu_mu)
#    BR                NDA      ID1      ID2       ID3
DECAY   1000015     1.51451151E+02   # ~tau^-_1
#    BR                NDA      ID1      ID2
     2.94713587E-01    2     1000022        15   # BR(~tau^-_1 -> chi^0_1 tau^-)
     1.60348109E-01    2     1000023        15   # BR(~tau^-_1 -> chi^0_2 tau^-)
     1.42721049E-01    2     1000025        15   # BR(~tau^-_1 -> chi^0_3 tau^-)
     4.74619100E-02    2     1000035        15   # BR(~tau^-_1 -> chi^0_4 tau^-)
     2.59392157E-01    2    -1000024        16   # BR(~tau^-_1 -> chi^-_1 nu_tau)
     9.53631885E-02    2    -1000037        16   # BR(~tau^-_1 -> chi^-_2 nu_tau)
DECAY   2000015     1.77262265E+02   # ~tau^-_2
#    BR                NDA      ID1      ID2
     1.04407077E-01    2     1000022        15   # BR(~tau^-_2 -> chi^0_1 tau^-)
     1.27269998E-01    2     1000023        15   # BR(~tau^-_2 -> chi^0_2 tau^-)
     1.38985163E-01    2     1000025        15   # BR(~tau^-_2 -> chi^0_3 tau^-)
     1.95497901E-01    2     1000035        15   # BR(~tau^-_2 -> chi^0_4 tau^-)
     4.11522561E-02    2    -1000024        16   # BR(~tau^-_2 -> chi^-_1 nu_tau)
     3.92687605E-01    2    -1000037        16   # BR(~tau^-_2 -> chi^-_2 nu_tau)
#    BR                NDA      ID1      ID2       ID3
DECAY   1000012     1.38638644E+02   # ~nu_e
#    BR                NDA      ID1      ID2
     8.98411840E-02    2     1000022        12   # BR(~nu_e -> chi^0_1 nu_e)
     4.38925503E-04    2     1000023        12   # BR(~nu_e -> chi^0_2 nu_e)
     1.25867170E-03    2     1000025        12   # BR(~nu_e -> chi^0_3 nu_e)
     3.02247744E-01    2     1000035        12   # BR(~nu_e -> chi^0_4 nu_e)
     4.70305620E-03    2     1000024        11   # BR(~nu_e -> chi^+_1 e^-)
     6.01510418E-01    2     1000037        11   # BR(~nu_e -> chi^+_2 e^-)
#    BR                NDA      ID1      ID2       ID3
DECAY   1000014     1.38803476E+02   # ~nu_mu
#    BR                NDA      ID1      ID2
     8.97347199E-02    2     1000022        14   # BR(~nu_mu -> chi^0_1 nu_mu)
     4.38405380E-04    2     1000023        14   # BR(~nu_mu -> chi^0_2 nu_mu)
     1.25718018E-03    2     1000025        14   # BR(~nu_mu -> chi^0_3 nu_mu)
     3.01889646E-01    2     1000035        14   # BR(~nu_mu -> chi^0_4 nu_mu)
     5.88110110E-03    2     1000024        13   # BR(~nu_mu -> chi^+_1 mu^-)
     6.00798947E-01    2     1000037        13   # BR(~nu_mu -> chi^+_2 mu^-)
#    BR                NDA      ID1      ID2       ID3
DECAY   1000016     1.85300192E+02   # ~nu_tau
#    BR                NDA      ID1      ID2
     6.72663713E-02    2     1000022        16   # BR(~nu_tau -> chi^0_1 nu_tau)
     3.28637937E-04    2     1000023        16   # BR(~nu_tau -> chi^0_2 nu_tau)
     9.42409022E-04    2     1000025        16   # BR(~nu_tau -> chi^0_3 nu_tau)
     2.26316505E-01    2     1000035        16   # BR(~nu_tau -> chi^0_4 nu_tau)
     2.54496353E-01    2     1000024        15   # BR(~nu_tau -> chi^+_1 tau^-)
     4.50649724E-01    2     1000037        15   # BR(~nu_tau -> chi^+_2 tau^-)
#    BR                NDA      ID1      ID2       ID3
DECAY   2000001     6.78362827E+02   # ~d_R
#    BR                NDA      ID1      ID2
     8.24768134E-03    2     1000022         1   # BR(~d_R -> chi^0_1 d)
     9.91700178E-01    2     1000021         1   # BR(~d_R -> ~g d)
DECAY   1000001     8.03623574E+02   # ~d_L
#    BR                NDA      ID1      ID2
     1.72504706E-03    2     1000022         1   # BR(~d_L -> chi^0_1 d)
     1.48420693E-04    2     1000023         1   # BR(~d_L -> chi^0_2 d)
     5.26133446E-02    2     1000035         1   # BR(~d_L -> chi^0_4 d)
     1.15464409E-04    2    -1000024         2   # BR(~d_L -> chi^-_1 u)
     1.05503283E-01    2    -1000037         2   # BR(~d_L -> chi^-_2 u)
     8.39810632E-01    2     1000021         1   # BR(~d_L -> ~g d)
DECAY   2000003     6.78455272E+02   # ~s_R
#    BR                NDA      ID1      ID2
     8.24696789E-03    2     1000022         3   # BR(~s_R -> chi^0_1 s)
     9.91566313E-01    2     1000021         3   # BR(~s_R -> ~g s)
DECAY   1000003     8.03673671E+02   # ~s_L
#    BR                NDA      ID1      ID2
     1.72528111E-03    2     1000022         3   # BR(~s_L -> chi^0_1 s)
     1.76924032E-04    2     1000023         3   # BR(~s_L -> chi^0_2 s)
     1.12036952E-04    2     1000025         3   # BR(~s_L -> chi^0_3 s)
     5.26101244E-02    2     1000035         3   # BR(~s_L -> chi^0_4 s)
     1.19933763E-04    2    -1000024         4   # BR(~s_L -> chi^-_1 c)
     1.05496802E-01    2    -1000037         4   # BR(~s_L -> chi^-_2 c)
     8.39758898E-01    2     1000021         3   # BR(~s_L -> ~g s)
DECAY   1000005     5.44165656E+01   # ~b_1
#    BR                NDA      ID1      ID2
     2.82205959E-02    2     1000022         5   # BR(~b_1 -> chi^0_1 b)
     2.45274605E-01    2     1000023         5   # BR(~b_1 -> chi^0_2 b)
     2.41877445E-01    2     1000025         5   # BR(~b_1 -> chi^0_3 b)
     4.84483432E-01    2    -1000024         6   # BR(~b_1 -> chi^-_1 t)
DECAY   2000005     1.49675973E+02   # ~b_2
#    BR                NDA      ID1      ID2
     4.54999739E-03    2     1000022         5   # BR(~b_2 -> chi^0_1 b)
     1.30719245E-01    2     1000023         5   # BR(~b_2 -> chi^0_2 b)
     1.29437282E-01    2     1000025         5   # BR(~b_2 -> chi^0_3 b)
     6.06143836E-02    2     1000035         5   # BR(~b_2 -> chi^0_4 b)
     4.21798658E-01    2    -1000024         6   # BR(~b_2 -> chi^-_1 t)
     1.24348698E-01    2    -1000037         6   # BR(~b_2 -> chi^-_2 t)
     1.25169514E-01    2     1000021         5   # BR(~b_2 -> ~g b)
     1.24352614E-03    2     1000005        23   # BR(~b_2 -> ~b_1 Z)
     2.11869628E-03    2     1000005        25   # BR(~b_2 -> ~b_1 h^0)
DECAY   2000002     6.95522088E+02   # ~u_R
#    BR                NDA      ID1      ID2
     3.21861130E-02    2     1000022         2   # BR(~u_R -> chi^0_1 u)
     1.47461232E-04    2     1000025         2   # BR(~u_R -> chi^0_3 u)
     9.67611869E-01    2     1000021         2   # BR(~u_R -> ~g u)
DECAY   1000002     8.03610897E+02   # ~u_L
#    BR                NDA      ID1      ID2
     1.76435940E-03    2     1000022         2   # BR(~u_L -> chi^0_1 u)
     2.43867195E-04    2     1000023         2   # BR(~u_L -> chi^0_2 u)
     5.25515398E-02    2     1000035         2   # BR(~u_L -> chi^0_4 u)
     8.19130358E-04    2     1000024         1   # BR(~u_L -> chi^+_1 d)
     1.04825279E-01    2     1000037         1   # BR(~u_L -> chi^+_2 d)
     8.39783604E-01    2     1000021         2   # BR(~u_L -> ~g u)
DECAY   2000004     6.95529373E+02   # ~c_R
#    BR                NDA      ID1      ID2
     3.21857795E-02    2     1000022         4   # BR(~c_R -> chi^0_1 c)
     1.50060923E-04    2     1000025         4   # BR(~c_R -> chi^0_3 c)
     9.67601807E-01    2     1000021         4   # BR(~c_R -> ~g c)
DECAY   1000004     8.03660942E+02   # ~c_L
#    BR                NDA      ID1      ID2
     1.76425200E-03    2     1000022         4   # BR(~c_L -> chi^0_1 c)
     2.46086966E-04    2     1000023         4   # BR(~c_L -> chi^0_2 c)
     5.25483141E-02    2     1000035         4   # BR(~c_L -> chi^0_4 c)
     8.76137616E-04    2     1000024         3   # BR(~c_L -> chi^+_1 s)
     1.04818868E-01    2     1000037         3   # BR(~c_L -> chi^+_2 s)
     8.39731865E-01    2     1000021         4   # BR(~c_L -> ~g c)
DECAY   1000006     1.55645665E+02   # ~t_1
#    BR                NDA      ID1      ID2
     1.28938257E-03    2     1000022         4   # BR(~t_1 -> chi^0_1 c)
     4.07406614E-03    2     1000022         6   # BR(~t_1 -> chi^0_1 t)
     1.68341795E-04    2     1000023         4   # BR(~t_1 -> chi^0_2 c)
     2.01409144E-01    2     1000023         6   # BR(~t_1 -> chi^0_2 t)
     2.04246837E-01    2     1000025         6   # BR(~t_1 -> chi^0_3 t)
     5.34663821E-02    2     1000035         6   # BR(~t_1 -> chi^0_4 t)
     2.65498364E-01    2     1000024         5   # BR(~t_1 -> chi^+_1 b)
     1.04099188E-01    2     1000037         5   # BR(~t_1 -> chi^+_2 b)
     4.75385183E-02    2     1000021         4   # BR(~t_1 -> ~g c)
     1.14587098E-01    2     1000021         6   # BR(~t_1 -> ~g t)
     2.14814299E-03    2     1000005        24   # BR(~t_1 -> ~b_1 W^+)
#    BR                NDA      ID1      ID2       ID3
     1.47453564E-03    3     1000022        24         5   # BR(~t_1 -> chi^0_1 W^+ b)
DECAY   2000006     2.87295085E+02   # ~t_2
#    BR                NDA      ID1      ID2
     2.95014862E-02    2     1000022         6   # BR(~t_2 -> chi^0_1 t)
     1.30230848E-01    2     1000023         6   # BR(~t_2 -> chi^0_2 t)
     1.30381843E-01    2     1000025         6   # BR(~t_2 -> chi^0_3 t)
     4.54010080E-03    2     1000035         6   # BR(~t_2 -> chi^0_4 t)
     2.52994893E-01    2     1000024         5   # BR(~t_2 -> chi^+_1 b)
     9.00474979E-03    2     1000037         5   # BR(~t_2 -> chi^+_2 b)
     2.11953224E-01    2     1000021         6   # BR(~t_2 -> ~g t)
     1.76402972E-04    2     1000005        24   # BR(~t_2 -> ~b_1 W^+)
     1.00274039E-01    2     2000005        24   # BR(~t_2 -> ~b_2 W^+)
     5.38272062E-02    2     1000006        23   # BR(~t_2 -> ~t_1 Z)
     7.71152067E-02    2     1000006        25   # BR(~t_2 -> ~t_1 h^0)
DECAY   1000024     4.08944894E-01   # chi^+_1
#    BR                NDA      ID1      ID2
     9.94616660E-01    2     1000022        24   # BR(chi^+_1 -> chi^0_1 W^+)
#    BR                NDA      ID1      ID2       ID3
     5.38329674E-03    3     1000022        -5         6   # BR(chi^+_1 -> chi^0_1 b_bar t)
DECAY   1000037     1.32322687E+01   # chi^+_2
#    BR                NDA      ID1      ID2
     1.44001603E-03    2     1000022        24   # BR(chi^+_2 -> chi^0_1 W^+)
     2.46730070E-01    2     1000023        24   # BR(chi^+_2 -> chi^0_2 W^+)
     2.47958860E-01    2     1000025        24   # BR(chi^+_2 -> chi^0_3 W^+)
     2.45947752E-01    2     1000024        23   # BR(chi^+_2 -> chi^+_1 Z)
     2.38182951E-01    2     1000024        25   # BR(chi^+_2 -> chi^+_1 h^0)
#    BR                NDA      ID1      ID2       ID3
     6.83637567E-03    3     1000024         6        -6   # BR(chi^+_2 -> chi^+_1 t t_bar)
     6.15594644E-03    3     1000023        -5         6   # BR(chi^+_2 -> chi^0_2 b_bar t)
     6.68651067E-03    3     1000025        -5         6   # BR(chi^+_2 -> chi^0_3 b_bar t)
DECAY   1000022     0.00000000E+00   # chi^0_1
DECAY   1000023     5.36753808E-01   # chi^0_2
#    BR                NDA      ID1      ID2
     5.63905956E-01    2     1000022        23   # BR(chi^0_2 -> chi^0_1 Z)
     4.35773256E-01    2     1000022        25   # BR(chi^0_2 -> chi^0_1 h^0)
#    BR                NDA      ID1      ID2       ID3
     3.12574958E-04    3     1000022         6        -6   # BR(chi^0_2 -> chi^0_1 t t_bar)
DECAY   1000025     3.71606272E-01   # chi^0_3
#    BR                NDA      ID1      ID2
     3.04665125E-01    2     1000022        23   # BR(chi^0_3 -> chi^0_1 Z)
     6.94737507E-01    2     1000022        25   # BR(chi^0_3 -> chi^0_1 h^0)
#    BR                NDA      ID1      ID2       ID3
     5.79191764E-04    3     1000022         6        -6   # BR(chi^0_3 -> chi^0_1 t t_bar)
DECAY   1000035     1.55538382E+01   # chi^0_4
#    BR                NDA      ID1      ID2
     2.11135584E-01    2     1000024       -24   # BR(chi^0_4 -> chi^+_1 W^-)
     2.11135584E-01    2    -1000024        24   # BR(chi^0_4 -> chi^-_1 W^+)
     6.79128808E-04    2     1000022        23   # BR(chi^0_4 -> chi^0_1 Z)
     3.61294504E-02    2     1000023        23   # BR(chi^0_4 -> chi^0_2 Z)
     1.75331576E-01    2     1000025        23   # BR(chi^0_4 -> chi^0_3 Z)
     7.05489297E-04    2     1000022        25   # BR(chi^0_4 -> chi^0_1 h^0)
     1.66930623E-01    2     1000023        25   # BR(chi^0_4 -> chi^0_2 h^0)
     1.82722705E-01    2     1000025        25   # BR(chi^0_4 -> chi^0_3 h^0)
#    BR                NDA      ID1      ID2       ID3
     2.43393249E-03    3     1000023         6        -6   # BR(chi^0_4 -> chi^0_2 t t_bar)
     2.54164989E-03    3     1000025         6        -6   # BR(chi^0_4 -> chi^0_3 t t_bar)
     5.10408276E-03    3     1000024         5        -6   # BR(chi^0_4 -> chi^+_1 b t_bar)
     5.10408276E-03    3    -1000024        -5         6   # BR(chi^0_4 -> chi^-_1 b_bar t)
DECAY   1000021     7.01441905E+00   # ~g
#    BR                NDA      ID1      ID2
     4.82890426E-01    2     1000005        -5   # BR(~g -> ~b_1 b_bar)
     4.82890426E-01    2    -1000005         5   # BR(~g -> ~b^*_1 b)
#    BR                NDA      ID1      ID2       ID3
     4.14007729E-04    3     1000022         6        -6   # BR(~g -> chi^0_1 t t_bar)
     5.64385456E-03    3     1000023         6        -6   # BR(~g -> chi^0_2 t t_bar)
     1.98312481E-03    3     1000023         5        -5   # BR(~g -> chi^0_2 b b_bar)
     5.66693891E-03    3     1000025         6        -6   # BR(~g -> chi^0_3 t t_bar)
     1.95792094E-03    3     1000025         5        -5   # BR(~g -> chi^0_3 b b_bar)
     3.92857863E-04    3     1000035         6        -6   # BR(~g -> chi^0_4 t t_bar)
     4.53080739E-04    3     1000035         5        -5   # BR(~g -> chi^0_4 b b_bar)
     7.84947047E-03    3     1000024         5        -6   # BR(~g -> chi^+_1 b t_bar)
     7.84947047E-03    3    -1000024        -5         6   # BR(~g -> chi^-_1 b_bar t)
     8.48325844E-04    3     1000037         5        -6   # BR(~g -> chi^+_2 b t_bar)
     8.48325844E-04    3    -1000037        -5         6   # BR(~g -> chi^-_2 b_bar t)
DECAY        25     4.08704460E-03   # Gamma(h0)
     2.34487030E-03   2        22        22   # BR(h0 -> photon photon)
     1.63036389E-03   2        22        23   # BR(h0 -> photon Z)
     3.18362776E-02   2        23        23   # BR(h0 -> Z Z)
     2.55119081E-01   2       -24        24   # BR(h0 -> W W)
     7.13914707E-02   2        21        21   # BR(h0 -> gluon gluon)
     4.92140441E-09   2       -11        11   # BR(h0 -> Electron electron)
     2.18913703E-04   2       -13        13   # BR(h0 -> Muon muon)
     6.31227462E-02   2       -15        15   # BR(h0 -> Tau tau)
     1.39742482E-07   2        -2         2   # BR(h0 -> Up up)
     2.71183545E-02   2        -4         4   # BR(h0 -> Charm charm)
     5.68448806E-07   2        -1         1   # BR(h0 -> Down down)
     2.05594944E-04   2        -3         3   # BR(h0 -> Strange strange)
     5.47011614E-01   2        -5         5   # BR(h0 -> Bottom bottom)
DECAY        35     1.79062114E+02   # Gamma(HH)
     1.55044101E-08   2        22        22   # BR(HH -> photon photon)
     3.18944715E-08   2        22        23   # BR(HH -> photon Z)
     3.43124625E-08   2        23        23   # BR(HH -> Z Z)
     6.26909989E-09   2       -24        24   # BR(HH -> W W)
     3.52791409E-06   2        21        21   # BR(HH -> gluon gluon)
     8.94935578E-09   2       -11        11   # BR(HH -> Electron electron)
     3.98517724E-04   2       -13        13   # BR(HH -> Muon muon)
     1.15104328E-01   2       -15        15   # BR(HH -> Tau tau)
     2.60638414E-14   2        -2         2   # BR(HH -> Up up)
     5.05671237E-09   2        -4         4   # BR(HH -> Charm charm)
     4.20168272E-04   2        -6         6   # BR(HH -> Top top)
     6.41413806E-07   2        -1         1   # BR(HH -> Down down)
     2.31993865E-04   2        -3         3   # BR(HH -> Strange strange)
     6.15143476E-01   2        -5         5   # BR(HH -> Bottom bottom)
     1.64921614E-03   2  -1000024   1000024   # BR(HH -> Chargino1 chargino1)
     7.91202576E-02   2  -1000024   1000037   # BR(HH -> Chargino1 chargino2)
     7.91202576E-02   2  -1000037   1000024   # BR(HH -> Chargino2 chargino1)
     1.41812700E-04   2  -1000037   1000037   # BR(HH -> Chargino2 chargino2)
     3.29806820E-04   2   1000022   1000022   # BR(HH -> neutralino1 neutralino1)
     1.51730331E-02   2   1000022   1000023   # BR(HH -> neutralino1 neutralino2)
     1.30220637E-02   2   1000022   1000025   # BR(HH -> neutralino1 neutralino3)
     3.09007683E-04   2   1000022   1000035   # BR(HH -> neutralino1 neutralino4)
     1.83991348E-04   2   1000023   1000023   # BR(HH -> neutralino2 neutralino2)
     2.56268369E-05   2   1000023   1000025   # BR(HH -> neutralino2 neutralino3)
     3.74625633E-02   2   1000023   1000035   # BR(HH -> neutralino2 neutralino4)
     3.58503801E-04   2   1000025   1000025   # BR(HH -> neutralino3 neutralino3)
     4.17295409E-02   2   1000025   1000035   # BR(HH -> neutralino3 neutralino4)
     7.11263564E-05   2   1000035   1000035   # BR(HH -> neutralino4 neutralino4)
     4.37108951E-07   2        25        25   # BR(HH -> h0 h0)
DECAY        36     1.68638742E+02   # Gamma(A0)
     9.70908594E-10   2        22        22   # BR(A0 -> photon photon)
     7.78786280E-09   2        22        23   # BR(A0 -> photon Z)
     6.46090696E-06   2        21        21   # BR(A0 -> gluon gluon)
     8.74393097E-09   2       -11        11   # BR(A0 -> Electron electron)
     3.89371517E-04   2       -13        13   # BR(A0 -> Muon muon)
     1.12462703E-01   2       -15        15   # BR(A0 -> Tau tau)
     2.49854838E-14   2        -2         2   # BR(A0 -> Up up)
     4.84738484E-09   2        -4         4   # BR(A0 -> Charm charm)
     4.05627651E-04   2        -6         6   # BR(A0 -> Top top)
     6.26667525E-07   2        -1         1   # BR(A0 -> Down down)
     2.26658062E-04   2        -3         3   # BR(A0 -> Strange strange)
     6.01008029E-01   2        -5         5   # BR(A0 -> Bottom bottom)
     1.82220122E-03   2  -1000024   1000024   # BR(A0 -> Chargino1 chargino1)
     8.40072125E-02   2  -1000024   1000037   # BR(A0 -> Chargino1 chargino2)
     8.40072125E-02   2  -1000037   1000024   # BR(A0 -> Chargino2 chargino1)
     2.06643518E-04   2  -1000037   1000037   # BR(A0 -> Chargino2 chargino2)
     3.58910895E-04   2   1000022   1000022   # BR(A0 -> neutralino1 neutralino1)
     1.46122127E-02   2   1000022   1000023   # BR(A0 -> neutralino1 neutralino2)
     1.53015917E-02   2   1000022   1000025   # BR(A0 -> neutralino1 neutralino3)
     3.38341127E-04   2   1000022   1000035   # BR(A0 -> neutralino1 neutralino4)
     1.93350905E-04   2   1000023   1000023   # BR(A0 -> neutralino2 neutralino2)
     1.63284024E-05   2   1000023   1000025   # BR(A0 -> neutralino2 neutralino3)
     4.44111806E-02   2   1000023   1000035   # BR(A0 -> neutralino2 neutralino4)
     4.45730780E-04   2   1000025   1000025   # BR(A0 -> neutralino3 neutralino3)
     3.96757745E-02   2   1000025   1000035   # BR(A0 -> neutralino3 neutralino4)
     1.03719039E-04   2   1000035   1000035   # BR(A0 -> neutralino4 neutralino4)
     8.94180242E-08   2        23        25   # BR(A0 -> Z h0)
     2.39829889E-13   2        23        35   # BR(A0 -> Z HH)
     3.33686531E-37   2        25        25   # BR(A0 -> h0 h0)
DECAY        37     1.76916599E+02   # Gamma(Hp)
     9.83754985E-09   2       -11        12   # BR(Hp -> Electron nu_e)
     4.20585982E-04   2       -13        14   # BR(Hp -> Muon nu_mu)
     1.18965679E-01   2       -15        16   # BR(Hp -> Tau nu_tau)
     6.03732158E-07   2        -1         2   # BR(Hp -> Down up)
     1.02354791E-05   2        -3         2   # BR(Hp -> Strange up)
     6.43686289E-06   2        -5         2   # BR(Hp -> Bottom up)
     2.85748131E-08   2        -1         4   # BR(Hp -> Down charm)
     2.17535389E-04   2        -3         4   # BR(Hp -> Strange charm)
     9.01391294E-04   2        -5         4   # BR(Hp -> Bottom charm)
     2.75206509E-08   2        -1         6   # BR(Hp -> Down top)
     9.24831316E-07   2        -3         6   # BR(Hp -> Strange top)
     6.07643389E-01   2        -5         6   # BR(Hp -> Bottom top)
     2.94354452E-02   2   1000022   1000024   # BR(Hp -> neutralino1 chargino1)
     6.35149138E-04   2   1000022   1000037   # BR(Hp -> neutralino1 chargino2)
     2.40978329E-04   2   1000023   1000024   # BR(Hp -> neutralino2 chargino1)
     8.11587445E-02   2   1000023   1000037   # BR(Hp -> neutralino2 chargino2)
     8.50343880E-05   2   1000024   1000025   # BR(Hp -> chargino1 neutralino3)
     7.98483598E-02   2   1000025   1000037   # BR(Hp -> neutralino3 chargino2)
     8.04293561E-02   2   1000024   1000035   # BR(Hp -> chargino1 neutralino4)
     2.64006226E-10   2   1000035   1000037   # BR(Hp -> neutralino4 chargino2)
     8.51747037E-08   2        24        25   # BR(Hp -> W h0)
DECAY         6     2.43000000E+00   # top
#    BR                NDA      ID1      ID2
     1.00000000E+00    2           5        24   # BR(t -> b W)
Block HiggsBoundsInputHiggsCouplingsFermions
# ScalarNormEffCoupSq PseudoSNormEffCoupSq NP IP1 IP2 IP2
    9.74211238E-01    0.00000000E+00        3  25   5   5  # h0-b-b eff. coupling^2, normalised to SM
    2.24792275E+03    0.00000000E+00        3  35   5   5  # H0-b-b eff. coupling^2, normalised to SM
    0.00000000E+00    2.24789696E+03        3  36   5   5  # A0-b-b eff. coupling^2, normalised to SM
#
    1.00001147E+00    0.00000000E+00        3  25   6   6  # h0-t-t eff. coupling^2, normalised to SM
    4.33387854E-04    0.00000000E+00        3  35   6   6  # H0-t-t eff. coupling^2, normalised to SM
    0.00000000E+00    4.44860249E-04        3  36   6   6  # A0-t-t eff. coupling^2, normalised to SM
#
    9.74211238E-01    0.00000000E+00        3  25  15  15  # h0-tau-tau eff. coupling^2, normalised to SM
    2.24792275E+03    0.00000000E+00        3  35  15  15  # H0-tau-tau eff. coupling^2, normalised to SM
    0.00000000E+00    2.24789696E+03        3  36  15  15  # A0-tau-tau eff. coupling^2, normalised to SM
#
Block HiggsBoundsInputHiggsCouplingsBosons
    9.99999925E-01        3  25  24  24  # h0-W-W eff. coupling^2, normalised to SM
    7.49336660E-08        3  35  24  24  # H0-W-W eff. coupling^2, normalised to SM
    0.00000000E+00        3  36  24  24  # A0-W-W eff. coupling^2, normalised to SM
#
    9.99999925E-01        3  25  23  23  # h0-Z-Z eff. coupling^2, normalised to SM
    7.49336660E-08        3  35  23  23  # H0-Z-Z eff. coupling^2, normalised to SM
    0.00000000E+00        3  36  23  23  # A0-Z-Z eff. coupling^2, normalised to SM
#
    1.26240672E+00        3  25  21  21  # h0-g-g eff. coupling^2, normalised to SM
    8.40871073E-03        3  35  21  21  # H0-g-g eff. coupling^2, normalised to SM
    1.27055037E-01        3  36  21  21  # A0-g-g eff. coupling^2, normalised to SM
#
    0.00000000E+00        3  25  25  23  # h0-h0-Z eff. coupling^2, normalised to SM
    0.00000000E+00        3  35  25  23  # H0-h0-Z eff. coupling^2, normalised to SM
    7.49336660E-08        3  36  25  23  # A0-h0-Z eff. coupling^2, normalised to SM
    0.00000000E+00        3  35  35  23  # H0-H0-Z eff. coupling^2, normalised to SM
    9.99999925E-01        3  36  35  23  # A0-H0-Z eff. coupling^2, normalised to SM
    0.00000000E+00        3  36  36  23  # A0-A0-Z eff. coupling^2, normalised to SM
#
    0.00000000E+00        4  25  21  21  23  # h0-g-g-Z eff. coupling^2, normalised to SM
    0.00000000E+00        4  35  21  21  23  # H0-g-g-Z eff. coupling^2, normalised to SM
    0.00000000E+00        4  36  21  21  23  # A0-g-g-Z eff. coupling^2, normalised to SM
Block SPhenoLowEnergy  # low energy observables
    1    3.45540621E-04   # BR(b -> s gamma)
    2    1.58887384E-06   # BR(b -> s mu+ mu-)
    3    3.52691386E-05   # BR(b -> s nu nu)
    4    1.18070428E-15   # BR(Bd -> e+ e-)
    5    5.04384694E-11   # BR(Bd -> mu+ mu-)
    6    1.05673797E-08   # BR(Bd -> tau+ tau-)
    7    4.09672260E-14   # BR(Bs -> e+ e-)
    8    1.75012846E-09   # BR(Bs -> mu+ mu-)
    9    3.71841763E-07   # BR(Bs -> tau+ tau-)
   10    9.60914757E-05   # BR(B_u -> tau nu)
   11    9.92588156E-01   # BR(B_u -> tau nu)/BR(B_u -> tau nu)_SM
   12    5.42034132E-01   # |Delta(M_Bd)| [ps^-1] 
   13    1.93515399E+01   # |Delta(M_Bs)| [ps^-1] 
   14    0.00000000E+00   # neutron EDM according to the chiral quark model
   15    0.00000000E+00   # neutron EDM according to the relativistic quark-parton model
   16    2.15788477E-03   # epsilon_K
   17    2.28166460E-15   # Delta(M_K)
   18    2.48080469E-11   # BR(K^0 -> pi^0 nu nu)
   19    8.29251287E-11   # BR(K^+ -> pi^+ nu nu)
   20   -4.66791144E-16   # Delta(g-2)_electron/2
   21   -1.99570076E-11   # Delta(g-2)_muon/2
   22   -5.66294756E-09   # Delta(g-2)_tau/2
   23    0.00000000E+00   # electric dipole moment of the electron
   24    0.00000000E+00   # electric dipole moment of the muon
   25    0.00000000E+00   # electric dipole moment of the tau
   26    0.00000000E+00   # Br(mu -> e gamma)
   27    0.00000000E+00   # Br(tau -> e gamma)
   28    0.00000000E+00   # Br(tau -> mu gamma)
   29    0.00000000E+00   # Br(mu -> 3 e)
   30    0.00000000E+00   # Br(tau -> 3 e)
   31    0.00000000E+00   # Br(tau -> 3 mu)
   39    6.77145147E-05   # Delta(rho_parameter)
   40    0.00000000E+00   # BR(Z -> e mu)
   41    0.00000000E+00   # BR(Z -> e tau)
   42    0.00000000E+00   # BR(Z -> mu tau)
Block FWCOEF Q=  1.60000000E+02  # Wilson coefficients at scale Q
#    id        order  M        value         comment
     0305 4422   00   0    -1.88819110E-01   # C7
     0305 4422   00   2    -2.18736337E-01   # C7
     0305 4322   00   2    -2.27736890E-04   # C7'
     0305 6421   00   0    -9.52278348E-02   # C8
     0305 6421   00   2    -1.10890947E-01   # C8
     0305 6321   00   2    -1.11741552E-04   # C8'
 03051111 4133   00   0     1.62375469E+00   # C9 e+e-
 03051111 4133   00   2     1.62423465E+00   # C9 e+e-
 03051111 4233   00   2     6.73740184E-04   # C9' e+e-
 03051111 4137   00   0    -4.44644679E+00   # C10 e+e-
 03051111 4137   00   2    -4.44659807E+00   # C10 e+e-
 03051111 4237   00   2    -5.00621975E-03   # C10' e+e-
 03051313 4133   00   0     1.62375469E+00   # C9 mu+mu-
 03051313 4133   00   2     1.62423442E+00   # C9 mu+mu-
 03051313 4233   00   2     6.73739811E-04   # C9' mu+mu-
 03051313 4137   00   0    -4.44644679E+00   # C10 mu+mu-
 03051313 4137   00   2    -4.44659830E+00   # C10 mu+mu-
 03051313 4237   00   2    -5.00622033E-03   # C10' mu+mu-
 03051212 4137   00   0     1.50535012E+00   # C11 nu_1 nu_1
 03051212 4137   00   2     1.50538443E+00   # C11 nu_1 nu_1
 03051212 4237   00   2     1.08324625E-03   # C11' nu_1 nu_1
 03051414 4137   00   0     1.50535012E+00   # C11 nu_2 nu_2
 03051414 4137   00   2     1.50538443E+00   # C11 nu_2 nu_2
 03051414 4237   00   2     1.08324628E-03   # C11' nu_2 nu_2
 03051616 4137   00   0     1.50535012E+00   # C11 nu_3 nu_3
 03051616 4137   00   2     1.50538444E+00   # C11 nu_3 nu_3
 03051616 4237   00   2     1.08325450E-03   # C11' nu_3 nu_3
Block IMFWCOEF Q=  1.60000000E+02  # Im(Wilson coefficients) at scale Q
#    id        order  M        value         comment
     0305 4422   00   0     3.85774605E-07   # C7
     0305 4422   00   2    -2.86305339E-05   # C7
     0305 4322   00   2    -2.88599089E-06   # C7'
     0305 6421   00   0     3.30441462E-07   # C8
     0305 6421   00   2     4.03469530E-05   # C8
     0305 6321   00   2    -4.29160190E-07   # C8'
 03051111 4133   00   2     5.42356445E-07   # C9 e+e-
 03051111 4233   00   2     1.25499307E-05   # C9' e+e-
 03051111 4137   00   2    -4.10246890E-07   # C10 e+e-
 03051111 4237   00   2    -9.32549539E-05   # C10' e+e-
 03051313 4133   00   2     5.42350734E-07   # C9 mu+mu-
 03051313 4233   00   2     1.25499265E-05   # C9' mu+mu-
 03051313 4137   00   2    -4.10241697E-07   # C10 mu+mu-
 03051313 4237   00   2    -9.32549666E-05   # C10' mu+mu-
 03051212 4137   00   2     1.16811748E-07   # C11 nu_1 nu_1
 03051212 4237   00   2     2.01785159E-05   # C11' nu_1 nu_1
 03051414 4137   00   2     1.16811971E-07   # C11 nu_2 nu_2
 03051414 4237   00   2     2.01785159E-05   # C11' nu_2 nu_2
 03051616 4137   00   2     1.16874369E-07   # C11 nu_3 nu_3
 03051616 4237   00   2     2.01785158E-05   # C11' nu_3 nu_3
