# SUSY Les Houches Accord 2 - MSSM spectrum + Decays
# SPheno v4.0.5be
# W. Porod, Comput. Phys. Commun. 153 (2003) 275-315, hep-ph/0301101;
# W. Porod, F.~Staub, Comput. Phys. Commun. 183 (2012) 2458
#                     arXiv:1104.1573 [hep-ph] 
# in case of problems send email to porod@physik.uni-wuerzburg.de
# Created: 12.05.2022,  15:31
Block SPINFO         # Program information
     1   SPheno      # spectrum calculator
     2   v4.0.5be    # version number
#
Block SPhenoINFO     # SPheno specific information
    1      2         # using 2-loop RGEs
    2      2         # using pole masses for boundary conditions at mZ
Block MODSEL  # Model selection
    1    0    # general MSSM
Block MINPAR  # Input parameters
    3    4.94855791E+01  # tanb at m_Z    
    4   -1.00000000E+00  # Sign(mu)
Block EXTPAR  # non-universal input parameters
    0    3.60610108E+03  # scale for input parameters
    1   -6.29845083E+02  # M_1
    2    5.47861818E+02  # M_2
    3    2.58158934E+03  # M_3
   11   -2.81451835E+03  # A_t
   12   -1.16735416E+03  # A_b
   13   -4.92297527E+02  # A_tau
   23   -1.27293777E+02  # mu
   25    4.88556065E+01  # tan(beta)
   26    1.23620530E+03  # m_A, pole mass
   31    1.00000000E+04  # M_L11
   32    1.00000000E+04  # M_L22
   33    1.00000000E+04  # M_L33
   34    1.00000000E+04  # M_E11
   35    1.00000000E+04  # M_E22
   36    1.00000000E+04  # M_E33
   41    1.00000000E+04  # M_Q11
   42    1.00000000E+04  # M_Q22
   43    3.39375893E+03  # M_Q33
   44    1.00000000E+04  # M_U11
   45    1.00000000E+04  # M_U22
   46    3.76267377E+03  # M_U33
   47    1.00000000E+04  # M_D11
   48    1.00000000E+04  # M_D22
   49    2.27760764E+03  # M_D33
Block SMINPUTS  # SM parameters
         1     1.27908970E+02  # alpha_em^-1(MZ)^MSbar
         2     1.16637870E-05  # G_mu [GeV^-2]
         3     1.18400000E-01  # alpha_s(MZ)^MSbar
         4     9.11876000E+01  # m_Z(pole)
         5     4.18000000E+00  # m_b(m_b), MSbar
         6     1.73200000E+02  # m_t(pole)
         7     1.77700000E+00  # m_tau(pole)
         8     0.00000000E+00  # m_nu_3
        11     5.10998930E-04  # m_e(pole)
        12     0.00000000E+00  # m_nu_1
        13     1.05658372E-01  # m_muon(pole)
        14     0.00000000E+00  # m_nu_2
        21     5.00000000E-03  # m_d(2 GeV), MSbar
        22     2.50000000E-03  # m_u(2 GeV), MSbar
        23     9.50000000E-02  # m_s(2 GeV), MSbar
        24     1.27000000E+00  # m_c(m_c), MSbar
Block gauge Q=  3.60610108E+03  # (SUSY scale)
   1    3.55362975E-01  # g'(Q)^DRbar
   2    6.65198874E-01  # g(Q)^DRbar
   3    1.21977796E+00  # g3(Q)^DRbar
Block Yu Q=  3.60610108E+03  # (SUSY scale)
  1  1     8.38612830E-06   # Y_u(Q)^DRbar
  2  2     4.26015318E-03   # Y_c(Q)^DRbar
  3  3     1.01311166E+00   # Y_t(Q)^DRbar
Block Yd Q=  3.60610108E+03  # (SUSY scale)
  1  1     8.23296291E-04   # Y_d(Q)^DRbar
  2  2     1.56426295E-02   # Y_s(Q)^DRbar
  3  3     8.16451937E-01   # Y_b(Q)^DRbar
Block Ye Q=  3.60610108E+03  # (SUSY scale)
  1  1     1.43671223E-04   # Y_e(Q)^DRbar
  2  2     2.97066523E-02   # Y_mu(Q)^DRbar
  3  3     4.99617022E-01   # Y_tau(Q)^DRbar
Block Au Q=  3.60610108E+03  # (SUSY scale)
  1  1     0.00000000E+00   # A_u(Q)^DRbar
  2  2     0.00000000E+00   # A_c(Q)^DRbar
  3  3    -2.81451947E+03   # A_t(Q)^DRbar
Block Ad Q=  3.60610108E+03  # (SUSY scale)
  1  1     0.00000000E+00   # A_d(Q)^DRbar
  2  2     0.00000000E+00   # A_s(Q)^DRbar
  3  3    -1.16735403E+03   # A_b(Q)^DRbar
Block Ae Q=  3.60610108E+03  # (SUSY scale)
  1  1     0.00000000E+00   # A_e(Q)^DRbar
  2  2     0.00000000E+00   # A_mu(Q)^DRbar
  3  3    -4.92297439E+02   # A_tau(Q)^DRbar
Block MSOFT Q=  3.60610108E+03  # soft SUSY breaking masses at Q
   1   -6.29845083E+02  # M_1
   2    5.47861818E+02  # M_2
   3    2.58158934E+03  # M_3
  21    1.41772274E+06  # M^2_(H,d)
  22    2.79796891E+05  # M^2_(H,u)
  31    1.00000000E+04  # M_(L,11)
  32    1.00000000E+04  # M_(L,22)
  33    1.00000000E+04  # M_(L,33)
  34    1.00000000E+04  # M_(E,11)
  35    1.00000000E+04  # M_(E,22)
  36    1.00000000E+04  # M_(E,33)
  41    1.00000000E+04  # M_(Q,11)
  42    1.00000000E+04  # M_(Q,22)
  43    3.39375893E+03  # M_(Q,33)
  44    1.00000000E+04  # M_(U,11)
  45    1.00000000E+04  # M_(U,22)
  46    3.76267377E+03  # M_(U,33)
  47    1.00000000E+04  # M_(D,11)
  48    1.00000000E+04  # M_(D,22)
  49    2.27760764E+03  # M_(D,33)
Block MASS  # Mass spectrum
#   PDG code      mass          particle
         6     1.73200000E+02  # m_t(pole)
        23     9.11876000E+01  # m_Z(pole)
        24     8.04299946E+01  # W+
        15     1.77700000E+00  # m_tau(pole)
        25     1.24353546E+02  # h0
        35     1.23569002E+03  # H0
        36     1.23620530E+03  # A0
        37     1.24030177E+03  # H+
   1000001     1.01119984E+04  # ~d_L
   2000001     1.00869112E+04  # ~d_R
   1000002     1.01116306E+04  # ~u_L
   2000002     1.00900410E+04  # ~u_R
   1000003     1.01120046E+04  # ~s_L
   2000003     1.00869225E+04  # ~s_R
   1000004     1.01116368E+04  # ~c_L
   2000004     1.00900419E+04  # ~c_R
   1000005     2.37314944E+03  # ~b_1
   2000005     3.44299711E+03  # ~b_2
   1000006     3.43497712E+03  # ~t_1
   2000006     3.78575011E+03  # ~t_2
   1000011     1.00213714E+04  # ~e_L-
   2000011     1.00089029E+04  # ~e_R-
   1000012     1.00205982E+04  # ~nu_eL
   1000013     1.00214014E+04  # ~mu_L-
   2000013     1.00089613E+04  # ~mu_R-
   1000014     1.00206281E+04  # ~nu_muL
   1000015     1.00255352E+04  # ~tau_1-
   2000015     1.00299848E+04  # ~tau_2-
   1000016     1.00291481E+04  # ~nu_tauL
   1000021     3.01922893E+03  # ~g
   1000022     1.40704918E+02  # ~chi_10
   1000023     1.48638676E+02  # ~chi_20
   1000025     6.07167031E+02  # ~chi_30
   1000035     6.36815286E+02  # ~chi_40
   1000024     1.44131039E+02  # ~chi_1+
   1000037     6.07326287E+02  # ~chi_2+
# Higgs mixing
Block alpha # Effective Higgs mixing angle
          -2.04959438E-02   # alpha
Block Hmix Q=  3.60610108E+03  # Higgs mixing parameters
   1   -1.27293777E+02  # mu
   2    4.88556065E+01  # tan[beta](Q)
   3    2.43044625E+02  # v(Q)
   4    1.52820354E+06  # m^2_A(Q)
Block stopmix # stop mixing matrix
   1  1     9.86634170E-01   # Re[R_st(1,1)]
   1  2     1.62950955E-01   # Re[R_st(1,2)]
   2  1    -1.62950955E-01   # Re[R_st(2,1)]
   2  2     9.86634170E-01   # Re[R_st(2,2)]
Block sbotmix # sbottom mixing matrix
   1  1    -1.48901315E-03   # Re[R_sb(1,1)]
   1  2     9.99998891E-01   # Re[R_sb(1,2)]
   2  1    -9.99998891E-01   # Re[R_sb(2,1)]
   2  2    -1.48901315E-03   # Re[R_sb(2,2)]
Block staumix # stau mixing matrix
   1  1    -1.08498606E-01   # Re[R_sta(1,1)]
   1  2     9.94096601E-01   # Re[R_sta(1,2)]
   2  1    -9.94096601E-01   # Re[R_sta(2,1)]
   2  2    -1.08498606E-01   # Re[R_sta(2,2)]
Block Nmix # neutralino mixing matrix
   1  1    -3.84238677E-02   # Re[N(1,1)]
   1  2    -1.18543153E-01   # Re[N(1,2)]
   1  3    -7.15453294E-01   # Re[N(1,3)]
   1  4    -6.87457425E-01   # Re[N(1,4)]
   2  1     6.59062212E-02   # Re[N(2,1)]
   2  2     7.87891136E-02   # Re[N(2,2)]
   2  3    -6.97771319E-01   # Re[N(2,3)]
   2  4     7.08917366E-01   # Re[N(2,4)]
   3  1     4.96276391E-03   # Re[N(3,1)]
   3  2    -9.89806182E-01   # Re[N(3,2)]
   3  3     3.00524137E-02   # Re[N(3,3)]
   3  4     1.39125647E-01   # Re[N(3,4)]
   4  1    -9.97073391E-01   # Re[N(4,1)]
   4  2     4.84959766E-03   # Re[N(4,2)]
   4  3    -1.84016997E-02   # Re[N(4,3)]
   4  4     7.40439834E-02   # Re[N(4,4)]
Block Umix # chargino mixing matrix
   1  1    -4.29109061E-02   # Re[U(1,1)]
   1  2    -9.99078903E-01   # Re[U(1,2)]
   2  1     9.99078903E-01   # Re[U(2,1)]
   2  2    -4.29109061E-02   # Re[U(2,2)]
Block Vmix # chargino mixing matrix
   1  1    -1.98088967E-01   # Re[V(1,1)]
   1  2     9.80184045E-01   # Re[V(1,2)]
   2  1     9.80184045E-01   # Re[V(2,1)]
   2  2     1.98088967E-01   # Re[V(2,2)]
DECAY        23     2.49520000E+00   # Z
DECAY        24     2.08500000E+00   # W
DECAY   2000011     4.98869843E+01   # ~e^-_R
#    BR                NDA      ID1      ID2
     1.48780670E-03    2     1000022        11   # BR(~e^-_R -> chi^0_1 e^-)
     4.37692334E-03    2     1000023        11   # BR(~e^-_R -> chi^0_2 e^-)
     9.94110541E-01    2     1000035        11   # BR(~e^-_R -> chi^0_4 e^-)
DECAY   1000011     1.43856073E+02   # ~e^-_L
#    BR                NDA      ID1      ID2
     5.92787049E-03    2     1000022        11   # BR(~e^-_L -> chi^0_1 e^-)
     3.98294014E-03    2     1000023        11   # BR(~e^-_L -> chi^0_2 e^-)
     2.96605021E-01    2     1000025        11   # BR(~e^-_L -> chi^0_3 e^-)
     8.47303263E-02    2     1000035        11   # BR(~e^-_L -> chi^0_4 e^-)
     1.12872409E-03    2    -1000024        12   # BR(~e^-_L -> chi^-_1 nu_e)
     6.07625118E-01    2    -1000037        12   # BR(~e^-_L -> chi^-_2 nu_e)
#    BR                NDA      ID1      ID2       ID3
DECAY   2000013     5.02385660E+01   # ~mu^-_R
#    BR                NDA      ID1      ID2
     3.26706051E-03    2     1000022        13   # BR(~mu^-_R -> chi^0_1 mu^-)
     6.04853240E-03    2     1000023        13   # BR(~mu^-_R -> chi^0_2 mu^-)
     9.87160538E-01    2     1000035        13   # BR(~mu^-_R -> chi^0_4 mu^-)
     3.48986630E-03    2    -1000024        14   # BR(~mu^-_R -> chi^-_1 nu_mu)
DECAY   1000013     1.44032371E+02   # ~mu^-_L
#    BR                NDA      ID1      ID2
     6.54564371E-03    2     1000022        13   # BR(~mu^-_L -> chi^0_1 mu^-)
     4.57254719E-03    2     1000023        13   # BR(~mu^-_L -> chi^0_2 mu^-)
     2.96243964E-01    2     1000025        13   # BR(~mu^-_L -> chi^0_3 mu^-)
     8.46272829E-02    2     1000035        13   # BR(~mu^-_L -> chi^0_4 mu^-)
     1.12734589E-03    2    -1000024        14   # BR(~mu^-_L -> chi^-_1 nu_mu)
     6.06883216E-01    2    -1000037        14   # BR(~mu^-_L -> chi^-_2 nu_mu)
#    BR                NDA      ID1      ID2       ID3
DECAY   1000015     1.50029066E+02   # ~tau^-_1
#    BR                NDA      ID1      ID2
     1.75077209E-01    2     1000022        15   # BR(~tau^-_1 -> chi^0_1 tau^-)
     1.60937269E-01    2     1000023        15   # BR(~tau^-_1 -> chi^0_2 tau^-)
     1.65964535E-03    2     1000025        15   # BR(~tau^-_1 -> chi^0_3 tau^-)
     3.27623436E-01    2     1000035        15   # BR(~tau^-_1 -> chi^0_4 tau^-)
     3.31297595E-01    2    -1000024        16   # BR(~tau^-_1 -> chi^-_1 nu_tau)
     3.40484633E-03    2    -1000037        16   # BR(~tau^-_1 -> chi^-_2 nu_tau)
DECAY   2000015     1.93241642E+02   # ~tau^-_2
#    BR                NDA      ID1      ID2
     1.32585046E-01    2     1000022        15   # BR(~tau^-_2 -> chi^0_1 tau^-)
     1.29977779E-01    2     1000023        15   # BR(~tau^-_2 -> chi^0_2 tau^-)
     2.20175218E-01    2     1000025        15   # BR(~tau^-_2 -> chi^0_3 tau^-)
     6.60167232E-02    2     1000035        15   # BR(~tau^-_2 -> chi^0_4 tau^-)
     6.86096072E-04    2    -1000024        16   # BR(~tau^-_2 -> chi^-_1 nu_tau)
     4.50559138E-01    2    -1000037        16   # BR(~tau^-_2 -> chi^-_2 nu_tau)
#    BR                NDA      ID1      ID2       ID3
DECAY   1000012     1.43860955E+02   # ~nu_e
#    BR                NDA      ID1      ID2
     2.94428243E-03    2     1000022        12   # BR(~nu_e -> chi^0_1 nu_e)
     5.82036376E-04    2     1000023        12   # BR(~nu_e -> chi^0_2 nu_e)
     2.99766313E-01    2     1000025        12   # BR(~nu_e -> chi^0_3 nu_e)
     8.78631416E-02    2     1000035        12   # BR(~nu_e -> chi^0_4 nu_e)
     2.40505626E-02    2     1000024        11   # BR(~nu_e -> chi^+_1 e^-)
     5.84793664E-01    2     1000037        11   # BR(~nu_e -> chi^+_2 e^-)
#    BR                NDA      ID1      ID2       ID3
DECAY   1000014     1.44037238E+02   # ~nu_mu
#    BR                NDA      ID1      ID2
     2.94068778E-03    2     1000022        14   # BR(~nu_mu -> chi^0_1 nu_mu)
     5.81325773E-04    2     1000023        14   # BR(~nu_mu -> chi^0_2 nu_mu)
     2.99400344E-01    2     1000025        14   # BR(~nu_mu -> chi^0_3 nu_mu)
     8.77558743E-02    2     1000035        14   # BR(~nu_mu -> chi^0_4 nu_mu)
     2.52398203E-02    2     1000024        13   # BR(~nu_mu -> chi^+_1 mu^-)
     5.84081948E-01    2     1000037        13   # BR(~nu_mu -> chi^+_2 mu^-)
#    BR                NDA      ID1      ID2       ID3
DECAY   1000016     1.93768784E+02   # ~nu_tau
#    BR                NDA      ID1      ID2
     2.18780837E-03    2     1000022        16   # BR(~nu_tau -> chi^0_1 nu_tau)
     4.32493888E-04    2     1000023        16   # BR(~nu_tau -> chi^0_2 nu_tau)
     2.22750046E-01    2     1000025        16   # BR(~nu_tau -> chi^0_3 nu_tau)
     6.52893359E-02    2     1000035        16   # BR(~nu_tau -> chi^0_4 nu_tau)
     2.74323260E-01    2     1000024        15   # BR(~nu_tau -> chi^+_1 tau^-)
     4.35017056E-01    2     1000037        15   # BR(~nu_tau -> chi^+_2 tau^-)
#    BR                NDA      ID1      ID2       ID3
DECAY   2000001     6.65504445E+02   # ~d_R
#    BR                NDA      ID1      ID2
     8.34554260E-03    2     1000035         1   # BR(~d_R -> chi^0_4 d)
     9.91604614E-01    2     1000021         1   # BR(~d_R -> ~g d)
DECAY   1000001     7.96173763E+02   # ~d_L
#    BR                NDA      ID1      ID2
     6.97319584E-04    2     1000022         1   # BR(~d_L -> chi^0_1 d)
     2.51318548E-04    2     1000023         1   # BR(~d_L -> chi^0_2 d)
     5.44716574E-02    2     1000025         1   # BR(~d_L -> chi^0_3 d)
     1.84518452E-03    2     1000035         1   # BR(~d_L -> chi^0_4 d)
     2.05788552E-04    2    -1000024         2   # BR(~d_L -> chi^-_1 u)
     1.10795730E-01    2    -1000037         2   # BR(~d_L -> chi^-_2 u)
     8.31733001E-01    2     1000021         1   # BR(~d_L -> ~g d)
DECAY   2000003     6.65603374E+02   # ~s_R
#    BR                NDA      ID1      ID2
     8.34433632E-03    2     1000035         3   # BR(~s_R -> chi^0_4 s)
     9.91458779E-01    2     1000021         3   # BR(~s_R -> ~g s)
DECAY   1000003     7.96227128E+02   # ~s_L
#    BR                NDA      ID1      ID2
     7.28819123E-04    2     1000022         3   # BR(~s_L -> chi^0_1 s)
     2.81306063E-04    2     1000023         3   # BR(~s_L -> chi^0_2 s)
     5.44680954E-02    2     1000025         3   # BR(~s_L -> chi^0_3 s)
     1.84508267E-03    2     1000035         3   # BR(~s_L -> chi^0_4 s)
     2.10178340E-04    2    -1000024         4   # BR(~s_L -> chi^-_1 c)
     1.10788552E-01    2    -1000037         4   # BR(~s_L -> chi^-_2 c)
     8.31677966E-01    2     1000021         3   # BR(~s_L -> ~g s)
DECAY   1000005     6.32725089E+01   # ~b_1
#    BR                NDA      ID1      ID2
     2.52903785E-01    2     1000022         5   # BR(~b_1 -> chi^0_1 b)
     2.40342914E-01    2     1000023         5   # BR(~b_1 -> chi^0_2 b)
     3.70842766E-04    2     1000025         5   # BR(~b_1 -> chi^0_3 b)
     1.80615623E-02    2     1000035         5   # BR(~b_1 -> chi^0_4 b)
     4.87575280E-01    2    -1000024         6   # BR(~b_1 -> chi^-_1 t)
     7.45617013E-04    2    -1000037         6   # BR(~b_1 -> chi^-_2 t)
DECAY   2000005     1.72843597E+02   # ~b_2
#    BR                NDA      ID1      ID2
     1.35828241E-01    2     1000022         5   # BR(~b_2 -> chi^0_1 b)
     1.28543273E-01    2     1000023         5   # BR(~b_2 -> chi^0_2 b)
     8.10155213E-02    2     1000025         5   # BR(~b_2 -> chi^0_3 b)
     2.80805002E-03    2     1000035         5   # BR(~b_2 -> chi^0_4 b)
     3.87645258E-01    2    -1000024         6   # BR(~b_2 -> chi^-_1 t)
     1.80163952E-01    2    -1000037         6   # BR(~b_2 -> chi^-_2 t)
     8.39082852E-02    2     1000021         5   # BR(~b_2 -> ~g b)
DECAY   2000002     6.82557255E+02   # ~u_R
#    BR                NDA      ID1      ID2
     1.43331011E-04    2     1000023         2   # BR(~u_R -> chi^0_2 u)
     3.25584206E-02    2     1000035         2   # BR(~u_R -> chi^0_4 u)
     9.67248721E-01    2     1000021         2   # BR(~u_R -> ~g u)
DECAY   1000002     7.96160134E+02   # ~u_L
#    BR                NDA      ID1      ID2
     8.78516373E-04    2     1000022         2   # BR(~u_L -> chi^0_1 u)
     4.57905511E-04    2     1000023         2   # BR(~u_L -> chi^0_2 u)
     5.42763929E-02    2     1000025         2   # BR(~u_L -> chi^0_3 u)
     1.65413428E-03    2     1000035         2   # BR(~u_L -> chi^0_4 u)
     4.38545772E-03    2     1000024         1   # BR(~u_L -> chi^+_1 d)
     1.06642450E-01    2     1000037         1   # BR(~u_L -> chi^+_2 d)
     8.31705143E-01    2     1000021         2   # BR(~u_L -> ~g u)
DECAY   2000004     6.82564589E+02   # ~c_R
#    BR                NDA      ID1      ID2
     1.46010849E-04    2     1000023         4   # BR(~c_R -> chi^0_2 c)
     3.25581004E-02    2     1000035         4   # BR(~c_R -> chi^0_4 c)
     9.67238404E-01    2     1000021         4   # BR(~c_R -> ~g c)
DECAY   1000004     7.96213466E+02   # ~c_L
#    BR                NDA      ID1      ID2
     8.80623873E-04    2     1000022         4   # BR(~c_L -> chi^0_1 c)
     4.60178263E-04    2     1000023         4   # BR(~c_L -> chi^0_2 c)
     5.42728794E-02    2     1000025         4   # BR(~c_L -> chi^0_3 c)
     1.65404962E-03    2     1000035         4   # BR(~c_L -> chi^0_4 c)
     4.44667935E-03    2     1000024         3   # BR(~c_L -> chi^+_1 s)
     1.06635486E-01    2     1000037         3   # BR(~c_L -> chi^+_2 s)
     8.31650104E-01    2     1000021         4   # BR(~c_L -> ~g c)
DECAY   1000006     1.84270923E+02   # ~t_1
#    BR                NDA      ID1      ID2
     2.89639213E-04    2     1000022         4   # BR(~t_1 -> chi^0_1 c)
     1.83054529E-01    2     1000022         6   # BR(~t_1 -> chi^0_1 t)
     1.50915408E-04    2     1000023         4   # BR(~t_1 -> chi^0_2 c)
     1.91637980E-01    2     1000023         6   # BR(~t_1 -> chi^0_2 t)
     7.32349117E-02    2     1000025         6   # BR(~t_1 -> chi^0_3 t)
     7.37733293E-03    2     1000035         6   # BR(~t_1 -> chi^0_4 t)
     2.70841701E-01    2     1000024         5   # BR(~t_1 -> chi^+_1 b)
     1.30164085E-01    2     1000037         5   # BR(~t_1 -> chi^+_2 b)
     1.71446043E-02    2     1000021         4   # BR(~t_1 -> ~g c)
     7.70424804E-02    2     1000021         6   # BR(~t_1 -> ~g t)
#    BR                NDA      ID1      ID2       ID3
     4.90161071E-02    3     1000022        24         5   # BR(~t_1 -> chi^0_1 W^+ b)
DECAY   2000006     2.07869631E+02   # ~t_2
#    BR                NDA      ID1      ID2
     1.71115967E-01    2     1000022         6   # BR(~t_2 -> chi^0_1 t)
     1.84274215E-01    2     1000023         6   # BR(~t_2 -> chi^0_2 t)
     1.60694791E-02    2     1000025         6   # BR(~t_2 -> chi^0_3 t)
     3.65982843E-02    2     1000035         6   # BR(~t_2 -> chi^0_4 t)
     3.38135523E-01    2     1000024         5   # BR(~t_2 -> chi^+_1 b)
     3.18458815E-02    2     1000037         5   # BR(~t_2 -> chi^+_2 b)
     1.72395674E-01    2     1000021         6   # BR(~t_2 -> ~g t)
     2.23763067E-02    2     2000005        24   # BR(~t_2 -> ~b_2 W^+)
     6.27989303E-04    2     1000005        37   # BR(~t_2 -> ~b_1 H^+)
     1.14038353E-02    2     1000006        23   # BR(~t_2 -> ~t_1 Z)
     1.51545188E-02    2     1000006        25   # BR(~t_2 -> ~t_1 h^0)
DECAY   1000024     4.98073967E-10   # chi^+_1
#    BR                NDA      ID1      ID2       ID3
     4.40910672E-01    3     1000022        -1         2   # BR(chi^+_1 -> chi^0_1 d_bar u)
     2.27045186E-01    3     1000022        -3         4   # BR(chi^+_1 -> chi^0_1 s_bar c)
     1.46970158E-01    3     1000022       -11        12   # BR(chi^+_1 -> chi^0_1 e^+ nu_e)
     1.46274697E-01    3     1000022       -13        14   # BR(chi^+_1 -> chi^0_1 mu^+ nu_mu)
     3.87992868E-02    3     1000022       -15        16   # BR(chi^+_1 -> chi^0_1 tau^+ nu_tau)
DECAY   1000037     4.98188824E+00   # chi^+_2
#    BR                NDA      ID1      ID2
     2.49890976E-01    2     1000022        24   # BR(chi^+_2 -> chi^0_1 W^+)
     2.68894018E-01    2     1000023        24   # BR(chi^+_2 -> chi^0_2 W^+)
     2.49895775E-01    2     1000024        23   # BR(chi^+_2 -> chi^+_1 Z)
     2.27774549E-01    2     1000024        25   # BR(chi^+_2 -> chi^+_1 h^0)
#    BR                NDA      ID1      ID2       ID3
     3.65858664E-04    3     1000024         6        -6   # BR(chi^+_2 -> chi^+_1 t t_bar)
     1.48472971E-03    3     1000022        -5         6   # BR(chi^+_2 -> chi^0_1 b_bar t)
     1.65942484E-03    3     1000023        -5         6   # BR(chi^+_2 -> chi^0_2 b_bar t)
DECAY   1000022     0.00000000E+00   # chi^0_1
DECAY   1000023     1.39321929E-07   # chi^0_2
#    BR                NDA      ID1      ID2
     3.46647660E-01    2     1000022        22   # BR(chi^0_2 -> chi^0_1 photon)
#    BR                NDA      ID1      ID2       ID3
     8.40899270E-02    3     1000022         2        -2   # BR(chi^0_2 -> chi^0_1 u u_bar)
     5.95512195E-02    3     1000022         4        -4   # BR(chi^0_2 -> chi^0_1 c c_bar)
     1.07819828E-01    3     1000022         1        -1   # BR(chi^0_2 -> chi^0_1 d d_bar)
     1.07640099E-01    3     1000022         3        -3   # BR(chi^0_2 -> chi^0_1 s s_bar)
     2.43318362E-02    3     1000022        11       -11   # BR(chi^0_2 -> chi^0_1 e^- e^+)
     2.42680095E-02    3     1000022        13       -13   # BR(chi^0_2 -> chi^0_1 mu^- mu^+)
     1.13443492E-02    3     1000022        15       -15   # BR(chi^0_2 -> chi^0_1 tau^- tau^+)
     1.44186295E-01    3     1000022        12       -12   # BR(chi^0_2 -> chi^0_1 nu_e nu_bar_e)
     1.79768569E-02    3     1000024         1        -2   # BR(chi^0_2 -> chi^+_1 d u_bar)
     1.79768569E-02    3    -1000024        -1         2   # BR(chi^0_2 -> chi^-_1 d_bar u)
     1.22711716E-02    3     1000024         3        -4   # BR(chi^0_2 -> chi^+_1 s c_bar)
     1.22711716E-02    3    -1000024        -3         4   # BR(chi^0_2 -> chi^-_1 s_bar c)
     5.99230591E-03    3     1000024        11       -12   # BR(chi^0_2 -> chi^+_1 e^- nu_bar_e)
     5.99230591E-03    3    -1000024       -11        12   # BR(chi^0_2 -> chi^-_1 e^+ nu_e)
     5.97592943E-03    3     1000024        13       -14   # BR(chi^0_2 -> chi^+_1 mu^- nu_bar_mu)
     5.97592943E-03    3    -1000024       -13        14   # BR(chi^0_2 -> chi^-_1 mu^+ nu_mu)
     2.84412454E-03    3     1000024        15       -16   # BR(chi^0_2 -> chi^+_1 tau^- nu_bar_tau)
     2.84412454E-03    3    -1000024       -15        16   # BR(chi^0_2 -> chi^-_1 tau^+ nu_tau)
DECAY   1000025     5.61137056E+00   # chi^0_3
#    BR                NDA      ID1      ID2
     2.33799337E-01    2     1000024       -24   # BR(chi^0_3 -> chi^+_1 W^-)
     2.33799337E-01    2    -1000024        24   # BR(chi^0_3 -> chi^-_1 W^+)
     6.52482549E-02    2     1000022        23   # BR(chi^0_3 -> chi^0_1 Z)
     1.66828061E-01    2     1000023        23   # BR(chi^0_3 -> chi^0_2 Z)
     1.35133984E-01    2     1000022        25   # BR(chi^0_3 -> chi^0_1 h^0)
     1.62239616E-01    2     1000023        25   # BR(chi^0_3 -> chi^0_2 h^0)
#    BR                NDA      ID1      ID2       ID3
     1.35725420E-03    3     1000024         5        -6   # BR(chi^0_3 -> chi^+_1 b t_bar)
     1.35725420E-03    3    -1000024        -5         6   # BR(chi^0_3 -> chi^-_1 b_bar t)
DECAY   1000035     1.86508838E+00   # chi^0_4
#    BR                NDA      ID1      ID2
     2.35412806E-01    2     1000024       -24   # BR(chi^0_4 -> chi^+_1 W^-)
     2.35412806E-01    2    -1000024        24   # BR(chi^0_4 -> chi^-_1 W^+)
     1.71023189E-01    2     1000022        23   # BR(chi^0_4 -> chi^0_1 Z)
     6.44673612E-02    2     1000023        23   # BR(chi^0_4 -> chi^0_2 Z)
     1.34979614E-01    2     1000022        25   # BR(chi^0_4 -> chi^0_1 h^0)
     1.54529611E-01    2     1000023        25   # BR(chi^0_4 -> chi^0_2 h^0)
#    BR                NDA      ID1      ID2       ID3
     1.76327253E-04    3     1000022         6        -6   # BR(chi^0_4 -> chi^0_1 t t_bar)
     1.66037359E-04    3     1000023         6        -6   # BR(chi^0_4 -> chi^0_2 t t_bar)
     1.89119341E-03    3     1000024         5        -6   # BR(chi^0_4 -> chi^+_1 b t_bar)
     1.89119341E-03    3    -1000024        -5         6   # BR(chi^0_4 -> chi^-_1 b_bar t)
DECAY   1000021     1.35304732E+01   # ~g
#    BR                NDA      ID1      ID2
     4.82386949E-01    2     1000005        -5   # BR(~g -> ~b_1 b_bar)
     4.82386949E-01    2    -1000005         5   # BR(~g -> ~b^*_1 b)
#    BR                NDA      ID1      ID2       ID3
     4.96894395E-03    3     1000022         6        -6   # BR(~g -> chi^0_1 t t_bar)
     1.76540340E-03    3     1000022         5        -5   # BR(~g -> chi^0_1 b b_bar)
     5.30543731E-03    3     1000023         6        -6   # BR(~g -> chi^0_2 t t_bar)
     1.66760668E-03    3     1000023         5        -5   # BR(~g -> chi^0_2 b b_bar)
     1.28300190E-03    3     1000025         6        -6   # BR(~g -> chi^0_3 t t_bar)
     1.09770277E-03    3     1000025         5        -5   # BR(~g -> chi^0_3 b b_bar)
     3.16812103E-04    3     1000035         6        -6   # BR(~g -> chi^0_4 t t_bar)
     6.88430107E-03    3     1000024         5        -6   # BR(~g -> chi^+_1 b t_bar)
     6.88430107E-03    3    -1000024        -5         6   # BR(~g -> chi^-_1 b_bar t)
     2.39667202E-03    3     1000037         5        -6   # BR(~g -> chi^+_2 b t_bar)
     2.39667202E-03    3    -1000037        -5         6   # BR(~g -> chi^-_2 b_bar t)
DECAY        25     3.48593046E-03   # Gamma(h0)
     2.54663413E-03   2        22        22   # BR(h0 -> photon photon)
     1.56830539E-03   2        22        23   # BR(h0 -> photon Z)
     2.83762186E-02   2        23        23   # BR(h0 -> Z Z)
     2.37448513E-01   2       -24        24   # BR(h0 -> W W)
     7.95071591E-02   2        21        21   # BR(h0 -> gluon gluon)
     5.01285846E-09   2       -11        11   # BR(h0 -> Electron electron)
     2.22980562E-04   2       -13        13   # BR(h0 -> Muon muon)
     6.42920981E-02   2       -15        15   # BR(h0 -> Tau tau)
     1.38949829E-07   2        -2         2   # BR(h0 -> Up up)
     2.69671405E-02   2        -4         4   # BR(h0 -> Charm charm)
     5.80817431E-07   2        -1         1   # BR(h0 -> Down down)
     2.10067954E-04   2        -3         3   # BR(h0 -> Strange strange)
     5.58860158E-01   2        -5         5   # BR(h0 -> Bottom bottom)
DECAY        35     4.84098413E+01   # Gamma(HH)
     1.31099030E-07   2        22        22   # BR(HH -> photon photon)
     2.05723401E-07   2        22        23   # BR(HH -> photon Z)
     7.53251102E-07   2        23        23   # BR(HH -> Z Z)
     7.82423780E-07   2       -24        24   # BR(HH -> W W)
     3.67180309E-05   2        21        21   # BR(HH -> gluon gluon)
     8.47755036E-09   2       -11        11   # BR(HH -> Electron electron)
     3.77357497E-04   2       -13        13   # BR(HH -> Muon muon)
     1.08969568E-01   2       -15        15   # BR(HH -> Tau tau)
     2.74649704E-14   2        -2         2   # BR(HH -> Up up)
     5.32647098E-09   2        -4         4   # BR(HH -> Charm charm)
     3.67575893E-04   2        -6         6   # BR(HH -> Top top)
     7.00520637E-07   2        -1         1   # BR(HH -> Down down)
     2.53372137E-04   2        -3         3   # BR(HH -> Strange strange)
     6.80090157E-01   2        -5         5   # BR(HH -> Bottom bottom)
     8.94114480E-03   2  -1000024   1000024   # BR(HH -> Chargino1 chargino1)
     6.06163134E-02   2  -1000024   1000037   # BR(HH -> Chargino1 chargino2)
     6.06163134E-02   2  -1000037   1000024   # BR(HH -> Chargino2 chargino1)
     3.57950718E-05   2  -1000037   1000037   # BR(HH -> Chargino2 chargino2)
     1.17465690E-03   2   1000022   1000022   # BR(HH -> neutralino1 neutralino1)
     1.13933636E-04   2   1000022   1000023   # BR(HH -> neutralino1 neutralino2)
     2.95517887E-02   2   1000022   1000025   # BR(HH -> neutralino1 neutralino3)
     9.64019545E-03   2   1000022   1000035   # BR(HH -> neutralino1 neutralino4)
     2.48558989E-04   2   1000023   1000023   # BR(HH -> neutralino2 neutralino2)
     3.26454852E-02   2   1000023   1000025   # BR(HH -> neutralino2 neutralino3)
     6.26642028E-03   2   1000023   1000035   # BR(HH -> neutralino2 neutralino4)
     1.80420300E-05   2   1000025   1000025   # BR(HH -> neutralino3 neutralino3)
     2.87767455E-05   2   1000025   1000035   # BR(HH -> neutralino3 neutralino4)
     5.23987200E-06   2        25        25   # BR(HH -> h0 h0)
DECAY        36     4.66702714E+01   # Gamma(A0)
     5.01834550E-09   2        22        22   # BR(A0 -> photon photon)
     8.57872383E-08   2        22        23   # BR(A0 -> photon Z)
     5.23916235E-05   2        21        21   # BR(A0 -> gluon gluon)
     8.39157159E-09   2       -11        11   # BR(A0 -> Electron electron)
     3.73530218E-04   2       -13        13   # BR(A0 -> Muon muon)
     1.07865319E-01   2       -15        15   # BR(A0 -> Tau tau)
     2.61884269E-14   2        -2         2   # BR(A0 -> Up up)
     5.07792165E-09   2        -4         4   # BR(A0 -> Charm charm)
     3.83428190E-04   2        -6         6   # BR(A0 -> Top top)
     6.93377669E-07   2        -1         1   # BR(A0 -> Down down)
     2.50788604E-04   2        -3         3   # BR(A0 -> Strange strange)
     6.73178454E-01   2        -5         5   # BR(A0 -> Bottom bottom)
     9.51522406E-03   2  -1000024   1000024   # BR(A0 -> Chargino1 chargino1)
     6.27502718E-02   2  -1000024   1000037   # BR(A0 -> Chargino1 chargino2)
     6.27502718E-02   2  -1000037   1000024   # BR(A0 -> Chargino2 chargino1)
     1.39841011E-04   2  -1000037   1000037   # BR(A0 -> Chargino2 chargino2)
     1.17339283E-03   2   1000022   1000022   # BR(A0 -> neutralino1 neutralino1)
     1.46051296E-04   2   1000022   1000023   # BR(A0 -> neutralino1 neutralino2)
     3.57045952E-02   2   1000022   1000025   # BR(A0 -> neutralino1 neutralino3)
     7.00191720E-03   2   1000022   1000035   # BR(A0 -> neutralino1 neutralino4)
     2.93410820E-04   2   1000023   1000023   # BR(A0 -> neutralino2 neutralino2)
     2.87975047E-02   2   1000023   1000025   # BR(A0 -> neutralino2 neutralino3)
     9.54876823E-03   2   1000023   1000035   # BR(A0 -> neutralino2 neutralino4)
     7.09449500E-05   2   1000025   1000025   # BR(A0 -> neutralino3 neutralino3)
     2.02536083E-06   2   1000025   1000035   # BR(A0 -> neutralino3 neutralino4)
     1.07123304E-06   2        23        25   # BR(A0 -> Z h0)
     2.88313270E-38   2        25        25   # BR(A0 -> h0 h0)
DECAY        37     5.23499026E+01   # Gamma(Hp)
     9.59465726E-09   2       -11        12   # BR(Hp -> Electron nu_e)
     4.10201560E-04   2       -13        14   # BR(Hp -> Muon nu_mu)
     1.16027933E-01   2       -15        16   # BR(Hp -> Tau nu_tau)
     6.87387948E-07   2        -1         2   # BR(Hp -> Down up)
     1.14769147E-05   2        -3         2   # BR(Hp -> Strange up)
     7.45147266E-06   2        -5         2   # BR(Hp -> Bottom up)
     3.20053481E-08   2        -1         4   # BR(Hp -> Down charm)
     2.47724755E-04   2        -3         4   # BR(Hp -> Strange charm)
     1.04347097E-03   2        -5         4   # BR(Hp -> Bottom charm)
     2.66779976E-08   2        -1         6   # BR(Hp -> Down top)
     9.32785039E-07   2        -3         6   # BR(Hp -> Strange top)
     6.88709365E-01   2        -5         6   # BR(Hp -> Bottom top)
     9.57146914E-04   2   1000022   1000024   # BR(Hp -> neutralino1 chargino1)
     6.18694937E-02   2   1000022   1000037   # BR(Hp -> neutralino1 chargino2)
     2.46197340E-03   2   1000023   1000024   # BR(Hp -> neutralino2 chargino1)
     5.62999605E-02   2   1000023   1000037   # BR(Hp -> neutralino2 chargino2)
     5.76160013E-02   2   1000024   1000025   # BR(Hp -> chargino1 neutralino3)
     1.31569271E-09   2   1000025   1000037   # BR(Hp -> neutralino3 chargino2)
     1.43051181E-02   2   1000024   1000035   # BR(Hp -> chargino1 neutralino4)
     3.00233942E-05   2   1000035   1000037   # BR(Hp -> neutralino4 chargino2)
     9.68462313E-07   2        24        25   # BR(Hp -> W h0)
     5.40742480E-11   2        24        35   # BR(Hp -> W HH)
     2.99095094E-11   2        24        36   # BR(Hp -> W A0)
DECAY         6     2.43000000E+00   # top
#    BR                NDA      ID1      ID2
     1.00000000E+00    2           5        24   # BR(t -> b W)
Block HiggsBoundsInputHiggsCouplingsFermions
# ScalarNormEffCoupSq PseudoSNormEffCoupSq NP IP1 IP2 IP2
    1.00296496E+00    0.00000000E+00        3  25   5   5  # h0-b-b eff. coupling^2, normalised to SM
    2.38686732E+03    0.00000000E+00        3  35   5   5  # H0-b-b eff. coupling^2, normalised to SM
    0.00000000E+00    2.38687029E+03        3  36   5   5  # A0-b-b eff. coupling^2, normalised to SM
#
    9.99998758E-01    0.00000000E+00        3  25   6   6  # h0-t-t eff. coupling^2, normalised to SM
    4.20200865E-04    0.00000000E+00        3  35   6   6  # H0-t-t eff. coupling^2, normalised to SM
    0.00000000E+00    4.18958670E-04        3  36   6   6  # A0-t-t eff. coupling^2, normalised to SM
#
    1.00296496E+00    0.00000000E+00        3  25  15  15  # h0-tau-tau eff. coupling^2, normalised to SM
    2.38686732E+03    0.00000000E+00        3  35  15  15  # H0-tau-tau eff. coupling^2, normalised to SM
    0.00000000E+00    2.38687029E+03        3  36  15  15  # A0-tau-tau eff. coupling^2, normalised to SM
#
Block HiggsBoundsInputHiggsCouplingsBosons
    9.99999999E-01        3  25  24  24  # h0-W-W eff. coupling^2, normalised to SM
    9.19402872E-10        3  35  24  24  # H0-W-W eff. coupling^2, normalised to SM
    0.00000000E+00        3  36  24  24  # A0-W-W eff. coupling^2, normalised to SM
#
    9.99999999E-01        3  25  23  23  # h0-Z-Z eff. coupling^2, normalised to SM
    9.19402872E-10        3  35  23  23  # H0-Z-Z eff. coupling^2, normalised to SM
    0.00000000E+00        3  36  23  23  # A0-Z-Z eff. coupling^2, normalised to SM
#
    1.26330560E+00        3  25  21  21  # h0-g-g eff. coupling^2, normalised to SM
    2.59020621E-02        3  35  21  21  # H0-g-g eff. coupling^2, normalised to SM
    1.72990724E-01        3  36  21  21  # A0-g-g eff. coupling^2, normalised to SM
#
    0.00000000E+00        3  25  25  23  # h0-h0-Z eff. coupling^2, normalised to SM
    0.00000000E+00        3  35  25  23  # H0-h0-Z eff. coupling^2, normalised to SM
    9.19402872E-10        3  36  25  23  # A0-h0-Z eff. coupling^2, normalised to SM
    0.00000000E+00        3  35  35  23  # H0-H0-Z eff. coupling^2, normalised to SM
    9.99999999E-01        3  36  35  23  # A0-H0-Z eff. coupling^2, normalised to SM
    0.00000000E+00        3  36  36  23  # A0-A0-Z eff. coupling^2, normalised to SM
#
    0.00000000E+00        4  25  21  21  23  # h0-g-g-Z eff. coupling^2, normalised to SM
    0.00000000E+00        4  35  21  21  23  # H0-g-g-Z eff. coupling^2, normalised to SM
    0.00000000E+00        4  36  21  21  23  # A0-g-g-Z eff. coupling^2, normalised to SM
Block SPhenoLowEnergy  # low energy observables
    1    3.59418510E-04   # BR(b -> s gamma)
    2    1.58711327E-06   # BR(b -> s mu+ mu-)
    3    3.52455898E-05   # BR(b -> s nu nu)
    4    1.25515370E-15   # BR(Bd -> e+ e-)
    5    5.35396477E-11   # BR(Bd -> mu+ mu-)
    6    6.67540136E-09   # BR(Bd -> tau+ tau-)
    7    4.07658310E-14   # BR(Bs -> e+ e-)
    8    1.73912884E-09   # BR(Bs -> mu+ mu-)
    9    2.30339547E-07   # BR(Bs -> tau+ tau-)
   10    8.82216277E-05   # BR(B_u -> tau nu)
   11    9.11295639E-01   # BR(B_u -> tau nu)/BR(B_u -> tau nu)_SM
   12    5.41865103E-01   # |Delta(M_Bd)| [ps^-1] 
   13    1.92786383E+01   # |Delta(M_Bs)| [ps^-1] 
   14    0.00000000E+00   # neutron EDM according to the chiral quark model
   15    0.00000000E+00   # neutron EDM according to the relativistic quark-parton model
   16    2.15768020E-03   # epsilon_K
   17    2.28167267E-15   # Delta(M_K)
   18    2.47932317E-11   # BR(K^0 -> pi^0 nu nu)
   19    8.28893269E-11   # BR(K^+ -> pi^+ nu nu)
   20   -4.48088071E-16   # Delta(g-2)_electron/2
   21   -1.91574173E-11   # Delta(g-2)_muon/2
   22   -5.43791056E-09   # Delta(g-2)_tau/2
   23    0.00000000E+00   # electric dipole moment of the electron
   24    0.00000000E+00   # electric dipole moment of the muon
   25    0.00000000E+00   # electric dipole moment of the tau
   26    0.00000000E+00   # Br(mu -> e gamma)
   27    0.00000000E+00   # Br(tau -> e gamma)
   28    0.00000000E+00   # Br(tau -> mu gamma)
   29    0.00000000E+00   # Br(mu -> 3 e)
   30    0.00000000E+00   # Br(tau -> 3 e)
   31    0.00000000E+00   # Br(tau -> 3 mu)
   39    7.63000069E-05   # Delta(rho_parameter)
   40    0.00000000E+00   # BR(Z -> e mu)
   41    0.00000000E+00   # BR(Z -> e tau)
   42    0.00000000E+00   # BR(Z -> mu tau)
Block FWCOEF Q=  1.60000000E+02  # Wilson coefficients at scale Q
#    id        order  M        value         comment
     0305 4422   00   0    -1.88819110E-01   # C7
     0305 4422   00   2    -2.30640528E-01   # C7
     0305 4322   00   2    -6.19144003E-04   # C7'
     0305 6421   00   0    -9.52278348E-02   # C8
     0305 6421   00   2    -1.31478686E-01   # C8
     0305 6321   00   2    -6.28082923E-04   # C8'
 03051111 4133   00   0     1.62383323E+00   # C9 e+e-
 03051111 4133   00   2     1.62421762E+00   # C9 e+e-
 03051111 4233   00   2     3.94045542E-04   # C9' e+e-
 03051111 4137   00   0    -4.44652533E+00   # C10 e+e-
 03051111 4137   00   2    -4.44427090E+00   # C10 e+e-
 03051111 4237   00   2    -2.92549412E-03   # C10' e+e-
 03051313 4133   00   0     1.62383323E+00   # C9 mu+mu-
 03051313 4133   00   2     1.62421743E+00   # C9 mu+mu-
 03051313 4233   00   2     3.94030022E-04   # C9' mu+mu-
 03051313 4137   00   0    -4.44652533E+00   # C10 mu+mu-
 03051313 4137   00   2    -4.44427110E+00   # C10 mu+mu-
 03051313 4237   00   2    -2.92547964E-03   # C10' mu+mu-
 03051212 4137   00   0     1.50535012E+00   # C11 nu_1 nu_1
 03051212 4137   00   2     1.50486406E+00   # C11 nu_1 nu_1
 03051212 4237   00   2     6.33007262E-04   # C11' nu_1 nu_1
 03051414 4137   00   0     1.50535012E+00   # C11 nu_2 nu_2
 03051414 4137   00   2     1.50486406E+00   # C11 nu_2 nu_2
 03051414 4237   00   2     6.33010563E-04   # C11' nu_2 nu_2
 03051616 4137   00   0     1.50535012E+00   # C11 nu_3 nu_3
 03051616 4137   00   2     1.50486406E+00   # C11 nu_3 nu_3
 03051616 4237   00   2     6.33940926E-04   # C11' nu_3 nu_3
Block IMFWCOEF Q=  1.60000000E+02  # Im(Wilson coefficients) at scale Q
#    id        order  M        value         comment
     0305 4422   00   0     3.85813857E-07   # C7
     0305 4422   00   2    -2.07638391E-05   # C7
     0305 4322   00   2    -1.83028197E-06   # C7'
     0305 6421   00   0     3.30475083E-07   # C8
     0305 6421   00   2     2.11358534E-05   # C8
     0305 6321   00   2    -1.34560156E-07   # C8'
 03051111 4133   00   2     8.31330340E-07   # C9 e+e-
 03051111 4233   00   2     1.12640346E-05   # C9' e+e-
 03051111 4137   00   2    -2.20243301E-07   # C10 e+e-
 03051111 4237   00   2    -8.36734103E-05   # C10' e+e-
 03051313 4133   00   2     8.31324282E-07   # C9 mu+mu-
 03051313 4233   00   2     1.12640299E-05   # C9' mu+mu-
 03051313 4137   00   2    -2.20237189E-07   # C10 mu+mu-
 03051313 4237   00   2    -8.36734244E-05   # C10' mu+mu-
 03051212 4137   00   2     7.87615384E-08   # C11 nu_1 nu_1
 03051212 4237   00   2     1.81049441E-05   # C11' nu_1 nu_1
 03051414 4137   00   2     7.87618419E-08   # C11 nu_2 nu_2
 03051414 4237   00   2     1.81049441E-05   # C11' nu_2 nu_2
 03051616 4137   00   2     7.88457971E-08   # C11 nu_3 nu_3
 03051616 4237   00   2     1.81049440E-05   # C11' nu_3 nu_3
