#
#                              ======================
#                              | THE SUSYHIT OUTPUT |
#                              ======================
#
#
#              ------------------------------------------------------
#              |     This is the output of the SUSY-HIT package     |
#              |  created by A.Djouadi, M.Muehlleitner and M.Spira. |
#              |  In case of problems with SUSY-HIT email to        |
#              |           margarete.muehlleitner@cern.ch           |
#              |           michael.spira@psi.ch                     |
#              |           abdelhak.djouadi@cern.ch                 |
#              ------------------------------------------------------
#
#              ------------------------------------------------------
#              |  SUSY Les Houches Accord - MSSM Spectrum + Decays  |
#              |              based on the decay programs           |
#              |                                                    |
#              |                     SDECAY 1.3b                    |
#              |                                                    |
#              |  Authors: M.Muhlleitner, A.Djouadi and Y.Mambrini  |
#              |  Ref.:    Comput.Phys.Commun.168(2005)46           |
#              |           [hep-ph/0311167]                         |
#              |                                                    |
#              |                     HDECAY 3.4                     |
#              |                                                    |
#              |  By: A.Djouadi,J.Kalinowski,M.Muhlleitner,M.Spira  |
#              |  Ref.:    Comput.Phys.Commun.108(1998)56           |
#              |           [hep-ph/9704448]                         |
#              |                                                    |
#              |                                                    |
#              |  If not stated otherwise all DRbar couplings and   |
#              |  soft SUSY breaking masses are given at the scale  |
#              |  Q=  0.31879820E+04
#              |                                                    |
#              ------------------------------------------------------
#
#
BLOCK DCINFO  # Decay Program information
     1   SDECAY/HDECAY # decay calculator
     2   1.3b  /3.4    # version number
#
BLOCK SPINFO  # Spectrum calculator information
     1     SOFTSUSY    # spectrum calculator               
     2     3.4.0       # version number                    
#
BLOCK MODSEL  # Model selection
     1     0   #  nonUniversal                                     
#
BLOCK SMINPUTS  # Standard Model inputs
         1     1.27908970E+02   # alpha_em^-1(M_Z)^MSbar
         2     1.16637870E-05   # G_F [GeV^-2]
         3     1.18400000E-01   # alpha_S(M_Z)^MSbar
         4     9.11876000E+01   # M_Z pole mass
         5     4.18000000E+00   # mb(mb)^MSbar
         6     1.73200000E+02   # mt pole mass
         7     1.77700000E+00   # mtau pole mass
#
BLOCK MINPAR  # Input parameters - minimal models
         3     2.37000000E+01   # tanb                
#
BLOCK EXTPAR  # Input parameters - non-minimal models
         0    -1.00000000E+00   # Set                 
         1    -7.32800000E+02   # M_1(MX)             
         2     2.13853000E+03   # M_2(MX)             
         3     1.45533000E+03   # M_3(MX)             
        11    -3.91455000E+03   # At(MX)              
        12    -2.18631000E+03   # Ab(MX)              
        13    -3.89317000E+03   # Atau(MX)            
        23     8.51360000E+02   # mu(MX)              
        26     1.45929000E+03   # mA(pole)            
        31     1.74565000E+03   # meL(MX)             
        32     1.74565000E+03   # mmuL(MX)            
        33     2.71477000E+03   # mtauL(MX)           
        34     2.45114000E+03   # meR(MX)             
        35     2.45114000E+03   # mmuR(MX)            
        36     2.01139000E+03   # mtauR(MX)           
        41     3.75138000E+03   # mqL1(MX)            
        42     3.75138000E+03   # mqL2(MX)            
        43     3.62961000E+03   # mqL3(MX)            
        44     3.07771000E+03   # muR(MX)             
        45     3.07771000E+03   # mcR(MX)             
        46     2.79916000E+03   # mtR(MX)             
        47     3.61081000E+03   # mdR(MX)             
        48     3.61081000E+03   # msR(MX)             
        49     2.17550000E+03   # mbR(MX)             
#
BLOCK MASS  # Mass Spectrum
# PDG code           mass       particle
        24     8.03924148E+01   # W+
        25     1.26328902E+02   # h
        35     1.45933008E+03   # H
        36     1.45929000E+03   # A
        37     1.46158207E+03   # H+
         5     4.81876030E+00   # b-quark pole mass calculated from mb(mb)_Msbar
   1000001     3.80495456E+03   # ~d_L
   2000001     3.65324587E+03   # ~d_R
   1000002     3.80426303E+03   # ~u_L
   2000002     3.12154166E+03   # ~u_R
   1000003     3.80495456E+03   # ~s_L
   2000003     3.65324587E+03   # ~s_R
   1000004     3.80426303E+03   # ~c_L
   2000004     3.12154166E+03   # ~c_R
   1000005     2.22526477E+03   # ~b_1
   2000005     3.63902044E+03   # ~b_2
   1000006     2.77330343E+03   # ~t_1
   2000006     3.64907531E+03   # ~t_2
   1000011     1.77213099E+03   # ~e_L
   2000011     2.45527501E+03   # ~e_R
   1000012     1.77005572E+03   # ~nu_eL
   1000013     1.77213099E+03   # ~mu_L
   2000013     2.45527501E+03   # ~mu_R
   1000014     1.77005572E+03   # ~nu_muL
   1000015     2.00863937E+03   # ~tau_1
   2000015     2.72821566E+03   # ~tau_2
   1000016     2.72665131E+03   # ~nu_tauL
   1000021     1.70606145E+03   # ~g
   1000022    -7.20419729E+02   # ~chi_10
   1000023     8.79157006E+02   # ~chi_20
   1000025    -8.87711526E+02   # ~chi_30
   1000035     2.18014017E+03   # ~chi_40
   1000024     8.79816039E+02   # ~chi_1+
   1000037     2.18030712E+03   # ~chi_2+
#
BLOCK NMIX  # Neutralino Mixing Matrix
  1  1     9.82849266E-01   # N_11
  1  2     2.96192980E-03   # N_12
  1  3     1.43738782E-01   # N_13
  1  4     1.15489001E-01   # N_14
  2  1    -2.03574583E-02   # N_21
  2  2    -4.41646417E-02   # N_22
  2  3     7.06991769E-01   # N_23
  2  4    -7.05547799E-01   # N_24
  3  1    -1.83282383E-01   # N_31
  3  2     1.70862897E-02   # N_32
  3  3     6.92200176E-01   # N_33
  3  4     6.97835613E-01   # N_34
  4  1    -6.79359618E-04   # N_41
  4  2     9.98873751E-01   # N_42
  4  3     1.89925517E-02   # N_43
  4  4    -4.34747209E-02   # N_44
#
BLOCK UMIX  # Chargino Mixing Matrix U
  1  1    -2.68552124E-02   # U_11
  1  2     9.99639334E-01   # U_12
  2  1    -9.99639334E-01   # U_21
  2  2    -2.68552124E-02   # U_22
#
BLOCK VMIX  # Chargino Mixing Matrix V
  1  1    -6.14918375E-02   # V_11
  1  2     9.98107586E-01   # V_12
  2  1    -9.98107586E-01   # V_21
  2  2    -6.14918375E-02   # V_22
#
BLOCK STOPMIX  # Stop Mixing Matrix
  1  1     1.02476211E-01   # cos(theta_t)
  1  2     9.94735455E-01   # sin(theta_t)
  2  1    -9.94735455E-01   # -sin(theta_t)
  2  2     1.02476211E-01   # cos(theta_t)
#
BLOCK SBOTMIX  # Sbottom Mixing Matrix
  1  1     5.96918382E-03   # cos(theta_b)
  1  2     9.99982184E-01   # sin(theta_b)
  2  1    -9.99982184E-01   # -sin(theta_b)
  2  2     5.96918382E-03   # cos(theta_b)
#
BLOCK STAUMIX  # Stau Mixing Matrix
  1  1     1.26171556E-02   # cos(theta_tau)
  1  2     9.99920401E-01   # sin(theta_tau)
  2  1    -9.99920401E-01   # -sin(theta_tau)
  2  2     1.26171556E-02   # cos(theta_tau)
#
BLOCK ALPHA  # Higgs mixing
          -4.43982183E-02   # Mixing angle in the neutral Higgs boson sector
#
BLOCK HMIX Q=  3.18798200E+03  # DRbar Higgs Parameters
         1     8.66084614E+02   # mu(Q)MSSM           
         2     2.27442123E+01   # tan                 
         3     2.42329409E+02   # higgs               
         4     2.57231597E+06   # mA^2(Q)MSSM         
#
BLOCK GAUGE Q=  3.18798200E+03  # The gauge couplings
     1     3.65209603E-01   # gprime(Q) DRbar
     2     6.36541405E-01   # g(Q) DRbar
     3     1.01753118E+00   # g3(Q) DRbar
#
BLOCK AU Q=  3.18798200E+03  # The trilinear couplings
  1  1     0.00000000E+00   # A_u(Q) DRbar
  2  2     0.00000000E+00   # A_c(Q) DRbar
  3  3    -3.91454999E+03   # A_t(Q) DRbar
#
BLOCK AD Q=  3.18798200E+03  # The trilinear couplings
  1  1     0.00000000E+00   # A_d(Q) DRbar
  2  2     0.00000000E+00   # A_s(Q) DRbar
  3  3    -2.18631000E+03   # A_b(Q) DRbar
#
BLOCK AE Q=  3.18798200E+03  # The trilinear couplings
  1  1     0.00000000E+00   # A_e(Q) DRbar
  2  2     0.00000000E+00   # A_mu(Q) DRbar
  3  3    -3.89317000E+03   # A_tau(Q) DRbar
#
BLOCK Yu Q=  3.18798200E+03  # The Yukawa couplings
  1  1     0.00000000E+00   # y_u(Q) DRbar
  2  2     0.00000000E+00   # y_c(Q) DRbar
  3  3     8.19592742E-01   # y_t(Q) DRbar
#
BLOCK Yd Q=  3.18798200E+03  # The Yukawa couplings
  1  1     0.00000000E+00   # y_d(Q) DRbar
  2  2     0.00000000E+00   # y_s(Q) DRbar
  3  3     3.01678415E-01   # y_b(Q) DRbar
#
BLOCK Ye Q=  3.18798200E+03  # The Yukawa couplings
  1  1     0.00000000E+00   # y_e(Q) DRbar
  2  2     0.00000000E+00   # y_mu(Q) DRbar
  3  3     2.37820029E-01   # y_tau(Q) DRbar
#
BLOCK MSOFT Q=  3.18798200E+03  # The soft SUSY breaking masses at the scale Q
         1    -7.32800000E+02   # M_1(Q)              
         2     2.13853000E+03   # M_2(Q)              
         3     1.45533000E+03   # M_3(Q)              
        21     1.34777423E+06   # mH1^2(Q)            
        22    -5.76083655E+05   # mH2^2(Q)            
        31     1.74565000E+03   # meL(Q)              
        32     1.74565000E+03   # mmuL(Q)             
        33     2.71477000E+03   # mtauL(Q)            
        34     2.45114000E+03   # meR(Q)              
        35     2.45114000E+03   # mmuR(Q)             
        36     2.01139000E+03   # mtauR(Q)            
        41     3.75138000E+03   # mqL1(Q)             
        42     3.75138000E+03   # mqL2(Q)             
        43     3.62960999E+03   # mqL3(Q)             
        44     3.07771000E+03   # muR(Q)              
        45     3.07771000E+03   # mcR(Q)              
        46     2.79915999E+03   # mtR(Q)              
        47     3.61081000E+03   # mdR(Q)              
        48     3.61081000E+03   # msR(Q)              
        49     2.17550000E+03   # mbR(Q)              
#
Block HiggsBoundsInputHiggsCouplingsFermions
# ScalarNormEffCoupSq PseudoSNormEffCoupSq NP   IP1 IP2 IP2
    1.02100117E+00    0.00000000E+00        3  25   5   5  # h0-b-b eff. coupling^2, normalised to SM
    5.17278192E+02    0.00000000E+00        3  35   5   5  # H0-b-b eff. coupling^2, normalised to SM
    0.00000000E+00    5.17299193E+02        3  36   5   5  # A0-b-b eff. coupling^2, normalised to SM
#
    9.99959402E-01    0.00000000E+00        3  25   6   6  # h0-t-t eff. coupling^2, normalised to SM
    1.97371498E-03    0.00000000E+00        3  35   6   6  # H0-t-t eff. coupling^2, normalised to SM
    0.00000000E+00    1.93311726E-03        3  36   6   6  # A0-t-t eff. coupling^2, normalised to SM
#
    1.02100117E+00    0.00000000E+00        3  25  15  15  # h0-tau-tau eff. coupling^2, normalised to SM
    5.17278192E+02    0.00000000E+00        3  35  15  15  # H0-tau-tau eff. coupling^2, normalised to SM
    0.00000000E+00    5.17299193E+02        3  36  15  15  # A0-tau-tau eff. coupling^2, normalised to SM
#
Block HiggsBoundsInputHiggsCouplingsBosons
    9.99999789E-01        3  25  24  24  # h0-W-W eff. coupling^2, normalised to SM
    2.10944848E-07        3  35  24  24  # H0-W-W eff. coupling^2, normalised to SM
    0.00000000E+00        3  36  24  24  # A0-W-W eff. coupling^2, normalised to SM
#
    9.99999789E-01        3  25  23  23  # h0-Z-Z eff. coupling^2, normalised to SM
    2.10944848E-07        3  35  23  23  # H0-Z-Z eff. coupling^2, normalised to SM
    0.00000000E+00        3  36  23  23  # A0-Z-Z eff. coupling^2, normalised to SM
#
    8.86644664E-01        3  25  21  21  # h0-g-g eff. coupling^2, normalised to SM
    1.20572538E-09        3  35  21  21  # H0-g-g eff. coupling^2, normalised to SM
    1.39875401E-08        3  36  21  21  # A0-g-g eff. coupling^2, normalised to SM
#
    0.00000000E+00        3  25  25  23  # h0-h0-Z eff. coupling^2, normalised to SM
    0.00000000E+00        3  35  25  23  # H0-h0-Z eff. coupling^2, normalised to SM
    2.10944848E-07        3  36  25  23  # A0-h0-Z eff. coupling^2, normalised to SM
    0.00000000E+00        3  35  35  23  # H0-H0-Z eff. coupling^2, normalised to SM
    9.99999789E-01        3  36  35  23  # A0-H0-Z eff. coupling^2, normalised to SM
    0.00000000E+00        3  36  36  23  # A0-A0-Z eff. coupling^2, normalised to SM
#
    0.00000000E+00        4  25  21  21  23  # h0-g-g-Z eff. coupling^2, normalised to SM
    0.00000000E+00        4  35  21  21  23  # H0-g-g-Z eff. coupling^2, normalised to SM
    0.00000000E+00        4  36  21  21  23  # A0-g-g-Z eff. coupling^2, normalised to SM
#
#
#
#                             =================
#                             |The decay table|
#                             =================
#
# - The QCD corrections to the decays gluino -> squark  + quark
#                                     squark -> gaugino + quark_prime
#                                     squark -> squark_prime + Higgs
#                                     squark -> gluino  + quark
#   are included.
#
# - The multi-body decays for the inos, stops and sbottoms are included.
#
# - The loop induced decays for the gluino, neutralinos and stops
#   are included.
#
# - The SUSY decays of the top quark are included.
#
#
#         PDG            Width
DECAY         6     1.42689012E+00   # top decays
#          BR         NDA      ID1       ID2
     1.00000000E+00    2           5        24   # BR(t ->  b    W+)
#
#         PDG            Width
DECAY   1000021     1.79132267E-03   # gluino decays
#          BR         NDA      ID1       ID2
     9.57245895E-04    2     1000022        21   # BR(~g -> ~chi_10 g)
     1.10765101E-02    2     1000023        21   # BR(~g -> ~chi_20 g)
     1.13628013E-02    2     1000025        21   # BR(~g -> ~chi_30 g)
#           BR         NDA      ID1       ID2       ID3
     3.52790255E-03    3     1000022         1        -1   # BR(~g -> ~chi_10 d  db)
     3.84268792E-05    3     1000023         1        -1   # BR(~g -> ~chi_20 d  db)
     7.18391575E-05    3     1000025         1        -1   # BR(~g -> ~chi_30 d  db)
     2.54008050E-02    3     1000022         2        -2   # BR(~g -> ~chi_10 u  ub)
     6.63575990E-05    3     1000023         2        -2   # BR(~g -> ~chi_20 u  ub)
     4.22714719E-04    3     1000025         2        -2   # BR(~g -> ~chi_30 u  ub)
     3.52790255E-03    3     1000022         3        -3   # BR(~g -> ~chi_10 s  sb)
     3.84268792E-05    3     1000023         3        -3   # BR(~g -> ~chi_20 s  sb)
     7.18391575E-05    3     1000025         3        -3   # BR(~g -> ~chi_30 s  sb)
     2.54008050E-02    3     1000022         4        -4   # BR(~g -> ~chi_10 c  cb)
     6.63575990E-05    3     1000023         4        -4   # BR(~g -> ~chi_20 c  cb)
     4.22714719E-04    3     1000025         4        -4   # BR(~g -> ~chi_30 c  cb)
     4.67401387E-02    3     1000022         5        -5   # BR(~g -> ~chi_10 b  bb)
     7.82694160E-02    3     1000023         5        -5   # BR(~g -> ~chi_20 b  bb)
     7.30537434E-02    3     1000025         5        -5   # BR(~g -> ~chi_30 b  bb)
     4.39736043E-02    3     1000022         6        -6   # BR(~g -> ~chi_10 t  tb)
     1.33000285E-01    3     1000023         6        -6   # BR(~g -> ~chi_20 t  tb)
     9.95767691E-02    3     1000025         6        -6   # BR(~g -> ~chi_30 t  tb)
     9.34595388E-05    3     1000024         1        -2   # BR(~g -> ~chi_1+ d  ub)
     9.34595388E-05    3    -1000024         2        -1   # BR(~g -> ~chi_1- u  db)
     9.34595388E-05    3     1000024         3        -4   # BR(~g -> ~chi_1+ s  cb)
     9.34595388E-05    3    -1000024         4        -3   # BR(~g -> ~chi_1- c  sb)
     2.21279778E-01    3     1000024         5        -6   # BR(~g -> ~chi_1+ b  tb)
     2.21279778E-01    3    -1000024         6        -5   # BR(~g -> ~chi_1- t  bb)
#
#         PDG            Width
DECAY   1000006     1.24356481E+02   # stop1 decays
#          BR         NDA      ID1       ID2
     4.40231307E-02    2     1000022         6   # BR(~t_1 -> ~chi_10 t )
     1.18565138E-01    2     1000023         6   # BR(~t_1 -> ~chi_20 t )
     1.21635186E-01    2     1000025         6   # BR(~t_1 -> ~chi_30 t )
     8.78399984E-06    2     1000035         6   # BR(~t_1 -> ~chi_40 t )
     2.40289973E-01    2     1000024         5   # BR(~t_1 -> ~chi_1+ b )
     1.45663065E-05    2     1000037         5   # BR(~t_1 -> ~chi_2+ b )
     4.75461473E-01    2     1000021         6   # BR(~t_1 -> ~g      t )
     1.74972480E-06    2     1000005        24   # BR(~t_1 -> ~b_1    W+)
#
#         PDG            Width
DECAY   2000006     2.11437599E+02   # stop2 decays
#          BR         NDA      ID1       ID2
     7.17060492E-03    2     1000022         6   # BR(~t_2 -> ~chi_10 t )
     1.01290480E-01    2     1000023         6   # BR(~t_2 -> ~chi_20 t )
     9.64426356E-02    2     1000025         6   # BR(~t_2 -> ~chi_30 t )
     2.91158068E-02    2     1000035         6   # BR(~t_2 -> ~chi_40 t )
     2.80287977E-02    2     1000024         5   # BR(~t_2 -> ~chi_1+ b )
     5.76416351E-02    2     1000037         5   # BR(~t_2 -> ~chi_2+ b )
     5.67897746E-01    2     1000021         6   # BR(~t_2 -> ~g      t )
     5.41508021E-02    2     1000006        25   # BR(~t_2 -> ~t_1    h )
     5.70156315E-02    2     1000006        23   # BR(~t_2 -> ~t_1    Z )
     1.24586051E-03    2     1000005        24   # BR(~t_2 -> ~b_1    W+)
#
#         PDG            Width
DECAY   1000005     2.74968769E+01   # sbottom1 decays
#          BR         NDA      ID1       ID2
     3.95637855E-02    2     1000022         5   # BR(~b_1 -> ~chi_10 b )
     5.22186014E-02    2     1000023         5   # BR(~b_1 -> ~chi_20 b )
     5.05864933E-02    2     1000025         5   # BR(~b_1 -> ~chi_30 b )
     2.40809866E-08    2     1000035         5   # BR(~b_1 -> ~chi_40 b )
     1.02301050E-01    2    -1000024         6   # BR(~b_1 -> ~chi_1- t )
     7.55330046E-01    2     1000021         5   # BR(~b_1 -> ~g      b )
#
#         PDG            Width
DECAY   2000005     2.12123565E+02   # sbottom2 decays
#          BR         NDA      ID1       ID2
     2.73737201E-03    2     1000022         5   # BR(~b_2 -> ~chi_10 b )
     1.38525902E-02    2     1000023         5   # BR(~b_2 -> ~chi_20 b )
     1.33694737E-02    2     1000025         5   # BR(~b_2 -> ~chi_30 b )
     2.83693911E-02    2     1000035         5   # BR(~b_2 -> ~chi_40 b )
     2.01314625E-01    2    -1000024         6   # BR(~b_2 -> ~chi_1- t )
     5.73096270E-02    2    -1000037         6   # BR(~b_2 -> ~chi_2- t )
     5.73581558E-01    2     1000021         5   # BR(~b_2 -> ~g      b )
     6.76042166E-04    2     1000005        25   # BR(~b_2 -> ~b_1    h )
     6.35626654E-04    2     1000005        23   # BR(~b_2 -> ~b_1    Z )
     1.08153694E-01    2     1000006       -24   # BR(~b_2 -> ~t_1    W-)
#
#         PDG            Width
DECAY   1000002     1.89279748E+02   # sup_L decays
#          BR         NDA      ID1       ID2
     2.65547481E-03    2     1000022         2   # BR(~u_L -> ~chi_10 u)
     1.62225096E-04    2     1000023         2   # BR(~u_L -> ~chi_20 u)
     2.26221247E-05    2     1000025         2   # BR(~u_L -> ~chi_30 u)
     3.54085047E-02    2     1000035         2   # BR(~u_L -> ~chi_40 u)
     5.31104160E-04    2     1000024         1   # BR(~u_L -> ~chi_1+ d)
     7.07162959E-02    2     1000037         1   # BR(~u_L -> ~chi_2+ d)
     8.90503773E-01    2     1000021         2   # BR(~u_L -> ~g      u)
#
#         PDG            Width
DECAY   2000002     1.12932288E+02   # sup_R decays
#          BR         NDA      ID1       ID2
     5.44613246E-02    2     1000022         2   # BR(~u_R -> ~chi_10 u)
     2.21093898E-05    2     1000023         2   # BR(~u_R -> ~chi_20 u)
     1.78615968E-03    2     1000025         2   # BR(~u_R -> ~chi_30 u)
     7.70358533E-09    2     1000035         2   # BR(~u_R -> ~chi_40 u)
     9.43730399E-01    2     1000021         2   # BR(~u_R -> ~g      u)
#
#         PDG            Width
DECAY   1000001     1.89307316E+02   # sdown_L decays
#          BR         NDA      ID1       ID2
     2.49341312E-03    2     1000022         1   # BR(~d_L -> ~chi_10 d)
     1.13923732E-04    2     1000023         1   # BR(~d_L -> ~chi_20 d)
     1.90540457E-04    2     1000025         1   # BR(~d_L -> ~chi_30 d)
     3.54407385E-02    2     1000035         1   # BR(~d_L -> ~chi_40 d)
     1.01306254E-04    2    -1000024         2   # BR(~d_L -> ~chi_1- u)
     7.09611618E-02    2    -1000037         2   # BR(~d_L -> ~chi_2- u)
     8.90698916E-01    2     1000021         1   # BR(~d_L -> ~g      d)
#
#         PDG            Width
DECAY   2000001     1.56980618E+02   # sdown_R decays
#          BR         NDA      ID1       ID2
     1.18401348E-02    2     1000022         1   # BR(~d_R -> ~chi_10 d)
     4.88228048E-06    2     1000023         1   # BR(~d_R -> ~chi_20 d)
     3.94803069E-04    2     1000025         1   # BR(~d_R -> ~chi_30 d)
     2.55226559E-09    2     1000035         1   # BR(~d_R -> ~chi_40 d)
     9.87760177E-01    2     1000021         1   # BR(~d_R -> ~g      d)
#
#         PDG            Width
DECAY   1000004     1.54696007E+02   # scharm_L decays
#          BR         NDA      ID1       ID2
     3.35866058E-03    2     1000022         4   # BR(~c_L -> ~chi_10 c)
     2.05117328E-04    2     1000023         4   # BR(~c_L -> ~chi_20 c)
     2.86029303E-05    2     1000025         4   # BR(~c_L -> ~chi_30 c)
     4.45912943E-02    2     1000035         4   # BR(~c_L -> ~chi_40 c)
     6.71527221E-04    2     1000024         3   # BR(~c_L -> ~chi_1+ s)
     8.90557226E-02    2     1000037         3   # BR(~c_L -> ~chi_2+ s)
     8.62089075E-01    2     1000021         4   # BR(~c_L -> ~g      c)
#
#         PDG            Width
DECAY   2000004     9.09114642E+01   # scharm_R decays
#          BR         NDA      ID1       ID2
     7.01203480E-02    2     1000022         4   # BR(~c_R -> ~chi_10 c)
     2.84495113E-05    2     1000023         4   # BR(~c_R -> ~chi_20 c)
     2.29828825E-03    2     1000025         4   # BR(~c_R -> ~chi_30 c)
     9.80645037E-09    2     1000035         4   # BR(~c_R -> ~chi_40 c)
     9.27552904E-01    2     1000021         4   # BR(~c_R -> ~g      c)
#
#         PDG            Width
DECAY   1000003     1.54709476E+02   # sstrange_L decays
#          BR         NDA      ID1       ID2
     3.15386361E-03    2     1000022         3   # BR(~s_L -> ~chi_10 s)
     1.44053342E-04    2     1000023         3   # BR(~s_L -> ~chi_20 s)
     2.40929050E-04    2     1000025         3   # BR(~s_L -> ~chi_30 s)
     4.46346230E-02    2     1000035         3   # BR(~s_L -> ~chi_40 s)
     1.28098708E-04    2    -1000024         4   # BR(~s_L -> ~chi_1- c)
     8.93694564E-02    2    -1000037         4   # BR(~s_L -> ~chi_2- c)
     8.62328976E-01    2     1000021         3   # BR(~s_L -> ~g      s)
#
#         PDG            Width
DECAY   2000003     1.24671419E+02   # sstrange_R decays
#          BR         NDA      ID1       ID2
     1.54182833E-02    2     1000022         3   # BR(~s_R -> ~chi_10 s)
     6.35540538E-06    2     1000023         3   # BR(~s_R -> ~chi_20 s)
     5.13916796E-04    2     1000025         3   # BR(~s_R -> ~chi_30 s)
     3.30603244E-09    2     1000035         3   # BR(~s_R -> ~chi_40 s)
     9.84061441E-01    2     1000021         3   # BR(~s_R -> ~g      s)
#
#         PDG            Width
DECAY   1000011     1.64879261E+00   # selectron_L decays
#          BR         NDA      ID1       ID2
     9.69920891E-01    2     1000022        11   # BR(~e_L -> ~chi_10 e-)
     7.67808369E-03    2     1000023        11   # BR(~e_L -> ~chi_20 e-)
     1.88532741E-02    2     1000025        11   # BR(~e_L -> ~chi_30 e-)
     3.54775141E-03    2    -1000024        12   # BR(~e_L -> ~chi_1- nu_e)
#
#         PDG            Width
DECAY   2000011     1.08477436E+01   # selectron_R decays
#          BR         NDA      ID1       ID2
     9.69131066E-01    2     1000022        11   # BR(~e_R -> ~chi_10 e-)
     3.78331914E-04    2     1000023        11   # BR(~e_R -> ~chi_20 e-)
     3.04905777E-02    2     1000025        11   # BR(~e_R -> ~chi_30 e-)
     2.48126178E-08    2     1000035        11   # BR(~e_R -> ~chi_40 e-)
#
#         PDG            Width
DECAY   1000013     1.64879259E+00   # smuon_L decays
#          BR         NDA      ID1       ID2
     9.69920891E-01    2     1000022        13   # BR(~mu_L -> ~chi_10 mu-)
     7.67808367E-03    2     1000023        13   # BR(~mu_L -> ~chi_20 mu-)
     1.88532740E-02    2     1000025        13   # BR(~mu_L -> ~chi_30 mu-)
     3.54775144E-03    2    -1000024        14   # BR(~mu_L -> ~chi_1- nu_mu)
#
#         PDG            Width
DECAY   2000013     1.08477435E+01   # smuon_R decays
#          BR         NDA      ID1       ID2
     9.69131066E-01    2     1000022        13   # BR(~mu_R -> ~chi_10 mu-)
     3.78331914E-04    2     1000023        13   # BR(~mu_R -> ~chi_20 mu-)
     3.04905777E-02    2     1000025        13   # BR(~mu_R -> ~chi_30 mu-)
     2.48126158E-08    2     1000035        13   # BR(~mu_R -> ~chi_40 mu-)
#
#         PDG            Width
DECAY   1000015     1.10069005E+01   # stau_1 decays
#          BR         NDA      ID1       ID2
     7.14117096E-01    2     1000022        15   # BR(~tau_1 -> ~chi_10  tau-)
     6.74934446E-02    2     1000023        15   # BR(~tau_1 -> ~chi_20  tau-)
     8.41610024E-02    2     1000025        15   # BR(~tau_1 -> ~chi_30  tau-)
     1.34228456E-01    2    -1000024        16   # BR(~tau_1 -> ~chi_1-  nu_tau)
#
#         PDG            Width
DECAY   2000015     1.01229180E+01   # stau_2 decays
#          BR         NDA      ID1       ID2
     3.06594366E-01    2     1000022        15   # BR(~tau_2 -> ~chi_10  tau-)
     1.24167244E-01    2     1000023        15   # BR(~tau_2 -> ~chi_20  tau-)
     1.23906901E-01    2     1000025        15   # BR(~tau_2 -> ~chi_30  tau-)
     1.41499197E-01    2     1000035        15   # BR(~tau_2 -> ~chi_40  tau-)
     8.54992719E-04    2    -1000024        16   # BR(~tau_2 -> ~chi_1-  nu_tau)
     2.83456839E-01    2    -1000037        16   # BR(~tau_2 -> ~chi_2-  nu_tau)
     9.88527483E-03    2     1000015        25   # BR(~tau_2 -> ~tau_1   h)
     9.63518430E-03    2     1000015        23   # BR(~tau_2 -> ~tau_1   Z)
#
#         PDG            Width
DECAY   1000012     1.65724442E+00   # snu_eL decays
#          BR         NDA      ID1       ID2
     9.42928116E-01    2     1000022        12   # BR(~nu_eL -> ~chi_10 nu_e)
     2.57783597E-03    2     1000023        12   # BR(~nu_eL -> ~chi_20 nu_e)
     3.60381733E-02    2     1000025        12   # BR(~nu_eL -> ~chi_30 nu_e)
     1.84558747E-02    2     1000024        11   # BR(~nu_eL -> ~chi_1+ e-)
#
#         PDG            Width
DECAY   1000014     1.65724442E+00   # snu_muL decays
#          BR         NDA      ID1       ID2
     9.42928116E-01    2     1000022        14   # BR(~nu_muL -> ~chi_10 nu_mu)
     2.57783597E-03    2     1000023        14   # BR(~nu_muL -> ~chi_20 nu_mu)
     3.60381733E-02    2     1000025        14   # BR(~nu_muL -> ~chi_30 nu_mu)
     1.84558745E-02    2     1000024        13   # BR(~nu_muL -> ~chi_1+ mu-)
#
#         PDG            Width
DECAY   1000016     1.01234742E+01   # snu_tauL decays
#          BR         NDA      ID1       ID2
     2.95548126E-01    2     1000022        16   # BR(~nu_tauL -> ~chi_10 nu_tau)
     9.19740748E-04    2     1000023        16   # BR(~nu_tauL -> ~chi_20 nu_tau)
     1.29652327E-02    2     1000025        16   # BR(~nu_tauL -> ~chi_30 nu_tau)
     1.41022494E-01    2     1000035        16   # BR(~nu_tauL -> ~chi_40 nu_tau)
     2.49612359E-01    2     1000024        15   # BR(~nu_tauL -> ~chi_1+ tau-)
     2.81282997E-01    2     1000037        15   # BR(~nu_tauL -> ~chi_2+ tau-)
     1.86490512E-02    2    -1000015       -24   # BR(~nu_tauL -> ~tau_1+ W-)
#
#         PDG            Width
DECAY   1000024     1.68708587E-01   # chargino1+ decays
#          BR         NDA      ID1       ID2
     1.00000000E+00    2     1000022        24   # BR(~chi_1+ -> ~chi_10  W+)
#
#         PDG            Width
DECAY   1000037     2.13988946E+01   # chargino2+ decays
#          BR         NDA      ID1       ID2
     4.75486224E-02    2     1000012       -11   # BR(~chi_2+ -> ~nu_eL   e+  )
     4.75486224E-02    2     1000014       -13   # BR(~chi_2+ -> ~nu_muL mu+ )
     4.72629847E-02    2    -1000011        12   # BR(~chi_2+ -> ~e_L+    nu_e)
     4.72629847E-02    2    -1000013        14   # BR(~chi_2+ -> ~mu_L+   nu_mu)
     6.25488651E-08    2    -1000015        16   # BR(~chi_2+ -> ~tau_1+  nu_tau)
     2.04494944E-01    2     1000024        23   # BR(~chi_2+ -> ~chi_1+  Z )
     7.80789948E-03    2     1000022        24   # BR(~chi_2+ -> ~chi_10  W+)
     1.98607583E-01    2     1000023        24   # BR(~chi_2+ -> ~chi_20  W+)
     1.90495673E-01    2     1000025        24   # BR(~chi_2+ -> ~chi_30  W+)
     2.08970624E-01    2     1000024        25   # BR(~chi_2+ -> ~chi_1+  h )
#
#         PDG            Width
DECAY   1000022     0.00000000E+00   # neutralino1 decays
#
#         PDG            Width
DECAY   1000023     1.44090405E-01   # neutralino2 decays
#          BR         NDA      ID1       ID2
     9.95114374E-01    2     1000022        23   # BR(~chi_20 -> ~chi_10   Z )
     4.88562554E-03    2     1000022        25   # BR(~chi_20 -> ~chi_10   h )
#
#         PDG            Width
DECAY   1000025     1.73437786E-01   # neutralino3 decays
#          BR         NDA      ID1       ID2
     2.45726133E-02    2     1000022        23   # BR(~chi_30 -> ~chi_10   Z )
     9.75427387E-01    2     1000022        25   # BR(~chi_30 -> ~chi_10   h )
#
#         PDG            Width
DECAY   1000035     2.13845519E+01   # neutralino4 decays
#          BR         NDA      ID1       ID2
     6.59974470E-03    2     1000022        23   # BR(~chi_40 -> ~chi_10   Z )
     2.74240867E-02    2     1000023        23   # BR(~chi_40 -> ~chi_20   Z )
     1.70295968E-01    2     1000025        23   # BR(~chi_40 -> ~chi_30   Z )
     1.98665326E-01    2     1000024       -24   # BR(~chi_40 -> ~chi_1+   W-)
     1.98665326E-01    2    -1000024        24   # BR(~chi_40 -> ~chi_1-   W+)
     1.44991834E-03    2     1000022        25   # BR(~chi_40 -> ~chi_10   h )
     1.69548900E-08    2     1000022        35   # BR(~chi_40 -> ~chi_10   H )
     8.15260156E-05    2     1000022        36   # BR(~chi_40 -> ~chi_10   A )
     1.81312106E-01    2     1000023        25   # BR(~chi_40 -> ~chi_20   h )
     2.58807560E-02    2     1000025        25   # BR(~chi_40 -> ~chi_30   h )
     2.35768402E-02    2     1000011       -11   # BR(~chi_40 -> ~e_L-     e+)
     2.35768402E-02    2    -1000011        11   # BR(~chi_40 -> ~e_L+     e-)
     2.35768402E-02    2     1000013       -13   # BR(~chi_40 -> ~mu_L-    mu+)
     2.35768402E-02    2    -1000013        13   # BR(~chi_40 -> ~mu_L+    mu-)
     3.30167864E-08    2     1000015       -15   # BR(~chi_40 -> ~tau_1-   tau+)
     3.30167864E-08    2    -1000015        15   # BR(~chi_40 -> ~tau_1+   tau-)
     2.38294493E-02    2     1000012       -12   # BR(~chi_40 -> ~nu_eL    nu_eb)
     2.38294493E-02    2    -1000012        12   # BR(~chi_40 -> ~nu_eL*   nu_e )
     2.38294493E-02    2     1000014       -14   # BR(~chi_40 -> ~nu_muL   nu_mub)
     2.38294493E-02    2    -1000014        14   # BR(~chi_40 -> ~nu_muL*  nu_mu )
#
#         PDG            Width
DECAY        25     4.38780427E-03   # h decays
#          BR         NDA      ID1       ID2
     5.90802023E-01    2           5        -5   # BR(h -> b       bb     )
     6.08274707E-02    2         -15        15   # BR(h -> tau+    tau-   )
     2.15270027E-04    2         -13        13   # BR(h -> mu+     mu-    )
     2.34420300E-04    2           3        -3   # BR(h -> s       sb     )
     1.99338360E-02    2           4        -4   # BR(h -> c       cb     )
     7.49451450E-02    2          21        21   # BR(h -> g       g      )
     2.24469157E-03    2          22        22   # BR(h -> gam     gam    )
     1.60041904E-03    2          22        23   # BR(h -> Z       gam    )
     2.21027268E-01    2          24       -24   # BR(h -> W+      W-     )
     2.81694568E-02    2          23        23   # BR(h -> Z       Z      )
#
#         PDG            Width
DECAY        35     1.10643240E+01   # H decays
#          BR         NDA      ID1       ID2
     8.51357633E-01    2           5        -5   # BR(H -> b       bb     )
     1.36534837E-01    2         -15        15   # BR(H -> tau+    tau-   )
     4.75806479E-04    2         -13        13   # BR(H -> mu+     mu-    )
     3.26858902E-04    2           3        -3   # BR(H -> s       sb     )
     1.18090804E-07    2           4        -4   # BR(H -> c       cb     )
     1.11420869E-02    2           6        -6   # BR(H -> t       tb     )
     3.53123085E-05    2          21        21   # BR(H -> g       g      )
     3.25163347E-08    2          22        22   # BR(H -> gam     gam    )
     1.99993009E-08    2          23        22   # BR(H -> Z       gam    )
     1.87657055E-05    2          24       -24   # BR(H -> W+      W-     )
     9.32320962E-06    2          23        23   # BR(H -> Z       Z      )
     7.21353690E-05    2          25        25   # BR(H -> h       h      )
     2.70706334E-05    2     1000022   1000022   # BR(H -> ~chi_10 ~chi_10)
#
#         PDG            Width
DECAY        36     1.10777437E+01   # A decays
#          BR         NDA      ID1       ID2
     8.50396442E-01    2           5        -5   # BR(A -> b       bb     )
     1.36372135E-01    2         -15        15   # BR(A -> tau+    tau-   )
     4.75236816E-04    2         -13        13   # BR(A -> mu+     mu-    )
     3.26513775E-04    2           3        -3   # BR(A -> s       sb     )
     1.16578467E-07    2           4        -4   # BR(A -> c       cb     )
     1.13599991E-02    2           6        -6   # BR(A -> t       tb     )
     1.20097723E-04    2          21        21   # BR(A -> g       g      )
     6.82066319E-08    2          22        22   # BR(A -> gam     gam    )
     7.19956135E-08    2          23        22   # BR(A -> Z       gam    )
     1.87591199E-05    2          23        25   # BR(A -> Z       h      )
     9.30559550E-04    2     1000022   1000022   # BR(A -> ~chi_10 ~chi_10)
#
#         PDG            Width
DECAY        37     1.03874444E+01   # H+ decays
#          BR         NDA      ID1       ID2
     1.42385741E-03    2           4        -5   # BR(H+ -> c       bb     )
     1.45663199E-01    2         -15        16   # BR(H+ -> tau+    nu_tau )
     5.07614803E-04    2         -13        14   # BR(H+ -> mu+     nu_mu  )
     1.42385062E-05    2           2        -5   # BR(H+ -> u       bb     )
     1.73960336E-05    2           2        -3   # BR(H+ -> u       sb     )
     3.42525631E-04    2           4        -3   # BR(H+ -> c       sb     )
     8.52011012E-01    2           6        -5   # BR(H+ -> t       bb     )
     2.01561218E-05    2          24        25   # BR(H+ -> W+      h      )
     8.00131072E-12    2          24        36   # BR(H+ -> W+      A      )

DECAY         5   0.000000e+00 # b decays
DECAY        15   0.000000e+00 # tau decays
DECAY        23     2.49520000E+00   # Z
DECAY        24     2.08500000E+00   # W
