# SUSY Les Houches Accord 2 - MSSM spectrum + Decays
# SPheno v4.0.5be
# W. Porod, Comput. Phys. Commun. 153 (2003) 275-315, hep-ph/0301101;
# W. Porod, F.~Staub, Comput. Phys. Commun. 183 (2012) 2458
#                     arXiv:1104.1573 [hep-ph] 
# in case of problems send email to porod@physik.uni-wuerzburg.de
# Created: 12.05.2022,  14:24
Block SPINFO         # Program information
     1   SPheno      # spectrum calculator
     2   v4.0.5be    # version number
#
Block SPhenoINFO     # SPheno specific information
    1      2         # using 2-loop RGEs
    2      2         # using pole masses for boundary conditions at mZ
Block MODSEL  # Model selection
    1    0    # general MSSM
Block MINPAR  # Input parameters
    3    5.57249227E+01  # tanb at m_Z    
    4    1.00000000E+00  # Sign(mu)
Block EXTPAR  # non-universal input parameters
    0    3.24560734E+03  # scale for input parameters
    1    1.09340745E+02  # M_1
    2    7.07407945E+02  # M_2
    3    4.63348127E+03  # M_3
   11    5.92791940E+03  # A_t
   12   -1.26148039E+03  # A_b
   13   -1.53748258E+03  # A_tau
   23    1.38614265E+03  # mu
   25    5.45278949E+01  # tan(beta)
   26    4.79869706E+03  # m_A, pole mass
   31    1.00000000E+04  # M_L11
   32    1.00000000E+04  # M_L22
   33    1.00000000E+04  # M_L33
   34    1.00000000E+04  # M_E11
   35    1.00000000E+04  # M_E22
   36    1.00000000E+04  # M_E33
   41    1.00000000E+04  # M_Q11
   42    1.00000000E+04  # M_Q22
   43    2.60296771E+03  # M_Q33
   44    1.00000000E+04  # M_U11
   45    1.00000000E+04  # M_U22
   46    3.94793433E+03  # M_U33
   47    1.00000000E+04  # M_D11
   48    1.00000000E+04  # M_D22
   49    4.45665386E+03  # M_D33
Block SMINPUTS  # SM parameters
         1     1.27908970E+02  # alpha_em^-1(MZ)^MSbar
         2     1.16637870E-05  # G_mu [GeV^-2]
         3     1.18400000E-01  # alpha_s(MZ)^MSbar
         4     9.11876000E+01  # m_Z(pole)
         5     4.18000000E+00  # m_b(m_b), MSbar
         6     1.73200000E+02  # m_t(pole)
         7     1.77700000E+00  # m_tau(pole)
         8     0.00000000E+00  # m_nu_3
        11     5.10998930E-04  # m_e(pole)
        12     0.00000000E+00  # m_nu_1
        13     1.05658372E-01  # m_muon(pole)
        14     0.00000000E+00  # m_nu_2
        21     5.00000000E-03  # m_d(2 GeV), MSbar
        22     2.50000000E-03  # m_u(2 GeV), MSbar
        23     9.50000000E-02  # m_s(2 GeV), MSbar
        24     1.27000000E+00  # m_c(m_c), MSbar
Block gauge Q=  3.24560734E+03  # (SUSY scale)
   1    3.55362975E-01  # g'(Q)^DRbar
   2    6.65198874E-01  # g(Q)^DRbar
   3    1.21977796E+00  # g3(Q)^DRbar
Block Yu Q=  3.24560734E+03  # (SUSY scale)
  1  1     8.38578196E-06   # Y_u(Q)^DRbar
  2  2     4.25997724E-03   # Y_c(Q)^DRbar
  3  3     1.01306982E+00   # Y_t(Q)^DRbar
Block Yd Q=  3.24560734E+03  # (SUSY scale)
  1  1     9.18845611E-04   # Y_d(Q)^DRbar
  2  2     1.74580666E-02   # Y_s(Q)^DRbar
  3  3     9.11206922E-01   # Y_b(Q)^DRbar
Block Ye Q=  3.24560734E+03  # (SUSY scale)
  1  1     1.60345278E-04   # Y_e(Q)^DRbar
  2  2     3.31543181E-02   # Y_mu(Q)^DRbar
  3  3     5.57601088E-01   # Y_tau(Q)^DRbar
Block Au Q=  3.24560734E+03  # (SUSY scale)
  1  1     0.00000000E+00   # A_u(Q)^DRbar
  2  2     0.00000000E+00   # A_c(Q)^DRbar
  3  3     5.92791939E+03   # A_t(Q)^DRbar
Block Ad Q=  3.24560734E+03  # (SUSY scale)
  1  1     0.00000000E+00   # A_d(Q)^DRbar
  2  2     0.00000000E+00   # A_s(Q)^DRbar
  3  3    -1.26148044E+03   # A_b(Q)^DRbar
Block Ae Q=  3.24560734E+03  # (SUSY scale)
  1  1     0.00000000E+00   # A_e(Q)^DRbar
  2  2     0.00000000E+00   # A_mu(Q)^DRbar
  3  3    -1.53748259E+03   # A_tau(Q)^DRbar
Block MSOFT Q=  3.24560734E+03  # soft SUSY breaking masses at Q
   1    1.09340745E+02  # M_1
   2    7.07407945E+02  # M_2
   3    4.63348127E+03  # M_3
  21    2.07945720E+07  # M^2_(H,d)
  22   -1.76043027E+06  # M^2_(H,u)
  31    1.00000000E+04  # M_(L,11)
  32    1.00000000E+04  # M_(L,22)
  33    1.00000000E+04  # M_(L,33)
  34    1.00000000E+04  # M_(E,11)
  35    1.00000000E+04  # M_(E,22)
  36    1.00000000E+04  # M_(E,33)
  41    1.00000000E+04  # M_(Q,11)
  42    1.00000000E+04  # M_(Q,22)
  43    2.60296771E+03  # M_(Q,33)
  44    1.00000000E+04  # M_(U,11)
  45    1.00000000E+04  # M_(U,22)
  46    3.94793433E+03  # M_(U,33)
  47    1.00000000E+04  # M_(D,11)
  48    1.00000000E+04  # M_(D,22)
  49    4.45665386E+03  # M_(D,33)
Block MASS  # Mass spectrum
#   PDG code      mass          particle
         6     1.73200000E+02  # m_t(pole)
        23     9.11876000E+01  # m_Z(pole)
        24     8.04299946E+01  # W+
        15     1.77700000E+00  # m_tau(pole)
        25     1.27989967E+02  # h0
        35     4.79679843E+03  # H0
        36     4.79869706E+03  # A0
        37     4.79672938E+03  # H+
   1000001     1.00825086E+04  # ~d_L
   2000001     1.00586658E+04  # ~d_R
   1000002     1.00822429E+04  # ~u_L
   2000002     1.00617553E+04  # ~u_R
   1000003     1.00825200E+04  # ~s_L
   2000003     1.00586834E+04  # ~s_R
   1000004     1.00822532E+04  # ~c_L
   2000004     1.00617566E+04  # ~c_R
   1000005     2.68470162E+03  # ~b_1
   2000005     4.54896514E+03  # ~b_2
   1000006     2.67168464E+03  # ~t_1
   2000006     3.94281828E+03  # ~t_2
   1000011     1.00210863E+04  # ~e_L-
   2000011     1.00088203E+04  # ~e_R-
   1000012     1.00203259E+04  # ~nu_eL
   1000013     1.00211529E+04  # ~mu_L-
   2000013     1.00089113E+04  # ~mu_R-
   1000014     1.00203793E+04  # ~nu_muL
   1000015     1.00306614E+04  # ~tau_1-
   2000015     1.00446990E+04  # ~tau_2-
   1000016     1.00357804E+04  # ~nu_tauL
   1000021     5.05995743E+03  # ~g
   1000022     1.10229692E+02  # ~chi_10
   1000023     7.63989911E+02  # ~chi_20
   1000025     1.40706480E+03  # ~chi_30
   1000035     1.41155539E+03  # ~chi_40
   1000024     7.63910127E+02  # ~chi_1+
   1000037     1.41235664E+03  # ~chi_2+
# Higgs mixing
Block alpha # Effective Higgs mixing angle
          -1.79650780E-02   # alpha
Block Hmix Q=  3.24560734E+03  # Higgs mixing parameters
   1    1.38614265E+03  # mu
   2    5.45278949E+01  # tan[beta](Q)
   3    2.43142257E+02  # v(Q)
   4    2.30274935E+07  # m^2_A(Q)
Block stopmix # stop mixing matrix
   1  1    -9.95111807E-01   # Re[R_st(1,1)]
   1  2     9.87547037E-02   # Re[R_st(1,2)]
   2  1    -9.87547037E-02   # Re[R_st(2,1)]
   2  2    -9.95111807E-01   # Re[R_st(2,2)]
Block sbotmix # sbottom mixing matrix
   1  1     9.99954587E-01   # Re[R_sb(1,1)]
   1  2     9.53015426E-03   # Re[R_sb(1,2)]
   2  1    -9.53015426E-03   # Re[R_sb(2,1)]
   2  2     9.99954587E-01   # Re[R_sb(2,2)]
Block staumix # stau mixing matrix
   1  1     7.68376346E-01   # Re[R_sta(1,1)]
   1  2     6.39998274E-01   # Re[R_sta(1,2)]
   2  1    -6.39998274E-01   # Re[R_sta(2,1)]
   2  2     7.68376346E-01   # Re[R_sta(2,2)]
Block Nmix # neutralino mixing matrix
   1  1     9.99488650E-01   # Re[N(1,1)]
   1  2    -3.66059197E-04   # Re[N(1,2)]
   1  3     3.18286438E-02   # Re[N(1,3)]
   1  4    -3.03997451E-03   # Re[N(1,4)]
   2  1    -3.04037644E-03   # Re[N(2,1)]
   2  2    -9.95847628E-01   # Re[N(2,2)]
   2  3     7.98567794E-02   # Re[N(2,3)]
   2  4    -4.36021998E-02   # Re[N(2,4)]
   3  1     2.03294514E-02   # Re[N(3,1)]
   3  2    -2.57296872E-02   # Re[N(3,2)]
   3  3    -7.06232017E-01   # Re[N(3,3)]
   3  4    -7.07220641E-01   # Re[N(3,4)]
   4  1    -2.44930097E-02   # Re[N(4,1)]
   4  2     8.73232508E-02   # Re[N(4,2)]
   4  3     7.02741895E-01   # Re[N(4,3)]
   4  4    -7.05640540E-01   # Re[N(4,4)]
Block Umix # chargino mixing matrix
   1  1    -9.93546191E-01   # Re[U(1,1)]
   1  2     1.13428239E-01   # Re[U(1,2)]
   2  1     1.13428239E-01   # Re[U(2,1)]
   2  2     9.93546191E-01   # Re[U(2,2)]
Block Vmix # chargino mixing matrix
   1  1    -9.98053683E-01   # Re[V(1,1)]
   1  2     6.23606192E-02   # Re[V(1,2)]
   2  1     6.23606192E-02   # Re[V(2,1)]
   2  2     9.98053683E-01   # Re[V(2,2)]
DECAY        23     2.49520000E+00   # Z
DECAY        24     2.08500000E+00   # W
DECAY   2000011     5.02764823E+01   # ~e^-_R
#    BR                NDA      ID1      ID2
     9.99016998E-01    2     1000022        11   # BR(~e^-_R -> chi^0_1 e^-)
     3.97272927E-04    2     1000025        11   # BR(~e^-_R -> chi^0_3 e^-)
     5.76491671E-04    2     1000035        11   # BR(~e^-_R -> chi^0_4 e^-)
DECAY   1000011     1.43336859E+02   # ~e^-_L
#    BR                NDA      ID1      ID2
     8.75903721E-02    2     1000022        11   # BR(~e^-_L -> chi^0_1 e^-)
     3.02620388E-01    2     1000023        11   # BR(~e^-_L -> chi^0_2 e^-)
     1.62935929E-03    2     1000035        11   # BR(~e^-_L -> chi^0_4 e^-)
     6.00487623E-01    2    -1000024        12   # BR(~e^-_L -> chi^-_1 nu_e)
     7.60686034E-03    2    -1000037        12   # BR(~e^-_L -> chi^-_2 nu_e)
#    BR                NDA      ID1      ID2       ID3
DECAY   2000013     5.06975844E+01   # ~mu^-_R
#    BR                NDA      ID1      ID2
     9.90732388E-01    2     1000022        13   # BR(~mu^-_R -> chi^0_1 mu^-)
     2.46296430E-03    2     1000025        13   # BR(~mu^-_R -> chi^0_3 mu^-)
     2.61977037E-03    2     1000035        13   # BR(~mu^-_R -> chi^0_4 mu^-)
     4.09370156E-03    2    -1000037        14   # BR(~mu^-_R -> chi^-_2 nu_mu)
DECAY   1000013     1.43548436E+02   # ~mu^-_L
#    BR                NDA      ID1      ID2
     8.74634000E-02    2     1000022        13   # BR(~mu^-_L -> chi^0_1 mu^-)
     3.02186026E-01    2     1000023        13   # BR(~mu^-_L -> chi^0_2 mu^-)
     7.96978913E-04    2     1000025        13   # BR(~mu^-_L -> chi^0_3 mu^-)
     2.35125236E-03    2     1000035        13   # BR(~mu^-_L -> chi^0_4 mu^-)
     5.99606639E-01    2    -1000024        14   # BR(~mu^-_L -> chi^-_1 nu_mu)
     7.59570312E-03    2    -1000037        14   # BR(~mu^-_L -> chi^-_2 nu_mu)
#    BR                NDA      ID1      ID2       ID3
DECAY   1000015     1.89776183E+02   # ~tau^-_1
#    BR                NDA      ID1      ID2
     1.52682462E-01    2     1000022        15   # BR(~tau^-_1 -> chi^0_1 tau^-)
     1.58426173E-01    2     1000023        15   # BR(~tau^-_1 -> chi^0_2 tau^-)
     1.50039247E-01    2     1000025        15   # BR(~tau^-_1 -> chi^0_3 tau^-)
     1.37520135E-01    2     1000035        15   # BR(~tau^-_1 -> chi^0_4 tau^-)
     3.12468690E-01    2    -1000024        16   # BR(~tau^-_1 -> chi^-_1 nu_tau)
     8.88632931E-02    2    -1000037        16   # BR(~tau^-_1 -> chi^-_2 nu_tau)
DECAY   2000015     1.83253986E+02   # ~tau^-_2
#    BR                NDA      ID1      ID2
     1.86088747E-01    2     1000022        15   # BR(~tau^-_2 -> chi^0_1 tau^-)
     7.72491579E-02    2     1000023        15   # BR(~tau^-_2 -> chi^0_2 tau^-)
     1.69613745E-01    2     1000025        15   # BR(~tau^-_2 -> chi^0_3 tau^-)
     1.80587628E-01    2     1000035        15   # BR(~tau^-_2 -> chi^0_4 tau^-)
     1.51078220E-01    2    -1000024        16   # BR(~tau^-_2 -> chi^-_1 nu_tau)
     2.35382502E-01    2    -1000037        16   # BR(~tau^-_2 -> chi^-_2 nu_tau)
#    BR                NDA      ID1      ID2       ID3
DECAY   1000012     1.43341171E+02   # ~nu_e
#    BR                NDA      ID1      ID2
     8.78215895E-02    2     1000022        12   # BR(~nu_e -> chi^0_1 nu_e)
     3.00620120E-01    2     1000023        12   # BR(~nu_e -> chi^0_2 nu_e)
     3.95861476E-04    2     1000025        12   # BR(~nu_e -> chi^0_3 nu_e)
     2.98016497E-03    2     1000035        12   # BR(~nu_e -> chi^0_4 nu_e)
     6.05883250E-01    2     1000024        11   # BR(~nu_e -> chi^+_1 e^-)
     2.29901398E-03    2     1000037        11   # BR(~nu_e -> chi^+_2 e^-)
#    BR                NDA      ID1      ID2       ID3
DECAY   1000014     1.43552531E+02   # ~nu_mu
#    BR                NDA      ID1      ID2
     8.76927527E-02    2     1000022        14   # BR(~nu_mu -> chi^0_1 nu_mu)
     3.00179138E-01    2     1000023        14   # BR(~nu_mu -> chi^0_2 nu_mu)
     3.95280904E-04    2     1000025        14   # BR(~nu_mu -> chi^0_3 nu_mu)
     2.97579426E-03    2     1000035        14   # BR(~nu_mu -> chi^0_4 nu_mu)
     6.05013875E-01    2     1000024        13   # BR(~nu_mu -> chi^+_1 mu^-)
     3.74315847E-03    2     1000037        13   # BR(~nu_mu -> chi^+_2 mu^-)
#    BR                NDA      ID1      ID2       ID3
DECAY   1000016     2.03231234E+02   # ~nu_tau
#    BR                NDA      ID1      ID2
     6.20370895E-02    2     1000022        16   # BR(~nu_tau -> chi^0_1 nu_tau)
     2.12365259E-01    2     1000023        16   # BR(~nu_tau -> chi^0_2 nu_tau)
     2.79670593E-04    2     1000025        16   # BR(~nu_tau -> chi^0_3 nu_tau)
     2.10544655E-03    2     1000035        16   # BR(~nu_tau -> chi^0_4 nu_tau)
     4.31892691E-01    2     1000024        15   # BR(~nu_tau -> chi^+_1 tau^-)
     2.91319843E-01    2     1000037        15   # BR(~nu_tau -> chi^+_2 tau^-)
#    BR                NDA      ID1      ID2       ID3
DECAY   2000001     4.48589618E+02   # ~d_R
#    BR                NDA      ID1      ID2
     1.25027220E-02    2     1000022         1   # BR(~d_R -> chi^0_1 d)
     9.87484250E-01    2     1000021         1   # BR(~d_R -> ~g d)
DECAY   1000001     5.78423148E+02   # ~d_L
#    BR                NDA      ID1      ID2
     2.43984084E-03    2     1000022         1   # BR(~d_L -> chi^0_1 d)
     7.51342610E-02    2     1000023         1   # BR(~d_L -> chi^0_2 d)
     6.20047218E-04    2     1000035         1   # BR(~d_L -> chi^0_4 d)
     1.49737902E-01    2    -1000024         2   # BR(~d_L -> chi^-_1 u)
     1.89751518E-03    2    -1000037         2   # BR(~d_L -> chi^-_2 u)
     7.70106752E-01    2     1000021         1   # BR(~d_L -> ~g d)
DECAY   2000003     4.48708392E+02   # ~s_R
#    BR                NDA      ID1      ID2
     1.24995717E-02    2     1000022         3   # BR(~s_R -> chi^0_1 s)
     1.28937670E-04    2    -1000037         4   # BR(~s_R -> chi^-_2 c)
     9.87226928E-01    2     1000021         3   # BR(~s_R -> ~g s)
DECAY   1000003     5.78486603E+02   # ~s_L
#    BR                NDA      ID1      ID2
     2.43968270E-03    2     1000022         3   # BR(~s_L -> chi^0_1 s)
     7.51267692E-02    2     1000023         3   # BR(~s_L -> chi^0_2 s)
     1.14211724E-04    2     1000025         3   # BR(~s_L -> chi^0_3 s)
     6.70007769E-04    2     1000035         3   # BR(~s_L -> chi^0_4 s)
     1.49721666E-01    2    -1000024         4   # BR(~s_L -> chi^-_1 c)
     1.90334222E-03    2    -1000037         4   # BR(~s_L -> chi^-_2 c)
     7.70024320E-01    2     1000021         3   # BR(~s_L -> ~g s)
DECAY   1000005     8.18918931E+01   # ~b_1
#    BR                NDA      ID1      ID2
     5.21219999E-03    2     1000022         5   # BR(~b_1 -> chi^0_1 b)
     1.23956316E-01    2     1000023         5   # BR(~b_1 -> chi^0_2 b)
     1.42090410E-01    2     1000025         5   # BR(~b_1 -> chi^0_3 b)
     1.40484240E-01    2     1000035         5   # BR(~b_1 -> chi^0_4 b)
     2.39282258E-01    2    -1000024         6   # BR(~b_1 -> chi^-_1 t)
     3.48974577E-01    2    -1000037         6   # BR(~b_1 -> chi^-_2 t)
DECAY   2000005     1.30053559E+02   # ~b_2
#    BR                NDA      ID1      ID2
     1.99712962E-02    2     1000022         5   # BR(~b_2 -> chi^0_1 b)
     3.06664098E-03    2     1000023         5   # BR(~b_2 -> chi^0_2 b)
     2.35797041E-01    2     1000025         5   # BR(~b_2 -> chi^0_3 b)
     2.33368784E-01    2     1000035         5   # BR(~b_2 -> chi^0_4 b)
     6.17228757E-03    2    -1000024         6   # BR(~b_2 -> chi^-_1 t)
     4.65030247E-01    2    -1000037         6   # BR(~b_2 -> chi^-_2 t)
     1.24133576E-02    2     1000006       -24   # BR(~b_2 -> ~t_1 W^-)
     6.16553603E-03    2     1000005        23   # BR(~b_2 -> ~b_1 Z)
     1.80082733E-02    2     1000005        25   # BR(~b_2 -> ~b_1 h^0)
DECAY   2000002     4.65758955E+02   # ~u_R
#    BR                NDA      ID1      ID2
     4.81821299E-02    2     1000022         2   # BR(~u_R -> chi^0_1 u)
     9.51770450E-01    2     1000021         2   # BR(~u_R -> ~g u)
DECAY   1000002     5.78416026E+02   # ~u_L
#    BR                NDA      ID1      ID2
     2.41981663E-03    2     1000022         2   # BR(~u_L -> chi^0_1 u)
     7.52967264E-02    2     1000023         2   # BR(~u_L -> chi^0_2 u)
     5.07552317E-04    2     1000035         2   # BR(~u_L -> chi^0_4 u)
     1.51097427E-01    2     1000024         1   # BR(~u_L -> chi^+_1 d)
     5.73808617E-04    2     1000037         1   # BR(~u_L -> chi^+_2 d)
     7.70068611E-01    2     1000021         2   # BR(~u_L -> ~g u)
DECAY   2000004     4.65766044E+02   # ~c_R
#    BR                NDA      ID1      ID2
     4.81814010E-02    2     1000022         4   # BR(~c_R -> chi^0_1 c)
     9.51756187E-01    2     1000021         4   # BR(~c_R -> ~g c)
DECAY   1000004     5.78479317E+02   # ~c_L
#    BR                NDA      ID1      ID2
     2.41955432E-03    2     1000022         4   # BR(~c_L -> chi^0_1 c)
     7.52885746E-02    2     1000023         4   # BR(~c_L -> chi^0_2 c)
     5.10511966E-04    2     1000035         4   # BR(~c_L -> chi^0_4 c)
     1.51082391E-01    2     1000024         3   # BR(~c_L -> chi^+_1 s)
     6.73737939E-04    2     1000037         3   # BR(~c_L -> chi^+_2 s)
     7.69986152E-01    2     1000021         4   # BR(~c_L -> ~g c)
DECAY   1000006     8.60972541E+01   # ~t_1
#    BR                NDA      ID1      ID2
     2.01462563E-03    2     1000022         4   # BR(~t_1 -> chi^0_1 c)
     4.78019971E-03    2     1000022         6   # BR(~t_1 -> chi^0_1 t)
     5.36372808E-02    2     1000023         4   # BR(~t_1 -> chi^0_2 c)
     1.10147897E-01    2     1000023         6   # BR(~t_1 -> chi^0_2 t)
     1.64678699E-01    2     1000025         6   # BR(~t_1 -> chi^0_3 t)
     1.68558863E-01    2     1000035         6   # BR(~t_1 -> chi^0_4 t)
     2.28358117E-01    2     1000024         5   # BR(~t_1 -> chi^+_1 b)
     2.66708548E-01    2     1000037         5   # BR(~t_1 -> chi^+_2 b)
#    BR                NDA      ID1      ID2       ID3
     1.11577094E-03    3     1000022        24         5   # BR(~t_1 -> chi^0_1 W^+ b)
DECAY   2000006     2.71521345E+02   # ~t_2
#    BR                NDA      ID1      ID2
     3.19736843E-02    2     1000022         6   # BR(~t_2 -> chi^0_1 t)
     2.17018499E-03    2     1000023         6   # BR(~t_2 -> chi^0_2 t)
     1.12021581E-01    2     1000025         6   # BR(~t_2 -> chi^0_3 t)
     1.09512697E-01    2     1000035         6   # BR(~t_2 -> chi^0_4 t)
     4.44160154E-03    2     1000024         5   # BR(~t_2 -> chi^+_1 b)
     2.22132573E-01    2     1000037         5   # BR(~t_2 -> chi^+_2 b)
     2.29652424E-01    2     1000005        24   # BR(~t_2 -> ~b_1 W^+)
     1.16399869E-01    2     1000006        23   # BR(~t_2 -> ~t_1 Z)
     1.71695385E-01    2     1000006        25   # BR(~t_2 -> ~t_1 h^0)
DECAY   1000024     2.51370444E-03   # chi^+_1
#    BR                NDA      ID1      ID2
     9.88203352E-01    2     1000022        24   # BR(chi^+_1 -> chi^0_1 W^+)
#    BR                NDA      ID1      ID2       ID3
     1.17841098E-02    3     1000022        -5         6   # BR(chi^+_1 -> chi^0_1 b_bar t)
DECAY   1000037     9.37742207E+00   # chi^+_2
#    BR                NDA      ID1      ID2
     1.00854414E-01    2     1000022        24   # BR(chi^+_2 -> chi^0_1 W^+)
     2.99506063E-01    2     1000023        24   # BR(chi^+_2 -> chi^0_2 W^+)
     2.93048297E-01    2     1000024        23   # BR(chi^+_2 -> chi^+_1 Z)
     2.94962195E-01    2     1000024        25   # BR(chi^+_2 -> chi^+_1 h^0)
#    BR                NDA      ID1      ID2       ID3
     3.87597571E-03    3     1000024         6        -6   # BR(chi^+_2 -> chi^+_1 t t_bar)
     2.76916132E-03    3     1000022        -5         6   # BR(chi^+_2 -> chi^0_1 b_bar t)
     4.96868306E-03    3     1000023        -5         6   # BR(chi^+_2 -> chi^0_2 b_bar t)
DECAY   1000022     0.00000000E+00   # chi^0_1
DECAY   1000023     2.40928744E-03   # chi^0_2
#    BR                NDA      ID1      ID2
     3.47238324E-01    2     1000022        23   # BR(chi^0_2 -> chi^0_1 Z)
     6.49385537E-01    2     1000022        25   # BR(chi^0_2 -> chi^0_1 h^0)
#    BR                NDA      ID1      ID2       ID3
     3.20574413E-03    3     1000022         6        -6   # BR(chi^0_2 -> chi^0_1 t t_bar)
     1.53909874E-04    3     1000022         5        -5   # BR(chi^0_2 -> chi^0_1 b b_bar)
DECAY   1000025     1.18862400E+01   # chi^0_3
#    BR                NDA      ID1      ID2
     2.39070992E-01    2     1000024       -24   # BR(chi^0_3 -> chi^+_1 W^-)
     2.39070992E-01    2    -1000024        24   # BR(chi^0_3 -> chi^-_1 W^+)
     4.75690482E-02    2     1000022        23   # BR(chi^0_3 -> chi^0_1 Z)
     2.18513639E-01    2     1000023        23   # BR(chi^0_3 -> chi^0_2 Z)
     4.08365438E-02    2     1000022        25   # BR(chi^0_3 -> chi^0_1 h^0)
     2.04219853E-01    2     1000023        25   # BR(chi^0_3 -> chi^0_2 h^0)
#    BR                NDA      ID1      ID2       ID3
     1.28815905E-03    3     1000022         6        -6   # BR(chi^0_3 -> chi^0_1 t t_bar)
     1.01815373E-03    3     1000023         6        -6   # BR(chi^0_3 -> chi^0_2 t t_bar)
     4.17163698E-03    3     1000024         5        -6   # BR(chi^0_3 -> chi^+_1 b t_bar)
     4.17163698E-03    3    -1000024        -5         6   # BR(chi^0_3 -> chi^-_1 b_bar t)
DECAY   1000035     9.20951771E+00   # chi^0_4
#    BR                NDA      ID1      ID2
     2.93313172E-01    2     1000024       -24   # BR(chi^0_4 -> chi^+_1 W^-)
     2.93313172E-01    2    -1000024        24   # BR(chi^0_4 -> chi^-_1 W^+)
     4.17938994E-02    2     1000022        23   # BR(chi^0_4 -> chi^0_1 Z)
     2.42301330E-02    2     1000023        23   # BR(chi^0_4 -> chi^0_2 Z)
     5.63839786E-02    2     1000022        25   # BR(chi^0_4 -> chi^0_1 h^0)
     2.78099729E-01    2     1000023        25   # BR(chi^0_4 -> chi^0_2 h^0)
#    BR                NDA      ID1      ID2       ID3
     1.56612483E-03    3     1000022         6        -6   # BR(chi^0_4 -> chi^0_1 t t_bar)
     1.36774570E-03    3     1000023         6        -6   # BR(chi^0_4 -> chi^0_2 t t_bar)
     4.95749457E-03    3     1000024         5        -6   # BR(chi^0_4 -> chi^+_1 b t_bar)
     4.95749457E-03    3    -1000024        -5         6   # BR(chi^0_4 -> chi^-_1 b_bar t)
DECAY   1000021     2.20771306E+02   # ~g
#    BR                NDA      ID1      ID2
     8.27749439E-02    2     1000006        -4   # BR(~g -> ~t_1 c_bar)
     8.27749439E-02    2    -1000006         4   # BR(~g -> ~t^*_1 c)
     1.79496338E-01    2     1000006        -6   # BR(~g -> ~t_1 t_bar)
     1.79496338E-01    2    -1000006         6   # BR(~g -> ~t^*_1 t)
     5.00823537E-02    2     2000006        -6   # BR(~g -> ~t_2 t_bar)
     5.00823537E-02    2    -2000006         6   # BR(~g -> ~t^*_2 t)
     1.75099346E-01    2     1000005        -5   # BR(~g -> ~b_1 b_bar)
     1.75099346E-01    2    -1000005         5   # BR(~g -> ~b^*_1 b)
     1.24771346E-02    2     2000005        -5   # BR(~g -> ~b_2 b_bar)
     1.24771346E-02    2    -2000005         5   # BR(~g -> ~b^*_2 b)
#    BR                NDA      ID1      ID2       ID3
DECAY        25     3.84443387E-03   # Gamma(h0)
     2.61704165E-03   2        22        22   # BR(h0 -> photon photon)
     1.95715861E-03   2        22        23   # BR(h0 -> photon Z)
     4.01609195E-02   2        23        23   # BR(h0 -> Z Z)
     3.13475418E-01   2       -24        24   # BR(h0 -> W W)
     7.83991543E-02   2        21        21   # BR(h0 -> gluon gluon)
     4.36882426E-09   2       -11        11   # BR(h0 -> Electron electron)
     1.94334513E-04   2       -13        13   # BR(h0 -> Muon muon)
     5.60368730E-02   2       -15        15   # BR(h0 -> Tau tau)
     1.23849777E-07   2        -2         2   # BR(h0 -> Up up)
     2.40393852E-02   2        -4         4   # BR(h0 -> Charm charm)
     5.03471762E-07   2        -1         1   # BR(h0 -> Down down)
     1.82093335E-04   2        -3         3   # BR(h0 -> Strange strange)
     4.82936990E-01   2        -5         5   # BR(h0 -> Bottom bottom)
DECAY        35     1.46472122E+02   # Gamma(HH)
     4.72507632E-09   2        22        22   # BR(HH -> photon photon)
     2.45005484E-08   2        22        23   # BR(HH -> photon Z)
     4.43221957E-08   2        23        23   # BR(HH -> Z Z)
     7.65471981E-09   2       -24        24   # BR(HH -> W W)
     2.88051591E-06   2        21        21   # BR(HH -> gluon gluon)
     1.30386153E-08   2       -11        11   # BR(HH -> Electron electron)
     5.80630893E-04   2       -13        13   # BR(HH -> Muon muon)
     1.67705563E-01   2       -15        15   # BR(HH -> Tau tau)
     1.37751137E-14   2        -2         2   # BR(HH -> Up up)
     2.67281819E-09   2        -4         4   # BR(HH -> Charm charm)
     9.99901514E-05   2        -6         6   # BR(HH -> Top top)
     8.20207863E-07   2        -1         1   # BR(HH -> Down down)
     2.96592147E-04   2        -3         3   # BR(HH -> Strange strange)
     4.77633429E-01   2        -5         5   # BR(HH -> Bottom bottom)
     2.81241311E-03   2  -1000024   1000024   # BR(HH -> Chargino1 chargino1)
     1.05549495E-01   2  -1000024   1000037   # BR(HH -> Chargino1 chargino2)
     1.05549495E-01   2  -1000037   1000024   # BR(HH -> Chargino2 chargino1)
     4.44070956E-04   2  -1000037   1000037   # BR(HH -> Chargino2 chargino2)
     7.48823486E-05   2   1000022   1000022   # BR(HH -> neutralino1 neutralino1)
     6.72461113E-04   2   1000022   1000023   # BR(HH -> neutralino1 neutralino2)
     1.68020382E-02   2   1000022   1000025   # BR(HH -> neutralino1 neutralino3)
     1.48831673E-02   2   1000022   1000035   # BR(HH -> neutralino1 neutralino4)
     1.39672184E-03   2   1000023   1000023   # BR(HH -> neutralino2 neutralino2)
     5.92572831E-02   2   1000023   1000025   # BR(HH -> neutralino2 neutralino3)
     4.44798610E-02   2   1000023   1000035   # BR(HH -> neutralino2 neutralino4)
     1.04644842E-04   2   1000025   1000025   # BR(HH -> neutralino3 neutralino3)
     9.99944666E-04   2   1000025   1000035   # BR(HH -> neutralino3 neutralino4)
     6.52670152E-04   2   1000035   1000035   # BR(HH -> neutralino4 neutralino4)
     8.49179659E-07   2        25        25   # BR(HH -> h0 h0)
DECAY        36     1.39795110E+02   # Gamma(A0)
     3.42890564E-08   2        22        22   # BR(A0 -> photon photon)
     5.76848307E-08   2        22        23   # BR(A0 -> photon Z)
     5.70231746E-06   2        21        21   # BR(A0 -> gluon gluon)
     1.26951815E-08   2       -11        11   # BR(A0 -> Electron electron)
     5.65339040E-04   2       -13        13   # BR(A0 -> Muon muon)
     1.63288877E-01   2       -15        15   # BR(A0 -> Tau tau)
     1.49302800E-14   2        -2         2   # BR(A0 -> Up up)
     2.89683510E-09   2        -4         4   # BR(A0 -> Charm charm)
     1.14667627E-04   2        -6         6   # BR(A0 -> Top top)
     7.98547753E-07   2        -1         1   # BR(A0 -> Down down)
     2.88757002E-04   2        -3         3   # BR(A0 -> Strange strange)
     4.64954373E-01   2        -5         5   # BR(A0 -> Bottom bottom)
     3.34844570E-03   2  -1000024   1000024   # BR(A0 -> Chargino1 chargino1)
     1.10282832E-01   2  -1000024   1000037   # BR(A0 -> Chargino1 chargino2)
     1.10282832E-01   2  -1000037   1000024   # BR(A0 -> Chargino2 chargino1)
     8.06641188E-04   2  -1000037   1000037   # BR(A0 -> Chargino2 chargino2)
     7.92006247E-05   2   1000022   1000022   # BR(A0 -> neutralino1 neutralino1)
     7.32265072E-04   2   1000022   1000023   # BR(A0 -> neutralino1 neutralino2)
     1.59227204E-02   2   1000022   1000025   # BR(A0 -> neutralino1 neutralino3)
     1.72693068E-02   2   1000022   1000035   # BR(A0 -> neutralino1 neutralino4)
     1.66320257E-03   2   1000023   1000023   # BR(A0 -> neutralino2 neutralino2)
     4.77682427E-02   2   1000023   1000025   # BR(A0 -> neutralino2 neutralino3)
     6.06887534E-02   2   1000023   1000035   # BR(A0 -> neutralino2 neutralino4)
     1.53528876E-04   2   1000025   1000025   # BR(A0 -> neutralino3 neutralino3)
     6.74474065E-04   2   1000025   1000035   # BR(A0 -> neutralino3 neutralino4)
     1.10881062E-03   2   1000035   1000035   # BR(A0 -> neutralino4 neutralino4)
     1.21889753E-07   2        23        25   # BR(A0 -> Z h0)
     1.93919686E-13   2        23        35   # BR(A0 -> Z HH)
     1.94774975E-38   2        25        25   # BR(A0 -> h0 h0)
DECAY        37     1.67116732E+02   # Gamma(Hp)
     1.47395729E-08   2       -11        12   # BR(Hp -> Electron nu_e)
     6.30162776E-04   2       -13        14   # BR(Hp -> Muon nu_mu)
     1.78245943E-01   2       -15        16   # BR(Hp -> Tau nu_tau)
     8.30995625E-07   2        -1         2   # BR(Hp -> Down up)
     1.40938475E-05   2        -3         2   # BR(Hp -> Strange up)
     5.40662345E-06   2        -5         2   # BR(Hp -> Bottom up)
     3.92152521E-08   2        -1         4   # BR(Hp -> Down charm)
     2.99368349E-04   2        -3         4   # BR(Hp -> Strange charm)
     7.57120893E-04   2        -5         4   # BR(Hp -> Bottom charm)
     2.27690085E-08   2        -1         6   # BR(Hp -> Down top)
     9.43792317E-07   2        -3         6   # BR(Hp -> Strange top)
     5.10246806E-01   2        -5         6   # BR(Hp -> Bottom top)
     1.19779622E-03   2   1000022   1000024   # BR(Hp -> neutralino1 chargino1)
     2.72966760E-02   2   1000022   1000037   # BR(Hp -> neutralino1 chargino2)
     1.45317203E-08   2   1000023   1000024   # BR(Hp -> neutralino2 chargino1)
     9.45339207E-02   2   1000023   1000037   # BR(Hp -> neutralino2 chargino2)
     9.28511287E-02   2   1000024   1000025   # BR(Hp -> chargino1 neutralino3)
     7.20036294E-04   2   1000025   1000037   # BR(Hp -> neutralino3 chargino2)
     9.30778657E-02   2   1000024   1000035   # BR(Hp -> chargino1 neutralino4)
     1.21707157E-04   2   1000035   1000037   # BR(Hp -> neutralino4 chargino2)
     1.01861239E-07   2        24        25   # BR(Hp -> W h0)
DECAY         6     2.43000000E+00   # top
#    BR                NDA      ID1      ID2
     1.00000000E+00    2           5        24   # BR(t -> b W)
Block HiggsBoundsInputHiggsCouplingsFermions
# ScalarNormEffCoupSq PseudoSNormEffCoupSq NP IP1 IP2 IP2
    9.59831494E-01    0.00000000E+00        3  25   5   5  # h0-b-b eff. coupling^2, normalised to SM
    2.97333149E+03    0.00000000E+00        3  35   5   5  # H0-b-b eff. coupling^2, normalised to SM
    0.00000000E+00    2.97329132E+03        3  36   5   5  # A0-b-b eff. coupling^2, normalised to SM
#
    1.00001351E+00    0.00000000E+00        3  25   6   6  # h0-t-t eff. coupling^2, normalised to SM
    3.22817844E-04    0.00000000E+00        3  35   6   6  # H0-t-t eff. coupling^2, normalised to SM
    0.00000000E+00    3.36327622E-04        3  36   6   6  # A0-t-t eff. coupling^2, normalised to SM
#
    9.59831494E-01    0.00000000E+00        3  25  15  15  # h0-tau-tau eff. coupling^2, normalised to SM
    2.97333149E+03    0.00000000E+00        3  35  15  15  # H0-tau-tau eff. coupling^2, normalised to SM
    0.00000000E+00    2.97329132E+03        3  36  15  15  # A0-tau-tau eff. coupling^2, normalised to SM
#
Block HiggsBoundsInputHiggsCouplingsBosons
    9.99999862E-01        3  25  24  24  # h0-W-W eff. coupling^2, normalised to SM
    1.38461115E-07        3  35  24  24  # H0-W-W eff. coupling^2, normalised to SM
    0.00000000E+00        3  36  24  24  # A0-W-W eff. coupling^2, normalised to SM
#
    9.99999862E-01        3  25  23  23  # h0-Z-Z eff. coupling^2, normalised to SM
    1.38461115E-07        3  35  23  23  # H0-Z-Z eff. coupling^2, normalised to SM
    0.00000000E+00        3  36  23  23  # A0-Z-Z eff. coupling^2, normalised to SM
#
    1.26275872E+00        3  25  21  21  # h0-g-g eff. coupling^2, normalised to SM
    1.01330254E-02        3  35  21  21  # H0-g-g eff. coupling^2, normalised to SM
    1.39272501E-01        3  36  21  21  # A0-g-g eff. coupling^2, normalised to SM
#
    0.00000000E+00        3  25  25  23  # h0-h0-Z eff. coupling^2, normalised to SM
    0.00000000E+00        3  35  25  23  # H0-h0-Z eff. coupling^2, normalised to SM
    1.38461115E-07        3  36  25  23  # A0-h0-Z eff. coupling^2, normalised to SM
    0.00000000E+00        3  35  35  23  # H0-H0-Z eff. coupling^2, normalised to SM
    9.99999862E-01        3  36  35  23  # A0-H0-Z eff. coupling^2, normalised to SM
    0.00000000E+00        3  36  36  23  # A0-A0-Z eff. coupling^2, normalised to SM
#
    0.00000000E+00        4  25  21  21  23  # h0-g-g-Z eff. coupling^2, normalised to SM
    0.00000000E+00        4  35  21  21  23  # H0-g-g-Z eff. coupling^2, normalised to SM
    0.00000000E+00        4  36  21  21  23  # A0-g-g-Z eff. coupling^2, normalised to SM
Block SPhenoLowEnergy  # low energy observables
    1    3.31920546E-04   # BR(b -> s gamma)
    2    1.58889928E-06   # BR(b -> s mu+ mu-)
    3    3.52498934E-05   # BR(b -> s nu nu)
    4    3.66309588E-15   # BR(Bd -> e+ e-)
    5    1.56484094E-10   # BR(Bd -> mu+ mu-)
    6    3.28042105E-08   # BR(Bd -> tau+ tau-)
    7    1.22632865E-13   # BR(Bs -> e+ e-)
    8    5.23890028E-09   # BR(Bs -> mu+ mu-)
    9    1.11285776E-06   # BR(Bs -> tau+ tau-)
   10    9.57235389E-05   # BR(B_u -> tau nu)
   11    9.88787510E-01   # BR(B_u -> tau nu)/BR(B_u -> tau nu)_SM
   12    5.42211104E-01   # |Delta(M_Bd)| [ps^-1] 
   13    1.93683003E+01   # |Delta(M_Bs)| [ps^-1] 
   14    0.00000000E+00   # neutron EDM according to the chiral quark model
   15    0.00000000E+00   # neutron EDM according to the relativistic quark-parton model
   16    2.15863368E-03   # epsilon_K
   17    2.28167235E-15   # Delta(M_K)
   18    2.47997125E-11   # BR(K^0 -> pi^0 nu nu)
   19    8.29040499E-11   # BR(K^+ -> pi^+ nu nu)
   20    4.32923788E-16   # Delta(g-2)_electron/2
   21    1.85091697E-11   # Delta(g-2)_muon/2
   22    5.26015609E-09   # Delta(g-2)_tau/2
   23    0.00000000E+00   # electric dipole moment of the electron
   24    0.00000000E+00   # electric dipole moment of the muon
   25    0.00000000E+00   # electric dipole moment of the tau
   26    0.00000000E+00   # Br(mu -> e gamma)
   27    0.00000000E+00   # Br(tau -> e gamma)
   28    0.00000000E+00   # Br(tau -> mu gamma)
   29    0.00000000E+00   # Br(mu -> 3 e)
   30    0.00000000E+00   # Br(tau -> 3 e)
   31    0.00000000E+00   # Br(tau -> 3 mu)
   39    7.36121347E-05   # Delta(rho_parameter)
   40    0.00000000E+00   # BR(Z -> e mu)
   41    0.00000000E+00   # BR(Z -> e tau)
   42    0.00000000E+00   # BR(Z -> mu tau)
Block FWCOEF Q=  1.60000000E+02  # Wilson coefficients at scale Q
#    id        order  M        value         comment
     0305 4422   00   0    -1.88819110E-01   # C7
     0305 4422   00   2    -2.02206696E-01   # C7
     0305 4322   00   2    -1.04347213E-04   # C7'
     0305 6421   00   0    -9.52278348E-02   # C8
     0305 6421   00   2    -1.05022872E-01   # C8
     0305 6321   00   2    -1.09318542E-04   # C8'
 03051111 4133   00   0     1.62038748E+00   # C9 e+e-
 03051111 4133   00   2     1.62057653E+00   # C9 e+e-
 03051111 4233   00   2     7.19560237E-04   # C9' e+e-
 03051111 4137   00   0    -4.44307959E+00   # C10 e+e-
 03051111 4137   00   2    -4.44134769E+00   # C10 e+e-
 03051111 4237   00   2    -5.37453347E-03   # C10' e+e-
 03051313 4133   00   0     1.62038748E+00   # C9 mu+mu-
 03051313 4133   00   2     1.62057630E+00   # C9 mu+mu-
 03051313 4233   00   2     7.19559719E-04   # C9' mu+mu-
 03051313 4137   00   0    -4.44307959E+00   # C10 mu+mu-
 03051313 4137   00   2    -4.44134793E+00   # C10 mu+mu-
 03051313 4237   00   2    -5.37453428E-03   # C10' mu+mu-
 03051212 4137   00   0     1.50535012E+00   # C11 nu_1 nu_1
 03051212 4137   00   2     1.50497683E+00   # C11 nu_1 nu_1
 03051212 4237   00   2     1.16382422E-03   # C11' nu_1 nu_1
 03051414 4137   00   0     1.50535012E+00   # C11 nu_2 nu_2
 03051414 4137   00   2     1.50497683E+00   # C11 nu_2 nu_2
 03051414 4237   00   2     1.16382426E-03   # C11' nu_2 nu_2
 03051616 4137   00   0     1.50535012E+00   # C11 nu_3 nu_3
 03051616 4137   00   2     1.50497684E+00   # C11 nu_3 nu_3
 03051616 4237   00   2     1.16383547E-03   # C11' nu_3 nu_3
Block IMFWCOEF Q=  1.60000000E+02  # Im(Wilson coefficients) at scale Q
#    id        order  M        value         comment
     0305 4422   00   0     3.85672025E-07   # C7
     0305 4422   00   2     1.65682432E-05   # C7
     0305 4322   00   2    -7.85609647E-07   # C7'
     0305 6421   00   0     3.30353595E-07   # C8
     0305 6421   00   2    -3.97317444E-06   # C8
     0305 6321   00   2    -5.24108865E-07   # C8'
 03051111 4133   00   2     4.96630508E-07   # C9 e+e-
 03051111 4233   00   2     1.34455587E-05   # C9' e+e-
 03051111 4137   00   2     1.21186388E-06   # C10 e+e-
 03051111 4237   00   2    -1.00429349E-04   # C10' e+e-
 03051313 4133   00   2     4.96623137E-07   # C9 mu+mu-
 03051313 4233   00   2     1.34455528E-05   # C9' mu+mu-
 03051313 4137   00   2     1.21187193E-06   # C10 mu+mu-
 03051313 4237   00   2    -1.00429367E-04   # C10' mu+mu-
 03051212 4137   00   2    -2.31253943E-07   # C11 nu_1 nu_1
 03051212 4237   00   2     2.17473967E-05   # C11' nu_1 nu_1
 03051414 4137   00   2    -2.31253568E-07   # C11 nu_2 nu_2
 03051414 4237   00   2     2.17473967E-05   # C11' nu_2 nu_2
 03051616 4137   00   2    -2.31149335E-07   # C11 nu_3 nu_3
 03051616 4237   00   2     2.17473967E-05   # C11' nu_3 nu_3
