# SUSY Les Houches Accord 2 - MSSM spectrum + Decays
# SPheno v4.0.5be
# W. Porod, Comput. Phys. Commun. 153 (2003) 275-315, hep-ph/0301101;
# W. Porod, F.~Staub, Comput. Phys. Commun. 183 (2012) 2458
#                     arXiv:1104.1573 [hep-ph] 
# in case of problems send email to porod@physik.uni-wuerzburg.de
# Created: 07.09.2021,  21:36
Block SPINFO         # Program information
     1   SPheno      # spectrum calculator
     2   v4.0.5be    # version number
#
Block SPhenoINFO     # SPheno specific information
    1      2         # using 2-loop RGEs
    2      2         # using pole masses for boundary conditions at mZ
Block MODSEL  # Model selection
    1    0    # general MSSM
Block MINPAR  # Input parameters
    3    2.26609636E+01  # tanb at m_Z    
    4   -1.00000000E+00  # Sign(mu)
Block EXTPAR  # non-universal input parameters
    0    3.03278924E+03  # scale for input parameters
    1    1.99559253E+02  # M_1
    2    2.99163478E+02  # M_2
    3    1.45232739E+03  # M_3
   11    4.30866734E+03  # A_t
   12    3.83391470E+02  # A_b
   13   -7.36263595E+02  # A_tau
   23   -2.81028851E+02  # mu
   25    2.17161570E+01  # tan(beta)
   26    3.46521220E+03  # m_A, pole mass
   31    1.00000000E+04  # M_L11
   32    1.00000000E+04  # M_L22
   33    1.00000000E+04  # M_L33
   34    1.00000000E+04  # M_E11
   35    1.00000000E+04  # M_E22
   36    1.00000000E+04  # M_E33
   41    1.00000000E+04  # M_Q11
   42    1.00000000E+04  # M_Q22
   43    2.73825100E+03  # M_Q33
   44    1.00000000E+04  # M_U11
   45    1.00000000E+04  # M_U22
   46    3.40763307E+03  # M_U33
   47    1.00000000E+04  # M_D11
   48    1.00000000E+04  # M_D22
   49    3.36449362E+03  # M_D33
Block SMINPUTS  # SM parameters
         1     1.27908970E+02  # alpha_em^-1(MZ)^MSbar
         2     1.16637870E-05  # G_mu [GeV^-2]
         3     1.18400000E-01  # alpha_s(MZ)^MSbar
         4     9.11876000E+01  # m_Z(pole)
         5     4.18000000E+00  # m_b(m_b), MSbar
         6     1.73200000E+02  # m_t(pole)
         7     1.77700000E+00  # m_tau(pole)
         8     0.00000000E+00  # m_nu_3
        11     5.10998930E-04  # m_e(pole)
        12     0.00000000E+00  # m_nu_1
        13     1.05658372E-01  # m_muon(pole)
        14     0.00000000E+00  # m_nu_2
        21     5.00000000E-03  # m_d(2 GeV), MSbar
        22     2.50000000E-03  # m_u(2 GeV), MSbar
        23     9.50000000E-02  # m_s(2 GeV), MSbar
        24     1.27000000E+00  # m_c(m_c), MSbar
Block gauge Q=  3.03278924E+03  # (SUSY scale)
   1    3.55362975E-01  # g'(Q)^DRbar
   2    6.65198874E-01  # g(Q)^DRbar
   3    1.21977796E+00  # g3(Q)^DRbar
Block Yu Q=  3.03278924E+03  # (SUSY scale)
  1  1     8.39325687E-06   # Y_u(Q)^DRbar
  2  2     4.26377449E-03   # Y_c(Q)^DRbar
  3  3     1.01397285E+00   # Y_t(Q)^DRbar
Block Yd Q=  3.03278924E+03  # (SUSY scale)
  1  1     3.66263579E-04   # Y_d(Q)^DRbar
  2  2     6.95900800E-03   # Y_s(Q)^DRbar
  3  3     3.63218700E-01   # Y_b(Q)^DRbar
Block Ye Q=  3.03278924E+03  # (SUSY scale)
  1  1     6.39156729E-05   # Y_e(Q)^DRbar
  2  2     1.32157340E-02   # Y_mu(Q)^DRbar
  3  3     2.22266905E-01   # Y_tau(Q)^DRbar
Block Au Q=  3.03278924E+03  # (SUSY scale)
  1  1     0.00000000E+00   # A_u(Q)^DRbar
  2  2     0.00000000E+00   # A_c(Q)^DRbar
  3  3     4.30866736E+03   # A_t(Q)^DRbar
Block Ad Q=  3.03278924E+03  # (SUSY scale)
  1  1     0.00000000E+00   # A_d(Q)^DRbar
  2  2     0.00000000E+00   # A_s(Q)^DRbar
  3  3     3.83391466E+02   # A_b(Q)^DRbar
Block Ae Q=  3.03278924E+03  # (SUSY scale)
  1  1     0.00000000E+00   # A_e(Q)^DRbar
  2  2     0.00000000E+00   # A_mu(Q)^DRbar
  3  3    -7.36263592E+02   # A_tau(Q)^DRbar
Block MSOFT Q=  3.03278924E+03  # soft SUSY breaking masses at Q
   1    1.99559253E+02  # M_1
   2    2.99163478E+02  # M_2
   3    1.45232739E+03  # M_3
  21    1.18571609E+07  # M^2_(H,d)
  22    1.43173703E+05  # M^2_(H,u)
  31    1.00000000E+04  # M_(L,11)
  32    1.00000000E+04  # M_(L,22)
  33    1.00000000E+04  # M_(L,33)
  34    1.00000000E+04  # M_(E,11)
  35    1.00000000E+04  # M_(E,22)
  36    1.00000000E+04  # M_(E,33)
  41    1.00000000E+04  # M_(Q,11)
  42    1.00000000E+04  # M_(Q,22)
  43    2.73825100E+03  # M_(Q,33)
  44    1.00000000E+04  # M_(U,11)
  45    1.00000000E+04  # M_(U,22)
  46    3.40763307E+03  # M_(U,33)
  47    1.00000000E+04  # M_(D,11)
  48    1.00000000E+04  # M_(D,22)
  49    3.36449362E+03  # M_(D,33)
Block MASS  # Mass spectrum
#   PDG code      mass          particle
         6     1.73200000E+02  # m_t(pole)
        23     9.11876000E+01  # m_Z(pole)
        24     8.04299946E+01  # W+
        15     1.77700000E+00  # m_tau(pole)
        25     1.26763209E+02  # h0
        35     3.46459308E+03  # H0
        36     3.46521220E+03  # A0
        37     3.46595293E+03  # H+
   1000001     1.01209261E+04  # ~d_L
   2000001     1.00955259E+04  # ~d_R
   1000002     1.01205627E+04  # ~u_L
   2000002     1.00987101E+04  # ~u_R
   1000003     1.01209286E+04  # ~s_L
   2000003     1.00955295E+04  # ~s_R
   1000004     1.01205653E+04  # ~c_L
   2000004     1.00987115E+04  # ~c_R
   1000005     2.74916377E+03  # ~b_1
   2000005     3.40492759E+03  # ~b_2
   1000006     2.73593019E+03  # ~t_1
   2000006     3.36185865E+03  # ~t_2
   1000011     1.00214635E+04  # ~e_L-
   2000011     1.00089149E+04  # ~e_R-
   1000012     1.00206939E+04  # ~nu_eL
   1000013     1.00214729E+04  # ~mu_L-
   2000013     1.00089329E+04  # ~mu_R-
   1000014     1.00207032E+04  # ~nu_muL
   1000015     1.00140407E+04  # ~tau_1-
   2000015     1.00241253E+04  # ~tau_2-
   1000016     1.00233320E+04  # ~nu_tauL
   1000021     1.79672788E+03  # ~g
   1000022     1.93388932E+02  # ~chi_10
   1000023     2.63449051E+02  # ~chi_20
   1000025     2.99060239E+02  # ~chi_30
   1000035     3.74481227E+02  # ~chi_40
   1000024     2.59053614E+02  # ~chi_1+
   1000037     3.74529314E+02  # ~chi_2+
# Higgs mixing
Block alpha # Effective Higgs mixing angle
          -4.41788660E-02   # alpha
Block Hmix Q=  3.03278924E+03  # Higgs mixing parameters
   1   -2.81028851E+02  # mu
   2    2.17161570E+01  # tan[beta](Q)
   3    2.43200445E+02  # v(Q)
   4    1.20076956E+07  # m^2_A(Q)
Block stopmix # stop mixing matrix
   1  1    -9.88815569E-01   # Re[R_st(1,1)]
   1  2     1.49143456E-01   # Re[R_st(1,2)]
   2  1    -1.49143456E-01   # Re[R_st(2,1)]
   2  2    -9.88815569E-01   # Re[R_st(2,2)]
Block sbotmix # sbottom mixing matrix
   1  1    -9.99994045E-01   # Re[R_sb(1,1)]
   1  2     3.45100738E-03   # Re[R_sb(1,2)]
   2  1    -3.45100738E-03   # Re[R_sb(2,1)]
   2  2    -9.99994045E-01   # Re[R_sb(2,2)]
Block staumix # stau mixing matrix
   1  1    -4.69149672E-02   # Re[R_sta(1,1)]
   1  2     9.98898887E-01   # Re[R_sta(1,2)]
   2  1    -9.98898887E-01   # Re[R_sta(2,1)]
   2  2    -4.69149672E-02   # Re[R_sta(2,2)]
Block Nmix # neutralino mixing matrix
   1  1     9.31584279E-01   # Re[N(1,1)]
   1  2    -1.02224910E-01   # Re[N(1,2)]
   1  3    -2.94085013E-01   # Re[N(1,3)]
   1  4    -1.87656080E-01   # Re[N(1,4)]
   2  1    -3.38403478E-01   # Re[N(2,1)]
   2  2    -5.75209980E-01   # Re[N(2,2)]
   2  3    -5.55560636E-01   # Re[N(2,3)]
   2  4    -4.95952563E-01   # Re[N(2,4)]
   3  1    -6.53869604E-02   # Re[N(3,1)]
   3  2     9.60133509E-02   # Re[N(3,2)]
   3  3    -6.93939154E-01   # Re[N(3,3)]
   3  4     7.10601459E-01   # Re[N(3,4)]
   4  1    -1.15578386E-01   # Re[N(4,1)]
   4  2     8.05893903E-01   # Re[N(4,2)]
   4  3    -3.51162122E-01   # Re[N(4,3)]
   4  4    -4.62451962E-01   # Re[N(4,4)]
Block Umix # chargino mixing matrix
   1  1    -4.98019829E-01   # Re[U(1,1)]
   1  2    -8.67165642E-01   # Re[U(1,2)]
   2  1     8.67165642E-01   # Re[U(2,1)]
   2  2    -4.98019829E-01   # Re[U(2,2)]
Block Vmix # chargino mixing matrix
   1  1    -6.53718908E-01   # Re[V(1,1)]
   1  2     7.56737464E-01   # Re[V(1,2)]
   2  1     7.56737464E-01   # Re[V(2,1)]
   2  2     6.53718908E-01   # Re[V(2,2)]
DECAY        23     2.49520000E+00   # Z
DECAY        24     2.08500000E+00   # W
DECAY   2000011     5.02483206E+01   # ~e^-_R
#    BR                NDA      ID1      ID2
     8.67940422E-01    2     1000022        11   # BR(~e^-_R -> chi^0_1 e^-)
     1.14455749E-01    2     1000023        11   # BR(~e^-_R -> chi^0_2 e^-)
     4.27146868E-03    2     1000025        11   # BR(~e^-_R -> chi^0_3 e^-)
     1.33323436E-02    2     1000035        11   # BR(~e^-_R -> chi^0_4 e^-)
DECAY   1000011     1.44594866E+02   # ~e^-_L
#    BR                NDA      ID1      ID2
     4.76687457E-02    2     1000022        11   # BR(~e^-_L -> chi^0_1 e^-)
     1.74106701E-01    2     1000023        11   # BR(~e^-_L -> chi^0_2 e^-)
     1.13615917E-03    2     1000025        11   # BR(~e^-_L -> chi^0_3 e^-)
     1.68456652E-01    2     1000035        11   # BR(~e^-_L -> chi^0_4 e^-)
     1.51120751E-01    2    -1000024        12   # BR(~e^-_L -> chi^-_1 nu_e)
     4.57510992E-01    2    -1000037        12   # BR(~e^-_L -> chi^-_2 nu_e)
#    BR                NDA      ID1      ID2       ID3
DECAY   2000013     5.03178465E+01   # ~mu^-_R
#    BR                NDA      ID1      ID2
     8.66802455E-01    2     1000022        13   # BR(~mu^-_R -> chi^0_1 mu^-)
     1.14510827E-01    2     1000023        13   # BR(~mu^-_R -> chi^0_2 mu^-)
     4.59780011E-03    2     1000025        13   # BR(~mu^-_R -> chi^0_3 mu^-)
     1.33989340E-02    2     1000035        13   # BR(~mu^-_R -> chi^0_4 mu^-)
     5.19039638E-04    2    -1000024        14   # BR(~mu^-_R -> chi^-_1 nu_mu)
     1.70944313E-04    2    -1000037        14   # BR(~mu^-_R -> chi^-_2 nu_mu)
DECAY   1000013     1.44629764E+02   # ~mu^-_L
#    BR                NDA      ID1      ID2
     4.76780942E-02    2     1000022        13   # BR(~mu^-_L -> chi^0_1 mu^-)
     1.74139064E-01    2     1000023        13   # BR(~mu^-_L -> chi^0_2 mu^-)
     1.25161549E-03    2     1000025        13   # BR(~mu^-_L -> chi^0_3 mu^-)
     1.68445766E-01    2     1000035        13   # BR(~mu^-_L -> chi^0_4 mu^-)
     1.51084429E-01    2    -1000024        14   # BR(~mu^-_L -> chi^-_1 nu_mu)
     4.57401031E-01    2    -1000037        14   # BR(~mu^-_L -> chi^-_2 nu_mu)
#    BR                NDA      ID1      ID2       ID3
DECAY   1000015     7.01135050E+01   # ~tau^-_1
#    BR                NDA      ID1      ID2
     6.38233960E-01    2     1000022        15   # BR(~tau^-_1 -> chi^0_1 tau^-)
     1.32036014E-01    2     1000023        15   # BR(~tau^-_1 -> chi^0_2 tau^-)
     6.80124017E-02    2     1000025        15   # BR(~tau^-_1 -> chi^0_3 tau^-)
     1.91049900E-02    2     1000035        15   # BR(~tau^-_1 -> chi^0_4 tau^-)
     1.22852502E-01    2    -1000024        16   # BR(~tau^-_1 -> chi^-_1 nu_tau)
     1.97601318E-02    2    -1000037        16   # BR(~tau^-_1 -> chi^-_2 nu_tau)
DECAY   2000015     1.54279998E+02   # ~tau^-_2
#    BR                NDA      ID1      ID2
     4.84986327E-02    2     1000022        15   # BR(~tau^-_2 -> chi^0_1 tau^-)
     1.79855197E-01    2     1000023        15   # BR(~tau^-_2 -> chi^0_2 tau^-)
     3.29108621E-02    2     1000025        15   # BR(~tau^-_2 -> chi^0_3 tau^-)
     1.69285772E-01    2     1000035        15   # BR(~tau^-_2 -> chi^0_4 tau^-)
     1.33739929E-01    2    -1000024        16   # BR(~tau^-_2 -> chi^-_1 nu_tau)
     4.35709608E-01    2    -1000037        16   # BR(~tau^-_2 -> chi^-_2 nu_tau)
#    BR                NDA      ID1      ID2       ID3
DECAY   1000012     1.44599851E+02   # ~nu_e
#    BR                NDA      ID1      ID2
     1.09688768E-01    2     1000022        12   # BR(~nu_e -> chi^0_1 nu_e)
     4.73879255E-02    2     1000023        12   # BR(~nu_e -> chi^0_2 nu_e)
     5.22075237E-03    2     1000025        12   # BR(~nu_e -> chi^0_3 nu_e)
     2.28979502E-01    2     1000035        12   # BR(~nu_e -> chi^0_4 nu_e)
     2.60354159E-01    2     1000024        11   # BR(~nu_e -> chi^+_1 e^-)
     3.48368894E-01    2     1000037        11   # BR(~nu_e -> chi^+_2 e^-)
#    BR                NDA      ID1      ID2       ID3
DECAY   1000014     1.44634744E+02   # ~nu_mu
#    BR                NDA      ID1      ID2
     1.09662407E-01    2     1000022        14   # BR(~nu_mu -> chi^0_1 nu_mu)
     4.73765371E-02    2     1000023        14   # BR(~nu_mu -> chi^0_2 nu_mu)
     5.21949771E-03    2     1000025        14   # BR(~nu_mu -> chi^0_3 nu_mu)
     2.28924474E-01    2     1000035        14   # BR(~nu_mu -> chi^0_4 nu_mu)
     2.60472378E-01    2     1000024        13   # BR(~nu_mu -> chi^+_1 mu^-)
     3.48344706E-01    2     1000037        13   # BR(~nu_mu -> chi^+_2 mu^-)
#    BR                NDA      ID1      ID2       ID3
DECAY   1000016     1.54472636E+02   # ~nu_tau
#    BR                NDA      ID1      ID2
     1.02705319E-01    2     1000022        16   # BR(~nu_tau -> chi^0_1 nu_tau)
     4.43709390E-02    2     1000023        16   # BR(~nu_tau -> chi^0_2 nu_tau)
     4.88837043E-03    2     1000025        16   # BR(~nu_tau -> chi^0_3 nu_tau)
     2.14401516E-01    2     1000035        16   # BR(~nu_tau -> chi^0_4 nu_tau)
     2.91672595E-01    2     1000024        15   # BR(~nu_tau -> chi^+_1 tau^-)
     3.41961260E-01    2     1000037        15   # BR(~nu_tau -> chi^+_2 tau^-)
#    BR                NDA      ID1      ID2       ID3
DECAY   2000001     7.52823792E+02   # ~d_R
#    BR                NDA      ID1      ID2
     6.49266985E-03    2     1000022         1   # BR(~d_R -> chi^0_1 d)
     8.56211647E-04    2     1000023         1   # BR(~d_R -> chi^0_2 d)
     9.92519371E-01    2     1000021         1   # BR(~d_R -> ~g d)
DECAY   1000001     8.84058152E+02   # ~d_L
#    BR                NDA      ID1      ID2
     3.61967290E-03    2     1000022         1   # BR(~d_L -> chi^0_1 d)
     1.33439085E-02    2     1000023         1   # BR(~d_L -> chi^0_2 d)
     5.83014909E-04    2     1000025         1   # BR(~d_L -> chi^0_3 d)
     3.43251535E-02    2     1000035         1   # BR(~d_L -> chi^0_4 d)
     2.49629902E-02    2    -1000024         2   # BR(~d_L -> chi^-_1 u)
     7.55764412E-02    2    -1000037         2   # BR(~d_L -> chi^-_2 u)
     8.47588819E-01    2     1000021         1   # BR(~d_L -> ~g d)
DECAY   2000003     7.52843461E+02   # ~s_R
#    BR                NDA      ID1      ID2
     6.49361614E-03    2     1000022         3   # BR(~s_R -> chi^0_1 s)
     8.60160590E-04    2     1000023         3   # BR(~s_R -> chi^0_2 s)
     1.01322860E-04    2     1000035         3   # BR(~s_R -> chi^0_4 s)
     9.92493839E-01    2     1000021         3   # BR(~s_R -> ~g s)
DECAY   1000003     8.84071755E+02   # ~s_L
#    BR                NDA      ID1      ID2
     3.62056876E-03    2     1000022         3   # BR(~s_L -> chi^0_1 s)
     1.33470972E-02    2     1000023         3   # BR(~s_L -> chi^0_2 s)
     5.88293272E-04    2     1000025         3   # BR(~s_L -> chi^0_3 s)
     3.43259857E-02    2     1000035         3   # BR(~s_L -> chi^0_4 s)
     2.49649758E-02    2    -1000024         4   # BR(~s_L -> chi^-_1 c)
     7.55770663E-02    2    -1000037         4   # BR(~s_L -> chi^-_2 c)
     8.47576013E-01    2     1000021         3   # BR(~s_L -> ~g s)
DECAY   1000005     1.68315574E+02   # ~b_1
#    BR                NDA      ID1      ID2
     8.85680896E-03    2     1000022         5   # BR(~b_1 -> chi^0_1 b)
     3.17962845E-02    2     1000023         5   # BR(~b_1 -> chi^0_2 b)
     2.09346836E-02    2     1000025         5   # BR(~b_1 -> chi^0_3 b)
     5.22663303E-02    2     1000035         5   # BR(~b_1 -> chi^0_4 b)
     2.19444771E-01    2    -1000024         6   # BR(~b_1 -> chi^-_1 t)
     2.43617038E-01    2    -1000037         6   # BR(~b_1 -> chi^-_2 t)
     4.23084084E-01    2     1000021         5   # BR(~b_1 -> ~g b)
DECAY   2000005     1.59413335E+02   # ~b_2
#    BR                NDA      ID1      ID2
     1.50133691E-02    2     1000022         5   # BR(~b_2 -> chi^0_1 b)
     1.83351969E-02    2     1000023         5   # BR(~b_2 -> chi^0_2 b)
     2.66750660E-02    2     1000025         5   # BR(~b_2 -> chi^0_3 b)
     7.05132866E-03    2     1000035         5   # BR(~b_2 -> chi^0_4 b)
     4.11581239E-02    2    -1000024         6   # BR(~b_2 -> chi^-_1 t)
     1.38023419E-02    2    -1000037         6   # BR(~b_2 -> chi^-_2 t)
     8.77764789E-01    2     1000021         5   # BR(~b_2 -> ~g b)
DECAY   2000002     7.69991980E+02   # ~u_R
#    BR                NDA      ID1      ID2
     2.53996304E-02    2     1000022         2   # BR(~u_R -> chi^0_1 u)
     3.34950010E-03    2     1000023         2   # BR(~u_R -> chi^0_2 u)
     1.25003435E-04    2     1000025         2   # BR(~u_R -> chi^0_3 u)
     3.90175264E-04    2     1000035         2   # BR(~u_R -> chi^0_4 u)
     9.70735691E-01    2     1000021         2   # BR(~u_R -> ~g u)
DECAY   1000002     8.84047959E+02   # ~u_L
#    BR                NDA      ID1      ID2
     2.04091347E-04    2     1000022         2   # BR(~u_L -> chi^0_1 u)
     2.03204944E-02    2     1000023         2   # BR(~u_L -> chi^0_2 u)
     3.58051796E-04    2     1000025         2   # BR(~u_L -> chi^0_3 u)
     3.09903810E-02    2     1000035         2   # BR(~u_L -> chi^0_4 u)
     4.30105537E-02    2     1000024         1   # BR(~u_L -> chi^+_1 d)
     5.75522316E-02    2     1000037         1   # BR(~u_L -> chi^+_2 d)
     8.47564196E-01    2     1000021         2   # BR(~u_L -> ~g u)
DECAY   2000004     7.69999360E+02   # ~c_R
#    BR                NDA      ID1      ID2
     2.53995557E-02    2     1000022         4   # BR(~c_R -> chi^0_1 c)
     3.35063439E-03    2     1000023         4   # BR(~c_R -> chi^0_2 c)
     1.27392980E-04    2     1000025         4   # BR(~c_R -> chi^0_3 c)
     3.91183627E-04    2     1000035         4   # BR(~c_R -> chi^0_4 c)
     9.70726499E-01    2     1000021         4   # BR(~c_R -> ~g c)
DECAY   1000004     8.84061541E+02   # ~c_L
#    BR                NDA      ID1      ID2
     2.04234010E-04    2     1000022         4   # BR(~c_L -> chi^0_1 c)
     2.03212016E-02    2     1000023         4   # BR(~c_L -> chi^0_2 c)
     3.60132972E-04    2     1000025         4   # BR(~c_L -> chi^0_3 c)
     3.09907982E-02    2     1000035         4   # BR(~c_L -> chi^0_4 c)
     4.30181653E-02    2     1000024         3   # BR(~c_L -> chi^+_1 s)
     5.75540814E-02    2     1000037         3   # BR(~c_L -> chi^+_2 s)
     8.47551386E-01    2     1000021         4   # BR(~c_L -> ~g c)
DECAY   1000006     1.63599580E+02   # ~t_1
#    BR                NDA      ID1      ID2
     7.69805587E-03    2     1000022         6   # BR(~t_1 -> chi^0_1 t)
     4.17135782E-04    2     1000023         4   # BR(~t_1 -> chi^0_2 c)
     1.00475022E-01    2     1000023         6   # BR(~t_1 -> chi^0_2 t)
     1.63960888E-01    2     1000025         6   # BR(~t_1 -> chi^0_3 t)
     1.32480760E-01    2     1000035         6   # BR(~t_1 -> chi^0_4 t)
     6.42510745E-02    2     1000024         5   # BR(~t_1 -> chi^+_1 b)
     1.24244303E-01    2     1000037         5   # BR(~t_1 -> chi^+_2 b)
     6.10433961E-03    2     1000021         4   # BR(~t_1 -> ~g c)
     3.98262584E-01    2     1000021         6   # BR(~t_1 -> ~g t)
#    BR                NDA      ID1      ID2       ID3
     2.10161419E-03    3     1000022        24         5   # BR(~t_1 -> chi^0_1 W^+ b)
DECAY   2000006     3.26735138E+02   # ~t_2
#    BR                NDA      ID1      ID2
     2.96457602E-02    2     1000022         6   # BR(~t_2 -> chi^0_1 t)
     5.93848106E-02    2     1000023         6   # BR(~t_2 -> chi^0_2 t)
     1.06411685E-01    2     1000025         6   # BR(~t_2 -> chi^0_3 t)
     3.32862289E-02    2     1000035         6   # BR(~t_2 -> chi^0_4 t)
     1.37650115E-01    2     1000024         5   # BR(~t_2 -> chi^+_1 b)
     6.73928959E-02    2     1000037         5   # BR(~t_2 -> chi^+_2 b)
     4.19519541E-01    2     1000021         6   # BR(~t_2 -> ~g t)
     6.23266595E-02    2     1000005        24   # BR(~t_2 -> ~b_1 W^+)
     3.20783903E-02    2     1000006        23   # BR(~t_2 -> ~t_1 Z)
     5.23039131E-02    2     1000006        25   # BR(~t_2 -> ~t_1 h^0)
DECAY   1000024     3.56015247E-04   # chi^+_1
#    BR                NDA      ID1      ID2       ID3
     3.33595261E-01    3     1000022        -1         2   # BR(chi^+_1 -> chi^0_1 d_bar u)
     3.33180111E-01    3     1000022        -3         4   # BR(chi^+_1 -> chi^0_1 s_bar c)
     1.11194437E-01    3     1000022       -11        12   # BR(chi^+_1 -> chi^0_1 e^+ nu_e)
     1.11193921E-01    3     1000022       -13        14   # BR(chi^+_1 -> chi^0_1 mu^+ nu_mu)
     1.10836270E-01    3     1000022       -15        16   # BR(chi^+_1 -> chi^0_1 tau^+ nu_tau)
DECAY   1000037     3.82554701E-01   # chi^+_2
#    BR                NDA      ID1      ID2
     8.74538946E-03    2     1000022        24   # BR(chi^+_2 -> chi^0_1 W^+)
     6.02981151E-01    2     1000023        24   # BR(chi^+_2 -> chi^0_2 W^+)
     3.47391712E-01    2     1000024        23   # BR(chi^+_2 -> chi^+_1 Z)
#    BR                NDA      ID1      ID2       ID3
     1.36315372E-02    3     1000025        -1         2   # BR(chi^+_2 -> chi^0_3 d_bar u)
     1.36226609E-02    3     1000025        -3         4   # BR(chi^+_2 -> chi^0_3 s_bar c)
     4.54383254E-03    3     1000025       -11        12   # BR(chi^+_2 -> chi^0_3 e^+ nu_e)
     4.54381621E-03    3     1000025       -13        14   # BR(chi^+_2 -> chi^0_3 mu^+ nu_mu)
     4.53851651E-03    3     1000025       -15        16   # BR(chi^+_2 -> chi^0_3 tau^+ nu_tau)
DECAY   1000022     0.00000000E+00   # chi^0_1
DECAY   1000023     4.18053290E-05   # chi^0_2
#    BR                NDA      ID1      ID2
     3.44140288E-03    2     1000022        22   # BR(chi^0_2 -> chi^0_1 photon)
#    BR                NDA      ID1      ID2       ID3
     1.18728735E-01    3     1000022         2        -2   # BR(chi^0_2 -> chi^0_1 u u_bar)
     1.18357252E-01    3     1000022         4        -4   # BR(chi^0_2 -> chi^0_1 c c_bar)
     1.52237404E-01    3     1000022         1        -1   # BR(chi^0_2 -> chi^0_1 d d_bar)
     1.52235394E-01    3     1000022         3        -3   # BR(chi^0_2 -> chi^0_1 s s_bar)
     1.48611223E-01    3     1000022         5        -5   # BR(chi^0_2 -> chi^0_1 b b_bar)
     3.43233226E-02    3     1000022        11       -11   # BR(chi^0_2 -> chi^0_1 e^- e^+)
     3.43225599E-02    3     1000022        13       -13   # BR(chi^0_2 -> chi^0_1 mu^- mu^+)
     3.41056390E-02    3     1000022        15       -15   # BR(chi^0_2 -> chi^0_1 tau^- tau^+)
     2.03492324E-01    3     1000022        12       -12   # BR(chi^0_2 -> chi^0_1 nu_e nu_bar_e)
DECAY   1000025     2.44350113E-01   # chi^0_3
#    BR                NDA      ID1      ID2
     9.96947530E-01    2     1000022        23   # BR(chi^0_3 -> chi^0_1 Z)
#    BR                NDA      ID1      ID2       ID3
     4.23315701E-04    3     1000024         1        -2   # BR(chi^0_3 -> chi^+_1 d u_bar)
     4.23315701E-04    3    -1000024        -1         2   # BR(chi^0_3 -> chi^-_1 d_bar u)
     4.21488207E-04    3     1000024         3        -4   # BR(chi^0_3 -> chi^+_1 s c_bar)
     4.21488207E-04    3    -1000024        -3         4   # BR(chi^0_3 -> chi^-_1 s_bar c)
     1.41105754E-04    3     1000024        11       -12   # BR(chi^0_3 -> chi^+_1 e^- nu_bar_e)
     1.41105754E-04    3    -1000024       -11        12   # BR(chi^0_3 -> chi^-_1 e^+ nu_e)
     1.41102837E-04    3     1000024        13       -14   # BR(chi^0_3 -> chi^+_1 mu^- nu_bar_mu)
     1.41102837E-04    3    -1000024       -13        14   # BR(chi^0_3 -> chi^-_1 mu^+ nu_mu)
     1.39934739E-04    3     1000024        15       -16   # BR(chi^0_3 -> chi^+_1 tau^- nu_bar_tau)
     1.39934739E-04    3    -1000024       -15        16   # BR(chi^0_3 -> chi^-_1 tau^+ nu_tau)
DECAY   1000035     4.99586029E-01   # chi^0_4
#    BR                NDA      ID1      ID2
     4.75933916E-01    2     1000024       -24   # BR(chi^0_4 -> chi^+_1 W^-)
     4.75933916E-01    2    -1000024        24   # BR(chi^0_4 -> chi^-_1 W^+)
     4.80097462E-03    2     1000022        23   # BR(chi^0_4 -> chi^0_1 Z)
     7.02832262E-03    2     1000023        23   # BR(chi^0_4 -> chi^0_2 Z)
     2.49550710E-02    2     1000022        25   # BR(chi^0_4 -> chi^0_1 h^0)
#    BR                NDA      ID1      ID2       ID3
     1.34003304E-03    3     1000025         2        -2   # BR(chi^0_4 -> chi^0_3 u u_bar)
     1.33657150E-03    3     1000025         4        -4   # BR(chi^0_4 -> chi^0_3 c c_bar)
     1.71823068E-03    3     1000025         1        -1   # BR(chi^0_4 -> chi^0_3 d d_bar)
     1.71821185E-03    3     1000025         3        -3   # BR(chi^0_4 -> chi^0_3 s s_bar)
     1.67949643E-03    3     1000025         5        -5   # BR(chi^0_4 -> chi^0_3 b b_bar)
     3.87753763E-04    3     1000025        11       -11   # BR(chi^0_4 -> chi^0_3 e^- e^+)
     3.87746434E-04    3     1000025        13       -13   # BR(chi^0_4 -> chi^0_3 mu^- mu^+)
     3.85559911E-04    3     1000025        15       -15   # BR(chi^0_4 -> chi^0_3 tau^- tau^+)
     2.29770464E-03    3     1000025        12       -12   # BR(chi^0_4 -> chi^0_3 nu_e nu_bar_e)
DECAY   1000021     3.82133080E-02   # ~g
#    BR                NDA      ID1      ID2
     5.32687451E-04    2     1000022        21   # BR(~g -> chi^0_1 g)
     3.09164935E-03    2     1000023        21   # BR(~g -> chi^0_2 g)
     5.84791565E-03    2     1000025        21   # BR(~g -> chi^0_3 g)
     2.60435454E-03    2     1000035        21   # BR(~g -> chi^0_4 g)
#    BR                NDA      ID1      ID2       ID3
     1.23723482E-02    3     1000022         6        -6   # BR(~g -> chi^0_1 t t_bar)
     9.67951090E-03    3     1000022         5        -5   # BR(~g -> chi^0_1 b b_bar)
     7.76501769E-02    3     1000023         6        -6   # BR(~g -> chi^0_2 t t_bar)
     2.67800294E-02    3     1000023         5        -5   # BR(~g -> chi^0_2 b b_bar)
     1.54287539E-01    3     1000025         6        -6   # BR(~g -> chi^0_3 t t_bar)
     2.12809201E-02    3     1000025         5        -5   # BR(~g -> chi^0_3 b b_bar)
     1.19656214E-01    3     1000035         6        -6   # BR(~g -> chi^0_4 t t_bar)
     1.06851797E-04    3     1000035         1        -1   # BR(~g -> chi^0_4 d d_bar)
     1.06861446E-04    3     1000035         3        -3   # BR(~g -> chi^0_4 s s_bar)
     3.36797932E-02    3     1000035         5        -5   # BR(~g -> chi^0_4 b b_bar)
     1.16939751E-04    3     1000024         1        -2   # BR(~g -> chi^+_1 d u_bar)
     1.16939751E-04    3    -1000024        -1         2   # BR(~g -> chi^-_1 d_bar u)
     1.16984701E-04    3     1000024         3        -4   # BR(~g -> chi^+_1 s c_bar)
     1.16984701E-04    3    -1000024        -3         4   # BR(~g -> chi^-_1 s_bar c)
     1.11432911E-01    3     1000024         5        -6   # BR(~g -> chi^+_1 b t_bar)
     1.11432911E-01    3    -1000024        -5         6   # BR(~g -> chi^-_1 b_bar t)
     2.06258419E-04    3     1000037         1        -2   # BR(~g -> chi^+_2 d u_bar)
     2.06258419E-04    3    -1000037        -1         2   # BR(~g -> chi^-_2 d_bar u)
     2.06274381E-04    3     1000037         3        -4   # BR(~g -> chi^+_2 s c_bar)
     2.06274381E-04    3    -1000037        -3         4   # BR(~g -> chi^-_2 s_bar c)
     1.53738865E-01    3     1000037         5        -6   # BR(~g -> chi^+_2 b t_bar)
     1.53738865E-01    3    -1000037        -5         6   # BR(~g -> chi^-_2 b_bar t)
DECAY        25     3.67821774E-03   # Gamma(h0)
     2.61032198E-03   2        22        22   # BR(h0 -> photon photon)
     1.83730873E-03   2        22        23   # BR(h0 -> photon Z)
     3.62389659E-02   2        23        23   # BR(h0 -> Z Z)
     2.89309503E-01   2       -24        24   # BR(h0 -> W W)
     7.97706689E-02   2        21        21   # BR(h0 -> gluon gluon)
     4.56185102E-09   2       -11        11   # BR(h0 -> Electron electron)
     2.02920160E-04   2       -13        13   # BR(h0 -> Muon muon)
     5.85112498E-02   2       -15        15   # BR(h0 -> Tau tau)
     1.29361572E-07   2        -2         2   # BR(h0 -> Up up)
     2.51083529E-02   2        -4         4   # BR(h0 -> Charm charm)
     5.26688757E-07   2        -1         1   # BR(h0 -> Down down)
     1.90490911E-04   2        -3         3   # BR(h0 -> Strange strange)
     5.06219557E-01   2        -5         5   # BR(h0 -> Bottom bottom)
DECAY        35     6.51781852E+01   # Gamma(HH)
     4.28781908E-08   2        22        22   # BR(HH -> photon photon)
     1.58203637E-07   2        22        23   # BR(HH -> photon Z)
     7.06071292E-07   2        23        23   # BR(HH -> Z Z)
     1.77291358E-07   2       -24        24   # BR(HH -> W W)
     1.30932399E-06   2        21        21   # BR(HH -> gluon gluon)
     3.59245682E-09   2       -11        11   # BR(HH -> Electron electron)
     1.59961869E-04   2       -13        13   # BR(HH -> Muon muon)
     4.61999675E-02   2       -15        15   # BR(HH -> Tau tau)
     2.28519910E-13   2        -2         2   # BR(HH -> Up up)
     4.43322324E-08   2        -4         4   # BR(HH -> Charm charm)
     3.38303488E-03   2        -6         6   # BR(HH -> Top top)
     2.60574170E-07   2        -1         1   # BR(HH -> Down down)
     9.42526230E-05   2        -3         3   # BR(HH -> Strange strange)
     2.55887030E-01   2        -5         5   # BR(HH -> Bottom bottom)
     1.57242426E-01   2  -1000024   1000024   # BR(HH -> Chargino1 chargino1)
     9.67203195E-02   2  -1000024   1000037   # BR(HH -> Chargino1 chargino2)
     9.67203195E-02   2  -1000037   1000024   # BR(HH -> Chargino2 chargino1)
     7.16743762E-02   2  -1000037   1000037   # BR(HH -> Chargino2 chargino2)
     1.89789963E-02   2   1000022   1000022   # BR(HH -> neutralino1 neutralino1)
     4.81045468E-02   2   1000022   1000023   # BR(HH -> neutralino1 neutralino2)
     2.99123888E-02   2   1000022   1000025   # BR(HH -> neutralino1 neutralino3)
     2.22811845E-05   2   1000022   1000035   # BR(HH -> neutralino1 neutralino4)
     2.14691271E-02   2   1000023   1000023   # BR(HH -> neutralino2 neutralino2)
     9.59204948E-03   2   1000023   1000025   # BR(HH -> neutralino2 neutralino3)
     1.36342834E-02   2   1000023   1000035   # BR(HH -> neutralino2 neutralino4)
     3.37571645E-03   2   1000025   1000025   # BR(HH -> neutralino3 neutralino3)
     7.78134355E-02   2   1000025   1000035   # BR(HH -> neutralino3 neutralino4)
     4.90087885E-02   2   1000035   1000035   # BR(HH -> neutralino4 neutralino4)
     3.99593119E-06   2        25        25   # BR(HH -> h0 h0)
DECAY        36     6.41561179E+01   # Gamma(A0)
     1.12019750E-08   2        22        22   # BR(A0 -> photon photon)
     1.12962049E-07   2        22        23   # BR(A0 -> photon Z)
     8.62494785E-06   2        21        21   # BR(A0 -> gluon gluon)
     3.46217382E-09   2       -11        11   # BR(A0 -> Electron electron)
     1.54159434E-04   2       -13        13   # BR(A0 -> Muon muon)
     4.45241698E-02   2       -15        15   # BR(A0 -> Tau tau)
     2.10255279E-13   2        -2         2   # BR(A0 -> Up up)
     4.07869910E-08   2        -4         4   # BR(A0 -> Charm charm)
     3.14688178E-03   2        -6         6   # BR(A0 -> Top top)
     2.51116495E-07   2        -1         1   # BR(A0 -> Down down)
     9.08315943E-05   2        -3         3   # BR(A0 -> Strange strange)
     2.46600370E-01   2        -5         5   # BR(A0 -> Bottom bottom)
     1.44932050E-01   2  -1000024   1000024   # BR(A0 -> Chargino1 chargino1)
     1.13047320E-01   2  -1000024   1000037   # BR(A0 -> Chargino1 chargino2)
     1.13047320E-01   2  -1000037   1000024   # BR(A0 -> Chargino2 chargino1)
     5.81497270E-02   2  -1000037   1000037   # BR(A0 -> Chargino2 chargino2)
     1.73949567E-02   2   1000022   1000022   # BR(A0 -> neutralino1 neutralino1)
     4.30975367E-02   2   1000022   1000023   # BR(A0 -> neutralino1 neutralino2)
     3.69846023E-02   2   1000022   1000025   # BR(A0 -> neutralino1 neutralino3)
     1.16957242E-04   2   1000022   1000035   # BR(A0 -> neutralino1 neutralino4)
     1.91059010E-02   2   1000023   1000023   # BR(A0 -> neutralino2 neutralino2)
     1.26329492E-02   2   1000023   1000025   # BR(A0 -> neutralino2 neutralino3)
     1.28612104E-02   2   1000023   1000035   # BR(A0 -> neutralino2 neutralino4)
     4.23059972E-03   2   1000025   1000025   # BR(A0 -> neutralino3 neutralino3)
     8.84313541E-02   2   1000025   1000035   # BR(A0 -> neutralino3 neutralino4)
     4.14407467E-02   2   1000035   1000035   # BR(A0 -> neutralino4 neutralino4)
     1.31109348E-06   2        23        25   # BR(A0 -> Z h0)
     1.39482566E-38   2        25        25   # BR(A0 -> h0 h0)
DECAY        37     6.89597166E+01   # Gamma(Hp)
     4.26819845E-09   2       -11        12   # BR(Hp -> Electron nu_e)
     1.82478815E-04   2       -13        14   # BR(Hp -> Muon nu_mu)
     5.16153944E-02   2       -15        16   # BR(Hp -> Tau nu_tau)
     2.68514061E-07   2        -1         2   # BR(Hp -> Down up)
     4.53999149E-06   2        -3         2   # BR(Hp -> Strange up)
     3.05042607E-06   2        -5         2   # BR(Hp -> Bottom up)
     1.48260398E-08   2        -1         4   # BR(Hp -> Down charm)
     9.68209004E-05   2        -3         4   # BR(Hp -> Strange charm)
     4.27168902E-04   2        -5         4   # BR(Hp -> Bottom charm)
     2.48314737E-07   2        -1         6   # BR(Hp -> Down top)
     5.55783964E-06   2        -3         6   # BR(Hp -> Strange top)
     2.91812462E-01   2        -5         6   # BR(Hp -> Bottom top)
     5.93281265E-02   2   1000022   1000024   # BR(Hp -> neutralino1 chargino1)
     6.75224401E-03   2   1000022   1000037   # BR(Hp -> neutralino1 chargino2)
     1.63964427E-02   2   1000023   1000024   # BR(Hp -> neutralino2 chargino1)
     2.26733062E-01   2   1000023   1000037   # BR(Hp -> neutralino2 chargino2)
     7.45061791E-02   2   1000024   1000025   # BR(Hp -> chargino1 neutralino3)
     1.17585450E-01   2   1000025   1000037   # BR(Hp -> neutralino3 chargino2)
     1.53341498E-01   2   1000024   1000035   # BR(Hp -> chargino1 neutralino4)
     1.20776821E-03   2   1000035   1000037   # BR(Hp -> neutralino4 chargino2)
     1.22111855E-06   2        24        25   # BR(Hp -> W h0)
     9.18043702E-14   2        24        35   # BR(Hp -> W HH)
DECAY         6     2.43000000E+00   # top
#    BR                NDA      ID1      ID2
     1.00000000E+00    2           5        24   # BR(t -> b W)
Block HiggsBoundsInputHiggsCouplingsFermions
# ScalarNormEffCoupSq PseudoSNormEffCoupSq NP IP1 IP2 IP2
    9.21790960E-01    0.00000000E+00        3  25   5   5  # h0-b-b eff. coupling^2, normalised to SM
    4.71669684E+02    0.00000000E+00        3  35   5   5  # H0-b-b eff. coupling^2, normalised to SM
    0.00000000E+00    4.71591475E+02        3  36   5   5  # A0-b-b eff. coupling^2, normalised to SM
#
    1.00016584E+00    0.00000000E+00        3  25   6   6  # h0-t-t eff. coupling^2, normalised to SM
    1.95463873E-03    0.00000000E+00        3  35   6   6  # H0-t-t eff. coupling^2, normalised to SM
    0.00000000E+00    2.12047938E-03        3  36   6   6  # A0-t-t eff. coupling^2, normalised to SM
#
    9.21790960E-01    0.00000000E+00        3  25  15  15  # h0-tau-tau eff. coupling^2, normalised to SM
    4.71669684E+02    0.00000000E+00        3  35  15  15  # H0-tau-tau eff. coupling^2, normalised to SM
    0.00000000E+00    4.71591475E+02        3  36  15  15  # A0-tau-tau eff. coupling^2, normalised to SM
#
Block HiggsBoundsInputHiggsCouplingsBosons
    9.99996624E-01        3  25  24  24  # h0-W-W eff. coupling^2, normalised to SM
    3.37563129E-06        3  35  24  24  # H0-W-W eff. coupling^2, normalised to SM
    0.00000000E+00        3  36  24  24  # A0-W-W eff. coupling^2, normalised to SM
#
    9.99996624E-01        3  25  23  23  # h0-Z-Z eff. coupling^2, normalised to SM
    3.37563129E-06        3  35  23  23  # H0-Z-Z eff. coupling^2, normalised to SM
    0.00000000E+00        3  36  23  23  # A0-Z-Z eff. coupling^2, normalised to SM
#
    1.26499165E+00        3  25  21  21  # h0-g-g eff. coupling^2, normalised to SM
    9.29821624E-04        3  35  21  21  # H0-g-g eff. coupling^2, normalised to SM
    9.54614071E-02        3  36  21  21  # A0-g-g eff. coupling^2, normalised to SM
#
    0.00000000E+00        3  25  25  23  # h0-h0-Z eff. coupling^2, normalised to SM
    0.00000000E+00        3  35  25  23  # H0-h0-Z eff. coupling^2, normalised to SM
    3.37563129E-06        3  36  25  23  # A0-h0-Z eff. coupling^2, normalised to SM
    0.00000000E+00        3  35  35  23  # H0-H0-Z eff. coupling^2, normalised to SM
    9.99996624E-01        3  36  35  23  # A0-H0-Z eff. coupling^2, normalised to SM
    0.00000000E+00        3  36  36  23  # A0-A0-Z eff. coupling^2, normalised to SM
#
    0.00000000E+00        4  25  21  21  23  # h0-g-g-Z eff. coupling^2, normalised to SM
    0.00000000E+00        4  35  21  21  23  # H0-g-g-Z eff. coupling^2, normalised to SM
    0.00000000E+00        4  36  21  21  23  # A0-g-g-Z eff. coupling^2, normalised to SM
Block SPhenoLowEnergy  # low energy observables
    1    3.13758407E-04   # BR(b -> s gamma)
    2    1.59035287E-06   # BR(b -> s mu+ mu-)
    3    3.52335538E-05   # BR(b -> s nu nu)
    4    2.90442862E-15   # BR(Bd -> e+ e-)
    5    1.24073674E-10   # BR(Bd -> mu+ mu-)
    6    2.59607006E-08   # BR(Bd -> tau+ tau-)
    7    9.84264618E-14   # BR(Bs -> e+ e-)
    8    4.20476772E-09   # BR(Bs -> mu+ mu-)
    9    8.91415966E-07   # BR(Bs -> tau+ tau-)
   10    9.65637423E-05   # BR(B_u -> tau nu)
   11    9.97466489E-01   # BR(B_u -> tau nu)/BR(B_u -> tau nu)_SM
   12    5.42213440E-01   # |Delta(M_Bd)| [ps^-1] 
   13    1.93726942E+01   # |Delta(M_Bs)| [ps^-1] 
   14    0.00000000E+00   # neutron EDM according to the chiral quark model
   15    0.00000000E+00   # neutron EDM according to the relativistic quark-parton model
   16    2.15823997E-03   # epsilon_K
   17    2.28166771E-15   # Delta(M_K)
   18    2.47891514E-11   # BR(K^0 -> pi^0 nu nu)
   19    8.28783830E-11   # BR(K^+ -> pi^+ nu nu)
   20   -1.86239480E-16   # Delta(g-2)_electron/2
   21   -7.96234796E-12   # Delta(g-2)_muon/2
   22   -2.25445573E-09   # Delta(g-2)_tau/2
   23    0.00000000E+00   # electric dipole moment of the electron
   24    0.00000000E+00   # electric dipole moment of the muon
   25    0.00000000E+00   # electric dipole moment of the tau
   26    0.00000000E+00   # Br(mu -> e gamma)
   27    0.00000000E+00   # Br(tau -> e gamma)
   28    0.00000000E+00   # Br(tau -> mu gamma)
   29    0.00000000E+00   # Br(mu -> 3 e)
   30    0.00000000E+00   # Br(tau -> 3 e)
   31    0.00000000E+00   # Br(tau -> 3 mu)
   39    5.95408020E-05   # Delta(rho_parameter)
   40    0.00000000E+00   # BR(Z -> e mu)
   41    0.00000000E+00   # BR(Z -> e tau)
   42    0.00000000E+00   # BR(Z -> mu tau)
Block FWCOEF Q=  1.60000000E+02  # Wilson coefficients at scale Q
#    id        order  M        value         comment
     0305 4422   00   0    -1.88819110E-01   # C7
     0305 4422   00   2    -1.80493061E-01   # C7
     0305 4322   00   2    -7.01667096E-05   # C7'
     0305 6421   00   0    -9.52278348E-02   # C8
     0305 6421   00   2    -9.38891571E-02   # C8
     0305 6321   00   2    -9.73317939E-05   # C8'
 03051111 4133   00   0     1.61674945E+00   # C9 e+e-
 03051111 4133   00   2     1.61722837E+00   # C9 e+e-
 03051111 4233   00   2     1.48873670E-04   # C9' e+e-
 03051111 4137   00   0    -4.43944155E+00   # C10 e+e-
 03051111 4137   00   2    -4.43593052E+00   # C10 e+e-
 03051111 4237   00   2    -1.11640900E-03   # C10' e+e-
 03051313 4133   00   0     1.61674945E+00   # C9 mu+mu-
 03051313 4133   00   2     1.61722832E+00   # C9 mu+mu-
 03051313 4233   00   2     1.48873636E-04   # C9' mu+mu-
 03051313 4137   00   0    -4.43944155E+00   # C10 mu+mu-
 03051313 4137   00   2    -4.43593057E+00   # C10 mu+mu-
 03051313 4237   00   2    -1.11640903E-03   # C10' mu+mu-
 03051212 4137   00   0     1.50535012E+00   # C11 nu_1 nu_1
 03051212 4137   00   2     1.50459155E+00   # C11 nu_1 nu_1
 03051212 4237   00   2     2.41949227E-04   # C11' nu_1 nu_1
 03051414 4137   00   0     1.50535012E+00   # C11 nu_2 nu_2
 03051414 4137   00   2     1.50459155E+00   # C11 nu_2 nu_2
 03051414 4237   00   2     2.41949231E-04   # C11' nu_2 nu_2
 03051616 4137   00   0     1.50535012E+00   # C11 nu_3 nu_3
 03051616 4137   00   2     1.50459155E+00   # C11 nu_3 nu_3
 03051616 4237   00   2     2.41950349E-04   # C11' nu_3 nu_3
Block IMFWCOEF Q=  1.60000000E+02  # Im(Wilson coefficients) at scale Q
#    id        order  M        value         comment
     0305 4422   00   0     3.85830151E-07   # C7
     0305 4422   00   2    -1.40938065E-05   # C7
     0305 4322   00   2     5.99954830E-07   # C7'
     0305 6421   00   0     3.30489041E-07   # C8
     0305 6421   00   2     1.95959189E-05   # C8
     0305 6321   00   2     6.77596073E-07   # C8'
 03051111 4133   00   2     1.56763591E-06   # C9 e+e-
 03051111 4233   00   2     2.84139966E-06   # C9' e+e-
 03051111 4137   00   2     3.19167533E-06   # C10 e+e-
 03051111 4237   00   2    -2.13101254E-05   # C10' e+e-
 03051313 4133   00   2     1.56763421E-06   # C9 mu+mu-
 03051313 4233   00   2     2.84139940E-06   # C9' mu+mu-
 03051313 4137   00   2     3.19167718E-06   # C10 mu+mu-
 03051313 4237   00   2    -2.13101262E-05   # C10' mu+mu-
 03051212 4137   00   2    -6.49595492E-07   # C11 nu_1 nu_1
 03051212 4237   00   2     4.61835191E-06   # C11' nu_1 nu_1
 03051414 4137   00   2    -6.49595401E-07   # C11 nu_2 nu_2
 03051414 4237   00   2     4.61835191E-06   # C11' nu_2 nu_2
 03051616 4137   00   2    -6.49569833E-07   # C11 nu_3 nu_3
 03051616 4237   00   2     4.61835190E-06   # C11' nu_3 nu_3
