# SUSY Les Houches Accord 2 - MSSM spectrum + Decays
# SPheno v4.0.5be
# W. Porod, Comput. Phys. Commun. 153 (2003) 275-315, hep-ph/0301101;
# W. Porod, F.~Staub, Comput. Phys. Commun. 183 (2012) 2458
#                     arXiv:1104.1573 [hep-ph] 
# in case of problems send email to porod@physik.uni-wuerzburg.de
# Created: 07.09.2021,  15:43
Block SPINFO         # Program information
     1   SPheno      # spectrum calculator
     2   v4.0.5be    # version number
#
Block SPhenoINFO     # SPheno specific information
    1      2         # using 2-loop RGEs
    2      2         # using pole masses for boundary conditions at mZ
Block MODSEL  # Model selection
    1    0    # general MSSM
Block MINPAR  # Input parameters
    3    2.91074607E+01  # tanb at m_Z    
    4    1.00000000E+00  # Sign(mu)
Block EXTPAR  # non-universal input parameters
    0    3.95747653E+03  # scale for input parameters
    1    2.11143306E+02  # M_1
    2    1.31617402E+03  # M_2
    3    2.22227860E+03  # M_3
   11   -5.32229987E+03  # A_t
   12   -8.25302450E+02  # A_b
   13    1.29245448E+03  # A_tau
   23    2.18614037E+02  # mu
   25    2.80090312E+01  # tan(beta)
   26    4.71277507E+03  # m_A, pole mass
   31    1.00000000E+04  # M_L11
   32    1.00000000E+04  # M_L22
   33    1.00000000E+04  # M_L33
   34    1.00000000E+04  # M_E11
   35    1.00000000E+04  # M_E22
   36    1.00000000E+04  # M_E33
   41    1.00000000E+04  # M_Q11
   42    1.00000000E+04  # M_Q22
   43    3.43384757E+03  # M_Q33
   44    1.00000000E+04  # M_U11
   45    1.00000000E+04  # M_U22
   46    4.56960125E+03  # M_U33
   47    1.00000000E+04  # M_D11
   48    1.00000000E+04  # M_D22
   49    3.53526257E+03  # M_D33
Block SMINPUTS  # SM parameters
         1     1.27908970E+02  # alpha_em^-1(MZ)^MSbar
         2     1.16637870E-05  # G_mu [GeV^-2]
         3     1.18400000E-01  # alpha_s(MZ)^MSbar
         4     9.11876000E+01  # m_Z(pole)
         5     4.18000000E+00  # m_b(m_b), MSbar
         6     1.73200000E+02  # m_t(pole)
         7     1.77700000E+00  # m_tau(pole)
         8     0.00000000E+00  # m_nu_3
        11     5.10998930E-04  # m_e(pole)
        12     0.00000000E+00  # m_nu_1
        13     1.05658372E-01  # m_muon(pole)
        14     0.00000000E+00  # m_nu_2
        21     5.00000000E-03  # m_d(2 GeV), MSbar
        22     2.50000000E-03  # m_u(2 GeV), MSbar
        23     9.50000000E-02  # m_s(2 GeV), MSbar
        24     1.27000000E+00  # m_c(m_c), MSbar
Block gauge Q=  3.95747653E+03  # (SUSY scale)
   1    3.55362975E-01  # g'(Q)^DRbar
   2    6.65198874E-01  # g(Q)^DRbar
   3    1.21977796E+00  # g3(Q)^DRbar
Block Yu Q=  3.95747653E+03  # (SUSY scale)
  1  1     8.38971416E-06   # Y_u(Q)^DRbar
  2  2     4.26197479E-03   # Y_c(Q)^DRbar
  3  3     1.01354486E+00   # Y_t(Q)^DRbar
Block Yd Q=  3.95747653E+03  # (SUSY scale)
  1  1     4.72199474E-04   # Y_d(Q)^DRbar
  2  2     8.97179002E-03   # Y_s(Q)^DRbar
  3  3     4.68273913E-01   # Y_b(Q)^DRbar
Block Ye Q=  3.95747653E+03  # (SUSY scale)
  1  1     8.24022613E-05   # Y_e(Q)^DRbar
  2  2     1.70381742E-02   # Y_mu(Q)^DRbar
  3  3     2.86554060E-01   # Y_tau(Q)^DRbar
Block Au Q=  3.95747653E+03  # (SUSY scale)
  1  1     0.00000000E+00   # A_u(Q)^DRbar
  2  2     0.00000000E+00   # A_c(Q)^DRbar
  3  3    -5.32230486E+03   # A_t(Q)^DRbar
Block Ad Q=  3.95747653E+03  # (SUSY scale)
  1  1     0.00000000E+00   # A_d(Q)^DRbar
  2  2     0.00000000E+00   # A_s(Q)^DRbar
  3  3    -8.25301956E+02   # A_b(Q)^DRbar
Block Ae Q=  3.95747653E+03  # (SUSY scale)
  1  1     0.00000000E+00   # A_e(Q)^DRbar
  2  2     0.00000000E+00   # A_mu(Q)^DRbar
  3  3     1.29245408E+03   # A_tau(Q)^DRbar
Block MSOFT Q=  3.95747653E+03  # soft SUSY breaking masses at Q
   1    2.11143306E+02  # M_1
   2    1.31617402E+03  # M_2
   3    2.22227860E+03  # M_3
  21    2.21611974E+07  # M^2_(H,d)
  22    2.83598773E+05  # M^2_(H,u)
  31    1.00000000E+04  # M_(L,11)
  32    1.00000000E+04  # M_(L,22)
  33    1.00000000E+04  # M_(L,33)
  34    1.00000000E+04  # M_(E,11)
  35    1.00000000E+04  # M_(E,22)
  36    1.00000000E+04  # M_(E,33)
  41    1.00000000E+04  # M_(Q,11)
  42    1.00000000E+04  # M_(Q,22)
  43    3.43384757E+03  # M_(Q,33)
  44    1.00000000E+04  # M_(U,11)
  45    1.00000000E+04  # M_(U,22)
  46    4.56960125E+03  # M_(U,33)
  47    1.00000000E+04  # M_(D,11)
  48    1.00000000E+04  # M_(D,22)
  49    3.53526257E+03  # M_(D,33)
Block MASS  # Mass spectrum
#   PDG code      mass          particle
         6     1.73200000E+02  # m_t(pole)
        23     9.11876000E+01  # m_Z(pole)
        24     8.04299946E+01  # W+
        15     1.77700000E+00  # m_tau(pole)
        25     1.26144482E+02  # h0
        35     4.71187144E+03  # H0
        36     4.71277507E+03  # A0
        37     4.71279769E+03  # H+
   1000001     1.01158750E+04  # ~d_L
   2000001     1.00914758E+04  # ~d_R
   1000002     1.01155134E+04  # ~u_L
   2000002     1.00944275E+04  # ~u_R
   1000003     1.01158763E+04  # ~s_L
   2000003     1.00914778E+04  # ~s_R
   1000004     1.01155147E+04  # ~c_L
   2000004     1.00944281E+04  # ~c_R
   1000005     3.47007335E+03  # ~b_1
   2000005     3.59813956E+03  # ~b_2
   1000006     3.46248978E+03  # ~t_1
   2000006     4.52322504E+03  # ~t_2
   1000011     1.00206926E+04  # ~e_L-
   2000011     1.00091650E+04  # ~e_R-
   1000012     1.00199274E+04  # ~nu_eL
   1000013     1.00206980E+04  # ~mu_L-
   2000013     1.00091753E+04  # ~mu_R-
   1000014     1.00199327E+04  # ~nu_muL
   1000015     1.00121706E+04  # ~tau_1-
   2000015     1.00222611E+04  # ~tau_2-
   1000016     1.00214782E+04  # ~nu_tauL
   1000021     2.66163976E+03  # ~g
   1000022     1.90295758E+02  # ~chi_10
   1000023     2.39955836E+02  # ~chi_20
   1000025     2.57195923E+02  # ~chi_30
   1000035     1.41239094E+03  # ~chi_40
   1000024     2.35096268E+02  # ~chi_1+
   1000037     1.41235574E+03  # ~chi_2+
# Higgs mixing
Block alpha # Effective Higgs mixing angle
          -3.43797064E-02   # alpha
Block Hmix Q=  3.95747653E+03  # Higgs mixing parameters
   1    2.18614037E+02  # mu
   2    2.80090312E+01  # tan[beta](Q)
   3    2.42931881E+02  # v(Q)
   4    2.22102489E+07  # m^2_A(Q)
Block stopmix # stop mixing matrix
   1  1     9.96160706E-01   # Re[R_st(1,1)]
   1  2     8.75433997E-02   # Re[R_st(1,2)]
   2  1    -8.75433997E-02   # Re[R_st(2,1)]
   2  2     9.96160706E-01   # Re[R_st(2,2)]
Block sbotmix # sbottom mixing matrix
   1  1     9.99901609E-01   # Re[R_sb(1,1)]
   1  2     1.40275645E-02   # Re[R_sb(1,2)]
   2  1    -1.40275645E-02   # Re[R_sb(2,1)]
   2  2     9.99901609E-01   # Re[R_sb(2,2)]
Block staumix # stau mixing matrix
   1  1     4.16075898E-02   # Re[R_sta(1,1)]
   1  2     9.99134029E-01   # Re[R_sta(1,2)]
   2  1    -9.99134029E-01   # Re[R_sta(2,1)]
   2  2     4.16075898E-02   # Re[R_sta(2,2)]
Block Nmix # neutralino mixing matrix
   1  1     7.97561743E-01   # Re[N(1,1)]
   1  2    -2.62562306E-02   # Re[N(1,2)]
   1  3     4.66293704E-01   # Re[N(1,3)]
   1  4    -3.81806310E-01   # Re[N(1,4)]
   2  1     6.70202789E-02   # Re[N(2,1)]
   2  2    -3.37714117E-02   # Re[N(2,2)]
   2  3    -6.98917400E-01   # Re[N(2,3)]
   2  4    -7.11253993E-01   # Re[N(2,4)]
   3  1    -5.99498555E-01   # Re[N(3,1)]
   3  2    -4.24411899E-02   # Re[N(3,2)]
   3  3     5.42170114E-01   # Re[N(3,3)]
   3  4    -5.87240833E-01   # Re[N(3,4)]
   4  1     2.24317390E-03   # Re[N(4,1)]
   4  2    -9.98182773E-01   # Re[N(4,2)]
   4  3    -1.16712418E-02   # Re[N(4,3)]
   4  4     5.90753991E-02   # Re[N(4,4)]
Block Umix # chargino mixing matrix
   1  1    -1.65092450E-02   # Re[U(1,1)]
   1  2     9.99863713E-01   # Re[U(1,2)]
   2  1     9.99863713E-01   # Re[U(2,1)]
   2  2     1.65092450E-02   # Re[U(2,2)]
Block Vmix # chargino mixing matrix
   1  1    -8.35867945E-02   # Re[V(1,1)]
   1  2     9.96500501E-01   # Re[V(1,2)]
   2  1     9.96500501E-01   # Re[V(2,1)]
   2  2     8.35867945E-02   # Re[V(2,2)]
DECAY        23     2.49520000E+00   # Z
DECAY        24     2.08500000E+00   # W
DECAY   2000011     5.02451466E+01   # ~e^-_R
#    BR                NDA      ID1      ID2
     6.36242739E-01    2     1000022        11   # BR(~e^-_R -> chi^0_1 e^-)
     4.49078854E-03    2     1000023        11   # BR(~e^-_R -> chi^0_2 e^-)
     3.59261608E-01    2     1000025        11   # BR(~e^-_R -> chi^0_3 e^-)
DECAY   1000011     1.39700253E+02   # ~e^-_L
#    BR                NDA      ID1      ID2
     5.04329662E-02    2     1000022        11   # BR(~e^-_L -> chi^0_1 e^-)
     4.14801298E-02    2     1000025        11   # BR(~e^-_L -> chi^0_3 e^-)
     3.01474931E-01    2     1000035        11   # BR(~e^-_L -> chi^0_4 e^-)
     1.71913470E-04    2    -1000024        12   # BR(~e^-_L -> chi^-_1 nu_e)
     6.06438753E-01    2    -1000037        12   # BR(~e^-_L -> chi^-_2 nu_e)
#    BR                NDA      ID1      ID2       ID3
DECAY   2000013     5.03606797E+01   # ~mu^-_R
#    BR                NDA      ID1      ID2
     6.35033160E-01    2     1000022        13   # BR(~mu^-_R -> chi^0_1 mu^-)
     5.04054028E-03    2     1000023        13   # BR(~mu^-_R -> chi^0_2 mu^-)
     3.58774757E-01    2     1000025        13   # BR(~mu^-_R -> chi^0_3 mu^-)
     1.14626559E-03    2    -1000024        14   # BR(~mu^-_R -> chi^-_1 nu_mu)
DECAY   1000013     1.39758141E+02   # ~mu^-_L
#    BR                NDA      ID1      ID2
     5.05020747E-02    2     1000022        13   # BR(~mu^-_L -> chi^0_1 mu^-)
     2.03348000E-04    2     1000023        13   # BR(~mu^-_L -> chi^0_2 mu^-)
     4.15845272E-02    2     1000025        13   # BR(~mu^-_L -> chi^0_3 mu^-)
     3.01350290E-01    2     1000035        13   # BR(~mu^-_L -> chi^0_4 mu^-)
     1.71842356E-04    2    -1000024        14   # BR(~mu^-_L -> chi^-_1 nu_mu)
     6.06187918E-01    2    -1000037        14   # BR(~mu^-_L -> chi^-_2 nu_mu)
#    BR                NDA      ID1      ID2       ID3
DECAY   1000015     8.30650950E+01   # ~tau^-_1
#    BR                NDA      ID1      ID2
     4.32895971E-01    2     1000022        15   # BR(~tau^-_1 -> chi^0_1 tau^-)
     9.74814417E-02    2     1000023        15   # BR(~tau^-_1 -> chi^0_2 tau^-)
     2.70885808E-01    2     1000025        15   # BR(~tau^-_1 -> chi^0_3 tau^-)
     6.04543392E-04    2     1000035        15   # BR(~tau^-_1 -> chi^0_4 tau^-)
     1.96919328E-01    2    -1000024        16   # BR(~tau^-_1 -> chi^-_1 nu_tau)
     1.21290789E-03    2    -1000037        16   # BR(~tau^-_1 -> chi^-_2 nu_tau)
DECAY   2000015     1.55948115E+02   # ~tau^-_2
#    BR                NDA      ID1      ID2
     6.52536974E-02    2     1000022        15   # BR(~tau^-_2 -> chi^0_1 tau^-)
     5.19246984E-02    2     1000023        15   # BR(~tau^-_2 -> chi^0_2 tau^-)
     7.02749143E-02    2     1000025        15   # BR(~tau^-_2 -> chi^0_3 tau^-)
     2.69817534E-01    2     1000035        15   # BR(~tau^-_2 -> chi^0_4 tau^-)
     5.42728006E-01    2    -1000037        16   # BR(~tau^-_2 -> chi^-_2 nu_tau)
#    BR                NDA      ID1      ID2       ID3
DECAY   1000012     1.39704634E+02   # ~nu_e
#    BR                NDA      ID1      ID2
     6.45438277E-02    2     1000022        12   # BR(~nu_e -> chi^0_1 nu_e)
     1.52638972E-03    2     1000023        12   # BR(~nu_e -> chi^0_2 nu_e)
     2.43344669E-02    2     1000025        12   # BR(~nu_e -> chi^0_3 nu_e)
     3.02891627E-01    2     1000035        12   # BR(~nu_e -> chi^0_4 nu_e)
     4.40641015E-03    2     1000024        11   # BR(~nu_e -> chi^+_1 e^-)
     6.02297278E-01    2     1000037        11   # BR(~nu_e -> chi^+_2 e^-)
#    BR                NDA      ID1      ID2       ID3
DECAY   1000014     1.39762516E+02   # ~nu_mu
#    BR                NDA      ID1      ID2
     6.45171314E-02    2     1000022        14   # BR(~nu_mu -> chi^0_1 nu_mu)
     1.52575838E-03    2     1000023        14   # BR(~nu_mu -> chi^0_2 nu_mu)
     2.43244018E-02    2     1000025        14   # BR(~nu_mu -> chi^0_3 nu_mu)
     3.02766359E-01    2     1000035        14   # BR(~nu_mu -> chi^0_4 nu_mu)
     4.81805578E-03    2     1000024        13   # BR(~nu_mu -> chi^+_1 mu^-)
     6.02048294E-01    2     1000037        13   # BR(~nu_mu -> chi^+_2 mu^-)
#    BR                NDA      ID1      ID2       ID3
DECAY   1000016     1.56080657E+02   # ~nu_tau
#    BR                NDA      ID1      ID2
     5.77808268E-02    2     1000022        16   # BR(~nu_tau -> chi^0_1 nu_tau)
     1.36645245E-03    2     1000023        16   # BR(~nu_tau -> chi^0_2 nu_tau)
     2.17846683E-02    2     1000025        16   # BR(~nu_tau -> chi^0_3 nu_tau)
     2.71157521E-01    2     1000035        16   # BR(~nu_tau -> chi^0_4 nu_tau)
     1.08688417E-01    2     1000024        15   # BR(~nu_tau -> chi^+_1 tau^-)
     5.39222114E-01    2     1000037        15   # BR(~nu_tau -> chi^+_2 tau^-)
#    BR                NDA      ID1      ID2       ID3
DECAY   2000001     6.95213304E+02   # ~d_R
#    BR                NDA      ID1      ID2
     5.15133133E-03    2     1000022         1   # BR(~d_R -> chi^0_1 d)
     2.90879634E-03    2     1000025         1   # BR(~d_R -> chi^0_3 d)
     9.91903378E-01    2     1000021         1   # BR(~d_R -> ~g d)
DECAY   1000001     8.21585190E+02   # ~d_L
#    BR                NDA      ID1      ID2
     1.53362614E-03    2     1000022         1   # BR(~d_L -> chi^0_1 d)
     1.13113119E-04    2     1000023         1   # BR(~d_L -> chi^0_2 d)
     2.23887435E-04    2     1000025         1   # BR(~d_L -> chi^0_3 d)
     5.19543727E-02    2     1000035         1   # BR(~d_L -> chi^0_4 d)
     1.04175817E-01    2    -1000037         2   # BR(~d_L -> chi^-_2 u)
     8.41969673E-01    2     1000021         1   # BR(~d_L -> ~g d)
DECAY   2000003     6.95245678E+02   # ~s_R
#    BR                NDA      ID1      ID2
     5.15612849E-03    2     1000022         3   # BR(~s_R -> chi^0_1 s)
     2.91546647E-03    2     1000025         3   # BR(~s_R -> chi^0_3 s)
     9.91857445E-01    2     1000021         3   # BR(~s_R -> ~g s)
DECAY   1000003     8.21605110E+02   # ~s_L
#    BR                NDA      ID1      ID2
     1.53786106E-03    2     1000022         3   # BR(~s_L -> chi^0_1 s)
     1.22704178E-04    2     1000023         3   # BR(~s_L -> chi^0_2 s)
     2.29654213E-04    2     1000025         3   # BR(~s_L -> chi^0_3 s)
     5.19531229E-02    2     1000035         3   # BR(~s_L -> chi^0_4 s)
     1.04173336E-01    2    -1000037         4   # BR(~s_L -> chi^-_2 c)
     8.41949399E-01    2     1000021         3   # BR(~s_L -> ~g s)
DECAY   1000005     1.63666816E+02   # ~b_1
#    BR                NDA      ID1      ID2
     2.31619775E-02    2     1000022         5   # BR(~b_1 -> chi^0_1 b)
     4.48185522E-02    2     1000023         5   # BR(~b_1 -> chi^0_2 b)
     2.68854400E-02    2     1000025         5   # BR(~b_1 -> chi^0_3 b)
     6.47546308E-02    2     1000035         5   # BR(~b_1 -> chi^0_4 b)
     4.24136576E-01    2    -1000024         6   # BR(~b_1 -> chi^-_1 t)
     1.32591529E-01    2    -1000037         6   # BR(~b_1 -> chi^-_2 t)
     2.83651294E-01    2     1000021         5   # BR(~b_1 -> ~g b)
DECAY   2000005     9.12909609E+01   # ~b_2
#    BR                NDA      ID1      ID2
     5.00715965E-02    2     1000022         5   # BR(~b_2 -> chi^0_1 b)
     8.35780025E-02    2     1000023         5   # BR(~b_2 -> chi^0_2 b)
     5.85823639E-02    2     1000025         5   # BR(~b_2 -> chi^0_3 b)
     1.69708370E-01    2    -1000024         6   # BR(~b_2 -> chi^-_1 t)
     1.64047346E-04    2    -1000037         6   # BR(~b_2 -> chi^-_2 t)
     6.37790690E-01    2     1000021         5   # BR(~b_2 -> ~g b)
DECAY   2000002     7.12368196E+02   # ~u_R
#    BR                NDA      ID1      ID2
     2.01149538E-02    2     1000022         2   # BR(~u_R -> chi^0_1 u)
     1.41977881E-04    2     1000023         2   # BR(~u_R -> chi^0_2 u)
     1.13582488E-02    2     1000025         2   # BR(~u_R -> chi^0_3 u)
     9.68384666E-01    2     1000021         2   # BR(~u_R -> ~g u)
DECAY   1000002     8.21572788E+02   # ~u_L
#    BR                NDA      ID1      ID2
     7.25801416E-04    2     1000022         2   # BR(~u_L -> chi^0_1 u)
     1.20475254E-03    2     1000025         2   # BR(~u_L -> chi^0_3 u)
     5.18700567E-02    2     1000035         2   # BR(~u_L -> chi^0_4 u)
     7.56506026E-04    2     1000024         1   # BR(~u_L -> chi^+_1 d)
     1.03473739E-01    2     1000037         1   # BR(~u_L -> chi^+_2 d)
     8.41943332E-01    2     1000021         2   # BR(~u_L -> ~g u)
DECAY   2000004     7.12375505E+02   # ~c_R
#    BR                NDA      ID1      ID2
     2.01154925E-02    2     1000022         4   # BR(~c_R -> chi^0_1 c)
     1.44563679E-04    2     1000023         4   # BR(~c_R -> chi^0_2 c)
     1.13598980E-02    2     1000025         4   # BR(~c_R -> chi^0_3 c)
     9.68374762E-01    2     1000021         4   # BR(~c_R -> ~g c)
DECAY   1000004     8.21592677E+02   # ~c_L
#    BR                NDA      ID1      ID2
     7.26432266E-04    2     1000022         4   # BR(~c_L -> chi^0_1 c)
     1.20625521E-03    2     1000025         4   # BR(~c_L -> chi^0_3 c)
     5.18688233E-02    2     1000035         4   # BR(~c_L -> chi^0_4 c)
     7.76122395E-04    2     1000024         3   # BR(~c_L -> chi^+_1 s)
     1.03471253E-01    2     1000037         3   # BR(~c_L -> chi^+_2 s)
     8.41923053E-01    2     1000021         4   # BR(~c_L -> ~g c)
DECAY   1000006     1.74006267E+02   # ~t_1
#    BR                NDA      ID1      ID2
     2.35505029E-04    2     1000022         4   # BR(~t_1 -> chi^0_1 c)
     6.56524005E-02    2     1000022         6   # BR(~t_1 -> chi^0_1 t)
     2.04084221E-01    2     1000023         6   # BR(~t_1 -> chi^0_2 t)
     1.34324449E-01    2     1000025         6   # BR(~t_1 -> chi^0_3 t)
     6.00731702E-02    2     1000035         6   # BR(~t_1 -> chi^0_4 t)
     9.34280679E-02    2     1000024         5   # BR(~t_1 -> chi^+_1 b)
     1.17290516E-01    2     1000037         5   # BR(~t_1 -> chi^+_2 b)
     5.30568195E-02    2     1000021         4   # BR(~t_1 -> ~g c)
     2.63370209E-01    2     1000021         6   # BR(~t_1 -> ~g t)
#    BR                NDA      ID1      ID2       ID3
     8.47629328E-03    3     1000022        24         5   # BR(~t_1 -> chi^0_1 W^+ b)
DECAY   2000006     4.18392303E+02   # ~t_2
#    BR                NDA      ID1      ID2
     4.39517106E-02    2     1000022         6   # BR(~t_2 -> chi^0_1 t)
     1.10095294E-01    2     1000023         6   # BR(~t_2 -> chi^0_2 t)
     8.71810838E-02    2     1000025         6   # BR(~t_2 -> chi^0_3 t)
     1.78300112E-03    2     1000035         6   # BR(~t_2 -> chi^0_4 t)
     2.14813907E-01    2     1000024         5   # BR(~t_2 -> chi^+_1 b)
     3.55359435E-03    2     1000037         5   # BR(~t_2 -> chi^+_2 b)
     3.57825985E-01    2     1000021         6   # BR(~t_2 -> ~g t)
     7.96112440E-02    2     1000005        24   # BR(~t_2 -> ~b_1 W^+)
     4.01568581E-02    2     1000006        23   # BR(~t_2 -> ~t_1 Z)
     6.10162128E-02    2     1000006        25   # BR(~t_2 -> ~t_1 h^0)
DECAY   1000024     8.67691580E-05   # chi^+_1
#    BR                NDA      ID1      ID2       ID3
     3.34006588E-01    3     1000022        -1         2   # BR(chi^+_1 -> chi^0_1 d_bar u)
     3.32840333E-01    3     1000022        -3         4   # BR(chi^+_1 -> chi^0_1 s_bar c)
     1.11335741E-01    3     1000022       -11        12   # BR(chi^+_1 -> chi^0_1 e^+ nu_e)
     1.11335136E-01    3     1000022       -13        14   # BR(chi^+_1 -> chi^0_1 mu^+ nu_mu)
     1.10482201E-01    3     1000022       -15        16   # BR(chi^+_1 -> chi^0_1 tau^+ nu_tau)
DECAY   1000037     1.29202611E+01   # chi^+_2
#    BR                NDA      ID1      ID2
     6.25679664E-02    2     1000022        24   # BR(chi^+_2 -> chi^0_1 W^+)
     2.48731919E-01    2     1000023        24   # BR(chi^+_2 -> chi^0_2 W^+)
     1.82233036E-01    2     1000025        24   # BR(chi^+_2 -> chi^0_3 W^+)
     2.45395623E-01    2     1000024        23   # BR(chi^+_2 -> chi^+_1 Z)
     2.39745154E-01    2     1000024        25   # BR(chi^+_2 -> chi^+_1 h^0)
#    BR                NDA      ID1      ID2       ID3
     8.11160772E-03    3     1000024         6        -6   # BR(chi^+_2 -> chi^+_1 t t_bar)
     1.76820209E-03    3     1000022        -5         6   # BR(chi^+_2 -> chi^0_1 b_bar t)
     6.47783814E-03    3     1000023        -5         6   # BR(chi^+_2 -> chi^0_2 b_bar t)
     4.96069756E-03    3     1000025        -5         6   # BR(chi^+_2 -> chi^0_3 b_bar t)
DECAY   1000022     0.00000000E+00   # chi^0_1
DECAY   1000023     3.71726525E-04   # chi^0_2
#    BR                NDA      ID1      ID2
     1.15714458E-02    2     1000022        22   # BR(chi^0_2 -> chi^0_1 photon)
#    BR                NDA      ID1      ID2       ID3
     1.18642448E-01    3     1000022         2        -2   # BR(chi^0_2 -> chi^0_1 u u_bar)
     1.17740103E-01    3     1000022         4        -4   # BR(chi^0_2 -> chi^0_1 c c_bar)
     1.52122833E-01    3     1000022         1        -1   # BR(chi^0_2 -> chi^0_1 d d_bar)
     1.52117315E-01    3     1000022         3        -3   # BR(chi^0_2 -> chi^0_1 s s_bar)
     1.41892317E-01    3     1000022         5        -5   # BR(chi^0_2 -> chi^0_1 b b_bar)
     3.43295232E-02    3     1000022        11       -11   # BR(chi^0_2 -> chi^0_1 e^- e^+)
     3.43275303E-02    3     1000022        13       -13   # BR(chi^0_2 -> chi^0_1 mu^- mu^+)
     3.37718805E-02    3     1000022        15       -15   # BR(chi^0_2 -> chi^0_1 tau^- tau^+)
     2.03433424E-01    3     1000022        12       -12   # BR(chi^0_2 -> chi^0_1 nu_e nu_bar_e)
DECAY   1000025     1.71856802E-05   # chi^0_3
#    BR                NDA      ID1      ID2
     5.73649684E-03    2     1000022        22   # BR(chi^0_3 -> chi^0_1 photon)
     2.87505453E-02    2     1000023        22   # BR(chi^0_3 -> chi^0_2 photon)
#    BR                NDA      ID1      ID2       ID3
     3.45609656E-02    3     1000022         2        -2   # BR(chi^0_3 -> chi^0_1 u u_bar)
     3.44423589E-02    3     1000022         4        -4   # BR(chi^0_3 -> chi^0_1 c c_bar)
     4.42912940E-02    3     1000022         1        -1   # BR(chi^0_3 -> chi^0_1 d d_bar)
     4.42906755E-02    3     1000022         3        -3   # BR(chi^0_3 -> chi^0_1 s s_bar)
     4.32892588E-02    3     1000022         5        -5   # BR(chi^0_3 -> chi^0_1 b b_bar)
     9.97622060E-03    3     1000022        11       -11   # BR(chi^0_3 -> chi^0_1 e^- e^+)
     9.97600710E-03    3     1000022        13       -13   # BR(chi^0_3 -> chi^0_1 mu^- mu^+)
     9.91588857E-03    3     1000022        15       -15   # BR(chi^0_3 -> chi^0_1 tau^- tau^+)
     5.92576740E-02    3     1000022        12       -12   # BR(chi^0_3 -> chi^0_1 nu_e nu_bar_e)
     2.16623292E-02    3     1000023         2        -2   # BR(chi^0_3 -> chi^0_2 u u_bar)
     2.01607909E-02    3     1000023         4        -4   # BR(chi^0_3 -> chi^0_2 c c_bar)
     2.77754952E-02    3     1000023         1        -1   # BR(chi^0_3 -> chi^0_2 d d_bar)
     2.77658133E-02    3     1000023         3        -3   # BR(chi^0_3 -> chi^0_2 s s_bar)
     1.37127210E-02    3     1000023         5        -5   # BR(chi^0_3 -> chi^0_2 b b_bar)
     6.26817706E-03    3     1000023        11       -11   # BR(chi^0_3 -> chi^0_2 e^- e^+)
     6.26472873E-03    3     1000023        13       -13   # BR(chi^0_3 -> chi^0_2 mu^- mu^+)
     5.37378612E-03    3     1000023        15       -15   # BR(chi^0_3 -> chi^0_2 tau^- tau^+)
     3.71436696E-02    3     1000023        12       -12   # BR(chi^0_3 -> chi^0_2 nu_e nu_bar_e)
     8.56497534E-02    3     1000024         1        -2   # BR(chi^0_3 -> chi^+_1 d u_bar)
     8.56497534E-02    3    -1000024        -1         2   # BR(chi^0_3 -> chi^-_1 d_bar u)
     8.42907879E-02    3     1000024         3        -4   # BR(chi^0_3 -> chi^+_1 s c_bar)
     8.42907879E-02    3    -1000024        -3         4   # BR(chi^0_3 -> chi^-_1 s_bar c)
     2.85498423E-02    3     1000024        11       -12   # BR(chi^0_3 -> chi^+_1 e^- nu_bar_e)
     2.85498423E-02    3    -1000024       -11        12   # BR(chi^0_3 -> chi^-_1 e^+ nu_e)
     2.85495725E-02    3     1000024        13       -14   # BR(chi^0_3 -> chi^+_1 mu^- nu_bar_mu)
     2.85495725E-02    3    -1000024       -13        14   # BR(chi^0_3 -> chi^-_1 mu^+ nu_mu)
     2.76525958E-02    3     1000024        15       -16   # BR(chi^0_3 -> chi^+_1 tau^- nu_bar_tau)
     2.76525958E-02    3    -1000024       -15        16   # BR(chi^0_3 -> chi^-_1 tau^+ nu_tau)
DECAY   1000035     1.38660427E+01   # chi^0_4
#    BR                NDA      ID1      ID2
     2.30421959E-01    2     1000024       -24   # BR(chi^0_4 -> chi^+_1 W^-)
     2.30421959E-01    2    -1000024        24   # BR(chi^0_4 -> chi^-_1 W^+)
     1.92275688E-02    2     1000022        23   # BR(chi^0_4 -> chi^0_1 Z)
     1.60095838E-01    2     1000023        23   # BR(chi^0_4 -> chi^0_2 Z)
     5.05025711E-02    2     1000025        23   # BR(chi^0_4 -> chi^0_3 Z)
     3.83310740E-02    2     1000022        25   # BR(chi^0_4 -> chi^0_1 h^0)
     1.36677829E-01    2     1000023        25   # BR(chi^0_4 -> chi^0_2 h^0)
     1.15351402E-01    2     1000025        25   # BR(chi^0_4 -> chi^0_3 h^0)
#    BR                NDA      ID1      ID2       ID3
     8.97700896E-04    3     1000022         6        -6   # BR(chi^0_4 -> chi^0_1 t t_bar)
     3.26611101E-03    3     1000023         6        -6   # BR(chi^0_4 -> chi^0_2 t t_bar)
     2.46961212E-03    3     1000025         6        -6   # BR(chi^0_4 -> chi^0_3 t t_bar)
     6.16175000E-03    3     1000024         5        -6   # BR(chi^0_4 -> chi^+_1 b t_bar)
     6.16175000E-03    3    -1000024        -5         6   # BR(chi^0_4 -> chi^-_1 b_bar t)
DECAY   1000021     1.23787746E-01   # ~g
#    BR                NDA      ID1      ID2
     1.03862794E-03    2     1000022        21   # BR(~g -> chi^0_1 g)
     3.07861368E-03    2     1000023        21   # BR(~g -> chi^0_2 g)
     1.50197477E-03    2     1000025        21   # BR(~g -> chi^0_3 g)
#    BR                NDA      ID1      ID2       ID3
     1.38699127E-04    3     1000022         2        -2   # BR(~g -> chi^0_1 u u_bar)
     1.38712162E-04    3     1000022         4        -4   # BR(~g -> chi^0_1 c c_bar)
     5.11411002E-02    3     1000022         6        -6   # BR(~g -> chi^0_1 t t_bar)
     3.13535500E-02    3     1000022         5        -5   # BR(~g -> chi^0_1 b b_bar)
     1.66764076E-01    3     1000023         6        -6   # BR(~g -> chi^0_2 t t_bar)
     5.90104982E-02    3     1000023         5        -5   # BR(~g -> chi^0_2 b b_bar)
     1.18571711E-01    3     1000025         6        -6   # BR(~g -> chi^0_3 t t_bar)
     3.73626364E-02    3     1000025         5        -5   # BR(~g -> chi^0_3 b b_bar)
     1.02201883E-02    3     1000035         6        -6   # BR(~g -> chi^0_4 t t_bar)
     1.16910137E-02    3     1000035         5        -5   # BR(~g -> chi^0_4 b b_bar)
     2.31445524E-01    3     1000024         5        -6   # BR(~g -> chi^+_1 b t_bar)
     2.31445524E-01    3    -1000024        -5         6   # BR(~g -> chi^-_1 b_bar t)
     1.41483407E-04    3     1000037         1        -2   # BR(~g -> chi^+_2 d u_bar)
     1.41483407E-04    3    -1000037        -1         2   # BR(~g -> chi^-_2 d_bar u)
     1.41483016E-04    3     1000037         3        -4   # BR(~g -> chi^+_2 s c_bar)
     1.41483016E-04    3    -1000037        -3         4   # BR(~g -> chi^-_2 s_bar c)
     2.19641569E-02    3     1000037         5        -6   # BR(~g -> chi^+_2 b t_bar)
     2.19641569E-02    3    -1000037        -5         6   # BR(~g -> chi^-_2 b_bar t)
DECAY        25     3.66127222E-03   # Gamma(h0)
     2.58447008E-03   2        22        22   # BR(h0 -> photon photon)
     1.75578093E-03   2        22        23   # BR(h0 -> photon Z)
     3.37642907E-02   2        23        23   # BR(h0 -> Z Z)
     2.72748751E-01   2       -24        24   # BR(h0 -> W W)
     7.89710314E-02   2        21        21   # BR(h0 -> gluon gluon)
     4.71150930E-09   2       -11        11   # BR(h0 -> Electron electron)
     2.09576943E-04   2       -13        13   # BR(h0 -> Muon muon)
     6.04299998E-02   2       -15        15   # BR(h0 -> Tau tau)
     1.33906760E-07   2        -2         2   # BR(h0 -> Up up)
     2.59894070E-02   2        -4         4   # BR(h0 -> Charm charm)
     5.44448549E-07   2        -1         1   # BR(h0 -> Down down)
     1.96914181E-04   2        -3         3   # BR(h0 -> Strange strange)
     5.23349094E-01   2        -5         5   # BR(h0 -> Bottom bottom)
DECAY        35     9.66151043E+01   # Gamma(HH)
     6.72767853E-09   2        22        22   # BR(HH -> photon photon)
     1.52002569E-08   2        22        23   # BR(HH -> photon Z)
     1.97134616E-07   2        23        23   # BR(HH -> Z Z)
     3.46962787E-08   2       -24        24   # BR(HH -> W W)
     1.59876989E-06   2        21        21   # BR(HH -> gluon gluon)
     5.53620996E-09   2       -11        11   # BR(HH -> Electron electron)
     2.46533057E-04   2       -13        13   # BR(HH -> Muon muon)
     7.12067688E-02   2       -15        15   # BR(HH -> Tau tau)
     1.27835848E-13   2        -2         2   # BR(HH -> Up up)
     2.48015704E-08   2        -4         4   # BR(HH -> Charm charm)
     1.82385637E-03   2        -6         6   # BR(HH -> Top top)
     3.84284144E-07   2        -1         1   # BR(HH -> Down down)
     1.39002201E-04   2        -3         3   # BR(HH -> Strange strange)
     3.62595137E-01   2        -5         5   # BR(HH -> Bottom bottom)
     3.06735012E-03   2  -1000024   1000024   # BR(HH -> Chargino1 chargino1)
     1.67569756E-01   2  -1000024   1000037   # BR(HH -> Chargino1 chargino2)
     1.67569756E-01   2  -1000037   1000024   # BR(HH -> Chargino2 chargino1)
     4.77317072E-05   2  -1000037   1000037   # BR(HH -> Chargino2 chargino2)
     1.82682594E-02   2   1000022   1000022   # BR(HH -> neutralino1 neutralino1)
     1.39174958E-02   2   1000022   1000023   # BR(HH -> neutralino1 neutralino2)
     1.13481715E-04   2   1000022   1000025   # BR(HH -> neutralino1 neutralino3)
     4.27898811E-02   2   1000022   1000035   # BR(HH -> neutralino1 neutralino4)
     1.07821050E-03   2   1000023   1000023   # BR(HH -> neutralino2 neutralino2)
     1.46152654E-02   2   1000023   1000025   # BR(HH -> neutralino2 neutralino3)
     9.04917928E-02   2   1000023   1000035   # BR(HH -> neutralino2 neutralino4)
     9.10525521E-03   2   1000025   1000025   # BR(HH -> neutralino3 neutralino3)
     3.53268693E-02   2   1000025   1000035   # BR(HH -> neutralino3 neutralino4)
     2.40685318E-05   2   1000035   1000035   # BR(HH -> neutralino4 neutralino4)
     1.26155685E-06   2        25        25   # BR(HH -> h0 h0)
DECAY        36     9.43842852E+01   # Gamma(A0)
     3.40275573E-08   2        22        22   # BR(A0 -> photon photon)
     4.18792297E-08   2        22        23   # BR(A0 -> photon Z)
     5.93260700E-06   2        21        21   # BR(A0 -> gluon gluon)
     5.36641189E-09   2       -11        11   # BR(A0 -> Electron electron)
     2.38972149E-04   2       -13        13   # BR(A0 -> Muon muon)
     6.90229790E-02   2       -15        15   # BR(A0 -> Tau tau)
     1.16499971E-13   2        -2         2   # BR(A0 -> Up up)
     2.26017986E-08   2        -4         4   # BR(A0 -> Charm charm)
     1.66898193E-03   2        -6         6   # BR(A0 -> Top top)
     3.72490787E-07   2        -1         1   # BR(A0 -> Down down)
     1.34735743E-04   2        -3         3   # BR(A0 -> Strange strange)
     3.51468202E-01   2        -5         5   # BR(A0 -> Bottom bottom)
     3.25477397E-03   2  -1000024   1000024   # BR(A0 -> Chargino1 chargino1)
     1.71469905E-01   2  -1000024   1000037   # BR(A0 -> Chargino1 chargino2)
     1.71469905E-01   2  -1000037   1000024   # BR(A0 -> Chargino2 chargino1)
     1.43911996E-04   2  -1000037   1000037   # BR(A0 -> Chargino2 chargino2)
     2.11444578E-02   2   1000022   1000022   # BR(A0 -> neutralino1 neutralino1)
     1.18239499E-02   2   1000022   1000023   # BR(A0 -> neutralino1 neutralino2)
     1.73828052E-04   2   1000022   1000025   # BR(A0 -> neutralino1 neutralino3)
     5.13253145E-02   2   1000022   1000035   # BR(A0 -> neutralino1 neutralino4)
     9.68106928E-04   2   1000023   1000023   # BR(A0 -> neutralino2 neutralino2)
     1.33854610E-02   2   1000023   1000025   # BR(A0 -> neutralino2 neutralino3)
     7.61013577E-02   2   1000023   1000035   # BR(A0 -> neutralino2 neutralino4)
     1.09860594E-02   2   1000025   1000025   # BR(A0 -> neutralino3 neutralino3)
     4.51398347E-02   2   1000025   1000035   # BR(A0 -> neutralino3 neutralino4)
     7.23365626E-05   2   1000035   1000035   # BR(A0 -> neutralino4 neutralino4)
     5.17207334E-07   2        23        25   # BR(A0 -> Z h0)
     6.28852587E-39   2        25        25   # BR(A0 -> h0 h0)
DECAY        37     1.04251190E+02   # Gamma(Hp)
     6.33383990E-09   2       -11        12   # BR(Hp -> Electron nu_e)
     2.70791438E-04   2       -13        14   # BR(Hp -> Muon nu_mu)
     7.65952490E-02   2       -15        16   # BR(Hp -> Tau nu_tau)
     3.83133546E-07   2        -1         2   # BR(Hp -> Down up)
     6.49961848E-06   2        -3         2   # BR(Hp -> Strange up)
     4.21834434E-06   2        -5         2   # BR(Hp -> Bottom up)
     1.91773448E-08   2        -1         4   # BR(Hp -> Down charm)
     1.38107937E-04   2        -3         4   # BR(Hp -> Strange charm)
     5.90719297E-04   2        -5         4   # BR(Hp -> Bottom charm)
     1.31359814E-07   2        -1         6   # BR(Hp -> Down top)
     3.07036281E-06   2        -3         6   # BR(Hp -> Strange top)
     3.99875380E-01   2        -5         6   # BR(Hp -> Bottom top)
     2.44561993E-02   2   1000022   1000024   # BR(Hp -> neutralino1 chargino1)
     8.65127357E-02   2   1000022   1000037   # BR(Hp -> neutralino1 chargino2)
     5.35139014E-05   2   1000023   1000024   # BR(Hp -> neutralino2 chargino1)
     1.52567931E-01   2   1000023   1000037   # BR(Hp -> neutralino2 chargino2)
     2.93304026E-02   2   1000024   1000025   # BR(Hp -> chargino1 neutralino3)
     7.40214060E-02   2   1000025   1000037   # BR(Hp -> neutralino3 chargino2)
     1.55572766E-01   2   1000024   1000035   # BR(Hp -> chargino1 neutralino4)
     4.25053077E-10   2   1000035   1000037   # BR(Hp -> neutralino4 chargino2)
     4.68380285E-07   2        24        25   # BR(Hp -> W h0)
DECAY         6     2.43000000E+00   # top
#    BR                NDA      ID1      ID2
     1.00000000E+00    2           5        24   # BR(t -> b W)
Block HiggsBoundsInputHiggsCouplingsFermions
# ScalarNormEffCoupSq PseudoSNormEffCoupSq NP IP1 IP2 IP2
    9.28074041E-01    0.00000000E+00        3  25   5   5  # h0-b-b eff. coupling^2, normalised to SM
    7.84577755E+02    0.00000000E+00        3  35   5   5  # H0-b-b eff. coupling^2, normalised to SM
    0.00000000E+00    7.84505829E+02        3  36   5   5  # A0-b-b eff. coupling^2, normalised to SM
#
    1.00009168E+00    0.00000000E+00        3  25   6   6  # h0-t-t eff. coupling^2, normalised to SM
    1.18300465E-03    0.00000000E+00        3  35   6   6  # H0-t-t eff. coupling^2, normalised to SM
    0.00000000E+00    1.27468779E-03        3  36   6   6  # A0-t-t eff. coupling^2, normalised to SM
#
    9.28074041E-01    0.00000000E+00        3  25  15  15  # h0-tau-tau eff. coupling^2, normalised to SM
    7.84577755E+02    0.00000000E+00        3  35  15  15  # H0-tau-tau eff. coupling^2, normalised to SM
    0.00000000E+00    7.84505829E+02        3  36  15  15  # A0-tau-tau eff. coupling^2, normalised to SM
#
Block HiggsBoundsInputHiggsCouplingsBosons
    9.99998289E-01        3  25  24  24  # h0-W-W eff. coupling^2, normalised to SM
    1.71061522E-06        3  35  24  24  # H0-W-W eff. coupling^2, normalised to SM
    0.00000000E+00        3  36  24  24  # A0-W-W eff. coupling^2, normalised to SM
#
    9.99998289E-01        3  25  23  23  # h0-Z-Z eff. coupling^2, normalised to SM
    1.71061522E-06        3  35  23  23  # H0-Z-Z eff. coupling^2, normalised to SM
    0.00000000E+00        3  36  23  23  # A0-Z-Z eff. coupling^2, normalised to SM
#
    1.26798501E+00        3  25  21  21  # h0-g-g eff. coupling^2, normalised to SM
    1.55175134E-03        3  35  21  21  # H0-g-g eff. coupling^2, normalised to SM
    9.65472125E-02        3  36  21  21  # A0-g-g eff. coupling^2, normalised to SM
#
    0.00000000E+00        3  25  25  23  # h0-h0-Z eff. coupling^2, normalised to SM
    0.00000000E+00        3  35  25  23  # H0-h0-Z eff. coupling^2, normalised to SM
    1.71061522E-06        3  36  25  23  # A0-h0-Z eff. coupling^2, normalised to SM
    0.00000000E+00        3  35  35  23  # H0-H0-Z eff. coupling^2, normalised to SM
    9.99998289E-01        3  36  35  23  # A0-H0-Z eff. coupling^2, normalised to SM
    0.00000000E+00        3  36  36  23  # A0-A0-Z eff. coupling^2, normalised to SM
#
    0.00000000E+00        4  25  21  21  23  # h0-g-g-Z eff. coupling^2, normalised to SM
    0.00000000E+00        4  35  21  21  23  # H0-g-g-Z eff. coupling^2, normalised to SM
    0.00000000E+00        4  36  21  21  23  # A0-g-g-Z eff. coupling^2, normalised to SM
Block SPhenoLowEnergy  # low energy observables
    1    3.13008463E-04   # BR(b -> s gamma)
    2    1.59183967E-06   # BR(b -> s mu+ mu-)
    3    3.52635048E-05   # BR(b -> s nu nu)
    4    2.90738461E-15   # BR(Bd -> e+ e-)
    5    1.24199821E-10   # BR(Bd -> mu+ mu-)
    6    2.59796006E-08   # BR(Bd -> tau+ tau-)
    7    9.75567306E-14   # BR(Bs -> e+ e-)
    8    4.16760912E-09   # BR(Bs -> mu+ mu-)
    9    8.83316285E-07   # BR(Bs -> tau+ tau-)
   10    9.65883108E-05   # BR(B_u -> tau nu)
   11    9.97720273E-01   # BR(B_u -> tau nu)/BR(B_u -> tau nu)_SM
   12    5.41917891E-01   # |Delta(M_Bd)| [ps^-1] 
   13    1.93616940E+01   # |Delta(M_Bs)| [ps^-1] 
   14    0.00000000E+00   # neutron EDM according to the chiral quark model
   15    0.00000000E+00   # neutron EDM according to the relativistic quark-parton model
   16    2.15705103E-03   # epsilon_K
   17    2.28165560E-15   # Delta(M_K)
   18    2.48047979E-11   # BR(K^0 -> pi^0 nu nu)
   19    8.29170743E-11   # BR(K^+ -> pi^+ nu nu)
   20    2.66024179E-16   # Delta(g-2)_electron/2
   21    1.13734116E-11   # Delta(g-2)_muon/2
   22    3.22078518E-09   # Delta(g-2)_tau/2
   23    0.00000000E+00   # electric dipole moment of the electron
   24    0.00000000E+00   # electric dipole moment of the muon
   25    0.00000000E+00   # electric dipole moment of the tau
   26    0.00000000E+00   # Br(mu -> e gamma)
   27    0.00000000E+00   # Br(tau -> e gamma)
   28    0.00000000E+00   # Br(tau -> mu gamma)
   29    0.00000000E+00   # Br(mu -> 3 e)
   30    0.00000000E+00   # Br(tau -> 3 e)
   31    0.00000000E+00   # Br(tau -> 3 mu)
   39    5.81335266E-05   # Delta(rho_parameter)
   40    0.00000000E+00   # BR(Z -> e mu)
   41    0.00000000E+00   # BR(Z -> e tau)
   42    0.00000000E+00   # BR(Z -> mu tau)
Block FWCOEF Q=  1.60000000E+02  # Wilson coefficients at scale Q
#    id        order  M        value         comment
     0305 4422   00   0    -1.88819110E-01   # C7
     0305 4422   00   2    -1.79294646E-01   # C7
     0305 4322   00   2     1.47899022E-05   # C7'
     0305 6421   00   0    -9.52278348E-02   # C8
     0305 6421   00   2    -9.43630798E-02   # C8
     0305 6321   00   2    -7.42713086E-05   # C8'
 03051111 4133   00   0     1.62624531E+00   # C9 e+e-
 03051111 4133   00   2     1.62662277E+00   # C9 e+e-
 03051111 4233   00   2     2.65941883E-04   # C9' e+e-
 03051111 4137   00   0    -4.44893741E+00   # C10 e+e-
 03051111 4137   00   2    -4.44841223E+00   # C10 e+e-
 03051111 4237   00   2    -1.96877687E-03   # C10' e+e-
 03051313 4133   00   0     1.62624531E+00   # C9 mu+mu-
 03051313 4133   00   2     1.62662270E+00   # C9 mu+mu-
 03051313 4233   00   2     2.65941832E-04   # C9' mu+mu-
 03051313 4137   00   0    -4.44893741E+00   # C10 mu+mu-
 03051313 4137   00   2    -4.44841231E+00   # C10 mu+mu-
 03051313 4237   00   2    -1.96877696E-03   # C10' mu+mu-
 03051212 4137   00   0     1.50535012E+00   # C11 nu_1 nu_1
 03051212 4137   00   2     1.50523823E+00   # C11 nu_1 nu_1
 03051212 4237   00   2     4.25765231E-04   # C11' nu_1 nu_1
 03051414 4137   00   0     1.50535012E+00   # C11 nu_2 nu_2
 03051414 4137   00   2     1.50523823E+00   # C11 nu_2 nu_2
 03051414 4237   00   2     4.25765234E-04   # C11' nu_2 nu_2
 03051616 4137   00   0     1.50535012E+00   # C11 nu_3 nu_3
 03051616 4137   00   2     1.50523823E+00   # C11 nu_3 nu_3
 03051616 4237   00   2     4.25766238E-04   # C11' nu_3 nu_3
Block IMFWCOEF Q=  1.60000000E+02  # Im(Wilson coefficients) at scale Q
#    id        order  M        value         comment
     0305 4422   00   0     3.85827311E-07   # C7
     0305 4422   00   2     1.49284814E-05   # C7
     0305 4322   00   2     1.39698463E-06   # C7'
     0305 6421   00   0     3.30486608E-07   # C8
     0305 6421   00   2    -1.72459728E-05   # C8
     0305 6321   00   2     1.76145838E-07   # C8'
 03051111 4133   00   2     4.73707301E-07   # C9 e+e-
 03051111 4233   00   2     4.93392306E-06   # C9' e+e-
 03051111 4137   00   2     4.32447843E-07   # C10 e+e-
 03051111 4237   00   2    -3.65271309E-05   # C10' e+e-
 03051313 4133   00   2     4.73705046E-07   # C9 mu+mu-
 03051313 4233   00   2     4.93392244E-06   # C9' mu+mu-
 03051313 4137   00   2     4.32449998E-07   # C10 mu+mu-
 03051313 4237   00   2    -3.65271327E-05   # C10' mu+mu-
 03051212 4137   00   2    -6.36077858E-08   # C11 nu_1 nu_1
 03051212 4237   00   2     7.89931241E-06   # C11' nu_1 nu_1
 03051414 4137   00   2    -6.36076941E-08   # C11 nu_2 nu_2
 03051414 4237   00   2     7.89931241E-06   # C11' nu_2 nu_2
 03051616 4137   00   2    -6.35818197E-08   # C11 nu_3 nu_3
 03051616 4237   00   2     7.89931239E-06   # C11' nu_3 nu_3
