# SUSY Les Houches Accord 2 - MSSM spectrum + Decays
# SPheno v4.0.5be
# W. Porod, Comput. Phys. Commun. 153 (2003) 275-315, hep-ph/0301101;
# W. Porod, F.~Staub, Comput. Phys. Commun. 183 (2012) 2458
#                     arXiv:1104.1573 [hep-ph] 
# in case of problems send email to porod@physik.uni-wuerzburg.de
# Created: 12.05.2022,  20:11
Block SPINFO         # Program information
     1   SPheno      # spectrum calculator
     2   v4.0.5be    # version number
#
Block SPhenoINFO     # SPheno specific information
    1      2         # using 2-loop RGEs
    2      2         # using pole masses for boundary conditions at mZ
Block MODSEL  # Model selection
    1    0    # general MSSM
Block MINPAR  # Input parameters
    3    1.76151779E+01  # tanb at m_Z    
    4   -1.00000000E+00  # Sign(mu)
Block EXTPAR  # non-universal input parameters
    0    4.00771844E+03  # scale for input parameters
    1   -1.28639006E+02  # M_1
    2   -9.73374680E+02  # M_2
    3    2.99048025E+03  # M_3
   11    6.50318830E+03  # A_t
   12   -8.44742228E+01  # A_b
   13   -1.38838925E+03  # A_tau
   23   -2.09770197E+02  # mu
   25    1.67780721E+01  # tan(beta)
   26    1.19014322E+03  # m_A, pole mass
   31    1.00000000E+04  # M_L11
   32    1.00000000E+04  # M_L22
   33    1.00000000E+04  # M_L33
   34    1.00000000E+04  # M_E11
   35    1.00000000E+04  # M_E22
   36    1.00000000E+04  # M_E33
   41    1.00000000E+04  # M_Q11
   42    1.00000000E+04  # M_Q22
   43    4.06332534E+03  # M_Q33
   44    1.00000000E+04  # M_U11
   45    1.00000000E+04  # M_U22
   46    3.97372051E+03  # M_U33
   47    1.00000000E+04  # M_D11
   48    1.00000000E+04  # M_D22
   49    3.39179766E+03  # M_D33
Block SMINPUTS  # SM parameters
         1     1.27908970E+02  # alpha_em^-1(MZ)^MSbar
         2     1.16637870E-05  # G_mu [GeV^-2]
         3     1.18400000E-01  # alpha_s(MZ)^MSbar
         4     9.11876000E+01  # m_Z(pole)
         5     4.18000000E+00  # m_b(m_b), MSbar
         6     1.73200000E+02  # m_t(pole)
         7     1.77700000E+00  # m_tau(pole)
         8     0.00000000E+00  # m_nu_3
        11     5.10998930E-04  # m_e(pole)
        12     0.00000000E+00  # m_nu_1
        13     1.05658372E-01  # m_muon(pole)
        14     0.00000000E+00  # m_nu_2
        21     5.00000000E-03  # m_d(2 GeV), MSbar
        22     2.50000000E-03  # m_u(2 GeV), MSbar
        23     9.50000000E-02  # m_s(2 GeV), MSbar
        24     1.27000000E+00  # m_c(m_c), MSbar
Block gauge Q=  4.00771844E+03  # (SUSY scale)
   1    3.55362975E-01  # g'(Q)^DRbar
   2    6.65198874E-01  # g(Q)^DRbar
   3    1.21977796E+00  # g3(Q)^DRbar
Block Yu Q=  4.00771844E+03  # (SUSY scale)
  1  1     8.39925105E-06   # Y_u(Q)^DRbar
  2  2     4.26681953E-03   # Y_c(Q)^DRbar
  3  3     1.01469699E+00   # Y_t(Q)^DRbar
Block Yd Q=  4.00771844E+03  # (SUSY scale)
  1  1     2.83180188E-04   # Y_d(Q)^DRbar
  2  2     5.38042358E-03   # Y_s(Q)^DRbar
  3  3     2.80826011E-01   # Y_b(Q)^DRbar
Block Ye Q=  4.00771844E+03  # (SUSY scale)
  1  1     4.94170136E-05   # Y_e(Q)^DRbar
  2  2     1.02178711E-02   # Y_mu(Q)^DRbar
  3  3     1.71847783E-01   # Y_tau(Q)^DRbar
Block Au Q=  4.00771844E+03  # (SUSY scale)
  1  1     0.00000000E+00   # A_u(Q)^DRbar
  2  2     0.00000000E+00   # A_c(Q)^DRbar
  3  3     6.50318830E+03   # A_t(Q)^DRbar
Block Ad Q=  4.00771844E+03  # (SUSY scale)
  1  1     0.00000000E+00   # A_d(Q)^DRbar
  2  2     0.00000000E+00   # A_s(Q)^DRbar
  3  3    -8.44742223E+01   # A_b(Q)^DRbar
Block Ae Q=  4.00771844E+03  # (SUSY scale)
  1  1     0.00000000E+00   # A_e(Q)^DRbar
  2  2     0.00000000E+00   # A_mu(Q)^DRbar
  3  3    -1.38838925E+03   # A_tau(Q)^DRbar
Block MSOFT Q=  4.00771844E+03  # soft SUSY breaking masses at Q
   1   -1.28639006E+02  # M_1
   2   -9.73374680E+02  # M_2
   3    2.99048025E+03  # M_3
  21    1.34128423E+06  # M^2_(H,d)
  22    2.96486609E+05  # M^2_(H,u)
  31    1.00000000E+04  # M_(L,11)
  32    1.00000000E+04  # M_(L,22)
  33    1.00000000E+04  # M_(L,33)
  34    1.00000000E+04  # M_(E,11)
  35    1.00000000E+04  # M_(E,22)
  36    1.00000000E+04  # M_(E,33)
  41    1.00000000E+04  # M_(Q,11)
  42    1.00000000E+04  # M_(Q,22)
  43    4.06332534E+03  # M_(Q,33)
  44    1.00000000E+04  # M_(U,11)
  45    1.00000000E+04  # M_(U,22)
  46    3.97372051E+03  # M_(U,33)
  47    1.00000000E+04  # M_(D,11)
  48    1.00000000E+04  # M_(D,22)
  49    3.39179766E+03  # M_(D,33)
Block MASS  # Mass spectrum
#   PDG code      mass          particle
         6     1.73200000E+02  # m_t(pole)
        23     9.11876000E+01  # m_Z(pole)
        24     8.04299946E+01  # W+
        15     1.77700000E+00  # m_tau(pole)
        25     1.27819081E+02  # h0
        35     1.19010845E+03  # H0
        36     1.19014322E+03  # A0
        37     1.19359106E+03  # H+
   1000001     1.01111139E+04  # ~d_L
   2000001     1.00864317E+04  # ~d_R
   1000002     1.01107555E+04  # ~u_L
   2000002     1.00896655E+04  # ~u_R
   1000003     1.01111145E+04  # ~s_L
   2000003     1.00864324E+04  # ~s_R
   1000004     1.01107562E+04  # ~c_L
   2000004     1.00896660E+04  # ~c_R
   1000005     3.50554832E+03  # ~b_1
   2000005     4.08956921E+03  # ~b_2
   1000006     3.88035140E+03  # ~t_1
   2000006     4.13926613E+03  # ~t_2
   1000011     1.00211433E+04  # ~e_L-
   2000011     1.00089111E+04  # ~e_R-
   1000012     1.00203802E+04  # ~nu_eL
   1000013     1.00211453E+04  # ~mu_L-
   2000013     1.00089149E+04  # ~mu_R-
   1000014     1.00203822E+04  # ~nu_muL
   1000015     1.00100087E+04  # ~tau_1-
   2000015     1.00217109E+04  # ~tau_2-
   1000016     1.00209442E+04  # ~nu_tauL
   1000021     3.47467244E+03  # ~g
   1000022     1.21102287E+02  # ~chi_10
   1000023     2.32859837E+02  # ~chi_20
   1000025     2.34263288E+02  # ~chi_30
   1000035     1.05213495E+03  # ~chi_40
   1000024     2.26160774E+02  # ~chi_1+
   1000037     1.05182479E+03  # ~chi_2+
# Higgs mixing
Block alpha # Effective Higgs mixing angle
          -5.76913588E-02   # alpha
Block Hmix Q=  4.00771844E+03  # Higgs mixing parameters
   1   -2.09770197E+02  # mu
   2    1.67780721E+01  # tan[beta](Q)
   3    2.42911384E+02  # v(Q)
   4    1.41644088E+06  # m^2_A(Q)
Block stopmix # stop mixing matrix
   1  1    -4.50631506E-01   # Re[R_st(1,1)]
   1  2     8.92710057E-01   # Re[R_st(1,2)]
   2  1    -8.92710057E-01   # Re[R_st(2,1)]
   2  2    -4.50631506E-01   # Re[R_st(2,2)]
Block sbotmix # sbottom mixing matrix
   1  1    -1.26906594E-03   # Re[R_sb(1,1)]
   1  2     9.99999195E-01   # Re[R_sb(1,2)]
   2  1    -9.99999195E-01   # Re[R_sb(2,1)]
   2  2    -1.26906594E-03   # Re[R_sb(2,2)]
Block staumix # stau mixing matrix
   1  1    -1.54333053E-02   # Re[R_sta(1,1)]
   1  2     9.99880899E-01   # Re[R_sta(1,2)]
   2  1    -9.99880899E-01   # Re[R_sta(2,1)]
   2  2    -1.54333053E-02   # Re[R_sta(2,2)]
Block Nmix # neutralino mixing matrix
   1  1     9.49058066E-01   # Re[N(1,1)]
   1  2    -1.48313468E-02   # Re[N(1,2)]
   1  3    -2.73131023E-01   # Re[N(1,3)]
   1  4     1.56423343E-01   # Re[N(1,4)]
   2  1    -8.22431406E-02   # Re[N(2,1)]
   2  2     4.23431332E-02   # Re[N(2,2)]
   2  3    -6.95917562E-01   # Re[N(2,3)]
   2  4    -7.12138941E-01   # Re[N(2,4)]
   3  1     3.04152408E-01   # Re[N(3,1)]
   3  2     7.09007821E-02   # Re[N(3,2)]
   3  3     6.63796854E-01   # Re[N(3,3)]
   3  4    -6.79586733E-01   # Re[N(3,4)]
   4  1     4.02057914E-03   # Re[N(4,1)]
   4  2    -9.96473868E-01   # Re[N(4,2)]
   4  3     2.17238883E-02   # Re[N(4,3)]
   4  4    -8.09428089E-02   # Re[N(4,4)]
Block Umix # chargino mixing matrix
   1  1    -3.07064146E-02   # Re[U(1,1)]
   1  2    -9.99528447E-01   # Re[U(1,2)]
   2  1    -9.99528447E-01   # Re[U(2,1)]
   2  2     3.07064146E-02   # Re[U(2,2)]
Block Vmix # chargino mixing matrix
   1  1     1.14541814E-01   # Re[V(1,1)]
   1  2     9.93418428E-01   # Re[V(1,2)]
   2  1     9.93418428E-01   # Re[V(2,1)]
   2  2    -1.14541814E-01   # Re[V(2,2)]
DECAY        23     2.49520000E+00   # Z
DECAY        24     2.08500000E+00   # W
DECAY   2000011     5.02723793E+01   # ~e^-_R
#    BR                NDA      ID1      ID2
     9.00783221E-01    2     1000022        11   # BR(~e^-_R -> chi^0_1 e^-)
     6.75913763E-03    2     1000023        11   # BR(~e^-_R -> chi^0_2 e^-)
     9.24418157E-02    2     1000025        11   # BR(~e^-_R -> chi^0_3 e^-)
DECAY   1000011     1.42019936E+02   # ~e^-_L
#    BR                NDA      ID1      ID2
     7.52113679E-02    2     1000022        11   # BR(~e^-_L -> chi^0_1 e^-)
     1.68983103E-02    2     1000025        11   # BR(~e^-_L -> chi^0_3 e^-)
     3.00331507E-01    2     1000035        11   # BR(~e^-_L -> chi^0_4 e^-)
     5.85082114E-04    2    -1000024        12   # BR(~e^-_L -> chi^-_1 nu_e)
     6.06972943E-01    2    -1000037        12   # BR(~e^-_L -> chi^-_2 nu_e)
#    BR                NDA      ID1      ID2       ID3
DECAY   2000013     5.03139325E+01   # ~mu^-_R
#    BR                NDA      ID1      ID2
     9.00070443E-01    2     1000022        13   # BR(~mu^-_R -> chi^0_1 mu^-)
     6.95344398E-03    2     1000023        13   # BR(~mu^-_R -> chi^0_2 mu^-)
     9.25473598E-02    2     1000025        13   # BR(~mu^-_R -> chi^0_3 mu^-)
     4.12378907E-04    2    -1000024        14   # BR(~mu^-_R -> chi^-_1 nu_mu)
DECAY   1000013     1.42040758E+02   # ~mu^-_L
#    BR                NDA      ID1      ID2
     7.52112856E-02    2     1000022        13   # BR(~mu^-_L -> chi^0_1 mu^-)
     1.69603348E-02    2     1000025        13   # BR(~mu^-_L -> chi^0_3 mu^-)
     3.00287611E-01    2     1000035        13   # BR(~mu^-_L -> chi^0_4 mu^-)
     5.84996463E-04    2    -1000024        14   # BR(~mu^-_L -> chi^-_1 nu_mu)
     6.06884093E-01    2    -1000037        14   # BR(~mu^-_L -> chi^-_2 nu_mu)
#    BR                NDA      ID1      ID2       ID3
DECAY   1000015     6.20488076E+01   # ~tau^-_1
#    BR                NDA      ID1      ID2
     7.37978054E-01    2     1000022        15   # BR(~tau^-_1 -> chi^0_1 tau^-)
     5.08477705E-02    2     1000023        15   # BR(~tau^-_1 -> chi^0_2 tau^-)
     1.16126491E-01    2     1000025        15   # BR(~tau^-_1 -> chi^0_3 tau^-)
     9.49194508E-02    2    -1000024        16   # BR(~tau^-_1 -> chi^-_1 nu_tau)
DECAY   2000015     1.47888921E+02   # ~tau^-_2
#    BR                NDA      ID1      ID2
     7.47763849E-02    2     1000022        15   # BR(~tau^-_2 -> chi^0_1 tau^-)
     1.94636616E-02    2     1000023        15   # BR(~tau^-_2 -> chi^0_2 tau^-)
     3.39602236E-02    2     1000025        15   # BR(~tau^-_2 -> chi^0_3 tau^-)
     2.88450735E-01    2     1000035        15   # BR(~tau^-_2 -> chi^0_4 tau^-)
     4.25394134E-04    2    -1000024        16   # BR(~tau^-_2 -> chi^-_1 nu_tau)
     5.82923600E-01    2    -1000037        16   # BR(~tau^-_2 -> chi^-_2 nu_tau)
#    BR                NDA      ID1      ID2       ID3
DECAY   1000012     1.42024328E+02   # ~nu_e
#    BR                NDA      ID1      ID2
     8.45412662E-02    2     1000022        12   # BR(~nu_e -> chi^0_1 nu_e)
     2.30922796E-03    2     1000023        12   # BR(~nu_e -> chi^0_2 nu_e)
     2.60187400E-03    2     1000025        12   # BR(~nu_e -> chi^0_3 nu_e)
     3.02898673E-01    2     1000035        12   # BR(~nu_e -> chi^0_4 nu_e)
     8.14029845E-03    2     1000024        11   # BR(~nu_e -> chi^+_1 e^-)
     5.99508661E-01    2     1000037        11   # BR(~nu_e -> chi^+_2 e^-)
#    BR                NDA      ID1      ID2       ID3
DECAY   1000014     1.42045149E+02   # ~nu_mu
#    BR                NDA      ID1      ID2
     8.45288914E-02    2     1000022        14   # BR(~nu_mu -> chi^0_1 nu_mu)
     2.30888995E-03    2     1000023        14   # BR(~nu_mu -> chi^0_2 nu_mu)
     2.60149315E-03    2     1000025        14   # BR(~nu_mu -> chi^0_3 nu_mu)
     3.02854338E-01    2     1000035        14   # BR(~nu_mu -> chi^0_4 nu_mu)
     8.28533922E-03    2     1000024        13   # BR(~nu_mu -> chi^+_1 mu^-)
     5.99421048E-01    2     1000037        13   # BR(~nu_mu -> chi^+_2 mu^-)
#    BR                NDA      ID1      ID2       ID3
DECAY   1000016     1.47913978E+02   # ~nu_tau
#    BR                NDA      ID1      ID2
     8.11795677E-02    2     1000022        16   # BR(~nu_tau -> chi^0_1 nu_tau)
     2.21740403E-03    2     1000023        16   # BR(~nu_tau -> chi^0_2 nu_tau)
     2.49841332E-03    2     1000025        16   # BR(~nu_tau -> chi^0_3 nu_tau)
     2.90854932E-01    2     1000035        16   # BR(~nu_tau -> chi^0_4 nu_tau)
     4.75414407E-02    2     1000024        15   # BR(~nu_tau -> chi^+_1 tau^-)
     5.75708242E-01    2     1000037        15   # BR(~nu_tau -> chi^+_2 tau^-)
#    BR                NDA      ID1      ID2       ID3
DECAY   2000001     6.24032668E+02   # ~d_R
#    BR                NDA      ID1      ID2
     8.12554807E-03    2     1000022         1   # BR(~d_R -> chi^0_1 d)
     8.33896156E-04    2     1000025         1   # BR(~d_R -> chi^0_3 d)
     9.90979403E-01    2     1000021         1   # BR(~d_R -> ~g d)
DECAY   1000001     7.52787300E+02   # ~d_L
#    BR                NDA      ID1      ID2
     1.99735317E-03    2     1000022         1   # BR(~d_L -> chi^0_1 d)
     1.91807860E-04    2     1000023         1   # BR(~d_L -> chi^0_2 d)
     5.75213752E-02    2     1000035         1   # BR(~d_L -> chi^0_4 d)
     1.11373918E-04    2    -1000024         2   # BR(~d_L -> chi^-_1 u)
     1.15584474E-01    2    -1000037         2   # BR(~d_L -> chi^-_2 u)
     8.24577059E-01    2     1000021         1   # BR(~d_L -> ~g d)
DECAY   2000003     6.24044307E+02   # ~s_R
#    BR                NDA      ID1      ID2
     8.12608945E-03    2     1000022         3   # BR(~s_R -> chi^0_1 s)
     8.37966385E-04    2     1000025         3   # BR(~s_R -> chi^0_3 s)
     9.90961024E-01    2     1000021         3   # BR(~s_R -> ~g s)
DECAY   1000003     7.52796822E+02   # ~s_L
#    BR                NDA      ID1      ID2
     1.99790336E-03    2     1000022         3   # BR(~s_L -> chi^0_1 s)
     1.95537327E-04    2     1000023         3   # BR(~s_L -> chi^0_2 s)
     5.75206545E-02    2     1000035         3   # BR(~s_L -> chi^0_4 s)
     1.16168320E-04    2    -1000024         4   # BR(~s_L -> chi^-_1 c)
     1.15583082E-01    2    -1000037         4   # BR(~s_L -> chi^-_2 c)
     8.24566703E-01    2     1000021         3   # BR(~s_L -> ~g s)
DECAY   1000005     1.29154490E+01   # ~b_1
#    BR                NDA      ID1      ID2
     1.68122716E-01    2     1000022         5   # BR(~b_1 -> chi^0_1 b)
     2.05324046E-01    2     1000023         5   # BR(~b_1 -> chi^0_2 b)
     1.99732987E-01    2     1000025         5   # BR(~b_1 -> chi^0_3 b)
     1.37460116E-04    2     1000035         5   # BR(~b_1 -> chi^0_4 b)
     4.19892103E-01    2    -1000024         6   # BR(~b_1 -> chi^-_1 t)
     2.68763486E-04    2    -1000037         6   # BR(~b_1 -> chi^-_2 t)
     6.52192361E-03    2     1000021         5   # BR(~b_1 -> ~g b)
DECAY   2000005     1.69323042E+02   # ~b_2
#    BR                NDA      ID1      ID2
     6.38575045E-03    2     1000022         5   # BR(~b_2 -> chi^0_1 b)
     1.85851070E-02    2     1000023         5   # BR(~b_2 -> chi^0_2 b)
     1.66269864E-02    2     1000025         5   # BR(~b_2 -> chi^0_3 b)
     9.21971433E-02    2     1000035         5   # BR(~b_2 -> chi^0_4 b)
     4.83600598E-01    2    -1000024         6   # BR(~b_2 -> chi^-_1 t)
     1.91630827E-01    2    -1000037         6   # BR(~b_2 -> chi^-_2 t)
     1.47448884E-01    2     1000021         5   # BR(~b_2 -> ~g b)
     4.35084791E-02    2     1000006       -24   # BR(~b_2 -> ~t_1 W^-)
DECAY   2000002     6.41232246E+02   # ~u_R
#    BR                NDA      ID1      ID2
     3.16405351E-02    2     1000022         2   # BR(~u_R -> chi^0_1 u)
     2.37421483E-04    2     1000023         2   # BR(~u_R -> chi^0_2 u)
     3.24711406E-03    2     1000025         2   # BR(~u_R -> chi^0_3 u)
     9.64874374E-01    2     1000021         2   # BR(~u_R -> ~g u)
DECAY   1000002     7.52773123E+02   # ~u_L
#    BR                NDA      ID1      ID2
     1.40476039E-03    2     1000022         2   # BR(~u_L -> chi^0_1 u)
     9.23653213E-04    2     1000025         2   # BR(~u_L -> chi^0_3 u)
     5.73552558E-02    2     1000035         2   # BR(~u_L -> chi^0_4 u)
     1.54971581E-03    2     1000024         1   # BR(~u_L -> chi^+_1 d)
     1.14173606E-01    2     1000037         1   # BR(~u_L -> chi^+_2 d)
     8.24547703E-01    2     1000021         2   # BR(~u_L -> ~g u)
DECAY   2000004     6.41239562E+02   # ~c_R
#    BR                NDA      ID1      ID2
     3.16403143E-02    2     1000022         4   # BR(~c_R -> chi^0_1 c)
     2.40306204E-04    2     1000023         4   # BR(~c_R -> chi^0_2 c)
     3.24970499E-03    2     1000025         4   # BR(~c_R -> chi^0_3 c)
     9.64863391E-01    2     1000021         4   # BR(~c_R -> ~g c)
DECAY   1000004     7.52782623E+02   # ~c_L
#    BR                NDA      ID1      ID2
     1.40486162E-03    2     1000022         4   # BR(~c_L -> chi^0_1 c)
     9.25886440E-04    2     1000025         4   # BR(~c_L -> chi^0_3 c)
     5.73545626E-02    2     1000035         4   # BR(~c_L -> chi^0_4 c)
     1.55739503E-03    2     1000024         3   # BR(~c_L -> chi^+_1 s)
     1.14172180E-01    2     1000037         3   # BR(~c_L -> chi^+_2 s)
     8.24537344E-01    2     1000021         4   # BR(~c_L -> ~g c)
DECAY   1000006     1.67044383E+02   # ~t_1
#    BR                NDA      ID1      ID2
     6.35787287E-02    2     1000022         6   # BR(~t_1 -> chi^0_1 t)
     2.50808427E-01    2     1000023         6   # BR(~t_1 -> chi^0_2 t)
     2.11157698E-01    2     1000025         6   # BR(~t_1 -> chi^0_3 t)
     7.89550400E-03    2     1000035         6   # BR(~t_1 -> chi^0_4 t)
     4.07915475E-01    2     1000024         5   # BR(~t_1 -> chi^+_1 b)
     1.49420564E-02    2     1000037         5   # BR(~t_1 -> chi^+_2 b)
     4.32861109E-02    2     1000021         6   # BR(~t_1 -> ~g t)
#    BR                NDA      ID1      ID2       ID3
     4.15106238E-04    3     1000022        24         5   # BR(~t_1 -> chi^0_1 W^+ b)
DECAY   2000006     1.87470986E+02   # ~t_2
#    BR                NDA      ID1      ID2
     8.11485564E-03    2     1000022         6   # BR(~t_2 -> chi^0_1 t)
     2.16154418E-01    2     1000023         6   # BR(~t_2 -> chi^0_2 t)
     2.18607936E-01    2     1000025         6   # BR(~t_2 -> chi^0_3 t)
     8.07978519E-02    2     1000035         6   # BR(~t_2 -> chi^0_4 t)
     9.25596266E-02    2     1000024         5   # BR(~t_2 -> chi^+_1 b)
     1.58591008E-01    2     1000037         5   # BR(~t_2 -> chi^+_2 b)
     1.73945063E-01    2     1000021         6   # BR(~t_2 -> ~g t)
     3.03858330E-02    2     1000006        23   # BR(~t_2 -> ~t_1 Z)
     2.08361198E-02    2     1000006        25   # BR(~t_2 -> ~t_1 h^0)
DECAY   1000024     1.73750231E-01   # chi^+_1
#    BR                NDA      ID1      ID2
     9.99999777E-01    2     1000022        24   # BR(chi^+_1 -> chi^0_1 W^+)
#    BR                NDA      ID1      ID2       ID3
DECAY   1000037     9.60753763E+00   # chi^+_2
#    BR                NDA      ID1      ID2
     6.61179951E-03    2     1000022        24   # BR(chi^+_2 -> chi^0_1 W^+)
     2.49961516E-01    2     1000023        24   # BR(chi^+_2 -> chi^0_2 W^+)
     2.43260445E-01    2     1000025        24   # BR(chi^+_2 -> chi^0_3 W^+)
     2.46912002E-01    2     1000024        23   # BR(chi^+_2 -> chi^+_1 Z)
     2.39887187E-01    2     1000024        25   # BR(chi^+_2 -> chi^+_1 h^0)
#    BR                NDA      ID1      ID2       ID3
     4.39500167E-03    3     1000024         6        -6   # BR(chi^+_2 -> chi^+_1 t t_bar)
     1.27508955E-04    3     1000022        -5         6   # BR(chi^+_2 -> chi^0_1 b_bar t)
     4.71557370E-03    3     1000023        -5         6   # BR(chi^+_2 -> chi^0_2 b_bar t)
     4.06969023E-03    3     1000025        -5         6   # BR(chi^+_2 -> chi^0_3 b_bar t)
DECAY   1000022     0.00000000E+00   # chi^0_1
DECAY   1000023     1.84327014E-01   # chi^0_2
#    BR                NDA      ID1      ID2
     9.99978755E-01    2     1000022        23   # BR(chi^0_2 -> chi^0_1 Z)
#    BR                NDA      ID1      ID2       ID3
DECAY   1000025     1.18979416E-02   # chi^0_3
#    BR                NDA      ID1      ID2
     9.99868581E-01    2     1000022        23   # BR(chi^0_3 -> chi^0_1 Z)
#    BR                NDA      ID1      ID2       ID3
DECAY   1000035     1.05143590E+01   # chi^0_4
#    BR                NDA      ID1      ID2
     2.30674882E-01    2     1000024       -24   # BR(chi^0_4 -> chi^+_1 W^-)
     2.30674882E-01    2    -1000024        24   # BR(chi^0_4 -> chi^-_1 W^+)
     1.64725637E-03    2     1000022        23   # BR(chi^0_4 -> chi^0_1 Z)
     1.73443852E-01    2     1000023        23   # BR(chi^0_4 -> chi^0_2 Z)
     5.38730814E-02    2     1000025        23   # BR(chi^0_4 -> chi^0_3 Z)
     4.36488621E-03    2     1000022        25   # BR(chi^0_4 -> chi^0_1 h^0)
     1.33560125E-01    2     1000023        25   # BR(chi^0_4 -> chi^0_2 h^0)
     1.59272478E-01    2     1000025        25   # BR(chi^0_4 -> chi^0_3 h^0)
#    BR                NDA      ID1      ID2       ID3
     1.62104275E-03    3     1000023         6        -6   # BR(chi^0_4 -> chi^0_2 t t_bar)
     1.67867404E-03    3     1000025         6        -6   # BR(chi^0_4 -> chi^0_3 t t_bar)
     4.51248328E-03    3     1000024         5        -6   # BR(chi^0_4 -> chi^+_1 b t_bar)
     4.51248328E-03    3    -1000024        -5         6   # BR(chi^0_4 -> chi^-_1 b_bar t)
DECAY   1000021     5.75998053E-01   # ~g
#    BR                NDA      ID1      ID2
     2.39143098E-03    2     1000023        21   # BR(~g -> chi^0_2 g)
     2.07621207E-03    2     1000025        21   # BR(~g -> chi^0_3 g)
#    BR                NDA      ID1      ID2       ID3
     1.64209073E-04    3     1000022         2        -2   # BR(~g -> chi^0_1 u u_bar)
     1.64210967E-04    3     1000022         4        -4   # BR(~g -> chi^0_1 c c_bar)
     3.09822741E-02    3     1000022         6        -6   # BR(~g -> chi^0_1 t t_bar)
     1.72221977E-02    3     1000022         5        -5   # BR(~g -> chi^0_1 b b_bar)
     1.97835885E-01    3     1000023         6        -6   # BR(~g -> chi^0_2 t t_bar)
     2.81777528E-02    3     1000023         5        -5   # BR(~g -> chi^0_2 b b_bar)
     1.73712345E-01    3     1000025         6        -6   # BR(~g -> chi^0_3 t t_bar)
     2.66927157E-02    3     1000025         5        -5   # BR(~g -> chi^0_3 b b_bar)
     2.27266931E-04    3     1000035         2        -2   # BR(~g -> chi^0_4 u u_bar)
     2.27267137E-04    3     1000035         4        -4   # BR(~g -> chi^0_4 c c_bar)
     1.67103096E-02    3     1000035         6        -6   # BR(~g -> chi^0_4 t t_bar)
     2.27885379E-04    3     1000035         1        -1   # BR(~g -> chi^0_4 d d_bar)
     2.27885353E-04    3     1000035         3        -3   # BR(~g -> chi^0_4 s s_bar)
     1.92571105E-02    3     1000035         5        -5   # BR(~g -> chi^0_4 b b_bar)
     2.20968504E-01    3     1000024         5        -6   # BR(~g -> chi^+_1 b t_bar)
     2.20968504E-01    3    -1000024        -5         6   # BR(~g -> chi^-_1 b_bar t)
     2.12798817E-04    3     1000037         1        -2   # BR(~g -> chi^+_2 d u_bar)
     2.12798817E-04    3    -1000037        -1         2   # BR(~g -> chi^-_2 d_bar u)
     2.12799064E-04    3     1000037         3        -4   # BR(~g -> chi^+_2 s c_bar)
     2.12799064E-04    3    -1000037        -3         4   # BR(~g -> chi^-_2 s_bar c)
     2.03375182E-02    3     1000037         5        -6   # BR(~g -> chi^+_2 b t_bar)
     2.03375182E-02    3    -1000037        -5         6   # BR(~g -> chi^-_2 b_bar t)
DECAY        25     4.04794674E-03   # Gamma(h0)
     2.47790326E-03   2        22        22   # BR(h0 -> photon photon)
     1.83348951E-03   2        22        23   # BR(h0 -> photon Z)
     3.73760395E-02   2        23        23   # BR(h0 -> Z Z)
     2.92633445E-01   2       -24        24   # BR(h0 -> W W)
     7.41092232E-02   2        21        21   # BR(h0 -> gluon gluon)
     4.57405448E-09   2       -11        11   # BR(h0 -> Electron electron)
     2.03463503E-04   2       -13        13   # BR(h0 -> Muon muon)
     5.86690628E-02   2       -15        15   # BR(h0 -> Tau tau)
     1.25559628E-07   2        -2         2   # BR(h0 -> Up up)
     2.43697288E-02   2        -4         4   # BR(h0 -> Charm charm)
     5.27380103E-07   2        -1         1   # BR(h0 -> Down down)
     1.90741625E-04   2        -3         3   # BR(h0 -> Strange strange)
     5.08136245E-01   2        -5         5   # BR(h0 -> Bottom bottom)
DECAY        35     6.76130799E+00   # Gamma(HH)
     3.51541053E-07   2        22        22   # BR(HH -> photon photon)
     3.42624133E-07   2        22        23   # BR(HH -> photon Z)
     5.43587443E-05   2        23        23   # BR(HH -> Z Z)
     5.92557909E-05   2       -24        24   # BR(HH -> W W)
     2.33238434E-05   2        21        21   # BR(HH -> gluon gluon)
     7.90216553E-09   2       -11        11   # BR(HH -> Electron electron)
     3.51741395E-04   2       -13        13   # BR(HH -> Muon muon)
     1.01571772E-01   2       -15        15   # BR(HH -> Tau tau)
     1.34814425E-12   2        -2         2   # BR(HH -> Up up)
     2.61463978E-07   2        -4         4   # BR(HH -> Charm charm)
     1.81146148E-02   2        -6         6   # BR(HH -> Top top)
     6.54996374E-07   2        -1         1   # BR(HH -> Down down)
     2.36917707E-04   2        -3         3   # BR(HH -> Strange strange)
     6.46482372E-01   2        -5         5   # BR(HH -> Bottom bottom)
     1.72395610E-02   2  -1000024   1000024   # BR(HH -> Chargino1 chargino1)
     1.05236095E-02   2  -1000024   1000037   # BR(HH -> Chargino1 chargino2)
     1.05236095E-02   2  -1000037   1000024   # BR(HH -> Chargino2 chargino1)
     3.12486769E-02   2   1000022   1000022   # BR(HH -> neutralino1 neutralino1)
     8.63784134E-02   2   1000022   1000023   # BR(HH -> neutralino1 neutralino2)
     5.17621059E-02   2   1000022   1000025   # BR(HH -> neutralino1 neutralino3)
     2.21130706E-03   2   1000022   1000035   # BR(HH -> neutralino1 neutralino4)
     5.18420272E-03   2   1000023   1000023   # BR(HH -> neutralino2 neutralino2)
     1.24380695E-02   2   1000023   1000025   # BR(HH -> neutralino2 neutralino3)
     5.24964594E-03   2   1000025   1000025   # BR(HH -> neutralino3 neutralino3)
     3.44824332E-04   2        25        25   # BR(HH -> h0 h0)
DECAY        36     6.79401482E+00   # Gamma(A0)
     8.05361496E-07   2        22        22   # BR(A0 -> photon photon)
     4.70160990E-07   2        22        23   # BR(A0 -> photon Z)
     1.09105303E-04   2        21        21   # BR(A0 -> gluon gluon)
     7.80081200E-09   2       -11        11   # BR(A0 -> Electron electron)
     3.47230441E-04   2       -13        13   # BR(A0 -> Muon muon)
     1.00270095E-01   2       -15        15   # BR(A0 -> Tau tau)
     1.28508640E-12   2        -2         2   # BR(A0 -> Up up)
     2.49227771E-07   2        -4         4   # BR(A0 -> Charm charm)
     1.89540196E-02   2        -6         6   # BR(A0 -> Top top)
     6.46594031E-07   2        -1         1   # BR(A0 -> Down down)
     2.33878593E-04   2        -3         3   # BR(A0 -> Strange strange)
     6.38207830E-01   2        -5         5   # BR(A0 -> Bottom bottom)
     2.07582928E-02   2  -1000024   1000024   # BR(A0 -> Chargino1 chargino1)
     1.03734471E-02   2  -1000024   1000037   # BR(A0 -> Chargino1 chargino2)
     1.03734471E-02   2  -1000037   1000024   # BR(A0 -> Chargino2 chargino1)
     3.72387747E-02   2   1000022   1000022   # BR(A0 -> neutralino1 neutralino1)
     6.10885235E-02   2   1000022   1000023   # BR(A0 -> neutralino1 neutralino2)
     7.11896452E-02   2   1000022   1000025   # BR(A0 -> neutralino1 neutralino3)
     8.01852342E-03   2   1000022   1000035   # BR(A0 -> neutralino1 neutralino4)
     4.68871347E-03   2   1000023   1000023   # BR(A0 -> neutralino2 neutralino2)
     1.04408234E-02   2   1000023   1000025   # BR(A0 -> neutralino2 neutralino3)
     7.63085948E-03   2   1000025   1000025   # BR(A0 -> neutralino3 neutralino3)
     7.46112212E-05   2        23        25   # BR(A0 -> Z h0)
     3.74377502E-36   2        25        25   # BR(A0 -> h0 h0)
DECAY        37     6.94235043E+00   # Gamma(Hp)
     8.82233932E-09   2       -11        12   # BR(Hp -> Electron nu_e)
     3.77182556E-04   2       -13        14   # BR(Hp -> Muon nu_mu)
     1.06688278E-01   2       -15        16   # BR(Hp -> Tau nu_tau)
     6.35959666E-07   2        -1         2   # BR(Hp -> Down up)
     1.06132952E-05   2        -3         2   # BR(Hp -> Strange up)
     7.03180158E-06   2        -5         2   # BR(Hp -> Bottom up)
     4.38341589E-08   2        -1         4   # BR(Hp -> Down charm)
     2.29509571E-04   2        -3         4   # BR(Hp -> Strange charm)
     9.84702398E-04   2        -5         4   # BR(Hp -> Bottom charm)
     1.52744378E-06   2        -1         6   # BR(Hp -> Down top)
     3.36268657E-05   2        -3         6   # BR(Hp -> Strange top)
     6.71317078E-01   2        -5         6   # BR(Hp -> Bottom top)
     1.59721674E-01   2   1000022   1000024   # BR(Hp -> neutralino1 chargino1)
     1.04487876E-02   2   1000022   1000037   # BR(Hp -> neutralino1 chargino2)
     6.99847274E-04   2   1000023   1000024   # BR(Hp -> neutralino2 chargino1)
     3.25828331E-02   2   1000024   1000025   # BR(Hp -> chargino1 neutralino3)
     1.68226429E-02   2   1000024   1000035   # BR(Hp -> chargino1 neutralino4)
     7.39763184E-05   2        24        25   # BR(Hp -> W h0)
     1.00175594E-10   2        24        35   # BR(Hp -> W HH)
     9.52763783E-11   2        24        36   # BR(Hp -> W A0)
DECAY         6     2.43000000E+00   # top
#    BR                NDA      ID1      ID2
     1.00000000E+00    2           5        24   # BR(t -> b W)
Block HiggsBoundsInputHiggsCouplingsFermions
# ScalarNormEffCoupSq PseudoSNormEffCoupSq NP IP1 IP2 IP2
    9.39212379E-01    0.00000000E+00        3  25   5   5  # h0-b-b eff. coupling^2, normalised to SM
    2.81564491E+02    0.00000000E+00        3  35   5   5  # H0-b-b eff. coupling^2, normalised to SM
    0.00000000E+00    2.81503703E+02        3  36   5   5  # A0-b-b eff. coupling^2, normalised to SM
#
    1.00021594E+00    0.00000000E+00        3  25   6   6  # h0-t-t eff. coupling^2, normalised to SM
    3.33641216E-03    0.00000000E+00        3  35   6   6  # H0-t-t eff. coupling^2, normalised to SM
    0.00000000E+00    3.55235113E-03        3  36   6   6  # A0-t-t eff. coupling^2, normalised to SM
#
    9.39212379E-01    0.00000000E+00        3  25  15  15  # h0-tau-tau eff. coupling^2, normalised to SM
    2.81564491E+02    0.00000000E+00        3  35  15  15  # H0-tau-tau eff. coupling^2, normalised to SM
    0.00000000E+00    2.81503703E+02        3  36  15  15  # A0-tau-tau eff. coupling^2, normalised to SM
#
Block HiggsBoundsInputHiggsCouplingsBosons
    9.99996615E-01        3  25  24  24  # h0-W-W eff. coupling^2, normalised to SM
    3.38493169E-06        3  35  24  24  # H0-W-W eff. coupling^2, normalised to SM
    0.00000000E+00        3  36  24  24  # A0-W-W eff. coupling^2, normalised to SM
#
    9.99996615E-01        3  25  23  23  # h0-Z-Z eff. coupling^2, normalised to SM
    3.38493169E-06        3  35  23  23  # H0-Z-Z eff. coupling^2, normalised to SM
    0.00000000E+00        3  36  23  23  # A0-Z-Z eff. coupling^2, normalised to SM
#
    1.26736689E+00        3  25  21  21  # h0-g-g eff. coupling^2, normalised to SM
    3.18528300E-03        3  35  21  21  # H0-g-g eff. coupling^2, normalised to SM
    1.04684665E-01        3  36  21  21  # A0-g-g eff. coupling^2, normalised to SM
#
    0.00000000E+00        3  25  25  23  # h0-h0-Z eff. coupling^2, normalised to SM
    0.00000000E+00        3  35  25  23  # H0-h0-Z eff. coupling^2, normalised to SM
    3.38493169E-06        3  36  25  23  # A0-h0-Z eff. coupling^2, normalised to SM
    0.00000000E+00        3  35  35  23  # H0-H0-Z eff. coupling^2, normalised to SM
    9.99996615E-01        3  36  35  23  # A0-H0-Z eff. coupling^2, normalised to SM
    0.00000000E+00        3  36  36  23  # A0-A0-Z eff. coupling^2, normalised to SM
#
    0.00000000E+00        4  25  21  21  23  # h0-g-g-Z eff. coupling^2, normalised to SM
    0.00000000E+00        4  35  21  21  23  # H0-g-g-Z eff. coupling^2, normalised to SM
    0.00000000E+00        4  36  21  21  23  # A0-g-g-Z eff. coupling^2, normalised to SM
Block SPhenoLowEnergy  # low energy observables
    1    3.43820936E-04   # BR(b -> s gamma)
    2    1.58832836E-06   # BR(b -> s mu+ mu-)
    3    3.52603549E-05   # BR(b -> s nu nu)
    4    2.88161144E-15   # BR(Bd -> e+ e-)
    5    1.23099046E-10   # BR(Bd -> mu+ mu-)
    6    2.57622997E-08   # BR(Bd -> tau+ tau-)
    7    9.77644952E-14   # BR(Bs -> e+ e-)
    8    4.17649181E-09   # BR(Bs -> mu+ mu-)
    9    8.85613198E-07   # BR(Bs -> tau+ tau-)
   10    9.55046306E-05   # BR(B_u -> tau nu)
   11    9.86526270E-01   # BR(B_u -> tau nu)/BR(B_u -> tau nu)_SM
   12    5.42107792E-01   # |Delta(M_Bd)| [ps^-1] 
   13    1.93637029E+01   # |Delta(M_Bs)| [ps^-1] 
   14    0.00000000E+00   # neutron EDM according to the chiral quark model
   15    0.00000000E+00   # neutron EDM according to the relativistic quark-parton model
   16    2.15787637E-03   # epsilon_K
   17    2.28166541E-15   # Delta(M_K)
   18    2.48033591E-11   # BR(K^0 -> pi^0 nu nu)
   19    8.29134063E-11   # BR(K^+ -> pi^+ nu nu)
   20    1.48359965E-16   # Delta(g-2)_electron/2
   21    6.34285674E-12   # Delta(g-2)_muon/2
   22    1.79450149E-09   # Delta(g-2)_tau/2
   23    0.00000000E+00   # electric dipole moment of the electron
   24    0.00000000E+00   # electric dipole moment of the muon
   25    0.00000000E+00   # electric dipole moment of the tau
   26    0.00000000E+00   # Br(mu -> e gamma)
   27    0.00000000E+00   # Br(tau -> e gamma)
   28    0.00000000E+00   # Br(tau -> mu gamma)
   29    0.00000000E+00   # Br(mu -> 3 e)
   30    0.00000000E+00   # Br(tau -> 3 e)
   31    0.00000000E+00   # Br(tau -> 3 mu)
   39    4.03476133E-05   # Delta(rho_parameter)
   40    0.00000000E+00   # BR(Z -> e mu)
   41    0.00000000E+00   # BR(Z -> e tau)
   42    0.00000000E+00   # BR(Z -> mu tau)
Block FWCOEF Q=  1.60000000E+02  # Wilson coefficients at scale Q
#    id        order  M        value         comment
     0305 4422   00   0    -1.88819110E-01   # C7
     0305 4422   00   2    -2.11720282E-01   # C7
     0305 4322   00   2    -5.21775389E-04   # C7'
     0305 6421   00   0    -9.52278348E-02   # C8
     0305 6421   00   2    -1.26107410E-01   # C8
     0305 6321   00   2    -6.46171412E-04   # C8'
 03051111 4133   00   0     1.62639196E+00   # C9 e+e-
 03051111 4133   00   2     1.62670364E+00   # C9 e+e-
 03051111 4233   00   2     5.50759534E-05   # C9' e+e-
 03051111 4137   00   0    -4.44908406E+00   # C10 e+e-
 03051111 4137   00   2    -4.44818637E+00   # C10 e+e-
 03051111 4237   00   2    -4.07008868E-04   # C10' e+e-
 03051313 4133   00   0     1.62639196E+00   # C9 mu+mu-
 03051313 4133   00   2     1.62670361E+00   # C9 mu+mu-
 03051313 4233   00   2     5.50756562E-05   # C9' mu+mu-
 03051313 4137   00   0    -4.44908406E+00   # C10 mu+mu-
 03051313 4137   00   2    -4.44818640E+00   # C10 mu+mu-
 03051313 4237   00   2    -4.07008587E-04   # C10' mu+mu-
 03051212 4137   00   0     1.50535012E+00   # C11 nu_1 nu_1
 03051212 4137   00   2     1.50515755E+00   # C11 nu_1 nu_1
 03051212 4237   00   2     8.80156169E-05   # C11' nu_1 nu_1
 03051414 4137   00   0     1.50535012E+00   # C11 nu_2 nu_2
 03051414 4137   00   2     1.50515755E+00   # C11 nu_2 nu_2
 03051414 4237   00   2     8.80156803E-05   # C11' nu_2 nu_2
 03051616 4137   00   0     1.50535012E+00   # C11 nu_3 nu_3
 03051616 4137   00   2     1.50515755E+00   # C11 nu_3 nu_3
 03051616 4237   00   2     8.80335423E-05   # C11' nu_3 nu_3
Block IMFWCOEF Q=  1.60000000E+02  # Im(Wilson coefficients) at scale Q
#    id        order  M        value         comment
     0305 4422   00   0     3.85826447E-07   # C7
     0305 4422   00   2     2.59704458E-06   # C7
     0305 4322   00   2     6.41507716E-07   # C7'
     0305 6421   00   0     3.30485868E-07   # C8
     0305 6421   00   2     7.33781868E-06   # C8
     0305 6321   00   2     3.77488782E-07   # C8'
 03051111 4133   00   2     3.63638970E-07   # C9 e+e-
 03051111 4233   00   2     1.56539146E-06   # C9' e+e-
 03051111 4137   00   2     6.02392751E-07   # C10 e+e-
 03051111 4237   00   2    -1.15785833E-05   # C10' e+e-
 03051313 4133   00   2     3.63638293E-07   # C9 mu+mu-
 03051313 4233   00   2     1.56539138E-06   # C9' mu+mu-
 03051313 4137   00   2     6.02393403E-07   # C10 mu+mu-
 03051313 4237   00   2    -1.15785835E-05   # C10' mu+mu-
 03051212 4137   00   2    -1.02600628E-07   # C11 nu_1 nu_1
 03051212 4237   00   2     2.50387671E-06   # C11' nu_1 nu_1
 03051414 4137   00   2    -1.02600597E-07   # C11 nu_2 nu_2
 03051414 4237   00   2     2.50387671E-06   # C11' nu_2 nu_2
 03051616 4137   00   2    -1.02591813E-07   # C11 nu_3 nu_3
 03051616 4237   00   2     2.50387670E-06   # C11' nu_3 nu_3
