# SUSY Les Houches Accord 2 - MSSM spectrum + Decays
# SPheno v4.0.5be
# W. Porod, Comput. Phys. Commun. 153 (2003) 275-315, hep-ph/0301101;
# W. Porod, F.~Staub, Comput. Phys. Commun. 183 (2012) 2458
#                     arXiv:1104.1573 [hep-ph] 
# in case of problems send email to porod@physik.uni-wuerzburg.de
# Created: 07.09.2021,  18:16
Block SPINFO         # Program information
     1   SPheno      # spectrum calculator
     2   v4.0.5be    # version number
#
Block SPhenoINFO     # SPheno specific information
    1      2         # using 2-loop RGEs
    2      2         # using pole masses for boundary conditions at mZ
Block MODSEL  # Model selection
    1    0    # general MSSM
Block MINPAR  # Input parameters
    3    4.92669921E+00  # tanb at m_Z    
    4    1.00000000E+00  # Sign(mu)
Block EXTPAR  # non-universal input parameters
    0    2.18910667E+03  # scale for input parameters
    1   -1.91622064E+02  # M_1
    2    1.65381415E+03  # M_2
    3    1.58526412E+03  # M_3
   11    4.00984409E+03  # A_t
   12   -1.29349743E+03  # A_b
   13   -1.46379185E+03  # A_tau
   23    2.22988045E+02  # mu
   25    4.69241585E+00  # tan(beta)
   26    3.06373414E+03  # m_A, pole mass
   31    1.00000000E+04  # M_L11
   32    1.00000000E+04  # M_L22
   33    1.00000000E+04  # M_L33
   34    1.00000000E+04  # M_E11
   35    1.00000000E+04  # M_E22
   36    1.00000000E+04  # M_E33
   41    1.00000000E+04  # M_Q11
   42    1.00000000E+04  # M_Q22
   43    2.35405364E+03  # M_Q33
   44    1.00000000E+04  # M_U11
   45    1.00000000E+04  # M_U22
   46    2.06223432E+03  # M_U33
   47    1.00000000E+04  # M_D11
   48    1.00000000E+04  # M_D22
   49    3.78066732E+03  # M_D33
Block SMINPUTS  # SM parameters
         1     1.27908970E+02  # alpha_em^-1(MZ)^MSbar
         2     1.16637870E-05  # G_mu [GeV^-2]
         3     1.18400000E-01  # alpha_s(MZ)^MSbar
         4     9.11876000E+01  # m_Z(pole)
         5     4.18000000E+00  # m_b(m_b), MSbar
         6     1.73200000E+02  # m_t(pole)
         7     1.77700000E+00  # m_tau(pole)
         8     0.00000000E+00  # m_nu_3
        11     5.10998930E-04  # m_e(pole)
        12     0.00000000E+00  # m_nu_1
        13     1.05658372E-01  # m_muon(pole)
        14     0.00000000E+00  # m_nu_2
        21     5.00000000E-03  # m_d(2 GeV), MSbar
        22     2.50000000E-03  # m_u(2 GeV), MSbar
        23     9.50000000E-02  # m_s(2 GeV), MSbar
        24     1.27000000E+00  # m_c(m_c), MSbar
Block gauge Q=  2.18910667E+03  # (SUSY scale)
   1    3.55362975E-01  # g'(Q)^DRbar
   2    6.65198874E-01  # g(Q)^DRbar
   3    1.21977796E+00  # g3(Q)^DRbar
Block Yu Q=  2.18910667E+03  # (SUSY scale)
  1  1     8.57264968E-06   # Y_u(Q)^DRbar
  2  2     4.35490604E-03   # Y_c(Q)^DRbar
  3  3     1.03564494E+00   # Y_t(Q)^DRbar
Block Yd Q=  2.18910667E+03  # (SUSY scale)
  1  1     8.08335807E-05   # Y_d(Q)^DRbar
  2  2     1.53583803E-03   # Y_s(Q)^DRbar
  3  3     8.01615825E-02   # Y_b(Q)^DRbar
Block Ye Q=  2.18910667E+03  # (SUSY scale)
  1  1     1.41060509E-05   # Y_e(Q)^DRbar
  2  2     2.91668395E-03   # Y_mu(Q)^DRbar
  3  3     4.90538258E-02   # Y_tau(Q)^DRbar
Block Au Q=  2.18910667E+03  # (SUSY scale)
  1  1     0.00000000E+00   # A_u(Q)^DRbar
  2  2     0.00000000E+00   # A_c(Q)^DRbar
  3  3     4.00984408E+03   # A_t(Q)^DRbar
Block Ad Q=  2.18910667E+03  # (SUSY scale)
  1  1     0.00000000E+00   # A_d(Q)^DRbar
  2  2     0.00000000E+00   # A_s(Q)^DRbar
  3  3    -1.29349743E+03   # A_b(Q)^DRbar
Block Ae Q=  2.18910667E+03  # (SUSY scale)
  1  1     0.00000000E+00   # A_e(Q)^DRbar
  2  2     0.00000000E+00   # A_mu(Q)^DRbar
  3  3    -1.46379185E+03   # A_tau(Q)^DRbar
Block MSOFT Q=  2.18910667E+03  # soft SUSY breaking masses at Q
   1   -1.91622064E+02  # M_1
   2    1.65381415E+03  # M_2
   3    1.58526412E+03  # M_3
  21    8.89739095E+06  # M^2_(H,d)
  22    4.34551307E+05  # M^2_(H,u)
  31    1.00000000E+04  # M_(L,11)
  32    1.00000000E+04  # M_(L,22)
  33    1.00000000E+04  # M_(L,33)
  34    1.00000000E+04  # M_(E,11)
  35    1.00000000E+04  # M_(E,22)
  36    1.00000000E+04  # M_(E,33)
  41    1.00000000E+04  # M_(Q,11)
  42    1.00000000E+04  # M_(Q,22)
  43    2.35405364E+03  # M_(Q,33)
  44    1.00000000E+04  # M_(U,11)
  45    1.00000000E+04  # M_(U,22)
  46    2.06223432E+03  # M_(U,33)
  47    1.00000000E+04  # M_(D,11)
  48    1.00000000E+04  # M_(D,22)
  49    3.78066732E+03  # M_(D,33)
Block MASS  # Mass spectrum
#   PDG code      mass          particle
         6     1.73200000E+02  # m_t(pole)
        23     9.11876000E+01  # m_Z(pole)
        24     8.04299946E+01  # W+
        15     1.77700000E+00  # m_tau(pole)
        25     1.21924368E+02  # h0
        35     3.06368527E+03  # H0
        36     3.06373414E+03  # A0
        37     3.06473778E+03  # H+
   1000001     1.01154502E+04  # ~d_L
   2000001     1.00926834E+04  # ~d_R
   1000002     1.01151173E+04  # ~u_L
   2000002     1.00958518E+04  # ~u_R
   1000003     1.01154517E+04  # ~s_L
   2000003     1.00926837E+04  # ~s_R
   1000004     1.01151189E+04  # ~c_L
   2000004     1.00958546E+04  # ~c_R
   1000005     2.36073120E+03  # ~b_1
   2000005     3.82183699E+03  # ~b_2
   1000006     1.99759324E+03  # ~t_1
   2000006     2.39898089E+03  # ~t_2
   1000011     1.00191225E+04  # ~e_L-
   2000011     1.00088571E+04  # ~e_R-
   1000012     1.00183921E+04  # ~nu_eL
   1000013     1.00191233E+04  # ~mu_L-
   2000013     1.00088587E+04  # ~mu_R-
   1000014     1.00183930E+04  # ~nu_muL
   1000015     1.00093227E+04  # ~tau_1-
   2000015     1.00193683E+04  # ~tau_2-
   1000016     1.00186326E+04  # ~nu_tauL
   1000021     1.92080044E+03  # ~g
   1000022     1.83994500E+02  # ~chi_10
   1000023     2.27023988E+02  # ~chi_20
   1000025     2.41072347E+02  # ~chi_30
   1000035     1.75860252E+03  # ~chi_40
   1000024     2.24663738E+02  # ~chi_1+
   1000037     1.75856404E+03  # ~chi_2+
# Higgs mixing
Block alpha # Effective Higgs mixing angle
          -2.00727032E-01   # alpha
Block Hmix Q=  2.18910667E+03  # Higgs mixing parameters
   1    2.22988045E+02  # mu
   2    4.69241585E+00  # tan[beta](Q)
   3    2.43579170E+02  # v(Q)
   4    9.38646688E+06  # m^2_A(Q)
Block stopmix # stop mixing matrix
   1  1    -3.11661523E-01   # Re[R_st(1,1)]
   1  2     9.50193188E-01   # Re[R_st(1,2)]
   2  1    -9.50193188E-01   # Re[R_st(2,1)]
   2  2    -3.11661523E-01   # Re[R_st(2,2)]
Block sbotmix # sbottom mixing matrix
   1  1     9.99999817E-01   # Re[R_sb(1,1)]
   1  2     6.05617118E-04   # Re[R_sb(1,2)]
   2  1    -6.05617118E-04   # Re[R_sb(2,1)]
   2  2     9.99999817E-01   # Re[R_sb(2,2)]
Block staumix # stau mixing matrix
   1  1     2.21976157E-02   # Re[R_sta(1,1)]
   1  2     9.99753603E-01   # Re[R_sta(1,2)]
   2  1    -9.99753603E-01   # Re[R_sta(2,1)]
   2  2     2.21976157E-02   # Re[R_sta(2,2)]
Block Nmix # neutralino mixing matrix
   1  1     8.64342797E-01   # Re[N(1,1)]
   1  2     8.57132213E-03   # Re[N(1,2)]
   1  3     4.06221410E-01   # Re[N(1,3)]
   1  4     2.96348152E-01   # Re[N(1,4)]
   2  1    -8.83648943E-02   # Re[N(2,1)]
   2  2    -4.38039647E-02   # Re[N(2,2)]
   2  3     7.02861398E-01   # Re[N(2,3)]
   2  4    -7.04456325E-01   # Re[N(2,4)]
   3  1    -4.95077558E-01   # Re[N(3,1)]
   3  2     2.04075786E-02   # Re[N(3,2)]
   3  3     5.83722946E-01   # Re[N(3,3)]
   3  4     6.43233445E-01   # Re[N(3,4)]
   4  1     1.17737790E-03   # Re[N(4,1)]
   4  2    -9.98794912E-01   # Re[N(4,2)]
   4  3    -1.54124627E-02   # Re[N(4,3)]
   4  4     4.65810468E-02   # Re[N(4,4)]
Block Umix # chargino mixing matrix
   1  1    -2.17722675E-02   # Re[U(1,1)]
   1  2     9.99762956E-01   # Re[U(1,2)]
   2  1     9.99762956E-01   # Re[U(2,1)]
   2  2     2.17722675E-02   # Re[U(2,2)]
Block Vmix # chargino mixing matrix
   1  1    -6.58498642E-02   # Re[V(1,1)]
   1  2     9.97829542E-01   # Re[V(1,2)]
   2  1     9.97829542E-01   # Re[V(2,1)]
   2  2     6.58498642E-02   # Re[V(2,2)]
DECAY        23     2.49520000E+00   # Z
DECAY        24     2.08500000E+00   # W
DECAY   2000011     5.02507554E+01   # ~e^-_R
#    BR                NDA      ID1      ID2
     7.47179319E-01    2     1000022        11   # BR(~e^-_R -> chi^0_1 e^-)
     7.80654635E-03    2     1000023        11   # BR(~e^-_R -> chi^0_2 e^-)
     2.45012831E-01    2     1000025        11   # BR(~e^-_R -> chi^0_3 e^-)
DECAY   1000011     1.36860046E+02   # ~e^-_L
#    BR                NDA      ID1      ID2
     7.12282214E-02    2     1000022        11   # BR(~e^-_L -> chi^0_1 e^-)
     2.66619161E-03    2     1000023        11   # BR(~e^-_L -> chi^0_2 e^-)
     1.91731253E-02    2     1000025        11   # BR(~e^-_L -> chi^0_3 e^-)
     3.01564697E-01    2     1000035        11   # BR(~e^-_L -> chi^0_4 e^-)
     3.05180399E-04    2    -1000024        12   # BR(~e^-_L -> chi^-_1 nu_e)
     6.05062584E-01    2    -1000037        12   # BR(~e^-_L -> chi^-_2 nu_e)
#    BR                NDA      ID1      ID2       ID3
DECAY   2000013     5.02541477E+01   # ~mu^-_R
#    BR                NDA      ID1      ID2
     7.47134558E-01    2     1000022        13   # BR(~mu^-_R -> chi^0_1 mu^-)
     7.82265525E-03    2     1000023        13   # BR(~mu^-_R -> chi^0_2 mu^-)
     2.45007804E-01    2     1000025        13   # BR(~mu^-_R -> chi^0_3 mu^-)
DECAY   1000013     1.36861752E+02   # ~mu^-_L
#    BR                NDA      ID1      ID2
     7.12293825E-02    2     1000022        13   # BR(~mu^-_L -> chi^0_1 mu^-)
     2.67227266E-03    2     1000023        13   # BR(~mu^-_L -> chi^0_2 mu^-)
     1.91771041E-02    2     1000025        13   # BR(~mu^-_L -> chi^0_3 mu^-)
     3.01560968E-01    2     1000035        13   # BR(~mu^-_L -> chi^0_4 mu^-)
     3.05176619E-04    2    -1000024        14   # BR(~mu^-_L -> chi^-_1 nu_mu)
     6.05055096E-01    2    -1000037        14   # BR(~mu^-_L -> chi^-_2 nu_mu)
#    BR                NDA      ID1      ID2       ID3
DECAY   1000015     5.12533837E+01   # ~tau^-_1
#    BR                NDA      ID1      ID2
     7.34602882E-01    2     1000022        15   # BR(~tau^-_1 -> chi^0_1 tau^-)
     1.22582256E-02    2     1000023        15   # BR(~tau^-_1 -> chi^0_2 tau^-)
     2.42659248E-01    2     1000025        15   # BR(~tau^-_1 -> chi^0_3 tau^-)
     3.42138132E-04    2     1000035        15   # BR(~tau^-_1 -> chi^0_4 tau^-)
     9.45316106E-03    2    -1000024        16   # BR(~tau^-_1 -> chi^-_1 nu_tau)
     6.84345830E-04    2    -1000037        16   # BR(~tau^-_1 -> chi^-_2 nu_tau)
DECAY   2000015     1.37299937E+02   # ~tau^-_2
#    BR                NDA      ID1      ID2
     7.14042604E-02    2     1000022        15   # BR(~tau^-_2 -> chi^0_1 tau^-)
     4.38533903E-03    2     1000023        15   # BR(~tau^-_2 -> chi^0_2 tau^-)
     2.05827684E-02    2     1000025        15   # BR(~tau^-_2 -> chi^0_3 tau^-)
     3.00481051E-01    2     1000035        15   # BR(~tau^-_2 -> chi^0_4 tau^-)
     2.60057776E-04    2    -1000024        16   # BR(~tau^-_2 -> chi^-_1 nu_tau)
     6.02886524E-01    2    -1000037        16   # BR(~tau^-_2 -> chi^-_2 nu_tau)
#    BR                NDA      ID1      ID2       ID3
DECAY   1000012     1.36862261E+02   # ~nu_e
#    BR                NDA      ID1      ID2
     6.61245837E-02    2     1000022        12   # BR(~nu_e -> chi^0_1 nu_e)
     2.61194134E-02    2     1000025        12   # BR(~nu_e -> chi^0_3 nu_e)
     3.02295548E-01    2     1000035        12   # BR(~nu_e -> chi^0_4 nu_e)
     2.79138906E-03    2     1000024        11   # BR(~nu_e -> chi^+_1 e^-)
     6.02665340E-01    2     1000037        11   # BR(~nu_e -> chi^+_2 e^-)
#    BR                NDA      ID1      ID2       ID3
DECAY   1000014     1.36863968E+02   # ~nu_mu
#    BR                NDA      ID1      ID2
     6.61237647E-02    2     1000022        14   # BR(~nu_mu -> chi^0_1 nu_mu)
     2.61190899E-02    2     1000025        14   # BR(~nu_mu -> chi^0_3 nu_mu)
     3.02291807E-01    2     1000035        14   # BR(~nu_mu -> chi^0_4 nu_mu)
     2.80372417E-03    2     1000024        13   # BR(~nu_mu -> chi^+_1 mu^-)
     6.02657888E-01    2     1000037        13   # BR(~nu_mu -> chi^+_2 mu^-)
#    BR                NDA      ID1      ID2       ID3
DECAY   1000016     1.37345039E+02   # ~nu_tau
#    BR                NDA      ID1      ID2
     6.58937345E-02    2     1000022        16   # BR(~nu_tau -> chi^0_1 nu_tau)
     2.60282279E-02    2     1000025        16   # BR(~nu_tau -> chi^0_3 nu_tau)
     3.01241106E-01    2     1000035        16   # BR(~nu_tau -> chi^0_4 nu_tau)
     6.26840613E-03    2     1000024        15   # BR(~nu_tau -> chi^+_1 tau^-)
     6.00564813E-01    2     1000037        15   # BR(~nu_tau -> chi^+_2 tau^-)
#    BR                NDA      ID1      ID2       ID3
DECAY   2000001     7.45614898E+02   # ~d_R
#    BR                NDA      ID1      ID2
     5.64205598E-03    2     1000022         1   # BR(~d_R -> chi^0_1 d)
     1.85014164E-03    2     1000025         1   # BR(~d_R -> chi^0_3 d)
     9.92448841E-01    2     1000021         1   # BR(~d_R -> ~g d)
DECAY   1000001     8.68941060E+02   # ~d_L
#    BR                NDA      ID1      ID2
     1.08171419E-03    2     1000022         1   # BR(~d_L -> chi^0_1 d)
     6.03263442E-04    2     1000025         1   # BR(~d_L -> chi^0_3 d)
     4.80922462E-02    2     1000035         1   # BR(~d_L -> chi^0_4 d)
     9.63308455E-02    2    -1000037         2   # BR(~d_L -> chi^-_2 u)
     8.53803073E-01    2     1000021         1   # BR(~d_L -> ~g d)
DECAY   2000003     7.45615867E+02   # ~s_R
#    BR                NDA      ID1      ID2
     5.64215323E-03    2     1000022         3   # BR(~s_R -> chi^0_1 s)
     1.85035493E-03    2     1000025         3   # BR(~s_R -> chi^0_3 s)
     9.92447585E-01    2     1000021         3   # BR(~s_R -> ~g s)
DECAY   1000003     8.68945492E+02   # ~s_L
#    BR                NDA      ID1      ID2
     1.08179865E-03    2     1000022         3   # BR(~s_L -> chi^0_1 s)
     6.03445885E-04    2     1000025         3   # BR(~s_L -> chi^0_3 s)
     4.80920090E-02    2     1000035         3   # BR(~s_L -> chi^0_4 s)
     9.63303884E-02    2    -1000037         4   # BR(~s_L -> chi^-_2 c)
     8.53798863E-01    2     1000021         3   # BR(~s_L -> ~g s)
DECAY   1000005     9.52677121E+01   # ~b_1
#    BR                NDA      ID1      ID2
     2.79608214E-03    2     1000022         5   # BR(~b_1 -> chi^0_1 b)
     1.62017428E-03    2     1000023         5   # BR(~b_1 -> chi^0_2 b)
     2.31310851E-03    2     1000025         5   # BR(~b_1 -> chi^0_3 b)
     2.15618540E-02    2     1000035         5   # BR(~b_1 -> chi^0_4 b)
     5.11202761E-01    2    -1000024         6   # BR(~b_1 -> chi^-_1 t)
     4.33407576E-02    2    -1000037         6   # BR(~b_1 -> chi^-_2 t)
     2.23419581E-01    2     1000021         5   # BR(~b_1 -> ~g b)
     1.93745682E-01    2     1000006       -24   # BR(~b_1 -> ~t_1 W^-)
DECAY   2000005     1.71615083E+02   # ~b_2
#    BR                NDA      ID1      ID2
     9.70903056E-03    2     1000022         5   # BR(~b_2 -> chi^0_1 b)
     1.49306558E-03    2     1000023         5   # BR(~b_2 -> chi^0_2 b)
     3.98932797E-03    2     1000025         5   # BR(~b_2 -> chi^0_3 b)
     2.81406023E-03    2    -1000024         6   # BR(~b_2 -> chi^-_1 t)
     9.81950174E-01    2     1000021         5   # BR(~b_2 -> ~g b)
DECAY   2000002     7.62779958E+02   # ~u_R
#    BR                NDA      ID1      ID2
     2.20672981E-02    2     1000022         2   # BR(~u_R -> chi^0_1 u)
     2.30561024E-04    2     1000023         2   # BR(~u_R -> chi^0_2 u)
     7.23630329E-03    2     1000025         2   # BR(~u_R -> chi^0_3 u)
     9.70465799E-01    2     1000021         2   # BR(~u_R -> ~g u)
DECAY   1000002     8.68930736E+02   # ~u_L
#    BR                NDA      ID1      ID2
     1.35189698E-03    2     1000022         2   # BR(~u_L -> chi^0_1 u)
     1.81451442E-04    2     1000023         2   # BR(~u_L -> chi^0_2 u)
     2.34935083E-04    2     1000025         2   # BR(~u_L -> chi^0_3 u)
     4.80506748E-02    2     1000035         2   # BR(~u_L -> chi^0_4 u)
     4.43916789E-04    2     1000024         1   # BR(~u_L -> chi^+_1 d)
     9.59562110E-02    2     1000037         1   # BR(~u_L -> chi^+_2 d)
     8.53780914E-01    2     1000021         2   # BR(~u_L -> ~g u)
DECAY   2000004     7.62787778E+02   # ~c_R
#    BR                NDA      ID1      ID2
     2.20675164E-02    2     1000022         4   # BR(~c_R -> chi^0_1 c)
     2.33034694E-04    2     1000023         4   # BR(~c_R -> chi^0_2 c)
     7.23829301E-03    2     1000025         4   # BR(~c_R -> chi^0_3 c)
     9.70456120E-01    2     1000021         4   # BR(~c_R -> ~g c)
DECAY   1000004     8.68935147E+02   # ~c_L
#    BR                NDA      ID1      ID2
     1.35227552E-03    2     1000022         4   # BR(~c_L -> chi^0_1 c)
     1.83627703E-04    2     1000023         4   # BR(~c_L -> chi^0_2 c)
     2.36749346E-04    2     1000025         4   # BR(~c_L -> chi^0_3 c)
     4.80504484E-02    2     1000035         4   # BR(~c_L -> chi^0_4 c)
     4.44458533E-04    2     1000024         3   # BR(~c_L -> chi^+_1 s)
     9.59557412E-02    2     1000037         3   # BR(~c_L -> chi^+_2 s)
     8.53776699E-01    2     1000021         4   # BR(~c_L -> ~g c)
DECAY   1000006     8.11985610E+01   # ~t_1
#    BR                NDA      ID1      ID2
     1.00663204E-01    2     1000022         6   # BR(~t_1 -> chi^0_1 t)
     2.53951265E-01    2     1000023         6   # BR(~t_1 -> chi^0_2 t)
     1.95229467E-01    2     1000025         6   # BR(~t_1 -> chi^0_3 t)
     6.80804339E-04    2     1000035         6   # BR(~t_1 -> chi^0_4 t)
     4.47636422E-01    2     1000024         5   # BR(~t_1 -> chi^+_1 b)
     1.82841933E-03    2     1000037         5   # BR(~t_1 -> chi^+_2 b)
#    BR                NDA      ID1      ID2       ID3
DECAY   2000006     1.13261889E+02   # ~t_2
#    BR                NDA      ID1      ID2
     2.80634526E-02    2     1000022         6   # BR(~t_2 -> chi^0_1 t)
     2.16019382E-01    2     1000023         6   # BR(~t_2 -> chi^0_2 t)
     2.02893156E-01    2     1000025         6   # BR(~t_2 -> chi^0_3 t)
     1.69136565E-02    2     1000035         6   # BR(~t_2 -> chi^0_4 t)
     5.71558693E-02    2     1000024         5   # BR(~t_2 -> chi^+_1 b)
     3.34990497E-02    2     1000037         5   # BR(~t_2 -> chi^+_2 b)
     2.35945925E-01    2     1000021         6   # BR(~t_2 -> ~g t)
     9.67826939E-02    2     1000006        23   # BR(~t_2 -> ~t_1 Z)
     1.12726816E-01    2     1000006        25   # BR(~t_2 -> ~t_1 h^0)
DECAY   1000024     1.15328463E-04   # chi^+_1
#    BR                NDA      ID1      ID2       ID3
     3.34113817E-01    3     1000022        -1         2   # BR(chi^+_1 -> chi^0_1 d_bar u)
     3.32696370E-01    3     1000022        -3         4   # BR(chi^+_1 -> chi^0_1 s_bar c)
     1.11370620E-01    3     1000022       -11        12   # BR(chi^+_1 -> chi^0_1 e^+ nu_e)
     1.11368305E-01    3     1000022       -13        14   # BR(chi^+_1 -> chi^0_1 mu^+ nu_mu)
     1.10450888E-01    3     1000022       -15        16   # BR(chi^+_1 -> chi^0_1 tau^+ nu_tau)
DECAY   1000037     1.73574913E+01   # chi^+_2
#    BR                NDA      ID1      ID2
     5.10396318E-02    2     1000022        24   # BR(chi^+_2 -> chi^0_1 W^+)
     2.44247249E-01    2     1000023        24   # BR(chi^+_2 -> chi^0_2 W^+)
     1.92658666E-01    2     1000025        24   # BR(chi^+_2 -> chi^0_3 W^+)
     2.42738542E-01    2     1000024        23   # BR(chi^+_2 -> chi^+_1 Z)
     2.40950841E-01    2     1000024        25   # BR(chi^+_2 -> chi^+_1 h^0)
#    BR                NDA      ID1      ID2       ID3
     1.20270183E-02    3     1000024         6        -6   # BR(chi^+_2 -> chi^+_1 t t_bar)
     1.49486429E-03    3     1000022        -5         6   # BR(chi^+_2 -> chi^0_1 b_bar t)
     9.16884885E-03    3     1000023        -5         6   # BR(chi^+_2 -> chi^0_2 b_bar t)
     5.62681892E-03    3     1000025        -5         6   # BR(chi^+_2 -> chi^0_3 b_bar t)
DECAY   1000022     0.00000000E+00   # chi^0_1
DECAY   1000023     1.16364762E-04   # chi^0_2
#    BR                NDA      ID1      ID2
     1.20768274E-02    2     1000022        22   # BR(chi^0_2 -> chi^0_1 photon)
#    BR                NDA      ID1      ID2       ID3
     1.19140952E-01    3     1000022         2        -2   # BR(chi^0_2 -> chi^0_1 u u_bar)
     1.17879424E-01    3     1000022         4        -4   # BR(chi^0_2 -> chi^0_1 c c_bar)
     1.52761588E-01    3     1000022         1        -1   # BR(chi^0_2 -> chi^0_1 d d_bar)
     1.52753824E-01    3     1000022         3        -3   # BR(chi^0_2 -> chi^0_1 s s_bar)
     1.38466655E-01    3     1000022         5        -5   # BR(chi^0_2 -> chi^0_1 b b_bar)
     3.44729444E-02    3     1000022        11       -11   # BR(chi^0_2 -> chi^0_1 e^- e^+)
     3.44701349E-02    3     1000022        13       -13   # BR(chi^0_2 -> chi^0_1 mu^- mu^+)
     3.36905030E-02    3     1000022        15       -15   # BR(chi^0_2 -> chi^0_1 tau^- tau^+)
     2.04286035E-01    3     1000022        12       -12   # BR(chi^0_2 -> chi^0_1 nu_e nu_bar_e)
DECAY   1000025     1.35049192E-05   # chi^0_3
#    BR                NDA      ID1      ID2
     1.13081391E-02    2     1000022        22   # BR(chi^0_3 -> chi^0_1 photon)
     2.37897065E-02    2     1000023        22   # BR(chi^0_3 -> chi^0_2 photon)
#    BR                NDA      ID1      ID2       ID3
     4.29351828E-02    3     1000022         2        -2   # BR(chi^0_3 -> chi^0_1 u u_bar)
     4.27234090E-02    3     1000022         4        -4   # BR(chi^0_3 -> chi^0_1 c c_bar)
     5.50335043E-02    3     1000022         1        -1   # BR(chi^0_3 -> chi^0_1 d d_bar)
     5.50322122E-02    3     1000022         3        -3   # BR(chi^0_3 -> chi^0_1 s s_bar)
     5.26086150E-02    3     1000022         5        -5   # BR(chi^0_3 -> chi^0_1 b b_bar)
     1.24052093E-02    3     1000022        11       -11   # BR(chi^0_3 -> chi^0_1 e^- e^+)
     1.24047960E-02    3     1000022        13       -13   # BR(chi^0_3 -> chi^0_1 mu^- mu^+)
     1.22888393E-02    3     1000022        15       -15   # BR(chi^0_3 -> chi^0_1 tau^- tau^+)
     7.36208779E-02    3     1000022        12       -12   # BR(chi^0_3 -> chi^0_1 nu_e nu_bar_e)
     1.16580907E-02    3     1000023         2        -2   # BR(chi^0_3 -> chi^0_2 u u_bar)
     1.04584342E-02    3     1000023         4        -4   # BR(chi^0_3 -> chi^0_2 c c_bar)
     1.49480390E-02    3     1000023         1        -1   # BR(chi^0_3 -> chi^0_2 d d_bar)
     1.49401478E-02    3     1000023         3        -3   # BR(chi^0_3 -> chi^0_2 s s_bar)
     4.84182652E-03    3     1000023         5        -5   # BR(chi^0_3 -> chi^0_2 b b_bar)
     3.37338299E-03    3     1000023        11       -11   # BR(chi^0_3 -> chi^0_2 e^- e^+)
     3.37057538E-03    3     1000023        13       -13   # BR(chi^0_3 -> chi^0_2 mu^- mu^+)
     2.67160443E-03    3     1000023        15       -15   # BR(chi^0_3 -> chi^0_2 tau^- tau^+)
     1.99898225E-02    3     1000023        12       -12   # BR(chi^0_3 -> chi^0_2 nu_e nu_bar_e)
     8.79758386E-02    3     1000024         1        -2   # BR(chi^0_3 -> chi^+_1 d u_bar)
     8.79758386E-02    3    -1000024        -1         2   # BR(chi^0_3 -> chi^-_1 d_bar u)
     8.54542628E-02    3     1000024         3        -4   # BR(chi^0_3 -> chi^+_1 s c_bar)
     8.54542628E-02    3    -1000024        -3         4   # BR(chi^0_3 -> chi^-_1 s_bar c)
     2.93253458E-02    3     1000024        11       -12   # BR(chi^0_3 -> chi^+_1 e^- nu_bar_e)
     2.93253458E-02    3    -1000024       -11        12   # BR(chi^0_3 -> chi^-_1 e^+ nu_e)
     2.93212377E-02    3     1000024        13       -14   # BR(chi^0_3 -> chi^+_1 mu^- nu_bar_mu)
     2.93212377E-02    3    -1000024       -13        14   # BR(chi^0_3 -> chi^-_1 mu^+ nu_mu)
     2.77221076E-02    3     1000024        15       -16   # BR(chi^0_3 -> chi^+_1 tau^- nu_bar_tau)
     2.77221076E-02    3    -1000024       -15        16   # BR(chi^0_3 -> chi^-_1 tau^+ nu_tau)
DECAY   1000035     1.78896853E+01   # chi^0_4
#    BR                NDA      ID1      ID2
     2.36117220E-01    2     1000024       -24   # BR(chi^0_4 -> chi^+_1 W^-)
     2.36117220E-01    2    -1000024        24   # BR(chi^0_4 -> chi^-_1 W^+)
     4.03566773E-02    2     1000022        23   # BR(chi^0_4 -> chi^0_1 Z)
     4.76187126E-02    2     1000023        23   # BR(chi^0_4 -> chi^0_2 Z)
     1.48635533E-01    2     1000025        23   # BR(chi^0_4 -> chi^0_3 Z)
     1.38515030E-02    2     1000022        25   # BR(chi^0_4 -> chi^0_1 h^0)
     1.85249845E-01    2     1000023        25   # BR(chi^0_4 -> chi^0_2 h^0)
     6.79472827E-02    2     1000025        25   # BR(chi^0_4 -> chi^0_3 h^0)
#    BR                NDA      ID1      ID2       ID3
     8.29815375E-04    3     1000022         6        -6   # BR(chi^0_4 -> chi^0_1 t t_bar)
     4.76149797E-03    3     1000023         6        -6   # BR(chi^0_4 -> chi^0_2 t t_bar)
     3.22111929E-03    3     1000025         6        -6   # BR(chi^0_4 -> chi^0_3 t t_bar)
     7.64106818E-03    3     1000024         5        -6   # BR(chi^0_4 -> chi^+_1 b t_bar)
     7.64106818E-03    3    -1000024        -5         6   # BR(chi^0_4 -> chi^-_1 b_bar t)
DECAY   1000021     3.00209671E-01   # ~g
#    BR                NDA      ID1      ID2
     1.50644983E-03    2     1000022        21   # BR(~g -> chi^0_1 g)
     5.42183701E-03    2     1000023        21   # BR(~g -> chi^0_2 g)
     3.89670951E-03    2     1000025        21   # BR(~g -> chi^0_3 g)
#    BR                NDA      ID1      ID2       ID3
     8.87858190E-02    3     1000022         6        -6   # BR(~g -> chi^0_1 t t_bar)
     7.53760742E-04    3     1000022         5        -5   # BR(~g -> chi^0_1 b b_bar)
     2.49772886E-01    3     1000023         6        -6   # BR(~g -> chi^0_2 t t_bar)
     3.82281143E-04    3     1000023         5        -5   # BR(~g -> chi^0_2 b b_bar)
     1.82808297E-01    3     1000025         6        -6   # BR(~g -> chi^0_3 t t_bar)
     5.62683338E-04    3     1000025         5        -5   # BR(~g -> chi^0_3 b b_bar)
     2.33029011E-01    3     1000024         5        -6   # BR(~g -> chi^+_1 b t_bar)
     2.33029011E-01    3    -1000024        -5         6   # BR(~g -> chi^-_1 b_bar t)
DECAY        25     3.03951009E-03   # Gamma(h0)
     2.71550922E-03   2        22        22   # BR(h0 -> photon photon)
     1.43838616E-03   2        22        23   # BR(h0 -> photon Z)
     2.37641949E-02   2        23        23   # BR(h0 -> Z Z)
     2.08866344E-01   2       -24        24   # BR(h0 -> W W)
     8.60031710E-02   2        21        21   # BR(h0 -> gluon gluon)
     5.20368666E-09   2       -11        11   # BR(h0 -> Electron electron)
     2.31467547E-04   2       -13        13   # BR(h0 -> Muon muon)
     6.67362510E-02   2       -15        15   # BR(h0 -> Tau tau)
     1.48405877E-07   2        -2         2   # BR(h0 -> Up up)
     2.88022079E-02   2        -4         4   # BR(h0 -> Charm charm)
     6.04977133E-07   2        -1         1   # BR(h0 -> Down down)
     2.18805467E-04   2        -3         3   # BR(h0 -> Strange strange)
     5.81222904E-01   2        -5         5   # BR(h0 -> Bottom bottom)
DECAY        35     2.73188124E+01   # Gamma(HH)
     3.97096531E-07   2        22        22   # BR(HH -> photon photon)
     2.00708337E-07   2        22        23   # BR(HH -> photon Z)
     4.62445622E-05   2        23        23   # BR(HH -> Z Z)
     1.35837773E-05   2       -24        24   # BR(HH -> W W)
     4.43066859E-05   2        21        21   # BR(HH -> gluon gluon)
     3.48175812E-10   2       -11        11   # BR(HH -> Electron electron)
     1.55024964E-05   2       -13        13   # BR(HH -> Muon muon)
     4.47732345E-03   2       -15        15   # BR(HH -> Tau tau)
     9.60807883E-12   2        -2         2   # BR(HH -> Up up)
     1.86389968E-06   2        -4         4   # BR(HH -> Charm charm)
     1.36944366E-01   2        -6         6   # BR(HH -> Top top)
     2.55241659E-08   2        -1         1   # BR(HH -> Down down)
     9.23210415E-06   2        -3         3   # BR(HH -> Strange strange)
     2.39152105E-02   2        -5         5   # BR(HH -> Bottom bottom)
     3.67299199E-03   2  -1000024   1000024   # BR(HH -> Chargino1 chargino1)
     2.33564022E-01   2  -1000024   1000037   # BR(HH -> Chargino1 chargino2)
     2.33564022E-01   2  -1000037   1000024   # BR(HH -> Chargino2 chargino1)
     3.77028828E-02   2   1000022   1000022   # BR(HH -> neutralino1 neutralino1)
     2.86746685E-02   2   1000022   1000023   # BR(HH -> neutralino1 neutralino2)
     1.70365821E-02   2   1000022   1000025   # BR(HH -> neutralino1 neutralino3)
     4.89692059E-02   2   1000022   1000035   # BR(HH -> neutralino1 neutralino4)
     5.87765926E-08   2   1000023   1000023   # BR(HH -> neutralino2 neutralino2)
     1.08607963E-02   2   1000023   1000025   # BR(HH -> neutralino2 neutralino3)
     6.00856940E-02   2   1000023   1000035   # BR(HH -> neutralino2 neutralino4)
     3.50499508E-02   2   1000025   1000025   # BR(HH -> neutralino3 neutralino3)
     1.25084864E-01   2   1000025   1000035   # BR(HH -> neutralino3 neutralino4)
     2.66003091E-04   2        25        25   # BR(HH -> h0 h0)
DECAY        36     2.71499325E+01   # Gamma(A0)
     5.76679773E-07   2        22        22   # BR(A0 -> photon photon)
     4.79386107E-07   2        22        23   # BR(A0 -> photon Z)
     6.67945942E-05   2        21        21   # BR(A0 -> gluon gluon)
     3.39906202E-10   2       -11        11   # BR(A0 -> Electron electron)
     1.51344121E-05   2       -13        13   # BR(A0 -> Muon muon)
     4.37102220E-03   2       -15        15   # BR(A0 -> Tau tau)
     9.22057095E-12   2        -2         2   # BR(A0 -> Up up)
     1.78864919E-06   2        -4         4   # BR(A0 -> Charm charm)
     1.33194589E-01   2        -6         6   # BR(A0 -> Top top)
     2.49178633E-08   2        -1         1   # BR(A0 -> Down down)
     9.01281760E-06   2        -3         3   # BR(A0 -> Strange strange)
     2.33471082E-02   2        -5         5   # BR(A0 -> Bottom bottom)
     4.92809358E-03   2  -1000024   1000024   # BR(A0 -> Chargino1 chargino1)
     2.34271900E-01   2  -1000024   1000037   # BR(A0 -> Chargino1 chargino2)
     2.34271900E-01   2  -1000037   1000024   # BR(A0 -> Chargino2 chargino1)
     2.11460546E-02   2   1000022   1000022   # BR(A0 -> neutralino1 neutralino1)
     6.46295928E-02   2   1000022   1000023   # BR(A0 -> neutralino1 neutralino2)
     5.59895614E-03   2   1000022   1000025   # BR(A0 -> neutralino1 neutralino3)
     2.12455683E-02   2   1000022   1000035   # BR(A0 -> neutralino1 neutralino4)
     1.37834697E-07   2   1000023   1000023   # BR(A0 -> neutralino2 neutralino2)
     2.44277741E-02   2   1000023   1000025   # BR(A0 -> neutralino2 neutralino3)
     1.72791612E-01   2   1000023   1000035   # BR(A0 -> neutralino2 neutralino4)
     1.45736637E-02   2   1000025   1000025   # BR(A0 -> neutralino3 neutralino3)
     4.10313810E-02   2   1000025   1000035   # BR(A0 -> neutralino3 neutralino4)
     7.68352143E-05   2        23        25   # BR(A0 -> Z h0)
     2.92868626E-35   2        25        25   # BR(A0 -> h0 h0)
DECAY        37     2.87072293E+01   # Gamma(Hp)
     4.28523660E-10   2       -11        12   # BR(Hp -> Electron nu_e)
     1.83207248E-05   2       -13        14   # BR(Hp -> Muon nu_mu)
     5.18214293E-03   2       -15        16   # BR(Hp -> Tau nu_tau)
     2.73132412E-08   2        -1         2   # BR(Hp -> Down up)
     4.60955190E-07   2        -3         2   # BR(Hp -> Strange up)
     2.92691387E-07   2        -5         2   # BR(Hp -> Bottom up)
     1.04455640E-07   2        -1         4   # BR(Hp -> Down charm)
     1.20442055E-05   2        -3         4   # BR(Hp -> Strange charm)
     4.09906895E-05   2        -5         4   # BR(Hp -> Bottom charm)
     1.12914419E-05   2        -1         6   # BR(Hp -> Down top)
     2.46205420E-04   2        -3         6   # BR(Hp -> Strange top)
     2.01088198E-01   2        -5         6   # BR(Hp -> Bottom top)
     1.01103137E-01   2   1000022   1000024   # BR(Hp -> neutralino1 chargino1)
     6.67019545E-02   2   1000022   1000037   # BR(Hp -> neutralino1 chargino2)
     2.01140844E-03   2   1000023   1000024   # BR(Hp -> neutralino2 chargino1)
     2.22086317E-01   2   1000023   1000037   # BR(Hp -> neutralino2 chargino2)
     2.11165472E-02   2   1000024   1000025   # BR(Hp -> chargino1 neutralino3)
     1.57710115E-01   2   1000025   1000037   # BR(Hp -> neutralino3 chargino2)
     2.22597660E-01   2   1000024   1000035   # BR(Hp -> chargino1 neutralino4)
     7.27821972E-05   2        24        25   # BR(Hp -> W h0)
     6.12549343E-14   2        24        35   # BR(Hp -> W HH)
     4.82947510E-14   2        24        36   # BR(Hp -> W A0)
DECAY         6     2.43000000E+00   # top
#    BR                NDA      ID1      ID2
     1.00000000E+00    2           5        24   # BR(t -> b W)
Block HiggsBoundsInputHiggsCouplingsFermions
# ScalarNormEffCoupSq PseudoSNormEffCoupSq NP IP1 IP2 IP2
    9.15067542E-01    0.00000000E+00        3  25   5   5  # h0-b-b eff. coupling^2, normalised to SM
    2.21036990E+01    0.00000000E+00        3  35   5   5  # H0-b-b eff. coupling^2, normalised to SM
    0.00000000E+00    2.20187665E+01        3  36   5   5  # A0-b-b eff. coupling^2, normalised to SM
#
    1.00385728E+00    0.00000000E+00        3  25   6   6  # h0-t-t eff. coupling^2, normalised to SM
    4.15585288E-02    0.00000000E+00        3  35   6   6  # H0-t-t eff. coupling^2, normalised to SM
    0.00000000E+00    4.54158047E-02        3  36   6   6  # A0-t-t eff. coupling^2, normalised to SM
#
    9.15067542E-01    0.00000000E+00        3  25  15  15  # h0-tau-tau eff. coupling^2, normalised to SM
    2.21036990E+01    0.00000000E+00        3  35  15  15  # H0-tau-tau eff. coupling^2, normalised to SM
    0.00000000E+00    2.20187665E+01        3  36  15  15  # A0-tau-tau eff. coupling^2, normalised to SM
#
Block HiggsBoundsInputHiggsCouplingsBosons
    9.99914592E-01        3  25  24  24  # h0-W-W eff. coupling^2, normalised to SM
    8.54081045E-05        3  35  24  24  # H0-W-W eff. coupling^2, normalised to SM
    0.00000000E+00        3  36  24  24  # A0-W-W eff. coupling^2, normalised to SM
#
    9.99914592E-01        3  25  23  23  # h0-Z-Z eff. coupling^2, normalised to SM
    8.54081045E-05        3  35  23  23  # H0-Z-Z eff. coupling^2, normalised to SM
    0.00000000E+00        3  36  23  23  # A0-Z-Z eff. coupling^2, normalised to SM
#
    1.26505507E+00        3  25  21  21  # h0-g-g eff. coupling^2, normalised to SM
    3.85066632E-02        3  35  21  21  # H0-g-g eff. coupling^2, normalised to SM
    2.22827043E-01        3  36  21  21  # A0-g-g eff. coupling^2, normalised to SM
#
    0.00000000E+00        3  25  25  23  # h0-h0-Z eff. coupling^2, normalised to SM
    0.00000000E+00        3  35  25  23  # H0-h0-Z eff. coupling^2, normalised to SM
    8.54081045E-05        3  36  25  23  # A0-h0-Z eff. coupling^2, normalised to SM
    0.00000000E+00        3  35  35  23  # H0-H0-Z eff. coupling^2, normalised to SM
    9.99914592E-01        3  36  35  23  # A0-H0-Z eff. coupling^2, normalised to SM
    0.00000000E+00        3  36  36  23  # A0-A0-Z eff. coupling^2, normalised to SM
#
    0.00000000E+00        4  25  21  21  23  # h0-g-g-Z eff. coupling^2, normalised to SM
    0.00000000E+00        4  35  21  21  23  # H0-g-g-Z eff. coupling^2, normalised to SM
    0.00000000E+00        4  36  21  21  23  # A0-g-g-Z eff. coupling^2, normalised to SM
Block SPhenoLowEnergy  # low energy observables
    1    3.31679638E-04   # BR(b -> s gamma)
    2    1.58905922E-06   # BR(b -> s mu+ mu-)
    3    3.52483850E-05   # BR(b -> s nu nu)
    4    2.47209533E-15   # BR(Bd -> e+ e-)
    5    1.05605108E-10   # BR(Bd -> mu+ mu-)
    6    2.21075026E-08   # BR(Bd -> tau+ tau-)
    7    8.32607757E-14   # BR(Bs -> e+ e-)
    8    3.55689775E-09   # BR(Bs -> mu+ mu-)
    9    7.54452562E-07   # BR(Bs -> tau+ tau-)
   10    9.67934566E-05   # BR(B_u -> tau nu)
   11    9.99839350E-01   # BR(B_u -> tau nu)/BR(B_u -> tau nu)_SM
   12    5.43753142E-01   # |Delta(M_Bd)| [ps^-1] 
   13    1.94287716E+01   # |Delta(M_Bs)| [ps^-1] 
   14    0.00000000E+00   # neutron EDM according to the chiral quark model
   15    0.00000000E+00   # neutron EDM according to the relativistic quark-parton model
   16    2.16464729E-03   # epsilon_K
   17    2.28173293E-15   # Delta(M_K)
   18    2.48049043E-11   # BR(K^0 -> pi^0 nu nu)
   19    8.29150751E-11   # BR(K^+ -> pi^+ nu nu)
   20    3.88507079E-17   # Delta(g-2)_electron/2
   21    1.66098931E-12   # Delta(g-2)_muon/2
   22    4.69779553E-10   # Delta(g-2)_tau/2
   23    0.00000000E+00   # electric dipole moment of the electron
   24    0.00000000E+00   # electric dipole moment of the muon
   25    0.00000000E+00   # electric dipole moment of the tau
   26    0.00000000E+00   # Br(mu -> e gamma)
   27    0.00000000E+00   # Br(tau -> e gamma)
   28    0.00000000E+00   # Br(tau -> mu gamma)
   29    0.00000000E+00   # Br(mu -> 3 e)
   30    0.00000000E+00   # Br(tau -> 3 e)
   31    0.00000000E+00   # Br(tau -> 3 mu)
   39   -3.53863969E-04   # Delta(rho_parameter)
   40    0.00000000E+00   # BR(Z -> e mu)
   41    0.00000000E+00   # BR(Z -> e tau)
   42    0.00000000E+00   # BR(Z -> mu tau)
Block FWCOEF Q=  1.60000000E+02  # Wilson coefficients at scale Q
#    id        order  M        value         comment
     0305 4422   00   0    -1.88819110E-01   # C7
     0305 4422   00   2    -2.01313697E-01   # C7
     0305 4322   00   2    -1.39413200E-04   # C7'
     0305 6421   00   0    -9.52278348E-02   # C8
     0305 6421   00   2    -1.06839177E-01   # C8
     0305 6321   00   2    -1.71093449E-04   # C8'
 03051111 4133   00   0     1.60510886E+00   # C9 e+e-
 03051111 4133   00   2     1.60640804E+00   # C9 e+e-
 03051111 4233   00   2     6.59149703E-06   # C9' e+e-
 03051111 4137   00   0    -4.42780097E+00   # C10 e+e-
 03051111 4137   00   2    -4.42571917E+00   # C10 e+e-
 03051111 4237   00   2    -4.95747017E-05   # C10' e+e-
 03051313 4133   00   0     1.60510886E+00   # C9 mu+mu-
 03051313 4133   00   2     1.60640803E+00   # C9 mu+mu-
 03051313 4233   00   2     6.59149693E-06   # C9' mu+mu-
 03051313 4137   00   0    -4.42780097E+00   # C10 mu+mu-
 03051313 4137   00   2    -4.42571918E+00   # C10 mu+mu-
 03051313 4237   00   2    -4.95747017E-05   # C10' mu+mu-
 03051212 4137   00   0     1.50535012E+00   # C11 nu_1 nu_1
 03051212 4137   00   2     1.50489896E+00   # C11 nu_1 nu_1
 03051212 4237   00   2     1.07714246E-05   # C11' nu_1 nu_1
 03051414 4137   00   0     1.50535012E+00   # C11 nu_2 nu_2
 03051414 4137   00   2     1.50489896E+00   # C11 nu_2 nu_2
 03051414 4237   00   2     1.07714246E-05   # C11' nu_2 nu_2
 03051616 4137   00   0     1.50535012E+00   # C11 nu_3 nu_3
 03051616 4137   00   2     1.50489896E+00   # C11 nu_3 nu_3
 03051616 4237   00   2     1.07714285E-05   # C11' nu_3 nu_3
Block IMFWCOEF Q=  1.60000000E+02  # Im(Wilson coefficients) at scale Q
#    id        order  M        value         comment
     0305 4422   00   0     3.85819935E-07   # C7
     0305 4422   00   2     3.07792072E-06   # C7
     0305 4322   00   2    -2.84648291E-07   # C7'
     0305 6421   00   0     3.30480290E-07   # C8
     0305 6421   00   2    -1.83579939E-06   # C8
     0305 6321   00   2    -1.97366019E-07   # C8'
 03051111 4133   00   2    -1.08878446E-07   # C9 e+e-
 03051111 4233   00   2     1.28019722E-07   # C9' e+e-
 03051111 4137   00   2     4.77537360E-06   # C10 e+e-
 03051111 4237   00   2    -9.64100084E-07   # C10' e+e-
 03051313 4133   00   2    -1.08878477E-07   # C9 mu+mu-
 03051313 4233   00   2     1.28019722E-07   # C9' mu+mu-
 03051313 4137   00   2     4.77537364E-06   # C10 mu+mu-
 03051313 4237   00   2    -9.64100086E-07   # C10' mu+mu-
 03051212 4137   00   2    -1.01627136E-06   # C11 nu_1 nu_1
 03051212 4237   00   2     2.09477610E-07   # C11' nu_1 nu_1
 03051414 4137   00   2    -1.01627136E-06   # C11 nu_2 nu_2
 03051414 4237   00   2     2.09477610E-07   # C11' nu_2 nu_2
 03051616 4137   00   2    -1.01627098E-06   # C11 nu_3 nu_3
 03051616 4237   00   2     2.09477610E-07   # C11' nu_3 nu_3
