#
#                              ======================
#                              | THE SUSYHIT OUTPUT |
#                              ======================
#
#
#              ------------------------------------------------------
#              |     This is the output of the SUSY-HIT package     |
#              |  created by A.Djouadi, M.Muehlleitner and M.Spira. |
#              |  In case of problems with SUSY-HIT email to        |
#              |           margarete.muehlleitner@cern.ch           |
#              |           michael.spira@psi.ch                     |
#              |           abdelhak.djouadi@cern.ch                 |
#              ------------------------------------------------------
#
#              ------------------------------------------------------
#              |  SUSY Les Houches Accord - MSSM Spectrum + Decays  |
#              |              based on the decay programs           |
#              |                                                    |
#              |                     SDECAY 1.3b                    |
#              |                                                    |
#              |  Authors: M.Muhlleitner, A.Djouadi and Y.Mambrini  |
#              |  Ref.:    Comput.Phys.Commun.168(2005)46           |
#              |           [hep-ph/0311167]                         |
#              |                                                    |
#              |                     HDECAY 3.4                     |
#              |                                                    |
#              |  By: A.Djouadi,J.Kalinowski,M.Muhlleitner,M.Spira  |
#              |  Ref.:    Comput.Phys.Commun.108(1998)56           |
#              |           [hep-ph/9704448]                         |
#              |                                                    |
#              |                                                    |
#              |  If not stated otherwise all DRbar couplings and   |
#              |  soft SUSY breaking masses are given at the scale  |
#              |  Q=  0.22425090E+04
#              |                                                    |
#              ------------------------------------------------------
#
#
BLOCK DCINFO  # Decay Program information
     1   SDECAY/HDECAY # decay calculator
     2   1.3b  /3.4    # version number
#
BLOCK SPINFO  # Spectrum calculator information
     1     SOFTSUSY    # spectrum calculator               
     2     3.4.0       # version number                    
#
BLOCK MODSEL  # Model selection
     1     0   #  nonUniversal                                     
#
BLOCK SMINPUTS  # Standard Model inputs
         1     1.27908970E+02   # alpha_em^-1(M_Z)^MSbar
         2     1.16637870E-05   # G_F [GeV^-2]
         3     1.18400000E-01   # alpha_S(M_Z)^MSbar
         4     9.11876000E+01   # M_Z pole mass
         5     4.18000000E+00   # mb(mb)^MSbar
         6     1.73200000E+02   # mt pole mass
         7     1.77700000E+00   # mtau pole mass
#
BLOCK MINPAR  # Input parameters - minimal models
         3     8.78000000E+00   # tanb                
#
BLOCK EXTPAR  # Input parameters - non-minimal models
         0    -1.00000000E+00   # Set                 
         1     5.74700000E+02   # M_1(MX)             
         2    -1.17691000E+03   # M_2(MX)             
         3     2.51642000E+03   # M_3(MX)             
        11    -3.12332000E+03   # At(MX)              
        12     5.86070000E+02   # Ab(MX)              
        13    -8.86250000E+02   # Atau(MX)            
        23     3.10626000E+03   # mu(MX)              
        26     1.99127000E+03   # mA(pole)            
        31     5.98220000E+02   # meL(MX)             
        32     5.98220000E+02   # mmuL(MX)            
        33     2.28518000E+03   # mtauL(MX)           
        34     1.25122000E+03   # meR(MX)             
        35     1.25122000E+03   # mmuR(MX)            
        36     8.56920000E+02   # mtauR(MX)           
        41     1.55600000E+03   # mqL1(MX)            
        42     1.55600000E+03   # mqL2(MX)            
        43     1.42874000E+03   # mqL3(MX)            
        44     2.53009000E+03   # muR(MX)             
        45     2.53009000E+03   # mcR(MX)             
        46     3.51915000E+03   # mtR(MX)             
        47     3.93990000E+02   # mdR(MX)             
        48     3.93990000E+02   # msR(MX)             
        49     2.14745000E+03   # mbR(MX)             
#
BLOCK MASS  # Mass Spectrum
# PDG code           mass       particle
        24     8.03840824E+01   # W+
        25     1.24191464E+02   # h
        35     1.99126690E+03   # H
        36     1.99126996E+03   # A
        37     1.99293405E+03   # H+
         5     4.81876030E+00   # b-quark pole mass calculated from mb(mb)_Msbar
   1000001     1.66450364E+03   # ~d_L
   2000001     5.89654584E+02   # ~d_R
   1000002     1.66278507E+03   # ~u_L
   2000002     2.60722469E+03   # ~u_R
   1000003     1.66450364E+03   # ~s_L
   2000003     5.89654584E+02   # ~s_R
   1000004     1.66278507E+03   # ~c_L
   2000004     2.60722469E+03   # ~c_R
   1000005     1.54965786E+03   # ~b_1
   2000005     2.23367167E+03   # ~b_2
   1000006     1.54678435E+03   # ~t_1
   2000006     3.52529513E+03   # ~t_2
   1000011     6.22149289E+02   # ~e_L
   2000011     1.25622094E+03   # ~e_R
   1000012     6.17036109E+02   # ~nu_eL
   1000013     6.22149289E+02   # ~mu_L
   2000013     1.25622094E+03   # ~mu_R
   1000014     6.17036109E+02   # ~nu_muL
   1000015     8.63002784E+02   # ~tau_1
   2000015     2.29216863E+03   # ~tau_2
   1000016     2.29040976E+03   # ~nu_tauL
   1000021     2.56740857E+03   # ~g
   1000022     5.66996344E+02   # ~chi_10
   1000023    -1.19474909E+03   # ~chi_20
   1000025     3.13401289E+03   # ~chi_30
   1000035    -3.13419868E+03   # ~chi_40
   1000024     1.19491451E+03   # ~chi_1+
   1000037     3.13507323E+03   # ~chi_2+
#
BLOCK NMIX  # Neutralino Mixing Matrix
  1  1     9.99883349E-01   # N_11
  1  2     2.86411476E-04   # N_12
  1  3     1.46235439E-02   # N_13
  1  4    -4.39987297E-03   # N_14
  2  1     8.25254072E-05   # N_21
  2  2     9.99599217E-01   # N_22
  2  3    -2.73821163E-02   # N_23
  2  4    -7.18455105E-03   # N_24
  3  1     1.34536301E-02   # N_31
  3  2    -1.42824470E-02   # N_32
  3  3    -7.06870170E-01   # N_33
  3  4     7.07071124E-01   # N_34
  4  1    -7.23062762E-03   # N_41
  4  2     2.44404287E-02   # N_42
  4  3     7.06661825E-01   # N_43
  4  4     7.07092249E-01   # N_44
#
BLOCK UMIX  # Chargino Mixing Matrix U
  1  1     9.99247117E-01   # U_11
  1  2    -3.87968954E-02   # U_12
  2  1     3.87968954E-02   # U_21
  2  2     9.99247117E-01   # U_22
#
BLOCK VMIX  # Chargino Mixing Matrix V
  1  1    -9.99947839E-01   # V_11
  1  2    -1.02136722E-02   # V_12
  2  1    -1.02136722E-02   # V_21
  2  2     9.99947839E-01   # V_22
#
BLOCK STOPMIX  # Stop Mixing Matrix
  1  1     9.98777127E-01   # cos(theta_t)
  1  2     4.94393627E-02   # sin(theta_t)
  2  1    -4.94393627E-02   # -sin(theta_t)
  2  2     9.98777127E-01   # cos(theta_t)
#
BLOCK SBOTMIX  # Sbottom Mixing Matrix
  1  1     9.99765693E-01   # cos(theta_b)
  1  2     2.16462260E-02   # sin(theta_b)
  2  1    -2.16462260E-02   # -sin(theta_b)
  2  2     9.99765693E-01   # cos(theta_b)
#
BLOCK STAUMIX  # Stau Mixing Matrix
  1  1     1.04915210E-02   # cos(theta_tau)
  1  2     9.99944962E-01   # sin(theta_tau)
  2  1    -9.99944962E-01   # -sin(theta_tau)
  2  2     1.04915210E-02   # cos(theta_tau)
#
BLOCK ALPHA  # Higgs mixing
          -1.19033886E-01   # Mixing angle in the neutral Higgs boson sector
#
BLOCK HMIX Q=  2.24250900E+03  # DRbar Higgs Parameters
         1     3.14371365E+03   # mu(Q)MSSM           
         2     8.39939922E+00   # tan                 
         3     2.43593428E+02   # higgs               
         4     4.21656564E+06   # mA^2(Q)MSSM         
#
BLOCK GAUGE Q=  2.24250900E+03  # The gauge couplings
     1     3.64126835E-01   # gprime(Q) DRbar
     2     6.37940874E-01   # g(Q) DRbar
     3     1.02338972E+00   # g3(Q) DRbar
#
BLOCK AU Q=  2.24250900E+03  # The trilinear couplings
  1  1     0.00000000E+00   # A_u(Q) DRbar
  2  2     0.00000000E+00   # A_c(Q) DRbar
  3  3    -3.12331999E+03   # A_t(Q) DRbar
#
BLOCK AD Q=  2.24250900E+03  # The trilinear couplings
  1  1     0.00000000E+00   # A_d(Q) DRbar
  2  2     0.00000000E+00   # A_s(Q) DRbar
  3  3     5.86070002E+02   # A_b(Q) DRbar
#
BLOCK AE Q=  2.24250900E+03  # The trilinear couplings
  1  1     0.00000000E+00   # A_e(Q) DRbar
  2  2     0.00000000E+00   # A_mu(Q) DRbar
  3  3    -8.86250000E+02   # A_tau(Q) DRbar
#
BLOCK Yu Q=  2.24250900E+03  # The Yukawa couplings
  1  1     0.00000000E+00   # y_u(Q) DRbar
  2  2     0.00000000E+00   # y_c(Q) DRbar
  3  3     8.25079264E-01   # y_t(Q) DRbar
#
BLOCK Yd Q=  2.24250900E+03  # The Yukawa couplings
  1  1     0.00000000E+00   # y_d(Q) DRbar
  2  2     0.00000000E+00   # y_s(Q) DRbar
  3  3     1.02869642E-01   # y_b(Q) DRbar
#
BLOCK Ye Q=  2.24250900E+03  # The Yukawa couplings
  1  1     0.00000000E+00   # y_e(Q) DRbar
  2  2     0.00000000E+00   # y_mu(Q) DRbar
  3  3     8.50946103E-02   # y_tau(Q) DRbar
#
BLOCK MSOFT Q=  2.24250900E+03  # The soft SUSY breaking masses at the scale Q
         1     5.74700000E+02   # M_1(Q)              
         2    -1.17691000E+03   # M_2(Q)              
         3     2.51642000E+03   # M_3(Q)              
        21    -6.06432449E+06   # mH1^2(Q)            
        22    -9.82729515E+06   # mH2^2(Q)            
        31     5.98220000E+02   # meL(Q)              
        32     5.98220000E+02   # mmuL(Q)             
        33     2.28518000E+03   # mtauL(Q)            
        34     1.25122000E+03   # meR(Q)              
        35     1.25122000E+03   # mmuR(Q)             
        36     8.56920000E+02   # mtauR(Q)            
        41     1.55599999E+03   # mqL1(Q)             
        42     1.55599999E+03   # mqL2(Q)             
        43     1.42873998E+03   # mqL3(Q)             
        44     2.53008999E+03   # muR(Q)              
        45     2.53008999E+03   # mcR(Q)              
        46     3.51914999E+03   # mtR(Q)              
        47     3.93989968E+02   # mdR(Q)              
        48     3.93989968E+02   # msR(Q)              
        49     2.14744999E+03   # mbR(Q)              
#
Block HiggsBoundsInputHiggsCouplingsFermions
# ScalarNormEffCoupSq PseudoSNormEffCoupSq NP   IP1 IP2 IP2
    1.00901622E+00    0.00000000E+00        3  25   5   5  # h0-b-b eff. coupling^2, normalised to SM
    7.05408910E+01    0.00000000E+00        3  35   5   5  # H0-b-b eff. coupling^2, normalised to SM
    0.00000000E+00    7.05499073E+01        3  36   5   5  # A0-b-b eff. coupling^2, normalised to SM
#
    9.99872201E-01    0.00000000E+00        3  25   6   6  # h0-t-t eff. coupling^2, normalised to SM
    1.43021622E-02    0.00000000E+00        3  35   6   6  # H0-t-t eff. coupling^2, normalised to SM
    0.00000000E+00    1.41743631E-02        3  36   6   6  # A0-t-t eff. coupling^2, normalised to SM
#
    1.00901622E+00    0.00000000E+00        3  25  15  15  # h0-tau-tau eff. coupling^2, normalised to SM
    7.05408910E+01    0.00000000E+00        3  35  15  15  # H0-tau-tau eff. coupling^2, normalised to SM
    0.00000000E+00    7.05499073E+01        3  36  15  15  # A0-tau-tau eff. coupling^2, normalised to SM
#
Block HiggsBoundsInputHiggsCouplingsBosons
    9.99999713E-01        3  25  24  24  # h0-W-W eff. coupling^2, normalised to SM
    2.86793186E-07        3  35  24  24  # H0-W-W eff. coupling^2, normalised to SM
    0.00000000E+00        3  36  24  24  # A0-W-W eff. coupling^2, normalised to SM
#
    9.99999713E-01        3  25  23  23  # h0-Z-Z eff. coupling^2, normalised to SM
    2.86793186E-07        3  35  23  23  # H0-Z-Z eff. coupling^2, normalised to SM
    0.00000000E+00        3  36  23  23  # A0-Z-Z eff. coupling^2, normalised to SM
#
    8.94063747E-01        3  25  21  21  # h0-g-g eff. coupling^2, normalised to SM
    4.85045194E-11        3  35  21  21  # H0-g-g eff. coupling^2, normalised to SM
    2.80517630E-10        3  36  21  21  # A0-g-g eff. coupling^2, normalised to SM
#
    0.00000000E+00        3  25  25  23  # h0-h0-Z eff. coupling^2, normalised to SM
    0.00000000E+00        3  35  25  23  # H0-h0-Z eff. coupling^2, normalised to SM
    2.86793186E-07        3  36  25  23  # A0-h0-Z eff. coupling^2, normalised to SM
    0.00000000E+00        3  35  35  23  # H0-H0-Z eff. coupling^2, normalised to SM
    9.99999713E-01        3  36  35  23  # A0-H0-Z eff. coupling^2, normalised to SM
    0.00000000E+00        3  36  36  23  # A0-A0-Z eff. coupling^2, normalised to SM
#
    0.00000000E+00        4  25  21  21  23  # h0-g-g-Z eff. coupling^2, normalised to SM
    0.00000000E+00        4  35  21  21  23  # H0-g-g-Z eff. coupling^2, normalised to SM
    0.00000000E+00        4  36  21  21  23  # A0-g-g-Z eff. coupling^2, normalised to SM
#
#
#
#                             =================
#                             |The decay table|
#                             =================
#
# - The QCD corrections to the decays gluino -> squark  + quark
#                                     squark -> gaugino + quark_prime
#                                     squark -> squark_prime + Higgs
#                                     squark -> gluino  + quark
#   are included.
#
# - The multi-body decays for the inos, stops and sbottoms are included.
#
# - The loop induced decays for the gluino, neutralinos and stops
#   are included.
#
# - The SUSY decays of the top quark are included.
#
#
#         PDG            Width
DECAY         6     1.43354204E+00   # top decays
#          BR         NDA      ID1       ID2
     1.00000000E+00    2           5        24   # BR(t ->  b    W+)
#
#         PDG            Width
DECAY   1000021     2.07346778E+02   # gluino decays
#          BR         NDA      ID1       ID2
     4.20119351E-02    2     1000001        -1   # BR(~g -> ~d_L  db)
     4.20119351E-02    2    -1000001         1   # BR(~g -> ~d_L* d )
     1.12182836E-01    2     2000001        -1   # BR(~g -> ~d_R  db)
     1.12182836E-01    2    -2000001         1   # BR(~g -> ~d_R* d )
     4.21377716E-02    2     1000002        -2   # BR(~g -> ~u_L  ub)
     4.21377716E-02    2    -1000002         2   # BR(~g -> ~u_L* u )
     4.20119351E-02    2     1000003        -3   # BR(~g -> ~s_L  sb)
     4.20119351E-02    2    -1000003         3   # BR(~g -> ~s_L* s )
     1.12182836E-01    2     2000003        -3   # BR(~g -> ~s_R  sb)
     1.12182836E-01    2    -2000003         3   # BR(~g -> ~s_R* s )
     4.21377295E-02    2     1000004        -4   # BR(~g -> ~c_L  cb)
     4.21377295E-02    2    -1000004         4   # BR(~g -> ~c_L* c )
     5.04777031E-02    2     1000005        -5   # BR(~g -> ~b_1  bb)
     5.04777031E-02    2    -1000005         5   # BR(~g -> ~b_1* b )
     7.52738475E-03    2     2000005        -5   # BR(~g -> ~b_2  bb)
     7.52738475E-03    2    -2000005         5   # BR(~g -> ~b_2* b )
     4.93298694E-02    2     1000006        -6   # BR(~g -> ~t_1  tb)
     4.93298694E-02    2    -1000006         6   # BR(~g -> ~t_1* t )
#
#         PDG            Width
DECAY   1000006     3.05311222E+00   # stop1 decays
#          BR         NDA      ID1       ID2
     5.91493799E-02    2     1000022         6   # BR(~t_1 -> ~chi_10 t )
     2.76471023E-01    2     1000023         6   # BR(~t_1 -> ~chi_20 t )
     6.64379597E-01    2     1000024         5   # BR(~t_1 -> ~chi_1+ b )
#
#         PDG            Width
DECAY   2000006     1.25156142E+02   # stop2 decays
#          BR         NDA      ID1       ID2
     6.21061909E-02    2     1000022         6   # BR(~t_2 -> ~chi_10 t )
     3.47111271E-04    2     1000023         6   # BR(~t_2 -> ~chi_20 t )
     7.80053824E-03    2     1000025         6   # BR(~t_2 -> ~chi_30 t )
     7.12335425E-03    2     1000035         6   # BR(~t_2 -> ~chi_40 t )
     7.00830299E-04    2     1000024         5   # BR(~t_2 -> ~chi_1+ b )
     1.66301673E-02    2     1000037         5   # BR(~t_2 -> ~chi_2+ b )
     3.32459779E-01    2     1000021         6   # BR(~t_2 -> ~g      t )
     1.47738928E-01    2     1000006        25   # BR(~t_2 -> ~t_1    h )
     1.44496621E-01    2     1000006        23   # BR(~t_2 -> ~t_1    Z )
     2.80542952E-01    2     1000005        24   # BR(~t_2 -> ~b_1    W+)
     5.35277387E-05    2     2000005        24   # BR(~t_2 -> ~b_2    W+)
#
#         PDG            Width
DECAY   1000005     2.91952759E+00   # sbottom1 decays
#          BR         NDA      ID1       ID2
     5.83747913E-02    2     1000022         5   # BR(~b_1 -> ~chi_10 b )
     3.53145394E-01    2     1000023         5   # BR(~b_1 -> ~chi_20 b )
     5.88479815E-01    2    -1000024         6   # BR(~b_1 -> ~chi_1- t )
#
#         PDG            Width
DECAY   2000005     2.05124539E+00   # sbottom2 decays
#          BR         NDA      ID1       ID2
     5.58087396E-01    2     1000022         5   # BR(~b_2 -> ~chi_10 b )
     5.32516695E-04    2     1000023         5   # BR(~b_2 -> ~chi_20 b )
     1.03281573E-03    2    -1000024         6   # BR(~b_2 -> ~chi_1- t )
     1.09335406E-01    2     1000005        25   # BR(~b_2 -> ~b_1    h )
     1.11449452E-01    2     1000005        23   # BR(~b_2 -> ~b_1    Z )
     2.19562413E-01    2     1000006       -24   # BR(~b_2 -> ~t_1    W-)
#
#         PDG            Width
DECAY   1000002     4.97737347E+00   # sup_L decays
#          BR         NDA      ID1       ID2
     3.84248246E-02    2     1000022         2   # BR(~u_L -> ~chi_10 u)
     3.20507513E-01    2     1000023         2   # BR(~u_L -> ~chi_20 u)
     6.41067662E-01    2     1000024         1   # BR(~u_L -> ~chi_1+ d)
#
#         PDG            Width
DECAY   2000002     5.50732985E+00   # sup_R decays
#          BR         NDA      ID1       ID2
     9.66034316E-01    2     1000022         2   # BR(~u_R -> ~chi_10 u)
     4.54497542E-09    2     1000023         2   # BR(~u_R -> ~chi_20 u)
     3.39656793E-02    2     1000021         2   # BR(~u_R -> ~g      u)
#
#         PDG            Width
DECAY   1000001     4.99748092E+00   # sdown_L decays
#          BR         NDA      ID1       ID2
     3.80980789E-02    2     1000022         1   # BR(~d_L -> ~chi_10 d)
     3.20902206E-01    2     1000023         1   # BR(~d_L -> ~chi_20 d)
     6.40999715E-01    2    -1000024         2   # BR(~d_L -> ~chi_1- u)
#
#         PDG            Width
DECAY   2000001     2.21666718E-03   # sdown_R decays
#          BR         NDA      ID1       ID2
     1.00000000E+00    2     1000022         1   # BR(~d_R -> ~chi_10 d)
#
#         PDG            Width
DECAY   1000004     4.91255503E+00   # scharm_L decays
#          BR         NDA      ID1       ID2
     3.88445255E-02    2     1000022         4   # BR(~c_L -> ~chi_10 c)
     3.20367604E-01    2     1000023         4   # BR(~c_L -> ~chi_20 c)
     6.40787870E-01    2     1000024         3   # BR(~c_L -> ~chi_1+ s)
#
#         PDG            Width
DECAY   2000004     5.68022865E+00   # scharm_R decays
#          BR         NDA      ID1       ID2
     9.76589756E-01    2     1000022         4   # BR(~c_R -> ~chi_10 c)
     4.57442988E-09    2     1000023         4   # BR(~c_R -> ~chi_20 c)
     2.34102390E-02    2     1000021         4   # BR(~c_R -> ~g      c)
#
#         PDG            Width
DECAY   1000003     4.93290482E+00   # sstrange_L decays
#          BR         NDA      ID1       ID2
     3.85127593E-02    2     1000022         3   # BR(~s_L -> ~chi_10 s)
     3.20766699E-01    2     1000023         3   # BR(~s_L -> ~chi_20 s)
     6.40720542E-01    2    -1000024         4   # BR(~s_L -> ~chi_1- c)
#
#         PDG            Width
DECAY   2000003     1.96329520E-03   # sstrange_R decays
#          BR         NDA      ID1       ID2
     1.00000000E+00    2     1000022         3   # BR(~s_R -> ~chi_10 s)
#
#         PDG            Width
DECAY   1000011     2.35756491E-02   # selectron_L decays
#          BR         NDA      ID1       ID2
     1.00000000E+00    2     1000022        11   # BR(~e_L -> ~chi_10 e-)
#
#         PDG            Width
DECAY   2000011     4.20111426E+00   # selectron_R decays
#          BR         NDA      ID1       ID2
     1.00000000E+00    2     1000022        11   # BR(~e_R -> ~chi_10 e-)
     9.79279931E-11    2     1000023        11   # BR(~e_R -> ~chi_20 e-)
#
#         PDG            Width
DECAY   1000013     2.35756017E-02   # smuon_L decays
#          BR         NDA      ID1       ID2
     1.00000000E+00    2     1000022        13   # BR(~mu_L -> ~chi_10 mu-)
#
#         PDG            Width
DECAY   2000013     4.20111417E+00   # smuon_R decays
#          BR         NDA      ID1       ID2
     1.00000000E+00    2     1000022        13   # BR(~mu_R -> ~chi_10 mu-)
     9.79278433E-11    2     1000023        13   # BR(~mu_R -> ~chi_20 mu-)
#
#         PDG            Width
DECAY   1000015     1.47021033E+00   # stau_1 decays
#          BR         NDA      ID1       ID2
     1.00000000E+00    2     1000022        15   # BR(~tau_1 -> ~chi_10  tau-)
#
#         PDG            Width
DECAY   2000015     1.79578701E+01   # stau_2 decays
#          BR         NDA      ID1       ID2
     1.48522373E-01    2     1000022        15   # BR(~tau_2 -> ~chi_10  tau-)
     2.73847454E-01    2     1000023        15   # BR(~tau_2 -> ~chi_20  tau-)
     5.47124710E-01    2    -1000024        16   # BR(~tau_2 -> ~chi_1-  nu_tau)
     1.55573835E-02    2     1000015        25   # BR(~tau_2 -> ~tau_1   h)
     1.49480784E-02    2     1000015        23   # BR(~tau_2 -> ~tau_1   Z)
#
#         PDG            Width
DECAY   1000012     1.96831311E-02   # snu_eL decays
#          BR         NDA      ID1       ID2
     1.00000000E+00    2     1000022        12   # BR(~nu_eL -> ~chi_10 nu_e)
#
#         PDG            Width
DECAY   1000014     1.96831311E-02   # snu_muL decays
#          BR         NDA      ID1       ID2
     1.00000000E+00    2     1000022        14   # BR(~nu_muL -> ~chi_10 nu_mu)
#
#         PDG            Width
DECAY   1000016     1.79099523E+01   # snu_tauL decays
#          BR         NDA      ID1       ID2
     1.48442096E-01    2     1000022        16   # BR(~nu_tauL -> ~chi_10 nu_tau)
     2.74053406E-01    2     1000023        16   # BR(~nu_tauL -> ~chi_20 nu_tau)
     5.48447085E-01    2     1000024        15   # BR(~nu_tauL -> ~chi_1+ tau-)
     2.90574134E-02    2    -1000015       -24   # BR(~nu_tauL -> ~tau_1+ W-)
#
#         PDG            Width
DECAY   1000024     1.03350861E+01   # chargino1+ decays
#          BR         NDA      ID1       ID2
     2.51684655E-01    2     1000012       -11   # BR(~chi_1+ -> ~nu_eL   e+  )
     2.51684655E-01    2     1000014       -13   # BR(~chi_1+ -> ~nu_muL  mu+ )
     2.48299499E-01    2    -1000011        12   # BR(~chi_1+ -> ~e_L+    nu_e)
     2.48299499E-01    2    -1000013        14   # BR(~chi_1+ -> ~mu_L+   nu_mu)
     2.62623852E-05    2    -1000015        16   # BR(~chi_1+ -> ~tau_1+  nu_tau)
     5.43085195E-06    2     1000022        24   # BR(~chi_1+ -> ~chi_10  W+)
#
#         PDG            Width
DECAY   1000037     5.49146408E+01   # chargino2+ decays
#          BR         NDA      ID1       ID2
     3.59195765E-05    2     1000002        -1   # BR(~chi_2+ -> ~u_L     db)
     5.17447948E-04    2    -1000001         2   # BR(~chi_2+ -> ~d_L*    u )
     3.59195758E-05    2     1000004        -3   # BR(~chi_2+ -> ~c_L     sb)
     5.17447795E-04    2    -1000003         4   # BR(~chi_2+ -> ~s_L*     c )
     1.24987589E-02    2     1000006        -5   # BR(~chi_2+ -> ~t_1     bb)
     6.55380505E-01    2    -1000005         6   # BR(~chi_2+ -> ~b_1*    t )
     4.14461973E-03    2    -2000005         6   # BR(~chi_2+ -> ~b_2*    t )
     2.22776229E-05    2     1000012       -11   # BR(~chi_2+ -> ~nu_eL   e+  )
     2.22776229E-05    2     1000014       -13   # BR(~chi_2+ -> ~nu_muL mu+ )
     8.98185217E-04    2     1000016       -15   # BR(~chi_2+ -> ~nu_tau1 tau+)
     3.21008298E-04    2    -1000011        12   # BR(~chi_2+ -> ~e_L+    nu_e)
     3.21008298E-04    2    -1000013        14   # BR(~chi_2+ -> ~mu_L+   nu_mu)
     3.48545931E-03    2    -1000015        16   # BR(~chi_2+ -> ~tau_1+  nu_tau)
     8.08815389E-05    2    -2000015        16   # BR(~chi_2+ -> ~tau_2+  nu_tau)
     9.07526960E-02    2     1000024        23   # BR(~chi_2+ -> ~chi_1+  Z )
     3.70988601E-02    2     1000022        24   # BR(~chi_2+ -> ~chi_10  W+)
     8.86029922E-02    2     1000023        24   # BR(~chi_2+ -> ~chi_20  W+)
     9.47809269E-02    2     1000024        25   # BR(~chi_2+ -> ~chi_1+  h )
     1.04828079E-02    2     1000022        37   # BR(~chi_2+ -> ~chi_10  H+)
#
#         PDG            Width
DECAY   1000022     0.00000000E+00   # neutralino1 decays
#
#         PDG            Width
DECAY   1000023     1.03315330E+01   # neutralino2 decays
#          BR         NDA      ID1       ID2
     4.49695871E-06    2     1000022        23   # BR(~chi_20 -> ~chi_10   Z )
     7.11125504E-07    2     1000022        25   # BR(~chi_20 -> ~chi_10   h )
     4.04740540E-10    2     2000001        -1   # BR(~chi_20 -> ~d_R      db)
     4.04740540E-10    2    -2000001         1   # BR(~chi_20 -> ~d_R*     d )
     4.04740540E-10    2     2000003        -3   # BR(~chi_20 -> ~s _R      sb)
     4.04740540E-10    2    -2000003         3   # BR(~chi_20 -> ~s _R*     s )
     1.24248892E-01    2     1000011       -11   # BR(~chi_20 -> ~e_L-     e+)
     1.24248892E-01    2    -1000011        11   # BR(~chi_20 -> ~e_L+     e-)
     1.24248892E-01    2     1000013       -13   # BR(~chi_20 -> ~mu_L-    mu+)
     1.24248892E-01    2    -1000013        13   # BR(~chi_20 -> ~mu_L+    mu-)
     1.31170883E-05    2     1000015       -15   # BR(~chi_20 -> ~tau_1-   tau+)
     1.31170883E-05    2    -1000015        15   # BR(~chi_20 -> ~tau_1+   tau-)
     1.25743247E-01    2     1000012       -12   # BR(~chi_20 -> ~nu_eL    nu_eb)
     1.25743247E-01    2    -1000012        12   # BR(~chi_20 -> ~nu_eL*   nu_e )
     1.25743247E-01    2     1000014       -14   # BR(~chi_20 -> ~nu_muL   nu_mub)
     1.25743247E-01    2    -1000014        14   # BR(~chi_20 -> ~nu_muL*  nu_mu )
#
#         PDG            Width
DECAY   1000025     5.51822578E+01   # neutralino3 decays
#          BR         NDA      ID1       ID2
     8.51514812E-03    2     1000022        23   # BR(~chi_30 -> ~chi_10   Z )
     6.69311690E-02    2     1000023        23   # BR(~chi_30 -> ~chi_20   Z )
     8.76345248E-02    2     1000024       -24   # BR(~chi_30 -> ~chi_1+   W-)
     8.76345248E-02    2    -1000024        24   # BR(~chi_30 -> ~chi_1-   W+)
     3.10656118E-02    2     1000022        25   # BR(~chi_30 -> ~chi_10   h )
     7.26874372E-03    2     1000022        35   # BR(~chi_30 -> ~chi_10   H )
     3.16847324E-03    2     1000022        36   # BR(~chi_30 -> ~chi_10   A )
     2.30732972E-02    2     1000023        25   # BR(~chi_30 -> ~chi_20   h )
     2.35237817E-05    2     1000002        -2   # BR(~chi_30 -> ~u_L      ub)
     2.35237817E-05    2    -1000002         2   # BR(~chi_30 -> ~u_L*     u )
     3.38432728E-06    2     2000002        -2   # BR(~chi_30 -> ~u_R      ub)
     3.38432728E-06    2    -2000002         2   # BR(~chi_30 -> ~u_R*     u )
     4.84784812E-05    2     1000001        -1   # BR(~chi_30 -> ~d_L      db)
     4.84784812E-05    2    -1000001         1   # BR(~chi_30 -> ~d_L*     d )
     8.02039142E-06    2     2000001        -1   # BR(~chi_30 -> ~d_R      db)
     8.02039142E-06    2    -2000001         1   # BR(~chi_30 -> ~d_R*     d )
     2.35237747E-05    2     1000004        -4   # BR(~chi_30 -> ~c_L      cb)
     2.35237747E-05    2    -1000004         4   # BR(~chi_30 -> ~c_L*     c )
     3.38431423E-06    2     2000004        -4   # BR(~chi_30 -> ~c_R      cb)
     3.38431423E-06    2    -2000004         4   # BR(~chi_30 -> ~c_R*     c )
     4.84784812E-05    2     1000003        -3   # BR(~chi_30 -> ~s _L      sb)
     4.84784812E-05    2    -1000003         3   # BR(~chi_30 -> ~s _L*     s )
     8.02039142E-06    2     2000003        -3   # BR(~chi_30 -> ~s _R      sb)
     8.02039142E-06    2    -2000003         3   # BR(~chi_30 -> ~s _R*     s )
     3.32498142E-01    2     1000006        -6   # BR(~chi_30 -> ~t_1      tb)
     3.32498142E-01    2    -1000006         6   # BR(~chi_30 -> ~t_1*     t )
     5.13726012E-03    2     1000005        -5   # BR(~chi_30 -> ~b_1      bb)
     5.13726012E-03    2    -1000005         5   # BR(~chi_30 -> ~b_1*     b )
     2.18302841E-03    2     2000005        -5   # BR(~chi_30 -> ~b_2      bb)
     2.18302841E-03    2    -2000005         5   # BR(~chi_30 -> ~b_2*     b )
     4.62524701E-06    2     1000011       -11   # BR(~chi_30 -> ~e_L-     e+)
     4.62524701E-06    2    -1000011        11   # BR(~chi_30 -> ~e_L+     e-)
     1.91021800E-05    2     2000011       -11   # BR(~chi_30 -> ~e_R-     e+)
     1.91021800E-05    2    -2000011        11   # BR(~chi_30 -> ~e_R+     e-)
     4.62524701E-06    2     1000013       -13   # BR(~chi_30 -> ~mu_L-    mu+)
     4.62524701E-06    2    -1000013        13   # BR(~chi_30 -> ~mu_L+    mu-)
     1.91021800E-05    2     2000013       -13   # BR(~chi_30 -> ~mu_R-    mu+)
     1.91021800E-05    2    -2000013        13   # BR(~chi_30 -> ~mu_R+    mu-)
     1.76246427E-03    2     1000015       -15   # BR(~chi_30 -> ~tau_1-   tau+)
     1.76246427E-03    2    -1000015        15   # BR(~chi_30 -> ~tau_1+   tau-)
     4.44595914E-04    2     2000015       -15   # BR(~chi_30 -> ~tau_2-   tau+)
     4.44595914E-04    2    -2000015        15   # BR(~chi_30 -> ~tau_2+   tau-)
     5.12294806E-05    2     1000012       -12   # BR(~chi_30 -> ~nu_eL    nu_eb)
     5.12294806E-05    2    -1000012        12   # BR(~chi_30 -> ~nu_eL*   nu_e )
     5.12294806E-05    2     1000014       -14   # BR(~chi_30 -> ~nu_muL   nu_mub)
     5.12294806E-05    2    -1000014        14   # BR(~chi_30 -> ~nu_muL*  nu_mu )
     1.20348163E-05    2     1000016       -16   # BR(~chi_30 -> ~nu_tau1  nu_taub)
     1.20348163E-05    2    -1000016        16   # BR(~chi_30 -> ~nu_tau1* nu_tau )
#
#         PDG            Width
DECAY   1000035     5.43655117E+01   # neutralino4 decays
#          BR         NDA      ID1       ID2
     2.98699362E-02    2     1000022        23   # BR(~chi_40 -> ~chi_10   Z )
     2.32967111E-02    2     1000023        23   # BR(~chi_40 -> ~chi_20   Z )
     8.83050002E-02    2     1000024       -24   # BR(~chi_40 -> ~chi_1+   W-)
     8.83050002E-02    2    -1000024        24   # BR(~chi_40 -> ~chi_1-   W+)
     9.38712463E-03    2     1000022        25   # BR(~chi_40 -> ~chi_10   h )
     3.21754682E-03    2     1000022        35   # BR(~chi_40 -> ~chi_10   H )
     7.37943582E-03    2     1000022        36   # BR(~chi_40 -> ~chi_10   A )
     7.23763168E-02    2     1000023        25   # BR(~chi_40 -> ~chi_20   h )
     9.24458392E-05    2     1000002        -2   # BR(~chi_40 -> ~u_L      ub)
     9.24458392E-05    2    -1000002         2   # BR(~chi_40 -> ~u_L*     u )
     9.92829190E-07    2     2000002        -2   # BR(~chi_40 -> ~u_R      ub)
     9.92829190E-07    2    -2000002         2   # BR(~chi_40 -> ~u_R*     u )
     1.15632109E-04    2     1000001        -1   # BR(~chi_40 -> ~d_L      db)
     1.15632109E-04    2    -1000001         1   # BR(~chi_40 -> ~d_L*     d )
     2.35166008E-06    2     2000001        -1   # BR(~chi_40 -> ~d_R      db)
     2.35166008E-06    2    -2000001         1   # BR(~chi_40 -> ~d_R*     d )
     9.24458119E-05    2     1000004        -4   # BR(~chi_40 -> ~c_L      cb)
     9.24458119E-05    2    -1000004         4   # BR(~chi_40 -> ~c_L*     c )
     9.92825367E-07    2     2000004        -4   # BR(~chi_40 -> ~c_R      cb)
     9.92825367E-07    2    -2000004         4   # BR(~chi_40 -> ~c_R*     c )
     1.15632109E-04    2     1000003        -3   # BR(~chi_40 -> ~s _L      sb)
     1.15632109E-04    2    -1000003         3   # BR(~chi_40 -> ~s _L*     s )
     2.35166008E-06    2     2000003        -3   # BR(~chi_40 -> ~s _R      sb)
     2.35166008E-06    2    -2000003         3   # BR(~chi_40 -> ~s _R*     s )
     3.28471527E-01    2     1000006        -6   # BR(~chi_40 -> ~t_1      tb)
     3.28471527E-01    2    -1000006         6   # BR(~chi_40 -> ~t_1*     t )
     5.28869403E-03    2     1000005        -5   # BR(~chi_40 -> ~b_1      bb)
     5.28869403E-03    2    -1000005         5   # BR(~chi_40 -> ~b_1*     b )
     2.22008002E-03    2     2000005        -5   # BR(~chi_40 -> ~b_2      bb)
     2.22008002E-03    2    -2000005         5   # BR(~chi_40 -> ~b_2*     b )
     4.44300508E-05    2     1000011       -11   # BR(~chi_40 -> ~e_L-     e+)
     4.44300508E-05    2    -1000011        11   # BR(~chi_40 -> ~e_L+     e-)
     5.60115254E-06    2     2000011       -11   # BR(~chi_40 -> ~e_R-     e+)
     5.60115254E-06    2    -2000011        11   # BR(~chi_40 -> ~e_R+     e-)
     4.44300508E-05    2     1000013       -13   # BR(~chi_40 -> ~mu_L-    mu+)
     4.44300508E-05    2    -1000013        13   # BR(~chi_40 -> ~mu_L+    mu-)
     5.60115254E-06    2     2000013       -13   # BR(~chi_40 -> ~mu_R-    mu+)
     5.60115254E-06    2    -2000013        13   # BR(~chi_40 -> ~mu_R+    mu-)
     1.77016448E-03    2     1000015       -15   # BR(~chi_40 -> ~tau_1-   tau+)
     1.77016448E-03    2    -1000015        15   # BR(~chi_40 -> ~tau_1+   tau-)
     4.61429570E-04    2     2000015       -15   # BR(~chi_40 -> ~tau_2-   tau+)
     4.61429570E-04    2    -2000015        15   # BR(~chi_40 -> ~tau_2+   tau-)
     8.79924224E-05    2     1000012       -12   # BR(~chi_40 -> ~nu_eL    nu_eb)
     8.79924224E-05    2    -1000012        12   # BR(~chi_40 -> ~nu_eL*   nu_e )
     8.79924224E-05    2     1000014       -14   # BR(~chi_40 -> ~nu_muL   nu_mub)
     8.79924224E-05    2    -1000014        14   # BR(~chi_40 -> ~nu_muL*  nu_mu )
     2.06765786E-05    2     1000016       -16   # BR(~chi_40 -> ~nu_tau1  nu_taub)
     2.06765786E-05    2    -1000016        16   # BR(~chi_40 -> ~nu_tau1* nu_tau )
#
#         PDG            Width
DECAY        25     4.27146649E-03   # h decays
#          BR         NDA      ID1       ID2
     6.39230275E-01    2           5        -5   # BR(h -> b       bb     )
     6.07321513E-02    2         -15        15   # BR(h -> tau+    tau-   )
     2.14997545E-04    2         -13        13   # BR(h -> mu+     mu-    )
     2.34519400E-04    2           3        -3   # BR(h -> s       sb     )
     2.01963490E-02    2           4        -4   # BR(h -> c       cb     )
     7.34919380E-02    2          21        21   # BR(h -> g       g      )
     2.14196624E-03    2          22        22   # BR(h -> gam     gam    )
     1.35895864E-03    2          22        23   # BR(h -> Z       gam    )
     1.80218277E-01    2          24       -24   # BR(h -> W+      W-     )
     2.21805676E-02    2          23        23   # BR(h -> Z       Z      )
#
#         PDG            Width
DECAY        35     3.01994937E+00   # H decays
#          BR         NDA      ID1       ID2
     5.00966426E-01    2           5        -5   # BR(H -> b       bb     )
     9.88858794E-02    2         -15        15   # BR(H -> tau+    tau-   )
     3.58512262E-04    2         -13        13   # BR(H -> mu+     mu-    )
     1.48311240E-04    2           3        -3   # BR(H -> s       sb     )
     4.09250311E-06    2           4        -4   # BR(H -> c       cb     )
     3.96173983E-01    2           6        -6   # BR(H -> t       tb     )
     2.51500245E-04    2          21        21   # BR(H -> g       g      )
     1.04202579E-06    2          22        22   # BR(H -> gam     gam    )
     3.68162039E-07    2          23        22   # BR(H -> Z       gam    )
     2.39562137E-04    2          24       -24   # BR(H -> W+      W-     )
     1.19319336E-04    2          23        23   # BR(H -> Z       Z      )
     1.26332118E-03    2          25        25   # BR(H -> h       h      )
     1.74359177E-04    2     1000022   1000022   # BR(H -> ~chi_10 ~chi_10)
     9.36860046E-04    2     1000022   1000023   # BR(H -> ~chi_10 ~chi_20)
     1.11528046E-05    2     2000001  -2000001   # BR(H -> ~d_R    ~d_R*  )
     1.11528046E-05    2     2000003  -2000003   # BR(H -> ~s_R    ~s_R*  )
     5.00891241E-05    2     1000011  -1000011   # BR(H -> ~e_L-   ~e_L+  )
     5.00891241E-05    2     1000013  -1000013   # BR(H -> ~mu_L-  ~mu_L+ )
     2.60710709E-05    2     1000015  -1000015   # BR(H -> ~tau_1- ~tau_1+)
     1.63954213E-04    2     1000012  -1000012   # BR(H -> ~nu_eL  ~nu_eL*   )
     1.63954213E-04    2     1000014  -1000014   # BR(H -> ~nu_muL ~nu_muL*  )
#
#         PDG            Width
DECAY        36     3.02906344E+00   # A decays
#          BR         NDA      ID1       ID2
     4.99754009E-01    2           5        -5   # BR(A -> b       bb     )
     9.86012518E-02    2         -15        15   # BR(A -> tau+    tau-   )
     3.57478642E-04    2         -13        13   # BR(A -> mu+     mu-    )
     1.48036582E-04    2           3        -3   # BR(A -> s       sb     )
     4.08096251E-06    2           4        -4   # BR(A -> c       cb     )
     3.99764481E-01    2           6        -6   # BR(A -> t       tb     )
     6.03007412E-04    2          21        21   # BR(A -> g       g      )
     1.63604383E-06    2          22        22   # BR(A -> gam     gam    )
     6.49189704E-07    2          23        22   # BR(A -> Z       gam    )
     2.40929799E-04    2          23        25   # BR(A -> Z       h      )
     2.97062093E-04    2     1000022   1000022   # BR(A -> ~chi_10 ~chi_10)
     2.27376873E-04    2     1000022   1000023   # BR(A -> ~chi_10 ~chi_20)
#
#         PDG            Width
DECAY        37     2.78120229E+00   # H+ decays
#          BR         NDA      ID1       ID2
     7.80515733E-04    2           4        -5   # BR(H+ -> c       bb     )
     1.07478353E-01    2         -15        16   # BR(H+ -> tau+    nu_tau )
     3.89662556E-04    2         -13        14   # BR(H+ -> mu+     nu_mu  )
     7.80506573E-06    2           2        -5   # BR(H+ -> u       bb     )
     8.05394542E-06    2           2        -3   # BR(H+ -> u       sb     )
     1.62786215E-04    2           4        -3   # BR(H+ -> c       sb     )
     8.89207943E-01    2           6        -5   # BR(H+ -> t       bb     )
     2.63441493E-04    2          24        25   # BR(H+ -> W+      h      )
     6.03343720E-12    2          24        36   # BR(H+ -> W+      A      )
     1.27456412E-03    2     1000024   1000022   # BR(H+ -> ~chi_1+ ~chi_10)
     2.13437317E-04    2    -1000011   1000012   # BR(H+ -> ~e_L+   ~nu_eL )
     2.13437317E-04    2    -1000013   1000014   # BR(H+ -> ~mu_L+  ~nu_muL)

DECAY         5   0.000000e+00 # b decays
DECAY        15   0.000000e+00 # tau decays
DECAY        23     2.49520000E+00   # Z
DECAY        24     2.08500000E+00   # W
