# SUSY Les Houches Accord 2 - MSSM spectrum + Decays
# SPheno v4.0.5be
# W. Porod, Comput. Phys. Commun. 153 (2003) 275-315, hep-ph/0301101;
# W. Porod, F.~Staub, Comput. Phys. Commun. 183 (2012) 2458
#                     arXiv:1104.1573 [hep-ph] 
# in case of problems send email to porod@physik.uni-wuerzburg.de
# Created: 07.09.2021,  16:21
Block SPINFO         # Program information
     1   SPheno      # spectrum calculator
     2   v4.0.5be    # version number
#
Block SPhenoINFO     # SPheno specific information
    1      2         # using 2-loop RGEs
    2      2         # using pole masses for boundary conditions at mZ
Block MODSEL  # Model selection
    1    0    # general MSSM
Block MINPAR  # Input parameters
    3    5.25168453E+00  # tanb at m_Z    
    4    1.00000000E+00  # Sign(mu)
Block EXTPAR  # non-universal input parameters
    0    3.68676465E+03  # scale for input parameters
    1    1.57180189E+02  # M_1
    2    1.68536348E+03  # M_2
    3    2.83754858E+03  # M_3
   11    5.66995361E+03  # A_t
   12    1.30683098E+03  # A_b
   13   -1.42628042E+03  # A_tau
   23    1.73590805E+02  # mu
   25    4.97715204E+00  # tan(beta)
   26    4.06128649E+03  # m_A, pole mass
   31    1.00000000E+04  # M_L11
   32    1.00000000E+04  # M_L22
   33    1.00000000E+04  # M_L33
   34    1.00000000E+04  # M_E11
   35    1.00000000E+04  # M_E22
   36    1.00000000E+04  # M_E33
   41    1.00000000E+04  # M_Q11
   42    1.00000000E+04  # M_Q22
   43    2.64173148E+03  # M_Q33
   44    1.00000000E+04  # M_U11
   45    1.00000000E+04  # M_U22
   46    4.97134991E+03  # M_U33
   47    1.00000000E+04  # M_D11
   48    1.00000000E+04  # M_D22
   49    2.95915421E+03  # M_D33
Block SMINPUTS  # SM parameters
         1     1.27908970E+02  # alpha_em^-1(MZ)^MSbar
         2     1.16637870E-05  # G_mu [GeV^-2]
         3     1.18400000E-01  # alpha_s(MZ)^MSbar
         4     9.11876000E+01  # m_Z(pole)
         5     4.18000000E+00  # m_b(m_b), MSbar
         6     1.73200000E+02  # m_t(pole)
         7     1.77700000E+00  # m_tau(pole)
         8     0.00000000E+00  # m_nu_3
        11     5.10998930E-04  # m_e(pole)
        12     0.00000000E+00  # m_nu_1
        13     1.05658372E-01  # m_muon(pole)
        14     0.00000000E+00  # m_nu_2
        21     5.00000000E-03  # m_d(2 GeV), MSbar
        22     2.50000000E-03  # m_u(2 GeV), MSbar
        23     9.50000000E-02  # m_s(2 GeV), MSbar
        24     1.27000000E+00  # m_c(m_c), MSbar
Block gauge Q=  3.68676465E+03  # (SUSY scale)
   1    3.55362975E-01  # g'(Q)^DRbar
   2    6.65198874E-01  # g(Q)^DRbar
   3    1.21977796E+00  # g3(Q)^DRbar
Block Yu Q=  3.68676465E+03  # (SUSY scale)
  1  1     8.55192842E-06   # Y_u(Q)^DRbar
  2  2     4.34437964E-03   # Y_c(Q)^DRbar
  3  3     1.03314164E+00   # Y_t(Q)^DRbar
Block Yd Q=  3.68676465E+03  # (SUSY scale)
  1  1     8.55313274E-05   # Y_d(Q)^DRbar
  2  2     1.62509522E-03   # Y_s(Q)^DRbar
  3  3     8.48202752E-02   # Y_b(Q)^DRbar
Block Ye Q=  3.68676465E+03  # (SUSY scale)
  1  1     1.49258421E-05   # Y_e(Q)^DRbar
  2  2     3.08619076E-03   # Y_mu(Q)^DRbar
  3  3     5.19046515E-02   # Y_tau(Q)^DRbar
Block Au Q=  3.68676465E+03  # (SUSY scale)
  1  1     0.00000000E+00   # A_u(Q)^DRbar
  2  2     0.00000000E+00   # A_c(Q)^DRbar
  3  3     5.66995362E+03   # A_t(Q)^DRbar
Block Ad Q=  3.68676465E+03  # (SUSY scale)
  1  1     0.00000000E+00   # A_d(Q)^DRbar
  2  2     0.00000000E+00   # A_s(Q)^DRbar
  3  3     1.30683098E+03   # A_b(Q)^DRbar
Block Ae Q=  3.68676465E+03  # (SUSY scale)
  1  1     0.00000000E+00   # A_e(Q)^DRbar
  2  2     0.00000000E+00   # A_mu(Q)^DRbar
  3  3    -1.42628042E+03   # A_tau(Q)^DRbar
Block MSOFT Q=  3.68676465E+03  # soft SUSY breaking masses at Q
   1    1.57180189E+02  # M_1
   2    1.68536348E+03  # M_2
   3    2.83754858E+03  # M_3
  21    1.57720922E+07  # M^2_(H,d)
  22    7.34091092E+05  # M^2_(H,u)
  31    1.00000000E+04  # M_(L,11)
  32    1.00000000E+04  # M_(L,22)
  33    1.00000000E+04  # M_(L,33)
  34    1.00000000E+04  # M_(E,11)
  35    1.00000000E+04  # M_(E,22)
  36    1.00000000E+04  # M_(E,33)
  41    1.00000000E+04  # M_(Q,11)
  42    1.00000000E+04  # M_(Q,22)
  43    2.64173148E+03  # M_(Q,33)
  44    1.00000000E+04  # M_(U,11)
  45    1.00000000E+04  # M_(U,22)
  46    4.97134991E+03  # M_(U,33)
  47    1.00000000E+04  # M_(D,11)
  48    1.00000000E+04  # M_(D,22)
  49    2.95915421E+03  # M_(D,33)
Block MASS  # Mass spectrum
#   PDG code      mass          particle
         6     1.73200000E+02  # m_t(pole)
        23     9.11876000E+01  # m_Z(pole)
        24     8.04299946E+01  # W+
        15     1.77700000E+00  # m_tau(pole)
        25     1.23080245E+02  # h0
        35     4.06115699E+03  # H0
        36     4.06128649E+03  # A0
        37     4.06367399E+03  # H+
   1000001     1.01086361E+04  # ~d_L
   2000001     1.00849059E+04  # ~d_R
   1000002     1.01082966E+04  # ~u_L
   2000002     1.00881780E+04  # ~u_R
   1000003     1.01086366E+04  # ~s_L
   2000003     1.00849060E+04  # ~s_R
   1000004     1.01082971E+04  # ~c_L
   2000004     1.00881789E+04  # ~c_R
   1000005     2.75425248E+03  # ~b_1
   2000005     3.07819091E+03  # ~b_2
   1000006     2.75131578E+03  # ~t_1
   2000006     4.94026664E+03  # ~t_2
   1000011     1.00203003E+04  # ~e_L-
   2000011     1.00088347E+04  # ~e_R-
   1000012     1.00195600E+04  # ~nu_eL
   1000013     1.00203006E+04  # ~mu_L-
   2000013     1.00088352E+04  # ~mu_R-
   1000014     1.00195603E+04  # ~nu_muL
   1000015     1.00089962E+04  # ~tau_1-
   2000015     1.00203885E+04  # ~tau_2-
   1000016     1.00196445E+04  # ~nu_tauL
   1000021     3.28126251E+03  # ~g
   1000022     1.32311468E+02  # ~chi_10
   1000023     1.85990612E+02  # ~chi_20
   1000025     2.07998527E+02  # ~chi_30
   1000035     1.78964065E+03  # ~chi_40
   1000024     1.81763946E+02  # ~chi_1+
   1000037     1.78960536E+03  # ~chi_2+
# Higgs mixing
Block alpha # Effective Higgs mixing angle
          -1.88416285E-01   # alpha
Block Hmix Q=  3.68676465E+03  # Higgs mixing parameters
   1    1.73590805E+02  # mu
   2    4.97715204E+00  # tan[beta](Q)
   3    2.43032488E+02  # v(Q)
   4    1.64940480E+07  # m^2_A(Q)
Block stopmix # stop mixing matrix
   1  1    -9.99034642E-01   # Re[R_st(1,1)]
   1  2     4.39293004E-02   # Re[R_st(1,2)]
   2  1    -4.39293004E-02   # Re[R_st(2,1)]
   2  2    -9.99034642E-01   # Re[R_st(2,2)]
Block sbotmix # sbottom mixing matrix
   1  1    -9.99999950E-01   # Re[R_sb(1,1)]
   1  2     3.16985037E-04   # Re[R_sb(1,2)]
   2  1    -3.16985037E-04   # Re[R_sb(2,1)]
   2  2    -9.99999950E-01   # Re[R_sb(2,2)]
Block staumix # stau mixing matrix
   1  1     1.78598209E-02   # Re[R_sta(1,1)]
   1  2     9.99840501E-01   # Re[R_sta(1,2)]
   2  1    -9.99840501E-01   # Re[R_sta(2,1)]
   2  2     1.78598209E-02   # Re[R_sta(2,2)]
Block Nmix # neutralino mixing matrix
   1  1     7.97096094E-01   # Re[N(1,1)]
   1  2    -2.25159536E-02   # Re[N(1,2)]
   1  3     4.69771516E-01   # Re[N(1,3)]
   1  4    -3.78742091E-01   # Re[N(1,4)]
   2  1     7.16897603E-02   # Re[N(2,1)]
   2  2    -2.31803543E-02   # Re[N(2,2)]
   2  3    -6.97376709E-01   # Re[N(2,3)]
   2  4    -7.12733453E-01   # Re[N(2,4)]
   3  1    -5.99580377E-01   # Re[N(3,1)]
   3  2    -3.49192318E-02   # Re[N(3,2)]
   3  3     5.41112711E-01   # Re[N(3,3)]
   3  4    -5.88626412E-01   # Re[N(3,4)]
   4  1     1.32921873E-03   # Re[N(4,1)]
   4  2    -9.98867534E-01   # Re[N(4,2)]
   4  3    -1.33222416E-02   # Re[N(4,3)]
   4  4     4.56552385E-02   # Re[N(4,4)]
Block Umix # chargino mixing matrix
   1  1    -1.88253605E-02   # Re[U(1,1)]
   1  2     9.99822787E-01   # Re[U(1,2)]
   2  1     9.99822787E-01   # Re[U(2,1)]
   2  2     1.88253605E-02   # Re[U(2,2)]
Block Vmix # chargino mixing matrix
   1  1    -6.45798976E-02   # Re[V(1,1)]
   1  2     9.97912540E-01   # Re[V(1,2)]
   2  1     9.97912540E-01   # Re[V(2,1)]
   2  2     6.45798976E-02   # Re[V(2,2)]
DECAY        23     2.49520000E+00   # Z
DECAY        24     2.08500000E+00   # W
DECAY   2000011     5.02637751E+01   # ~e^-_R
#    BR                NDA      ID1      ID2
     6.35480850E-01    2     1000022        11   # BR(~e^-_R -> chi^0_1 e^-)
     5.13862840E-03    2     1000023        11   # BR(~e^-_R -> chi^0_2 e^-)
     3.59378864E-01    2     1000025        11   # BR(~e^-_R -> chi^0_3 e^-)
DECAY   1000011     1.36599346E+02   # ~e^-_L
#    BR                NDA      ID1      ID2
     5.25001042E-02    2     1000022        11   # BR(~e^-_L -> chi^0_1 e^-)
     4.07074572E-02    2     1000025        11   # BR(~e^-_L -> chi^0_3 e^-)
     3.01491561E-01    2     1000035        11   # BR(~e^-_L -> chi^0_4 e^-)
     2.28699926E-04    2    -1000024        12   # BR(~e^-_L -> chi^-_1 nu_e)
     6.04998436E-01    2    -1000037        12   # BR(~e^-_L -> chi^-_2 nu_e)
#    BR                NDA      ID1      ID2       ID3
DECAY   2000013     5.02675680E+01   # ~mu^-_R
#    BR                NDA      ID1      ID2
     6.35441253E-01    2     1000022        13   # BR(~mu^-_R -> chi^0_1 mu^-)
     5.15657681E-03    2     1000023        13   # BR(~mu^-_R -> chi^0_2 mu^-)
     3.59362804E-01    2     1000025        13   # BR(~mu^-_R -> chi^0_3 mu^-)
DECAY   1000013     1.36601248E+02   # ~mu^-_L
#    BR                NDA      ID1      ID2
     5.25024413E-02    2     1000022        13   # BR(~mu^-_L -> chi^0_1 mu^-)
     4.07109575E-02    2     1000025        13   # BR(~mu^-_L -> chi^0_3 mu^-)
     3.01487376E-01    2     1000035        13   # BR(~mu^-_L -> chi^0_4 mu^-)
     2.28696748E-04    2    -1000024        14   # BR(~mu^-_L -> chi^-_1 nu_mu)
     6.04990032E-01    2    -1000037        14   # BR(~mu^-_L -> chi^-_2 nu_mu)
#    BR                NDA      ID1      ID2       ID3
DECAY   1000015     5.13645409E+01   # ~tau^-_1
#    BR                NDA      ID1      ID2
     6.24733743E-01    2     1000022        15   # BR(~tau^-_1 -> chi^0_1 tau^-)
     9.95809212E-03    2     1000023        15   # BR(~tau^-_1 -> chi^0_2 tau^-)
     3.54139595E-01    2     1000025        15   # BR(~tau^-_1 -> chi^0_3 tau^-)
     2.16597731E-04    2     1000035        15   # BR(~tau^-_1 -> chi^0_4 tau^-)
     1.05202656E-02    2    -1000024        16   # BR(~tau^-_1 -> chi^-_1 nu_tau)
     4.31706761E-04    2    -1000037        16   # BR(~tau^-_1 -> chi^-_2 nu_tau)
DECAY   2000015     1.37109591E+02   # ~tau^-_2
#    BR                NDA      ID1      ID2
     5.29601620E-02    2     1000022        15   # BR(~tau^-_2 -> chi^0_1 tau^-)
     2.03204089E-03    2     1000023        15   # BR(~tau^-_2 -> chi^0_2 tau^-)
     4.19268791E-02    2     1000025        15   # BR(~tau^-_2 -> chi^0_3 tau^-)
     3.00293273E-01    2     1000035        15   # BR(~tau^-_2 -> chi^0_4 tau^-)
     1.95303585E-04    2    -1000024        16   # BR(~tau^-_2 -> chi^-_1 nu_tau)
     6.02592341E-01    2    -1000037        16   # BR(~tau^-_2 -> chi^-_2 nu_tau)
#    BR                NDA      ID1      ID2       ID3
DECAY   1000012     1.36602106E+02   # ~nu_e
#    BR                NDA      ID1      ID2
     6.48724254E-02    2     1000022        12   # BR(~nu_e -> chi^0_1 nu_e)
     1.21938728E-03    2     1000023        12   # BR(~nu_e -> chi^0_2 nu_e)
     2.62720789E-02    2     1000025        12   # BR(~nu_e -> chi^0_3 nu_e)
     3.02318715E-01    2     1000035        12   # BR(~nu_e -> chi^0_4 nu_e)
     2.69112130E-03    2     1000024        11   # BR(~nu_e -> chi^+_1 e^-)
     6.02626272E-01    2     1000037        11   # BR(~nu_e -> chi^+_2 e^-)
#    BR                NDA      ID1      ID2       ID3
DECAY   1000014     1.36604008E+02   # ~nu_mu
#    BR                NDA      ID1      ID2
     6.48715242E-02    2     1000022        14   # BR(~nu_mu -> chi^0_1 nu_mu)
     1.21937034E-03    2     1000023        14   # BR(~nu_mu -> chi^0_2 nu_mu)
     2.62717139E-02    2     1000025        14   # BR(~nu_mu -> chi^0_3 nu_mu)
     3.02314516E-01    2     1000035        14   # BR(~nu_mu -> chi^0_4 nu_mu)
     2.70496765E-03    2     1000024        13   # BR(~nu_mu -> chi^+_1 mu^-)
     6.02617907E-01    2     1000037        13   # BR(~nu_mu -> chi^+_2 mu^-)
#    BR                NDA      ID1      ID2       ID3
DECAY   1000016     1.37140060E+02   # ~nu_tau
#    BR                NDA      ID1      ID2
     6.46184980E-02    2     1000022        16   # BR(~nu_tau -> chi^0_1 nu_tau)
     1.21461429E-03    2     1000023        16   # BR(~nu_tau -> chi^0_2 nu_tau)
     2.61692434E-02    2     1000025        16   # BR(~nu_tau -> chi^0_3 nu_tau)
     3.01135694E-01    2     1000035        16   # BR(~nu_tau -> chi^0_4 nu_tau)
     6.59247315E-03    2     1000024        15   # BR(~nu_tau -> chi^+_1 tau^-)
     6.00269477E-01    2     1000037        15   # BR(~nu_tau -> chi^+_2 tau^-)
#    BR                NDA      ID1      ID2       ID3
DECAY   2000001     6.42044451E+02   # ~d_R
#    BR                NDA      ID1      ID2
     5.56981306E-03    2     1000022         1   # BR(~d_R -> chi^0_1 d)
     3.14988062E-03    2     1000025         1   # BR(~d_R -> chi^0_3 d)
     9.91235250E-01    2     1000021         1   # BR(~d_R -> ~g d)
DECAY   1000001     7.65284384E+02   # ~d_L
#    BR                NDA      ID1      ID2
     1.57192750E-03    2     1000022         1   # BR(~d_L -> chi^0_1 d)
     2.99889676E-04    2     1000025         1   # BR(~d_L -> chi^0_3 d)
     5.44545438E-02    2     1000035         1   # BR(~d_L -> chi^0_4 d)
     1.09066077E-01    2    -1000037         2   # BR(~d_L -> chi^-_2 u)
     8.34491305E-01    2     1000021         1   # BR(~d_L -> ~g d)
DECAY   2000003     6.42045516E+02   # ~s_R
#    BR                NDA      ID1      ID2
     5.56998539E-03    2     1000022         3   # BR(~s_R -> chi^0_1 s)
     3.15011624E-03    2     1000025         3   # BR(~s_R -> chi^0_3 s)
     9.91233619E-01    2     1000021         3   # BR(~s_R -> ~g s)
DECAY   1000003     7.65288759E+02   # ~s_L
#    BR                NDA      ID1      ID2
     1.57207125E-03    2     1000022         3   # BR(~s_L -> chi^0_1 s)
     3.00090460E-04    2     1000025         3   # BR(~s_L -> chi^0_3 s)
     5.44542357E-02    2     1000035         3   # BR(~s_L -> chi^0_4 s)
     1.09065479E-01    2    -1000037         4   # BR(~s_L -> chi^-_2 c)
     8.34486595E-01    2     1000021         3   # BR(~s_L -> ~g s)
DECAY   1000005     7.03121801E+01   # ~b_1
#    BR                NDA      ID1      ID2
     5.86842576E-03    2     1000022         5   # BR(~b_1 -> chi^0_1 b)
     2.92380032E-03    2     1000023         5   # BR(~b_1 -> chi^0_2 b)
     2.50649939E-03    2     1000025         5   # BR(~b_1 -> chi^0_3 b)
     5.74577253E-02    2     1000035         5   # BR(~b_1 -> chi^0_4 b)
     8.14544689E-01    2    -1000024         6   # BR(~b_1 -> chi^-_1 t)
     1.16698860E-01    2    -1000037         6   # BR(~b_1 -> chi^-_2 t)
DECAY   2000005     2.58098400E+00   # ~b_2
#    BR                NDA      ID1      ID2
     4.59116139E-01    2     1000022         5   # BR(~b_2 -> chi^0_1 b)
     8.57902984E-02    2     1000023         5   # BR(~b_2 -> chi^0_2 b)
     2.86662722E-01    2     1000025         5   # BR(~b_2 -> chi^0_3 b)
     1.68383077E-01    2    -1000024         6   # BR(~b_2 -> chi^-_1 t)
DECAY   2000002     6.59238094E+02   # ~u_R
#    BR                NDA      ID1      ID2
     2.17052282E-02    2     1000022         2   # BR(~u_R -> chi^0_1 u)
     1.75513859E-04    2     1000023         2   # BR(~u_R -> chi^0_2 u)
     1.22748988E-02    2     1000025         2   # BR(~u_R -> chi^0_3 u)
     9.65844302E-01    2     1000021         2   # BR(~u_R -> ~g u)
DECAY   1000002     7.65271034E+02   # ~u_L
#    BR                NDA      ID1      ID2
     8.28921089E-04    2     1000022         2   # BR(~u_L -> chi^0_1 u)
     1.16618665E-03    2     1000025         2   # BR(~u_L -> chi^0_3 u)
     5.44018379E-02    2     1000035         2   # BR(~u_L -> chi^0_4 u)
     4.84631218E-04    2     1000024         1   # BR(~u_L -> chi^+_1 d)
     1.08647489E-01    2     1000037         1   # BR(~u_L -> chi^+_2 d)
     8.34464633E-01    2     1000021         2   # BR(~u_L -> ~g u)
DECAY   2000004     6.59245718E+02   # ~c_R
#    BR                NDA      ID1      ID2
     2.17058012E-02    2     1000022         4   # BR(~c_R -> chi^0_1 c)
     1.78428417E-04    2     1000023         4   # BR(~c_R -> chi^0_2 c)
     1.22767484E-02    2     1000025         4   # BR(~c_R -> chi^0_3 c)
     9.65833213E-01    2     1000021         4   # BR(~c_R -> ~g c)
DECAY   1000004     7.65275378E+02   # ~c_L
#    BR                NDA      ID1      ID2
     8.29627755E-04    2     1000022         4   # BR(~c_L -> chi^0_1 c)
     1.16789647E-03    2     1000025         4   # BR(~c_L -> chi^0_3 c)
     5.44015420E-02    2     1000035         4   # BR(~c_L -> chi^0_4 c)
     4.85319828E-04    2     1000024         3   # BR(~c_L -> chi^+_1 s)
     1.08646878E-01    2     1000037         3   # BR(~c_L -> chi^+_2 s)
     8.34459917E-01    2     1000021         4   # BR(~c_L -> ~g c)
DECAY   1000006     7.03049250E+01   # ~t_1
#    BR                NDA      ID1      ID2
     1.14928510E-01    2     1000022         6   # BR(~t_1 -> chi^0_1 t)
     4.13802320E-01    2     1000023         6   # BR(~t_1 -> chi^0_2 t)
     2.90919071E-01    2     1000025         6   # BR(~t_1 -> chi^0_3 t)
     5.83599627E-02    2     1000035         6   # BR(~t_1 -> chi^0_4 t)
     5.54415919E-03    2     1000024         5   # BR(~t_1 -> chi^+_1 b)
     1.14969468E-01    2     1000037         5   # BR(~t_1 -> chi^+_2 b)
#    BR                NDA      ID1      ID2       ID3
     1.47650828E-03    3     1000022        24         5   # BR(~t_1 -> chi^0_1 W^+ b)
DECAY   2000006     4.64108557E+02   # ~t_2
#    BR                NDA      ID1      ID2
     4.87548219E-02    2     1000022         6   # BR(~t_2 -> chi^0_1 t)
     1.14685527E-01    2     1000023         6   # BR(~t_2 -> chi^0_2 t)
     8.49516455E-02    2     1000025         6   # BR(~t_2 -> chi^0_3 t)
     1.11797863E-04    2     1000035         6   # BR(~t_2 -> chi^0_4 t)
     2.24876939E-01    2     1000024         5   # BR(~t_2 -> chi^+_1 b)
     2.24710717E-04    2     1000037         5   # BR(~t_2 -> chi^+_2 b)
     2.62256636E-01    2     1000021         6   # BR(~t_2 -> ~g t)
     1.11417800E-01    2     1000005        24   # BR(~t_2 -> ~b_1 W^+)
     5.57273100E-02    2     1000006        23   # BR(~t_2 -> ~t_1 Z)
     9.69928051E-02    2     1000006        25   # BR(~t_2 -> ~t_1 h^0)
DECAY   1000024     1.32340699E-04   # chi^+_1
#    BR                NDA      ID1      ID2       ID3
     3.33877704E-01    3     1000022        -1         2   # BR(chi^+_1 -> chi^0_1 d_bar u)
     3.32946173E-01    3     1000022        -3         4   # BR(chi^+_1 -> chi^0_1 s_bar c)
     1.11292668E-01    3     1000022       -11        12   # BR(chi^+_1 -> chi^0_1 e^+ nu_e)
     1.11292049E-01    3     1000022       -13        14   # BR(chi^+_1 -> chi^0_1 mu^+ nu_mu)
     1.10591406E-01    3     1000022       -15        16   # BR(chi^+_1 -> chi^0_1 tau^+ nu_tau)
DECAY   1000037     1.74620274E+01   # chi^+_2
#    BR                NDA      ID1      ID2
     6.39184536E-02    2     1000022        24   # BR(chi^+_2 -> chi^0_1 W^+)
     2.47087378E-01    2     1000023        24   # BR(chi^+_2 -> chi^0_2 W^+)
     1.78094451E-01    2     1000025        24   # BR(chi^+_2 -> chi^0_3 W^+)
     2.43735122E-01    2     1000024        23   # BR(chi^+_2 -> chi^+_1 Z)
     2.38581070E-01    2     1000024        25   # BR(chi^+_2 -> chi^+_1 h^0)
#    BR                NDA      ID1      ID2       ID3
     1.21588587E-02    3     1000024         6        -6   # BR(chi^+_2 -> chi^+_1 t t_bar)
     2.41389680E-03    3     1000022        -5         6   # BR(chi^+_2 -> chi^0_1 b_bar t)
     7.51613402E-03    3     1000023        -5         6   # BR(chi^+_2 -> chi^0_2 b_bar t)
     6.49247692E-03    3     1000025        -5         6   # BR(chi^+_2 -> chi^0_3 b_bar t)
DECAY   1000022     0.00000000E+00   # chi^0_1
DECAY   1000023     5.03437945E-04   # chi^0_2
#    BR                NDA      ID1      ID2
     8.23590818E-03    2     1000022        22   # BR(chi^0_2 -> chi^0_1 photon)
#    BR                NDA      ID1      ID2       ID3
     1.18822400E-01    3     1000022         2        -2   # BR(chi^0_2 -> chi^0_1 u u_bar)
     1.18069985E-01    3     1000022         4        -4   # BR(chi^0_2 -> chi^0_1 c c_bar)
     1.52353570E-01    3     1000022         1        -1   # BR(chi^0_2 -> chi^0_1 d d_bar)
     1.52348981E-01    3     1000022         3        -3   # BR(chi^0_2 -> chi^0_1 s s_bar)
     1.43732382E-01    3     1000022         5        -5   # BR(chi^0_2 -> chi^0_1 b b_bar)
     3.43815345E-02    3     1000022        11       -11   # BR(chi^0_2 -> chi^0_1 e^- e^+)
     3.43798729E-02    3     1000022        13       -13   # BR(chi^0_2 -> chi^0_1 mu^- mu^+)
     3.39157086E-02    3     1000022        15       -15   # BR(chi^0_2 -> chi^0_1 tau^- tau^+)
     2.03741728E-01    3     1000022        12       -12   # BR(chi^0_2 -> chi^0_1 nu_e nu_bar_e)
DECAY   1000025     4.28780236E-05   # chi^0_3
#    BR                NDA      ID1      ID2
     2.50428796E-03    2     1000022        22   # BR(chi^0_3 -> chi^0_1 photon)
     1.85939928E-02    2     1000023        22   # BR(chi^0_3 -> chi^0_2 photon)
#    BR                NDA      ID1      ID2       ID3
     3.49049225E-02    3     1000022         2        -2   # BR(chi^0_3 -> chi^0_1 u u_bar)
     3.48223477E-02    3     1000022         4        -4   # BR(chi^0_3 -> chi^0_1 c c_bar)
     4.47376376E-02    3     1000022         1        -1   # BR(chi^0_3 -> chi^0_1 d d_bar)
     4.47371941E-02    3     1000022         3        -3   # BR(chi^0_3 -> chi^0_1 s s_bar)
     4.38277041E-02    3     1000022         5        -5   # BR(chi^0_3 -> chi^0_1 b b_bar)
     1.00815468E-02    3     1000022        11       -11   # BR(chi^0_3 -> chi^0_1 e^- e^+)
     1.00814014E-02    3     1000022        13       -13   # BR(chi^0_3 -> chi^0_1 mu^- mu^+)
     1.00371834E-02    3     1000022        15       -15   # BR(chi^0_3 -> chi^0_1 tau^- tau^+)
     5.98485191E-02    3     1000022        12       -12   # BR(chi^0_3 -> chi^0_1 nu_e nu_bar_e)
     2.83047382E-02    3     1000023         2        -2   # BR(chi^0_3 -> chi^0_2 u u_bar)
     2.70931798E-02    3     1000023         4        -4   # BR(chi^0_3 -> chi^0_2 c c_bar)
     3.62924230E-02    3     1000023         1        -1   # BR(chi^0_3 -> chi^0_2 d d_bar)
     3.62847411E-02    3     1000023         3        -3   # BR(chi^0_3 -> chi^0_2 s s_bar)
     2.39361110E-02    3     1000023         5        -5   # BR(chi^0_3 -> chi^0_2 b b_bar)
     8.19022705E-03    3     1000023        11       -11   # BR(chi^0_3 -> chi^0_2 e^- e^+)
     8.18748531E-03    3     1000023        13       -13   # BR(chi^0_3 -> chi^0_2 mu^- mu^+)
     7.45718170E-03    3     1000023        15       -15   # BR(chi^0_3 -> chi^0_2 tau^- tau^+)
     4.85332221E-02    3     1000023        12       -12   # BR(chi^0_3 -> chi^0_2 nu_e nu_bar_e)
     7.74058156E-02    3     1000024         1        -2   # BR(chi^0_3 -> chi^+_1 d u_bar)
     7.74058156E-02    3    -1000024        -1         2   # BR(chi^0_3 -> chi^-_1 d_bar u)
     7.65407374E-02    3     1000024         3        -4   # BR(chi^0_3 -> chi^+_1 s c_bar)
     7.65407374E-02    3    -1000024        -3         4   # BR(chi^0_3 -> chi^-_1 s_bar c)
     2.58018904E-02    3     1000024        11       -12   # BR(chi^0_3 -> chi^+_1 e^- nu_bar_e)
     2.58018904E-02    3    -1000024       -11        12   # BR(chi^0_3 -> chi^-_1 e^+ nu_e)
     2.58016977E-02    3     1000024        13       -14   # BR(chi^0_3 -> chi^+_1 mu^- nu_bar_mu)
     2.58016977E-02    3    -1000024       -13        14   # BR(chi^0_3 -> chi^-_1 mu^+ nu_mu)
     2.52218354E-02    3     1000024        15       -16   # BR(chi^0_3 -> chi^+_1 tau^- nu_bar_tau)
     2.52218354E-02    3    -1000024       -15        16   # BR(chi^0_3 -> chi^-_1 tau^+ nu_tau)
DECAY   1000035     1.79442562E+01   # chi^0_4
#    BR                NDA      ID1      ID2
     2.38076642E-01    2     1000024       -24   # BR(chi^0_4 -> chi^+_1 W^-)
     2.38076642E-01    2    -1000024        24   # BR(chi^0_4 -> chi^-_1 W^+)
     1.30275380E-02    2     1000022        23   # BR(chi^0_4 -> chi^0_1 Z)
     1.84355622E-01    2     1000023        23   # BR(chi^0_4 -> chi^0_2 Z)
     4.04180715E-02    2     1000025        23   # BR(chi^0_4 -> chi^0_3 Z)
     4.80025032E-02    2     1000022        25   # BR(chi^0_4 -> chi^0_1 h^0)
     8.41253974E-02    2     1000023        25   # BR(chi^0_4 -> chi^0_2 h^0)
     1.28354231E-01    2     1000025        25   # BR(chi^0_4 -> chi^0_3 h^0)
#    BR                NDA      ID1      ID2       ID3
     1.33522545E-03    3     1000022         6        -6   # BR(chi^0_4 -> chi^0_1 t t_bar)
     4.51428600E-03    3     1000023         6        -6   # BR(chi^0_4 -> chi^0_2 t t_bar)
     3.62714030E-03    3     1000025         6        -6   # BR(chi^0_4 -> chi^0_3 t t_bar)
     8.03973855E-03    3     1000024         5        -6   # BR(chi^0_4 -> chi^+_1 b t_bar)
     8.03973855E-03    3    -1000024        -5         6   # BR(chi^0_4 -> chi^-_1 b_bar t)
DECAY   1000021     1.83308389E+01   # ~g
#    BR                NDA      ID1      ID2
     2.29613924E-01    2     1000006        -6   # BR(~g -> ~t_1 t_bar)
     2.29613924E-01    2    -1000006         6   # BR(~g -> ~t^*_1 t)
     2.31213862E-01    2     1000005        -5   # BR(~g -> ~b_1 b_bar)
     2.31213862E-01    2    -1000005         5   # BR(~g -> ~b^*_1 b)
     3.81067858E-02    2     2000005        -5   # BR(~g -> ~b_2 b_bar)
     3.81067858E-02    2    -2000005         5   # BR(~g -> ~b^*_2 b)
     1.17106691E-04    2     1000022        21   # BR(~g -> chi^0_1 g)
     1.95180717E-04    2     1000023        21   # BR(~g -> chi^0_2 g)
#    BR                NDA      ID1      ID2       ID3
     1.66394634E-04    3     1000022         6        -6   # BR(~g -> chi^0_1 t t_bar)
     4.07384163E-04    3     1000023         6        -6   # BR(~g -> chi^0_2 t t_bar)
     3.22193966E-04    3     1000025         6        -6   # BR(~g -> chi^0_3 t t_bar)
     4.11883093E-04    3     1000024         5        -6   # BR(~g -> chi^+_1 b t_bar)
     4.11883093E-04    3    -1000024        -5         6   # BR(~g -> chi^-_1 b_bar t)
DECAY        25     3.19887493E-03   # Gamma(h0)
     2.68420659E-03   2        22        22   # BR(h0 -> photon photon)
     1.52684939E-03   2        22        23   # BR(h0 -> photon Z)
     2.62709317E-02   2        23        23   # BR(h0 -> Z Z)
     2.25551453E-01   2       -24        24   # BR(h0 -> W W)
     8.41026620E-02   2        21        21   # BR(h0 -> gluon gluon)
     5.07678136E-09   2       -11        11   # BR(h0 -> Electron electron)
     2.25823262E-04   2       -13        13   # BR(h0 -> Muon muon)
     6.51105010E-02   2       -15        15   # BR(h0 -> Tau tau)
     1.44840268E-07   2        -2         2   # BR(h0 -> Up up)
     2.81104431E-02   2        -4         4   # BR(h0 -> Charm charm)
     5.89232129E-07   2        -1         1   # BR(h0 -> Down down)
     2.13110997E-04   2        -3         3   # BR(h0 -> Strange strange)
     5.66203280E-01   2        -5         5   # BR(h0 -> Bottom bottom)
DECAY        35     4.48020952E+01   # Gamma(HH)
     1.99222774E-07   2        22        22   # BR(HH -> photon photon)
     1.06093942E-07   2        22        23   # BR(HH -> photon Z)
     1.46711440E-05   2        23        23   # BR(HH -> Z Z)
     3.04482783E-06   2       -24        24   # BR(HH -> W W)
     2.06579093E-05   2        21        21   # BR(HH -> gluon gluon)
     3.27238806E-10   2       -11        11   # BR(HH -> Electron electron)
     1.45715275E-05   2       -13        13   # BR(HH -> Muon muon)
     4.20863450E-03   2       -15        15   # BR(HH -> Tau tau)
     6.79883217E-12   2        -2         2   # BR(HH -> Up up)
     1.31901220E-06   2        -4         4   # BR(HH -> Charm charm)
     9.82007689E-02   2        -6         6   # BR(HH -> Top top)
     2.31995242E-08   2        -1         1   # BR(HH -> Down down)
     8.39137671E-06   2        -3         3   # BR(HH -> Strange strange)
     2.16191592E-02   2        -5         5   # BR(HH -> Bottom bottom)
     2.93427504E-03   2  -1000024   1000024   # BR(HH -> Chargino1 chargino1)
     2.55304239E-01   2  -1000024   1000037   # BR(HH -> Chargino1 chargino2)
     2.55304239E-01   2  -1000037   1000024   # BR(HH -> Chargino2 chargino1)
     5.20933840E-06   2  -1000037   1000037   # BR(HH -> Chargino2 chargino2)
     2.39742244E-02   2   1000022   1000022   # BR(HH -> neutralino1 neutralino1)
     3.96262959E-02   2   1000022   1000023   # BR(HH -> neutralino1 neutralino2)
     6.76040735E-04   2   1000022   1000025   # BR(HH -> neutralino1 neutralino3)
     4.20142060E-02   2   1000022   1000035   # BR(HH -> neutralino1 neutralino4)
     2.01316235E-03   2   1000023   1000023   # BR(HH -> neutralino2 neutralino2)
     2.87829233E-02   2   1000023   1000025   # BR(HH -> neutralino2 neutralino3)
     1.75997843E-01   2   1000023   1000035   # BR(HH -> neutralino2 neutralino4)
     1.11217847E-02   2   1000025   1000025   # BR(HH -> neutralino3 neutralino3)
     3.80498877E-02   2   1000025   1000035   # BR(HH -> neutralino3 neutralino4)
     2.65607144E-06   2   1000035   1000035   # BR(HH -> neutralino4 neutralino4)
     1.01465667E-04   2        25        25   # BR(HH -> h0 h0)
DECAY        36     4.44708250E+01   # Gamma(A0)
     2.58227201E-07   2        22        22   # BR(A0 -> photon photon)
     1.92775903E-07   2        22        23   # BR(A0 -> photon Z)
     3.29150514E-05   2        21        21   # BR(A0 -> gluon gluon)
     3.17864081E-10   2       -11        11   # BR(A0 -> Electron electron)
     1.41540866E-05   2       -13        13   # BR(A0 -> Muon muon)
     4.08807012E-03   2       -15        15   # BR(A0 -> Tau tau)
     6.35649914E-12   2        -2         2   # BR(A0 -> Up up)
     1.23316005E-06   2        -4         4   # BR(A0 -> Charm charm)
     9.24470873E-02   2        -6         6   # BR(A0 -> Top top)
     2.25346672E-08   2        -1         1   # BR(A0 -> Down down)
     8.15085219E-06   2        -3         3   # BR(A0 -> Strange strange)
     2.09987579E-02   2        -5         5   # BR(A0 -> Bottom bottom)
     3.70550276E-03   2  -1000024   1000024   # BR(A0 -> Chargino1 chargino1)
     2.56661404E-01   2  -1000024   1000037   # BR(A0 -> Chargino1 chargino2)
     2.56661404E-01   2  -1000037   1000024   # BR(A0 -> Chargino2 chargino1)
     4.22095570E-04   2  -1000037   1000037   # BR(A0 -> Chargino2 chargino2)
     4.54742016E-02   2   1000022   1000022   # BR(A0 -> neutralino1 neutralino1)
     1.50956047E-02   2   1000022   1000023   # BR(A0 -> neutralino1 neutralino2)
     2.80877774E-03   2   1000022   1000025   # BR(A0 -> neutralino1 neutralino3)
     8.25238409E-02   2   1000022   1000035   # BR(A0 -> neutralino1 neutralino4)
     9.26606356E-04   2   1000023   1000023   # BR(A0 -> neutralino2 neutralino2)
     1.62470417E-02   2   1000023   1000025   # BR(A0 -> neutralino2 neutralino3)
     7.39819907E-02   2   1000023   1000035   # BR(A0 -> neutralino2 neutralino4)
     2.65794407E-02   2   1000025   1000025   # BR(A0 -> neutralino3 neutralino3)
     1.01077874E-01   2   1000025   1000035   # BR(A0 -> neutralino3 neutralino4)
     2.11683193E-04   2   1000035   1000035   # BR(A0 -> neutralino4 neutralino4)
     3.16897188E-05   2        23        25   # BR(A0 -> Z h0)
     1.06515110E-39   2        25        25   # BR(A0 -> h0 h0)
DECAY        37     4.62868108E+01   # Gamma(Hp)
     4.00423472E-10   2       -11        12   # BR(Hp -> Electron nu_e)
     1.71193541E-05   2       -13        14   # BR(Hp -> Muon nu_mu)
     4.84232835E-03   2       -15        16   # BR(Hp -> Tau nu_tau)
     2.46765478E-08   2        -1         2   # BR(Hp -> Down up)
     4.17804001E-07   2        -3         2   # BR(Hp -> Strange up)
     2.66205351E-07   2        -5         2   # BR(Hp -> Bottom up)
     7.36075408E-08   2        -1         4   # BR(Hp -> Down charm)
     1.04337416E-05   2        -3         4   # BR(Hp -> Strange charm)
     3.72806831E-05   2        -5         4   # BR(Hp -> Bottom charm)
     7.95059773E-06   2        -1         6   # BR(Hp -> Down top)
     1.73362625E-04   2        -3         6   # BR(Hp -> Strange top)
     1.46881892E-01   2        -5         6   # BR(Hp -> Bottom top)
     5.61686320E-02   2   1000022   1000024   # BR(Hp -> neutralino1 chargino1)
     1.20548396E-01   2   1000022   1000037   # BR(Hp -> neutralino1 chargino2)
     9.40033877E-05   2   1000023   1000024   # BR(Hp -> neutralino2 chargino1)
     2.41363561E-01   2   1000023   1000037   # BR(Hp -> neutralino2 chargino2)
     4.75796524E-02   2   1000024   1000025   # BR(Hp -> chargino1 neutralino3)
     1.34733092E-01   2   1000025   1000037   # BR(Hp -> neutralino3 chargino2)
     2.47511003E-01   2   1000024   1000035   # BR(Hp -> chargino1 neutralino4)
     3.51840228E-10   2   1000035   1000037   # BR(Hp -> neutralino4 chargino2)
     3.05106105E-05   2        24        25   # BR(Hp -> W h0)
     2.97156231E-12   2        24        35   # BR(Hp -> W HH)
     2.28182591E-12   2        24        36   # BR(Hp -> W A0)
DECAY         6     2.43000000E+00   # top
#    BR                NDA      ID1      ID2
     1.00000000E+00    2           5        24   # BR(t -> b W)
Block HiggsBoundsInputHiggsCouplingsFermions
# ScalarNormEffCoupSq PseudoSNormEffCoupSq NP IP1 IP2 IP2
    9.04149743E-01    0.00000000E+00        3  25   5   5  # h0-b-b eff. coupling^2, normalised to SM
    2.48678927E+01    0.00000000E+00        3  35   5   5  # H0-b-b eff. coupling^2, normalised to SM
    0.00000000E+00    2.47720424E+01        3  36   5   5  # A0-b-b eff. coupling^2, normalised to SM
#
    1.00386929E+00    0.00000000E+00        3  25   6   6  # h0-t-t eff. coupling^2, normalised to SM
    3.64987968E-02    0.00000000E+00        3  35   6   6  # H0-t-t eff. coupling^2, normalised to SM
    0.00000000E+00    4.03680885E-02        3  36   6   6  # A0-t-t eff. coupling^2, normalised to SM
#
    9.04149743E-01    0.00000000E+00        3  25  15  15  # h0-tau-tau eff. coupling^2, normalised to SM
    2.48678927E+01    0.00000000E+00        3  35  15  15  # H0-tau-tau eff. coupling^2, normalised to SM
    0.00000000E+00    2.47720424E+01        3  36  15  15  # A0-tau-tau eff. coupling^2, normalised to SM
#
Block HiggsBoundsInputHiggsCouplingsBosons
    9.99902746E-01        3  25  24  24  # h0-W-W eff. coupling^2, normalised to SM
    9.72543233E-05        3  35  24  24  # H0-W-W eff. coupling^2, normalised to SM
    0.00000000E+00        3  36  24  24  # A0-W-W eff. coupling^2, normalised to SM
#
    9.99902746E-01        3  25  23  23  # h0-Z-Z eff. coupling^2, normalised to SM
    9.72543233E-05        3  35  23  23  # H0-Z-Z eff. coupling^2, normalised to SM
    0.00000000E+00        3  36  23  23  # A0-Z-Z eff. coupling^2, normalised to SM
#
    1.27497179E+00        3  25  21  21  # h0-g-g eff. coupling^2, normalised to SM
    3.25319437E-02        3  35  21  21  # H0-g-g eff. coupling^2, normalised to SM
    2.10897649E-01        3  36  21  21  # A0-g-g eff. coupling^2, normalised to SM
#
    0.00000000E+00        3  25  25  23  # h0-h0-Z eff. coupling^2, normalised to SM
    0.00000000E+00        3  35  25  23  # H0-h0-Z eff. coupling^2, normalised to SM
    9.72543233E-05        3  36  25  23  # A0-h0-Z eff. coupling^2, normalised to SM
    0.00000000E+00        3  35  35  23  # H0-H0-Z eff. coupling^2, normalised to SM
    9.99902746E-01        3  36  35  23  # A0-H0-Z eff. coupling^2, normalised to SM
    0.00000000E+00        3  36  36  23  # A0-A0-Z eff. coupling^2, normalised to SM
#
    0.00000000E+00        4  25  21  21  23  # h0-g-g-Z eff. coupling^2, normalised to SM
    0.00000000E+00        4  35  21  21  23  # H0-g-g-Z eff. coupling^2, normalised to SM
    0.00000000E+00        4  36  21  21  23  # A0-g-g-Z eff. coupling^2, normalised to SM
Block SPhenoLowEnergy  # low energy observables
    1    3.25176492E-04   # BR(b -> s gamma)
    2    1.59008509E-06   # BR(b -> s mu+ mu-)
    3    3.52619631E-05   # BR(b -> s nu nu)
    4    2.50340818E-15   # BR(Bd -> e+ e-)
    5    1.06942757E-10   # BR(Bd -> mu+ mu-)
    6    2.23875189E-08   # BR(Bd -> tau+ tau-)
    7    8.42473416E-14   # BR(Bs -> e+ e-)
    8    3.59904381E-09   # BR(Bs -> mu+ mu-)
    9    7.63392058E-07   # BR(Bs -> tau+ tau-)
   10    9.67986236E-05   # BR(B_u -> tau nu)
   11    9.99892723E-01   # BR(B_u -> tau nu)/BR(B_u -> tau nu)_SM
   12    5.42187611E-01   # |Delta(M_Bd)| [ps^-1] 
   13    1.93727672E+01   # |Delta(M_Bs)| [ps^-1] 
   14    0.00000000E+00   # neutron EDM according to the chiral quark model
   15    0.00000000E+00   # neutron EDM according to the relativistic quark-parton model
   16    2.15810694E-03   # epsilon_K
   17    2.28166631E-15   # Delta(M_K)
   18    2.48073005E-11   # BR(K^0 -> pi^0 nu nu)
   19    8.29218963E-11   # BR(K^+ -> pi^+ nu nu)
   20    4.06385979E-17   # Delta(g-2)_electron/2
   21    1.73742707E-12   # Delta(g-2)_muon/2
   22    4.91490724E-10   # Delta(g-2)_tau/2
   23    0.00000000E+00   # electric dipole moment of the electron
   24    0.00000000E+00   # electric dipole moment of the muon
   25    0.00000000E+00   # electric dipole moment of the tau
   26    0.00000000E+00   # Br(mu -> e gamma)
   27    0.00000000E+00   # Br(tau -> e gamma)
   28    0.00000000E+00   # Br(tau -> mu gamma)
   29    0.00000000E+00   # Br(mu -> 3 e)
   30    0.00000000E+00   # Br(tau -> 3 e)
   31    0.00000000E+00   # Br(tau -> 3 mu)
   39   -3.57362799E-04   # Delta(rho_parameter)
   40    0.00000000E+00   # BR(Z -> e mu)
   41    0.00000000E+00   # BR(Z -> e tau)
   42    0.00000000E+00   # BR(Z -> mu tau)
Block FWCOEF Q=  1.60000000E+02  # Wilson coefficients at scale Q
#    id        order  M        value         comment
     0305 4422   00   0    -1.88819110E-01   # C7
     0305 4422   00   2    -1.94066274E-01   # C7
     0305 4322   00   2    -8.51041836E-05   # C7'
     0305 6421   00   0    -9.52278348E-02   # C8
     0305 6421   00   2    -1.01444194E-01   # C8
     0305 6321   00   2    -1.11905598E-04   # C8'
 03051111 4133   00   0     1.62337597E+00   # C9 e+e-
 03051111 4133   00   2     1.62366101E+00   # C9 e+e-
 03051111 4233   00   2     1.01501484E-05   # C9' e+e-
 03051111 4137   00   0    -4.44606807E+00   # C10 e+e-
 03051111 4137   00   2    -4.44531616E+00   # C10 e+e-
 03051111 4237   00   2    -7.45063994E-05   # C10' e+e-
 03051313 4133   00   0     1.62337597E+00   # C9 mu+mu-
 03051313 4133   00   2     1.62366101E+00   # C9 mu+mu-
 03051313 4233   00   2     1.01501483E-05   # C9' mu+mu-
 03051313 4137   00   0    -4.44606807E+00   # C10 mu+mu-
 03051313 4137   00   2    -4.44531616E+00   # C10 mu+mu-
 03051313 4237   00   2    -7.45063995E-05   # C10' mu+mu-
 03051212 4137   00   0     1.50535012E+00   # C11 nu_1 nu_1
 03051212 4137   00   2     1.50518900E+00   # C11 nu_1 nu_1
 03051212 4237   00   2     1.61220553E-05   # C11' nu_1 nu_1
 03051414 4137   00   0     1.50535012E+00   # C11 nu_2 nu_2
 03051414 4137   00   2     1.50518900E+00   # C11 nu_2 nu_2
 03051414 4237   00   2     1.61220553E-05   # C11' nu_2 nu_2
 03051616 4137   00   0     1.50535012E+00   # C11 nu_3 nu_3
 03051616 4137   00   2     1.50518900E+00   # C11 nu_3 nu_3
 03051616 4237   00   2     1.61220572E-05   # C11' nu_3 nu_3
Block IMFWCOEF Q=  1.60000000E+02  # Im(Wilson coefficients) at scale Q
#    id        order  M        value         comment
     0305 4422   00   0     3.85821393E-07   # C7
     0305 4422   00   2     3.38912208E-06   # C7
     0305 4322   00   2    -7.09166563E-08   # C7'
     0305 6421   00   0     3.30481539E-07   # C8
     0305 6421   00   2    -2.08176477E-06   # C8
     0305 6321   00   2    -9.45605240E-08   # C8'
 03051111 4133   00   2     3.06127287E-07   # C9 e+e-
 03051111 4233   00   2     1.88958803E-07   # C9' e+e-
 03051111 4137   00   2     1.48305619E-06   # C10 e+e-
 03051111 4237   00   2    -1.38781581E-06   # C10' e+e-
 03051313 4133   00   2     3.06127223E-07   # C9 mu+mu-
 03051313 4233   00   2     1.88958802E-07   # C9' mu+mu-
 03051313 4137   00   2     1.48305626E-06   # C10 mu+mu-
 03051313 4237   00   2    -1.38781581E-06   # C10' mu+mu-
 03051212 4137   00   2    -2.92459507E-07   # C11 nu_1 nu_1
 03051212 4237   00   2     3.00303114E-07   # C11' nu_1 nu_1
 03051414 4137   00   2    -2.92459505E-07   # C11 nu_2 nu_2
 03051414 4237   00   2     3.00303114E-07   # C11' nu_2 nu_2
 03051616 4137   00   2    -2.92458810E-07   # C11 nu_3 nu_3
 03051616 4237   00   2     3.00303114E-07   # C11' nu_3 nu_3
