# SUSY Les Houches Accord 2 - MSSM spectrum + Decays
# SPheno v4.0.5be
# W. Porod, Comput. Phys. Commun. 153 (2003) 275-315, hep-ph/0301101;
# W. Porod, F.~Staub, Comput. Phys. Commun. 183 (2012) 2458
#                     arXiv:1104.1573 [hep-ph] 
# in case of problems send email to porod@physik.uni-wuerzburg.de
# Created: 12.05.2022,  16:21
Block SPINFO         # Program information
     1   SPheno      # spectrum calculator
     2   v4.0.5be    # version number
#
Block SPhenoINFO     # SPheno specific information
    1      2         # using 2-loop RGEs
    2      2         # using pole masses for boundary conditions at mZ
Block MODSEL  # Model selection
    1    0    # general MSSM
Block MINPAR  # Input parameters
    3    6.00616035E+01  # tanb at m_Z    
    4    1.00000000E+00  # Sign(mu)
Block EXTPAR  # non-universal input parameters
    0    3.73400592E+03  # scale for input parameters
    1   -9.87514531E+01  # M_1
    2   -1.77374531E+03  # M_2
    3    1.66679112E+03  # M_3
   11    2.17840537E+03  # A_t
   12    9.60065089E+02  # A_b
   13    1.52682474E+03  # A_tau
   23    7.44480938E+02  # mu
   25    5.97608391E+01  # tan(beta)
   26    3.90391252E+03  # m_A, pole mass
   31    1.00000000E+04  # M_L11
   32    1.00000000E+04  # M_L22
   33    1.00000000E+04  # M_L33
   34    1.00000000E+04  # M_E11
   35    1.00000000E+04  # M_E22
   36    1.00000000E+04  # M_E33
   41    1.00000000E+04  # M_Q11
   42    1.00000000E+04  # M_Q22
   43    3.73199218E+03  # M_Q33
   44    1.00000000E+04  # M_U11
   45    1.00000000E+04  # M_U22
   46    3.73094918E+03  # M_U33
   47    1.00000000E+04  # M_D11
   48    1.00000000E+04  # M_D22
   49    4.36202918E+03  # M_D33
Block SMINPUTS  # SM parameters
         1     1.27908970E+02  # alpha_em^-1(MZ)^MSbar
         2     1.16637870E-05  # G_mu [GeV^-2]
         3     1.18400000E-01  # alpha_s(MZ)^MSbar
         4     9.11876000E+01  # m_Z(pole)
         5     4.18000000E+00  # m_b(m_b), MSbar
         6     1.73200000E+02  # m_t(pole)
         7     1.77700000E+00  # m_tau(pole)
         8     0.00000000E+00  # m_nu_3
        11     5.10998930E-04  # m_e(pole)
        12     0.00000000E+00  # m_nu_1
        13     1.05658372E-01  # m_muon(pole)
        14     0.00000000E+00  # m_nu_2
        21     5.00000000E-03  # m_d(2 GeV), MSbar
        22     2.50000000E-03  # m_u(2 GeV), MSbar
        23     9.50000000E-02  # m_s(2 GeV), MSbar
        24     1.27000000E+00  # m_c(m_c), MSbar
Block gauge Q=  3.73400592E+03  # (SUSY scale)
   1    3.55362975E-01  # g'(Q)^DRbar
   2    6.65198874E-01  # g(Q)^DRbar
   3    1.21977796E+00  # g3(Q)^DRbar
Block Yu Q=  3.73400592E+03  # (SUSY scale)
  1  1     8.38554589E-06   # Y_u(Q)^DRbar
  2  2     4.25985731E-03   # Y_c(Q)^DRbar
  3  3     1.01304130E+00   # Y_t(Q)^DRbar
Block Yd Q=  3.73400592E+03  # (SUSY scale)
  1  1     1.00699723E-03   # Y_d(Q)^DRbar
  2  2     1.91329473E-02   # Y_s(Q)^DRbar
  3  3     9.98625701E-01   # Y_b(Q)^DRbar
Block Ye Q=  3.73400592E+03  # (SUSY scale)
  1  1     1.75728380E-04   # Y_e(Q)^DRbar
  2  2     3.63350555E-02   # Y_mu(Q)^DRbar
  3  3     6.11095860E-01   # Y_tau(Q)^DRbar
Block Au Q=  3.73400592E+03  # (SUSY scale)
  1  1     0.00000000E+00   # A_u(Q)^DRbar
  2  2     0.00000000E+00   # A_c(Q)^DRbar
  3  3     2.17840539E+03   # A_t(Q)^DRbar
Block Ad Q=  3.73400592E+03  # (SUSY scale)
  1  1     0.00000000E+00   # A_d(Q)^DRbar
  2  2     0.00000000E+00   # A_s(Q)^DRbar
  3  3     9.60065407E+02   # A_b(Q)^DRbar
Block Ae Q=  3.73400592E+03  # (SUSY scale)
  1  1     0.00000000E+00   # A_e(Q)^DRbar
  2  2     0.00000000E+00   # A_mu(Q)^DRbar
  3  3     1.52682475E+03   # A_tau(Q)^DRbar
Block MSOFT Q=  3.73400592E+03  # soft SUSY breaking masses at Q
   1   -9.87514531E+01  # M_1
   2   -1.77374531E+03  # M_2
   3    1.66679112E+03  # M_3
  21    1.47383982E+07  # M^2_(H,d)
  22   -2.73194352E+05  # M^2_(H,u)
  31    1.00000000E+04  # M_(L,11)
  32    1.00000000E+04  # M_(L,22)
  33    1.00000000E+04  # M_(L,33)
  34    1.00000000E+04  # M_(E,11)
  35    1.00000000E+04  # M_(E,22)
  36    1.00000000E+04  # M_(E,33)
  41    1.00000000E+04  # M_(Q,11)
  42    1.00000000E+04  # M_(Q,22)
  43    3.73199218E+03  # M_(Q,33)
  44    1.00000000E+04  # M_(U,11)
  45    1.00000000E+04  # M_(U,22)
  46    3.73094918E+03  # M_(U,33)
  47    1.00000000E+04  # M_(D,11)
  48    1.00000000E+04  # M_(D,22)
  49    4.36202918E+03  # M_(D,33)
Block MASS  # Mass spectrum
#   PDG code      mass          particle
         6     1.73200000E+02  # m_t(pole)
        23     9.11876000E+01  # m_Z(pole)
        24     8.04299946E+01  # W+
        15     1.77700000E+00  # m_tau(pole)
        25     1.22294290E+02  # h0
        35     3.90075779E+03  # H0
        36     3.90391252E+03  # A0
        37     3.90318744E+03  # H+
   1000001     1.01183690E+04  # ~d_L
   2000001     1.00946811E+04  # ~d_R
   1000002     1.01180069E+04  # ~u_L
   2000002     1.00975862E+04  # ~u_R
   1000003     1.01183761E+04  # ~s_L
   2000003     1.00946932E+04  # ~s_R
   1000004     1.01180137E+04  # ~c_L
   2000004     1.00975870E+04  # ~c_R
   1000005     3.74265108E+03  # ~b_1
   2000005     4.36933219E+03  # ~b_2
   1000006     3.69602159E+03  # ~t_1
   2000006     3.77238061E+03  # ~t_2
   1000011     1.00199768E+04  # ~e_L-
   2000011     1.00091987E+04  # ~e_R-
   1000012     1.00192142E+04  # ~nu_eL
   1000013     1.00200156E+04  # ~mu_L-
   2000013     1.00092594E+04  # ~mu_R-
   1000014     1.00192479E+04  # ~nu_muL
   1000015     1.00251801E+04  # ~tau_1-
   2000015     1.00329264E+04  # ~tau_2-
   1000016     1.00290285E+04  # ~nu_tauL
   1000021     2.05397572E+03  # ~g
   1000022     9.92446888E+01  # ~chi_10
   1000023     7.54821052E+02  # ~chi_20
   1000025     7.58460056E+02  # ~chi_30
   1000035     1.88582641E+03  # ~chi_40
   1000024     7.54551810E+02  # ~chi_1+
   1000037     1.88579529E+03  # ~chi_2+
# Higgs mixing
Block alpha # Effective Higgs mixing angle
          -1.66688210E-02   # alpha
Block Hmix Q=  3.73400592E+03  # Higgs mixing parameters
   1    7.44480938E+02  # mu
   2    5.97608391E+01  # tan[beta](Q)
   3    2.43005408E+02  # v(Q)
   4    1.52405330E+07  # m^2_A(Q)
Block stopmix # stop mixing matrix
   1  1    -6.14314678E-01   # Re[R_st(1,1)]
   1  2     7.89061136E-01   # Re[R_st(1,2)]
   2  1    -7.89061136E-01   # Re[R_st(2,1)]
   2  2    -6.14314678E-01   # Re[R_st(2,2)]
Block sbotmix # sbottom mixing matrix
   1  1     9.99848929E-01   # Re[R_sb(1,1)]
   1  2     1.73815878E-02   # Re[R_sb(1,2)]
   2  1    -1.73815878E-02   # Re[R_sb(2,1)]
   2  2     9.99848929E-01   # Re[R_sb(2,2)]
Block staumix # stau mixing matrix
   1  1     6.41603571E-01   # Re[R_sta(1,1)]
   1  2     7.67036412E-01   # Re[R_sta(1,2)]
   2  1    -7.67036412E-01   # Re[R_sta(2,1)]
   2  2     6.41603571E-01   # Re[R_sta(2,2)]
Block Nmix # neutralino mixing matrix
   1  1    -9.98180679E-01   # Re[N(1,1)]
   1  2     2.47222517E-04   # Re[N(1,2)]
   1  3    -5.98853237E-02   # Re[N(1,3)]
   1  4    -7.00141370E-03   # Re[N(1,4)]
   2  1     4.73159946E-02   # Re[N(2,1)]
   2  2     4.94119537E-02   # Re[N(2,2)]
   2  3    -7.06063597E-01   # Re[N(2,3)]
   2  4    -7.04836047E-01   # Re[N(2,4)]
   3  1     3.73483453E-02   # Re[N(3,1)]
   3  2    -2.18508094E-02   # Re[N(3,2)]
   3  3    -7.05341728E-01   # Re[N(3,3)]
   3  4     7.07545539E-01   # Re[N(3,4)]
   4  1    -1.27697657E-03   # Re[N(4,1)]
   4  2     9.98539403E-01   # Re[N(4,2)]
   4  3     1.95190085E-02   # Re[N(4,3)]
   4  4     5.03630599E-02   # Re[N(4,4)]
Block Umix # chargino mixing matrix
   1  1    -2.76046521E-02   # Re[U(1,1)]
   1  2     9.99618919E-01   # Re[U(1,2)]
   2  1    -9.99618919E-01   # Re[U(2,1)]
   2  2    -2.76046521E-02   # Re[U(2,2)]
Block Vmix # chargino mixing matrix
   1  1     7.12635891E-02   # Re[V(1,1)]
   1  2     9.97457518E-01   # Re[V(1,2)]
   2  1     9.97457518E-01   # Re[V(2,1)]
   2  2    -7.12635891E-02   # Re[V(2,2)]
DECAY        23     2.49520000E+00   # Z
DECAY        24     2.08500000E+00   # W
DECAY   2000011     5.02806409E+01   # ~e^-_R
#    BR                NDA      ID1      ID2
     9.96405052E-01    2     1000022        11   # BR(~e^-_R -> chi^0_1 e^-)
     2.21399653E-03    2     1000023        11   # BR(~e^-_R -> chi^0_2 e^-)
     1.37931296E-03    2     1000025        11   # BR(~e^-_R -> chi^0_3 e^-)
DECAY   1000011     1.35700967E+02   # ~e^-_L
#    BR                NDA      ID1      ID2
     9.23120925E-02    2     1000022        11   # BR(~e^-_L -> chi^0_1 e^-)
     1.79252019E-03    2     1000023        11   # BR(~e^-_L -> chi^0_2 e^-)
     3.01091620E-01    2     1000035        11   # BR(~e^-_L -> chi^0_4 e^-)
     4.89713264E-04    2    -1000024        12   # BR(~e^-_L -> chi^-_1 nu_e)
     6.04312874E-01    2    -1000037        12   # BR(~e^-_L -> chi^-_2 nu_e)
#    BR                NDA      ID1      ID2       ID3
DECAY   2000013     5.08007436E+01   # ~mu^-_R
#    BR                NDA      ID1      ID2
     9.86228303E-01    2     1000022        13   # BR(~mu^-_R -> chi^0_1 mu^-)
     4.74192141E-03    2     1000023        13   # BR(~mu^-_R -> chi^0_2 mu^-)
     3.91028263E-03    2     1000025        13   # BR(~mu^-_R -> chi^0_3 mu^-)
     5.11248892E-03    2    -1000024        14   # BR(~mu^-_R -> chi^-_1 nu_mu)
DECAY   1000013     1.35961747E+02   # ~mu^-_L
#    BR                NDA      ID1      ID2
     9.21423321E-02    2     1000022        13   # BR(~mu^-_L -> chi^0_1 mu^-)
     2.74312773E-03    2     1000023        13   # BR(~mu^-_L -> chi^0_2 mu^-)
     9.53166149E-04    2     1000025        13   # BR(~mu^-_L -> chi^0_3 mu^-)
     3.00516140E-01    2     1000035        13   # BR(~mu^-_L -> chi^0_4 mu^-)
     4.88775912E-04    2    -1000024        14   # BR(~mu^-_L -> chi^-_1 nu_mu)
     6.03156459E-01    2    -1000037        14   # BR(~mu^-_L -> chi^-_2 nu_mu)
#    BR                NDA      ID1      ID2       ID3
DECAY   1000015     2.02693672E+02   # ~tau^-_1
#    BR                NDA      ID1      ID2
     1.81318037E-01    2     1000022        15   # BR(~tau^-_1 -> chi^0_1 tau^-)
     1.86616656E-01    2     1000023        15   # BR(~tau^-_1 -> chi^0_2 tau^-)
     1.72806159E-01    2     1000025        15   # BR(~tau^-_1 -> chi^0_3 tau^-)
     7.81083997E-02    2     1000035        15   # BR(~tau^-_1 -> chi^0_4 tau^-)
     2.24459144E-01    2    -1000024        16   # BR(~tau^-_1 -> chi^-_1 nu_tau)
     1.56691605E-01    2    -1000037        16   # BR(~tau^-_1 -> chi^-_2 nu_tau)
DECAY   2000015     2.04522871E+02   # ~tau^-_2
#    BR                NDA      ID1      ID2
     1.29647149E-01    2     1000022        15   # BR(~tau^-_2 -> chi^0_1 tau^-)
     1.75913180E-01    2     1000023        15   # BR(~tau^-_2 -> chi^0_2 tau^-)
     1.87442116E-01    2     1000025        15   # BR(~tau^-_2 -> chi^0_3 tau^-)
     1.22851523E-01    2     1000035        15   # BR(~tau^-_2 -> chi^0_4 tau^-)
     1.37759399E-01    2    -1000024        16   # BR(~tau^-_2 -> chi^-_1 nu_tau)
     2.46386633E-01    2    -1000037        16   # BR(~tau^-_2 -> chi^-_2 nu_tau)
#    BR                NDA      ID1      ID2       ID3
DECAY   1000012     1.35704702E+02   # ~nu_e
#    BR                NDA      ID1      ID2
     9.24738539E-02    2     1000022        12   # BR(~nu_e -> chi^0_1 nu_e)
     1.87147672E-04    2     1000023        12   # BR(~nu_e -> chi^0_2 nu_e)
     5.61392210E-04    2     1000025        12   # BR(~nu_e -> chi^0_3 nu_e)
     3.01880888E-01    2     1000035        12   # BR(~nu_e -> chi^0_4 nu_e)
     3.26341943E-03    2     1000024        11   # BR(~nu_e -> chi^+_1 e^-)
     6.01633299E-01    2     1000037        11   # BR(~nu_e -> chi^+_2 e^-)
#    BR                NDA      ID1      ID2       ID3
DECAY   1000014     1.35965383E+02   # ~nu_mu
#    BR                NDA      ID1      ID2
     9.22968681E-02    2     1000022        14   # BR(~nu_mu -> chi^0_1 nu_mu)
     1.86789504E-04    2     1000023        14   # BR(~nu_mu -> chi^0_2 nu_mu)
     5.60317803E-04    2     1000025        14   # BR(~nu_mu -> chi^0_3 nu_mu)
     3.01303266E-01    2     1000035        14   # BR(~nu_mu -> chi^0_4 nu_mu)
     5.16926597E-03    2     1000024        13   # BR(~nu_mu -> chi^+_1 mu^-)
     6.00483492E-01    2     1000037        13   # BR(~nu_mu -> chi^+_2 mu^-)
#    BR                NDA      ID1      ID2       ID3
DECAY   1000016     2.09519668E+02   # ~nu_tau
#    BR                NDA      ID1      ID2
     5.99534841E-02    2     1000022        16   # BR(~nu_tau -> chi^0_1 nu_tau)
     1.21335932E-04    2     1000023        16   # BR(~nu_tau -> chi^0_2 nu_tau)
     3.63974935E-04    2     1000025        16   # BR(~nu_tau -> chi^0_3 nu_tau)
     1.95746194E-01    2     1000035        16   # BR(~nu_tau -> chi^0_4 nu_tau)
     3.53452011E-01    2     1000024        15   # BR(~nu_tau -> chi^+_1 tau^-)
     3.90363000E-01    2     1000037        15   # BR(~nu_tau -> chi^+_2 tau^-)
#    BR                NDA      ID1      ID2       ID3
DECAY   2000001     7.37831055E+02   # ~d_R
#    BR                NDA      ID1      ID2
     7.60907868E-03    2     1000022         1   # BR(~d_R -> chi^0_1 d)
     9.92362920E-01    2     1000021         1   # BR(~d_R -> ~g d)
DECAY   1000001     8.60121199E+02   # ~d_L
#    BR                NDA      ID1      ID2
     1.64019343E-03    2     1000022         1   # BR(~d_L -> chi^0_1 d)
     4.81253885E-02    2     1000035         1   # BR(~d_L -> chi^0_4 d)
     9.64153129E-02    2    -1000037         2   # BR(~d_L -> chi^-_2 u)
     8.53613226E-01    2     1000021         1   # BR(~d_L -> ~g d)
DECAY   2000003     7.37977077E+02   # ~s_R
#    BR                NDA      ID1      ID2
     7.60793837E-03    2     1000022         3   # BR(~s_R -> chi^0_1 s)
     9.92167958E-01    2     1000021         3   # BR(~s_R -> ~g s)
DECAY   1000003     8.60198182E+02   # ~s_L
#    BR                NDA      ID1      ID2
     1.64035408E-03    2     1000022         3   # BR(~s_L -> chi^0_1 s)
     1.28241107E-04    2     1000023         3   # BR(~s_L -> chi^0_2 s)
     4.81211511E-02    2     1000035         3   # BR(~s_L -> chi^0_4 s)
     9.64067825E-02    2    -1000037         4   # BR(~s_L -> chi^-_2 c)
     8.53537534E-01    2     1000021         3   # BR(~s_L -> ~g s)
DECAY   1000005     3.10538685E+02   # ~b_1
#    BR                NDA      ID1      ID2
     2.66088968E-03    2     1000022         5   # BR(~b_1 -> chi^0_1 b)
     1.09841245E-01    2     1000023         5   # BR(~b_1 -> chi^0_2 b)
     1.09322365E-01    2     1000025         5   # BR(~b_1 -> chi^0_3 b)
     2.94608427E-02    2     1000035         5   # BR(~b_1 -> chi^0_4 b)
     2.24171274E-01    2    -1000024         6   # BR(~b_1 -> chi^-_1 t)
     5.99481804E-02    2    -1000037         6   # BR(~b_1 -> chi^-_2 t)
     4.64595204E-01    2     1000021         5   # BR(~b_1 -> ~g b)
DECAY   2000005     3.75418781E+02   # ~b_2
#    BR                NDA      ID1      ID2
     7.17232373E-03    2     1000022         5   # BR(~b_2 -> chi^0_1 b)
     1.08299180E-01    2     1000023         5   # BR(~b_2 -> chi^0_2 b)
     1.08173595E-01    2     1000025         5   # BR(~b_2 -> chi^0_3 b)
     1.17303162E-04    2     1000035         5   # BR(~b_2 -> chi^0_4 b)
     2.16418208E-01    2    -1000024         6   # BR(~b_2 -> chi^-_1 t)
     2.34389795E-04    2    -1000037         6   # BR(~b_2 -> chi^-_2 t)
     5.57484830E-01    2     1000021         5   # BR(~b_2 -> ~g b)
     3.88200218E-04    2     1000006       -24   # BR(~b_2 -> ~t_1 W^-)
     4.56428373E-04    2     2000006       -24   # BR(~b_2 -> ~t_2 W^-)
     4.17370002E-04    2     1000005        23   # BR(~b_2 -> ~b_1 Z)
     8.38171950E-04    2     1000005        25   # BR(~b_2 -> ~b_1 h^0)
DECAY   2000002     7.54987670E+02   # ~u_R
#    BR                NDA      ID1      ID2
     2.97532284E-02    2     1000022         2   # BR(~u_R -> chi^0_1 u)
     9.70139410E-01    2     1000021         2   # BR(~u_R -> ~g u)
DECAY   1000002     8.60109473E+02   # ~u_L
#    BR                NDA      ID1      ID2
     1.63105673E-03    2     1000022         2   # BR(~u_L -> chi^0_1 u)
     1.71284710E-04    2     1000023         2   # BR(~u_L -> chi^0_2 u)
     4.80802574E-02    2     1000035         2   # BR(~u_L -> chi^0_4 u)
     5.20309196E-04    2     1000024         1   # BR(~u_L -> chi^+_1 d)
     9.59961993E-02    2     1000037         1   # BR(~u_L -> chi^+_2 d)
     8.53589064E-01    2     1000021         2   # BR(~u_L -> ~g u)
DECAY   2000004     7.54994915E+02   # ~c_R
#    BR                NDA      ID1      ID2
     2.97529443E-02    2     1000022         4   # BR(~c_R -> chi^0_1 c)
     9.70130149E-01    2     1000021         4   # BR(~c_R -> ~g c)
DECAY   1000004     8.60186390E+02   # ~c_L
#    BR                NDA      ID1      ID2
     1.63091212E-03    2     1000022         4   # BR(~c_L -> chi^0_1 c)
     1.73356466E-04    2     1000023         4   # BR(~c_L -> chi^0_2 c)
     4.80760008E-02    2     1000035         4   # BR(~c_L -> chi^0_4 c)
     6.04678880E-04    2     1000024         3   # BR(~c_L -> chi^+_1 s)
     9.59877485E-02    2     1000037         3   # BR(~c_L -> chi^+_2 s)
     8.53513373E-01    2     1000021         4   # BR(~c_L -> ~g c)
DECAY   1000006     3.09277729E+02   # ~t_1
#    BR                NDA      ID1      ID2
     2.98292238E-04    2     1000022         4   # BR(~t_1 -> chi^0_1 c)
     1.74859537E-02    2     1000022         6   # BR(~t_1 -> chi^0_1 t)
     1.14734011E-01    2     1000023         6   # BR(~t_1 -> chi^0_2 t)
     1.16774105E-01    2     1000025         6   # BR(~t_1 -> chi^0_3 t)
     7.94414170E-03    2     1000035         6   # BR(~t_1 -> chi^0_4 t)
     2.31348215E-01    2     1000024         5   # BR(~t_1 -> chi^+_1 b)
     1.60270865E-02    2     1000037         5   # BR(~t_1 -> chi^+_2 b)
     8.12241562E-02    2     1000021         4   # BR(~t_1 -> ~g c)
     4.13728868E-01    2     1000021         6   # BR(~t_1 -> ~g t)
#    BR                NDA      ID1      ID2       ID3
     4.06044270E-04    3     1000022        24         5   # BR(~t_1 -> chi^0_1 W^+ b)
DECAY   2000006     3.14124165E+02   # ~t_2
#    BR                NDA      ID1      ID2
     1.06768879E-02    2     1000022         6   # BR(~t_2 -> chi^0_1 t)
     1.08123222E-01    2     1000023         6   # BR(~t_2 -> chi^0_2 t)
     1.07483424E-01    2     1000025         6   # BR(~t_2 -> chi^0_3 t)
     2.14982154E-02    2     1000035         6   # BR(~t_2 -> chi^0_4 t)
     2.11434622E-01    2     1000024         5   # BR(~t_2 -> chi^+_1 b)
     4.34121784E-02    2     1000037         5   # BR(~t_2 -> chi^+_2 b)
     4.97371451E-01    2     1000021         6   # BR(~t_2 -> ~g t)
DECAY   1000024     5.10125858E-01   # chi^+_1
#    BR                NDA      ID1      ID2
     9.89671597E-01    2     1000022        24   # BR(chi^+_1 -> chi^0_1 W^+)
#    BR                NDA      ID1      ID2       ID3
     1.03280689E-02    3     1000022        -5         6   # BR(chi^+_1 -> chi^0_1 b_bar t)
DECAY   1000037     1.60581821E+01   # chi^+_2
#    BR                NDA      ID1      ID2
     2.42657866E-04    2     1000022        24   # BR(chi^+_2 -> chi^0_1 W^+)
     2.46338698E-01    2     1000023        24   # BR(chi^+_2 -> chi^0_2 W^+)
     2.43341074E-01    2     1000025        24   # BR(chi^+_2 -> chi^0_3 W^+)
     2.43399936E-01    2     1000024        23   # BR(chi^+_2 -> chi^+_1 Z)
     2.41357510E-01    2     1000024        25   # BR(chi^+_2 -> chi^+_1 h^0)
#    BR                NDA      ID1      ID2       ID3
     9.38853073E-03    3     1000024         6        -6   # BR(chi^+_2 -> chi^+_1 t t_bar)
     8.25123851E-03    3     1000023        -5         6   # BR(chi^+_2 -> chi^0_2 b_bar t)
     7.61111743E-03    3     1000025        -5         6   # BR(chi^+_2 -> chi^0_3 b_bar t)
DECAY   1000022     0.00000000E+00   # chi^0_1
DECAY   1000023     4.69590440E-01   # chi^0_2
#    BR                NDA      ID1      ID2
     4.17004796E-01    2     1000022        23   # BR(chi^0_2 -> chi^0_1 Z)
     5.79779649E-01    2     1000022        25   # BR(chi^0_2 -> chi^0_1 h^0)
#    BR                NDA      ID1      ID2       ID3
     3.19022962E-03    3     1000022         6        -6   # BR(chi^0_2 -> chi^0_1 t t_bar)
DECAY   1000025     6.13438475E-01   # chi^0_3
#    BR                NDA      ID1      ID2
     5.17292220E-01    2     1000022        23   # BR(chi^0_3 -> chi^0_1 Z)
     4.80389774E-01    2     1000022        25   # BR(chi^0_3 -> chi^0_1 h^0)
#    BR                NDA      ID1      ID2       ID3
     2.30905072E-03    3     1000022         6        -6   # BR(chi^0_3 -> chi^0_1 t t_bar)
DECAY   1000035     1.90170365E+01   # chi^0_4
#    BR                NDA      ID1      ID2
     2.08376358E-01    2     1000024       -24   # BR(chi^0_4 -> chi^+_1 W^-)
     2.08376358E-01    2    -1000024        24   # BR(chi^0_4 -> chi^-_1 W^+)
     3.37747346E-02    2     1000023        23   # BR(chi^0_4 -> chi^0_2 Z)
     1.73835905E-01    2     1000025        23   # BR(chi^0_4 -> chi^0_3 Z)
     1.02435586E-04    2     1000022        25   # BR(chi^0_4 -> chi^0_1 h^0)
     1.70139189E-01    2     1000023        25   # BR(chi^0_4 -> chi^0_2 h^0)
     1.82998136E-01    2     1000025        25   # BR(chi^0_4 -> chi^0_3 h^0)
#    BR                NDA      ID1      ID2       ID3
     3.46233784E-03    3     1000023         6        -6   # BR(chi^0_4 -> chi^0_2 t t_bar)
     3.68250756E-03    3     1000025         6        -6   # BR(chi^0_4 -> chi^0_3 t t_bar)
     7.54301081E-03    3     1000024         5        -6   # BR(chi^0_4 -> chi^+_1 b t_bar)
     7.54301081E-03    3    -1000024        -5         6   # BR(chi^0_4 -> chi^-_1 b_bar t)
DECAY   1000021     1.60329150E-02   # ~g
#    BR                NDA      ID1      ID2
     7.64457364E-03    2     1000023        21   # BR(~g -> chi^0_2 g)
     6.32825038E-03    2     1000025        21   # BR(~g -> chi^0_3 g)
#    BR                NDA      ID1      ID2       ID3
     4.50772056E-04    3     1000022         2        -2   # BR(~g -> chi^0_1 u u_bar)
     4.50771856E-04    3     1000022         4        -4   # BR(~g -> chi^0_1 c c_bar)
     2.76817312E-02    3     1000022         6        -6   # BR(~g -> chi^0_1 t t_bar)
     1.32642008E-04    3     1000022         1        -1   # BR(~g -> chi^0_1 d d_bar)
     1.32655029E-04    3     1000022         3        -3   # BR(~g -> chi^0_1 s s_bar)
     7.16419631E-03    3     1000022         5        -5   # BR(~g -> chi^0_1 b b_bar)
     1.34845617E-01    3     1000023         6        -6   # BR(~g -> chi^0_2 t t_bar)
     1.05027552E-01    3     1000023         5        -5   # BR(~g -> chi^0_2 b b_bar)
     1.35485185E-01    3     1000025         6        -6   # BR(~g -> chi^0_3 t t_bar)
     1.03893181E-01    3     1000025         5        -5   # BR(~g -> chi^0_3 b b_bar)
     2.35364592E-01    3     1000024         5        -6   # BR(~g -> chi^+_1 b t_bar)
     2.35364592E-01    3    -1000024        -5         6   # BR(~g -> chi^-_1 b_bar t)
DECAY        25     3.21772083E-03   # Gamma(h0)
     2.58012321E-03   2        22        22   # BR(h0 -> photon photon)
     1.40461622E-03   2        22        23   # BR(h0 -> photon Z)
     2.35708469E-02   2        23        23   # BR(h0 -> Z Z)
     2.05620515E-01   2       -24        24   # BR(h0 -> W W)
     8.21382930E-02   2        21        21   # BR(h0 -> gluon gluon)
     5.26606310E-09   2       -11        11   # BR(h0 -> Electron electron)
     2.34242358E-04   2       -13        13   # BR(h0 -> Muon muon)
     6.75367640E-02   2       -15        15   # BR(h0 -> Tau tau)
     1.50416925E-07   2        -2         2   # BR(h0 -> Up up)
     2.91910371E-02   2        -4         4   # BR(h0 -> Charm charm)
     6.11902586E-07   2        -1         1   # BR(h0 -> Down down)
     2.21310062E-04   2        -3         3   # BR(h0 -> Strange strange)
     5.87501485E-01   2        -5         5   # BR(h0 -> Bottom bottom)
DECAY        35     1.49426185E+02   # Gamma(HH)
     2.01166708E-08   2        22        22   # BR(HH -> photon photon)
     3.34942775E-08   2        22        23   # BR(HH -> photon Z)
     2.73157876E-08   2        23        23   # BR(HH -> Z Z)
     5.94163755E-09   2       -24        24   # BR(HH -> W W)
     6.35258105E-06   2        21        21   # BR(HH -> gluon gluon)
     1.22522076E-08   2       -11        11   # BR(HH -> Electron electron)
     5.45568927E-04   2       -13        13   # BR(HH -> Muon muon)
     1.57573359E-01   2       -15        15   # BR(HH -> Tau tau)
     1.57765616E-14   2        -2         2   # BR(HH -> Up up)
     3.06028760E-09   2        -4         4   # BR(HH -> Charm charm)
     1.74959699E-04   2        -6         6   # BR(HH -> Top top)
     8.50615517E-07   2        -1         1   # BR(HH -> Down down)
     3.07629149E-04   2        -3         3   # BR(HH -> Strange strange)
     6.35740647E-01   2        -5         5   # BR(HH -> Bottom bottom)
     1.01206908E-03   2  -1000024   1000024   # BR(HH -> Chargino1 chargino1)
     5.86138802E-02   2  -1000024   1000037   # BR(HH -> Chargino1 chargino2)
     5.86138802E-02   2  -1000037   1000024   # BR(HH -> Chargino2 chargino1)
     1.55038519E-05   2  -1000037   1000037   # BR(HH -> Chargino2 chargino2)
     2.10227029E-04   2   1000022   1000022   # BR(HH -> neutralino1 neutralino1)
     1.45898623E-02   2   1000022   1000023   # BR(HH -> neutralino1 neutralino2)
     1.35731515E-02   2   1000022   1000025   # BR(HH -> neutralino1 neutralino3)
     1.40087392E-04   2   1000022   1000035   # BR(HH -> neutralino1 neutralino4)
     7.42669933E-05   2   1000023   1000023   # BR(HH -> neutralino2 neutralino2)
     1.04306404E-05   2   1000023   1000025   # BR(HH -> neutralino2 neutralino3)
     2.34904080E-02   2   1000023   1000035   # BR(HH -> neutralino2 neutralino4)
     1.46584919E-04   2   1000025   1000025   # BR(HH -> neutralino3 neutralino3)
     3.51521051E-02   2   1000025   1000035   # BR(HH -> neutralino3 neutralino4)
     7.77217446E-06   2   1000035   1000035   # BR(HH -> neutralino4 neutralino4)
     3.01636204E-07   2        25        25   # BR(HH -> h0 h0)
DECAY        36     1.38727756E+02   # Gamma(A0)
     3.20853177E-09   2        22        22   # BR(A0 -> photon photon)
     1.66849247E-08   2        22        23   # BR(A0 -> photon Z)
     9.97680783E-06   2        21        21   # BR(A0 -> gluon gluon)
     1.20035004E-08   2       -11        11   # BR(A0 -> Electron electron)
     5.34497944E-04   2       -13        13   # BR(A0 -> Muon muon)
     1.54375958E-01   2       -15        15   # BR(A0 -> Tau tau)
     1.47283042E-14   2        -2         2   # BR(A0 -> Up up)
     2.85682653E-09   2        -4         4   # BR(A0 -> Charm charm)
     1.63661899E-04   2        -6         6   # BR(A0 -> Top top)
     8.33252378E-07   2        -1         1   # BR(A0 -> Down down)
     3.01352023E-04   2        -3         3   # BR(A0 -> Strange strange)
     6.22723764E-01   2        -5         5   # BR(A0 -> Bottom bottom)
     1.24236231E-03   2  -1000024   1000024   # BR(A0 -> Chargino1 chargino1)
     6.31400819E-02   2  -1000024   1000037   # BR(A0 -> Chargino1 chargino2)
     6.31400819E-02   2  -1000037   1000024   # BR(A0 -> Chargino2 chargino1)
     8.42451503E-05   2  -1000037   1000037   # BR(A0 -> Chargino2 chargino2)
     2.25454352E-04   2   1000022   1000022   # BR(A0 -> neutralino1 neutralino1)
     1.50184146E-02   2   1000022   1000023   # BR(A0 -> neutralino1 neutralino2)
     1.53420784E-02   2   1000022   1000025   # BR(A0 -> neutralino1 neutralino3)
     1.65352143E-04   2   1000022   1000035   # BR(A0 -> neutralino1 neutralino4)
     8.76310871E-05   2   1000023   1000023   # BR(A0 -> neutralino2 neutralino2)
     6.71251191E-06   2   1000023   1000025   # BR(A0 -> neutralino2 neutralino3)
     3.78532167E-02   2   1000023   1000035   # BR(A0 -> neutralino2 neutralino4)
     1.98008164E-04   2   1000025   1000025   # BR(A0 -> neutralino3 neutralino3)
     2.53439723E-02   2   1000025   1000035   # BR(A0 -> neutralino3 neutralino4)
     4.22488049E-05   2   1000035   1000035   # BR(A0 -> neutralino4 neutralino4)
     6.05364540E-08   2        23        25   # BR(A0 -> Z h0)
     2.47444895E-12   2        23        35   # BR(A0 -> Z HH)
     6.71801972E-39   2        25        25   # BR(A0 -> h0 h0)
DECAY        37     1.74069137E+02   # Gamma(Hp)
     1.33767972E-08   2       -11        12   # BR(Hp -> Electron nu_e)
     5.71899859E-04   2       -13        14   # BR(Hp -> Muon nu_mu)
     1.61765847E-01   2       -15        16   # BR(Hp -> Tau nu_tau)
     7.92991849E-07   2        -1         2   # BR(Hp -> Down up)
     1.34230101E-05   2        -3         2   # BR(Hp -> Strange up)
     6.98735534E-06   2        -5         2   # BR(Hp -> Bottom up)
     3.72844844E-08   2        -1         4   # BR(Hp -> Down charm)
     2.85748268E-04   2        -3         4   # BR(Hp -> Strange charm)
     9.78479890E-04   2        -5         4   # BR(Hp -> Bottom charm)
     1.56410980E-08   2        -1         6   # BR(Hp -> Down top)
     7.66519706E-07   2        -3         6   # BR(Hp -> Strange top)
     6.59794711E-01   2        -5         6   # BR(Hp -> Bottom top)
     2.45083813E-02   2   1000022   1000024   # BR(Hp -> neutralino1 chargino1)
     2.52519539E-04   2   1000022   1000037   # BR(Hp -> neutralino1 chargino2)
     1.78711060E-04   2   1000023   1000024   # BR(Hp -> neutralino2 chargino1)
     5.07514415E-02   2   1000023   1000037   # BR(Hp -> neutralino2 chargino2)
     9.26251829E-05   2   1000024   1000025   # BR(Hp -> chargino1 neutralino3)
     5.03045478E-02   2   1000025   1000037   # BR(Hp -> neutralino3 chargino2)
     5.04930029E-02   2   1000024   1000035   # BR(Hp -> chargino1 neutralino4)
     4.28658054E-11   2   1000035   1000037   # BR(Hp -> neutralino4 chargino2)
     4.82363971E-08   2        24        25   # BR(Hp -> W h0)
     6.62225220E-13   2        24        35   # BR(Hp -> W HH)
DECAY         6     2.43000000E+00   # top
#    BR                NDA      ID1      ID2
     1.00000000E+00    2           5        24   # BR(t -> b W)
Block HiggsBoundsInputHiggsCouplingsFermions
# ScalarNormEffCoupSq PseudoSNormEffCoupSq NP IP1 IP2 IP2
    9.92486262E-01    0.00000000E+00        3  25   5   5  # h0-b-b eff. coupling^2, normalised to SM
    3.57136540E+03    0.00000000E+00        3  35   5   5  # H0-b-b eff. coupling^2, normalised to SM
    0.00000000E+00    3.57135789E+03        3  36   5   5  # A0-b-b eff. coupling^2, normalised to SM
#
    1.00000210E+00    0.00000000E+00        3  25   6   6  # h0-t-t eff. coupling^2, normalised to SM
    2.77901653E-04    0.00000000E+00        3  35   6   6  # H0-t-t eff. coupling^2, normalised to SM
    0.00000000E+00    2.80005542E-04        3  36   6   6  # A0-t-t eff. coupling^2, normalised to SM
#
    9.92486262E-01    0.00000000E+00        3  25  15  15  # h0-tau-tau eff. coupling^2, normalised to SM
    3.57136540E+03    0.00000000E+00        3  35  15  15  # H0-tau-tau eff. coupling^2, normalised to SM
    0.00000000E+00    3.57135789E+03        3  36  15  15  # A0-tau-tau eff. coupling^2, normalised to SM
#
Block HiggsBoundsInputHiggsCouplingsBosons
    9.99999996E-01        3  25  24  24  # h0-W-W eff. coupling^2, normalised to SM
    3.96692953E-09        3  35  24  24  # H0-W-W eff. coupling^2, normalised to SM
    0.00000000E+00        3  36  24  24  # A0-W-W eff. coupling^2, normalised to SM
#
    9.99999996E-01        3  25  23  23  # h0-Z-Z eff. coupling^2, normalised to SM
    3.96692953E-09        3  35  23  23  # H0-Z-Z eff. coupling^2, normalised to SM
    0.00000000E+00        3  36  23  23  # A0-Z-Z eff. coupling^2, normalised to SM
#
    1.26543784E+00        3  25  21  21  # h0-g-g eff. coupling^2, normalised to SM
    1.73487212E-02        3  35  21  21  # H0-g-g eff. coupling^2, normalised to SM
    1.55780728E-01        3  36  21  21  # A0-g-g eff. coupling^2, normalised to SM
#
    0.00000000E+00        3  25  25  23  # h0-h0-Z eff. coupling^2, normalised to SM
    0.00000000E+00        3  35  25  23  # H0-h0-Z eff. coupling^2, normalised to SM
    3.96692953E-09        3  36  25  23  # A0-h0-Z eff. coupling^2, normalised to SM
    0.00000000E+00        3  35  35  23  # H0-H0-Z eff. coupling^2, normalised to SM
    9.99999996E-01        3  36  35  23  # A0-H0-Z eff. coupling^2, normalised to SM
    0.00000000E+00        3  36  36  23  # A0-A0-Z eff. coupling^2, normalised to SM
#
    0.00000000E+00        4  25  21  21  23  # h0-g-g-Z eff. coupling^2, normalised to SM
    0.00000000E+00        4  35  21  21  23  # H0-g-g-Z eff. coupling^2, normalised to SM
    0.00000000E+00        4  36  21  21  23  # A0-g-g-Z eff. coupling^2, normalised to SM
Block SPhenoLowEnergy  # low energy observables
    1    3.31332897E-04   # BR(b -> s gamma)
    2    1.58885728E-06   # BR(b -> s mu+ mu-)
    3    3.52459568E-05   # BR(b -> s nu nu)
    4    2.46175054E-15   # BR(Bd -> e+ e-)
    5    1.05163882E-10   # BR(Bd -> mu+ mu-)
    6    2.20547043E-08   # BR(Bd -> tau+ tau-)
    7    8.17821164E-14   # BR(Bs -> e+ e-)
    8    3.49375425E-09   # BR(Bs -> mu+ mu-)
    9    7.42496932E-07   # BR(Bs -> tau+ tau-)
   10    9.55179833E-05   # BR(B_u -> tau nu)
   11    9.86664199E-01   # BR(B_u -> tau nu)/BR(B_u -> tau nu)_SM
   12    5.42128197E-01   # |Delta(M_Bd)| [ps^-1] 
   13    1.93647033E+01   # |Delta(M_Bs)| [ps^-1] 
   14    0.00000000E+00   # neutron EDM according to the chiral quark model
   15    0.00000000E+00   # neutron EDM according to the relativistic quark-parton model
   16    2.15815618E-03   # epsilon_K
   17    2.28166818E-15   # Delta(M_K)
   18    2.47944871E-11   # BR(K^0 -> pi^0 nu nu)
   19    8.28924430E-11   # BR(K^+ -> pi^+ nu nu)
   20   -6.37206784E-16   # Delta(g-2)_electron/2
   21   -2.72429601E-11   # Delta(g-2)_muon/2
   22   -7.73468279E-09   # Delta(g-2)_tau/2
   23    0.00000000E+00   # electric dipole moment of the electron
   24    0.00000000E+00   # electric dipole moment of the muon
   25    0.00000000E+00   # electric dipole moment of the tau
   26    0.00000000E+00   # Br(mu -> e gamma)
   27    0.00000000E+00   # Br(tau -> e gamma)
   28    0.00000000E+00   # Br(tau -> mu gamma)
   29    0.00000000E+00   # Br(mu -> 3 e)
   30    0.00000000E+00   # Br(tau -> 3 e)
   31    0.00000000E+00   # Br(tau -> 3 mu)
   39    7.67252760E-05   # Delta(rho_parameter)
   40    0.00000000E+00   # BR(Z -> e mu)
   41    0.00000000E+00   # BR(Z -> e tau)
   42    0.00000000E+00   # BR(Z -> mu tau)
Block FWCOEF Q=  1.60000000E+02  # Wilson coefficients at scale Q
#    id        order  M        value         comment
     0305 4422   00   0    -1.88819110E-01   # C7
     0305 4422   00   2    -2.01197993E-01   # C7
     0305 4322   00   2    -1.38968031E-04   # C7'
     0305 6421   00   0    -9.52278348E-02   # C8
     0305 6421   00   2    -1.05690149E-01   # C8
     0305 6321   00   2    -1.58735223E-04   # C8'
 03051111 4133   00   0     1.62563722E+00   # C9 e+e-
 03051111 4133   00   2     1.62609781E+00   # C9 e+e-
 03051111 4233   00   2     8.02010604E-04   # C9' e+e-
 03051111 4137   00   0    -4.44832932E+00   # C10 e+e-
 03051111 4137   00   2    -4.44623206E+00   # C10 e+e-
 03051111 4237   00   2    -5.94296460E-03   # C10' e+e-
 03051313 4133   00   0     1.62563722E+00   # C9 mu+mu-
 03051313 4133   00   2     1.62609752E+00   # C9 mu+mu-
 03051313 4233   00   2     8.02009537E-04   # C9' mu+mu-
 03051313 4137   00   0    -4.44832932E+00   # C10 mu+mu-
 03051313 4137   00   2    -4.44623234E+00   # C10 mu+mu-
 03051313 4237   00   2    -5.94296563E-03   # C10' mu+mu-
 03051212 4137   00   0     1.50535012E+00   # C11 nu_1 nu_1
 03051212 4137   00   2     1.50489756E+00   # C11 nu_1 nu_1
 03051212 4237   00   2     1.28539582E-03   # C11' nu_1 nu_1
 03051414 4137   00   0     1.50535012E+00   # C11 nu_2 nu_2
 03051414 4137   00   2     1.50489756E+00   # C11 nu_2 nu_2
 03051414 4237   00   2     1.28539594E-03   # C11' nu_2 nu_2
 03051616 4137   00   0     1.50535012E+00   # C11 nu_3 nu_3
 03051616 4137   00   2     1.50489756E+00   # C11 nu_3 nu_3
 03051616 4237   00   2     1.28542873E-03   # C11' nu_3 nu_3
Block IMFWCOEF Q=  1.60000000E+02  # Im(Wilson coefficients) at scale Q
#    id        order  M        value         comment
     0305 4422   00   0     3.85795183E-07   # C7
     0305 4422   00   2    -9.46109878E-06   # C7
     0305 4322   00   2    -9.53900646E-07   # C7'
     0305 6421   00   0     3.30459088E-07   # C8
     0305 6421   00   2    -2.91892330E-05   # C8
     0305 6321   00   2    -8.27086690E-07   # C8'
 03051111 4133   00   2     4.26596257E-07   # C9 e+e-
 03051111 4233   00   2     1.53457128E-05   # C9' e+e-
 03051111 4137   00   2    -8.93242056E-07   # C10 e+e-
 03051111 4237   00   2    -1.13718567E-04   # C10' e+e-
 03051313 4133   00   2     4.26590991E-07   # C9 mu+mu-
 03051313 4233   00   2     1.53457035E-05   # C9' mu+mu-
 03051313 4137   00   2    -8.93236621E-07   # C10 mu+mu-
 03051313 4237   00   2    -1.13718595E-04   # C10' mu+mu-
 03051212 4137   00   2     2.11896036E-07   # C11 nu_1 nu_1
 03051212 4237   00   2     2.45960369E-05   # C11' nu_1 nu_1
 03051414 4137   00   2     2.11896231E-07   # C11 nu_2 nu_2
 03051414 4237   00   2     2.45960369E-05   # C11' nu_2 nu_2
 03051616 4137   00   2     2.11950101E-07   # C11 nu_3 nu_3
 03051616 4237   00   2     2.45960368E-05   # C11' nu_3 nu_3
