# SUSY Les Houches Accord 2 - MSSM spectrum + Decays
# SPheno v4.0.5be
# W. Porod, Comput. Phys. Commun. 153 (2003) 275-315, hep-ph/0301101;
# W. Porod, F.~Staub, Comput. Phys. Commun. 183 (2012) 2458
#                     arXiv:1104.1573 [hep-ph] 
# in case of problems send email to porod@physik.uni-wuerzburg.de
# Created: 22.11.2021,  15:12
Block SPINFO         # Program information
     1   SPheno      # spectrum calculator
     2   v4.0.5be    # version number
#
Block SPhenoINFO     # SPheno specific information
    1      2         # using 2-loop RGEs
    2      2         # using pole masses for boundary conditions at mZ
Block MODSEL  # Model selection
    1    0    # general MSSM
Block MINPAR  # Input parameters
    3    1.12539835E+01  # tanb at m_Z    
    4    1.00000000E+00  # Sign(mu)
Block EXTPAR  # non-universal input parameters
    0    4.53073359E+03  # scale for input parameters
    1    1.03612978E+03  # M_1
    2   -4.96987520E+02  # M_2
    3    1.64894743E+03  # M_3
   11    1.89709981E+03  # A_t
   12   -6.84941777E+02  # A_b
   13    9.40470092E+02  # A_tau
   23    3.07330957E+02  # mu
   25    1.06810839E+01  # tan(beta)
   26    3.48663897E+03  # m_A, pole mass
   31    3.57498769E+02  # M_L11
   32    3.57498769E+02  # M_L22
   33    1.17666269E+03  # M_L33
   34    7.81463695E+02  # M_E11
   35    7.81463695E+02  # M_E22
   36    5.57875904E+02  # M_E33
   41    1.00000000E+04  # M_Q11
   42    1.00000000E+04  # M_Q22
   43    4.66903706E+03  # M_Q33
   44    1.00000000E+04  # M_U11
   45    1.00000000E+04  # M_U22
   46    4.37494234E+03  # M_U33
   47    1.00000000E+04  # M_D11
   48    1.00000000E+04  # M_D22
   49    4.98257427E+03  # M_D33
Block SMINPUTS  # SM parameters
         1     1.27908970E+02  # alpha_em^-1(MZ)^MSbar
         2     1.16637870E-05  # G_mu [GeV^-2]
         3     1.18400000E-01  # alpha_s(MZ)^MSbar
         4     9.11876000E+01  # m_Z(pole)
         5     4.18000000E+00  # m_b(m_b), MSbar
         6     1.73200000E+02  # m_t(pole)
         7     1.77700000E+00  # m_tau(pole)
         8     0.00000000E+00  # m_nu_3
        11     5.10998930E-04  # m_e(pole)
        12     0.00000000E+00  # m_nu_1
        13     1.05658372E-01  # m_muon(pole)
        14     0.00000000E+00  # m_nu_2
        21     5.00000000E-03  # m_d(2 GeV), MSbar
        22     2.50000000E-03  # m_u(2 GeV), MSbar
        23     9.50000000E-02  # m_s(2 GeV), MSbar
        24     1.27000000E+00  # m_c(m_c), MSbar
Block gauge Q=  4.53073359E+03  # (SUSY scale)
   1    3.55362975E-01  # g'(Q)^DRbar
   2    6.65198874E-01  # g(Q)^DRbar
   3    1.21977796E+00  # g3(Q)^DRbar
Block Yu Q=  4.53073359E+03  # (SUSY scale)
  1  1     8.42103795E-06   # Y_u(Q)^DRbar
  2  2     4.27788728E-03   # Y_c(Q)^DRbar
  3  3     1.01732902E+00   # Y_t(Q)^DRbar
Block Yd Q=  4.53073359E+03  # (SUSY scale)
  1  1     1.80742880E-04   # Y_d(Q)^DRbar
  2  2     3.43411472E-03   # Y_s(Q)^DRbar
  3  3     1.79240300E-01   # Y_b(Q)^DRbar
Block Ye Q=  4.53073359E+03  # (SUSY scale)
  1  1     3.15409543E-05   # Y_e(Q)^DRbar
  2  2     6.52166900E-03   # Y_mu(Q)^DRbar
  3  3     1.09683744E-01   # Y_tau(Q)^DRbar
Block Au Q=  4.53073359E+03  # (SUSY scale)
  1  1     0.00000000E+00   # A_u(Q)^DRbar
  2  2     0.00000000E+00   # A_c(Q)^DRbar
  3  3     1.89709985E+03   # A_t(Q)^DRbar
Block Ad Q=  4.53073359E+03  # (SUSY scale)
  1  1     0.00000000E+00   # A_d(Q)^DRbar
  2  2     0.00000000E+00   # A_s(Q)^DRbar
  3  3    -6.84941768E+02   # A_b(Q)^DRbar
Block Ae Q=  4.53073359E+03  # (SUSY scale)
  1  1     0.00000000E+00   # A_e(Q)^DRbar
  2  2     0.00000000E+00   # A_mu(Q)^DRbar
  3  3     9.40470082E+02   # A_tau(Q)^DRbar
Block MSOFT Q=  4.53073359E+03  # soft SUSY breaking masses at Q
   1    1.03612978E+03  # M_1
   2   -4.96987520E+02  # M_2
   3    1.64894743E+03  # M_3
  21    1.19656917E+07  # M^2_(H,d)
  22    4.90065768E+05  # M^2_(H,u)
  31    3.57498769E+02  # M_(L,11)
  32    3.57498769E+02  # M_(L,22)
  33    1.17666269E+03  # M_(L,33)
  34    7.81463695E+02  # M_(E,11)
  35    7.81463695E+02  # M_(E,22)
  36    5.57875904E+02  # M_(E,33)
  41    1.00000000E+04  # M_(Q,11)
  42    1.00000000E+04  # M_(Q,22)
  43    4.66903706E+03  # M_(Q,33)
  44    1.00000000E+04  # M_(U,11)
  45    1.00000000E+04  # M_(U,22)
  46    4.37494234E+03  # M_(U,33)
  47    1.00000000E+04  # M_(D,11)
  48    1.00000000E+04  # M_(D,22)
  49    4.98257427E+03  # M_(D,33)
Block MASS  # Mass spectrum
#   PDG code      mass          particle
         6     1.73200000E+02  # m_t(pole)
        23     9.11876000E+01  # m_Z(pole)
        24     8.04299946E+01  # W+
        15     1.77700000E+00  # m_tau(pole)
        25     1.22820525E+02  # h0
        35     3.48629113E+03  # H0
        36     3.48663897E+03  # A0
        37     3.48813952E+03  # H+
   1000001     1.01212088E+04  # ~d_L
   2000001     1.00958521E+04  # ~d_R
   1000002     1.01208537E+04  # ~u_L
   2000002     1.00985714E+04  # ~u_R
   1000003     1.01212089E+04  # ~s_L
   2000003     1.00958521E+04  # ~s_R
   1000004     1.01208538E+04  # ~c_L
   2000004     1.00985715E+04  # ~c_R
   1000005     4.70201871E+03  # ~b_1
   2000005     5.03995013E+03  # ~b_2
   1000006     4.36226820E+03  # ~t_1
   2000006     4.70570491E+03  # ~t_2
   1000011     3.70588358E+02  # ~e_L-
   2000011     8.03710944E+02  # ~e_R-
   1000012     3.61600816E+02  # ~nu_eL
   1000013     3.70580860E+02  # ~mu_L-
   2000013     8.03704086E+02  # ~mu_R-
   1000014     3.61594000E+02  # ~nu_muL
   1000015     5.84681019E+02  # ~tau_1-
   2000015     1.18014672E+03  # ~tau_2-
   1000016     1.17703126E+03  # ~nu_tauL
   1000021     2.05037851E+03  # ~g
   1000022     3.17407343E+02  # ~chi_10
   1000023     3.31061683E+02  # ~chi_20
   1000025     5.48982672E+02  # ~chi_30
   1000035     1.01758069E+03  # ~chi_40
   1000024     3.21108784E+02  # ~chi_1+
   1000037     5.49112397E+02  # ~chi_2+
# Higgs mixing
Block alpha # Effective Higgs mixing angle
          -8.87828890E-02   # alpha
Block Hmix Q=  4.53073359E+03  # Higgs mixing parameters
   1    3.07330957E+02  # mu
   2    1.06810839E+01  # tan[beta](Q)
   3    2.42805171E+02  # v(Q)
   4    1.21566513E+07  # m^2_A(Q)
Block stopmix # stop mixing matrix
   1  1    -7.79169320E-02   # Re[R_st(1,1)]
   1  2     9.96959855E-01   # Re[R_st(1,2)]
   2  1    -9.96959855E-01   # Re[R_st(2,1)]
   2  2    -7.79169320E-02   # Re[R_st(2,2)]
Block sbotmix # sbottom mixing matrix
   1  1     9.99996914E-01   # Re[R_sb(1,1)]
   1  2     2.48436822E-03   # Re[R_sb(1,2)]
   2  1    -2.48436822E-03   # Re[R_sb(2,1)]
   2  2     9.99996914E-01   # Re[R_sb(2,2)]
Block staumix # stau mixing matrix
   1  1     4.29760152E-03   # Re[R_sta(1,1)]
   1  2     9.99990765E-01   # Re[R_sta(1,2)]
   2  1    -9.99990765E-01   # Re[R_sta(2,1)]
   2  2     4.29760152E-03   # Re[R_sta(2,2)]
Block Nmix # neutralino mixing matrix
   1  1    -1.99971869E-02   # Re[N(1,1)]
   1  2    -2.23692785E-01   # Re[N(1,2)]
   1  3     7.03154961E-01   # Re[N(1,3)]
   1  4     6.74636755E-01   # Re[N(1,4)]
   2  1     4.91584314E-02   # Re[N(2,1)]
   2  2     7.11474708E-02   # Re[N(2,2)]
   2  3     7.02137528E-01   # Re[N(2,3)]
   2  4    -7.06770386E-01   # Re[N(2,4)]
   3  1    -5.52824328E-03   # Re[N(3,1)]
   3  2     9.72055972E-01   # Re[N(3,2)]
   3  3     1.10367820E-01   # Re[N(3,3)]
   3  4     2.07112459E-01   # Re[N(3,4)]
   4  1     9.98575485E-01   # Re[N(4,1)]
   4  2    -2.60066729E-03   # Re[N(4,2)]
   4  3    -1.98730276E-02   # Re[N(4,3)]
   4  4     4.94499711E-02   # Re[N(4,4)]
Block Umix # chargino mixing matrix
   1  1    -1.58980030E-01   # Re[U(1,1)]
   1  2     9.87281799E-01   # Re[U(1,2)]
   2  1    -9.87281799E-01   # Re[U(2,1)]
   2  2    -1.58980030E-01   # Re[U(2,2)]
Block Vmix # chargino mixing matrix
   1  1     2.97045159E-01   # Re[V(1,1)]
   1  2     9.54863432E-01   # Re[V(1,2)]
   2  1     9.54863432E-01   # Re[V(2,1)]
   2  2    -2.97045159E-01   # Re[V(2,2)]
DECAY        23     2.49520000E+00   # Z
DECAY        24     2.08500000E+00   # W
DECAY   1000011     1.21116599E-02   # ~e^-_L
#    BR                NDA      ID1      ID2
     5.25090343E-01    2     1000022        11   # BR(~e^-_L -> chi^0_1 e^-)
     5.21126807E-02    2     1000023        11   # BR(~e^-_L -> chi^0_2 e^-)
     4.22788520E-01    2    -1000024        12   # BR(~e^-_L -> chi^-_1 nu_e)
#    BR                NDA      ID1      ID2       ID3
DECAY   2000011     7.91373572E-03   # ~e^-_R
#    BR                NDA      ID1      ID2
     1.45372104E-01    2     1000022        11   # BR(~e^-_R -> chi^0_1 e^-)
     8.50188754E-01    2     1000023        11   # BR(~e^-_R -> chi^0_2 e^-)
     4.43763382E-03    2     1000025        11   # BR(~e^-_R -> chi^0_3 e^-)
DECAY   1000013     1.21251819E-02   # ~mu^-_L
#    BR                NDA      ID1      ID2
     5.25203395E-01    2     1000022        13   # BR(~mu^-_L -> chi^0_1 mu^-)
     5.25826437E-02    2     1000023        13   # BR(~mu^-_L -> chi^0_2 mu^-)
     4.22205518E-01    2    -1000024        14   # BR(~mu^-_L -> chi^-_1 nu_mu)
#    BR                NDA      ID1      ID2       ID3
DECAY   2000013     8.89649223E-03   # ~mu^-_R
#    BR                NDA      ID1      ID2
     1.56249640E-01    2     1000022        13   # BR(~mu^-_R -> chi^0_1 mu^-)
     7.82204584E-01    2     1000023        13   # BR(~mu^-_R -> chi^0_2 mu^-)
     4.21290012E-03    2     1000025        13   # BR(~mu^-_R -> chi^0_3 mu^-)
     5.26198144E-02    2    -1000024        14   # BR(~mu^-_R -> chi^-_1 nu_mu)
     5.49277341E-04    2    -1000037        14   # BR(~mu^-_R -> chi^-_2 nu_mu)
     4.16378493E-03    2     1000013        25   # BR(~mu^-_R -> ~mu^-_L h^0)
DECAY   1000015     1.37502940E-01   # ~tau^-_1
#    BR                NDA      ID1      ID2
     2.57640056E-01    2     1000022        15   # BR(~tau^-_1 -> chi^0_1 tau^-)
     2.54095809E-01    2     1000023        15   # BR(~tau^-_1 -> chi^0_2 tau^-)
     1.33851676E-04    2     1000025        15   # BR(~tau^-_1 -> chi^0_3 tau^-)
     4.87878830E-01    2    -1000024        16   # BR(~tau^-_1 -> chi^-_1 nu_tau)
     2.51453985E-04    2    -1000037        16   # BR(~tau^-_1 -> chi^-_2 nu_tau)
DECAY   2000015     1.00681170E+01   # ~tau^-_2
#    BR                NDA      ID1      ID2
     3.61621994E-02    2     1000022        15   # BR(~tau^-_2 -> chi^0_1 tau^-)
     1.59352552E-02    2     1000023        15   # BR(~tau^-_2 -> chi^0_2 tau^-)
     2.97825467E-01    2     1000025        15   # BR(~tau^-_2 -> chi^0_3 tau^-)
     9.56577665E-03    2     1000035        15   # BR(~tau^-_2 -> chi^0_4 tau^-)
     2.21644579E-02    2    -1000024        16   # BR(~tau^-_2 -> chi^-_1 nu_tau)
     6.17556006E-01    2    -1000037        16   # BR(~tau^-_2 -> chi^-_2 nu_tau)
     4.23547366E-04    2     1000015        23   # BR(~tau^-_2 -> ~tau^-_1 Z)
     3.67290686E-04    2     1000015        25   # BR(~tau^-_2 -> ~tau^-_1 h^0)
#    BR                NDA      ID1      ID2       ID3
DECAY   1000012     1.64419495E-02   # ~nu_e
#    BR                NDA      ID1      ID2
     2.31327555E-01    2     1000022        12   # BR(~nu_e -> chi^0_1 nu_e)
     5.10435216E-03    2     1000023        12   # BR(~nu_e -> chi^0_2 nu_e)
     7.63568092E-01    2     1000024        11   # BR(~nu_e -> chi^+_1 e^-)
DECAY   1000014     1.64524000E-02   # ~nu_mu
#    BR                NDA      ID1      ID2
     2.31117742E-01    2     1000022        14   # BR(~nu_mu -> chi^0_1 nu_mu)
     5.09902112E-03    2     1000023        14   # BR(~nu_mu -> chi^0_2 nu_mu)
     7.63783237E-01    2     1000024        13   # BR(~nu_mu -> chi^+_1 mu^-)
DECAY   1000016     1.01351784E+01   # ~nu_tau
#    BR                NDA      ID1      ID2
     1.99425358E-02    2     1000022        16   # BR(~nu_tau -> chi^0_1 nu_tau)
     8.73364840E-04    2     1000023        16   # BR(~nu_tau -> chi^0_2 nu_tau)
     2.97509162E-01    2     1000025        16   # BR(~nu_tau -> chi^0_3 nu_tau)
     9.37136196E-03    2     1000035        16   # BR(~nu_tau -> chi^0_4 nu_tau)
     1.00562950E-01    2     1000024        15   # BR(~nu_tau -> chi^+_1 tau^-)
     5.70902937E-01    2     1000037        15   # BR(~nu_tau -> chi^+_2 tau^-)
     8.37689334E-04    2     1000015        24   # BR(~nu_tau -> ~tau^-_1 W^+)
DECAY   2000001     7.38039919E+02   # ~d_R
#    BR                NDA      ID1      ID2
     7.46135621E-03    2     1000035         1   # BR(~d_R -> chi^0_4 d)
     9.92516930E-01    2     1000021         1   # BR(~d_R -> ~g d)
DECAY   1000001     8.68935409E+02   # ~d_L
#    BR                NDA      ID1      ID2
     2.47947460E-03    2     1000022         1   # BR(~d_L -> chi^0_1 d)
     1.99162330E-04    2     1000023         1   # BR(~d_L -> chi^0_2 d)
     4.82559186E-02    2     1000025         1   # BR(~d_L -> chi^0_3 d)
     1.63529279E-03    2     1000035         1   # BR(~d_L -> chi^0_4 d)
     2.58635699E-03    2    -1000024         2   # BR(~d_L -> chi^-_1 u)
     9.93573230E-02    2    -1000037         2   # BR(~d_L -> chi^-_2 u)
     8.45486472E-01    2     1000021         1   # BR(~d_L -> ~g d)
DECAY   2000003     7.38044632E+02   # ~s_R
#    BR                NDA      ID1      ID2
     7.46130982E-03    2     1000035         3   # BR(~s_R -> chi^0_4 s)
     9.92510591E-01    2     1000021         3   # BR(~s_R -> ~g s)
DECAY   1000003     8.68941457E+02   # ~s_L
#    BR                NDA      ID1      ID2
     2.48080196E-03    2     1000022         3   # BR(~s_L -> chi^0_1 s)
     2.00501631E-04    2     1000023         3   # BR(~s_L -> chi^0_2 s)
     4.82556163E-02    2     1000025         3   # BR(~s_L -> chi^0_3 s)
     1.63528249E-03    2     1000035         3   # BR(~s_L -> chi^0_4 s)
     2.59019581E-03    2    -1000024         4   # BR(~s_L -> chi^-_1 c)
     9.93570064E-02    2    -1000037         4   # BR(~s_L -> chi^-_2 c)
     8.45480595E-01    2     1000021         3   # BR(~s_L -> ~g s)
DECAY   1000005     4.04101622E+02   # ~b_1
#    BR                NDA      ID1      ID2
     6.11642369E-03    2     1000022         5   # BR(~b_1 -> chi^0_1 b)
     3.82472749E-03    2     1000023         5   # BR(~b_1 -> chi^0_2 b)
     4.72562154E-02    2     1000025         5   # BR(~b_1 -> chi^0_3 b)
     1.51642634E-03    2     1000035         5   # BR(~b_1 -> chi^0_4 b)
     2.18151195E-01    2    -1000024         6   # BR(~b_1 -> chi^-_1 t)
     1.18131969E-01    2    -1000037         6   # BR(~b_1 -> chi^-_2 t)
     6.02369483E-01    2     1000021         5   # BR(~b_1 -> ~g b)
     2.63356011E-03    2     1000006       -24   # BR(~b_1 -> ~t_1 W^-)
DECAY   2000005     2.86005510E+02   # ~b_2
#    BR                NDA      ID1      ID2
     5.50676426E-03    2     1000022         5   # BR(~b_2 -> chi^0_1 b)
     5.53287587E-03    2     1000023         5   # BR(~b_2 -> chi^0_2 b)
     1.50127835E-04    2     1000025         5   # BR(~b_2 -> chi^0_3 b)
     9.03225785E-03    2     1000035         5   # BR(~b_2 -> chi^0_4 b)
     1.08344309E-02    2    -1000024         6   # BR(~b_2 -> chi^-_1 t)
     3.10245767E-04    2    -1000037         6   # BR(~b_2 -> chi^-_2 t)
     9.68624081E-01    2     1000021         5   # BR(~b_2 -> ~g b)
DECAY   2000002     7.54845722E+02   # ~u_R
#    BR                NDA      ID1      ID2
     2.91891320E-02    2     1000035         2   # BR(~u_R -> chi^0_4 u)
     9.70725995E-01    2     1000021         2   # BR(~u_R -> ~g u)
DECAY   1000002     8.68924286E+02   # ~u_L
#    BR                NDA      ID1      ID2
     2.64244393E-03    2     1000022         2   # BR(~u_L -> chi^0_1 u)
     3.26599899E-04    2     1000023         2   # BR(~u_L -> chi^0_2 u)
     4.80597413E-02    2     1000025         2   # BR(~u_L -> chi^0_3 u)
     1.54232777E-03    2     1000035         2   # BR(~u_L -> chi^0_4 u)
     9.02898417E-03    2     1000024         1   # BR(~u_L -> chi^+_1 d)
     9.29373504E-02    2     1000037         1   # BR(~u_L -> chi^+_2 d)
     8.45462553E-01    2     1000021         2   # BR(~u_L -> ~g u)
DECAY   2000004     7.54853036E+02   # ~c_R
#    BR                NDA      ID1      ID2
     2.91888610E-02    2     1000035         4   # BR(~c_R -> chi^0_4 c)
     9.70716560E-01    2     1000021         4   # BR(~c_R -> ~g c)
DECAY   1000004     8.68930301E+02   # ~c_L
#    BR                NDA      ID1      ID2
     2.64435303E-03    2     1000022         4   # BR(~c_L -> chi^0_1 c)
     3.28711822E-04    2     1000023         4   # BR(~c_L -> chi^0_2 c)
     4.80595852E-02    2     1000025         4   # BR(~c_L -> chi^0_3 c)
     1.54232698E-03    2     1000035         4   # BR(~c_L -> chi^0_4 c)
     9.03157309E-03    2     1000024         3   # BR(~c_L -> chi^+_1 s)
     9.29367759E-02    2     1000037         3   # BR(~c_L -> chi^+_2 s)
     8.45456674E-01    2     1000021         4   # BR(~c_L -> ~g c)
DECAY   1000006     3.92112895E+02   # ~t_1
#    BR                NDA      ID1      ID2
     1.05263743E-01    2     1000022         6   # BR(~t_1 -> chi^0_1 t)
     1.13397611E-01    2     1000023         6   # BR(~t_1 -> chi^0_2 t)
     6.56067336E-03    2     1000025         6   # BR(~t_1 -> chi^0_3 t)
     2.29485983E-02    2     1000035         6   # BR(~t_1 -> chi^0_4 t)
     2.11962364E-01    2     1000024         5   # BR(~t_1 -> chi^+_1 b)
     1.35908406E-02    2     1000037         5   # BR(~t_1 -> chi^+_2 b)
     5.26263573E-01    2     1000021         6   # BR(~t_1 -> ~g t)
#    BR                NDA      ID1      ID2       ID3
DECAY   2000006     4.05509444E+02   # ~t_2
#    BR                NDA      ID1      ID2
     1.07701252E-01    2     1000022         6   # BR(~t_2 -> chi^0_1 t)
     1.17601862E-01    2     1000023         6   # BR(~t_2 -> chi^0_2 t)
     5.93676341E-02    2     1000025         6   # BR(~t_2 -> chi^0_3 t)
     1.65680768E-03    2     1000035         6   # BR(~t_2 -> chi^0_4 t)
     1.04855560E-02    2     1000024         5   # BR(~t_2 -> chi^+_1 b)
     9.70733126E-02    2     1000037         5   # BR(~t_2 -> chi^+_2 b)
     6.02396746E-01    2     1000021         6   # BR(~t_2 -> ~g t)
     1.31480501E-03    2     1000006        23   # BR(~t_2 -> ~t_1 Z)
     2.40202467E-03    2     1000006        25   # BR(~t_2 -> ~t_1 h^0)
DECAY   1000024     2.50462961E-09   # chi^+_1
#    BR                NDA      ID1      ID2       ID3
     4.24774337E-01    3     1000022        -1         2   # BR(chi^+_1 -> chi^0_1 d_bar u)
     2.40937193E-01    3     1000022        -3         4   # BR(chi^+_1 -> chi^0_1 s_bar c)
     1.44439409E-01    3     1000022       -11        12   # BR(chi^+_1 -> chi^0_1 e^+ nu_e)
     1.43850433E-01    3     1000022       -13        14   # BR(chi^+_1 -> chi^0_1 mu^+ nu_mu)
     4.59986276E-02    3     1000022       -15        16   # BR(chi^+_1 -> chi^0_1 tau^+ nu_tau)
DECAY   1000037     5.72659648E+00   # chi^+_2
#    BR                NDA      ID1      ID2
     1.21980831E-01    2    -1000011        12   # BR(chi^+_2 -> ~e^+_L nu_e)
     1.21989088E-01    2    -1000013        14   # BR(chi^+_2 -> ~mu^+_L nu_mu)
     1.23431163E-01    2     1000012       -11   # BR(chi^+_2 -> ~nu_e e^+)
     1.23438879E-01    2     1000014       -13   # BR(chi^+_2 -> ~nu_mu mu^+)
     1.64205672E-01    2     1000022        24   # BR(chi^+_2 -> chi^0_1 W^+)
     1.22758623E-01    2     1000023        24   # BR(chi^+_2 -> chi^0_2 W^+)
     1.19814051E-01    2     1000024        23   # BR(chi^+_2 -> chi^+_1 Z)
     1.02292038E-01    2     1000024        25   # BR(chi^+_2 -> chi^+_1 h^0)
#    BR                NDA      ID1      ID2       ID3
DECAY   1000022     0.00000000E+00   # chi^0_1
DECAY   1000023     1.96324318E-06   # chi^0_2
#    BR                NDA      ID1      ID2
     2.12359706E-01    2     1000022        22   # BR(chi^0_2 -> chi^0_1 photon)
#    BR                NDA      ID1      ID2       ID3
     9.01408815E-02    3     1000022         2        -2   # BR(chi^0_2 -> chi^0_1 u u_bar)
     8.03475826E-02    3     1000022         4        -4   # BR(chi^0_2 -> chi^0_1 c c_bar)
     1.15578115E-01    3     1000022         1        -1   # BR(chi^0_2 -> chi^0_1 d d_bar)
     1.15513485E-01    3     1000022         3        -3   # BR(chi^0_2 -> chi^0_1 s s_bar)
     3.45763080E-02    3     1000022         5        -5   # BR(chi^0_2 -> chi^0_1 b b_bar)
     2.58146891E-02    3     1000022        11       -11   # BR(chi^0_2 -> chi^0_1 e^- e^+)
     2.57930013E-02    3     1000022        13       -13   # BR(chi^0_2 -> chi^0_1 mu^- mu^+)
     2.04048644E-02    3     1000022        15       -15   # BR(chi^0_2 -> chi^0_1 tau^- tau^+)
     1.55076556E-01    3     1000022        12       -12   # BR(chi^0_2 -> chi^0_1 nu_e nu_bar_e)
     2.16235987E-02    3     1000024         1        -2   # BR(chi^0_2 -> chi^+_1 d u_bar)
     2.16235987E-02    3    -1000024        -1         2   # BR(chi^0_2 -> chi^-_1 d_bar u)
     1.99688663E-02    3     1000024         3        -4   # BR(chi^0_2 -> chi^+_1 s c_bar)
     1.99688663E-02    3    -1000024        -3         4   # BR(chi^0_2 -> chi^-_1 s_bar c)
     7.21333651E-03    3     1000024        11       -12   # BR(chi^0_2 -> chi^+_1 e^- nu_bar_e)
     7.21333651E-03    3    -1000024       -11        12   # BR(chi^0_2 -> chi^-_1 e^+ nu_e)
     7.20936814E-03    3     1000024        13       -14   # BR(chi^0_2 -> chi^+_1 mu^- nu_bar_mu)
     7.20936814E-03    3    -1000024       -13        14   # BR(chi^0_2 -> chi^-_1 mu^+ nu_mu)
     6.18223591E-03    3     1000024        15       -16   # BR(chi^0_2 -> chi^+_1 tau^- nu_bar_tau)
     6.18223591E-03    3    -1000024       -15        16   # BR(chi^0_2 -> chi^-_1 tau^+ nu_tau)
DECAY   1000025     7.16910189E+00   # chi^0_3
#    BR                NDA      ID1      ID2
     4.68926374E-02    2     1000011       -11   # BR(chi^0_3 -> ~e^-_L e^+)
     4.68926374E-02    2    -1000011        11   # BR(chi^0_3 -> ~e^+_L e^-)
     4.68958214E-02    2     1000013       -13   # BR(chi^0_3 -> ~mu^-_L mu^+)
     4.68958214E-02    2    -1000013        13   # BR(chi^0_3 -> ~mu^+_L mu^-)
     5.13504920E-02    2     1000012       -12   # BR(chi^0_3 -> ~nu_e nu_bar_e)
     5.13504920E-02    2    -1000012        12   # BR(chi^0_3 -> ~nu^*_e nu_e)
     5.13534590E-02    2     1000014       -14   # BR(chi^0_3 -> ~nu_mu nu_bar_mu)
     5.13534590E-02    2    -1000014        14   # BR(chi^0_3 -> ~nu^*_mu nu_mu)
     1.41658536E-01    2     1000024       -24   # BR(chi^0_3 -> chi^+_1 W^-)
     1.41658536E-01    2    -1000024        24   # BR(chi^0_3 -> chi^-_1 W^+)
     1.05862454E-02    2     1000022        23   # BR(chi^0_3 -> chi^0_1 Z)
     1.22343450E-01    2     1000023        23   # BR(chi^0_3 -> chi^0_2 Z)
     7.01525114E-02    2     1000022        25   # BR(chi^0_3 -> chi^0_1 h^0)
     1.20467653E-01    2     1000023        25   # BR(chi^0_3 -> chi^0_2 h^0)
#    BR                NDA      ID1      ID2       ID3
DECAY   1000035     1.07798338E+01   # chi^0_4
#    BR                NDA      ID1      ID2
     4.40449215E-02    2     1000011       -11   # BR(chi^0_4 -> ~e^-_L e^+)
     4.40449215E-02    2    -1000011        11   # BR(chi^0_4 -> ~e^+_L e^-)
     3.34638076E-02    2     2000011       -11   # BR(chi^0_4 -> ~e^-_R e^+)
     3.34638076E-02    2    -2000011        11   # BR(chi^0_4 -> ~e^+_R e^-)
     4.40454892E-02    2     1000013       -13   # BR(chi^0_4 -> ~mu^-_L mu^+)
     4.40454892E-02    2    -1000013        13   # BR(chi^0_4 -> ~mu^+_L mu^-)
     3.34656912E-02    2     2000013       -13   # BR(chi^0_4 -> ~mu^-_R mu^+)
     3.34656912E-02    2    -2000013        13   # BR(chi^0_4 -> ~mu^+_R mu^-)
     1.06101565E-01    2     1000015       -15   # BR(chi^0_4 -> ~tau^-_1 tau^+)
     1.06101565E-01    2    -1000015        15   # BR(chi^0_4 -> ~tau^+_1 tau^-)
     4.55728005E-02    2     1000012       -12   # BR(chi^0_4 -> ~nu_e nu_bar_e)
     4.55728005E-02    2    -1000012        12   # BR(chi^0_4 -> ~nu^*_e nu_e)
     4.55732971E-02    2     1000014       -14   # BR(chi^0_4 -> ~nu_mu nu_bar_mu)
     4.55732971E-02    2    -1000014        14   # BR(chi^0_4 -> ~nu^*_mu nu_mu)
     6.47954100E-02    2     1000024       -24   # BR(chi^0_4 -> chi^+_1 W^-)
     6.47954100E-02    2    -1000024        24   # BR(chi^0_4 -> chi^-_1 W^+)
     1.95312465E-03    2     1000037       -24   # BR(chi^0_4 -> chi^+_2 W^-)
     1.95312465E-03    2    -1000037        24   # BR(chi^0_4 -> chi^-_2 W^+)
     5.57893471E-02    2     1000022        23   # BR(chi^0_4 -> chi^0_1 Z)
     1.06796451E-02    2     1000023        23   # BR(chi^0_4 -> chi^0_2 Z)
     1.92340419E-03    2     1000025        23   # BR(chi^0_4 -> chi^0_3 Z)
     3.57722853E-02    2     1000022        25   # BR(chi^0_4 -> chi^0_1 h^0)
     5.40875424E-02    2     1000023        25   # BR(chi^0_4 -> chi^0_2 h^0)
     1.03173182E-03    2     1000025        25   # BR(chi^0_4 -> chi^0_3 h^0)
#    BR                NDA      ID1      ID2       ID3
     2.56760611E-04    3     1000022         6        -6   # BR(chi^0_4 -> chi^0_1 t t_bar)
     3.21565800E-04    3     1000023         6        -6   # BR(chi^0_4 -> chi^0_2 t t_bar)
     9.82763961E-04    3     1000024         5        -6   # BR(chi^0_4 -> chi^+_1 b t_bar)
     9.82763961E-04    3    -1000024        -5         6   # BR(chi^0_4 -> chi^-_1 b_bar t)
DECAY   1000021     9.14186802E-03   # ~g
#    BR                NDA      ID1      ID2
     7.80833731E-03    2     1000022        21   # BR(~g -> chi^0_1 g)
     8.20661021E-03    2     1000023        21   # BR(~g -> chi^0_2 g)
     6.25308595E-04    2     1000025        21   # BR(~g -> chi^0_3 g)
#    BR                NDA      ID1      ID2       ID3
     2.03876454E-01    3     1000022         6        -6   # BR(~g -> chi^0_1 t t_bar)
     6.80294531E-03    3     1000022         5        -5   # BR(~g -> chi^0_1 b b_bar)
     2.09362793E-01    3     1000023         6        -6   # BR(~g -> chi^0_2 t t_bar)
     5.24374588E-03    3     1000023         5        -5   # BR(~g -> chi^0_2 b b_bar)
     1.01886109E-03    3     1000025         2        -2   # BR(~g -> chi^0_3 u u_bar)
     1.01886964E-03    3     1000025         4        -4   # BR(~g -> chi^0_3 c c_bar)
     2.18345229E-02    3     1000025         6        -6   # BR(~g -> chi^0_3 t t_bar)
     1.02283781E-03    3     1000025         1        -1   # BR(~g -> chi^0_3 d d_bar)
     1.02283934E-03    3     1000025         3        -3   # BR(~g -> chi^0_3 s s_bar)
     2.54691848E-02    3     1000025         5        -5   # BR(~g -> chi^0_3 b b_bar)
     1.77918264E-04    3     1000035         2        -2   # BR(~g -> chi^0_4 u u_bar)
     1.77915980E-04    3     1000035         4        -4   # BR(~g -> chi^0_4 c c_bar)
     5.43412773E-03    3     1000035         6        -6   # BR(~g -> chi^0_4 t t_bar)
     1.06765583E-03    3     1000035         5        -5   # BR(~g -> chi^0_4 b b_bar)
     1.01524740E-04    3     1000024         1        -2   # BR(~g -> chi^+_1 d u_bar)
     1.01524740E-04    3    -1000024        -1         2   # BR(~g -> chi^-_1 d_bar u)
     1.01740178E-04    3     1000024         3        -4   # BR(~g -> chi^+_1 s c_bar)
     1.01740178E-04    3    -1000024        -3         4   # BR(~g -> chi^-_1 s_bar c)
     2.16250137E-01    3     1000024         5        -6   # BR(~g -> chi^+_1 b t_bar)
     2.16250137E-01    3    -1000024        -5         6   # BR(~g -> chi^-_1 b_bar t)
     9.93006240E-04    3     1000037         1        -2   # BR(~g -> chi^+_2 d u_bar)
     9.93006240E-04    3    -1000037        -1         2   # BR(~g -> chi^-_2 d_bar u)
     9.93016659E-04    3     1000037         3        -4   # BR(~g -> chi^+_2 s c_bar)
     9.93016659E-04    3    -1000037        -3         4   # BR(~g -> chi^-_2 s_bar c)
     3.12501571E-02    3     1000037         5        -6   # BR(~g -> chi^+_2 b t_bar)
     3.12501571E-02    3    -1000037        -5         6   # BR(~g -> chi^-_2 b_bar t)
DECAY        25     3.37220167E-03   # Gamma(h0)
     2.47910876E-03   2        22        22   # BR(h0 -> photon photon)
     1.40227514E-03   2        22        23   # BR(h0 -> photon Z)
     2.40940853E-02   2        23        23   # BR(h0 -> Z Z)
     2.07953996E-01   2       -24        24   # BR(h0 -> W W)
     7.93217173E-02   2        21        21   # BR(h0 -> gluon gluon)
     5.26170526E-09   2       -11        11   # BR(h0 -> Electron electron)
     2.34048825E-04   2       -13        13   # BR(h0 -> Muon muon)
     6.75007751E-02   2       -15        15   # BR(h0 -> Tau tau)
     1.50077360E-07   2        -2         2   # BR(h0 -> Up up)
     2.91244575E-02   2        -4         4   # BR(h0 -> Charm charm)
     6.11211813E-07   2        -1         1   # BR(h0 -> Down down)
     2.21060704E-04   2        -3         3   # BR(h0 -> Strange strange)
     5.87667708E-01   2        -5         5   # BR(h0 -> Bottom bottom)
DECAY        35     4.96972459E+01   # Gamma(HH)
     9.71030152E-09   2        22        22   # BR(HH -> photon photon)
     1.06025494E-07   2        22        23   # BR(HH -> photon Z)
     3.78981565E-06   2        23        23   # BR(HH -> Z Z)
     9.44256425E-07   2       -24        24   # BR(HH -> W W)
     2.05833024E-06   2        21        21   # BR(HH -> gluon gluon)
     1.20111595E-09   2       -11        11   # BR(HH -> Electron electron)
     5.34823083E-05   2       -13        13   # BR(HH -> Muon muon)
     1.62547214E-02   2       -15        15   # BR(HH -> Tau tau)
     1.29417872E-12   2        -2         2   # BR(HH -> Up up)
     2.51067464E-07   2        -4         4   # BR(HH -> Charm charm)
     1.85752184E-02   2        -6         6   # BR(HH -> Top top)
     9.31809835E-08   2        -1         1   # BR(HH -> Down down)
     3.37037633E-05   2        -3         3   # BR(HH -> Strange strange)
     8.69950175E-02   2        -5         5   # BR(HH -> Bottom bottom)
     5.90389262E-02   2  -1000024   1000024   # BR(HH -> Chargino1 chargino1)
     2.31229646E-01   2  -1000024   1000037   # BR(HH -> Chargino1 chargino2)
     2.31229646E-01   2  -1000037   1000024   # BR(HH -> Chargino2 chargino1)
     1.81577696E-02   2  -1000037   1000037   # BR(HH -> Chargino2 chargino2)
     1.67909185E-02   2   1000022   1000022   # BR(HH -> neutralino1 neutralino1)
     3.23146651E-03   2   1000022   1000023   # BR(HH -> neutralino1 neutralino2)
     1.31067284E-01   2   1000022   1000025   # BR(HH -> neutralino1 neutralino3)
     4.05684394E-02   2   1000022   1000035   # BR(HH -> neutralino1 neutralino4)
     5.96814100E-04   2   1000023   1000023   # BR(HH -> neutralino2 neutralino2)
     1.08171418E-01   2   1000023   1000025   # BR(HH -> neutralino2 neutralino3)
     2.58023817E-02   2   1000023   1000035   # BR(HH -> neutralino2 neutralino4)
     9.07446759E-03   2   1000025   1000025   # BR(HH -> neutralino3 neutralino3)
     1.89806058E-03   2   1000025   1000035   # BR(HH -> neutralino3 neutralino4)
     1.51623481E-05   2   1000035   1000035   # BR(HH -> neutralino4 neutralino4)
     2.41797864E-05   2        25        25   # BR(HH -> h0 h0)
     1.18266676E-06   2  -1000011   1000011   # BR(HH -> Selectron1 selectron1)
     4.27359277E-14   2  -2000011   1000011   # BR(HH -> Selectron2 selectron1)
     4.27359277E-14   2  -1000011   2000011   # BR(HH -> Selectron1 selectron2)
     6.98885847E-07   2  -2000011   2000011   # BR(HH -> Selectron2 selectron2)
     1.18179260E-06   2  -1000013   1000013   # BR(HH -> Smuon1 smuon1)
     1.82709020E-09   2  -2000013   1000013   # BR(HH -> Smuon2 smuon1)
     1.82709020E-09   2  -1000013   2000013   # BR(HH -> Smuon1 smuon2)
     6.98454498E-07   2  -2000013   2000013   # BR(HH -> Smuon2 smuon2)
     3.07954833E-07   2  -1000015   1000015   # BR(HH -> Stau1 stau1)
     5.84115463E-04   2  -2000015   1000015   # BR(HH -> Stau2 stau1)
     5.84115463E-04   2  -1000015   2000015   # BR(HH -> Stau1 stau2)
     1.10000828E-06   2  -2000015   2000015   # BR(HH -> Stau2 stau2)
DECAY        36     4.94199781E+01   # Gamma(A0)
     3.65689974E-09   2        22        22   # BR(A0 -> photon photon)
     1.16427122E-07   2        22        23   # BR(A0 -> photon Z)
     1.15760186E-05   2        21        21   # BR(A0 -> gluon gluon)
     1.15798351E-09   2       -11        11   # BR(A0 -> Electron electron)
     5.15617845E-05   2       -13        13   # BR(A0 -> Muon muon)
     1.56714845E-02   2       -15        15   # BR(A0 -> Tau tau)
     1.18931726E-12   2        -2         2   # BR(A0 -> Up up)
     2.30716790E-07   2        -4         4   # BR(A0 -> Charm charm)
     1.72389703E-02   2        -6         6   # BR(A0 -> Top top)
     8.98365558E-08   2        -1         1   # BR(A0 -> Down down)
     3.24939926E-05   2        -3         3   # BR(A0 -> Strange strange)
     8.38722331E-02   2        -5         5   # BR(A0 -> Bottom bottom)
     5.08655388E-02   2  -1000024   1000024   # BR(A0 -> Chargino1 chargino1)
     2.40958928E-01   2  -1000024   1000037   # BR(A0 -> Chargino1 chargino2)
     2.40958928E-01   2  -1000037   1000024   # BR(A0 -> Chargino2 chargino1)
     1.00066523E-02   2  -1000037   1000037   # BR(A0 -> Chargino2 chargino2)
     1.23786292E-02   2   1000022   1000022   # BR(A0 -> neutralino1 neutralino1)
     5.55456942E-03   2   1000022   1000023   # BR(A0 -> neutralino1 neutralino2)
     1.00175579E-01   2   1000022   1000025   # BR(A0 -> neutralino1 neutralino3)
     2.56231926E-02   2   1000022   1000035   # BR(A0 -> neutralino1 neutralino4)
     8.88417677E-04   2   1000023   1000023   # BR(A0 -> neutralino2 neutralino2)
     1.46321682E-01   2   1000023   1000025   # BR(A0 -> neutralino2 neutralino3)
     4.18920943E-02   2   1000023   1000035   # BR(A0 -> neutralino2 neutralino4)
     5.12317975E-03   2   1000025   1000025   # BR(A0 -> neutralino3 neutralino3)
     1.12987954E-03   2   1000025   1000035   # BR(A0 -> neutralino3 neutralino4)
     6.21728490E-05   2   1000035   1000035   # BR(A0 -> neutralino4 neutralino4)
     7.00543540E-06   2        23        25   # BR(A0 -> Z h0)
     1.14894894E-37   2        25        25   # BR(A0 -> h0 h0)
     4.25038656E-14   2  -2000011   1000011   # BR(A0 -> Selectron2 selectron1)
     4.25038656E-14   2  -1000011   2000011   # BR(A0 -> Selectron1 selectron2)
     1.81717301E-09   2  -2000013   1000013   # BR(A0 -> Smuon2 smuon1)
     1.81717301E-09   2  -1000013   2000013   # BR(A0 -> Smuon1 smuon2)
     5.87393347E-04   2  -2000015   1000015   # BR(A0 -> Stau2 stau1)
     5.87393347E-04   2  -1000015   2000015   # BR(A0 -> Stau1 stau2)
DECAY        37     5.02270869E+01   # Gamma(Hp)
     1.45455139E-09   2       -11        12   # BR(Hp -> Electron nu_e)
     6.21866151E-05   2       -13        14   # BR(Hp -> Muon nu_mu)
     1.75899141E-02   2       -15        16   # BR(Hp -> Tau nu_tau)
     9.10417285E-08   2        -1         2   # BR(Hp -> Down up)
     1.53934399E-06   2        -3         2   # BR(Hp -> Strange up)
     9.77756905E-07   2        -5         2   # BR(Hp -> Bottom up)
     1.69437965E-08   2        -1         4   # BR(Hp -> Down charm)
     3.30803783E-05   2        -3         4   # BR(Hp -> Strange charm)
     1.36921382E-04   2        -5         4   # BR(Hp -> Bottom charm)
     1.39019469E-06   2        -1         6   # BR(Hp -> Down top)
     3.03595922E-05   2        -3         6   # BR(Hp -> Strange top)
     1.13632310E-01   2        -5         6   # BR(Hp -> Bottom top)
     1.60630039E-03   2   1000022   1000024   # BR(Hp -> neutralino1 chargino1)
     2.78463841E-01   2   1000022   1000037   # BR(Hp -> neutralino1 chargino2)
     1.99848705E-02   2   1000023   1000024   # BR(Hp -> neutralino2 chargino1)
     2.45149013E-01   2   1000023   1000037   # BR(Hp -> neutralino2 chargino2)
     2.55677662E-01   2   1000024   1000025   # BR(Hp -> chargino1 neutralino3)
     2.34112593E-07   2   1000025   1000037   # BR(Hp -> neutralino3 chargino2)
     6.33947929E-02   2   1000024   1000035   # BR(Hp -> chargino1 neutralino4)
     3.05887744E-03   2   1000035   1000037   # BR(Hp -> neutralino4 chargino2)
     6.90496992E-06   2        24        25   # BR(Hp -> W h0)
     5.84783830E-13   2        24        35   # BR(Hp -> W HH)
     2.06206759E-13   2        24        36   # BR(Hp -> W A0)
     4.59358995E-06   2  -1000011   1000012   # BR(Hp -> Selectron1 snu_e1)
     8.81685461E-14   2  -2000011   1000012   # BR(Hp -> Selectron2 snu_e1)
     4.59237612E-06   2  -1000013   1000014   # BR(Hp -> Smuon1 snu_mu1)
     3.76945683E-09   2  -2000013   1000014   # BR(Hp -> Smuon2 snu_mu1)
     1.15578082E-03   2  -1000015   1000016   # BR(Hp -> Stau1 snu_tau1)
     3.74436959E-06   2  -2000015   1000016   # BR(Hp -> Stau2 snu_tau1)
DECAY         6     2.43000000E+00   # top
#    BR                NDA      ID1      ID2
     1.00000000E+00    2           5        24   # BR(t -> b W)
Block HiggsBoundsInputHiggsCouplingsFermions
# ScalarNormEffCoupSq PseudoSNormEffCoupSq NP IP1 IP2 IP2
    9.04769519E-01    0.00000000E+00        3  25   5   5  # h0-b-b eff. coupling^2, normalised to SM
    1.14180784E+02    0.00000000E+00        3  35   5   5  # H0-b-b eff. coupling^2, normalised to SM
    0.00000000E+00    1.14085553E+02        3  36   5   5  # A0-b-b eff. coupling^2, normalised to SM
#
    1.00083473E+00    0.00000000E+00        3  25   6   6  # h0-t-t eff. coupling^2, normalised to SM
    7.93062306E-03    0.00000000E+00        3  35   6   6  # H0-t-t eff. coupling^2, normalised to SM
    0.00000000E+00    8.76535171E-03        3  36   6   6  # A0-t-t eff. coupling^2, normalised to SM
#
    9.04769519E-01    0.00000000E+00        3  25  15  15  # h0-tau-tau eff. coupling^2, normalised to SM
    1.14180784E+02    0.00000000E+00        3  35  15  15  # H0-tau-tau eff. coupling^2, normalised to SM
    0.00000000E+00    1.14085553E+02        3  36  15  15  # A0-tau-tau eff. coupling^2, normalised to SM
#
Block HiggsBoundsInputHiggsCouplingsBosons
    9.99979129E-01        3  25  24  24  # h0-W-W eff. coupling^2, normalised to SM
    2.08705926E-05        3  35  24  24  # H0-W-W eff. coupling^2, normalised to SM
    0.00000000E+00        3  36  24  24  # A0-W-W eff. coupling^2, normalised to SM
#
    9.99979129E-01        3  25  23  23  # h0-Z-Z eff. coupling^2, normalised to SM
    2.08705926E-05        3  35  23  23  # H0-Z-Z eff. coupling^2, normalised to SM
    0.00000000E+00        3  36  23  23  # A0-Z-Z eff. coupling^2, normalised to SM
#
    1.27449727E+00        3  25  21  21  # h0-g-g eff. coupling^2, normalised to SM
    4.58696758E-03        3  35  21  21  # H0-g-g eff. coupling^2, normalised to SM
    1.16717146E-01        3  36  21  21  # A0-g-g eff. coupling^2, normalised to SM
#
    0.00000000E+00        3  25  25  23  # h0-h0-Z eff. coupling^2, normalised to SM
    0.00000000E+00        3  35  25  23  # H0-h0-Z eff. coupling^2, normalised to SM
    2.08705926E-05        3  36  25  23  # A0-h0-Z eff. coupling^2, normalised to SM
    0.00000000E+00        3  35  35  23  # H0-H0-Z eff. coupling^2, normalised to SM
    9.99979129E-01        3  36  35  23  # A0-H0-Z eff. coupling^2, normalised to SM
    0.00000000E+00        3  36  36  23  # A0-A0-Z eff. coupling^2, normalised to SM
#
    0.00000000E+00        4  25  21  21  23  # h0-g-g-Z eff. coupling^2, normalised to SM
    0.00000000E+00        4  35  21  21  23  # H0-g-g-Z eff. coupling^2, normalised to SM
    0.00000000E+00        4  36  21  21  23  # A0-g-g-Z eff. coupling^2, normalised to SM
Block SPhenoLowEnergy  # low energy observables
    1    3.25955706E-04   # BR(b -> s gamma)
    2    1.58922891E-06   # BR(b -> s mu+ mu-)
    3    3.52466167E-05   # BR(b -> s nu nu)
    4    2.53580290E-15   # BR(Bd -> e+ e-)
    5    1.08326633E-10   # BR(Bd -> mu+ mu-)
    6    2.26777937E-08   # BR(Bd -> tau+ tau-)
    7    8.53594708E-14   # BR(Bs -> e+ e-)
    8    3.64655431E-09   # BR(Bs -> mu+ mu-)
    9    7.73492341E-07   # BR(Bs -> tau+ tau-)
   10    9.67436859E-05   # BR(B_u -> tau nu)
   11    9.99325237E-01   # BR(B_u -> tau nu)/BR(B_u -> tau nu)_SM
   12    5.42109743E-01   # |Delta(M_Bd)| [ps^-1] 
   13    1.93697098E+01   # |Delta(M_Bs)| [ps^-1] 
   14    0.00000000E+00   # neutron EDM according to the chiral quark model
   15    0.00000000E+00   # neutron EDM according to the relativistic quark-parton model
   16    2.15774043E-03   # epsilon_K
   17    2.28166250E-15   # Delta(M_K)
   18    2.47943758E-11   # BR(K^0 -> pi^0 nu nu)
   19    8.28918787E-11   # BR(K^+ -> pi^+ nu nu)
   20   -3.16970823E-16   # Delta(g-2)_electron/2
   21   -1.35291338E-11   # Delta(g-2)_muon/2
   22   -1.26333417E-08   # Delta(g-2)_tau/2
   23    0.00000000E+00   # electric dipole moment of the electron
   24    0.00000000E+00   # electric dipole moment of the muon
   25    0.00000000E+00   # electric dipole moment of the tau
   26    0.00000000E+00   # Br(mu -> e gamma)
   27    0.00000000E+00   # Br(tau -> e gamma)
   28    0.00000000E+00   # Br(tau -> mu gamma)
   29    0.00000000E+00   # Br(mu -> 3 e)
   30    0.00000000E+00   # Br(tau -> 3 e)
   31    0.00000000E+00   # Br(tau -> 3 mu)
   39    1.49866175E-05   # Delta(rho_parameter)
   40    0.00000000E+00   # BR(Z -> e mu)
   41    0.00000000E+00   # BR(Z -> e tau)
   42    0.00000000E+00   # BR(Z -> mu tau)
Block FWCOEF Q=  1.60000000E+02  # Wilson coefficients at scale Q
#    id        order  M        value         comment
     0305 4422   00   0    -1.88819110E-01   # C7
     0305 4422   00   2    -1.94756522E-01   # C7
     0305 4322   00   2    -1.12585008E-04   # C7'
     0305 6421   00   0    -9.52278348E-02   # C8
     0305 6421   00   2    -1.02681487E-01   # C8
     0305 6321   00   2    -1.44796700E-04   # C8'
 03051111 4133   00   0     1.63056378E+00   # C9 e+e-
 03051111 4133   00   2     1.63075733E+00   # C9 e+e-
 03051111 4233   00   2     2.98624306E-05   # C9' e+e-
 03051111 4137   00   0    -4.45325588E+00   # C10 e+e-
 03051111 4137   00   2    -4.45092585E+00   # C10 e+e-
 03051111 4237   00   2    -2.19433581E-04   # C10' e+e-
 03051313 4133   00   0     1.63056378E+00   # C9 mu+mu-
 03051313 4133   00   2     1.63075714E+00   # C9 mu+mu-
 03051313 4233   00   2     2.98624257E-05   # C9' mu+mu-
 03051313 4137   00   0    -4.45325588E+00   # C10 mu+mu-
 03051313 4137   00   2    -4.45092603E+00   # C10 mu+mu-
 03051313 4237   00   2    -2.19433591E-04   # C10' mu+mu-
 03051212 4137   00   0     1.50535012E+00   # C11 nu_1 nu_1
 03051212 4137   00   2     1.50486280E+00   # C11 nu_1 nu_1
 03051212 4237   00   2     4.74068773E-05   # C11' nu_1 nu_1
 03051414 4137   00   0     1.50535012E+00   # C11 nu_2 nu_2
 03051414 4137   00   2     1.50486280E+00   # C11 nu_2 nu_2
 03051414 4237   00   2     4.74068776E-05   # C11' nu_2 nu_2
 03051616 4137   00   0     1.50535012E+00   # C11 nu_3 nu_3
 03051616 4137   00   2     1.50486242E+00   # C11 nu_3 nu_3
 03051616 4237   00   2     4.74068304E-05   # C11' nu_3 nu_3
Block IMFWCOEF Q=  1.60000000E+02  # Im(Wilson coefficients) at scale Q
#    id        order  M        value         comment
     0305 4422   00   0     3.85821438E-07   # C7
     0305 4422   00   2    -1.24841568E-06   # C7
     0305 4322   00   2    -1.15264832E-07   # C7'
     0305 6421   00   0     3.30481578E-07   # C8
     0305 6421   00   2    -3.88027948E-06   # C8
     0305 6321   00   2    -1.16008379E-07   # C8'
 03051111 4133   00   2    -4.38866010E-07   # C9 e+e-
 03051111 4233   00   2     5.79721855E-07   # C9' e+e-
 03051111 4137   00   2     1.07755368E-06   # C10 e+e-
 03051111 4237   00   2    -4.26059647E-06   # C10' e+e-
 03051313 4133   00   2    -4.38876318E-07   # C9 mu+mu-
 03051313 4233   00   2     5.79721789E-07   # C9' mu+mu-
 03051313 4137   00   2     1.07756364E-06   # C10 mu+mu-
 03051313 4237   00   2    -4.26059666E-06   # C10' mu+mu-
 03051212 4137   00   2     5.51377908E-08   # C11 nu_1 nu_1
 03051212 4237   00   2     9.20470504E-07   # C11' nu_1 nu_1
 03051414 4137   00   2     5.51376711E-08   # C11 nu_2 nu_2
 03051414 4237   00   2     9.20470504E-07   # C11' nu_2 nu_2
 03051616 4137   00   2     4.82887922E-08   # C11 nu_3 nu_3
 03051616 4237   00   2     9.20468438E-07   # C11' nu_3 nu_3
