# SUSY Les Houches Accord 2 - MSSM spectrum + Decays
# SPheno v4.0.5be
# W. Porod, Comput. Phys. Commun. 153 (2003) 275-315, hep-ph/0301101;
# W. Porod, F.~Staub, Comput. Phys. Commun. 183 (2012) 2458
#                     arXiv:1104.1573 [hep-ph] 
# in case of problems send email to porod@physik.uni-wuerzburg.de
# Created: 07.09.2021,  20:13
Block SPINFO         # Program information
     1   SPheno      # spectrum calculator
     2   v4.0.5be    # version number
#
Block SPhenoINFO     # SPheno specific information
    1      2         # using 2-loop RGEs
    2      2         # using pole masses for boundary conditions at mZ
Block MODSEL  # Model selection
    1    0    # general MSSM
Block MINPAR  # Input parameters
    3    1.76079179E+00  # tanb at m_Z    
    4    1.00000000E+00  # Sign(mu)
Block EXTPAR  # non-universal input parameters
    0    4.21068621E+03  # scale for input parameters
    1    6.36644043E+01  # M_1
    2    9.15065828E+02  # M_2
    3    2.61108469E+03  # M_3
   11   -3.01353831E+03  # A_t
   12   -5.23282373E+02  # A_b
   13   -3.62373369E+01  # A_tau
   23    1.66511399E+02  # mu
   25    1.64274648E+00  # tan(beta)
   26    3.11247570E+03  # m_A, pole mass
   31    1.00000000E+04  # M_L11
   32    1.00000000E+04  # M_L22
   33    1.00000000E+04  # M_L33
   34    1.00000000E+04  # M_E11
   35    1.00000000E+04  # M_E22
   36    1.00000000E+04  # M_E33
   41    1.00000000E+04  # M_Q11
   42    1.00000000E+04  # M_Q22
   43    4.11782647E+03  # M_Q33
   44    1.00000000E+04  # M_U11
   45    1.00000000E+04  # M_U22
   46    4.29170334E+03  # M_U33
   47    1.00000000E+04  # M_D11
   48    1.00000000E+04  # M_D22
   49    3.08442035E+03  # M_D33
Block SMINPUTS  # SM parameters
         1     1.27908970E+02  # alpha_em^-1(MZ)^MSbar
         2     1.16637870E-05  # G_mu [GeV^-2]
         3     1.18400000E-01  # alpha_s(MZ)^MSbar
         4     9.11876000E+01  # m_Z(pole)
         5     4.18000000E+00  # m_b(m_b), MSbar
         6     1.73200000E+02  # m_t(pole)
         7     1.77700000E+00  # m_tau(pole)
         8     0.00000000E+00  # m_nu_3
        11     5.10998930E-04  # m_e(pole)
        12     0.00000000E+00  # m_nu_1
        13     1.05658372E-01  # m_muon(pole)
        14     0.00000000E+00  # m_nu_2
        21     5.00000000E-03  # m_d(2 GeV), MSbar
        22     2.50000000E-03  # m_u(2 GeV), MSbar
        23     9.50000000E-02  # m_s(2 GeV), MSbar
        24     1.27000000E+00  # m_c(m_c), MSbar
Block gauge Q=  4.21068621E+03  # (SUSY scale)
   1    3.55362975E-01  # g'(Q)^DRbar
   2    6.65198874E-01  # g(Q)^DRbar
   3    1.21977796E+00  # g3(Q)^DRbar
Block Yu Q=  4.21068621E+03  # (SUSY scale)
  1  1     9.81566262E-06   # Y_u(Q)^DRbar
  2  2     4.98635661E-03   # Y_c(Q)^DRbar
  3  3     1.18581089E+00   # Y_t(Q)^DRbar
Block Yd Q=  4.21068621E+03  # (SUSY scale)
  1  1     3.24018954E-05   # Y_d(Q)^DRbar
  2  2     6.15636012E-04   # Y_s(Q)^DRbar
  3  3     3.21325269E-02   # Y_b(Q)^DRbar
Block Ye Q=  4.21068621E+03  # (SUSY scale)
  1  1     5.65436768E-06   # Y_e(Q)^DRbar
  2  2     1.16914390E-03   # Y_mu(Q)^DRbar
  3  3     1.96630771E-02   # Y_tau(Q)^DRbar
Block Au Q=  4.21068621E+03  # (SUSY scale)
  1  1     0.00000000E+00   # A_u(Q)^DRbar
  2  2     0.00000000E+00   # A_c(Q)^DRbar
  3  3    -3.01353997E+03   # A_t(Q)^DRbar
Block Ad Q=  4.21068621E+03  # (SUSY scale)
  1  1     0.00000000E+00   # A_d(Q)^DRbar
  2  2     0.00000000E+00   # A_s(Q)^DRbar
  3  3    -5.23282280E+02   # A_b(Q)^DRbar
Block Ae Q=  4.21068621E+03  # (SUSY scale)
  1  1     0.00000000E+00   # A_e(Q)^DRbar
  2  2     0.00000000E+00   # A_mu(Q)^DRbar
  3  3    -3.62373322E+01   # A_tau(Q)^DRbar
Block MSOFT Q=  4.21068621E+03  # soft SUSY breaking masses at Q
   1    6.36644043E+01  # M_1
   2    9.15065828E+02  # M_2
   3    2.61108469E+03  # M_3
  21    7.09675509E+06  # M^2_(H,d)
  22    3.19153954E+06  # M^2_(H,u)
  31    1.00000000E+04  # M_(L,11)
  32    1.00000000E+04  # M_(L,22)
  33    1.00000000E+04  # M_(L,33)
  34    1.00000000E+04  # M_(E,11)
  35    1.00000000E+04  # M_(E,22)
  36    1.00000000E+04  # M_(E,33)
  41    1.00000000E+04  # M_(Q,11)
  42    1.00000000E+04  # M_(Q,22)
  43    4.11782647E+03  # M_(Q,33)
  44    1.00000000E+04  # M_(U,11)
  45    1.00000000E+04  # M_(U,22)
  46    4.29170334E+03  # M_(U,33)
  47    1.00000000E+04  # M_(D,11)
  48    1.00000000E+04  # M_(D,22)
  49    3.08442035E+03  # M_(D,33)
Block MASS  # Mass spectrum
#   PDG code      mass          particle
         6     1.73200000E+02  # m_t(pole)
        23     9.11876000E+01  # m_Z(pole)
        24     8.04299946E+01  # W+
        15     1.77700000E+00  # m_tau(pole)
        25     1.01241736E+02  # h0
        35     3.11256003E+03  # H0
        36     3.11247570E+03  # A0
        37     3.11410818E+03  # H+
   1000001     1.01147337E+04  # ~d_L
   2000001     1.00899769E+04  # ~d_R
   1000002     1.01145374E+04  # ~u_L
   2000002     1.00931497E+04  # ~u_R
   1000003     1.01147339E+04  # ~s_L
   2000003     1.00899769E+04  # ~s_R
   1000004     1.01145377E+04  # ~c_L
   2000004     1.00931502E+04  # ~c_R
   1000005     3.19660414E+03  # ~b_1
   2000005     4.15910713E+03  # ~b_2
   1000006     4.13870303E+03  # ~t_1
   2000006     4.28392137E+03  # ~t_2
   1000011     1.00211180E+04  # ~e_L-
   2000011     1.00089771E+04  # ~e_R-
   1000012     1.00205179E+04  # ~nu_eL
   1000013     1.00211181E+04  # ~mu_L-
   2000013     1.00089772E+04  # ~mu_R-
   1000014     1.00205180E+04  # ~nu_muL
   1000015     1.00089854E+04  # ~tau_1-
   2000015     1.00211225E+04  # ~tau_2-
   1000016     1.00205221E+04  # ~nu_tauL
   1000021     3.08230920E+03  # ~g
   1000022     4.88651482E+01  # ~chi_10
   1000023     1.91759272E+02  # ~chi_20
   1000025     1.97105586E+02  # ~chi_30
   1000035     9.85586008E+02  # ~chi_40
   1000024     1.83908451E+02  # ~chi_1+
   1000037     9.85585989E+02  # ~chi_2+
# Higgs mixing
Block alpha # Effective Higgs mixing angle
          -5.17280119E-01   # alpha
Block Hmix Q=  4.21068621E+03  # Higgs mixing parameters
   1    1.66511399E+02  # mu
   2    1.64274648E+00  # tan[beta](Q)
   3    2.42952905E+02  # v(Q)
   4    9.68750498E+06  # m^2_A(Q)
Block stopmix # stop mixing matrix
   1  1     9.25887925E-01   # Re[R_st(1,1)]
   1  2     3.77798294E-01   # Re[R_st(1,2)]
   2  1    -3.77798294E-01   # Re[R_st(2,1)]
   2  2     9.25887925E-01   # Re[R_st(2,2)]
Block sbotmix # sbottom mixing matrix
   1  1     3.12887053E-04   # Re[R_sb(1,1)]
   1  2     9.99999951E-01   # Re[R_sb(1,2)]
   2  1    -9.99999951E-01   # Re[R_sb(2,1)]
   2  2     3.12887053E-04   # Re[R_sb(2,2)]
Block staumix # stau mixing matrix
   1  1     2.09092598E-03   # Re[R_sta(1,1)]
   1  2     9.99997814E-01   # Re[R_sta(1,2)]
   2  1    -9.99997814E-01   # Re[R_sta(2,1)]
   2  2     2.09092598E-03   # Re[R_sta(2,2)]
Block Nmix # neutralino mixing matrix
   1  1    -9.51938749E-01   # Re[N(1,1)]
   1  2     2.41466963E-02   # Re[N(1,2)]
   1  3    -2.45163989E-01   # Re[N(1,3)]
   1  4     1.82000478E-01   # Re[N(1,4)]
   2  1     4.37336784E-02   # Re[N(2,1)]
   2  2    -1.71494839E-02   # Re[N(2,2)]
   2  3    -7.00292278E-01   # Re[N(2,3)]
   2  4    -7.12308912E-01   # Re[N(2,4)]
   3  1     3.03112661E-01   # Re[N(3,1)]
   3  2     9.39496187E-02   # Re[N(3,2)]
   3  3    -6.68013771E-01   # Re[N(3,3)]
   3  4     6.73092702E-01   # Re[N(3,4)]
   4  1     4.76430513E-03   # Re[N(4,1)]
   4  2    -9.95136323E-01   # Re[N(4,2)]
   4  3    -5.69468595E-02   # Re[N(4,3)]
   4  4     8.02374924E-02   # Re[N(4,4)]
Block Umix # chargino mixing matrix
   1  1    -8.02400759E-02   # Re[U(1,1)]
   1  2     9.96775567E-01   # Re[U(1,2)]
   2  1     9.96775567E-01   # Re[U(2,1)]
   2  2     8.02400759E-02   # Re[U(2,2)]
Block Vmix # chargino mixing matrix
   1  1    -1.13303764E-01   # Re[V(1,1)]
   1  2     9.93560394E-01   # Re[V(1,2)]
   2  1     9.93560394E-01   # Re[V(2,1)]
   2  2     1.13303764E-01   # Re[V(2,2)]
DECAY        23     2.49520000E+00   # Z
DECAY        24     2.08500000E+00   # W
DECAY   2000011     5.02856056E+01   # ~e^-_R
#    BR                NDA      ID1      ID2
     9.06249569E-01    2     1000022        11   # BR(~e^-_R -> chi^0_1 e^-)
     1.91145313E-03    2     1000023        11   # BR(~e^-_R -> chi^0_2 e^-)
     9.18167145E-02    2     1000025        11   # BR(~e^-_R -> chi^0_3 e^-)
DECAY   1000011     1.42385532E+02   # ~e^-_L
#    BR                NDA      ID1      ID2
     7.26839724E-02    2     1000022        11   # BR(~e^-_L -> chi^0_1 e^-)
     2.02668158E-02    2     1000025        11   # BR(~e^-_L -> chi^0_3 e^-)
     2.99330923E-01    2     1000035        11   # BR(~e^-_L -> chi^0_4 e^-)
     3.98633271E-03    2    -1000024        12   # BR(~e^-_L -> chi^-_1 nu_e)
     6.03720004E-01    2    -1000037        12   # BR(~e^-_L -> chi^-_2 nu_e)
#    BR                NDA      ID1      ID2       ID3
DECAY   2000013     5.02861500E+01   # ~mu^-_R
#    BR                NDA      ID1      ID2
     9.06240092E-01    2     1000022        13   # BR(~mu^-_R -> chi^0_1 mu^-)
     1.91408490E-03    2     1000023        13   # BR(~mu^-_R -> chi^0_2 mu^-)
     9.18181351E-02    2     1000025        13   # BR(~mu^-_R -> chi^0_3 mu^-)
DECAY   1000013     1.42385805E+02   # ~mu^-_L
#    BR                NDA      ID1      ID2
     7.26839484E-02    2     1000022        13   # BR(~mu^-_L -> chi^0_1 mu^-)
     2.02676303E-02    2     1000025        13   # BR(~mu^-_L -> chi^0_3 mu^-)
     2.99330356E-01    2     1000035        13   # BR(~mu^-_L -> chi^0_4 mu^-)
     3.98632508E-03    2    -1000024        14   # BR(~mu^-_L -> chi^-_1 nu_mu)
     6.03718849E-01    2    -1000037        14   # BR(~mu^-_L -> chi^-_2 nu_mu)
#    BR                NDA      ID1      ID2       ID3
DECAY   1000015     5.04399312E+01   # ~tau^-_1
#    BR                NDA      ID1      ID2
     9.03586101E-01    2     1000022        15   # BR(~tau^-_1 -> chi^0_1 tau^-)
     2.64926299E-03    2     1000023        15   # BR(~tau^-_1 -> chi^0_2 tau^-)
     9.22094821E-02    2     1000025        15   # BR(~tau^-_1 -> chi^0_3 tau^-)
     1.53278115E-03    2    -1000024        16   # BR(~tau^-_1 -> chi^-_1 nu_tau)
DECAY   2000015     1.42462192E+02   # ~tau^-_2
#    BR                NDA      ID1      ID2
     7.26714262E-02    2     1000022        15   # BR(~tau^-_2 -> chi^0_1 tau^-)
     2.78632262E-04    2     1000023        15   # BR(~tau^-_2 -> chi^0_2 tau^-)
     2.04996551E-02    2     1000025        15   # BR(~tau^-_2 -> chi^0_3 tau^-)
     2.99173449E-01    2     1000035        15   # BR(~tau^-_2 -> chi^0_4 tau^-)
     3.97805627E-03    2    -1000024        16   # BR(~tau^-_2 -> chi^-_1 nu_tau)
     6.03398782E-01    2    -1000037        16   # BR(~tau^-_2 -> chi^-_2 nu_tau)
#    BR                NDA      ID1      ID2       ID3
DECAY   1000012     1.42380510E+02   # ~nu_e
#    BR                NDA      ID1      ID2
     8.78970970E-02    2     1000022        12   # BR(~nu_e -> chi^0_1 nu_e)
     5.08056120E-04    2     1000023        12   # BR(~nu_e -> chi^0_2 nu_e)
     1.43041353E-03    2     1000025        12   # BR(~nu_e -> chi^0_3 nu_e)
     3.02400805E-01    2     1000035        12   # BR(~nu_e -> chi^0_4 nu_e)
     7.94820082E-03    2     1000024        11   # BR(~nu_e -> chi^+_1 e^-)
     5.99815427E-01    2     1000037        11   # BR(~nu_e -> chi^+_2 e^-)
#    BR                NDA      ID1      ID2       ID3
DECAY   1000014     1.42380784E+02   # ~nu_mu
#    BR                NDA      ID1      ID2
     8.78969289E-02    2     1000022        14   # BR(~nu_mu -> chi^0_1 nu_mu)
     5.08055148E-04    2     1000023        14   # BR(~nu_mu -> chi^0_2 nu_mu)
     1.43041080E-03    2     1000025        14   # BR(~nu_mu -> chi^0_3 nu_mu)
     3.02400227E-01    2     1000035        14   # BR(~nu_mu -> chi^0_4 nu_mu)
     7.95008571E-03    2     1000024        13   # BR(~nu_mu -> chi^+_1 mu^-)
     5.99814292E-01    2     1000037        13   # BR(~nu_mu -> chi^+_2 mu^-)
#    BR                NDA      ID1      ID2       ID3
DECAY   1000016     1.42457593E+02   # ~nu_tau
#    BR                NDA      ID1      ID2
     8.78495736E-02    2     1000022        16   # BR(~nu_tau -> chi^0_1 nu_tau)
     5.07781429E-04    2     1000023        16   # BR(~nu_tau -> chi^0_2 nu_tau)
     1.42964015E-03    2     1000025        16   # BR(~nu_tau -> chi^0_3 nu_tau)
     3.02237311E-01    2     1000035        16   # BR(~nu_tau -> chi^0_4 nu_tau)
     8.48108093E-03    2     1000024        15   # BR(~nu_tau -> chi^+_1 tau^-)
     5.99494613E-01    2     1000037        15   # BR(~nu_tau -> chi^+_2 tau^-)
#    BR                NDA      ID1      ID2       ID3
DECAY   2000001     6.60357987E+02   # ~d_R
#    BR                NDA      ID1      ID2
     7.72983746E-03    2     1000022         1   # BR(~d_R -> chi^0_1 d)
     7.83158078E-04    2     1000025         1   # BR(~d_R -> chi^0_3 d)
     9.91470510E-01    2     1000021         1   # BR(~d_R -> ~g d)
DECAY   1000001     7.89457986E+02   # ~d_L
#    BR                NDA      ID1      ID2
     2.11493142E-03    2     1000022         1   # BR(~d_L -> chi^0_1 d)
     5.48842293E-02    2     1000035         1   # BR(~d_L -> chi^0_4 d)
     7.25694890E-04    2    -1000024         2   # BR(~d_L -> chi^-_1 u)
     1.09942848E-01    2    -1000037         2   # BR(~d_L -> chi^-_2 u)
     8.32207211E-01    2     1000021         1   # BR(~d_L -> ~g d)
DECAY   2000003     6.60358138E+02   # ~s_R
#    BR                NDA      ID1      ID2
     7.72984259E-03    2     1000022         3   # BR(~s_R -> chi^0_1 s)
     7.83209140E-04    2     1000025         3   # BR(~s_R -> chi^0_3 s)
     9.91470282E-01    2     1000021         3   # BR(~s_R -> ~g s)
DECAY   1000003     7.89463081E+02   # ~s_L
#    BR                NDA      ID1      ID2
     2.11492360E-03    2     1000022         3   # BR(~s_L -> chi^0_1 s)
     5.48838765E-02    2     1000035         3   # BR(~s_L -> chi^0_4 s)
     7.31941512E-04    2    -1000024         4   # BR(~s_L -> chi^-_1 c)
     1.09942221E-01    2    -1000037         4   # BR(~s_L -> chi^-_2 c)
     8.32201863E-01    2     1000021         3   # BR(~s_L -> ~g s)
DECAY   1000005     3.15624731E+00   # ~b_1
#    BR                NDA      ID1      ID2
     5.13417924E-01    2     1000022         5   # BR(~b_1 -> chi^0_1 b)
     1.11983220E-02    2     1000023         5   # BR(~b_1 -> chi^0_2 b)
     6.07674540E-02    2     1000025         5   # BR(~b_1 -> chi^0_3 b)
     2.04326778E-02    2    -1000024         6   # BR(~b_1 -> chi^-_1 t)
     3.94034346E-01    2     1000021         5   # BR(~b_1 -> ~g b)
DECAY   2000005     2.31779543E+02   # ~b_2
#    BR                NDA      ID1      ID2
     2.98308335E-03    2     1000022         5   # BR(~b_2 -> chi^0_1 b)
     2.29013584E-04    2     1000023         5   # BR(~b_2 -> chi^0_2 b)
     2.89502906E-04    2     1000025         5   # BR(~b_2 -> chi^0_3 b)
     6.97980341E-02    2     1000035         5   # BR(~b_2 -> chi^0_4 b)
     4.92723640E-01    2    -1000024         6   # BR(~b_2 -> chi^-_1 t)
     1.46172572E-01    2    -1000037         6   # BR(~b_2 -> chi^-_2 t)
     2.87802750E-01    2     1000021         5   # BR(~b_2 -> ~g b)
DECAY   2000002     6.77553250E+02   # ~u_R
#    BR                NDA      ID1      ID2
     3.01441408E-02    2     1000022         2   # BR(~u_R -> chi^0_1 u)
     3.05409189E-03    2     1000025         2   # BR(~u_R -> chi^0_3 u)
     9.66737446E-01    2     1000021         2   # BR(~u_R -> ~g u)
DECAY   1000002     7.89449946E+02   # ~u_L
#    BR                NDA      ID1      ID2
     1.19163824E-03    2     1000022         2   # BR(~u_L -> chi^0_1 u)
     1.23305800E-03    2     1000025         2   # BR(~u_L -> chi^0_3 u)
     5.46968382E-02    2     1000035         2   # BR(~u_L -> chi^0_4 u)
     1.44695867E-03    2     1000024         1   # BR(~u_L -> chi^+_1 d)
     1.09233646E-01    2     1000037         1   # BR(~u_L -> chi^+_2 d)
     8.32192922E-01    2     1000021         2   # BR(~u_L -> ~g u)
DECAY   2000004     6.77563242E+02   # ~c_R
#    BR                NDA      ID1      ID2
     3.01439404E-02    2     1000022         4   # BR(~c_R -> chi^0_1 c)
     3.05738371E-03    2     1000025         4   # BR(~c_R -> chi^0_3 c)
     9.66723211E-01    2     1000021         4   # BR(~c_R -> ~g c)
DECAY   1000004     7.89455021E+02   # ~c_L
#    BR                NDA      ID1      ID2
     1.19184052E-03    2     1000022         4   # BR(~c_L -> chi^0_1 c)
     1.23591843E-03    2     1000025         4   # BR(~c_L -> chi^0_3 c)
     5.46965287E-02    2     1000035         4   # BR(~c_L -> chi^0_4 c)
     1.44704505E-03    2     1000024         3   # BR(~c_L -> chi^+_1 s)
     1.09232947E-01    2     1000037         3   # BR(~c_L -> chi^+_2 s)
     8.32187568E-01    2     1000021         4   # BR(~c_L -> ~g c)
DECAY   1000006     2.45654698E+02   # ~t_1
#    BR                NDA      ID1      ID2
     3.43667657E-02    2     1000022         6   # BR(~t_1 -> chi^0_1 t)
     2.40368666E-01    2     1000023         6   # BR(~t_1 -> chi^0_2 t)
     2.07059683E-01    2     1000025         6   # BR(~t_1 -> chi^0_3 t)
     4.95479221E-02    2     1000035         6   # BR(~t_1 -> chi^0_4 t)
     8.88023514E-02    2     1000024         5   # BR(~t_1 -> chi^+_1 b)
     9.39210649E-02    2     1000037         5   # BR(~t_1 -> chi^+_2 b)
     2.84564330E-01    2     1000021         6   # BR(~t_1 -> ~g t)
#    BR                NDA      ID1      ID2       ID3
     1.36814632E-03    3     1000022        24         5   # BR(~t_1 -> chi^0_1 W^+ b)
DECAY   2000006     3.08836891E+02   # ~t_2
#    BR                NDA      ID1      ID2
     2.65431491E-02    2     1000022         6   # BR(~t_2 -> chi^0_1 t)
     1.92892801E-01    2     1000023         6   # BR(~t_2 -> chi^0_2 t)
     1.82561138E-01    2     1000025         6   # BR(~t_2 -> chi^0_3 t)
     1.77319035E-02    2     1000035         6   # BR(~t_2 -> chi^0_4 t)
     3.10355148E-01    2     1000024         5   # BR(~t_2 -> chi^+_1 b)
     3.46390628E-02    2     1000037         5   # BR(~t_2 -> chi^+_2 b)
     2.29828586E-01    2     1000021         6   # BR(~t_2 -> ~g t)
     2.09275667E-03    2     2000005        24   # BR(~t_2 -> ~b_2 W^+)
     1.47854708E-03    2     1000006        23   # BR(~t_2 -> ~t_1 Z)
     1.87669921E-03    2     1000006        25   # BR(~t_2 -> ~t_1 h^0)
DECAY   1000024     9.91917078E-02   # chi^+_1
#    BR                NDA      ID1      ID2
     9.99999561E-01    2     1000022        24   # BR(chi^+_1 -> chi^0_1 W^+)
#    BR                NDA      ID1      ID2       ID3
DECAY   1000037     1.11785890E+01   # chi^+_2
#    BR                NDA      ID1      ID2
     1.10676712E-02    2     1000022        24   # BR(chi^+_2 -> chi^0_1 W^+)
     2.52707237E-01    2     1000023        24   # BR(chi^+_2 -> chi^0_2 W^+)
     2.38330176E-01    2     1000025        24   # BR(chi^+_2 -> chi^0_3 W^+)
     2.47326118E-01    2     1000024        23   # BR(chi^+_2 -> chi^+_1 Z)
     2.40014530E-01    2     1000024        25   # BR(chi^+_2 -> chi^+_1 h^0)
#    BR                NDA      ID1      ID2       ID3
     4.07444185E-03    3     1000024         6        -6   # BR(chi^+_2 -> chi^+_1 t t_bar)
     2.20619256E-04    3     1000022        -5         6   # BR(chi^+_2 -> chi^0_1 b_bar t)
     1.86053126E-03    3     1000023        -5         6   # BR(chi^+_2 -> chi^0_2 b_bar t)
     4.39863490E-03    3     1000025        -5         6   # BR(chi^+_2 -> chi^0_3 b_bar t)
DECAY   1000022     0.00000000E+00   # chi^0_1
DECAY   1000023     2.05194631E-01   # chi^0_2
#    BR                NDA      ID1      ID2
     9.60808066E-01    2     1000022        23   # BR(chi^0_2 -> chi^0_1 Z)
     3.91467066E-02    2     1000022        25   # BR(chi^0_2 -> chi^0_1 h^0)
#    BR                NDA      ID1      ID2       ID3
DECAY   1000025     8.10556212E-02   # chi^0_3
#    BR                NDA      ID1      ID2
     5.02149355E-02    2     1000022        23   # BR(chi^0_3 -> chi^0_1 Z)
     9.49772583E-01    2     1000022        25   # BR(chi^0_3 -> chi^0_1 h^0)
#    BR                NDA      ID1      ID2       ID3
DECAY   1000035     1.13092281E+01   # chi^0_4
#    BR                NDA      ID1      ID2
     2.44428890E-01    2     1000024       -24   # BR(chi^0_4 -> chi^+_1 W^-)
     2.44428890E-01    2    -1000024        24   # BR(chi^0_4 -> chi^-_1 W^+)
     2.44039283E-01    2     1000023        23   # BR(chi^0_4 -> chi^0_2 Z)
     6.56531729E-03    2     1000025        23   # BR(chi^0_4 -> chi^0_3 Z)
     1.06072330E-02    2     1000022        25   # BR(chi^0_4 -> chi^0_1 h^0)
     1.85800659E-02    2     1000023        25   # BR(chi^0_4 -> chi^0_2 h^0)
     2.20064360E-01    2     1000025        25   # BR(chi^0_4 -> chi^0_3 h^0)
#    BR                NDA      ID1      ID2       ID3
     8.38464119E-04    3     1000023         6        -6   # BR(chi^0_4 -> chi^0_2 t t_bar)
     1.35911631E-03    3     1000025         6        -6   # BR(chi^0_4 -> chi^0_3 t t_bar)
     4.49889531E-03    3     1000024         5        -6   # BR(chi^0_4 -> chi^+_1 b t_bar)
     4.49889531E-03    3    -1000024        -5         6   # BR(chi^0_4 -> chi^-_1 b_bar t)
DECAY   1000021     2.16163311E-01   # ~g
#    BR                NDA      ID1      ID2
     4.96527883E-04    2     1000022        21   # BR(~g -> chi^0_1 g)
     2.99369326E-03    2     1000023        21   # BR(~g -> chi^0_2 g)
     2.34780273E-03    2     1000025        21   # BR(~g -> chi^0_3 g)
#    BR                NDA      ID1      ID2       ID3
     2.28915998E-04    3     1000022         2        -2   # BR(~g -> chi^0_1 u u_bar)
     2.28921089E-04    3     1000022         4        -4   # BR(~g -> chi^0_1 c c_bar)
     2.16622516E-02    3     1000022         6        -6   # BR(~g -> chi^0_1 t t_bar)
     2.03567153E-02    3     1000022         5        -5   # BR(~g -> chi^0_1 b b_bar)
     2.10824610E-01    3     1000023         6        -6   # BR(~g -> chi^0_2 t t_bar)
     6.19650866E-04    3     1000023         5        -5   # BR(~g -> chi^0_2 b b_bar)
     1.91741621E-01    3     1000025         6        -6   # BR(~g -> chi^0_3 t t_bar)
     2.56538265E-03    3     1000025         5        -5   # BR(~g -> chi^0_3 b b_bar)
     3.02340327E-04    3     1000035         2        -2   # BR(~g -> chi^0_4 u u_bar)
     3.02340775E-04    3     1000035         4        -4   # BR(~g -> chi^0_4 c c_bar)
     2.04342877E-02    3     1000035         6        -6   # BR(~g -> chi^0_4 t t_bar)
     3.03345800E-04    3     1000035         1        -1   # BR(~g -> chi^0_4 d d_bar)
     3.03345779E-04    3     1000035         3        -3   # BR(~g -> chi^0_4 s s_bar)
     1.85064040E-02    3     1000035         5        -5   # BR(~g -> chi^0_4 b b_bar)
     2.12502613E-01    3     1000024         5        -6   # BR(~g -> chi^+_1 b t_bar)
     2.12502613E-01    3    -1000024        -5         6   # BR(~g -> chi^-_1 b_bar t)
     6.05720487E-04    3     1000037         1        -2   # BR(~g -> chi^+_2 d u_bar)
     6.05720487E-04    3    -1000037        -1         2   # BR(~g -> chi^-_2 d_bar u)
     6.05720911E-04    3     1000037         3        -4   # BR(~g -> chi^+_2 s c_bar)
     6.05720911E-04    3    -1000037        -3         4   # BR(~g -> chi^-_2 s_bar c)
     3.90324677E-02    3     1000037         5        -6   # BR(~g -> chi^+_2 b t_bar)
     3.90324677E-02    3    -1000037        -5         6   # BR(~g -> chi^-_2 b_bar t)
DECAY        25     2.55533226E-03   # Gamma(h0)
     1.64469238E-03   2        22        22   # BR(h0 -> photon photon)
     6.59020468E-05   2        22        23   # BR(h0 -> photon Z)
     9.67215195E-04   2        23        23   # BR(h0 -> Z Z)
     9.79149733E-03   2       -24        24   # BR(h0 -> W W)
     5.97932876E-02   2        21        21   # BR(h0 -> gluon gluon)
     5.57526143E-09   2       -11        11   # BR(h0 -> Electron electron)
     2.47981693E-04   2       -13        13   # BR(h0 -> Muon muon)
     7.14561524E-02   2       -15        15   # BR(h0 -> Tau tau)
     1.64574217E-07   2        -2         2   # BR(h0 -> Up up)
     3.19246292E-02   2        -4         4   # BR(h0 -> Charm charm)
     6.70546435E-07   2        -1         1   # BR(h0 -> Down down)
     2.42518644E-04   2        -3         3   # BR(h0 -> Strange strange)
     6.44772916E-01   2        -5         5   # BR(h0 -> Bottom bottom)
     1.79092367E-01   2   1000022   1000022   # BR(h0 -> neutralino1 neutralino1)
DECAY        35     6.90574112E+01   # Gamma(HH)
     9.01657623E-07   2        22        22   # BR(HH -> photon photon)
     3.31713974E-07   2        22        23   # BR(HH -> photon Z)
     5.15526645E-05   2        23        23   # BR(HH -> Z Z)
     1.48340286E-05   2       -24        24   # BR(HH -> W W)
     1.52658782E-04   2        21        21   # BR(HH -> gluon gluon)
     2.02825096E-11   2       -11        11   # BR(HH -> Electron electron)
     9.03078507E-07   2       -13        13   # BR(HH -> Muon muon)
     2.60821943E-04   2       -15        15   # BR(HH -> Tau tau)
     3.29203958E-11   2        -2         2   # BR(HH -> Up up)
     6.38630465E-06   2        -4         4   # BR(HH -> Charm charm)
     4.74096272E-01   2        -6         6   # BR(HH -> Top top)
     1.48565407E-09   2        -1         1   # BR(HH -> Down down)
     5.37366858E-07   2        -3         3   # BR(HH -> Strange strange)
     1.39999393E-03   2        -5         5   # BR(HH -> Bottom bottom)
     1.52888652E-03   2  -1000024   1000024   # BR(HH -> Chargino1 chargino1)
     1.56162443E-01   2  -1000024   1000037   # BR(HH -> Chargino1 chargino2)
     1.56162443E-01   2  -1000037   1000024   # BR(HH -> Chargino2 chargino1)
     2.36036893E-05   2  -1000037   1000037   # BR(HH -> Chargino2 chargino2)
     2.13119693E-03   2   1000022   1000022   # BR(HH -> neutralino1 neutralino1)
     4.63599614E-02   2   1000022   1000023   # BR(HH -> neutralino1 neutralino2)
     2.42270153E-03   2   1000022   1000025   # BR(HH -> neutralino1 neutralino3)
     2.91454942E-03   2   1000022   1000035   # BR(HH -> neutralino1 neutralino4)
     7.69857939E-04   2   1000023   1000023   # BR(HH -> neutralino2 neutralino2)
     1.77098348E-03   2   1000023   1000025   # BR(HH -> neutralino2 neutralino3)
     1.44613503E-01   2   1000023   1000035   # BR(HH -> neutralino2 neutralino4)
     1.71942491E-04   2   1000025   1000025   # BR(HH -> neutralino3 neutralino3)
     8.54610526E-03   2   1000025   1000035   # BR(HH -> neutralino3 neutralino4)
     1.28925829E-05   2   1000035   1000035   # BR(HH -> neutralino4 neutralino4)
     4.23735773E-04   2        25        25   # BR(HH -> h0 h0)
DECAY        36     6.62481269E+01   # Gamma(A0)
     9.90948528E-07   2        22        22   # BR(A0 -> photon photon)
     4.86234254E-07   2        22        23   # BR(A0 -> photon Z)
     1.86934526E-04   2        21        21   # BR(A0 -> gluon gluon)
     2.00521203E-11   2       -11        11   # BR(A0 -> Electron electron)
     8.92827382E-07   2       -13        13   # BR(A0 -> Muon muon)
     2.57861545E-04   2       -15        15   # BR(A0 -> Tau tau)
     3.10064758E-11   2        -2         2   # BR(A0 -> Up up)
     6.01479517E-06   2        -4         4   # BR(A0 -> Charm charm)
     4.51814899E-01   2        -6         6   # BR(A0 -> Top top)
     1.46874089E-09   2        -1         1   # BR(A0 -> Down down)
     5.31247825E-07   2        -3         3   # BR(A0 -> Strange strange)
     1.38396229E-03   2        -5         5   # BR(A0 -> Bottom bottom)
     8.11255742E-03   2  -1000024   1000024   # BR(A0 -> Chargino1 chargino1)
     1.57164583E-01   2  -1000024   1000037   # BR(A0 -> Chargino1 chargino2)
     1.57164583E-01   2  -1000037   1000024   # BR(A0 -> Chargino2 chargino1)
     5.29589904E-03   2  -1000037   1000037   # BR(A0 -> Chargino2 chargino2)
     1.33243574E-02   2   1000022   1000022   # BR(A0 -> neutralino1 neutralino1)
     2.66600458E-03   2   1000022   1000023   # BR(A0 -> neutralino1 neutralino2)
     3.77173709E-02   2   1000022   1000025   # BR(A0 -> neutralino1 neutralino3)
     1.45696314E-02   2   1000022   1000035   # BR(A0 -> neutralino1 neutralino4)
     5.70880573E-05   2   1000023   1000023   # BR(A0 -> neutralino2 neutralino2)
     8.23136956E-04   2   1000023   1000025   # BR(A0 -> neutralino2 neutralino3)
     1.02229660E-02   2   1000023   1000035   # BR(A0 -> neutralino2 neutralino4)
     2.50527018E-03   2   1000025   1000025   # BR(A0 -> neutralino3 neutralino3)
     1.33956890E-01   2   1000025   1000035   # BR(A0 -> neutralino3 neutralino4)
     2.67716856E-03   2   1000035   1000035   # BR(A0 -> neutralino4 neutralino4)
     8.99188073E-05   2        23        25   # BR(A0 -> Z h0)
     1.09698004E-35   2        25        25   # BR(A0 -> h0 h0)
DECAY        37     7.59170689E+01   # Gamma(Hp)
     2.10315334E-11   2       -11        12   # BR(Hp -> Electron nu_e)
     8.99163739E-07   2       -13        14   # BR(Hp -> Muon nu_mu)
     2.54334648E-04   2       -15        16   # BR(Hp -> Tau nu_tau)
     1.37204524E-09   2        -1         2   # BR(Hp -> Down up)
     2.25839632E-08   2        -3         2   # BR(Hp -> Strange up)
     1.44836617E-08   2        -5         2   # BR(Hp -> Bottom up)
     3.09898754E-07   2        -1         4   # BR(Hp -> Down charm)
     7.10233750E-06   2        -3         4   # BR(Hp -> Strange charm)
     2.03851089E-06   2        -5         4   # BR(Hp -> Bottom charm)
     3.39134748E-05   2        -1         6   # BR(Hp -> Down top)
     7.39426865E-04   2        -3         6   # BR(Hp -> Strange top)
     5.22291920E-01   2        -5         6   # BR(Hp -> Bottom top)
     4.22116598E-02   2   1000022   1000024   # BR(Hp -> neutralino1 chargino1)
     1.58471277E-02   2   1000022   1000037   # BR(Hp -> neutralino1 chargino2)
     1.37945578E-03   2   1000023   1000024   # BR(Hp -> neutralino2 chargino1)
     1.39649680E-01   2   1000023   1000037   # BR(Hp -> neutralino2 chargino2)
     6.63771212E-03   2   1000024   1000025   # BR(Hp -> chargino1 neutralino3)
     1.29204505E-01   2   1000025   1000037   # BR(Hp -> neutralino3 chargino2)
     1.41661194E-01   2   1000024   1000035   # BR(Hp -> chargino1 neutralino4)
     4.68910749E-08   2   1000035   1000037   # BR(Hp -> neutralino4 chargino2)
     7.86358354E-05   2        24        25   # BR(Hp -> W h0)
     1.59469568E-13   2        24        35   # BR(Hp -> W HH)
     2.07894472E-13   2        24        36   # BR(Hp -> W A0)
DECAY         6     2.43000000E+00   # top
#    BR                NDA      ID1      ID2
     1.00000000E+00    2           5        24   # BR(t -> b W)
Block HiggsBoundsInputHiggsCouplingsFermions
# ScalarNormEffCoupSq PseudoSNormEffCoupSq NP IP1 IP2 IP2
    9.04489112E-01    0.00000000E+00        3  25   5   5  # h0-b-b eff. coupling^2, normalised to SM
    2.79412689E+00    0.00000000E+00        3  35   5   5  # H0-b-b eff. coupling^2, normalised to SM
    0.00000000E+00    2.69861600E+00        3  36   5   5  # A0-b-b eff. coupling^2, normalised to SM
#
    1.03539255E+00    0.00000000E+00        3  25   6   6  # h0-t-t eff. coupling^2, normalised to SM
    3.35167772E-01    0.00000000E+00        3  35   6   6  # H0-t-t eff. coupling^2, normalised to SM
    0.00000000E+00    3.70560317E-01        3  36   6   6  # A0-t-t eff. coupling^2, normalised to SM
#
    9.04489112E-01    0.00000000E+00        3  25  15  15  # h0-tau-tau eff. coupling^2, normalised to SM
    2.79412689E+00    0.00000000E+00        3  35  15  15  # H0-tau-tau eff. coupling^2, normalised to SM
    0.00000000E+00    2.69861600E+00        3  36  15  15  # A0-tau-tau eff. coupling^2, normalised to SM
#
Block HiggsBoundsInputHiggsCouplingsBosons
    9.99127722E-01        3  25  24  24  # h0-W-W eff. coupling^2, normalised to SM
    8.72277541E-04        3  35  24  24  # H0-W-W eff. coupling^2, normalised to SM
    0.00000000E+00        3  36  24  24  # A0-W-W eff. coupling^2, normalised to SM
#
    9.99127722E-01        3  25  23  23  # h0-Z-Z eff. coupling^2, normalised to SM
    8.72277541E-04        3  35  23  23  # H0-Z-Z eff. coupling^2, normalised to SM
    0.00000000E+00        3  36  23  23  # A0-Z-Z eff. coupling^2, normalised to SM
#
    1.32437417E+00        3  25  21  21  # h0-g-g eff. coupling^2, normalised to SM
    3.28415314E-01        3  35  21  21  # H0-g-g eff. coupling^2, normalised to SM
    6.10960202E-01        3  36  21  21  # A0-g-g eff. coupling^2, normalised to SM
#
    0.00000000E+00        3  25  25  23  # h0-h0-Z eff. coupling^2, normalised to SM
    0.00000000E+00        3  35  25  23  # H0-h0-Z eff. coupling^2, normalised to SM
    8.72277541E-04        3  36  25  23  # A0-h0-Z eff. coupling^2, normalised to SM
    0.00000000E+00        3  35  35  23  # H0-H0-Z eff. coupling^2, normalised to SM
    9.99127722E-01        3  36  35  23  # A0-H0-Z eff. coupling^2, normalised to SM
    0.00000000E+00        3  36  36  23  # A0-A0-Z eff. coupling^2, normalised to SM
#
    0.00000000E+00        4  25  21  21  23  # h0-g-g-Z eff. coupling^2, normalised to SM
    0.00000000E+00        4  35  21  21  23  # H0-g-g-Z eff. coupling^2, normalised to SM
    0.00000000E+00        4  36  21  21  23  # A0-g-g-Z eff. coupling^2, normalised to SM
Block SPhenoLowEnergy  # low energy observables
    1    3.25896743E-04   # BR(b -> s gamma)
    2    1.59474971E-06   # BR(b -> s mu+ mu-)
    3    3.53609907E-05   # BR(b -> s nu nu)
    4    2.58575805E-15   # BR(Bd -> e+ e-)
    5    1.10460646E-10   # BR(Bd -> mu+ mu-)
    6    2.31237175E-08   # BR(Bd -> tau+ tau-)
    7    8.71059082E-14   # BR(Bs -> e+ e-)
    8    3.72116146E-09   # BR(Bs -> mu+ mu-)
    9    7.89280670E-07   # BR(Bs -> tau+ tau-)
   10    9.68069997E-05   # BR(B_u -> tau nu)
   11    9.99979244E-01   # BR(B_u -> tau nu)/BR(B_u -> tau nu)_SM
   12    5.45608220E-01   # |Delta(M_Bd)| [ps^-1] 
   13    1.94948844E+01   # |Delta(M_Bs)| [ps^-1] 
   14    0.00000000E+00   # neutron EDM according to the chiral quark model
   15    0.00000000E+00   # neutron EDM according to the relativistic quark-parton model
   16    2.17217836E-03   # epsilon_K
   17    2.28181253E-15   # Delta(M_K)
   18    2.48759902E-11   # BR(K^0 -> pi^0 nu nu)
   19    8.30853309E-11   # BR(K^+ -> pi^+ nu nu)
   20    3.15042898E-18   # Delta(g-2)_electron/2
   21    1.34690647E-13   # Delta(g-2)_muon/2
   22    3.80960009E-11   # Delta(g-2)_tau/2
   23    0.00000000E+00   # electric dipole moment of the electron
   24    0.00000000E+00   # electric dipole moment of the muon
   25    0.00000000E+00   # electric dipole moment of the tau
   26    0.00000000E+00   # Br(mu -> e gamma)
   27    0.00000000E+00   # Br(tau -> e gamma)
   28    0.00000000E+00   # Br(tau -> mu gamma)
   29    0.00000000E+00   # Br(mu -> 3 e)
   30    0.00000000E+00   # Br(tau -> 3 e)
   31    0.00000000E+00   # Br(tau -> 3 mu)
   39   -2.42811002E-03   # Delta(rho_parameter)
   40    0.00000000E+00   # BR(Z -> e mu)
   41    0.00000000E+00   # BR(Z -> e tau)
   42    0.00000000E+00   # BR(Z -> mu tau)
Block FWCOEF Q=  1.60000000E+02  # Wilson coefficients at scale Q
#    id        order  M        value         comment
     0305 4422   00   0    -1.88819110E-01   # C7
     0305 4422   00   2    -1.94516969E-01   # C7
     0305 4322   00   2    -1.21057850E-04   # C7'
     0305 6421   00   0    -9.52278348E-02   # C8
     0305 6421   00   2    -1.03191668E-01   # C8
     0305 6321   00   2    -1.61514714E-04   # C8'
 03051111 4133   00   0     1.62842262E+00   # C9 e+e-
 03051111 4133   00   2     1.62927862E+00   # C9 e+e-
 03051111 4233   00   2     1.45939749E-06   # C9' e+e-
 03051111 4137   00   0    -4.45111472E+00   # C10 e+e-
 03051111 4137   00   2    -4.46012886E+00   # C10 e+e-
 03051111 4237   00   2    -9.47905200E-06   # C10' e+e-
 03051313 4133   00   0     1.62842262E+00   # C9 mu+mu-
 03051313 4133   00   2     1.62927862E+00   # C9 mu+mu-
 03051313 4233   00   2     1.45939748E-06   # C9' mu+mu-
 03051313 4137   00   0    -4.45111472E+00   # C10 mu+mu-
 03051313 4137   00   2    -4.46012886E+00   # C10 mu+mu-
 03051313 4237   00   2    -9.47905200E-06   # C10' mu+mu-
 03051212 4137   00   0     1.50535012E+00   # C11 nu_1 nu_1
 03051212 4137   00   2     1.50730050E+00   # C11 nu_1 nu_1
 03051212 4237   00   2     2.04756607E-06   # C11' nu_1 nu_1
 03051414 4137   00   0     1.50535012E+00   # C11 nu_2 nu_2
 03051414 4137   00   2     1.50730050E+00   # C11 nu_2 nu_2
 03051414 4237   00   2     2.04756607E-06   # C11' nu_2 nu_2
 03051616 4137   00   0     1.50535012E+00   # C11 nu_3 nu_3
 03051616 4137   00   2     1.50730050E+00   # C11 nu_3 nu_3
 03051616 4237   00   2     2.04756613E-06   # C11' nu_3 nu_3
Block IMFWCOEF Q=  1.60000000E+02  # Im(Wilson coefficients) at scale Q
#    id        order  M        value         comment
     0305 4422   00   0     3.85821521E-07   # C7
     0305 4422   00   2     1.03928901E-06   # C7
     0305 4322   00   2     6.66426537E-08   # C7'
     0305 6421   00   0     3.30481648E-07   # C8
     0305 6421   00   2    -6.45768653E-07   # C8
     0305 6321   00   2     4.15325014E-09   # C8'
 03051111 4133   00   2     3.48207197E-07   # C9 e+e-
 03051111 4233   00   2     2.74278558E-08   # C9' e+e-
 03051111 4137   00   2     1.78968823E-06   # C10 e+e-
 03051111 4237   00   2    -1.79382060E-07   # C10' e+e-
 03051313 4133   00   2     3.48207186E-07   # C9 mu+mu-
 03051313 4233   00   2     2.74278558E-08   # C9' mu+mu-
 03051313 4137   00   2     1.78968824E-06   # C10 mu+mu-
 03051313 4237   00   2    -1.79382060E-07   # C10' mu+mu-
 03051212 4137   00   2    -3.52610626E-07   # C11 nu_1 nu_1
 03051212 4237   00   2     3.87497145E-08   # C11' nu_1 nu_1
 03051414 4137   00   2    -3.52610625E-07   # C11 nu_2 nu_2
 03051414 4237   00   2     3.87497145E-08   # C11' nu_2 nu_2
 03051616 4137   00   2    -3.52610472E-07   # C11 nu_3 nu_3
 03051616 4237   00   2     3.87497144E-08   # C11' nu_3 nu_3
