# SUSY Les Houches Accord 2 - MSSM spectrum + Decays
# SPheno v4.0.5be
# W. Porod, Comput. Phys. Commun. 153 (2003) 275-315, hep-ph/0301101;
# W. Porod, F.~Staub, Comput. Phys. Commun. 183 (2012) 2458
#                     arXiv:1104.1573 [hep-ph] 
# in case of problems send email to porod@physik.uni-wuerzburg.de
# Created: 20.12.2022,  17:06
Block SPINFO         # Program information
     1   SPheno      # spectrum calculator
     2   v4.0.5be    # version number
#
Block SPhenoINFO     # SPheno specific information
    1      2         # using 2-loop RGEs
    2      2         # using pole masses for boundary conditions at mZ
Block MODSEL  # Model selection
    1    0    # general MSSM
Block MINPAR  # Input parameters
    3    1.08552659E+01  # tanb at m_Z    
    4    1.00000000E+00  # Sign(mu)
Block EXTPAR  # non-universal input parameters
    0    3.20312905E+03  # scale for input parameters
    1   -1.48112926E+02  # M_1
    2   -5.31548418E+02  # M_2
    3    4.44343990E+03  # M_3
   11    6.45303671E+03  # A_t
   12   -1.52491084E+03  # A_b
   13   -1.07948423E+03  # A_tau
   23    1.81082868E+03  # mu
   25    1.03277292E+01  # tan(beta)
   26    4.02040332E+03  # m_A, pole mass
   31    1.00000000E+04  # M_L11
   32    1.00000000E+04  # M_L22
   33    1.00000000E+04  # M_L33
   34    1.00000000E+04  # M_E11
   35    1.00000000E+04  # M_E22
   36    1.00000000E+04  # M_E33
   41    1.00000000E+04  # M_Q11
   42    1.00000000E+04  # M_Q22
   43    4.25679833E+03  # M_Q33
   44    1.00000000E+04  # M_U11
   45    1.00000000E+04  # M_U22
   46    2.30983100E+03  # M_U33
   47    1.00000000E+04  # M_D11
   48    1.00000000E+04  # M_D22
   49    2.05541576E+03  # M_D33
Block SMINPUTS  # SM parameters
         1     1.27908970E+02  # alpha_em^-1(MZ)^MSbar
         2     1.16637870E-05  # G_mu [GeV^-2]
         3     1.18400000E-01  # alpha_s(MZ)^MSbar
         4     9.11876000E+01  # m_Z(pole)
         5     4.18000000E+00  # m_b(m_b), MSbar
         6     1.73200000E+02  # m_t(pole)
         7     1.77700000E+00  # m_tau(pole)
         8     0.00000000E+00  # m_nu_3
        11     5.10998930E-04  # m_e(pole)
        12     0.00000000E+00  # m_nu_1
        13     1.05658372E-01  # m_muon(pole)
        14     0.00000000E+00  # m_nu_2
        21     5.00000000E-03  # m_d(2 GeV), MSbar
        22     2.50000000E-03  # m_u(2 GeV), MSbar
        23     9.50000000E-02  # m_s(2 GeV), MSbar
        24     1.27000000E+00  # m_c(m_c), MSbar
Block gauge Q=  3.20312905E+03  # (SUSY scale)
   1    3.55362975E-01  # g'(Q)^DRbar
   2    6.65198874E-01  # g(Q)^DRbar
   3    1.21977796E+00  # g3(Q)^DRbar
Block Yu Q=  3.20312905E+03  # (SUSY scale)
  1  1     8.42358391E-06   # Y_u(Q)^DRbar
  2  2     4.27918063E-03   # Y_c(Q)^DRbar
  3  3     1.01763660E+00   # Y_t(Q)^DRbar
Block Yd Q=  3.20312905E+03  # (SUSY scale)
  1  1     1.74816329E-04   # Y_d(Q)^DRbar
  2  2     3.32151025E-03   # Y_s(Q)^DRbar
  3  3     1.73363019E-01   # Y_b(Q)^DRbar
Block Ye Q=  3.20312905E+03  # (SUSY scale)
  1  1     3.05067277E-05   # Y_e(Q)^DRbar
  2  2     6.30782375E-03   # Y_mu(Q)^DRbar
  3  3     1.06087219E-01   # Y_tau(Q)^DRbar
Block Au Q=  3.20312905E+03  # (SUSY scale)
  1  1     0.00000000E+00   # A_u(Q)^DRbar
  2  2     0.00000000E+00   # A_c(Q)^DRbar
  3  3     6.45303670E+03   # A_t(Q)^DRbar
Block Ad Q=  3.20312905E+03  # (SUSY scale)
  1  1     0.00000000E+00   # A_d(Q)^DRbar
  2  2     0.00000000E+00   # A_s(Q)^DRbar
  3  3    -1.52491085E+03   # A_b(Q)^DRbar
Block Ae Q=  3.20312905E+03  # (SUSY scale)
  1  1     0.00000000E+00   # A_e(Q)^DRbar
  2  2     0.00000000E+00   # A_mu(Q)^DRbar
  3  3    -1.07948424E+03   # A_tau(Q)^DRbar
Block MSOFT Q=  3.20312905E+03  # soft SUSY breaking masses at Q
   1   -1.48112926E+02  # M_1
   2   -5.31548418E+02  # M_2
   3    4.44343990E+03  # M_3
  21    1.26690733E+07  # M^2_(H,d)
  22   -3.05381997E+06  # M^2_(H,u)
  31    1.00000000E+04  # M_(L,11)
  32    1.00000000E+04  # M_(L,22)
  33    1.00000000E+04  # M_(L,33)
  34    1.00000000E+04  # M_(E,11)
  35    1.00000000E+04  # M_(E,22)
  36    1.00000000E+04  # M_(E,33)
  41    1.00000000E+04  # M_(Q,11)
  42    1.00000000E+04  # M_(Q,22)
  43    4.25679833E+03  # M_(Q,33)
  44    1.00000000E+04  # M_(U,11)
  45    1.00000000E+04  # M_(U,22)
  46    2.30983100E+03  # M_(U,33)
  47    1.00000000E+04  # M_(D,11)
  48    1.00000000E+04  # M_(D,22)
  49    2.05541576E+03  # M_(D,33)
Block MASS  # Mass spectrum
#   PDG code      mass          particle
         6     1.73200000E+02  # m_t(pole)
        23     9.11876000E+01  # m_Z(pole)
        24     8.04299946E+01  # W+
        15     1.77700000E+00  # m_tau(pole)
        25     1.26851994E+02  # h0
        35     4.02013645E+03  # H0
        36     4.02040332E+03  # A0
        37     4.02266259E+03  # H+
   1000001     1.00837835E+04  # ~d_L
   2000001     1.00597938E+04  # ~d_R
   1000002     1.00835152E+04  # ~u_L
   2000002     1.00627132E+04  # ~u_R
   1000003     1.00837846E+04  # ~s_L
   2000003     1.00597945E+04  # ~s_R
   1000004     1.00835163E+04  # ~c_L
   2000004     1.00627145E+04  # ~c_R
   1000005     2.18258828E+03  # ~b_1
   2000005     4.31678318E+03  # ~b_2
   1000006     2.37179837E+03  # ~t_1
   2000006     4.32584651E+03  # ~t_2
   1000011     1.00211012E+04  # ~e_L-
   2000011     1.00089742E+04  # ~e_R-
   1000012     1.00203481E+04  # ~nu_eL
   1000013     1.00211039E+04  # ~mu_L-
   2000013     1.00089771E+04  # ~mu_R-
   1000014     1.00203500E+04  # ~nu_muL
   1000015     1.00097802E+04  # ~tau_1-
   2000015     1.00218976E+04  # ~tau_2-
   1000016     1.00208903E+04  # ~nu_tauL
   1000021     4.87321067E+03  # ~g
   1000022     1.50269428E+02  # ~chi_10
   1000023     5.84964140E+02  # ~chi_20
   1000025     1.83091388E+03  # ~chi_30
   1000035     1.83092633E+03  # ~chi_40
   1000024     5.84973890E+02  # ~chi_1+
   1000037     1.83257188E+03  # ~chi_2+
# Higgs mixing
Block alpha # Effective Higgs mixing angle
          -9.19891848E-02   # alpha
Block Hmix Q=  3.20312905E+03  # Higgs mixing parameters
   1    1.81082868E+03  # mu
   2    1.03277292E+01  # tan[beta](Q)
   3    2.43168002E+02  # v(Q)
   4    1.61636429E+07  # m^2_A(Q)
Block stopmix # stop mixing matrix
   1  1    -6.89741671E-02   # Re[R_st(1,1)]
   1  2     9.97618446E-01   # Re[R_st(1,2)]
   2  1    -9.97618446E-01   # Re[R_st(2,1)]
   2  2    -6.89741671E-02   # Re[R_st(2,2)]
Block sbotmix # sbottom mixing matrix
   1  1     2.95713332E-03   # Re[R_sb(1,1)]
   1  2     9.99995628E-01   # Re[R_sb(1,2)]
   2  1    -9.99995628E-01   # Re[R_sb(2,1)]
   2  2     2.95713332E-03   # Re[R_sb(2,2)]
Block staumix # stau mixing matrix
   1  1     1.46167825E-01   # Re[R_sta(1,1)]
   1  2     9.89259808E-01   # Re[R_sta(1,2)]
   2  1    -9.89259808E-01   # Re[R_sta(2,1)]
   2  2     1.46167825E-01   # Re[R_sta(2,2)]
Block Nmix # neutralino mixing matrix
   1  1    -9.99695816E-01   # Re[N(1,1)]
   1  2    -4.35285194E-04   # Re[N(1,2)]
   1  3    -2.46586444E-02   # Re[N(1,3)]
   1  4     1.93377008E-04   # Re[N(1,4)]
   2  1     7.00211992E-04   # Re[N(2,1)]
   2  2     9.98882496E-01   # Re[N(2,2)]
   2  3    -4.61017415E-02   # Re[N(2,3)]
   2  4    -1.03874320E-02   # Re[N(2,4)]
   3  1     1.75720441E-02   # Re[N(3,1)]
   3  2    -2.52616084E-02   # Re[N(3,2)]
   3  3    -7.06403727E-01   # Re[N(3,3)]
   3  4     7.07139907E-01   # Re[N(3,4)]
   4  1     1.72918646E-02   # Re[N(4,1)]
   4  2    -3.99427249E-02   # Re[N(4,2)]
   4  3    -7.05875594E-01   # Re[N(4,3)]
   4  4    -7.06997324E-01   # Re[N(4,4)]
Block Umix # chargino mixing matrix
   1  1    -9.97876339E-01   # Re[U(1,1)]
   1  2     6.51368748E-02   # Re[U(1,2)]
   2  1    -6.51368748E-02   # Re[U(2,1)]
   2  2    -9.97876339E-01   # Re[U(2,2)]
Block Vmix # chargino mixing matrix
   1  1     9.99890356E-01   # Re[V(1,1)]
   1  2     1.48079695E-02   # Re[V(1,2)]
   2  1     1.48079695E-02   # Re[V(2,1)]
   2  2    -9.99890356E-01   # Re[V(2,2)]
DECAY        23     2.49520000E+00   # Z
DECAY        24     2.08500000E+00   # W
DECAY   2000011     5.02667726E+01   # ~e^-_R
#    BR                NDA      ID1      ID2
     9.99431438E-01    2     1000022        11   # BR(~e^-_R -> chi^0_1 e^-)
     2.88600947E-04    2     1000025        11   # BR(~e^-_R -> chi^0_3 e^-)
     2.79470845E-04    2     1000035        11   # BR(~e^-_R -> chi^0_4 e^-)
DECAY   1000011     1.43981466E+02   # ~e^-_L
#    BR                NDA      ID1      ID2
     8.74785213E-02    2     1000022        11   # BR(~e^-_L -> chi^0_1 e^-)
     3.03809480E-01    2     1000023        11   # BR(~e^-_L -> chi^0_2 e^-)
     2.69862516E-04    2     1000035        11   # BR(~e^-_L -> chi^0_4 e^-)
     6.05941431E-01    2    -1000024        12   # BR(~e^-_L -> chi^-_1 nu_e)
     2.42857636E-03    2    -1000037        12   # BR(~e^-_L -> chi^-_2 nu_e)
#    BR                NDA      ID1      ID2       ID3
DECAY   2000013     5.02815921E+01   # ~mu^-_R
#    BR                NDA      ID1      ID2
     9.99137259E-01    2     1000022        13   # BR(~mu^-_R -> chi^0_1 mu^-)
     3.61969087E-04    2     1000025        13   # BR(~mu^-_R -> chi^0_3 mu^-)
     3.52731794E-04    2     1000035        13   # BR(~mu^-_R -> chi^0_4 mu^-)
     1.46556955E-04    2    -1000037        14   # BR(~mu^-_R -> chi^-_2 nu_mu)
DECAY   1000013     1.43988918E+02   # ~mu^-_L
#    BR                NDA      ID1      ID2
     8.74740509E-02    2     1000022        13   # BR(~mu^-_L -> chi^0_1 mu^-)
     3.03793955E-01    2     1000023        13   # BR(~mu^-_L -> chi^0_2 mu^-)
     2.95496013E-04    2     1000035        13   # BR(~mu^-_L -> chi^0_4 mu^-)
     6.05910236E-01    2    -1000024        14   # BR(~mu^-_L -> chi^-_1 nu_mu)
     2.42845141E-03    2    -1000037        14   # BR(~mu^-_L -> chi^-_2 nu_mu)
#    BR                NDA      ID1      ID2       ID3
DECAY   1000015     5.64387551E+01   # ~tau^-_1
#    BR                NDA      ID1      ID2
     8.76645862E-01    2     1000022        15   # BR(~tau^-_1 -> chi^0_1 tau^-)
     1.89521906E-02    2     1000023        15   # BR(~tau^-_1 -> chi^0_2 tau^-)
     1.76030827E-02    2     1000025        15   # BR(~tau^-_1 -> chi^0_3 tau^-)
     1.70911495E-02    2     1000035        15   # BR(~tau^-_1 -> chi^0_4 tau^-)
     3.78010363E-02    2    -1000024        16   # BR(~tau^-_1 -> chi^-_1 nu_tau)
     3.19066792E-02    2    -1000037        16   # BR(~tau^-_1 -> chi^-_2 nu_tau)
DECAY   2000015     1.44107946E+02   # ~tau^-_2
#    BR                NDA      ID1      ID2
     9.27456030E-02    2     1000022        15   # BR(~tau^-_2 -> chi^0_1 tau^-)
     2.96201459E-01    2     1000023        15   # BR(~tau^-_2 -> chi^0_2 tau^-)
     7.78957673E-03    2     1000025        15   # BR(~tau^-_2 -> chi^0_3 tau^-)
     8.16310714E-03    2     1000035        15   # BR(~tau^-_2 -> chi^0_4 tau^-)
     5.90701351E-01    2    -1000024        16   # BR(~tau^-_2 -> chi^-_1 nu_tau)
     4.39890267E-03    2    -1000037        16   # BR(~tau^-_2 -> chi^-_2 nu_tau)
#    BR                NDA      ID1      ID2       ID3
DECAY   1000012     1.43984882E+02   # ~nu_e
#    BR                NDA      ID1      ID2
     8.71851606E-02    2     1000022        12   # BR(~nu_e -> chi^0_1 nu_e)
     3.03324426E-01    2     1000023        12   # BR(~nu_e -> chi^0_2 nu_e)
     3.43601596E-04    2     1000025        12   # BR(~nu_e -> chi^0_3 nu_e)
     6.92242836E-04    2     1000035        12   # BR(~nu_e -> chi^0_4 nu_e)
     6.08329069E-01    2     1000024        11   # BR(~nu_e -> chi^+_1 e^-)
     1.25500553E-04    2     1000037        11   # BR(~nu_e -> chi^+_2 e^-)
#    BR                NDA      ID1      ID2       ID3
DECAY   1000014     1.43992321E+02   # ~nu_mu
#    BR                NDA      ID1      ID2
     8.71806726E-02    2     1000022        14   # BR(~nu_mu -> chi^0_1 nu_mu)
     3.03308812E-01    2     1000023        14   # BR(~nu_mu -> chi^0_2 nu_mu)
     3.43583917E-04    2     1000025        14   # BR(~nu_mu -> chi^0_3 nu_mu)
     6.92207219E-04    2     1000035        14   # BR(~nu_mu -> chi^0_4 nu_mu)
     6.08297988E-01    2     1000024        13   # BR(~nu_mu -> chi^+_1 mu^-)
     1.76735625E-04    2     1000037        13   # BR(~nu_mu -> chi^+_2 mu^-)
#    BR                NDA      ID1      ID2       ID3
DECAY   1000016     1.46089464E+02   # ~nu_tau
#    BR                NDA      ID1      ID2
     8.59338144E-02    2     1000022        16   # BR(~nu_tau -> chi^0_1 nu_tau)
     2.98971095E-01    2     1000023        16   # BR(~nu_tau -> chi^0_2 nu_tau)
     3.38672485E-04    2     1000025        16   # BR(~nu_tau -> chi^0_3 nu_tau)
     6.82312320E-04    2     1000035        16   # BR(~nu_tau -> chi^0_4 nu_tau)
     5.99663233E-01    2     1000024        15   # BR(~nu_tau -> chi^+_1 tau^-)
     1.44108729E-02    2     1000037        15   # BR(~nu_tau -> chi^+_2 tau^-)
#    BR                NDA      ID1      ID2       ID3
DECAY   2000001     4.70717817E+02   # ~d_R
#    BR                NDA      ID1      ID2
     1.19187948E-02    2     1000022         1   # BR(~d_R -> chi^0_1 d)
     9.88074396E-01    2     1000021         1   # BR(~d_R -> ~g d)
DECAY   1000001     6.01208433E+02   # ~d_L
#    BR                NDA      ID1      ID2
     2.32710964E-03    2     1000022         1   # BR(~d_L -> chi^0_1 d)
     7.31465882E-02    2     1000023         1   # BR(~d_L -> chi^0_2 d)
     1.27784885E-04    2     1000035         1   # BR(~d_L -> chi^0_4 d)
     1.46035031E-01    2    -1000024         2   # BR(~d_L -> chi^-_1 u)
     5.85751960E-04    2    -1000037         2   # BR(~d_L -> chi^-_2 u)
     7.77722083E-01    2     1000021         1   # BR(~d_L -> ~g d)
DECAY   2000003     4.70722007E+02   # ~s_R
#    BR                NDA      ID1      ID2
     1.19186924E-02    2     1000022         3   # BR(~s_R -> chi^0_1 s)
     9.88065754E-01    2     1000021         3   # BR(~s_R -> ~g s)
DECAY   1000003     6.01214060E+02   # ~s_L
#    BR                NDA      ID1      ID2
     2.32709034E-03    2     1000022         3   # BR(~s_L -> chi^0_1 s)
     7.31459193E-02    2     1000023         3   # BR(~s_L -> chi^0_2 s)
     1.29494479E-04    2     1000035         3   # BR(~s_L -> chi^0_4 s)
     1.46033676E-01    2    -1000024         4   # BR(~s_L -> chi^-_1 c)
     5.91464461E-04    2    -1000037         4   # BR(~s_L -> chi^-_2 c)
     7.77714992E-01    2     1000021         3   # BR(~s_L -> ~g s)
DECAY   1000005     1.42571388E+00   # ~b_1
#    BR                NDA      ID1      ID2
     8.46795377E-01    2     1000022         5   # BR(~b_1 -> chi^0_1 b)
     2.30950071E-03    2     1000023         5   # BR(~b_1 -> chi^0_2 b)
     4.01056186E-02    2     1000025         5   # BR(~b_1 -> chi^0_3 b)
     4.00288141E-02    2     1000035         5   # BR(~b_1 -> chi^0_4 b)
     4.54125616E-03    2    -1000024         6   # BR(~b_1 -> chi^-_1 t)
     6.62194331E-02    2    -1000037         6   # BR(~b_1 -> chi^-_2 t)
DECAY   2000005     2.05402663E+02   # ~b_2
#    BR                NDA      ID1      ID2
     2.91515744E-03    2     1000022         5   # BR(~b_2 -> chi^0_1 b)
     8.89309586E-02    2     1000023         5   # BR(~b_2 -> chi^0_2 b)
     4.27182177E-03    2     1000025         5   # BR(~b_2 -> chi^0_3 b)
     4.33237562E-03    2     1000035         5   # BR(~b_2 -> chi^0_4 b)
     1.76906981E-01    2    -1000024         6   # BR(~b_2 -> chi^-_1 t)
     2.91096994E-01    2    -1000037         6   # BR(~b_2 -> chi^-_2 t)
     4.30121363E-01    2     1000006       -24   # BR(~b_2 -> ~t_1 W^-)
     4.79055721E-04    2     1000005        23   # BR(~b_2 -> ~b_1 Z)
     9.45292549E-04    2     1000005        25   # BR(~b_2 -> ~b_1 h^0)
DECAY   2000002     4.87865589E+02   # ~u_R
#    BR                NDA      ID1      ID2
     4.60128267E-02    2     1000022         2   # BR(~u_R -> chi^0_1 u)
     9.53960978E-01    2     1000021         2   # BR(~u_R -> ~g u)
DECAY   1000002     6.01200199E+02   # ~u_L
#    BR                NDA      ID1      ID2
     2.34995154E-03    2     1000022         2   # BR(~u_L -> chi^0_1 u)
     7.31821493E-02    2     1000023         2   # BR(~u_L -> chi^0_2 u)
     1.46623166E-01    2     1000024         1   # BR(~u_L -> chi^+_1 d)
     7.77686820E-01    2     1000021         2   # BR(~u_L -> ~g u)
DECAY   2000004     4.87872548E+02   # ~c_R
#    BR                NDA      ID1      ID2
     4.60121746E-02    2     1000022         4   # BR(~c_R -> chi^0_1 c)
     9.53947583E-01    2     1000021         4   # BR(~c_R -> ~g c)
DECAY   1000004     6.01205793E+02   # ~c_L
#    BR                NDA      ID1      ID2
     2.34992984E-03    2     1000022         4   # BR(~c_L -> chi^0_1 c)
     7.31814745E-02    2     1000023         4   # BR(~c_L -> chi^0_2 c)
     1.46621834E-01    2     1000024         3   # BR(~c_L -> chi^+_1 s)
     7.77679720E-01    2     1000021         4   # BR(~c_L -> ~g c)
DECAY   1000006     2.10252704E+01   # ~t_1
#    BR                NDA      ID1      ID2
     2.45865919E-01    2     1000022         6   # BR(~t_1 -> chi^0_1 t)
     3.61225507E-03    2     1000023         6   # BR(~t_1 -> chi^0_2 t)
     1.85521329E-01    2     1000025         6   # BR(~t_1 -> chi^0_3 t)
     1.82464960E-01    2     1000035         6   # BR(~t_1 -> chi^0_4 t)
     7.34525393E-03    2     1000024         5   # BR(~t_1 -> chi^+_1 b)
     3.75189670E-01    2     1000037         5   # BR(~t_1 -> chi^+_2 b)
#    BR                NDA      ID1      ID2       ID3
DECAY   2000006     2.25285816E+02   # ~t_2
#    BR                NDA      ID1      ID2
     2.87311560E-03    2     1000022         6   # BR(~t_2 -> chi^0_1 t)
     8.04662830E-02    2     1000023         6   # BR(~t_2 -> chi^0_2 t)
     1.31673176E-01    2     1000025         6   # BR(~t_2 -> chi^0_3 t)
     1.32245988E-01    2     1000035         6   # BR(~t_2 -> chi^0_4 t)
     1.61636977E-01    2     1000024         5   # BR(~t_2 -> chi^+_1 b)
     9.29958921E-03    2     1000037         5   # BR(~t_2 -> chi^+_2 b)
     8.79278173E-04    2     1000005        24   # BR(~t_2 -> ~b_1 W^+)
     1.97298122E-01    2     1000006        23   # BR(~t_2 -> ~t_1 Z)
     2.83627471E-01    2     1000006        25   # BR(~t_2 -> ~t_1 h^0)
DECAY   1000024     7.46692250E-05   # chi^+_1
#    BR                NDA      ID1      ID2
     9.84151441E-01    2     1000022        24   # BR(chi^+_1 -> chi^0_1 W^+)
#    BR                NDA      ID1      ID2       ID3
     1.58086851E-02    3     1000022        -5         6   # BR(chi^+_1 -> chi^0_1 b_bar t)
DECAY   1000037     1.18414490E+01   # chi^+_2
#    BR                NDA      ID1      ID2
     1.05255424E-01    2     1000022        24   # BR(chi^+_2 -> chi^0_1 W^+)
     2.85924995E-01    2     1000023        24   # BR(chi^+_2 -> chi^0_2 W^+)
     2.83876336E-01    2     1000024        23   # BR(chi^+_2 -> chi^+_1 Z)
     2.96311194E-01    2     1000024        25   # BR(chi^+_2 -> chi^+_1 h^0)
#    BR                NDA      ID1      ID2       ID3
     1.23839459E-02    3     1000024         6        -6   # BR(chi^+_2 -> chi^+_1 t t_bar)
     3.88908086E-03    3     1000022        -5         6   # BR(chi^+_2 -> chi^0_1 b_bar t)
     1.23544648E-02    3     1000023        -5         6   # BR(chi^+_2 -> chi^0_2 b_bar t)
DECAY   1000022     0.00000000E+00   # chi^0_1
DECAY   1000023     7.59617223E-05   # chi^0_2
#    BR                NDA      ID1      ID2
     9.84582884E-01    2     1000022        23   # BR(chi^0_2 -> chi^0_1 Z)
     1.48375904E-02    2     1000022        25   # BR(chi^0_2 -> chi^0_1 h^0)
     1.53823248E-04    2     1000022        22   # BR(chi^0_2 -> chi^0_1 photon)
#    BR                NDA      ID1      ID2       ID3
     2.34469739E-04    3     1000022         6        -6   # BR(chi^0_2 -> chi^0_1 t t_bar)
     1.12012526E-04    3     1000022         5        -5   # BR(chi^0_2 -> chi^0_1 b b_bar)
DECAY   1000025     1.45937743E+01   # chi^0_3
#    BR                NDA      ID1      ID2
     2.31688371E-01    2     1000024       -24   # BR(chi^0_3 -> chi^+_1 W^-)
     2.31688371E-01    2    -1000024        24   # BR(chi^0_3 -> chi^-_1 W^+)
     4.19269984E-02    2     1000022        23   # BR(chi^0_3 -> chi^0_1 Z)
     1.65969335E-01    2     1000023        23   # BR(chi^0_3 -> chi^0_2 Z)
     5.35699568E-02    2     1000022        25   # BR(chi^0_3 -> chi^0_1 h^0)
     2.52293979E-01    2     1000023        25   # BR(chi^0_3 -> chi^0_2 h^0)
#    BR                NDA      ID1      ID2       ID3
     1.71723273E-03    3     1000022         6        -6   # BR(chi^0_3 -> chi^0_1 t t_bar)
     5.78990277E-03    3     1000023         6        -6   # BR(chi^0_3 -> chi^0_2 t t_bar)
     7.67531251E-03    3     1000024         5        -6   # BR(chi^0_3 -> chi^+_1 b t_bar)
     7.67531251E-03    3    -1000024        -5         6   # BR(chi^0_3 -> chi^-_1 b_bar t)
DECAY   1000035     1.18402669E+01   # chi^0_4
#    BR                NDA      ID1      ID2
     2.84636007E-01    2     1000024       -24   # BR(chi^0_4 -> chi^+_1 W^-)
     2.84636007E-01    2    -1000024        24   # BR(chi^0_4 -> chi^-_1 W^+)
     5.32476739E-02    2     1000022        23   # BR(chi^0_4 -> chi^0_1 Z)
     8.15419809E-02    2     1000023        23   # BR(chi^0_4 -> chi^0_2 Z)
     4.56613259E-02    2     1000022        25   # BR(chi^0_4 -> chi^0_1 h^0)
     2.14485240E-01    2     1000023        25   # BR(chi^0_4 -> chi^0_2 h^0)
#    BR                NDA      ID1      ID2       ID3
     2.18186808E-03    3     1000022         6        -6   # BR(chi^0_4 -> chi^0_1 t t_bar)
     5.88115717E-03    3     1000023         6        -6   # BR(chi^0_4 -> chi^0_2 t t_bar)
     1.38599921E-02    3     1000024         5        -6   # BR(chi^0_4 -> chi^+_1 b t_bar)
     1.38599921E-02    3    -1000024        -5         6   # BR(chi^0_4 -> chi^-_1 b_bar t)
DECAY   1000021     1.89783905E+02   # ~g
#    BR                NDA      ID1      ID2
     2.23912573E-01    2     1000006        -6   # BR(~g -> ~t_1 t_bar)
     2.23912573E-01    2    -1000006         6   # BR(~g -> ~t^*_1 t)
     1.55524946E-02    2     2000006        -6   # BR(~g -> ~t_2 t_bar)
     1.55524946E-02    2    -2000006         6   # BR(~g -> ~t^*_2 t)
     2.42856070E-01    2     1000005        -5   # BR(~g -> ~b_1 b_bar)
     2.42856070E-01    2    -1000005         5   # BR(~g -> ~b^*_1 b)
     1.76203294E-02    2     2000005        -5   # BR(~g -> ~b_2 b_bar)
     1.76203294E-02    2    -2000005         5   # BR(~g -> ~b^*_2 b)
#    BR                NDA      ID1      ID2       ID3
DECAY        25     4.12968646E-03   # Gamma(h0)
     2.34195604E-03   2        22        22   # BR(h0 -> photon photon)
     1.65311297E-03   2        22        23   # BR(h0 -> photon Z)
     3.26258746E-02   2        23        23   # BR(h0 -> Z Z)
     2.60030174E-01   2       -24        24   # BR(h0 -> W W)
     7.10797160E-02   2        21        21   # BR(h0 -> gluon gluon)
     4.88091990E-09   2       -11        11   # BR(h0 -> Electron electron)
     2.17113018E-04   2       -13        13   # BR(h0 -> Muon muon)
     6.26038998E-02   2       -15        15   # BR(h0 -> Tau tau)
     1.38458016E-07   2        -2         2   # BR(h0 -> Up up)
     2.68692674E-02   2        -4         4   # BR(h0 -> Charm charm)
     5.63512370E-07   2        -1         1   # BR(h0 -> Down down)
     2.03809673E-04   2        -3         3   # BR(h0 -> Strange strange)
     5.42374370E-01   2        -5         5   # BR(h0 -> Bottom bottom)
DECAY        35     3.78264600E+01   # Gamma(HH)
     4.16428828E-09   2        22        22   # BR(HH -> photon photon)
     5.78213643E-08   2        22        23   # BR(HH -> photon Z)
     4.28754576E-06   2        23        23   # BR(HH -> Z Z)
     9.00339702E-07   2       -24        24   # BR(HH -> W W)
     3.70380446E-06   2        21        21   # BR(HH -> gluon gluon)
     1.95194590E-09   2       -11        11   # BR(HH -> Electron electron)
     8.69187332E-05   2       -13        13   # BR(HH -> Muon muon)
     2.51043547E-02   2       -15        15   # BR(HH -> Tau tau)
     2.06256024E-12   2        -2         2   # BR(HH -> Up up)
     4.00132177E-07   2        -4         4   # BR(HH -> Charm charm)
     2.64708548E-02   2        -6         6   # BR(HH -> Top top)
     1.35774139E-07   2        -1         1   # BR(HH -> Down down)
     4.91089244E-05   2        -3         3   # BR(HH -> Strange strange)
     1.08443775E-01   2        -5         5   # BR(HH -> Bottom bottom)
     3.54180404E-03   2  -1000024   1000024   # BR(HH -> Chargino1 chargino1)
     2.52217350E-01   2  -1000024   1000037   # BR(HH -> Chargino1 chargino2)
     2.52217350E-01   2  -1000037   1000024   # BR(HH -> Chargino2 chargino1)
     2.69592437E-05   2  -1000037   1000037   # BR(HH -> Chargino2 chargino2)
     1.36364196E-04   2   1000022   1000022   # BR(HH -> neutralino1 neutralino1)
     9.94250639E-04   2   1000022   1000023   # BR(HH -> neutralino1 neutralino2)
     3.32318410E-02   2   1000022   1000025   # BR(HH -> neutralino1 neutralino3)
     4.41621138E-02   2   1000022   1000035   # BR(HH -> neutralino1 neutralino4)
     1.76901368E-03   2   1000023   1000023   # BR(HH -> neutralino2 neutralino2)
     1.21624512E-01   2   1000023   1000025   # BR(HH -> neutralino2 neutralino3)
     1.29098095E-01   2   1000023   1000035   # BR(HH -> neutralino2 neutralino4)
     3.57823566E-05   2   1000025   1000025   # BR(HH -> neutralino3 neutralino3)
     6.40969733E-04   2   1000025   1000035   # BR(HH -> neutralino3 neutralino4)
     9.86694868E-05   2   1000035   1000035   # BR(HH -> neutralino4 neutralino4)
     4.04214333E-05   2        25        25   # BR(HH -> h0 h0)
DECAY        36     3.76433638E+01   # Gamma(A0)
     9.48574603E-09   2        22        22   # BR(A0 -> photon photon)
     4.01006990E-08   2        22        23   # BR(A0 -> photon Z)
     1.39734767E-05   2        21        21   # BR(A0 -> gluon gluon)
     1.90028431E-09   2       -11        11   # BR(A0 -> Electron electron)
     8.46171953E-05   2       -13        13   # BR(A0 -> Muon muon)
     2.44396330E-02   2       -15        15   # BR(A0 -> Tau tau)
     1.99074235E-12   2        -2         2   # BR(A0 -> Up up)
     3.86184878E-07   2        -4         4   # BR(A0 -> Charm charm)
     2.57490116E-02   2        -6         6   # BR(A0 -> Top top)
     1.32177347E-07   2        -1         1   # BR(A0 -> Down down)
     4.78078925E-05   2        -3         3   # BR(A0 -> Strange strange)
     1.05572086E-01   2        -5         5   # BR(A0 -> Bottom bottom)
     3.54641015E-03   2  -1000024   1000024   # BR(A0 -> Chargino1 chargino1)
     2.53520622E-01   2  -1000024   1000037   # BR(A0 -> Chargino1 chargino2)
     2.53520622E-01   2  -1000037   1000024   # BR(A0 -> Chargino2 chargino1)
     2.13774834E-05   2  -1000037   1000037   # BR(A0 -> Chargino2 chargino2)
     1.38315834E-04   2   1000022   1000022   # BR(A0 -> neutralino1 neutralino1)
     9.81723556E-04   2   1000022   1000023   # BR(A0 -> neutralino1 neutralino2)
     4.45161599E-02   2   1000022   1000025   # BR(A0 -> neutralino1 neutralino3)
     3.32824196E-02   2   1000022   1000035   # BR(A0 -> neutralino1 neutralino4)
     1.77090594E-03   2   1000023   1000023   # BR(A0 -> neutralino2 neutralino2)
     1.30183839E-01   2   1000023   1000025   # BR(A0 -> neutralino2 neutralino3)
     1.21826089E-01   2   1000023   1000035   # BR(A0 -> neutralino2 neutralino4)
     2.79346431E-04   2   1000025   1000025   # BR(A0 -> neutralino3 neutralino3)
     1.27449914E-04   2   1000025   1000035   # BR(A0 -> neutralino3 neutralino4)
     3.67886767E-04   2   1000035   1000035   # BR(A0 -> neutralino4 neutralino4)
     9.13409057E-06   2        23        25   # BR(A0 -> Z h0)
     5.66831480E-36   2        25        25   # BR(A0 -> h0 h0)
DECAY        37     3.80742074E+01   # Gamma(Hp)
     2.05884808E-09   2       -11        12   # BR(Hp -> Electron nu_e)
     8.80221859E-05   2       -13        14   # BR(Hp -> Muon nu_mu)
     2.48976872E-02   2       -15        16   # BR(Hp -> Tau nu_tau)
     1.23956395E-07   2        -1         2   # BR(Hp -> Down up)
     2.09890781E-06   2        -3         2   # BR(Hp -> Strange up)
     1.12028686E-06   2        -5         2   # BR(Hp -> Bottom up)
     2.62368978E-08   2        -1         4   # BR(Hp -> Down charm)
     4.51015917E-05   2        -3         4   # BR(Hp -> Strange charm)
     1.56880944E-04   2        -5         4   # BR(Hp -> Bottom charm)
     2.24167226E-06   2        -1         6   # BR(Hp -> Down top)
     4.89424261E-05   2        -3         6   # BR(Hp -> Strange top)
     1.40062190E-01   2        -5         6   # BR(Hp -> Bottom top)
     1.96047784E-03   2   1000022   1000024   # BR(Hp -> neutralino1 chargino1)
     7.68719354E-02   2   1000022   1000037   # BR(Hp -> neutralino1 chargino2)
     6.14480455E-10   2   1000023   1000024   # BR(Hp -> neutralino2 chargino1)
     2.52817927E-01   2   1000023   1000037   # BR(Hp -> neutralino2 chargino2)
     2.51314073E-01   2   1000024   1000025   # BR(Hp -> chargino1 neutralino3)
     2.44294380E-04   2   1000025   1000037   # BR(Hp -> neutralino3 chargino2)
     2.51333508E-01   2   1000024   1000035   # BR(Hp -> chargino1 neutralino4)
     1.44296944E-04   2   1000035   1000037   # BR(Hp -> neutralino4 chargino2)
     9.04912898E-06   2        24        25   # BR(Hp -> W h0)
     3.67856485E-12   2        24        35   # BR(Hp -> W HH)
     2.10485685E-12   2        24        36   # BR(Hp -> W A0)
DECAY         6     2.43000000E+00   # top
#    BR                NDA      ID1      ID2
     1.00000000E+00    2           5        24   # BR(t -> b W)
Block HiggsBoundsInputHiggsCouplingsFermions
# ScalarNormEffCoupSq PseudoSNormEffCoupSq NP IP1 IP2 IP2
    9.08470016E-01    0.00000000E+00        3  25   5   5  # h0-b-b eff. coupling^2, normalised to SM
    1.06753520E+02    0.00000000E+00        3  35   5   5  # H0-b-b eff. coupling^2, normalised to SM
    0.00000000E+00    1.06661990E+02        3  36   5   5  # A0-b-b eff. coupling^2, normalised to SM
#
    1.00085813E+00    0.00000000E+00        3  25   6   6  # h0-t-t eff. coupling^2, normalised to SM
    8.51727979E-03    0.00000000E+00        3  35   6   6  # H0-t-t eff. coupling^2, normalised to SM
    0.00000000E+00    9.37541102E-03        3  36   6   6  # A0-t-t eff. coupling^2, normalised to SM
#
    9.08470016E-01    0.00000000E+00        3  25  15  15  # h0-tau-tau eff. coupling^2, normalised to SM
    1.06753520E+02    0.00000000E+00        3  35  15  15  # H0-tau-tau eff. coupling^2, normalised to SM
    0.00000000E+00    1.06661990E+02        3  36  15  15  # A0-tau-tau eff. coupling^2, normalised to SM
#
Block HiggsBoundsInputHiggsCouplingsBosons
    9.99979419E-01        3  25  24  24  # h0-W-W eff. coupling^2, normalised to SM
    2.05807385E-05        3  35  24  24  # H0-W-W eff. coupling^2, normalised to SM
    0.00000000E+00        3  36  24  24  # A0-W-W eff. coupling^2, normalised to SM
#
    9.99979419E-01        3  25  23  23  # h0-Z-Z eff. coupling^2, normalised to SM
    2.05807385E-05        3  35  23  23  # H0-Z-Z eff. coupling^2, normalised to SM
    0.00000000E+00        3  36  23  23  # A0-Z-Z eff. coupling^2, normalised to SM
#
    1.26669059E+00        3  25  21  21  # h0-g-g eff. coupling^2, normalised to SM
    5.94744385E-03        3  35  21  21  # H0-g-g eff. coupling^2, normalised to SM
    1.18609662E-01        3  36  21  21  # A0-g-g eff. coupling^2, normalised to SM
#
    0.00000000E+00        3  25  25  23  # h0-h0-Z eff. coupling^2, normalised to SM
    0.00000000E+00        3  35  25  23  # H0-h0-Z eff. coupling^2, normalised to SM
    2.05807385E-05        3  36  25  23  # A0-h0-Z eff. coupling^2, normalised to SM
    0.00000000E+00        3  35  35  23  # H0-H0-Z eff. coupling^2, normalised to SM
    9.99979419E-01        3  36  35  23  # A0-H0-Z eff. coupling^2, normalised to SM
    0.00000000E+00        3  36  36  23  # A0-A0-Z eff. coupling^2, normalised to SM
#
    0.00000000E+00        4  25  21  21  23  # h0-g-g-Z eff. coupling^2, normalised to SM
    0.00000000E+00        4  35  21  21  23  # H0-g-g-Z eff. coupling^2, normalised to SM
    0.00000000E+00        4  36  21  21  23  # A0-g-g-Z eff. coupling^2, normalised to SM
Block SPhenoLowEnergy  # low energy observables
    1    3.26275764E-04   # BR(b -> s gamma)
    2    1.58953493E-06   # BR(b -> s mu+ mu-)
    3    3.52533206E-05   # BR(b -> s nu nu)
    4    2.68834644E-15   # BR(Bd -> e+ e-)
    5    1.14843121E-10   # BR(Bd -> mu+ mu-)
    6    2.40420585E-08   # BR(Bd -> tau+ tau-)
    7    9.04142566E-14   # BR(Bs -> e+ e-)
    8    3.86249463E-09   # BR(Bs -> mu+ mu-)
    9    8.19296628E-07   # BR(Bs -> tau+ tau-)
   10    9.67599376E-05   # BR(B_u -> tau nu)
   11    9.99493111E-01   # BR(B_u -> tau nu)/BR(B_u -> tau nu)_SM
   12    5.42205881E-01   # |Delta(M_Bd)| [ps^-1] 
   13    1.93732164E+01   # |Delta(M_Bs)| [ps^-1] 
   14    0.00000000E+00   # neutron EDM according to the chiral quark model
   15    0.00000000E+00   # neutron EDM according to the relativistic quark-parton model
   16    2.15826760E-03   # epsilon_K
   17    2.28166779E-15   # Delta(M_K)
   18    2.47986032E-11   # BR(K^0 -> pi^0 nu nu)
   19    8.29021720E-11   # BR(K^+ -> pi^+ nu nu)
   20   -9.15354407E-17   # Delta(g-2)_electron/2
   21   -3.91342953E-12   # Delta(g-2)_muon/2
   22   -1.10726422E-09   # Delta(g-2)_tau/2
   23    0.00000000E+00   # electric dipole moment of the electron
   24    0.00000000E+00   # electric dipole moment of the muon
   25    0.00000000E+00   # electric dipole moment of the tau
   26    0.00000000E+00   # Br(mu -> e gamma)
   27    0.00000000E+00   # Br(tau -> e gamma)
   28    0.00000000E+00   # Br(tau -> mu gamma)
   29    0.00000000E+00   # Br(mu -> 3 e)
   30    0.00000000E+00   # Br(tau -> 3 e)
   31    0.00000000E+00   # Br(tau -> 3 mu)
   39   -3.31251451E-05   # Delta(rho_parameter)
   40    0.00000000E+00   # BR(Z -> e mu)
   41    0.00000000E+00   # BR(Z -> e tau)
   42    0.00000000E+00   # BR(Z -> mu tau)
Block FWCOEF Q=  1.60000000E+02  # Wilson coefficients at scale Q
#    id        order  M        value         comment
     0305 4422   00   0    -1.88819110E-01   # C7
     0305 4422   00   2    -1.95378347E-01   # C7
     0305 4322   00   2    -1.01171979E-04   # C7'
     0305 6421   00   0    -9.52278348E-02   # C8
     0305 6421   00   2    -1.02097553E-01   # C8
     0305 6321   00   2    -1.18774190E-04   # C8'
 03051111 4133   00   0     1.61847279E+00   # C9 e+e-
 03051111 4133   00   2     1.61865607E+00   # C9 e+e-
 03051111 4233   00   2     2.24206331E-05   # C9' e+e-
 03051111 4137   00   0    -4.44116489E+00   # C10 e+e-
 03051111 4137   00   2    -4.43956739E+00   # C10 e+e-
 03051111 4237   00   2    -1.67249160E-04   # C10' e+e-
 03051313 4133   00   0     1.61847279E+00   # C9 mu+mu-
 03051313 4133   00   2     1.61865605E+00   # C9 mu+mu-
 03051313 4233   00   2     2.24206322E-05   # C9' mu+mu-
 03051313 4137   00   0    -4.44116489E+00   # C10 mu+mu-
 03051313 4137   00   2    -4.43956741E+00   # C10 mu+mu-
 03051313 4237   00   2    -1.67249160E-04   # C10' mu+mu-
 03051212 4137   00   0     1.50535012E+00   # C11 nu_1 nu_1
 03051212 4137   00   2     1.50500533E+00   # C11 nu_1 nu_1
 03051212 4237   00   2     3.62314871E-05   # C11' nu_1 nu_1
 03051414 4137   00   0     1.50535012E+00   # C11 nu_2 nu_2
 03051414 4137   00   2     1.50500533E+00   # C11 nu_2 nu_2
 03051414 4237   00   2     3.62314873E-05   # C11' nu_2 nu_2
 03051616 4137   00   0     1.50535012E+00   # C11 nu_3 nu_3
 03051616 4137   00   2     1.50500533E+00   # C11 nu_3 nu_3
 03051616 4237   00   2     3.62315218E-05   # C11' nu_3 nu_3
Block IMFWCOEF Q=  1.60000000E+02  # Im(Wilson coefficients) at scale Q
#    id        order  M        value         comment
     0305 4422   00   0     3.85796475E-07   # C7
     0305 4422   00   2    -2.43049536E-07   # C7
     0305 4322   00   2    -3.56206290E-07   # C7'
     0305 6421   00   0     3.30460195E-07   # C8
     0305 6421   00   2    -1.99426375E-06   # C8
     0305 6321   00   2    -2.09965001E-07   # C8'
 03051111 4133   00   2     3.71116576E-07   # C9 e+e-
 03051111 4233   00   2     4.33494125E-07   # C9' e+e-
 03051111 4137   00   2     4.30203317E-07   # C10 e+e-
 03051111 4237   00   2    -3.23482523E-06   # C10' e+e-
 03051313 4133   00   2     3.71116362E-07   # C9 mu+mu-
 03051313 4233   00   2     4.33494118E-07   # C9' mu+mu-
 03051313 4137   00   2     4.30203517E-07   # C10 mu+mu-
 03051313 4237   00   2    -3.23482526E-06   # C10' mu+mu-
 03051212 4137   00   2    -7.01083131E-08   # C11 nu_1 nu_1
 03051212 4237   00   2     7.00767502E-07   # C11' nu_1 nu_1
 03051414 4137   00   2    -7.01083026E-08   # C11 nu_2 nu_2
 03051414 4237   00   2     7.00767502E-07   # C11' nu_2 nu_2
 03051616 4137   00   2    -7.01053393E-08   # C11 nu_3 nu_3
 03051616 4237   00   2     7.00767500E-07   # C11' nu_3 nu_3
