# SUSY Les Houches Accord 2 - MSSM spectrum + Decays
# SPheno v4.0.5be
# W. Porod, Comput. Phys. Commun. 153 (2003) 275-315, hep-ph/0301101;
# W. Porod, F.~Staub, Comput. Phys. Commun. 183 (2012) 2458
#                     arXiv:1104.1573 [hep-ph] 
# in case of problems send email to porod@physik.uni-wuerzburg.de
# Created: 18.08.2022,  10:38
Block SPINFO         # Program information
     1   SPheno      # spectrum calculator
     2   v4.0.5be    # version number
#
Block SPhenoINFO     # SPheno specific information
    1      2         # using 2-loop RGEs
    2      2         # using pole masses for boundary conditions at mZ
Block MODSEL  # Model selection
    1    0    # general MSSM
Block MINPAR  # Input parameters
    3    4.18567700E+01  # tanb at m_Z    
    4   -1.00000000E+00  # Sign(mu)
Block EXTPAR  # non-universal input parameters
    0    2.70146600E+03  # scale for input parameters
    1    1.80515751E+02  # M_1
    2    1.62260933E+02  # M_2
    3    3.25262527E+03  # M_3
   11    4.09807355E+02  # A_t
   12    3.89638819E+02  # A_b
   13    1.52625939E+03  # A_tau
   23   -6.10474311E+01  # mu
   25    4.09316391E+01  # tan(beta)
   26    1.18874526E+03  # m_A, pole mass
   31    8.42492780E+02  # M_L11
   32    8.42492780E+02  # M_L22
   33    6.46661804E+02  # M_L33
   34    1.34782261E+03  # M_E11
   35    1.34782261E+03  # M_E22
   36    6.32131045E+02  # M_E33
   41    2.92486491E+03  # M_Q11
   42    2.92486491E+03  # M_Q22
   43    1.91261380E+03  # M_Q33
   44    2.30073698E+03  # M_U11
   45    2.30073698E+03  # M_U22
   46    3.55897355E+03  # M_U33
   47    2.75499727E+03  # M_D11
   48    2.75499727E+03  # M_D22
   49    1.25791215E+03  # M_D33
Block SMINPUTS  # SM parameters
         1     1.27908970E+02  # alpha_em^-1(MZ)^MSbar
         2     1.16637870E-05  # G_mu [GeV^-2]
         3     1.18400000E-01  # alpha_s(MZ)^MSbar
         4     9.11876000E+01  # m_Z(pole)
         5     4.18000000E+00  # m_b(m_b), MSbar
         6     1.73200000E+02  # m_t(pole)
         7     1.77700000E+00  # m_tau(pole)
         8     0.00000000E+00  # m_nu_3
        11     5.10998930E-04  # m_e(pole)
        12     0.00000000E+00  # m_nu_1
        13     1.05658372E-01  # m_muon(pole)
        14     0.00000000E+00  # m_nu_2
        21     5.00000000E-03  # m_d(2 GeV), MSbar
        22     2.50000000E-03  # m_u(2 GeV), MSbar
        23     9.50000000E-02  # m_s(2 GeV), MSbar
        24     1.27000000E+00  # m_c(m_c), MSbar
Block gauge Q=  2.70146600E+03  # (SUSY scale)
   1    3.55362975E-01  # g'(Q)^DRbar
   2    6.65198874E-01  # g(Q)^DRbar
   3    1.21977796E+00  # g3(Q)^DRbar
Block Yu Q=  2.70146600E+03  # (SUSY scale)
  1  1     8.38687396E-06   # Y_u(Q)^DRbar
  2  2     4.26053197E-03   # Y_c(Q)^DRbar
  3  3     1.01320174E+00   # Y_t(Q)^DRbar
Block Yd Q=  2.70146600E+03  # (SUSY scale)
  1  1     6.89825906E-04   # Y_d(Q)^DRbar
  2  2     1.31066922E-02   # Y_s(Q)^DRbar
  3  3     6.84091139E-01   # Y_b(Q)^DRbar
Block Ye Q=  2.70146600E+03  # (SUSY scale)
  1  1     1.20379665E-04   # Y_e(Q)^DRbar
  2  2     2.48906968E-02   # Y_mu(Q)^DRbar
  3  3     4.18620573E-01   # Y_tau(Q)^DRbar
Block Au Q=  2.70146600E+03  # (SUSY scale)
  1  1     0.00000000E+00   # A_u(Q)^DRbar
  2  2     0.00000000E+00   # A_c(Q)^DRbar
  3  3     4.09807358E+02   # A_t(Q)^DRbar
Block Ad Q=  2.70146600E+03  # (SUSY scale)
  1  1     0.00000000E+00   # A_d(Q)^DRbar
  2  2     0.00000000E+00   # A_s(Q)^DRbar
  3  3     3.89638790E+02   # A_b(Q)^DRbar
Block Ae Q=  2.70146600E+03  # (SUSY scale)
  1  1     0.00000000E+00   # A_e(Q)^DRbar
  2  2     0.00000000E+00   # A_mu(Q)^DRbar
  3  3     1.52625929E+03   # A_tau(Q)^DRbar
Block MSOFT Q=  2.70146600E+03  # soft SUSY breaking masses at Q
   1    1.80515751E+02  # M_1
   2    1.62260933E+02  # M_2
   3    3.25262527E+03  # M_3
  21    1.51667150E+06  # M^2_(H,d)
  22    1.27940275E+05  # M^2_(H,u)
  31    8.42492780E+02  # M_(L,11)
  32    8.42492780E+02  # M_(L,22)
  33    6.46661804E+02  # M_(L,33)
  34    1.34782261E+03  # M_(E,11)
  35    1.34782261E+03  # M_(E,22)
  36    6.32131045E+02  # M_(E,33)
  41    2.92486491E+03  # M_(Q,11)
  42    2.92486491E+03  # M_(Q,22)
  43    1.91261380E+03  # M_(Q,33)
  44    2.30073698E+03  # M_(U,11)
  45    2.30073698E+03  # M_(U,22)
  46    3.55897355E+03  # M_(U,33)
  47    2.75499727E+03  # M_(D,11)
  48    2.75499727E+03  # M_(D,22)
  49    1.25791215E+03  # M_(D,33)
Block MASS  # Mass spectrum
#   PDG code      mass          particle
         6     1.73200000E+02  # m_t(pole)
        23     9.11876000E+01  # m_Z(pole)
        24     8.04299946E+01  # W+
        15     1.77700000E+00  # m_tau(pole)
        25     1.21096315E+02  # h0
        35     1.18810096E+03  # H0
        36     1.18874526E+03  # A0
        37     1.18942014E+03  # H+
   1000001     3.03794277E+03  # ~d_L
   2000001     2.86188391E+03  # ~d_R
   1000002     3.03684206E+03  # ~u_L
   2000002     2.41530893E+03  # ~u_R
   1000003     3.03793912E+03  # ~s_L
   2000003     2.86187712E+03  # ~s_R
   1000004     3.03683847E+03  # ~c_L
   2000004     2.41530839E+03  # ~c_R
   1000005     1.37096435E+03  # ~b_1
   2000005     2.01345418E+03  # ~b_2
   1000006     2.01703626E+03  # ~t_1
   2000006     3.61813949E+03  # ~t_2
   1000011     8.45411632E+02  # ~e_L-
   2000011     1.34972738E+03  # ~e_R-
   1000012     8.41188369E+02  # ~nu_eL
   1000013     8.45385698E+02  # ~mu_L-
   2000013     1.34969053E+03  # ~mu_R-
   1000014     8.41167840E+02  # ~nu_muL
   1000015     6.12240880E+02  # ~tau_1-
   2000015     6.40710318E+02  # ~tau_2-
   1000016     6.34653644E+02  # ~nu_tauL
   1000021     3.33212760E+03  # ~g
   1000022     4.99960416E+01  # ~chi_10
   1000023     9.26966749E+01  # ~chi_20
   1000025     1.76954430E+02  # ~chi_30
   1000035     2.18133765E+02  # ~chi_40
   1000024     6.33218402E+01  # ~chi_1+
   1000037     2.12260995E+02  # ~chi_2+
# Higgs mixing
Block alpha # Effective Higgs mixing angle
          -2.42337736E-02   # alpha
Block Hmix Q=  2.70146600E+03  # Higgs mixing parameters
   1   -6.10474311E+01  # mu
   2    4.09316391E+01  # tan[beta](Q)
   3    2.43374527E+02  # v(Q)
   4    1.41311529E+06  # m^2_A(Q)
Block stopmix # stop mixing matrix
   1  1    -9.99988027E-01   # Re[R_st(1,1)]
   1  2     4.89349340E-03   # Re[R_st(1,2)]
   2  1    -4.89349340E-03   # Re[R_st(2,1)]
   2  2    -9.99988027E-01   # Re[R_st(2,2)]
Block sbotmix # sbottom mixing matrix
   1  1    -2.65964139E-03   # Re[R_sb(1,1)]
   1  2     9.99996463E-01   # Re[R_sb(1,2)]
   2  1    -9.99996463E-01   # Re[R_sb(2,1)]
   2  2    -2.65964139E-03   # Re[R_sb(2,2)]
Block staumix # stau mixing matrix
   1  1    -2.17875765E-01   # Re[R_sta(1,1)]
   1  2     9.75976512E-01   # Re[R_sta(1,2)]
   2  1    -9.75976512E-01   # Re[R_sta(2,1)]
   2  2    -2.17875765E-01   # Re[R_sta(2,2)]
Block Nmix # neutralino mixing matrix
   1  1    -1.67147084E-01   # Re[N(1,1)]
   1  2     3.17201185E-01   # Re[N(1,2)]
   1  3     7.81114737E-01   # Re[N(1,3)]
   1  4     5.11180035E-01   # Re[N(1,4)]
   2  1    -1.22478901E-01   # Re[N(2,1)]
   2  2     2.31511118E-01   # Re[N(2,2)]
   2  3    -6.09767161E-01   # Re[N(2,3)]
   2  4     7.48054497E-01   # Re[N(2,4)]
   3  1    -8.61197349E-01   # Re[N(3,1)]
   3  2    -5.07733450E-01   # Re[N(3,2)]
   3  3     7.39757723E-03   # Re[N(3,3)]
   3  4     2.21617992E-02   # Re[N(3,4)]
   4  1     4.64111944E-01   # Re[N(4,1)]
   4  2    -7.66806856E-01   # Re[N(4,2)]
   4  3     1.34123274E-01   # Re[N(4,3)]
   4  4     4.22632578E-01   # Re[N(4,4)]
Block Umix # chargino mixing matrix
   1  1    -1.98314431E-01   # Re[U(1,1)]
   1  2    -9.80138453E-01   # Re[U(1,2)]
   2  1     9.80138453E-01   # Re[U(2,1)]
   2  2    -1.98314431E-01   # Re[U(2,2)]
Block Vmix # chargino mixing matrix
   1  1    -5.97676567E-01   # Re[V(1,1)]
   1  2     8.01737315E-01   # Re[V(1,2)]
   2  1     8.01737315E-01   # Re[V(2,1)]
   2  2     5.97676567E-01   # Re[V(2,2)]
DECAY        23     2.49520000E+00   # Z
DECAY        24     2.08500000E+00   # W
DECAY   1000011     1.09175656E+01   # ~e^-_L
#    BR                NDA      ID1      ID2
     1.75800893E-02    2     1000022        11   # BR(~e^-_L -> chi^0_1 e^-)
     9.17649188E-03    2     1000023        11   # BR(~e^-_L -> chi^0_2 e^-)
     2.91881490E-01    2     1000025        11   # BR(~e^-_L -> chi^0_3 e^-)
     7.99502056E-02    2     1000035        11   # BR(~e^-_L -> chi^0_4 e^-)
     2.65092602E-02    2    -1000024        12   # BR(~e^-_L -> chi^-_1 nu_e)
     5.74902463E-01    2    -1000037        12   # BR(~e^-_L -> chi^-_2 nu_e)
#    BR                NDA      ID1      ID2       ID3
DECAY   2000011     6.53367502E+00   # ~e^-_R
#    BR                NDA      ID1      ID2
     2.89200198E-02    2     1000022        11   # BR(~e^-_R -> chi^0_1 e^-)
     1.54244489E-02    2     1000023        11   # BR(~e^-_R -> chi^0_2 e^-)
     7.43599525E-01    2     1000025        11   # BR(~e^-_R -> chi^0_3 e^-)
     2.12055947E-01    2     1000035        11   # BR(~e^-_R -> chi^0_4 e^-)
DECAY   1000013     1.09274093E+01   # ~mu^-_L
#    BR                NDA      ID1      ID2
     1.81415214E-02    2     1000022        13   # BR(~mu^-_L -> chi^0_1 mu^-)
     9.51389297E-03    2     1000023        13   # BR(~mu^-_L -> chi^0_2 mu^-)
     2.91607996E-01    2     1000025        13   # BR(~mu^-_L -> chi^0_3 mu^-)
     7.98898262E-02    2     1000035        13   # BR(~mu^-_L -> chi^0_4 mu^-)
     2.64845492E-02    2    -1000024        14   # BR(~mu^-_L -> chi^-_1 nu_mu)
     5.74362214E-01    2    -1000037        14   # BR(~mu^-_L -> chi^-_2 nu_mu)
#    BR                NDA      ID1      ID2       ID3
DECAY   2000013     6.56655886E+00   # ~mu^-_R
#    BR                NDA      ID1      ID2
     3.03159249E-02    2     1000022        13   # BR(~mu^-_R -> chi^0_1 mu^-)
     1.62797625E-02    2     1000023        13   # BR(~mu^-_R -> chi^0_2 mu^-)
     7.39854272E-01    2     1000025        13   # BR(~mu^-_R -> chi^0_3 mu^-)
     2.11030703E-01    2     1000035        13   # BR(~mu^-_R -> chi^0_4 mu^-)
     2.42304520E-03    2    -1000024        14   # BR(~mu^-_R -> chi^-_1 nu_mu)
DECAY   1000015     6.90513813E+00   # ~tau^-_1
#    BR                NDA      ID1      ID2
     2.45105529E-01    2     1000022        15   # BR(~tau^-_1 -> chi^0_1 tau^-)
     9.07522396E-02    2     1000023        15   # BR(~tau^-_1 -> chi^0_2 tau^-)
     2.78661492E-01    2     1000025        15   # BR(~tau^-_1 -> chi^0_3 tau^-)
     6.23861409E-02    2     1000035        15   # BR(~tau^-_1 -> chi^0_4 tau^-)
     3.18009381E-01    2    -1000024        16   # BR(~tau^-_1 -> chi^-_1 nu_tau)
     5.08521721E-03    2    -1000037        16   # BR(~tau^-_1 -> chi^-_2 nu_tau)
DECAY   2000015     9.53344815E+00   # ~tau^-_2
#    BR                NDA      ID1      ID2
     1.21014772E-01    2     1000022        15   # BR(~tau^-_2 -> chi^0_1 tau^-)
     1.10548658E-01    2     1000023        15   # BR(~tau^-_2 -> chi^0_2 tau^-)
     2.35528808E-01    2     1000025        15   # BR(~tau^-_2 -> chi^0_3 tau^-)
     7.70768653E-02    2     1000035        15   # BR(~tau^-_2 -> chi^0_4 tau^-)
     2.03041991E-03    2    -1000024        16   # BR(~tau^-_2 -> chi^-_1 nu_tau)
     4.53800408E-01    2    -1000037        16   # BR(~tau^-_2 -> chi^-_2 nu_tau)
#    BR                NDA      ID1      ID2       ID3
DECAY   1000012     1.10390360E+01   # ~nu_e
#    BR                NDA      ID1      ID2
     5.50302021E-02    2     1000022        12   # BR(~nu_e -> chi^0_1 nu_e)
     2.88599742E-02    2     1000023        12   # BR(~nu_e -> chi^0_2 nu_e)
     6.96038850E-04    2     1000025        12   # BR(~nu_e -> chi^0_3 nu_e)
     3.00479203E-01    2     1000035        12   # BR(~nu_e -> chi^0_4 nu_e)
     2.36914607E-01    2     1000024        11   # BR(~nu_e -> chi^+_1 e^-)
     3.78019975E-01    2     1000037        11   # BR(~nu_e -> chi^+_2 e^-)
DECAY   1000014     1.10489189E+01   # ~nu_mu
#    BR                NDA      ID1      ID2
     5.49796188E-02    2     1000022        14   # BR(~nu_mu -> chi^0_1 nu_mu)
     2.88334218E-02    2     1000023        14   # BR(~nu_mu -> chi^0_2 nu_mu)
     6.95396156E-04    2     1000025        14   # BR(~nu_mu -> chi^0_3 nu_mu)
     3.00200997E-01    2     1000035        14   # BR(~nu_mu -> chi^0_4 nu_mu)
     2.37588575E-01    2     1000024        13   # BR(~nu_mu -> chi^+_1 mu^-)
     3.77701992E-01    2     1000037        13   # BR(~nu_mu -> chi^+_2 mu^-)
DECAY   1000016     9.87547157E+00   # ~nu_tau
#    BR                NDA      ID1      ID2
     4.61619974E-02    2     1000022        16   # BR(~nu_tau -> chi^0_1 nu_tau)
     2.38888233E-02    2     1000023        16   # BR(~nu_tau -> chi^0_2 nu_tau)
     5.46600182E-04    2     1000025        16   # BR(~nu_tau -> chi^0_3 nu_tau)
     2.26517565E-01    2     1000035        16   # BR(~nu_tau -> chi^0_4 nu_tau)
     4.09287545E-01    2     1000024        15   # BR(~nu_tau -> chi^+_1 tau^-)
     2.93597419E-01    2     1000037        15   # BR(~nu_tau -> chi^+_2 tau^-)
#    BR                NDA      ID1      ID2       ID3
DECAY   2000001     1.58471491E+00   # ~d_R
#    BR                NDA      ID1      ID2
     2.81615249E-02    2     1000022         1   # BR(~d_R -> chi^0_1 d)
     1.50992758E-02    2     1000023         1   # BR(~d_R -> chi^0_2 d)
     7.42063605E-01    2     1000025         1   # BR(~d_R -> chi^0_3 d)
     2.14658521E-01    2     1000035         1   # BR(~d_R -> chi^0_4 d)
DECAY   1000001     4.01745657E+01   # ~d_L
#    BR                NDA      ID1      ID2
     4.00473701E-02    2     1000022         1   # BR(~d_L -> chi^0_1 d)
     2.13192317E-02    2     1000023         1   # BR(~d_L -> chi^0_2 d)
     4.15155281E-02    2     1000025         1   # BR(~d_L -> chi^0_3 d)
     2.37695218E-01    2     1000035         1   # BR(~d_L -> chi^0_4 d)
     2.61572897E-02    2    -1000024         2   # BR(~d_L -> chi^-_1 u)
     6.33265362E-01    2    -1000037         2   # BR(~d_L -> chi^-_2 u)
DECAY   2000003     1.60419133E+00   # ~s_R
#    BR                NDA      ID1      ID2
     3.15270203E-02    2     1000022         3   # BR(~s_R -> chi^0_1 s)
     1.71717759E-02    2     1000023         3   # BR(~s_R -> chi^0_2 s)
     7.33052807E-01    2     1000025         3   # BR(~s_R -> chi^0_3 s)
     2.12159834E-01    2     1000035         3   # BR(~s_R -> chi^0_4 s)
     5.85140933E-03    2    -1000024         4   # BR(~s_R -> chi^-_1 c)
     2.37152837E-04    2    -1000037         4   # BR(~s_R -> chi^-_2 c)
DECAY   1000003     4.01859499E+01   # ~s_L
#    BR                NDA      ID1      ID2
     4.01931016E-02    2     1000022         3   # BR(~s_L -> chi^0_1 s)
     2.14087703E-02    2     1000023         3   # BR(~s_L -> chi^0_2 s)
     4.15037300E-02    2     1000025         3   # BR(~s_L -> chi^0_3 s)
     2.37632153E-01    2     1000035         3   # BR(~s_L -> chi^0_4 s)
     2.61673434E-02    2    -1000024         4   # BR(~s_L -> chi^-_1 c)
     6.33094897E-01    2    -1000037         4   # BR(~s_L -> chi^-_2 c)
DECAY   1000005     2.57088953E+01   # ~b_1
#    BR                NDA      ID1      ID2
     3.03522991E-01    2     1000022         5   # BR(~b_1 -> chi^0_1 b)
     1.83020713E-01    2     1000023         5   # BR(~b_1 -> chi^0_2 b)
     2.13773673E-02    2     1000025         5   # BR(~b_1 -> chi^0_3 b)
     1.43283993E-02    2     1000035         5   # BR(~b_1 -> chi^0_4 b)
     4.60240417E-01    2    -1000024         6   # BR(~b_1 -> chi^-_1 t)
     1.75101132E-02    2    -1000037         6   # BR(~b_1 -> chi^-_2 t)
DECAY   2000005     8.54136911E+01   # ~b_2
#    BR                NDA      ID1      ID2
     1.45969582E-01    2     1000022         5   # BR(~b_2 -> chi^0_1 b)
     8.80210278E-02    2     1000023         5   # BR(~b_2 -> chi^0_2 b)
     1.28412974E-02    2     1000025         5   # BR(~b_2 -> chi^0_3 b)
     7.70663384E-02    2     1000035         5   # BR(~b_2 -> chi^0_4 b)
     3.11549587E-01    2    -1000024         6   # BR(~b_2 -> chi^-_1 t)
     3.64447289E-01    2    -1000037         6   # BR(~b_2 -> chi^-_2 t)
DECAY   2000002     5.33172587E+00   # ~u_R
#    BR                NDA      ID1      ID2
     2.82391884E-02    2     1000022         2   # BR(~u_R -> chi^0_1 u)
     1.51310513E-02    2     1000023         2   # BR(~u_R -> chi^0_2 u)
     7.42262380E-01    2     1000025         2   # BR(~u_R -> chi^0_3 u)
     2.14367379E-01    2     1000035         2   # BR(~u_R -> chi^0_4 u)
DECAY   1000002     4.02426177E+01   # ~u_L
#    BR                NDA      ID1      ID2
     2.74276222E-02    2     1000022         2   # BR(~u_L -> chi^0_1 u)
     1.45790737E-02    2     1000023         2   # BR(~u_L -> chi^0_2 u)
     1.44180348E-01    2     1000025         2   # BR(~u_L -> chi^0_3 u)
     1.53873023E-01    2     1000035         2   # BR(~u_L -> chi^0_4 u)
     2.37096494E-01    2     1000024         1   # BR(~u_L -> chi^+_1 d)
     4.22843438E-01    2     1000037         1   # BR(~u_L -> chi^+_2 d)
DECAY   2000004     5.33345748E+00   # ~c_R
#    BR                NDA      ID1      ID2
     2.82726384E-02    2     1000022         4   # BR(~c_R -> chi^0_1 c)
     1.52172640E-02    2     1000023         4   # BR(~c_R -> chi^0_2 c)
     7.42020753E-01    2     1000025         4   # BR(~c_R -> chi^0_3 c)
     2.14326849E-01    2     1000035         4   # BR(~c_R -> chi^0_4 c)
     1.04975641E-04    2     1000024         3   # BR(~c_R -> chi^+_1 s)
DECAY   1000004     4.02539973E+01   # ~c_L
#    BR                NDA      ID1      ID2
     2.74269259E-02    2     1000022         4   # BR(~c_L -> chi^0_1 c)
     1.45901189E-02    2     1000023         4   # BR(~c_L -> chi^0_2 c)
     1.44139373E-01    2     1000025         4   # BR(~c_L -> chi^0_3 c)
     1.53834204E-01    2     1000035         4   # BR(~c_L -> chi^0_4 c)
     2.37276020E-01    2     1000024         3   # BR(~c_L -> chi^+_1 s)
     4.22733359E-01    2     1000037         3   # BR(~c_L -> chi^+_2 s)
DECAY   1000006     8.77087495E+01   # ~t_1
#    BR                NDA      ID1      ID2
     3.60335120E-03    2     1000022         4   # BR(~t_1 -> chi^0_1 c)
     1.28297817E-01    2     1000022         6   # BR(~t_1 -> chi^0_1 t)
     1.91214118E-03    2     1000023         4   # BR(~t_1 -> chi^0_2 c)
     2.61230674E-01    2     1000023         6   # BR(~t_1 -> chi^0_2 t)
     4.32233271E-02    2     1000025         6   # BR(~t_1 -> chi^0_3 t)
     1.29483923E-01    2     1000035         6   # BR(~t_1 -> chi^0_4 t)
     2.76041401E-01    2     1000024         5   # BR(~t_1 -> chi^+_1 b)
     1.36880033E-01    2     1000037         5   # BR(~t_1 -> chi^+_2 b)
#    BR                NDA      ID1      ID2       ID3
     1.92588865E-02    3     1000022        24         5   # BR(~t_1 -> chi^0_1 W^+ b)
DECAY   2000006     1.61078605E+02   # ~t_2
#    BR                NDA      ID1      ID2
     1.21066171E-01    2     1000022         6   # BR(~t_2 -> chi^0_1 t)
     2.56326147E-01    2     1000023         6   # BR(~t_2 -> chi^0_2 t)
     3.70503602E-02    2     1000025         6   # BR(~t_2 -> chi^0_3 t)
     9.10998376E-02    2     1000035         6   # BR(~t_2 -> chi^0_4 t)
     2.96101725E-01    2     1000024         5   # BR(~t_2 -> chi^+_1 b)
     1.61341067E-01    2     1000037         5   # BR(~t_2 -> chi^+_2 b)
     3.22021828E-02    2     1000021         6   # BR(~t_2 -> ~g t)
     1.56964088E-03    2     2000005        24   # BR(~t_2 -> ~b_2 W^+)
     3.46610943E-04    2     1000005        37   # BR(~t_2 -> ~b_1 H^+)
     7.80125072E-04    2     1000006        23   # BR(~t_2 -> ~t_1 Z)
     2.03409028E-03    2     1000006        25   # BR(~t_2 -> ~t_1 h^0)
DECAY   1000024     5.19470147E-07   # chi^+_1
#    BR                NDA      ID1      ID2       ID3
     3.41002344E-01    3     1000022        -1         2   # BR(chi^+_1 -> chi^0_1 d_bar u)
     3.26027769E-01    3     1000022        -3         4   # BR(chi^+_1 -> chi^0_1 s_bar c)
     1.13855533E-01    3     1000022       -11        12   # BR(chi^+_1 -> chi^0_1 e^+ nu_e)
     1.13820121E-01    3     1000022       -13        14   # BR(chi^+_1 -> chi^0_1 mu^+ nu_mu)
     1.05294233E-01    3     1000022       -15        16   # BR(chi^+_1 -> chi^0_1 tau^+ nu_tau)
DECAY   1000037     9.48249843E-01   # chi^+_2
#    BR                NDA      ID1      ID2
     2.08890636E-01    2     1000022        24   # BR(chi^+_2 -> chi^0_1 W^+)
     4.78181153E-01    2     1000023        24   # BR(chi^+_2 -> chi^0_2 W^+)
     2.28444533E-01    2     1000024        23   # BR(chi^+_2 -> chi^+_1 Z)
     8.44196499E-02    2     1000024        25   # BR(chi^+_2 -> chi^+_1 h^0)
#    BR                NDA      ID1      ID2       ID3
DECAY   1000022     0.00000000E+00   # chi^0_1
DECAY   1000023     3.04973182E-04   # chi^0_2
#    BR                NDA      ID1      ID2
     8.28912102E-03    2     1000022        22   # BR(chi^0_2 -> chi^0_1 photon)
#    BR                NDA      ID1      ID2       ID3
     7.60138977E-02    3     1000022         2        -2   # BR(chi^0_2 -> chi^0_1 u u_bar)
     7.51922698E-02    3     1000022         4        -4   # BR(chi^0_2 -> chi^0_1 c c_bar)
     9.74392806E-02    3     1000022         1        -1   # BR(chi^0_2 -> chi^0_1 d d_bar)
     9.74342677E-02    3     1000022         3        -3   # BR(chi^0_2 -> chi^0_1 s s_bar)
     8.88315337E-02    3     1000022         5        -5   # BR(chi^0_2 -> chi^0_1 b b_bar)
     2.19718952E-02    3     1000022        11       -11   # BR(chi^0_2 -> chi^0_1 e^- e^+)
     2.19708056E-02    3     1000022        13       -13   # BR(chi^0_2 -> chi^0_1 mu^- mu^+)
     2.20030008E-02    3     1000022        15       -15   # BR(chi^0_2 -> chi^0_1 tau^- tau^+)
     1.30700828E-01    3     1000022        12       -12   # BR(chi^0_2 -> chi^0_1 nu_e nu_bar_e)
     6.02376220E-02    3     1000024         1        -2   # BR(chi^0_2 -> chi^+_1 d u_bar)
     6.02376220E-02    3    -1000024        -1         2   # BR(chi^0_2 -> chi^-_1 d_bar u)
     5.97169859E-02    3     1000024         3        -4   # BR(chi^0_2 -> chi^+_1 s c_bar)
     5.97169859E-02    3    -1000024        -3         4   # BR(chi^0_2 -> chi^-_1 s_bar c)
     2.01069230E-02    3     1000024        11       -12   # BR(chi^0_2 -> chi^+_1 e^- nu_bar_e)
     2.01069230E-02    3    -1000024       -11        12   # BR(chi^0_2 -> chi^-_1 e^+ nu_e)
     2.01062065E-02    3     1000024        13       -14   # BR(chi^0_2 -> chi^+_1 mu^- nu_bar_mu)
     2.01062065E-02    3    -1000024       -13        14   # BR(chi^0_2 -> chi^-_1 mu^+ nu_mu)
     1.99088126E-02    3     1000024        15       -16   # BR(chi^0_2 -> chi^+_1 tau^- nu_bar_tau)
     1.99088126E-02    3    -1000024       -15        16   # BR(chi^0_2 -> chi^-_1 tau^+ nu_tau)
DECAY   1000025     2.64720778E-01   # chi^0_3
#    BR                NDA      ID1      ID2
     4.99808800E-01    2     1000024       -24   # BR(chi^0_3 -> chi^+_1 W^-)
     4.99808800E-01    2    -1000024        24   # BR(chi^0_3 -> chi^-_1 W^+)
     1.85535812E-04    2     1000022        23   # BR(chi^0_3 -> chi^0_1 Z)
#    BR                NDA      ID1      ID2       ID3
DECAY   1000035     9.77246256E-01   # chi^0_4
#    BR                NDA      ID1      ID2
     2.30761508E-01    2     1000024       -24   # BR(chi^0_4 -> chi^+_1 W^-)
     2.30761508E-01    2    -1000024        24   # BR(chi^0_4 -> chi^-_1 W^+)
     4.22288374E-02    2     1000022        23   # BR(chi^0_4 -> chi^0_1 Z)
     3.88498489E-01    2     1000023        23   # BR(chi^0_4 -> chi^0_2 Z)
     3.74891377E-02    2     1000022        25   # BR(chi^0_4 -> chi^0_1 h^0)
     7.02143640E-02    2     1000023        25   # BR(chi^0_4 -> chi^0_2 h^0)
#    BR                NDA      ID1      ID2       ID3
DECAY   1000021     2.33870695E+02   # ~g
#    BR                NDA      ID1      ID2
     4.74937325E-02    2     2000002        -2   # BR(~g -> ~u_R u_bar)
     4.74937325E-02    2    -2000002         2   # BR(~g -> ~u^*_R u)
     6.04983816E-03    2     1000002        -2   # BR(~g -> ~u_L u_bar)
     6.04983816E-03    2    -1000002         2   # BR(~g -> ~u^*_L u)
     4.74937473E-02    2     2000004        -4   # BR(~g -> ~c_R c_bar)
     4.74937473E-02    2    -2000004         4   # BR(~g -> ~c^*_R c)
     6.04992756E-03    2     1000004        -4   # BR(~g -> ~c_L c_bar)
     6.04992756E-03    2    -1000004         4   # BR(~g -> ~c^*_L c)
     3.65163180E-02    2     1000006        -4   # BR(~g -> ~t_1 c_bar)
     3.65163180E-02    2    -1000006         4   # BR(~g -> ~t^*_1 c)
     8.43566435E-02    2     1000006        -6   # BR(~g -> ~t_1 t_bar)
     8.43566435E-02    2    -1000006         6   # BR(~g -> ~t^*_1 t)
     1.45114566E-02    2     2000001        -1   # BR(~g -> ~d_R d_bar)
     1.45114566E-02    2    -2000001         1   # BR(~g -> ~d^*_R d)
     6.00689506E-03    2     1000001        -1   # BR(~g -> ~d_L d_bar)
     6.00689506E-03    2    -1000001         1   # BR(~g -> ~d^*_L d)
     1.45118436E-02    2     2000003        -3   # BR(~g -> ~s_R s_bar)
     1.45118436E-02    2    -2000003         3   # BR(~g -> ~s^*_R s)
     6.00703695E-03    2     1000003        -3   # BR(~g -> ~s_L s_bar)
     6.00703695E-03    2    -1000003         3   # BR(~g -> ~s^*_L s)
     1.45519807E-01    2     1000005        -5   # BR(~g -> ~b_1 b_bar)
     1.45519807E-01    2    -1000005         5   # BR(~g -> ~b^*_1 b)
     8.49914287E-02    2     2000005        -5   # BR(~g -> ~b_2 b_bar)
     8.49914287E-02    2    -2000005         5   # BR(~g -> ~b^*_2 b)
#    BR                NDA      ID1      ID2       ID3
     1.17565180E-04    3     1000022         6        -6   # BR(~g -> chi^0_1 t t_bar)
     2.50596684E-04    3     1000023         6        -6   # BR(~g -> chi^0_2 t t_bar)
     1.47842329E-04    3     1000024         5        -6   # BR(~g -> chi^+_1 b t_bar)
     1.47842329E-04    3    -1000024        -5         6   # BR(~g -> chi^-_1 b_bar t)
DECAY        25     3.60394108E-02   # Gamma(h0)
     2.32754466E-04   2        22        22   # BR(h0 -> photon photon)
     1.19559527E-04   2        22        23   # BR(h0 -> photon Z)
     1.79456868E-03   2        23        23   # BR(h0 -> Z Z)
     1.60382668E-02   2       -24        24   # BR(h0 -> W W)
     7.13659461E-03   2        21        21   # BR(h0 -> gluon gluon)
     5.48020062E-10   2       -11        11   # BR(h0 -> Electron electron)
     2.43766783E-05   2       -13        13   # BR(h0 -> Muon muon)
     7.01334110E-03   2       -15        15   # BR(h0 -> Tau tau)
     1.52943605E-08   2        -2         2   # BR(h0 -> Up up)
     2.96768090E-03   2        -4         4   # BR(h0 -> Charm charm)
     6.39517162E-08   2        -1         1   # BR(h0 -> Down down)
     2.31298732E-05   2        -3         3   # BR(h0 -> Strange strange)
     6.16234860E-02   2        -5         5   # BR(h0 -> Bottom bottom)
     6.76258705E-02   2  -1000024   1000024   # BR(h0 -> Chargino1 chargino1)
     4.13195769E-01   2   1000022   1000022   # BR(h0 -> neutralino1 neutralino1)
     4.22204522E-01   2   1000022   1000023   # BR(h0 -> neutralino1 neutralino2)
DECAY        35     4.67780412E+01   # Gamma(HH)
     2.20938524E-07   2        22        22   # BR(HH -> photon photon)
     4.97206435E-07   2        22        23   # BR(HH -> photon Z)
     9.75324782E-07   2        23        23   # BR(HH -> Z Z)
     1.06547075E-06   2       -24        24   # BR(HH -> W W)
     2.71448962E-05   2        21        21   # BR(HH -> gluon gluon)
     7.06101075E-09   2       -11        11   # BR(HH -> Electron electron)
     3.14300008E-04   2       -13        13   # BR(HH -> Muon muon)
     8.98526622E-02   2       -15        15   # BR(HH -> Tau tau)
     4.62117244E-14   2        -2         2   # BR(HH -> Up up)
     8.96235054E-09   2        -4         4   # BR(HH -> Charm charm)
     6.06389536E-04   2        -6         6   # BR(HH -> Top top)
     6.00357357E-07   2        -1         1   # BR(HH -> Down down)
     2.17150290E-04   2        -3         3   # BR(HH -> Strange strange)
     5.83745963E-01   2        -5         5   # BR(HH -> Bottom bottom)
     7.49070450E-02   2  -1000024   1000024   # BR(HH -> Chargino1 chargino1)
     6.00191958E-02   2  -1000024   1000037   # BR(HH -> Chargino1 chargino2)
     6.00191958E-02   2  -1000037   1000024   # BR(HH -> Chargino2 chargino1)
     4.04534663E-03   2  -1000037   1000037   # BR(HH -> Chargino2 chargino2)
     1.99011588E-02   2   1000022   1000022   # BR(HH -> neutralino1 neutralino1)
     2.67158020E-04   2   1000022   1000023   # BR(HH -> neutralino1 neutralino2)
     1.99481710E-03   2   1000022   1000025   # BR(HH -> neutralino1 neutralino3)
     5.71565532E-02   2   1000022   1000035   # BR(HH -> neutralino1 neutralino4)
     6.75315358E-03   2   1000023   1000023   # BR(HH -> neutralino2 neutralino2)
     1.41486053E-03   2   1000023   1000025   # BR(HH -> neutralino2 neutralino3)
     3.59591494E-02   2   1000023   1000035   # BR(HH -> neutralino2 neutralino4)
     7.93412070E-06   2   1000025   1000025   # BR(HH -> neutralino3 neutralino3)
     2.93297757E-04   2   1000025   1000035   # BR(HH -> neutralino3 neutralino4)
     2.48686561E-03   2   1000035   1000035   # BR(HH -> neutralino4 neutralino4)
     7.28284905E-06   2        25        25   # BR(HH -> h0 h0)
DECAY        36     4.52515991E+01   # Gamma(A0)
     2.07844788E-08   2        22        22   # BR(A0 -> photon photon)
     2.42059765E-07   2        22        23   # BR(A0 -> photon Z)
     4.21776004E-05   2        21        21   # BR(A0 -> gluon gluon)
     6.94372108E-09   2       -11        11   # BR(A0 -> Electron electron)
     3.09079128E-04   2       -13        13   # BR(A0 -> Muon muon)
     8.83595035E-02   2       -15        15   # BR(A0 -> Tau tau)
     4.35729502E-14   2        -2         2   # BR(A0 -> Up up)
     8.44880424E-09   2        -4         4   # BR(A0 -> Charm charm)
     6.28765946E-04   2        -6         6   # BR(A0 -> Top top)
     5.90346229E-07   2        -1         1   # BR(A0 -> Down down)
     2.13529319E-04   2        -3         3   # BR(A0 -> Strange strange)
     5.74032722E-01   2        -5         5   # BR(A0 -> Bottom bottom)
     7.63371258E-02   2  -1000024   1000024   # BR(A0 -> Chargino1 chargino1)
     6.31962452E-02   2  -1000024   1000037   # BR(A0 -> Chargino1 chargino2)
     6.31962452E-02   2  -1000037   1000024   # BR(A0 -> Chargino2 chargino1)
     3.10759577E-03   2  -1000037   1000037   # BR(A0 -> Chargino2 chargino2)
     1.94940807E-02   2   1000022   1000022   # BR(A0 -> neutralino1 neutralino1)
     9.09523335E-05   2   1000022   1000023   # BR(A0 -> neutralino1 neutralino2)
     2.02510390E-03   2   1000022   1000025   # BR(A0 -> neutralino1 neutralino3)
     5.80402213E-02   2   1000022   1000035   # BR(A0 -> neutralino1 neutralino4)
     8.07256329E-03   2   1000023   1000023   # BR(A0 -> neutralino2 neutralino2)
     1.53612051E-03   2   1000023   1000025   # BR(A0 -> neutralino2 neutralino3)
     3.90105816E-02   2   1000023   1000035   # BR(A0 -> neutralino2 neutralino4)
     6.69594693E-06   2   1000025   1000025   # BR(A0 -> neutralino3 neutralino3)
     2.45952006E-04   2   1000025   1000035   # BR(A0 -> neutralino3 neutralino4)
     2.05247150E-03   2   1000035   1000035   # BR(A0 -> neutralino4 neutralino4)
     1.39846168E-06   2        23        25   # BR(A0 -> Z h0)
     7.74762815E-41   2        25        25   # BR(A0 -> h0 h0)
DECAY        37     4.45005193E+01   # Gamma(Hp)
     7.74394512E-09   2       -11        12   # BR(Hp -> Electron nu_e)
     3.31077836E-04   2       -13        14   # BR(Hp -> Muon nu_mu)
     9.36472874E-02   2       -15        16   # BR(Hp -> Tau nu_tau)
     5.63893339E-07   2        -1         2   # BR(Hp -> Down up)
     9.40996799E-06   2        -3         2   # BR(Hp -> Strange up)
     6.13271914E-06   2        -5         2   # BR(Hp -> Bottom up)
     2.64329769E-08   2        -1         4   # BR(Hp -> Down charm)
     2.03228723E-04   2        -3         4   # BR(Hp -> Strange charm)
     8.58798458E-04   2        -5         4   # BR(Hp -> Bottom charm)
     4.20963989E-08   2        -1         6   # BR(Hp -> Down top)
     1.20471461E-06   2        -3         6   # BR(Hp -> Strange top)
     5.65471638E-01   2        -5         6   # BR(Hp -> Bottom top)
     7.62622552E-05   2   1000022   1000024   # BR(Hp -> neutralino1 chargino1)
     1.38678659E-01   2   1000022   1000037   # BR(Hp -> neutralino1 chargino2)
     1.16582445E-02   2   1000023   1000024   # BR(Hp -> neutralino2 chargino1)
     6.17338452E-02   2   1000023   1000037   # BR(Hp -> neutralino2 chargino2)
     1.09158085E-01   2   1000024   1000025   # BR(Hp -> chargino1 neutralino3)
     1.79140207E-03   2   1000025   1000037   # BR(Hp -> neutralino3 chargino2)
     1.55934357E-02   2   1000024   1000035   # BR(Hp -> chargino1 neutralino4)
     7.79218024E-04   2   1000035   1000037   # BR(Hp -> neutralino4 chargino2)
     1.43039029E-06   2        24        25   # BR(Hp -> W h0)
     1.22088290E-13   2        24        35   # BR(Hp -> W HH)
DECAY         6     2.43000000E+00   # top
#    BR                NDA      ID1      ID2
     1.00000000E+00    2           5        24   # BR(t -> b W)
Block HiggsBoundsInputHiggsCouplingsFermions
# ScalarNormEffCoupSq PseudoSNormEffCoupSq NP IP1 IP2 IP2
    9.84315871E-01    0.00000000E+00        3  25   5   5  # h0-b-b eff. coupling^2, normalised to SM
    1.67541476E+03    0.00000000E+00        3  35   5   5  # H0-b-b eff. coupling^2, normalised to SM
    0.00000000E+00    1.67539908E+03        3  36   5   5  # A0-b-b eff. coupling^2, normalised to SM
#
    1.00000936E+00    0.00000000E+00        3  25   6   6  # h0-t-t eff. coupling^2, normalised to SM
    5.87511288E-04    0.00000000E+00        3  35   6   6  # H0-t-t eff. coupling^2, normalised to SM
    0.00000000E+00    5.96872717E-04        3  36   6   6  # A0-t-t eff. coupling^2, normalised to SM
#
    9.84315871E-01    0.00000000E+00        3  25  15  15  # h0-tau-tau eff. coupling^2, normalised to SM
    1.67541476E+03    0.00000000E+00        3  35  15  15  # H0-tau-tau eff. coupling^2, normalised to SM
    0.00000000E+00    1.67539908E+03        3  36  15  15  # A0-tau-tau eff. coupling^2, normalised to SM
#
Block HiggsBoundsInputHiggsCouplingsBosons
    9.99999963E-01        3  25  24  24  # h0-W-W eff. coupling^2, normalised to SM
    3.69969980E-08        3  35  24  24  # H0-W-W eff. coupling^2, normalised to SM
    0.00000000E+00        3  36  24  24  # A0-W-W eff. coupling^2, normalised to SM
#
    9.99999963E-01        3  25  23  23  # h0-Z-Z eff. coupling^2, normalised to SM
    3.69969980E-08        3  35  23  23  # H0-Z-Z eff. coupling^2, normalised to SM
    0.00000000E+00        3  36  23  23  # A0-Z-Z eff. coupling^2, normalised to SM
#
    1.26446153E+00        3  25  21  21  # h0-g-g eff. coupling^2, normalised to SM
    1.80920339E-02        3  35  21  21  # H0-g-g eff. coupling^2, normalised to SM
    1.51817165E-01        3  36  21  21  # A0-g-g eff. coupling^2, normalised to SM
#
    0.00000000E+00        3  25  25  23  # h0-h0-Z eff. coupling^2, normalised to SM
    0.00000000E+00        3  35  25  23  # H0-h0-Z eff. coupling^2, normalised to SM
    3.69969980E-08        3  36  25  23  # A0-h0-Z eff. coupling^2, normalised to SM
    0.00000000E+00        3  35  35  23  # H0-H0-Z eff. coupling^2, normalised to SM
    9.99999963E-01        3  36  35  23  # A0-H0-Z eff. coupling^2, normalised to SM
    0.00000000E+00        3  36  36  23  # A0-A0-Z eff. coupling^2, normalised to SM
#
    0.00000000E+00        4  25  21  21  23  # h0-g-g-Z eff. coupling^2, normalised to SM
    0.00000000E+00        4  35  21  21  23  # H0-g-g-Z eff. coupling^2, normalised to SM
    0.00000000E+00        4  36  21  21  23  # A0-g-g-Z eff. coupling^2, normalised to SM
Block SPhenoLowEnergy  # low energy observables
    1    3.51167302E-04   # BR(b -> s gamma)
    2    1.58660175E-06   # BR(b -> s mu+ mu-)
    3    3.52320579E-05   # BR(b -> s nu nu)
    4    2.29161769E-15   # BR(Bd -> e+ e-)
    5    9.78954896E-11   # BR(Bd -> mu+ mu-)
    6    2.05047094E-08   # BR(Bd -> tau+ tau-)
    7    7.89269912E-14   # BR(Bs -> e+ e-)
    8    3.37176530E-09   # BR(Bs -> mu+ mu-)
    9    7.15593796E-07   # BR(Bs -> tau+ tau-)
   10    9.00487230E-05   # BR(B_u -> tau nu)
   11    9.30168834E-01   # BR(B_u -> tau nu)/BR(B_u -> tau nu)_SM
   12    5.42009126E-01   # |Delta(M_Bd)| [ps^-1] 
   13    1.93327657E+01   # |Delta(M_Bs)| [ps^-1] 
   14    0.00000000E+00   # neutron EDM according to the chiral quark model
   15    0.00000000E+00   # neutron EDM according to the relativistic quark-parton model
   16    2.15777453E-03   # epsilon_K
   17    2.28167131E-15   # Delta(M_K)
   18    2.47842404E-11   # BR(K^0 -> pi^0 nu nu)
   19    8.28670107E-11   # BR(K^+ -> pi^+ nu nu)
   20   -1.59639212E-14   # Delta(g-2)_electron/2
   21   -6.82548747E-10   # Delta(g-2)_muon/2
   22   -3.73639246E-07   # Delta(g-2)_tau/2
   23    0.00000000E+00   # electric dipole moment of the electron
   24    0.00000000E+00   # electric dipole moment of the muon
   25    0.00000000E+00   # electric dipole moment of the tau
   26    0.00000000E+00   # Br(mu -> e gamma)
   27    0.00000000E+00   # Br(tau -> e gamma)
   28    0.00000000E+00   # Br(tau -> mu gamma)
   29    0.00000000E+00   # Br(mu -> 3 e)
   30    0.00000000E+00   # Br(tau -> 3 e)
   31    0.00000000E+00   # Br(tau -> 3 mu)
   39    9.57103474E-05   # Delta(rho_parameter)
   40    0.00000000E+00   # BR(Z -> e mu)
   41    0.00000000E+00   # BR(Z -> e tau)
   42    0.00000000E+00   # BR(Z -> mu tau)
Block FWCOEF Q=  1.60000000E+02  # Wilson coefficients at scale Q
#    id        order  M        value         comment
     0305 4422   00   0    -1.88819110E-01   # C7
     0305 4422   00   2    -2.20729714E-01   # C7
     0305 4322   00   2    -6.21796580E-04   # C7'
     0305 6421   00   0    -9.52278348E-02   # C8
     0305 6421   00   2    -1.28527580E-01   # C8
     0305 6321   00   2    -6.58583397E-04   # C8'
 03051111 4133   00   0     1.61327552E+00   # C9 e+e-
 03051111 4133   00   2     1.61367194E+00   # C9 e+e-
 03051111 4233   00   2     1.43240861E-04   # C9' e+e-
 03051111 4137   00   0    -4.43596763E+00   # C10 e+e-
 03051111 4137   00   2    -4.43212653E+00   # C10 e+e-
 03051111 4237   00   2    -1.07787267E-03   # C10' e+e-
 03051313 4133   00   0     1.61327552E+00   # C9 mu+mu-
 03051313 4133   00   2     1.61367009E+00   # C9 mu+mu-
 03051313 4233   00   2     1.43230648E-04   # C9' mu+mu-
 03051313 4137   00   0    -4.43596763E+00   # C10 mu+mu-
 03051313 4137   00   2    -4.43212837E+00   # C10 mu+mu-
 03051313 4237   00   2    -1.07786735E-03   # C10' mu+mu-
 03051212 4137   00   0     1.50535012E+00   # C11 nu_1 nu_1
 03051212 4137   00   2     1.50455873E+00   # C11 nu_1 nu_1
 03051212 4237   00   2     2.33774481E-04   # C11' nu_1 nu_1
 03051414 4137   00   0     1.50535012E+00   # C11 nu_2 nu_2
 03051414 4137   00   2     1.50455873E+00   # C11 nu_2 nu_2
 03051414 4237   00   2     2.33776446E-04   # C11' nu_2 nu_2
 03051616 4137   00   0     1.50535012E+00   # C11 nu_3 nu_3
 03051616 4137   00   2     1.50456041E+00   # C11 nu_3 nu_3
 03051616 4237   00   2     2.34329821E-04   # C11' nu_3 nu_3
Block IMFWCOEF Q=  1.60000000E+02  # Im(Wilson coefficients) at scale Q
#    id        order  M        value         comment
     0305 4422   00   0     3.85820031E-07   # C7
     0305 4422   00   2    -2.38253045E-05   # C7
     0305 4322   00   2    -1.52337551E-06   # C7'
     0305 6421   00   0     3.30480372E-07   # C8
     0305 6421   00   2     7.84597410E-06   # C8
     0305 6321   00   2    -2.54986038E-07   # C8'
 03051111 4133   00   2     3.29782277E-07   # C9 e+e-
 03051111 4233   00   2     5.72582643E-06   # C9' e+e-
 03051111 4137   00   2     2.76626745E-06   # C10 e+e-
 03051111 4237   00   2    -4.31666056E-05   # C10' e+e-
 03051313 4133   00   2     3.29655546E-07   # C9 mu+mu-
 03051313 4233   00   2     5.72580681E-06   # C9' mu+mu-
 03051313 4137   00   2     2.76639595E-06   # C10 mu+mu-
 03051313 4237   00   2    -4.31666734E-05   # C10' mu+mu-
 03051212 4137   00   2     1.64820170E-07   # C11 nu_1 nu_1
 03051212 4237   00   2     9.36234633E-06   # C11' nu_1 nu_1
 03051414 4137   00   2     1.64825591E-07   # C11 nu_2 nu_2
 03051414 4237   00   2     9.36234633E-06   # C11' nu_2 nu_2
 03051616 4137   00   2     1.92812745E-07   # C11 nu_3 nu_3
 03051616 4237   00   2     9.36233811E-06   # C11' nu_3 nu_3
