# SUSY Les Houches Accord 2 - MSSM spectrum + Decays
# SPheno v4.0.5be
# W. Porod, Comput. Phys. Commun. 153 (2003) 275-315, hep-ph/0301101;
# W. Porod, F.~Staub, Comput. Phys. Commun. 183 (2012) 2458
#                     arXiv:1104.1573 [hep-ph] 
# in case of problems send email to porod@physik.uni-wuerzburg.de
# Created: 15.03.2021,  13:43
Block SPINFO         # Program information
     1   SPheno      # spectrum calculator
     2   v4.0.5be    # version number
#
Block SPhenoINFO     # SPheno specific information
    1      2         # using 2-loop RGEs
    2      2         # using pole masses for boundary conditions at mZ
Block MODSEL  # Model selection
    1    0    # general MSSM
Block MINPAR  # Input parameters
    3    2.52105929E+01  # tanb at m_Z    
    4    1.00000000E+00  # Sign(mu)
Block EXTPAR  # non-universal input parameters
    0    3.95890377E+03  # scale for input parameters
    1   -7.51083752E+02  # M_1
    2   -3.59388756E+02  # M_2
    3    3.97345483E+03  # M_3
   11   -7.48116063E+03  # A_t
   12    1.76757948E+03  # A_b
   13   -9.62620391E+02  # A_tau
   23    1.07362791E+02  # mu
   25    2.42028717E+01  # tan(beta)
   26    1.95738832E+03  # m_A, pole mass
   31    1.00000000E+04  # M_L11
   32    1.00000000E+04  # M_L22
   33    1.00000000E+04  # M_L33
   34    1.00000000E+04  # M_E11
   35    1.00000000E+04  # M_E22
   36    1.00000000E+04  # M_E33
   41    1.00000000E+04  # M_Q11
   42    1.00000000E+04  # M_Q22
   43    4.36878536E+03  # M_Q33
   44    1.00000000E+04  # M_U11
   45    1.00000000E+04  # M_U22
   46    3.53857559E+03  # M_U33
   47    1.00000000E+04  # M_D11
   48    1.00000000E+04  # M_D22
   49    2.59891811E+03  # M_D33
Block SMINPUTS  # SM parameters
         1     1.27908970E+02  # alpha_em^-1(MZ)^MSbar
         2     1.16637870E-05  # G_mu [GeV^-2]
         3     1.18400000E-01  # alpha_s(MZ)^MSbar
         4     9.11876000E+01  # m_Z(pole)
         5     4.18000000E+00  # m_b(m_b), MSbar
         6     1.73200000E+02  # m_t(pole)
         7     1.77700000E+00  # m_tau(pole)
         8     0.00000000E+00  # m_nu_3
        11     5.10998930E-04  # m_e(pole)
        12     0.00000000E+00  # m_nu_1
        13     1.05658372E-01  # m_muon(pole)
        14     0.00000000E+00  # m_nu_2
        21     5.00000000E-03  # m_d(2 GeV), MSbar
        22     2.50000000E-03  # m_u(2 GeV), MSbar
        23     9.50000000E-02  # m_s(2 GeV), MSbar
        24     1.27000000E+00  # m_c(m_c), MSbar
Block gauge Q=  3.95890377E+03  # (SUSY scale)
   1    3.55362975E-01  # g'(Q)^DRbar
   2    6.65198874E-01  # g(Q)^DRbar
   3    1.21977796E+00  # g3(Q)^DRbar
Block Yu Q=  3.95890377E+03  # (SUSY scale)
  1  1     8.39152568E-06   # Y_u(Q)^DRbar
  2  2     4.26289505E-03   # Y_c(Q)^DRbar
  3  3     1.01376370E+00   # Y_t(Q)^DRbar
Block Yd Q=  3.95890377E+03  # (SUSY scale)
  1  1     4.08120184E-04   # Y_d(Q)^DRbar
  2  2     7.75428350E-03   # Y_s(Q)^DRbar
  3  3     4.04727337E-01   # Y_b(Q)^DRbar
Block Ye Q=  3.95890377E+03  # (SUSY scale)
  1  1     7.12199566E-05   # Y_e(Q)^DRbar
  2  2     1.47260282E-02   # Y_mu(Q)^DRbar
  3  3     2.47667569E-01   # Y_tau(Q)^DRbar
Block Au Q=  3.95890377E+03  # (SUSY scale)
  1  1     0.00000000E+00   # A_u(Q)^DRbar
  2  2     0.00000000E+00   # A_c(Q)^DRbar
  3  3    -7.48116054E+03   # A_t(Q)^DRbar
Block Ad Q=  3.95890377E+03  # (SUSY scale)
  1  1     0.00000000E+00   # A_d(Q)^DRbar
  2  2     0.00000000E+00   # A_s(Q)^DRbar
  3  3     1.76757949E+03   # A_b(Q)^DRbar
Block Ae Q=  3.95890377E+03  # (SUSY scale)
  1  1     0.00000000E+00   # A_e(Q)^DRbar
  2  2     0.00000000E+00   # A_mu(Q)^DRbar
  3  3    -9.62620397E+02   # A_tau(Q)^DRbar
Block MSOFT Q=  3.95890377E+03  # soft SUSY breaking masses at Q
   1   -7.51083752E+02  # M_1
   2   -3.59388756E+02  # M_2
   3    3.97345483E+03  # M_3
  21    3.82754628E+06  # M^2_(H,d)
  22    3.16914098E+05  # M^2_(H,u)
  31    1.00000000E+04  # M_(L,11)
  32    1.00000000E+04  # M_(L,22)
  33    1.00000000E+04  # M_(L,33)
  34    1.00000000E+04  # M_(E,11)
  35    1.00000000E+04  # M_(E,22)
  36    1.00000000E+04  # M_(E,33)
  41    1.00000000E+04  # M_(Q,11)
  42    1.00000000E+04  # M_(Q,22)
  43    4.36878536E+03  # M_(Q,33)
  44    1.00000000E+04  # M_(U,11)
  45    1.00000000E+04  # M_(U,22)
  46    3.53857559E+03  # M_(U,33)
  47    1.00000000E+04  # M_(D,11)
  48    1.00000000E+04  # M_(D,22)
  49    2.59891811E+03  # M_(D,33)
Block MASS  # Mass spectrum
#   PDG code      mass          particle
         6     1.73200000E+02  # m_t(pole)
        23     9.11876000E+01  # m_Z(pole)
        24     8.04299946E+01  # W+
        15     1.77700000E+00  # m_tau(pole)
        25     1.29392504E+02  # h0
        35     1.95704612E+03  # H0
        36     1.95738832E+03  # A0
        37     1.96012405E+03  # H+
   1000001     1.01037763E+04  # ~d_L
   2000001     1.00788112E+04  # ~d_R
   1000002     1.01034137E+04  # ~u_L
   2000002     1.00816650E+04  # ~u_R
   1000003     1.01037774E+04  # ~s_L
   2000003     1.00788128E+04  # ~s_R
   1000004     1.01034149E+04  # ~c_L
   2000004     1.00816656E+04  # ~c_R
   1000005     2.76607731E+03  # ~b_1
   2000005     4.40910898E+03  # ~b_2
   1000006     3.53905264E+03  # ~t_1
   2000006     4.42856342E+03  # ~t_2
   1000011     1.00214164E+04  # ~e_L-
   2000011     1.00090880E+04  # ~e_R-
   1000012     1.00206477E+04  # ~nu_eL
   1000013     1.00214208E+04  # ~mu_L-
   2000013     1.00090965E+04  # ~mu_R-
   1000014     1.00206521E+04  # ~nu_muL
   1000015     1.00115110E+04  # ~tau_1-
   2000015     1.00226726E+04  # ~tau_2-
   1000016     1.00218948E+04  # ~nu_tauL
   1000021     4.45482706E+03  # ~g
   1000022     1.17559309E+02  # ~chi_10
   1000023     1.36554309E+02  # ~chi_20
   1000025     4.13488959E+02  # ~chi_30
   1000035     7.57361712E+02  # ~chi_40
   1000024     1.24993242E+02  # ~chi_1+
   1000037     4.13995309E+02  # ~chi_2+
# Higgs mixing
Block alpha # Effective Higgs mixing angle
          -3.98784163E-02   # alpha
Block Hmix Q=  3.95890377E+03  # Higgs mixing parameters
   1    1.07362791E+02  # mu
   2    2.42028717E+01  # tan[beta](Q)
   3    2.42930070E+02  # v(Q)
   4    3.83136904E+06  # m^2_A(Q)
Block stopmix # stop mixing matrix
   1  1     1.47367679E-01   # Re[R_st(1,1)]
   1  2     9.89081780E-01   # Re[R_st(1,2)]
   2  1    -9.89081780E-01   # Re[R_st(2,1)]
   2  2     1.47367679E-01   # Re[R_st(2,2)]
Block sbotmix # sbottom mixing matrix
   1  1     8.57706725E-05   # Re[R_sb(1,1)]
   1  2     9.99999996E-01   # Re[R_sb(1,2)]
   2  1    -9.99999996E-01   # Re[R_sb(2,1)]
   2  2     8.57706725E-05   # Re[R_sb(2,2)]
Block staumix # stau mixing matrix
   1  1     2.68316675E-02   # Re[R_sta(1,1)]
   1  2     9.99639966E-01   # Re[R_sta(1,2)]
   2  1    -9.99639966E-01   # Re[R_sta(2,1)]
   2  2     2.68316675E-02   # Re[R_sta(2,2)]
Block Nmix # neutralino mixing matrix
   1  1    -4.39420692E-02   # Re[N(1,1)]
   1  2     1.80441960E-01   # Re[N(1,2)]
   1  3    -7.28341619E-01   # Re[N(1,3)]
   1  4    -6.59566736E-01   # Re[N(1,4)]
   2  1     3.73233731E-02   # Re[N(2,1)]
   2  2    -1.13467626E-01   # Re[N(2,2)]
   2  3    -6.82949097E-01   # Re[N(2,3)]
   2  4     7.20633468E-01   # Re[N(2,4)]
   3  1     2.61002092E-02   # Re[N(3,1)]
   3  2     9.76927472E-01   # Re[N(3,2)]
   3  3     5.50954988E-02   # Re[N(3,3)]
   3  4     2.04685074E-01   # Re[N(3,4)]
   4  1    -9.97995411E-01   # Re[N(4,1)]
   4  2     1.33608067E-02   # Re[N(4,2)]
   4  3     7.96885226E-03   # Re[N(4,3)]
   4  4     6.13444927E-02   # Re[N(4,4)]
Block Umix # chargino mixing matrix
   1  1    -8.11402995E-02   # Re[U(1,1)]
   1  2     9.96702690E-01   # Re[U(1,2)]
   2  1    -9.96702690E-01   # Re[U(2,1)]
   2  2    -8.11402995E-02   # Re[U(2,2)]
Block Vmix # chargino mixing matrix
   1  1     2.99362492E-01   # Re[V(1,1)]
   1  2     9.54139454E-01   # Re[V(1,2)]
   2  1     9.54139454E-01   # Re[V(2,1)]
   2  2    -2.99362492E-01   # Re[V(2,2)]
DECAY        23     2.49520000E+00   # Z
DECAY        24     2.08500000E+00   # W
DECAY   2000011     4.97198926E+01   # ~e^-_R
#    BR                NDA      ID1      ID2
     1.95259599E-03    2     1000022        11   # BR(~e^-_R -> chi^0_1 e^-)
     1.40854857E-03    2     1000023        11   # BR(~e^-_R -> chi^0_2 e^-)
     6.86709747E-04    2     1000025        11   # BR(~e^-_R -> chi^0_3 e^-)
     9.95952125E-01    2     1000035        11   # BR(~e^-_R -> chi^0_4 e^-)
DECAY   1000011     1.44334459E+02   # ~e^-_L
#    BR                NDA      ID1      ID2
     7.52767282E-03    2     1000022        11   # BR(~e^-_L -> chi^0_1 e^-)
     2.67233784E-03    2     1000023        11   # BR(~e^-_L -> chi^0_2 e^-)
     2.99031043E-01    2     1000025        11   # BR(~e^-_L -> chi^0_3 e^-)
     8.16283800E-02    2     1000035        11   # BR(~e^-_L -> chi^0_4 e^-)
     4.02281734E-03    2    -1000024        12   # BR(~e^-_L -> chi^-_1 nu_e)
     6.05117749E-01    2    -1000037        12   # BR(~e^-_L -> chi^-_2 nu_e)
#    BR                NDA      ID1      ID2       ID3
DECAY   2000013     4.98062679E+01   # ~mu^-_R
#    BR                NDA      ID1      ID2
     2.40899355E-03    2     1000022        13   # BR(~mu^-_R -> chi^0_1 mu^-)
     1.81032681E-03    2     1000023        13   # BR(~mu^-_R -> chi^0_2 mu^-)
     6.88142063E-04    2     1000025        13   # BR(~mu^-_R -> chi^0_3 mu^-)
     9.94225839E-01    2     1000035        13   # BR(~mu^-_R -> chi^0_4 mu^-)
     8.61009756E-04    2    -1000024        14   # BR(~mu^-_R -> chi^-_1 nu_mu)
DECAY   1000013     1.44377742E+02   # ~mu^-_L
#    BR                NDA      ID1      ID2
     7.68422635E-03    2     1000022        13   # BR(~mu^-_L -> chi^0_1 mu^-)
     2.81115438E-03    2     1000023        13   # BR(~mu^-_L -> chi^0_2 mu^-)
     2.98942435E-01    2     1000025        13   # BR(~mu^-_L -> chi^0_3 mu^-)
     8.16039639E-02    2     1000035        13   # BR(~mu^-_L -> chi^0_4 mu^-)
     4.02161310E-03    2    -1000024        14   # BR(~mu^-_L -> chi^-_1 nu_mu)
     6.04936607E-01    2    -1000037        14   # BR(~mu^-_L -> chi^-_2 nu_mu)
#    BR                NDA      ID1      ID2       ID3
DECAY   1000015     7.42182681E+01   # ~tau^-_1
#    BR                NDA      ID1      ID2
     9.11066269E-02    2     1000022        15   # BR(~tau^-_1 -> chi^0_1 tau^-)
     7.61684807E-02    2     1000023        15   # BR(~tau^-_1 -> chi^0_2 tau^-)
     4.89298646E-04    2     1000025        15   # BR(~tau^-_1 -> chi^0_3 tau^-)
     6.66940397E-01    2     1000035        15   # BR(~tau^-_1 -> chi^0_4 tau^-)
     1.65281061E-01    2    -1000024        16   # BR(~tau^-_1 -> chi^-_1 nu_tau)
DECAY   2000015     1.56519367E+02   # ~tau^-_2
#    BR                NDA      ID1      ID2
     4.71971882E-02    2     1000022        15   # BR(~tau^-_2 -> chi^0_1 tau^-)
     3.96216833E-02    2     1000023        15   # BR(~tau^-_2 -> chi^0_2 tau^-)
     2.76245679E-01    2     1000025        15   # BR(~tau^-_2 -> chi^0_3 tau^-)
     7.54961360E-02    2     1000035        15   # BR(~tau^-_2 -> chi^0_4 tau^-)
     2.85307068E-03    2    -1000024        16   # BR(~tau^-_2 -> chi^-_1 nu_tau)
     5.58586242E-01    2    -1000037        16   # BR(~tau^-_2 -> chi^-_2 nu_tau)
#    BR                NDA      ID1      ID2       ID3
DECAY   1000012     1.44339509E+02   # ~nu_e
#    BR                NDA      ID1      ID2
     1.27028115E-02    2     1000022        12   # BR(~nu_e -> chi^0_1 nu_e)
     5.43634081E-03    2     1000023        12   # BR(~nu_e -> chi^0_2 nu_e)
     2.82404658E-01    2     1000025        12   # BR(~nu_e -> chi^0_3 nu_e)
     9.02266725E-02    2     1000035        12   # BR(~nu_e -> chi^0_4 nu_e)
     5.47524300E-02    2     1000024        11   # BR(~nu_e -> chi^+_1 e^-)
     5.54477088E-01    2     1000037        11   # BR(~nu_e -> chi^+_2 e^-)
#    BR                NDA      ID1      ID2       ID3
DECAY   1000014     1.44382788E+02   # ~nu_mu
#    BR                NDA      ID1      ID2
     1.26990093E-02    2     1000022        14   # BR(~nu_mu -> chi^0_1 nu_mu)
     5.43471361E-03    2     1000023        14   # BR(~nu_mu -> chi^0_2 nu_mu)
     2.82320130E-01    2     1000025        14   # BR(~nu_mu -> chi^0_3 nu_mu)
     9.01996669E-02    2     1000035        14   # BR(~nu_mu -> chi^0_4 nu_mu)
     5.50333937E-02    2     1000024        13   # BR(~nu_mu -> chi^+_1 mu^-)
     5.54313087E-01    2     1000037        13   # BR(~nu_mu -> chi^+_2 mu^-)
#    BR                NDA      ID1      ID2       ID3
DECAY   1000016     1.56583333E+02   # ~nu_tau
#    BR                NDA      ID1      ID2
     1.17109902E-02    2     1000022        16   # BR(~nu_tau -> chi^0_1 nu_tau)
     5.01187752E-03    2     1000023        16   # BR(~nu_tau -> chi^0_2 nu_tau)
     2.60355021E-01    2     1000025        16   # BR(~nu_tau -> chi^0_3 nu_tau)
     8.31821071E-02    2     1000035        16   # BR(~nu_tau -> chi^0_4 nu_tau)
     1.28043511E-01    2     1000024        15   # BR(~nu_tau -> chi^+_1 tau^-)
     5.11696493E-01    2     1000037        15   # BR(~nu_tau -> chi^+_2 tau^-)
#    BR                NDA      ID1      ID2       ID3
DECAY   2000001     5.20637569E+02   # ~d_R
#    BR                NDA      ID1      ID2
     1.06432532E-02    2     1000035         1   # BR(~d_R -> chi^0_4 d)
     9.89313368E-01    2     1000021         1   # BR(~d_R -> ~g d)
DECAY   1000001     6.51957963E+02   # ~d_L
#    BR                NDA      ID1      ID2
     2.41714352E-03    2     1000022         1   # BR(~d_L -> chi^0_1 d)
     9.83798041E-04    2     1000023         1   # BR(~d_L -> chi^0_2 d)
     6.42678565E-02    2     1000025         1   # BR(~d_L -> chi^0_3 d)
     2.46258800E-03    2     1000035         1   # BR(~d_L -> chi^0_4 d)
     8.97919838E-04    2    -1000024         2   # BR(~d_L -> chi^-_1 u)
     1.35073157E-01    2    -1000037         2   # BR(~d_L -> chi^-_2 u)
     7.93897537E-01    2     1000021         1   # BR(~d_L -> ~g d)
DECAY   2000003     5.20661769E+02   # ~s_R
#    BR                NDA      ID1      ID2
     1.06427617E-02    2     1000035         3   # BR(~s_R -> chi^0_4 s)
     9.89267694E-01    2     1000021         3   # BR(~s_R -> ~g s)
DECAY   1000003     6.51973788E+02   # ~s_L
#    BR                NDA      ID1      ID2
     2.42688921E-03    2     1000022         3   # BR(~s_L -> chi^0_1 s)
     9.92393848E-04    2     1000023         3   # BR(~s_L -> chi^0_2 s)
     6.42663597E-02    2     1000025         3   # BR(~s_L -> chi^0_3 s)
     2.46252968E-03    2     1000035         3   # BR(~s_L -> chi^0_4 s)
     9.02996606E-04    2    -1000024         4   # BR(~s_L -> chi^-_1 c)
     1.35070394E-01    2    -1000037         4   # BR(~s_L -> chi^-_2 c)
     7.93878437E-01    2     1000021         3   # BR(~s_L -> ~g s)
DECAY   1000005     1.92014632E+01   # ~b_1
#    BR                NDA      ID1      ID2
     2.48299060E-01    2     1000022         5   # BR(~b_1 -> chi^0_1 b)
     2.17996022E-01    2     1000023         5   # BR(~b_1 -> chi^0_2 b)
     1.40939597E-03    2     1000025         5   # BR(~b_1 -> chi^0_3 b)
     6.85700695E-02    2     1000035         5   # BR(~b_1 -> chi^0_4 b)
     4.60806111E-01    2    -1000024         6   # BR(~b_1 -> chi^-_1 t)
     2.91934182E-03    2    -1000037         6   # BR(~b_1 -> chi^-_2 t)
DECAY   2000005     2.18125540E+02   # ~b_2
#    BR                NDA      ID1      ID2
     3.80400262E-02    2     1000022         5   # BR(~b_2 -> chi^0_1 b)
     3.19480246E-02    2     1000023         5   # BR(~b_2 -> chi^0_2 b)
     8.28321436E-02    2     1000025         5   # BR(~b_2 -> chi^0_3 b)
     3.06357571E-03    2     1000035         5   # BR(~b_2 -> chi^0_4 b)
     3.75550343E-01    2    -1000024         6   # BR(~b_2 -> chi^-_1 t)
     2.10577672E-01    2    -1000037         6   # BR(~b_2 -> chi^-_2 t)
     2.57986609E-01    2     1000006       -24   # BR(~b_2 -> ~t_1 W^-)
DECAY   2000002     5.37622805E+02   # ~u_R
#    BR                NDA      ID1      ID2
     4.12399330E-02    2     1000035         2   # BR(~u_R -> chi^0_4 u)
     9.58592482E-01    2     1000021         2   # BR(~u_R -> ~g u)
DECAY   1000002     6.51941269E+02   # ~u_L
#    BR                NDA      ID1      ID2
     2.03194781E-03    2     1000022         2   # BR(~u_L -> chi^0_1 u)
     7.78072437E-04    2     1000023         2   # BR(~u_L -> chi^0_2 u)
     6.55019115E-02    2     1000025         2   # BR(~u_L -> chi^0_3 u)
     1.82195769E-03    2     1000035         2   # BR(~u_L -> chi^0_4 u)
     1.22223989E-02    2     1000024         1   # BR(~u_L -> chi^+_1 d)
     1.23781838E-01    2     1000037         1   # BR(~u_L -> chi^+_2 d)
     7.93861873E-01    2     1000021         2   # BR(~u_L -> ~g u)
DECAY   2000004     5.37630120E+02   # ~c_R
#    BR                NDA      ID1      ID2
     4.12393967E-02    2     1000035         4   # BR(~c_R -> chi^0_4 c)
     9.58579494E-01    2     1000021         4   # BR(~c_R -> ~g c)
DECAY   1000004     6.51957072E+02   # ~c_L
#    BR                NDA      ID1      ID2
     2.03433580E-03    2     1000022         4   # BR(~c_L -> chi^0_1 c)
     7.80962419E-04    2     1000023         4   # BR(~c_L -> chi^0_2 c)
     6.55005603E-02    2     1000025         4   # BR(~c_L -> chi^0_3 c)
     1.82193479E-03    2     1000035         4   # BR(~c_L -> chi^0_4 c)
     1.22404639E-02    2     1000024         3   # BR(~c_L -> chi^+_1 s)
     1.23778974E-01    2     1000037         3   # BR(~c_L -> chi^+_2 s)
     7.93842769E-01    2     1000021         4   # BR(~c_L -> ~g c)
DECAY   1000006     1.50151809E+02   # ~t_1
#    BR                NDA      ID1      ID2
     1.99468841E-01    2     1000022         6   # BR(~t_1 -> chi^0_1 t)
     2.41953018E-01    2     1000023         6   # BR(~t_1 -> chi^0_2 t)
     3.40556720E-02    2     1000025         6   # BR(~t_1 -> chi^0_3 t)
     4.98086039E-02    2     1000035         6   # BR(~t_1 -> chi^0_4 t)
     4.03904460E-01    2     1000024         5   # BR(~t_1 -> chi^+_1 b)
     7.07157551E-02    2     1000037         5   # BR(~t_1 -> chi^+_2 b)
#    BR                NDA      ID1      ID2       ID3
DECAY   2000006     2.34636815E+02   # ~t_2
#    BR                NDA      ID1      ID2
     1.76711253E-01    2     1000022         6   # BR(~t_2 -> chi^0_1 t)
     2.05529408E-01    2     1000023         6   # BR(~t_2 -> chi^0_2 t)
     8.19862837E-02    2     1000025         6   # BR(~t_2 -> chi^0_3 t)
     2.64902986E-03    2     1000035         6   # BR(~t_2 -> chi^0_4 t)
     1.02896455E-01    2     1000024         5   # BR(~t_2 -> chi^+_1 b)
     1.25806897E-01    2     1000037         5   # BR(~t_2 -> chi^+_2 b)
     1.24248849E-01    2     1000006        23   # BR(~t_2 -> ~t_1 Z)
     1.80171415E-01    2     1000006        25   # BR(~t_2 -> ~t_1 h^0)
DECAY   1000024     8.69328589E-08   # chi^+_1
#    BR                NDA      ID1      ID2       ID3
     3.58691393E-01    3     1000022        -1         2   # BR(chi^+_1 -> chi^0_1 d_bar u)
     3.11307090E-01    3     1000022        -3         4   # BR(chi^+_1 -> chi^0_1 s_bar c)
     1.19563858E-01    3     1000022       -11        12   # BR(chi^+_1 -> chi^0_1 e^+ nu_e)
     1.19443783E-01    3     1000022       -13        14   # BR(chi^+_1 -> chi^0_1 mu^+ nu_mu)
     9.09938768E-02    3     1000022       -15        16   # BR(chi^+_1 -> chi^0_1 tau^+ nu_tau)
DECAY   1000037     2.93534787E+00   # chi^+_2
#    BR                NDA      ID1      ID2
     2.63944040E-01    2     1000022        24   # BR(chi^+_2 -> chi^0_1 W^+)
     2.76836758E-01    2     1000023        24   # BR(chi^+_2 -> chi^0_2 W^+)
     2.55073839E-01    2     1000024        23   # BR(chi^+_2 -> chi^+_1 Z)
     2.03555883E-01    2     1000024        25   # BR(chi^+_2 -> chi^+_1 h^0)
#    BR                NDA      ID1      ID2       ID3
     3.54917378E-04    3     1000022        -5         6   # BR(chi^+_2 -> chi^0_1 b_bar t)
     2.34308416E-04    3     1000023        -5         6   # BR(chi^+_2 -> chi^0_2 b_bar t)
DECAY   1000022     0.00000000E+00   # chi^0_1
DECAY   1000023     7.22497712E-06   # chi^0_2
#    BR                NDA      ID1      ID2
     6.12108249E-02    2     1000022        22   # BR(chi^0_2 -> chi^0_1 photon)
#    BR                NDA      ID1      ID2       ID3
     1.11794550E-01    3     1000022         2        -2   # BR(chi^0_2 -> chi^0_1 u u_bar)
     1.05380618E-01    3     1000022         4        -4   # BR(chi^0_2 -> chi^0_1 c c_bar)
     1.43342136E-01    3     1000022         1        -1   # BR(chi^0_2 -> chi^0_1 d d_bar)
     1.43301078E-01    3     1000022         3        -3   # BR(chi^0_2 -> chi^0_1 s s_bar)
     8.09836258E-02    3     1000022         5        -5   # BR(chi^0_2 -> chi^0_1 b b_bar)
     3.23482805E-02    3     1000022        11       -11   # BR(chi^0_2 -> chi^0_1 e^- e^+)
     3.23336489E-02    3     1000022        13       -13   # BR(chi^0_2 -> chi^0_1 mu^- mu^+)
     2.85020070E-02    3     1000022        15       -15   # BR(chi^0_2 -> chi^0_1 tau^- tau^+)
     1.91690885E-01    3     1000022        12       -12   # BR(chi^0_2 -> chi^0_1 nu_e nu_bar_e)
     1.18904934E-02    3     1000024         1        -2   # BR(chi^0_2 -> chi^+_1 d u_bar)
     1.18904934E-02    3    -1000024        -1         2   # BR(chi^0_2 -> chi^-_1 d_bar u)
     1.12073149E-02    3     1000024         3        -4   # BR(chi^0_2 -> chi^+_1 s c_bar)
     1.12073149E-02    3    -1000024        -3         4   # BR(chi^0_2 -> chi^-_1 s_bar c)
     3.96350069E-03    3     1000024        11       -12   # BR(chi^0_2 -> chi^+_1 e^- nu_bar_e)
     3.96350069E-03    3    -1000024       -11        12   # BR(chi^0_2 -> chi^-_1 e^+ nu_e)
     3.96185595E-03    3     1000024        13       -14   # BR(chi^0_2 -> chi^+_1 mu^- nu_bar_mu)
     3.96185595E-03    3    -1000024       -13        14   # BR(chi^0_2 -> chi^-_1 mu^+ nu_mu)
     3.53300787E-03    3     1000024        15       -16   # BR(chi^0_2 -> chi^+_1 tau^- nu_bar_tau)
     3.53300787E-03    3    -1000024       -15        16   # BR(chi^0_2 -> chi^-_1 tau^+ nu_tau)
DECAY   1000025     3.64537093E+00   # chi^0_3
#    BR                NDA      ID1      ID2
     2.60218713E-01    2     1000024       -24   # BR(chi^0_3 -> chi^+_1 W^-)
     2.60218713E-01    2    -1000024        24   # BR(chi^0_3 -> chi^-_1 W^+)
     4.99143830E-02    2     1000022        23   # BR(chi^0_3 -> chi^0_1 Z)
     1.76214234E-01    2     1000023        23   # BR(chi^0_3 -> chi^0_2 Z)
     9.92748976E-02    2     1000022        25   # BR(chi^0_3 -> chi^0_1 h^0)
     1.53267438E-01    2     1000023        25   # BR(chi^0_3 -> chi^0_2 h^0)
#    BR                NDA      ID1      ID2       ID3
     4.17488562E-04    3     1000024         5        -6   # BR(chi^0_3 -> chi^+_1 b t_bar)
     4.17488562E-04    3    -1000024        -5         6   # BR(chi^0_3 -> chi^-_1 b_bar t)
DECAY   1000035     2.12219726E+00   # chi^0_4
#    BR                NDA      ID1      ID2
     1.82279573E-01    2     1000024       -24   # BR(chi^0_4 -> chi^+_1 W^-)
     1.82279573E-01    2    -1000024        24   # BR(chi^0_4 -> chi^-_1 W^+)
     4.33224346E-02    2     1000037       -24   # BR(chi^0_4 -> chi^+_2 W^-)
     4.33224346E-02    2    -1000037        24   # BR(chi^0_4 -> chi^-_2 W^+)
     7.87742569E-02    2     1000022        23   # BR(chi^0_4 -> chi^0_1 Z)
     1.57914973E-01    2     1000023        23   # BR(chi^0_4 -> chi^0_2 Z)
     3.85388976E-03    2     1000025        23   # BR(chi^0_4 -> chi^0_3 Z)
     1.06731167E-01    2     1000022        25   # BR(chi^0_4 -> chi^0_1 h^0)
     1.60688103E-01    2     1000023        25   # BR(chi^0_4 -> chi^0_2 h^0)
     3.43483909E-02    2     1000025        25   # BR(chi^0_4 -> chi^0_3 h^0)
#    BR                NDA      ID1      ID2       ID3
     5.72948694E-04    3     1000022         6        -6   # BR(chi^0_4 -> chi^0_1 t t_bar)
     6.74014156E-04    3     1000023         6        -6   # BR(chi^0_4 -> chi^0_2 t t_bar)
     2.43792311E-03    3     1000024         5        -6   # BR(chi^0_4 -> chi^+_1 b t_bar)
     2.43792311E-03    3    -1000024        -5         6   # BR(chi^0_4 -> chi^-_1 b_bar t)
     1.74002907E-04    3     1000037         5        -6   # BR(chi^0_4 -> chi^+_2 b t_bar)
     1.74002907E-04    3    -1000037        -5         6   # BR(chi^0_4 -> chi^-_2 b_bar t)
DECAY   1000021     6.72002613E+01   # ~g
#    BR                NDA      ID1      ID2
     1.23545781E-01    2     1000006        -6   # BR(~g -> ~t_1 t_bar)
     1.23545781E-01    2    -1000006         6   # BR(~g -> ~t^*_1 t)
     3.70434119E-01    2     1000005        -5   # BR(~g -> ~b_1 b_bar)
     3.70434119E-01    2    -1000005         5   # BR(~g -> ~b^*_1 b)
     4.07408482E-04    2     2000005        -5   # BR(~g -> ~b_2 b_bar)
     4.07408482E-04    2    -2000005         5   # BR(~g -> ~b^*_2 b)
#    BR                NDA      ID1      ID2       ID3
     2.87088986E-03    3     1000022         6        -6   # BR(~g -> chi^0_1 t t_bar)
     3.31117825E-03    3     1000023         6        -6   # BR(~g -> chi^0_2 t t_bar)
     1.21689266E-03    3     1000025         6        -6   # BR(~g -> chi^0_3 t t_bar)
     7.98670513E-04    3     1000024         5        -6   # BR(~g -> chi^+_1 b t_bar)
     7.98670513E-04    3    -1000024        -5         6   # BR(~g -> chi^-_1 b_bar t)
     9.59741129E-04    3     1000037         5        -6   # BR(~g -> chi^+_2 b t_bar)
     9.59741129E-04    3    -1000037        -5         6   # BR(~g -> chi^-_2 b_bar t)
DECAY        25     4.29618594E-03   # Gamma(h0)
     2.43648359E-03   2        22        22   # BR(h0 -> photon photon)
     1.95386815E-03   2        22        23   # BR(h0 -> photon Z)
     4.23502717E-02   2        23        23   # BR(h0 -> Z Z)
     3.22702253E-01   2       -24        24   # BR(h0 -> W W)
     7.24181853E-02   2        21        21   # BR(h0 -> gluon gluon)
     4.32498099E-09   2       -11        11   # BR(h0 -> Electron electron)
     1.92384905E-04   2       -13        13   # BR(h0 -> Muon muon)
     5.54761546E-02   2       -15        15   # BR(h0 -> Tau tau)
     1.21169144E-07   2        -2         2   # BR(h0 -> Up up)
     2.35181466E-02   2        -4         4   # BR(h0 -> Charm charm)
     4.97535197E-07   2        -1         1   # BR(h0 -> Down down)
     1.79947260E-04   2        -3         3   # BR(h0 -> Strange strange)
     4.78771682E-01   2        -5         5   # BR(h0 -> Bottom bottom)
DECAY        35     3.96305725E+01   # Gamma(HH)
     8.76687009E-08   2        22        22   # BR(HH -> photon photon)
     2.42127867E-07   2        22        23   # BR(HH -> photon Z)
     2.46902787E-06   2        23        23   # BR(HH -> Z Z)
     1.35038038E-06   2       -24        24   # BR(HH -> W W)
     5.27157870E-06   2        21        21   # BR(HH -> gluon gluon)
     4.59083253E-09   2       -11        11   # BR(HH -> Electron electron)
     2.04378297E-04   2       -13        13   # BR(HH -> Muon muon)
     5.90229162E-02   2       -15        15   # BR(HH -> Tau tau)
     1.90485127E-13   2        -2         2   # BR(HH -> Up up)
     3.69479187E-08   2        -4         4   # BR(HH -> Charm charm)
     2.65194300E-03   2        -6         6   # BR(HH -> Top top)
     3.54858253E-07   2        -1         1   # BR(HH -> Down down)
     1.28354731E-04   2        -3         3   # BR(HH -> Strange strange)
     3.35851293E-01   2        -5         5   # BR(HH -> Bottom bottom)
     4.17279954E-02   2  -1000024   1000024   # BR(HH -> Chargino1 chargino1)
     1.65061929E-01   2  -1000024   1000037   # BR(HH -> Chargino1 chargino2)
     1.65061929E-01   2  -1000037   1000024   # BR(HH -> Chargino2 chargino1)
     2.49607042E-03   2  -1000037   1000037   # BR(HH -> Chargino2 chargino2)
     1.02327407E-02   2   1000022   1000022   # BR(HH -> neutralino1 neutralino1)
     1.15528389E-04   2   1000022   1000023   # BR(HH -> neutralino1 neutralino2)
     9.40657022E-02   2   1000022   1000025   # BR(HH -> neutralino1 neutralino3)
     2.38769125E-02   2   1000022   1000035   # BR(HH -> neutralino1 neutralino4)
     3.56860486E-03   2   1000023   1000023   # BR(HH -> neutralino2 neutralino2)
     7.53586944E-02   2   1000023   1000025   # BR(HH -> neutralino2 neutralino3)
     1.91830678E-02   2   1000023   1000035   # BR(HH -> neutralino2 neutralino4)
     1.16843747E-03   2   1000025   1000025   # BR(HH -> neutralino3 neutralino3)
     1.96182487E-04   2   1000025   1000035   # BR(HH -> neutralino3 neutralino4)
     2.24523337E-06   2   1000035   1000035   # BR(HH -> neutralino4 neutralino4)
     1.52585172E-05   2        25        25   # BR(HH -> h0 h0)
DECAY        36     3.90008902E+01   # Gamma(A0)
     1.38979885E-08   2        22        22   # BR(A0 -> photon photon)
     1.42269816E-07   2        22        23   # BR(A0 -> photon Z)
     1.95153168E-05   2        21        21   # BR(A0 -> gluon gluon)
     4.47671475E-09   2       -11        11   # BR(A0 -> Electron electron)
     1.99298195E-04   2       -13        13   # BR(A0 -> Muon muon)
     5.75560276E-02   2       -15        15   # BR(A0 -> Tau tau)
     1.80613410E-13   2        -2         2   # BR(A0 -> Up up)
     3.50300981E-08   2        -4         4   # BR(A0 -> Charm charm)
     2.60152745E-03   2        -6         6   # BR(A0 -> Top top)
     3.46029739E-07   2        -1         1   # BR(A0 -> Down down)
     1.25161474E-04   2        -3         3   # BR(A0 -> Strange strange)
     3.27500600E-01   2        -5         5   # BR(A0 -> Bottom bottom)
     4.13051772E-02   2  -1000024   1000024   # BR(A0 -> Chargino1 chargino1)
     1.68837434E-01   2  -1000024   1000037   # BR(A0 -> Chargino1 chargino2)
     1.68837434E-01   2  -1000037   1000024   # BR(A0 -> Chargino2 chargino1)
     1.51215347E-03   2  -1000037   1000037   # BR(A0 -> Chargino2 chargino2)
     9.12450539E-03   2   1000022   1000022   # BR(A0 -> neutralino1 neutralino1)
     3.85794167E-04   2   1000022   1000023   # BR(A0 -> neutralino1 neutralino2)
     8.71235473E-02   2   1000022   1000025   # BR(A0 -> neutralino1 neutralino3)
     2.31494046E-02   2   1000022   1000035   # BR(A0 -> neutralino1 neutralino4)
     4.36578821E-03   2   1000023   1000023   # BR(A0 -> neutralino2 neutralino2)
     8.58037630E-02   2   1000023   1000025   # BR(A0 -> neutralino2 neutralino3)
     2.06885208E-02   2   1000023   1000035   # BR(A0 -> neutralino2 neutralino4)
     7.29815941E-04   2   1000025   1000025   # BR(A0 -> neutralino3 neutralino3)
     1.29513060E-04   2   1000025   1000035   # BR(A0 -> neutralino3 neutralino4)
     1.10939616E-06   2   1000035   1000035   # BR(A0 -> neutralino4 neutralino4)
     3.36839261E-06   2        23        25   # BR(A0 -> Z h0)
     2.22280110E-38   2        25        25   # BR(A0 -> h0 h0)
DECAY        37     4.04855879E+01   # Gamma(Hp)
     5.08873566E-09   2       -11        12   # BR(Hp -> Electron nu_e)
     2.17559342E-04   2       -13        14   # BR(Hp -> Muon nu_mu)
     6.15380956E-02   2       -15        16   # BR(Hp -> Tau nu_tau)
     3.41365364E-07   2        -1         2   # BR(Hp -> Down up)
     5.73333304E-06   2        -3         2   # BR(Hp -> Strange up)
     3.67809097E-06   2        -5         2   # BR(Hp -> Bottom up)
     1.77399181E-08   2        -1         4   # BR(Hp -> Down charm)
     1.23066386E-04   2        -3         4   # BR(Hp -> Strange charm)
     5.15064144E-04   2        -5         4   # BR(Hp -> Bottom charm)
     2.03628448E-07   2        -1         6   # BR(Hp -> Down top)
     4.61937940E-06   2        -3         6   # BR(Hp -> Strange top)
     3.49001131E-01   2        -5         6   # BR(Hp -> Bottom top)
     1.35427347E-03   2   1000022   1000024   # BR(Hp -> neutralino1 chargino1)
     2.01321125E-01   2   1000022   1000037   # BR(Hp -> neutralino1 chargino2)
     6.58150285E-03   2   1000023   1000024   # BR(Hp -> neutralino2 chargino1)
     1.61783771E-01   2   1000023   1000037   # BR(Hp -> neutralino2 chargino2)
     1.78730346E-01   2   1000024   1000025   # BR(Hp -> chargino1 neutralino3)
     1.10248581E-06   2   1000025   1000037   # BR(Hp -> neutralino3 chargino2)
     3.84958032E-02   2   1000024   1000035   # BR(Hp -> chargino1 neutralino4)
     3.19297516E-04   2   1000035   1000037   # BR(Hp -> neutralino4 chargino2)
     3.26346223E-06   2        24        25   # BR(Hp -> W h0)
     9.27926482E-12   2        24        35   # BR(Hp -> W HH)
     5.14786262E-12   2        24        36   # BR(Hp -> W A0)
DECAY         6     2.43000000E+00   # top
#    BR                NDA      ID1      ID2
     1.00000000E+00    2           5        24   # BR(t -> b W)
Block HiggsBoundsInputHiggsCouplingsFermions
# ScalarNormEffCoupSq PseudoSNormEffCoupSq NP IP1 IP2 IP2
    9.32653098E-01    0.00000000E+00        3  25   5   5  # h0-b-b eff. coupling^2, normalised to SM
    5.85846345E+02    0.00000000E+00        3  35   5   5  # H0-b-b eff. coupling^2, normalised to SM
    0.00000000E+00    5.85778999E+02        3  36   5   5  # A0-b-b eff. coupling^2, normalised to SM
#
    1.00011497E+00    0.00000000E+00        3  25   6   6  # h0-t-t eff. coupling^2, normalised to SM
    1.59215865E-03    0.00000000E+00        3  35   6   6  # H0-t-t eff. coupling^2, normalised to SM
    0.00000000E+00    1.70712846E-03        3  36   6   6  # A0-t-t eff. coupling^2, normalised to SM
#
    9.32653098E-01    0.00000000E+00        3  25  15  15  # h0-tau-tau eff. coupling^2, normalised to SM
    5.85846345E+02    0.00000000E+00        3  35  15  15  # H0-tau-tau eff. coupling^2, normalised to SM
    0.00000000E+00    5.85778999E+02        3  36  15  15  # A0-tau-tau eff. coupling^2, normalised to SM
#
Block HiggsBoundsInputHiggsCouplingsBosons
    9.99997996E-01        3  25  24  24  # h0-W-W eff. coupling^2, normalised to SM
    2.00366010E-06        3  35  24  24  # H0-W-W eff. coupling^2, normalised to SM
    0.00000000E+00        3  36  24  24  # A0-W-W eff. coupling^2, normalised to SM
#
    9.99997996E-01        3  25  23  23  # h0-Z-Z eff. coupling^2, normalised to SM
    2.00366010E-06        3  35  23  23  # H0-Z-Z eff. coupling^2, normalised to SM
    0.00000000E+00        3  36  23  23  # A0-Z-Z eff. coupling^2, normalised to SM
#
    1.26525623E+00        3  25  21  21  # h0-g-g eff. coupling^2, normalised to SM
    2.61650832E-03        3  35  21  21  # H0-g-g eff. coupling^2, normalised to SM
    1.04061578E-01        3  36  21  21  # A0-g-g eff. coupling^2, normalised to SM
#
    0.00000000E+00        3  25  25  23  # h0-h0-Z eff. coupling^2, normalised to SM
    0.00000000E+00        3  35  25  23  # H0-h0-Z eff. coupling^2, normalised to SM
    2.00366010E-06        3  36  25  23  # A0-h0-Z eff. coupling^2, normalised to SM
    0.00000000E+00        3  35  35  23  # H0-H0-Z eff. coupling^2, normalised to SM
    9.99997996E-01        3  36  35  23  # A0-H0-Z eff. coupling^2, normalised to SM
    0.00000000E+00        3  36  36  23  # A0-A0-Z eff. coupling^2, normalised to SM
#
    0.00000000E+00        4  25  21  21  23  # h0-g-g-Z eff. coupling^2, normalised to SM
    0.00000000E+00        4  35  21  21  23  # H0-g-g-Z eff. coupling^2, normalised to SM
    0.00000000E+00        4  36  21  21  23  # A0-g-g-Z eff. coupling^2, normalised to SM
Block SPhenoLowEnergy  # low energy observables
    1    3.24957647E-04   # BR(b -> s gamma)
    2    1.58988657E-06   # BR(b -> s mu+ mu-)
    3    3.52576552E-05   # BR(b -> s nu nu)
    4    3.04896386E-15   # BR(Bd -> e+ e-)
    5    1.30247906E-10   # BR(Bd -> mu+ mu-)
    6    2.72444820E-08   # BR(Bd -> tau+ tau-)
    7    1.02278661E-13   # BR(Bs -> e+ e-)
    8    4.36932928E-09   # BR(Bs -> mu+ mu-)
    9    9.26067360E-07   # BR(Bs -> tau+ tau-)
   10    9.58303318E-05   # BR(B_u -> tau nu)
   11    9.89890639E-01   # BR(B_u -> tau nu)/BR(B_u -> tau nu)_SM
   12    5.41952529E-01   # |Delta(M_Bd)| [ps^-1] 
   13    1.93586461E+01   # |Delta(M_Bs)| [ps^-1] 
   14    0.00000000E+00   # neutron EDM according to the chiral quark model
   15    0.00000000E+00   # neutron EDM according to the relativistic quark-parton model
   16    2.15723289E-03   # epsilon_K
   17    2.28165836E-15   # Delta(M_K)
   18    2.48059001E-11   # BR(K^0 -> pi^0 nu nu)
   19    8.29172407E-11   # BR(K^+ -> pi^+ nu nu)
   20   -1.49823898E-16   # Delta(g-2)_electron/2
   21   -6.40546414E-12   # Delta(g-2)_muon/2
   22   -1.81394651E-09   # Delta(g-2)_tau/2
   23    0.00000000E+00   # electric dipole moment of the electron
   24    0.00000000E+00   # electric dipole moment of the muon
   25    0.00000000E+00   # electric dipole moment of the tau
   26    0.00000000E+00   # Br(mu -> e gamma)
   27    0.00000000E+00   # Br(tau -> e gamma)
   28    0.00000000E+00   # Br(tau -> mu gamma)
   29    0.00000000E+00   # Br(mu -> 3 e)
   30    0.00000000E+00   # Br(tau -> 3 e)
   31    0.00000000E+00   # Br(tau -> 3 mu)
   39    5.45346178E-05   # Delta(rho_parameter)
   40    0.00000000E+00   # BR(Z -> e mu)
   41    0.00000000E+00   # BR(Z -> e tau)
   42    0.00000000E+00   # BR(Z -> mu tau)
Block FWCOEF Q=  1.60000000E+02  # Wilson coefficients at scale Q
#    id        order  M        value         comment
     0305 4422   00   0    -1.88819110E-01   # C7
     0305 4422   00   2    -1.92111343E-01   # C7
     0305 4322   00   2    -1.89719700E-04   # C7'
     0305 6421   00   0    -9.52278348E-02   # C8
     0305 6421   00   2    -1.06768768E-01   # C8
     0305 6321   00   2    -3.01676700E-04   # C8'
 03051111 4133   00   0     1.62614292E+00   # C9 e+e-
 03051111 4133   00   2     1.62634069E+00   # C9 e+e-
 03051111 4233   00   2     1.43664424E-04   # C9' e+e-
 03051111 4137   00   0    -4.44883503E+00   # C10 e+e-
 03051111 4137   00   2    -4.44769582E+00   # C10 e+e-
 03051111 4237   00   2    -1.06356679E-03   # C10' e+e-
 03051313 4133   00   0     1.62614292E+00   # C9 mu+mu-
 03051313 4133   00   2     1.62634062E+00   # C9 mu+mu-
 03051313 4233   00   2     1.43664190E-04   # C9' mu+mu-
 03051313 4137   00   0    -4.44883503E+00   # C10 mu+mu-
 03051313 4137   00   2    -4.44769590E+00   # C10 mu+mu-
 03051313 4237   00   2    -1.06356661E-03   # C10' mu+mu-
 03051212 4137   00   0     1.50535012E+00   # C11 nu_1 nu_1
 03051212 4137   00   2     1.50510559E+00   # C11 nu_1 nu_1
 03051212 4237   00   2     2.30010646E-04   # C11' nu_1 nu_1
 03051414 4137   00   0     1.50535012E+00   # C11 nu_2 nu_2
 03051414 4137   00   2     1.50510559E+00   # C11 nu_2 nu_2
 03051414 4237   00   2     2.30010693E-04   # C11' nu_2 nu_2
 03051616 4137   00   0     1.50535012E+00   # C11 nu_3 nu_3
 03051616 4137   00   2     1.50510559E+00   # C11 nu_3 nu_3
 03051616 4237   00   2     2.30024075E-04   # C11' nu_3 nu_3
Block IMFWCOEF Q=  1.60000000E+02  # Im(Wilson coefficients) at scale Q
#    id        order  M        value         comment
     0305 4422   00   0     3.85825317E-07   # C7
     0305 4422   00   2    -7.35775945E-07   # C7
     0305 4322   00   2     1.32000105E-06   # C7'
     0305 6421   00   0     3.30484900E-07   # C8
     0305 6421   00   2    -7.25015691E-06   # C8
     0305 6321   00   2     5.07917356E-07   # C8'
 03051111 4133   00   2    -2.36258244E-08   # C9 e+e-
 03051111 4233   00   2     3.13783647E-06   # C9' e+e-
 03051111 4137   00   2     5.94889546E-06   # C10 e+e-
 03051111 4237   00   2    -2.32340347E-05   # C10' e+e-
 03051313 4133   00   2    -2.36273978E-08   # C9 mu+mu-
 03051313 4233   00   2     3.13783621E-06   # C9' mu+mu-
 03051313 4137   00   2     5.94889722E-06   # C10 mu+mu-
 03051313 4237   00   2    -2.32340355E-05   # C10' mu+mu-
 03051212 4137   00   2    -1.25360805E-06   # C11 nu_1 nu_1
 03051212 4237   00   2     5.02467605E-06   # C11' nu_1 nu_1
 03051414 4137   00   2    -1.25360797E-06   # C11 nu_2 nu_2
 03051414 4237   00   2     5.02467605E-06   # C11' nu_2 nu_2
 03051616 4137   00   2    -1.25358452E-06   # C11 nu_3 nu_3
 03051616 4237   00   2     5.02467604E-06   # C11' nu_3 nu_3
