# SUSY Les Houches Accord 2 - MSSM spectrum + Decays
# SPheno v4.0.5be
# W. Porod, Comput. Phys. Commun. 153 (2003) 275-315, hep-ph/0301101;
# W. Porod, F.~Staub, Comput. Phys. Commun. 183 (2012) 2458
#                     arXiv:1104.1573 [hep-ph] 
# in case of problems send email to porod@physik.uni-wuerzburg.de
# Created: 15.05.2022,  19:53
Block SPINFO         # Program information
     1   SPheno      # spectrum calculator
     2   v4.0.5be    # version number
#
Block SPhenoINFO     # SPheno specific information
    1      2         # using 2-loop RGEs
    2      2         # using pole masses for boundary conditions at mZ
Block MODSEL  # Model selection
    1    0    # general MSSM
Block MINPAR  # Input parameters
    3    1.55239933E+01  # tanb at m_Z    
    4   -1.00000000E+00  # Sign(mu)
Block EXTPAR  # non-universal input parameters
    0    4.94626830E+03  # scale for input parameters
    1    2.43255793E+02  # M_1
    2   -1.27269295E+03  # M_2
    3    4.21556980E+03  # M_3
   11    5.03996922E+03  # A_t
   12   -3.52248801E+02  # A_b
   13   -3.38605394E+02  # A_tau
   23   -4.16700966E+02  # mu
   25    1.47485826E+01  # tan(beta)
   26    3.16329333E+03  # m_A, pole mass
   31    1.05472604E+03  # M_L11
   32    1.05472604E+03  # M_L22
   33    2.58799364E+02  # M_L33
   34    1.60187011E+02  # M_E11
   35    1.60187011E+02  # M_E22
   36    5.23721483E+02  # M_E33
   41    1.00000000E+04  # M_Q11
   42    1.00000000E+04  # M_Q22
   43    4.91098657E+03  # M_Q33
   44    1.00000000E+04  # M_U11
   45    1.00000000E+04  # M_U22
   46    4.84845033E+03  # M_U33
   47    1.00000000E+04  # M_D11
   48    1.00000000E+04  # M_D22
   49    3.14299643E+03  # M_D33
Block SMINPUTS  # SM parameters
         1     1.27908970E+02  # alpha_em^-1(MZ)^MSbar
         2     1.16637870E-05  # G_mu [GeV^-2]
         3     1.18400000E-01  # alpha_s(MZ)^MSbar
         4     9.11876000E+01  # m_Z(pole)
         5     4.18000000E+00  # m_b(m_b), MSbar
         6     1.73200000E+02  # m_t(pole)
         7     1.77700000E+00  # m_tau(pole)
         8     0.00000000E+00  # m_nu_3
        11     5.10998930E-04  # m_e(pole)
        12     0.00000000E+00  # m_nu_1
        13     1.05658372E-01  # m_muon(pole)
        14     0.00000000E+00  # m_nu_2
        21     5.00000000E-03  # m_d(2 GeV), MSbar
        22     2.50000000E-03  # m_u(2 GeV), MSbar
        23     9.50000000E-02  # m_s(2 GeV), MSbar
        24     1.27000000E+00  # m_c(m_c), MSbar
Block gauge Q=  4.94626830E+03  # (SUSY scale)
   1    3.55362975E-01  # g'(Q)^DRbar
   2    6.65198874E-01  # g(Q)^DRbar
   3    1.21977796E+00  # g3(Q)^DRbar
Block Yu Q=  4.94626830E+03  # (SUSY scale)
  1  1     8.40362262E-06   # Y_u(Q)^DRbar
  2  2     4.26904029E-03   # Y_c(Q)^DRbar
  3  3     1.01522511E+00   # Y_t(Q)^DRbar
Block Yd Q=  4.94626830E+03  # (SUSY scale)
  1  1     2.49056037E-04   # Y_d(Q)^DRbar
  2  2     4.73206471E-03   # Y_s(Q)^DRbar
  3  3     2.46985546E-01   # Y_b(Q)^DRbar
Block Ye Q=  4.94626830E+03  # (SUSY scale)
  1  1     4.34620997E-05   # Y_e(Q)^DRbar
  2  2     8.98658379E-03   # Y_mu(Q)^DRbar
  3  3     1.51139556E-01   # Y_tau(Q)^DRbar
Block Au Q=  4.94626830E+03  # (SUSY scale)
  1  1     0.00000000E+00   # A_u(Q)^DRbar
  2  2     0.00000000E+00   # A_c(Q)^DRbar
  3  3     5.03996923E+03   # A_t(Q)^DRbar
Block Ad Q=  4.94626830E+03  # (SUSY scale)
  1  1     0.00000000E+00   # A_d(Q)^DRbar
  2  2     0.00000000E+00   # A_s(Q)^DRbar
  3  3    -3.52248800E+02   # A_b(Q)^DRbar
Block Ae Q=  4.94626830E+03  # (SUSY scale)
  1  1     0.00000000E+00   # A_e(Q)^DRbar
  2  2     0.00000000E+00   # A_mu(Q)^DRbar
  3  3    -3.38605393E+02   # A_tau(Q)^DRbar
Block MSOFT Q=  4.94626830E+03  # soft SUSY breaking masses at Q
   1    2.43255793E+02  # M_1
   2   -1.27269295E+03  # M_2
   3    4.21556980E+03  # M_3
  21    9.80815583E+06  # M^2_(H,d)
  22    3.88509950E+05  # M^2_(H,u)
  31    1.05472604E+03  # M_(L,11)
  32    1.05472604E+03  # M_(L,22)
  33    2.58799364E+02  # M_(L,33)
  34    1.60187011E+02  # M_(E,11)
  35    1.60187011E+02  # M_(E,22)
  36    5.23721483E+02  # M_(E,33)
  41    1.00000000E+04  # M_(Q,11)
  42    1.00000000E+04  # M_(Q,22)
  43    4.91098657E+03  # M_(Q,33)
  44    1.00000000E+04  # M_(U,11)
  45    1.00000000E+04  # M_(U,22)
  46    4.84845033E+03  # M_(U,33)
  47    1.00000000E+04  # M_(D,11)
  48    1.00000000E+04  # M_(D,22)
  49    3.14299643E+03  # M_(D,33)
Block MASS  # Mass spectrum
#   PDG code      mass          particle
         6     1.73200000E+02  # m_t(pole)
        23     9.11876000E+01  # m_Z(pole)
        24     8.04299946E+01  # W+
        15     1.77700000E+00  # m_tau(pole)
        25     1.24905707E+02  # h0
        35     3.16299261E+03  # H0
        36     3.16329333E+03  # A0
        37     3.16453119E+03  # H+
   1000001     1.01149439E+04  # ~d_L
   2000001     1.00904589E+04  # ~d_R
   1000002     1.01145912E+04  # ~u_L
   2000002     1.00925411E+04  # ~u_R
   1000003     1.01149437E+04  # ~s_L
   2000003     1.00904586E+04  # ~s_R
   1000004     1.01145910E+04  # ~c_L
   2000004     1.00925411E+04  # ~c_R
   1000005     3.34317335E+03  # ~b_1
   2000005     5.00792972E+03  # ~b_2
   1000006     4.85870173E+03  # ~t_1
   2000006     5.03541304E+03  # ~t_2
   1000011     1.07621318E+03  # ~e_L-
   2000011     2.37742483E+02  # ~e_R-
   1000012     1.07286901E+03  # ~nu_eL
   1000013     1.07620747E+03  # ~mu_L-
   2000013     2.37694068E+02  # ~mu_R-
   1000014     1.07286332E+03  # ~nu_muL
   1000015     3.16337314E+02  # ~tau_1-
   2000015     5.47450831E+02  # ~tau_2-
   1000016     3.07363003E+02  # ~nu_tauL
   1000021     4.75274411E+03  # ~g
   1000022     2.34751360E+02  # ~chi_10
   1000023     4.31789585E+02  # ~chi_20
   1000025     4.39845860E+02  # ~chi_30
   1000035     1.33767783E+03  # ~chi_40
   1000024     4.31875635E+02  # ~chi_1+
   1000037     1.33762642E+03  # ~chi_2+
# Higgs mixing
Block alpha # Effective Higgs mixing angle
          -6.44797217E-02   # alpha
Block Hmix Q=  4.94626830E+03  # Higgs mixing parameters
   1   -4.16700966E+02  # mu
   2    1.47485826E+01  # tan[beta](Q)
   3    2.42728089E+02  # v(Q)
   4    1.00064247E+07  # m^2_A(Q)
Block stopmix # stop mixing matrix
   1  1    -3.88177289E-01   # Re[R_st(1,1)]
   1  2     9.21584718E-01   # Re[R_st(1,2)]
   2  1    -9.21584718E-01   # Re[R_st(2,1)]
   2  2    -3.88177289E-01   # Re[R_st(2,2)]
Block sbotmix # sbottom mixing matrix
   1  1    -8.63085455E-04   # Re[R_sb(1,1)]
   1  2     9.99999628E-01   # Re[R_sb(1,2)]
   2  1    -9.99999628E-01   # Re[R_sb(2,1)]
   2  2    -8.63085455E-04   # Re[R_sb(2,2)]
Block staumix # stau mixing matrix
   1  1    -9.98528819E-01   # Re[R_sta(1,1)]
   1  2     5.42235927E-02   # Re[R_sta(1,2)]
   2  1    -5.42235927E-02   # Re[R_sta(2,1)]
   2  2    -9.98528819E-01   # Re[R_sta(2,2)]
Block Nmix # neutralino mixing matrix
   1  1     9.88516564E-01   # Re[N(1,1)]
   1  2     2.94122655E-03   # Re[N(1,2)]
   1  3    -1.35559690E-01   # Re[N(1,3)]
   1  4    -6.67077368E-02   # Re[N(1,4)]
   2  1     4.92271119E-02   # Re[N(2,1)]
   2  2     6.60229235E-02   # Re[N(2,2)]
   2  3     7.06363195E-01   # Re[N(2,3)]
   2  4    -7.03042461E-01   # Re[N(2,4)]
   3  1     1.42856309E-01   # Re[N(3,1)]
   3  2    -2.95492084E-02   # Re[N(3,2)]
   3  3     6.94269028E-01   # Re[N(3,3)]
   3  4     7.04776161E-01   # Re[N(3,4)]
   4  1     1.94137206E-03   # Re[N(4,1)]
   4  2    -9.97376141E-01   # Re[N(4,2)]
   4  3     2.57900206E-02   # Re[N(4,3)]
   4  4    -6.76161140E-02   # Re[N(4,4)]
Block Umix # chargino mixing matrix
   1  1    -3.65037531E-02   # Re[U(1,1)]
   1  2    -9.99333516E-01   # Re[U(1,2)]
   2  1    -9.99333516E-01   # Re[U(2,1)]
   2  2     3.65037531E-02   # Re[U(2,2)]
Block Vmix # chargino mixing matrix
   1  1     9.57202303E-02   # Re[V(1,1)]
   1  2     9.95408277E-01   # Re[V(1,2)]
   2  1     9.95408277E-01   # Re[V(2,1)]
   2  2    -9.57202303E-02   # Re[V(2,2)]
DECAY        23     2.49520000E+00   # Z
DECAY        24     2.08500000E+00   # W
DECAY   2000011     7.29815128E-04   # ~e^-_R
#    BR                NDA      ID1      ID2
     1.00000000E+00    2     1000022        11   # BR(~e^-_R -> chi^0_1 e^-)
#    BR                NDA      ID1      ID2       ID3
DECAY   1000011     1.25618922E+00   # ~e^-_L
#    BR                NDA      ID1      ID2
     9.64578138E-01    2     1000022        11   # BR(~e^-_L -> chi^0_1 e^-)
     2.26257057E-02    2     1000023        11   # BR(~e^-_L -> chi^0_2 e^-)
     5.72257897E-03    2     1000025        11   # BR(~e^-_L -> chi^0_3 e^-)
     7.07357440E-03    2    -1000024        12   # BR(~e^-_L -> chi^-_1 nu_e)
#    BR                NDA      ID1      ID2       ID3
DECAY   2000013     7.06333804E-04   # ~mu^-_R
#    BR                NDA      ID1      ID2
     1.00000000E+00    2     1000022        13   # BR(~mu^-_R -> chi^0_1 mu^-)
DECAY   1000013     1.25751694E+00   # ~mu^-_L
#    BR                NDA      ID1      ID2
     9.63576053E-01    2     1000022        13   # BR(~mu^-_L -> chi^0_1 mu^-)
     2.30851719E-02    2     1000023        13   # BR(~mu^-_L -> chi^0_2 mu^-)
     6.17662721E-03    2     1000025        13   # BR(~mu^-_L -> chi^0_3 mu^-)
     7.06603965E-03    2    -1000024        14   # BR(~mu^-_L -> chi^-_1 nu_mu)
#    BR                NDA      ID1      ID2       ID3
DECAY   1000015     8.05992854E-02   # ~tau^-_1
#    BR                NDA      ID1      ID2
     9.99998750E-01    2     1000022        15   # BR(~tau^-_1 -> chi^0_1 tau^-)
#    BR                NDA      ID1      ID2       ID3
DECAY   2000015     2.02126421E+00   # ~tau^-_2
#    BR                NDA      ID1      ID2
     8.83717971E-01    2     1000022        15   # BR(~tau^-_2 -> chi^0_1 tau^-)
     9.01080728E-03    2     1000023        15   # BR(~tau^-_2 -> chi^0_2 tau^-)
     1.11569878E-02    2     1000025        15   # BR(~tau^-_2 -> chi^0_3 tau^-)
     1.71766331E-02    2    -1000024        16   # BR(~tau^-_2 -> chi^-_1 nu_tau)
     4.30398291E-02    2     1000016       -24   # BR(~tau^-_2 -> ~nu_tau W^-)
     1.82531328E-02    2     1000015        23   # BR(~tau^-_2 -> ~tau^-_1 Z)
     1.76446384E-02    2     1000015        25   # BR(~tau^-_2 -> ~tau^-_1 h^0)
DECAY   1000012     1.28320225E+00   # ~nu_e
#    BR                NDA      ID1      ID2
     9.20024316E-01    2     1000022        12   # BR(~nu_e -> chi^0_1 nu_e)
     4.07840779E-03    2     1000023        12   # BR(~nu_e -> chi^0_2 nu_e)
     2.85452783E-02    2     1000025        12   # BR(~nu_e -> chi^0_3 nu_e)
     4.73519979E-02    2     1000024        11   # BR(~nu_e -> chi^+_1 e^-)
DECAY   1000014     1.28440083E+00   # ~nu_mu
#    BR                NDA      ID1      ID2
     9.19159907E-01    2     1000022        14   # BR(~nu_mu -> chi^0_1 nu_mu)
     4.07456356E-03    2     1000023        14   # BR(~nu_mu -> chi^0_2 nu_mu)
     2.85183668E-02    2     1000025        14   # BR(~nu_mu -> chi^0_3 nu_mu)
     4.82471624E-02    2     1000024        13   # BR(~nu_mu -> chi^+_1 mu^-)
DECAY   1000016     6.47740087E-02   # ~nu_tau
#    BR                NDA      ID1      ID2
     1.00000000E+00    2     1000022        16   # BR(~nu_tau -> chi^0_1 nu_tau)
DECAY   2000001     4.87900815E+02   # ~d_R
#    BR                NDA      ID1      ID2
     1.12703923E-02    2     1000022         1   # BR(~d_R -> chi^0_1 d)
     2.34752858E-04    2     1000025         1   # BR(~d_R -> chi^0_3 d)
     9.88466897E-01    2     1000021         1   # BR(~d_R -> ~g d)
DECAY   1000001     6.15130696E+02   # ~d_L
#    BR                NDA      ID1      ID2
     2.16601962E-03    2     1000022         1   # BR(~d_L -> chi^0_1 d)
     2.36422510E-04    2     1000023         1   # BR(~d_L -> chi^0_2 d)
     2.18028208E-04    2     1000025         1   # BR(~d_L -> chi^0_3 d)
     6.95492819E-02    2     1000035         1   # BR(~d_L -> chi^0_4 d)
     1.92184972E-04    2    -1000024         2   # BR(~d_L -> chi^-_1 u)
     1.39548694E-01    2    -1000037         2   # BR(~d_L -> chi^-_2 u)
     7.88089369E-01    2     1000021         1   # BR(~d_L -> ~g d)
DECAY   2000003     4.87909716E+02   # ~s_R
#    BR                NDA      ID1      ID2
     1.12703551E-02    2     1000022         3   # BR(~s_R -> chi^0_1 s)
     2.39160099E-04    2     1000025         3   # BR(~s_R -> chi^0_3 s)
     9.88448801E-01    2     1000021         3   # BR(~s_R -> ~g s)
DECAY   1000003     6.15138802E+02   # ~s_L
#    BR                NDA      ID1      ID2
     2.16612517E-03    2     1000022         3   # BR(~s_L -> chi^0_1 s)
     2.40051027E-04    2     1000023         3   # BR(~s_L -> chi^0_2 s)
     2.21532973E-04    2     1000025         3   # BR(~s_L -> chi^0_3 s)
     6.95483684E-02    2     1000035         3   # BR(~s_L -> chi^0_4 s)
     1.98067310E-04    2    -1000024         4   # BR(~s_L -> chi^-_1 c)
     1.39546906E-01    2    -1000037         4   # BR(~s_L -> chi^-_2 c)
     7.88078950E-01    2     1000021         3   # BR(~s_L -> ~g s)
DECAY   1000005     9.66832780E+00   # ~b_1
#    BR                NDA      ID1      ID2
     1.94531917E-01    2     1000022         5   # BR(~b_1 -> chi^0_1 b)
     2.02936333E-01    2     1000023         5   # BR(~b_1 -> chi^0_2 b)
     1.99017615E-01    2     1000025         5   # BR(~b_1 -> chi^0_3 b)
     1.73125805E-04    2     1000035         5   # BR(~b_1 -> chi^0_4 b)
     4.02998075E-01    2    -1000024         6   # BR(~b_1 -> chi^-_1 t)
     3.42934437E-04    2    -1000037         6   # BR(~b_1 -> chi^-_2 t)
DECAY   2000005     1.70090574E+02   # ~b_2
#    BR                NDA      ID1      ID2
     4.51113109E-03    2     1000022         5   # BR(~b_2 -> chi^0_1 b)
     1.79801965E-02    2     1000023         5   # BR(~b_2 -> chi^0_2 b)
     1.73517425E-02    2     1000025         5   # BR(~b_2 -> chi^0_3 b)
     1.11272699E-01    2     1000035         5   # BR(~b_2 -> chi^0_4 b)
     5.88052298E-01    2    -1000024         6   # BR(~b_2 -> chi^-_1 t)
     2.28664652E-01    2    -1000037         6   # BR(~b_2 -> chi^-_2 t)
     2.29205115E-02    2     1000021         5   # BR(~b_2 -> ~g b)
     9.15422348E-03    2     1000006       -24   # BR(~b_2 -> ~t_1 W^-)
DECAY   2000002     5.04999409E+02   # ~u_R
#    BR                NDA      ID1      ID2
     4.35641738E-02    2     1000022         2   # BR(~u_R -> chi^0_1 u)
     1.07757893E-04    2     1000023         2   # BR(~u_R -> chi^0_2 u)
     9.07359073E-04    2     1000025         2   # BR(~u_R -> chi^0_3 u)
     9.55420547E-01    2     1000021         2   # BR(~u_R -> ~g u)
DECAY   1000002     6.15113563E+02   # ~u_L
#    BR                NDA      ID1      ID2
     2.31573086E-03    2     1000022         2   # BR(~u_L -> chi^0_1 u)
     4.03354526E-04    2     1000023         2   # BR(~u_L -> chi^0_2 u)
     6.94522613E-02    2     1000035         2   # BR(~u_L -> chi^0_4 u)
     1.32146383E-03    2     1000024         1   # BR(~u_L -> chi^+_1 d)
     1.38453277E-01    2     1000037         1   # BR(~u_L -> chi^+_2 d)
     7.88052694E-01    2     1000021         2   # BR(~u_L -> ~g u)
DECAY   2000004     5.05006668E+02   # ~c_R
#    BR                NDA      ID1      ID2
     4.35635777E-02    2     1000022         4   # BR(~c_R -> chi^0_1 c)
     1.11324193E-04    2     1000023         4   # BR(~c_R -> chi^0_2 c)
     9.10932836E-04    2     1000025         4   # BR(~c_R -> chi^0_3 c)
     9.55406754E-01    2     1000021         4   # BR(~c_R -> ~g c)
DECAY   1000004     6.15121635E+02   # ~c_L
#    BR                NDA      ID1      ID2
     2.31572693E-03    2     1000022         4   # BR(~c_L -> chi^0_1 c)
     4.06286022E-04    2     1000023         4   # BR(~c_L -> chi^0_2 c)
     6.94513687E-02    2     1000035         4   # BR(~c_L -> chi^0_4 c)
     1.32871467E-03    2     1000024         3   # BR(~c_L -> chi^+_1 s)
     1.38451467E-01    2     1000037         3   # BR(~c_L -> chi^+_2 s)
     7.88042269E-01    2     1000021         4   # BR(~c_L -> ~g c)
DECAY   1000006     2.00656820E+02   # ~t_1
#    BR                NDA      ID1      ID2
     4.14461644E-02    2     1000022         6   # BR(~t_1 -> chi^0_1 t)
     2.46694452E-01    2     1000023         6   # BR(~t_1 -> chi^0_2 t)
     2.56242189E-01    2     1000025         6   # BR(~t_1 -> chi^0_3 t)
     6.01226370E-03    2     1000035         6   # BR(~t_1 -> chi^0_4 t)
     4.37704341E-01    2     1000024         5   # BR(~t_1 -> chi^+_1 b)
     1.15456436E-02    2     1000037         5   # BR(~t_1 -> chi^+_2 b)
#    BR                NDA      ID1      ID2       ID3
     3.47843972E-04    3     1000022        24         5   # BR(~t_1 -> chi^0_1 W^+ b)
DECAY   2000006     1.79276084E+02   # ~t_2
#    BR                NDA      ID1      ID2
     2.17378653E-02    2     1000022         6   # BR(~t_2 -> chi^0_1 t)
     2.74113385E-01    2     1000023         6   # BR(~t_2 -> chi^0_2 t)
     2.66061116E-01    2     1000025         6   # BR(~t_2 -> chi^0_3 t)
     1.02735513E-01    2     1000035         6   # BR(~t_2 -> chi^0_4 t)
     8.97743853E-02    2     1000024         5   # BR(~t_2 -> chi^+_1 b)
     2.02689356E-01    2     1000037         5   # BR(~t_2 -> chi^+_2 b)
     2.95068206E-02    2     1000021         6   # BR(~t_2 -> ~g t)
     6.38854438E-03    2     1000006        23   # BR(~t_2 -> ~t_1 Z)
     6.93959783E-03    2     1000006        25   # BR(~t_2 -> ~t_1 h^0)
DECAY   1000024     2.08548790E-01   # chi^+_1
#    BR                NDA      ID1      ID2
     8.07298451E-04    2    -2000013        14   # BR(chi^+_1 -> ~mu^+_R nu_mu)
     4.65569147E-03    2    -1000015        16   # BR(chi^+_1 -> ~tau^+_1 nu_tau)
     1.36381182E-01    2     1000016       -15   # BR(chi^+_1 -> ~nu_tau tau^+)
     8.58132255E-01    2     1000022        24   # BR(chi^+_1 -> chi^0_1 W^+)
#    BR                NDA      ID1      ID2       ID3
DECAY   1000037     2.57813468E+01   # chi^+_2
#    BR                NDA      ID1      ID2
     2.83652050E-02    2    -1000011        12   # BR(chi^+_2 -> ~e^+_L nu_e)
     2.83663099E-02    2    -1000013        14   # BR(chi^+_2 -> ~mu^+_L nu_mu)
     2.02485051E-01    2    -1000015        16   # BR(chi^+_2 -> ~tau^+_1 nu_tau)
     6.17634014E-04    2    -2000015        16   # BR(chi^+_2 -> ~tau^+_2 nu_tau)
     2.87875306E-02    2     1000012       -11   # BR(chi^+_2 -> ~nu_e e^+)
     2.87886247E-02    2     1000014       -13   # BR(chi^+_2 -> ~nu_mu mu^+)
     2.03014977E-01    2     1000016       -15   # BR(chi^+_2 -> ~nu_tau tau^+)
     2.52375358E-03    2     1000022        24   # BR(chi^+_2 -> chi^0_1 W^+)
     1.19115766E-01    2     1000023        24   # BR(chi^+_2 -> chi^0_2 W^+)
     1.15177174E-01    2     1000025        24   # BR(chi^+_2 -> chi^0_3 W^+)
     1.17247129E-01    2     1000024        23   # BR(chi^+_2 -> chi^+_1 Z)
     1.17295208E-01    2     1000024        25   # BR(chi^+_2 -> chi^+_1 h^0)
#    BR                NDA      ID1      ID2       ID3
     3.00387929E-03    3     1000024         6        -6   # BR(chi^+_2 -> chi^+_1 t t_bar)
     2.38640593E-03    3     1000023        -5         6   # BR(chi^+_2 -> chi^0_2 b_bar t)
     2.72838855E-03    3     1000025        -5         6   # BR(chi^+_2 -> chi^0_3 b_bar t)
DECAY   1000022     0.00000000E+00   # chi^0_1
DECAY   1000023     4.45652776E-01   # chi^0_2
#    BR                NDA      ID1      ID2
     3.05504884E-03    2     2000013       -13   # BR(chi^0_2 -> ~mu^-_R mu^+)
     3.05504884E-03    2    -2000013        13   # BR(chi^0_2 -> ~mu^+_R mu^-)
     2.75321434E-02    2     1000015       -15   # BR(chi^0_2 -> ~tau^-_1 tau^+)
     2.75321434E-02    2    -1000015        15   # BR(chi^0_2 -> ~tau^+_1 tau^-)
     8.18799728E-04    2     1000016       -16   # BR(chi^0_2 -> ~nu_tau nu_bar_tau)
     8.18799728E-04    2    -1000016        16   # BR(chi^0_2 -> ~nu^*_tau nu_tau)
     5.38029408E-01    2     1000022        23   # BR(chi^0_2 -> chi^0_1 Z)
     3.99133465E-01    2     1000022        25   # BR(chi^0_2 -> chi^0_1 h^0)
#    BR                NDA      ID1      ID2       ID3
DECAY   1000025     2.43209885E-01   # chi^0_3
#    BR                NDA      ID1      ID2
     4.64589801E-02    2     2000011       -11   # BR(chi^0_3 -> ~e^-_R e^+)
     4.64589801E-02    2    -2000011        11   # BR(chi^0_3 -> ~e^+_R e^-)
     4.68310537E-02    2     2000013       -13   # BR(chi^0_3 -> ~mu^-_R mu^+)
     4.68310537E-02    2    -2000013        13   # BR(chi^0_3 -> ~mu^+_R mu^-)
     4.54805497E-02    2     1000015       -15   # BR(chi^0_3 -> ~tau^-_1 tau^+)
     4.54805497E-02    2    -1000015        15   # BR(chi^0_3 -> ~tau^+_1 tau^-)
     1.16790311E-02    2     1000016       -16   # BR(chi^0_3 -> ~nu_tau nu_bar_tau)
     1.16790311E-02    2    -1000016        16   # BR(chi^0_3 -> ~nu^*_tau nu_tau)
     1.17423490E-01    2     1000022        23   # BR(chi^0_3 -> chi^0_1 Z)
     5.81659070E-01    2     1000022        25   # BR(chi^0_3 -> chi^0_1 h^0)
#    BR                NDA      ID1      ID2       ID3
DECAY   1000035     2.73360630E+01   # chi^0_4
#    BR                NDA      ID1      ID2
     1.33001997E-02    2     1000011       -11   # BR(chi^0_4 -> ~e^-_L e^+)
     1.33001997E-02    2    -1000011        11   # BR(chi^0_4 -> ~e^+_L e^-)
     1.33007260E-02    2     1000013       -13   # BR(chi^0_4 -> ~mu^-_L mu^+)
     1.33007260E-02    2    -1000013        13   # BR(chi^0_4 -> ~mu^+_L mu^-)
     9.49281474E-02    2     1000015       -15   # BR(chi^0_4 -> ~tau^-_1 tau^+)
     9.49281474E-02    2    -1000015        15   # BR(chi^0_4 -> ~tau^+_1 tau^-)
     2.90244298E-04    2     2000015       -15   # BR(chi^0_4 -> ~tau^-_2 tau^+)
     2.90244298E-04    2    -2000015        15   # BR(chi^0_4 -> ~tau^+_2 tau^-)
     1.36615298E-02    2     1000012       -12   # BR(chi^0_4 -> ~nu_e nu_bar_e)
     1.36615298E-02    2    -1000012        12   # BR(chi^0_4 -> ~nu^*_e nu_e)
     1.36620524E-02    2     1000014       -14   # BR(chi^0_4 -> ~nu_mu nu_bar_mu)
     1.36620524E-02    2    -1000014        14   # BR(chi^0_4 -> ~nu^*_mu nu_mu)
     9.63155826E-02    2     1000016       -16   # BR(chi^0_4 -> ~nu_tau nu_bar_tau)
     9.63155826E-02    2    -1000016        16   # BR(chi^0_4 -> ~nu^*_tau nu_tau)
     1.12956035E-01    2     1000024       -24   # BR(chi^0_4 -> chi^+_1 W^-)
     1.12956035E-01    2    -1000024        24   # BR(chi^0_4 -> chi^-_1 W^+)
     1.74746915E-03    2     1000022        23   # BR(chi^0_4 -> chi^0_1 Z)
     1.86119409E-02    2     1000023        23   # BR(chi^0_4 -> chi^0_2 Z)
     9.18647065E-02    2     1000025        23   # BR(chi^0_4 -> chi^0_3 Z)
     1.25553996E-03    2     1000022        25   # BR(chi^0_4 -> chi^0_1 h^0)
     9.16499428E-02    2     1000023        25   # BR(chi^0_4 -> chi^0_2 h^0)
     7.04799022E-02    2     1000025        25   # BR(chi^0_4 -> chi^0_3 h^0)
#    BR                NDA      ID1      ID2       ID3
     1.23539581E-03    3     1000023         6        -6   # BR(chi^0_4 -> chi^0_2 t t_bar)
     1.05341935E-03    3     1000025         6        -6   # BR(chi^0_4 -> chi^0_3 t t_bar)
     2.59357295E-03    3     1000024         5        -6   # BR(chi^0_4 -> chi^+_1 b t_bar)
     2.59357295E-03    3    -1000024        -5         6   # BR(chi^0_4 -> chi^-_1 b_bar t)
DECAY   1000021     3.74671477E+01   # ~g
#    BR                NDA      ID1      ID2
     4.79164905E-01    2     1000005        -5   # BR(~g -> ~b_1 b_bar)
     4.79164905E-01    2    -1000005         5   # BR(~g -> ~b^*_1 b)
#    BR                NDA      ID1      ID2       ID3
     8.36072225E-04    3     1000022         6        -6   # BR(~g -> chi^0_1 t t_bar)
     8.71807701E-03    3     1000023         6        -6   # BR(~g -> chi^0_2 t t_bar)
     1.69116680E-04    3     1000023         5        -5   # BR(~g -> chi^0_2 b b_bar)
     8.88145981E-03    3     1000025         6        -6   # BR(~g -> chi^0_3 t t_bar)
     1.63096878E-04    3     1000025         5        -5   # BR(~g -> chi^0_3 b b_bar)
     9.34629147E-04    3     1000035         6        -6   # BR(~g -> chi^0_4 t t_bar)
     1.03829144E-03    3     1000035         5        -5   # BR(~g -> chi^0_4 b b_bar)
     9.00641165E-03    3     1000024         5        -6   # BR(~g -> chi^+_1 b t_bar)
     9.00641165E-03    3    -1000024        -5         6   # BR(~g -> chi^-_1 b_bar t)
     1.26580452E-03    3     1000037         5        -6   # BR(~g -> chi^+_2 b t_bar)
     1.26580452E-03    3    -1000037        -5         6   # BR(~g -> chi^-_2 b_bar t)
DECAY        25     3.63209916E-03   # Gamma(h0)
     2.45285157E-03   2        22        22   # BR(h0 -> photon photon)
     1.59215481E-03   2        22        23   # BR(h0 -> photon Z)
     2.91946665E-02   2        23        23   # BR(h0 -> Z Z)
     2.41621472E-01   2       -24        24   # BR(h0 -> W W)
     7.73326813E-02   2        21        21   # BR(h0 -> gluon gluon)
     4.99277519E-09   2       -11        11   # BR(h0 -> Electron electron)
     2.22087538E-04   2       -13        13   # BR(h0 -> Muon muon)
     6.40493242E-02   2       -15        15   # BR(h0 -> Tau tau)
     1.41727438E-07   2        -2         2   # BR(h0 -> Up up)
     2.75052015E-02   2        -4         4   # BR(h0 -> Charm charm)
     5.77838924E-07   2        -1         1   # BR(h0 -> Down down)
     2.08990784E-04   2        -3         3   # BR(h0 -> Strange strange)
     5.55819845E-01   2        -5         5   # BR(h0 -> Bottom bottom)
DECAY        35     4.00381014E+01   # Gamma(HH)
     8.34608628E-08   2        22        22   # BR(HH -> photon photon)
     1.31571906E-07   2        22        23   # BR(HH -> photon Z)
     3.52553093E-06   2        23        23   # BR(HH -> Z Z)
     9.93563289E-07   2       -24        24   # BR(HH -> W W)
     8.60127239E-07   2        21        21   # BR(HH -> gluon gluon)
     2.86762761E-09   2       -11        11   # BR(HH -> Electron electron)
     1.27682080E-04   2       -13        13   # BR(HH -> Muon muon)
     3.92520891E-02   2       -15        15   # BR(HH -> Tau tau)
     7.89058087E-13   2        -2         2   # BR(HH -> Up up)
     1.53072078E-07   2        -4         4   # BR(HH -> Charm charm)
     1.16212648E-02   2        -6         6   # BR(HH -> Top top)
     2.05101643E-07   2        -1         1   # BR(HH -> Down down)
     7.41872622E-05   2        -3         3   # BR(HH -> Strange strange)
     2.02009134E-01   2        -5         5   # BR(HH -> Bottom bottom)
     5.63973717E-03   2  -1000024   1000024   # BR(HH -> Chargino1 chargino1)
     2.16714864E-01   2  -1000024   1000037   # BR(HH -> Chargino1 chargino2)
     2.16714864E-01   2  -1000037   1000024   # BR(HH -> Chargino2 chargino1)
     1.34055287E-04   2  -1000037   1000037   # BR(HH -> Chargino2 chargino2)
     3.88533536E-03   2   1000022   1000022   # BR(HH -> neutralino1 neutralino1)
     3.91664328E-02   2   1000022   1000023   # BR(HH -> neutralino1 neutralino2)
     4.10108572E-02   2   1000022   1000025   # BR(HH -> neutralino1 neutralino3)
     4.56466769E-03   2   1000022   1000035   # BR(HH -> neutralino1 neutralino4)
     4.83222468E-04   2   1000023   1000023   # BR(HH -> neutralino2 neutralino2)
     6.06695127E-04   2   1000023   1000025   # BR(HH -> neutralino2 neutralino3)
     8.10619676E-02   2   1000023   1000035   # BR(HH -> neutralino2 neutralino4)
     4.18737605E-03   2   1000025   1000025   # BR(HH -> neutralino3 neutralino3)
     1.32151765E-01   2   1000025   1000035   # BR(HH -> neutralino3 neutralino4)
     6.75678963E-05   2   1000035   1000035   # BR(HH -> neutralino4 neutralino4)
     1.92592987E-05   2        25        25   # BR(HH -> h0 h0)
     5.63778353E-07   2  -1000011   1000011   # BR(HH -> Selectron1 selectron1)
     1.00492628E-13   2  -2000011   1000011   # BR(HH -> Selectron2 selectron1)
     1.00492628E-13   2  -1000011   2000011   # BR(HH -> Selectron1 selectron2)
     6.52314873E-07   2  -2000011   2000011   # BR(HH -> Selectron2 selectron2)
     5.62826749E-07   2  -1000013   1000013   # BR(HH -> Smuon1 smuon1)
     4.29636698E-09   2  -2000013   1000013   # BR(HH -> Smuon2 smuon1)
     4.29636698E-09   2  -1000013   2000013   # BR(HH -> Smuon1 smuon2)
     6.51673222E-07   2  -2000013   2000013   # BR(HH -> Smuon2 smuon2)
     7.80301833E-07   2  -1000015   1000015   # BR(HH -> Stau1 stau1)
     2.42936671E-04   2  -2000015   1000015   # BR(HH -> Stau2 stau1)
     2.42936671E-04   2  -1000015   2000015   # BR(HH -> Stau1 stau2)
     4.85276400E-06   2  -2000015   2000015   # BR(HH -> Stau2 stau2)
DECAY        36     3.96822031E+01   # Gamma(A0)
     1.48806362E-07   2        22        22   # BR(A0 -> photon photon)
     2.06345720E-07   2        22        23   # BR(A0 -> photon Z)
     1.32123995E-05   2        21        21   # BR(A0 -> gluon gluon)
     2.79568709E-09   2       -11        11   # BR(A0 -> Electron electron)
     1.24479000E-04   2       -13        13   # BR(A0 -> Muon muon)
     3.82674635E-02   2       -15        15   # BR(A0 -> Tau tau)
     7.36249703E-13   2        -2         2   # BR(A0 -> Up up)
     1.42821613E-07   2        -4         4   # BR(A0 -> Charm charm)
     1.09822193E-02   2        -6         6   # BR(A0 -> Top top)
     1.99953514E-07   2        -1         1   # BR(A0 -> Down down)
     7.23254314E-05   2        -3         3   # BR(A0 -> Strange strange)
     1.96939638E-01   2        -5         5   # BR(A0 -> Bottom bottom)
     6.74006903E-03   2  -1000024   1000024   # BR(A0 -> Chargino1 chargino1)
     2.17817336E-01   2  -1000024   1000037   # BR(A0 -> Chargino1 chargino2)
     2.17817336E-01   2  -1000037   1000024   # BR(A0 -> Chargino2 chargino1)
     7.74853994E-04   2  -1000037   1000037   # BR(A0 -> Chargino2 chargino2)
     3.49846476E-03   2   1000022   1000022   # BR(A0 -> neutralino1 neutralino1)
     4.87343338E-02   2   1000022   1000023   # BR(A0 -> neutralino1 neutralino2)
     3.29727878E-02   2   1000022   1000025   # BR(A0 -> neutralino1 neutralino3)
     3.16772367E-03   2   1000022   1000035   # BR(A0 -> neutralino1 neutralino4)
     6.76841183E-04   2   1000023   1000023   # BR(A0 -> neutralino2 neutralino2)
     1.00219903E-03   2   1000023   1000025   # BR(A0 -> neutralino2 neutralino3)
     1.37037898E-01   2   1000023   1000035   # BR(A0 -> neutralino2 neutralino4)
     3.49946906E-03   2   1000025   1000025   # BR(A0 -> neutralino3 neutralino3)
     7.89705851E-02   2   1000025   1000035   # BR(A0 -> neutralino3 neutralino4)
     3.89172965E-04   2   1000035   1000035   # BR(A0 -> neutralino4 neutralino4)
     6.01894059E-06   2        23        25   # BR(A0 -> Z h0)
     1.47912012E-37   2        25        25   # BR(A0 -> h0 h0)
     1.01243157E-13   2  -2000011   1000011   # BR(A0 -> Selectron2 selectron1)
     1.01243157E-13   2  -1000011   2000011   # BR(A0 -> Selectron1 selectron2)
     4.32846120E-09   2  -2000013   1000013   # BR(A0 -> Smuon2 smuon1)
     4.32846120E-09   2  -1000013   2000013   # BR(A0 -> Smuon1 smuon2)
     2.47431825E-04   2  -2000015   1000015   # BR(A0 -> Stau2 stau1)
     2.47431825E-04   2  -1000015   2000015   # BR(A0 -> Stau1 stau2)
DECAY        37     4.05570586E+01   # Gamma(Hp)
     3.10964269E-09   2       -11        12   # BR(Hp -> Electron nu_e)
     1.32946937E-04   2       -13        14   # BR(Hp -> Muon nu_mu)
     3.76049564E-02   2       -15        16   # BR(Hp -> Tau nu_tau)
     1.99230390E-07   2        -1         2   # BR(Hp -> Down up)
     3.36506603E-06   2        -3         2   # BR(Hp -> Strange up)
     2.24792241E-06   2        -5         2   # BR(Hp -> Bottom up)
     1.68788095E-08   2        -1         4   # BR(Hp -> Down charm)
     7.19632017E-05   2        -3         4   # BR(Hp -> Strange charm)
     3.14789826E-04   2        -5         4   # BR(Hp -> Bottom charm)
     8.28641793E-07   2        -1         6   # BR(Hp -> Down top)
     1.81735778E-05   2        -3         6   # BR(Hp -> Strange top)
     2.24956491E-01   2        -5         6   # BR(Hp -> Bottom top)
     8.84321064E-02   2   1000022   1000024   # BR(Hp -> neutralino1 chargino1)
     7.60576887E-03   2   1000022   1000037   # BR(Hp -> neutralino1 chargino2)
     9.74321781E-04   2   1000023   1000024   # BR(Hp -> neutralino2 chargino1)
     2.17134382E-01   2   1000023   1000037   # BR(Hp -> neutralino2 chargino2)
     9.53382084E-05   2   1000024   1000025   # BR(Hp -> chargino1 neutralino3)
     2.07316402E-01   2   1000025   1000037   # BR(Hp -> neutralino3 chargino2)
     2.14837504E-01   2   1000024   1000035   # BR(Hp -> chargino1 neutralino4)
     1.47812198E-09   2   1000035   1000037   # BR(Hp -> neutralino4 chargino2)
     5.89934809E-06   2        24        25   # BR(Hp -> W h0)
     2.89397622E-13   2        24        35   # BR(Hp -> W HH)
     9.75631859E-14   2        24        36   # BR(Hp -> W A0)
     1.93540670E-13   2  -1000011   1000012   # BR(Hp -> Selectron1 snu_e1)
     2.52899144E-06   2  -2000011   1000012   # BR(Hp -> Selectron2 snu_e1)
     8.27450686E-09   2  -1000013   1000014   # BR(Hp -> Smuon1 snu_mu1)
     2.52810188E-06   2  -2000013   1000014   # BR(Hp -> Smuon2 snu_mu1)
     3.04944554E-07   2  -1000015   1000016   # BR(Hp -> Stau1 snu_tau1)
     4.86923729E-04   2  -2000015   1000016   # BR(Hp -> Stau2 snu_tau1)
DECAY         6     2.43000000E+00   # top
#    BR                NDA      ID1      ID2
     1.00000000E+00    2           5        24   # BR(t -> b W)
Block HiggsBoundsInputHiggsCouplingsFermions
# ScalarNormEffCoupSq PseudoSNormEffCoupSq NP IP1 IP2 IP2
    9.07270744E-01    0.00000000E+00        3  25   5   5  # h0-b-b eff. coupling^2, normalised to SM
    2.17613418E+02    0.00000000E+00        3  35   5   5  # H0-b-b eff. coupling^2, normalised to SM
    0.00000000E+00    2.17520689E+02        3  36   5   5  # A0-b-b eff. coupling^2, normalised to SM
#
    1.00042630E+00    0.00000000E+00        3  25   6   6  # h0-t-t eff. coupling^2, normalised to SM
    4.17096300E-03    0.00000000E+00        3  35   6   6  # H0-t-t eff. coupling^2, normalised to SM
    0.00000000E+00    4.59726386E-03        3  36   6   6  # A0-t-t eff. coupling^2, normalised to SM
#
    9.07270744E-01    0.00000000E+00        3  25  15  15  # h0-tau-tau eff. coupling^2, normalised to SM
    2.17613418E+02    0.00000000E+00        3  35  15  15  # H0-tau-tau eff. coupling^2, normalised to SM
    0.00000000E+00    2.17520689E+02        3  36  15  15  # A0-tau-tau eff. coupling^2, normalised to SM
#
Block HiggsBoundsInputHiggsCouplingsBosons
    9.99989633E-01        3  25  24  24  # h0-W-W eff. coupling^2, normalised to SM
    1.03669907E-05        3  35  24  24  # H0-W-W eff. coupling^2, normalised to SM
    0.00000000E+00        3  36  24  24  # A0-W-W eff. coupling^2, normalised to SM
#
    9.99989633E-01        3  25  23  23  # h0-Z-Z eff. coupling^2, normalised to SM
    1.03669907E-05        3  35  23  23  # H0-Z-Z eff. coupling^2, normalised to SM
    0.00000000E+00        3  36  23  23  # A0-Z-Z eff. coupling^2, normalised to SM
#
    1.27447789E+00        3  25  21  21  # h0-g-g eff. coupling^2, normalised to SM
    1.54944736E-03        3  35  21  21  # H0-g-g eff. coupling^2, normalised to SM
    1.00958092E-01        3  36  21  21  # A0-g-g eff. coupling^2, normalised to SM
#
    0.00000000E+00        3  25  25  23  # h0-h0-Z eff. coupling^2, normalised to SM
    0.00000000E+00        3  35  25  23  # H0-h0-Z eff. coupling^2, normalised to SM
    1.03669907E-05        3  36  25  23  # A0-h0-Z eff. coupling^2, normalised to SM
    0.00000000E+00        3  35  35  23  # H0-H0-Z eff. coupling^2, normalised to SM
    9.99989633E-01        3  36  35  23  # A0-H0-Z eff. coupling^2, normalised to SM
    0.00000000E+00        3  36  36  23  # A0-A0-Z eff. coupling^2, normalised to SM
#
    0.00000000E+00        4  25  21  21  23  # h0-g-g-Z eff. coupling^2, normalised to SM
    0.00000000E+00        4  35  21  21  23  # H0-g-g-Z eff. coupling^2, normalised to SM
    0.00000000E+00        4  36  21  21  23  # A0-g-g-Z eff. coupling^2, normalised to SM
Block SPhenoLowEnergy  # low energy observables
    1    3.25158980E-04   # BR(b -> s gamma)
    2    1.58986978E-06   # BR(b -> s mu+ mu-)
    3    3.52581812E-05   # BR(b -> s nu nu)
    4    2.63907694E-15   # BR(Bd -> e+ e-)
    5    1.12738351E-10   # BR(Bd -> mu+ mu-)
    6    2.35996297E-08   # BR(Bd -> tau+ tau-)
    7    8.93095174E-14   # BR(Bs -> e+ e-)
    8    3.81529899E-09   # BR(Bs -> mu+ mu-)
    9    8.09218609E-07   # BR(Bs -> tau+ tau-)
   10    9.66612691E-05   # BR(B_u -> tau nu)
   11    9.98473904E-01   # BR(B_u -> tau nu)/BR(B_u -> tau nu)_SM
   12    5.41909183E-01   # |Delta(M_Bd)| [ps^-1] 
   13    1.93620445E+01   # |Delta(M_Bs)| [ps^-1] 
   14    0.00000000E+00   # neutron EDM according to the chiral quark model
   15    0.00000000E+00   # neutron EDM according to the relativistic quark-parton model
   16    2.15693037E-03   # epsilon_K
   17    2.28165432E-15   # Delta(M_K)
   18    2.48024122E-11   # BR(K^0 -> pi^0 nu nu)
   19    8.29111185E-11   # BR(K^+ -> pi^+ nu nu)
   20   -4.05112322E-15   # Delta(g-2)_electron/2
   21   -1.73323282E-10   # Delta(g-2)_muon/2
   22   -6.84440022E-07   # Delta(g-2)_tau/2
   23    0.00000000E+00   # electric dipole moment of the electron
   24    0.00000000E+00   # electric dipole moment of the muon
   25    0.00000000E+00   # electric dipole moment of the tau
   26    0.00000000E+00   # Br(mu -> e gamma)
   27    0.00000000E+00   # Br(tau -> e gamma)
   28    0.00000000E+00   # Br(tau -> mu gamma)
   29    0.00000000E+00   # Br(mu -> 3 e)
   30    0.00000000E+00   # Br(tau -> 3 e)
   31    0.00000000E+00   # Br(tau -> 3 mu)
   39    1.84058717E-04   # Delta(rho_parameter)
   40    0.00000000E+00   # BR(Z -> e mu)
   41    0.00000000E+00   # BR(Z -> e tau)
   42    0.00000000E+00   # BR(Z -> mu tau)
Block FWCOEF Q=  1.60000000E+02  # Wilson coefficients at scale Q
#    id        order  M        value         comment
     0305 4422   00   0    -1.88819110E-01   # C7
     0305 4422   00   2    -1.93666298E-01   # C7
     0305 4322   00   2    -1.12367890E-04   # C7'
     0305 6421   00   0    -9.52278348E-02   # C8
     0305 6421   00   2    -1.02654136E-01   # C8
     0305 6321   00   2    -1.54597295E-04   # C8'
 03051111 4133   00   0     1.63367168E+00   # C9 e+e-
 03051111 4133   00   2     1.63383544E+00   # C9 e+e-
 03051111 4233   00   2     5.44832564E-05   # C9' e+e-
 03051111 4137   00   0    -4.45636378E+00   # C10 e+e-
 03051111 4137   00   2    -4.45522849E+00   # C10 e+e-
 03051111 4237   00   2    -3.99155735E-04   # C10' e+e-
 03051313 4133   00   0     1.63367168E+00   # C9 mu+mu-
 03051313 4133   00   2     1.63383527E+00   # C9 mu+mu-
 03051313 4233   00   2     5.44832354E-05   # C9' mu+mu-
 03051313 4137   00   0    -4.45636378E+00   # C10 mu+mu-
 03051313 4137   00   2    -4.45522866E+00   # C10 mu+mu-
 03051313 4237   00   2    -3.99155756E-04   # C10' mu+mu-
 03051212 4137   00   0     1.50535012E+00   # C11 nu_1 nu_1
 03051212 4137   00   2     1.50511101E+00   # C11 nu_1 nu_1
 03051212 4237   00   2     8.61669271E-05   # C11' nu_1 nu_1
 03051414 4137   00   0     1.50535012E+00   # C11 nu_2 nu_2
 03051414 4137   00   2     1.50511101E+00   # C11 nu_2 nu_2
 03051414 4237   00   2     8.61669283E-05   # C11' nu_2 nu_2
 03051616 4137   00   0     1.50535012E+00   # C11 nu_3 nu_3
 03051616 4137   00   2     1.50511122E+00   # C11 nu_3 nu_3
 03051616 4237   00   2     8.61667333E-05   # C11' nu_3 nu_3
Block IMFWCOEF Q=  1.60000000E+02  # Im(Wilson coefficients) at scale Q
#    id        order  M        value         comment
     0305 4422   00   0     3.85826106E-07   # C7
     0305 4422   00   2     1.77885122E-06   # C7
     0305 4322   00   2     2.33928931E-07   # C7'
     0305 6421   00   0     3.30485576E-07   # C8
     0305 6421   00   2     3.22373207E-06   # C8
     0305 6321   00   2     1.37828348E-07   # C8'
 03051111 4133   00   2    -8.91196333E-08   # C9 e+e-
 03051111 4233   00   2     1.07707346E-06   # C9' e+e-
 03051111 4137   00   2     2.44014070E-07   # C10 e+e-
 03051111 4237   00   2    -7.89136840E-06   # C10' e+e-
 03051313 4133   00   2    -8.91204379E-08   # C9 mu+mu-
 03051313 4233   00   2     1.07707319E-06   # C9' mu+mu-
 03051313 4137   00   2     2.44015176E-07   # C10 mu+mu-
 03051313 4237   00   2    -7.89136888E-06   # C10' mu+mu-
 03051212 4137   00   2     5.38908018E-08   # C11 nu_1 nu_1
 03051212 4237   00   2     1.70355286E-06   # C11' nu_1 nu_1
 03051414 4137   00   2     5.38908015E-08   # C11 nu_2 nu_2
 03051414 4237   00   2     1.70355286E-06   # C11' nu_2 nu_2
 03051616 4137   00   2     5.70960782E-08   # C11 nu_3 nu_3
 03051616 4237   00   2     1.70354308E-06   # C11' nu_3 nu_3
