# SUSY Les Houches Accord 2 - MSSM spectrum + Decays
# SPheno v4.0.5be
# W. Porod, Comput. Phys. Commun. 153 (2003) 275-315, hep-ph/0301101;
# W. Porod, F.~Staub, Comput. Phys. Commun. 183 (2012) 2458
#                     arXiv:1104.1573 [hep-ph] 
# in case of problems send email to porod@physik.uni-wuerzburg.de
# Created: 20.12.2022,  13:06
Block SPINFO         # Program information
     1   SPheno      # spectrum calculator
     2   v4.0.5be    # version number
#
Block SPhenoINFO     # SPheno specific information
    1      2         # using 2-loop RGEs
    2      2         # using pole masses for boundary conditions at mZ
Block MODSEL  # Model selection
    1    0    # general MSSM
Block MINPAR  # Input parameters
    3    2.42511749E+01  # tanb at m_Z    
    4   -1.00000000E+00  # Sign(mu)
Block EXTPAR  # non-universal input parameters
    0    3.41766482E+03  # scale for input parameters
    1    5.51741301E+01  # M_1
    2   -5.82087117E+02  # M_2
    3    2.77408847E+03  # M_3
   11    4.06564055E+03  # A_t
   12    1.22709396E+03  # A_b
   13   -1.65371419E+01  # A_tau
   23   -1.13704578E+03  # mu
   25    2.32879100E+01  # tan(beta)
   26    1.00853110E+03  # m_A, pole mass
   31    1.00000000E+04  # M_L11
   32    1.00000000E+04  # M_L22
   33    1.00000000E+04  # M_L33
   34    1.00000000E+04  # M_E11
   35    1.00000000E+04  # M_E22
   36    1.00000000E+04  # M_E33
   41    1.00000000E+04  # M_Q11
   42    1.00000000E+04  # M_Q22
   43    2.75769396E+03  # M_Q33
   44    1.00000000E+04  # M_U11
   45    1.00000000E+04  # M_U22
   46    4.10998449E+03  # M_U33
   47    1.00000000E+04  # M_D11
   48    1.00000000E+04  # M_D22
   49    3.11691685E+03  # M_D33
Block SMINPUTS  # SM parameters
         1     1.27908970E+02  # alpha_em^-1(MZ)^MSbar
         2     1.16637870E-05  # G_mu [GeV^-2]
         3     1.18400000E-01  # alpha_s(MZ)^MSbar
         4     9.11876000E+01  # m_Z(pole)
         5     4.18000000E+00  # m_b(m_b), MSbar
         6     1.73200000E+02  # m_t(pole)
         7     1.77700000E+00  # m_tau(pole)
         8     0.00000000E+00  # m_nu_3
        11     5.10998930E-04  # m_e(pole)
        12     0.00000000E+00  # m_nu_1
        13     1.05658372E-01  # m_muon(pole)
        14     0.00000000E+00  # m_nu_2
        21     5.00000000E-03  # m_d(2 GeV), MSbar
        22     2.50000000E-03  # m_u(2 GeV), MSbar
        23     9.50000000E-02  # m_s(2 GeV), MSbar
        24     1.27000000E+00  # m_c(m_c), MSbar
Block gauge Q=  3.41766482E+03  # (SUSY scale)
   1    3.55362975E-01  # g'(Q)^DRbar
   2    6.65198874E-01  # g(Q)^DRbar
   3    1.21977796E+00  # g3(Q)^DRbar
Block Yu Q=  3.41766482E+03  # (SUSY scale)
  1  1     8.39209857E-06   # Y_u(Q)^DRbar
  2  2     4.26318608E-03   # Y_c(Q)^DRbar
  3  3     1.01383291E+00   # Y_t(Q)^DRbar
Block Yd Q=  3.41766482E+03  # (SUSY scale)
  1  1     3.92718480E-04   # Y_d(Q)^DRbar
  2  2     7.46165112E-03   # Y_s(Q)^DRbar
  3  3     3.89453672E-01   # Y_b(Q)^DRbar
Block Ye Q=  3.41766482E+03  # (SUSY scale)
  1  1     6.85322465E-05   # Y_e(Q)^DRbar
  2  2     1.41702950E-02   # Y_mu(Q)^DRbar
  3  3     2.38321051E-01   # Y_tau(Q)^DRbar
Block Au Q=  3.41766482E+03  # (SUSY scale)
  1  1     0.00000000E+00   # A_u(Q)^DRbar
  2  2     0.00000000E+00   # A_c(Q)^DRbar
  3  3     4.06564055E+03   # A_t(Q)^DRbar
Block Ad Q=  3.41766482E+03  # (SUSY scale)
  1  1     0.00000000E+00   # A_d(Q)^DRbar
  2  2     0.00000000E+00   # A_s(Q)^DRbar
  3  3     1.22709394E+03   # A_b(Q)^DRbar
Block Ae Q=  3.41766482E+03  # (SUSY scale)
  1  1     0.00000000E+00   # A_e(Q)^DRbar
  2  2     0.00000000E+00   # A_mu(Q)^DRbar
  3  3    -1.65371418E+01   # A_tau(Q)^DRbar
Block MSOFT Q=  3.41766482E+03  # soft SUSY breaking masses at Q
   1    5.51741301E+01  # M_1
   2   -5.82087117E+02  # M_2
   3    2.77408847E+03  # M_3
  21   -3.48400780E+05  # M^2_(H,d)
  22   -1.08906066E+06  # M^2_(H,u)
  31    1.00000000E+04  # M_(L,11)
  32    1.00000000E+04  # M_(L,22)
  33    1.00000000E+04  # M_(L,33)
  34    1.00000000E+04  # M_(E,11)
  35    1.00000000E+04  # M_(E,22)
  36    1.00000000E+04  # M_(E,33)
  41    1.00000000E+04  # M_(Q,11)
  42    1.00000000E+04  # M_(Q,22)
  43    2.75769396E+03  # M_(Q,33)
  44    1.00000000E+04  # M_(U,11)
  45    1.00000000E+04  # M_(U,22)
  46    4.10998449E+03  # M_(U,33)
  47    1.00000000E+04  # M_(D,11)
  48    1.00000000E+04  # M_(D,22)
  49    3.11691685E+03  # M_(D,33)
Block MASS  # Mass spectrum
#   PDG code      mass          particle
         6     1.73200000E+02  # m_t(pole)
        23     9.11876000E+01  # m_Z(pole)
        24     8.04299946E+01  # W+
        15     1.77700000E+00  # m_tau(pole)
        25     1.24353707E+02  # h0
        35     1.00860556E+03  # H0
        36     1.00853110E+03  # A0
        37     1.01517086E+03  # H+
   1000001     1.01084152E+04  # ~d_L
   2000001     1.00835576E+04  # ~d_R
   1000002     1.01080518E+04  # ~u_L
   2000002     1.00870430E+04  # ~u_R
   1000003     1.01084176E+04  # ~s_L
   2000003     1.00835608E+04  # ~s_R
   1000004     1.01080540E+04  # ~c_L
   2000004     1.00870442E+04  # ~c_R
   1000005     2.84806899E+03  # ~b_1
   2000005     3.21163847E+03  # ~b_2
   1000006     2.84590668E+03  # ~t_1
   2000006     4.10429229E+03  # ~t_2
   1000011     1.00213721E+04  # ~e_L-
   2000011     1.00086046E+04  # ~e_R-
   1000012     1.00206072E+04  # ~nu_eL
   1000013     1.00213823E+04  # ~mu_L-
   2000013     1.00086198E+04  # ~mu_R-
   1000014     1.00206158E+04  # ~nu_muL
   1000015     1.00128647E+04  # ~tau_1-
   2000015     1.00243202E+04  # ~tau_2-
   1000016     1.00230508E+04  # ~nu_tauL
   1000021     3.21054096E+03  # ~g
   1000022     5.57513707E+01  # ~chi_10
   1000023     6.27240922E+02  # ~chi_20
   1000025     1.15245514E+03  # ~chi_30
   1000035     1.15732282E+03  # ~chi_40
   1000024     6.27297059E+02  # ~chi_1+
   1000037     1.15801996E+03  # ~chi_2+
# Higgs mixing
Block alpha # Effective Higgs mixing angle
          -4.22077549E-02   # alpha
Block Hmix Q=  3.41766482E+03  # Higgs mixing parameters
   1   -1.13704578E+03  # mu
   2    2.32879100E+01  # tan[beta](Q)
   3    2.43102744E+02  # v(Q)
   4    1.01713498E+06  # m^2_A(Q)
Block stopmix # stop mixing matrix
   1  1    -9.98179753E-01   # Re[R_st(1,1)]
   1  2     6.03090359E-02   # Re[R_st(1,2)]
   2  1    -6.03090359E-02   # Re[R_st(2,1)]
   2  2    -9.98179753E-01   # Re[R_st(2,2)]
Block sbotmix # sbottom mixing matrix
   1  1    -9.99532083E-01   # Re[R_sb(1,1)]
   1  2     3.05878284E-02   # Re[R_sb(1,2)]
   2  1    -3.05878284E-02   # Re[R_sb(2,1)]
   2  2    -9.99532083E-01   # Re[R_sb(2,2)]
Block staumix # stau mixing matrix
   1  1    -2.12206771E-01   # Re[R_sta(1,1)]
   1  2     9.77224788E-01   # Re[R_sta(1,2)]
   2  1    -9.77224788E-01   # Re[R_sta(2,1)]
   2  2    -2.12206771E-01   # Re[R_sta(2,2)]
Block Nmix # neutralino mixing matrix
   1  1     9.99257113E-01   # Re[N(1,1)]
   1  2    -1.57398105E-04   # Re[N(1,2)]
   1  3    -3.85380121E-02   # Re[N(1,3)]
   1  4    -1.38979910E-04   # Re[N(1,4)]
   2  1    -3.98390551E-03   # Re[N(2,1)]
   2  2    -9.93432540E-01   # Re[N(2,2)]
   2  3    -9.94453697E-02   # Re[N(2,3)]
   2  4     5.64494060E-02   # Re[N(2,4)]
   3  1     2.73088387E-02   # Re[N(3,1)]
   3  2    -3.05550651E-02   # Re[N(3,2)]
   3  3     7.05668270E-01   # Re[N(3,3)]
   3  4     7.07356281E-01   # Re[N(3,4)]
   4  1    -2.68994106E-02   # Re[N(4,1)]
   4  2     1.10264009E-01   # Re[N(4,2)]
   4  3    -7.00469652E-01   # Re[N(4,3)]
   4  4     7.04599558E-01   # Re[N(4,4)]
Block Umix # chargino mixing matrix
   1  1    -9.89994690E-01   # Re[U(1,1)]
   1  2    -1.41104618E-01   # Re[U(1,2)]
   2  1    -1.41104618E-01   # Re[U(2,1)]
   2  2     9.89994690E-01   # Re[U(2,2)]
Block Vmix # chargino mixing matrix
   1  1     9.96747855E-01   # Re[V(1,1)]
   1  2     8.05835754E-02   # Re[V(1,2)]
   2  1     8.05835754E-02   # Re[V(2,1)]
   2  2    -9.96747855E-01   # Re[V(2,2)]
DECAY        23     2.49520000E+00   # Z
DECAY        24     2.08500000E+00   # W
DECAY   2000011     5.02845071E+01   # ~e^-_R
#    BR                NDA      ID1      ID2
     9.98553585E-01    2     1000022        11   # BR(~e^-_R -> chi^0_1 e^-)
     7.26210122E-04    2     1000025        11   # BR(~e^-_R -> chi^0_3 e^-)
     7.04437780E-04    2     1000035        11   # BR(~e^-_R -> chi^0_4 e^-)
DECAY   1000011     1.43839873E+02   # ~e^-_L
#    BR                NDA      ID1      ID2
     8.73300830E-02    2     1000022        11   # BR(~e^-_L -> chi^0_1 e^-)
     3.01562429E-01    2     1000023        11   # BR(~e^-_L -> chi^0_2 e^-)
     2.74517655E-03    2     1000035        11   # BR(~e^-_L -> chi^0_4 e^-)
     5.96398784E-01    2    -1000024        12   # BR(~e^-_L -> chi^-_1 nu_e)
     1.18874071E-02    2    -1000037        12   # BR(~e^-_L -> chi^-_2 nu_e)
#    BR                NDA      ID1      ID2       ID3
DECAY   2000013     5.03624479E+01   # ~mu^-_R
#    BR                NDA      ID1      ID2
     9.97010919E-01    2     1000022        13   # BR(~mu^-_R -> chi^0_1 mu^-)
     1.10998927E-03    2     1000025        13   # BR(~mu^-_R -> chi^0_3 mu^-)
     1.08251411E-03    2     1000035        13   # BR(~mu^-_R -> chi^0_4 mu^-)
     7.57381470E-04    2    -1000037        14   # BR(~mu^-_R -> chi^-_2 nu_mu)
DECAY   1000013     1.43879006E+02   # ~mu^-_L
#    BR                NDA      ID1      ID2
     8.73068325E-02    2     1000022        13   # BR(~mu^-_L -> chi^0_1 mu^-)
     3.01483452E-01    2     1000023        13   # BR(~mu^-_L -> chi^0_2 mu^-)
     2.11010244E-04    2     1000025        13   # BR(~mu^-_L -> chi^0_3 mu^-)
     2.87732969E-03    2     1000035        13   # BR(~mu^-_L -> chi^0_4 mu^-)
     5.96237189E-01    2    -1000024        14   # BR(~mu^-_L -> chi^-_1 nu_mu)
     1.18841867E-02    2    -1000037        14   # BR(~mu^-_L -> chi^-_2 nu_mu)
#    BR                NDA      ID1      ID2       ID3
DECAY   1000015     7.61075678E+01   # ~tau^-_1
#    BR                NDA      ID1      ID2
     6.40456767E-01    2     1000022        15   # BR(~tau^-_1 -> chi^0_1 tau^-)
     3.90137995E-02    2     1000023        15   # BR(~tau^-_1 -> chi^0_2 tau^-)
     6.87692009E-02    2     1000025        15   # BR(~tau^-_1 -> chi^0_3 tau^-)
     6.13410596E-02    2     1000035        15   # BR(~tau^-_1 -> chi^0_4 tau^-)
     7.73704373E-02    2    -1000024        16   # BR(~tau^-_1 -> chi^-_1 nu_tau)
     1.13048736E-01    2    -1000037        16   # BR(~tau^-_1 -> chi^-_2 nu_tau)
DECAY   2000015     1.51142427E+02   # ~tau^-_2
#    BR                NDA      ID1      ID2
     9.32241996E-02    2     1000022        15   # BR(~tau^-_2 -> chi^0_1 tau^-)
     2.68886348E-01    2     1000023        15   # BR(~tau^-_2 -> chi^0_2 tau^-)
     3.83208428E-02    2     1000025        15   # BR(~tau^-_2 -> chi^0_3 tau^-)
     4.35156220E-02    2     1000035        15   # BR(~tau^-_2 -> chi^0_4 tau^-)
     5.30228359E-01    2    -1000024        16   # BR(~tau^-_2 -> chi^-_1 nu_tau)
     2.58246292E-02    2    -1000037        16   # BR(~tau^-_2 -> chi^-_2 nu_tau)
#    BR                NDA      ID1      ID2       ID3
DECAY   1000012     1.43844315E+02   # ~nu_e
#    BR                NDA      ID1      ID2
     8.74237669E-02    2     1000022        12   # BR(~nu_e -> chi^0_1 nu_e)
     2.98956840E-01    2     1000023        12   # BR(~nu_e -> chi^0_2 nu_e)
     6.08470221E-04    2     1000025        12   # BR(~nu_e -> chi^0_3 nu_e)
     4.63676569E-03    2     1000035        12   # BR(~nu_e -> chi^0_4 nu_e)
     6.04497566E-01    2     1000024        11   # BR(~nu_e -> chi^+_1 e^-)
     3.87659194E-03    2     1000037        11   # BR(~nu_e -> chi^+_2 e^-)
#    BR                NDA      ID1      ID2       ID3
DECAY   1000014     1.43883422E+02   # ~nu_mu
#    BR                NDA      ID1      ID2
     8.74000805E-02    2     1000022        14   # BR(~nu_mu -> chi^0_1 nu_mu)
     2.98875845E-01    2     1000023        14   # BR(~nu_mu -> chi^0_2 nu_mu)
     6.08305392E-04    2     1000025        14   # BR(~nu_mu -> chi^0_3 nu_mu)
     4.63550963E-03    2     1000035        14   # BR(~nu_mu -> chi^0_4 nu_mu)
     6.04339283E-01    2     1000024        13   # BR(~nu_mu -> chi^+_1 mu^-)
     4.14097620E-03    2     1000037        13   # BR(~nu_mu -> chi^+_2 mu^-)
#    BR                NDA      ID1      ID2       ID3
DECAY   1000016     1.54909224E+02   # ~nu_tau
#    BR                NDA      ID1      ID2
     8.11990310E-02    2     1000022        16   # BR(~nu_tau -> chi^0_1 nu_tau)
     2.77671609E-01    2     1000023        16   # BR(~nu_tau -> chi^0_2 nu_tau)
     5.65153372E-04    2     1000025        16   # BR(~nu_tau -> chi^0_3 nu_tau)
     4.30667593E-03    2     1000035        16   # BR(~nu_tau -> chi^0_4 nu_tau)
     5.62901318E-01    2     1000024        15   # BR(~nu_tau -> chi^+_1 tau^-)
     7.33562119E-02    2     1000037        15   # BR(~nu_tau -> chi^+_2 tau^-)
#    BR                NDA      ID1      ID2       ID3
DECAY   2000001     6.48363666E+02   # ~d_R
#    BR                NDA      ID1      ID2
     8.66932027E-03    2     1000022         1   # BR(~d_R -> chi^0_1 d)
     9.91318025E-01    2     1000021         1   # BR(~d_R -> ~g d)
DECAY   1000001     7.78851032E+02   # ~d_L
#    BR                NDA      ID1      ID2
     1.81186872E-03    2     1000022         1   # BR(~d_L -> chi^0_1 d)
     5.58646723E-02    2     1000023         1   # BR(~d_L -> chi^0_2 d)
     7.36522793E-04    2     1000035         1   # BR(~d_L -> chi^0_4 d)
     1.11115875E-01    2    -1000024         2   # BR(~d_L -> chi^-_1 u)
     2.21548834E-03    2    -1000037         2   # BR(~d_L -> chi^-_2 u)
     8.28185743E-01    2     1000021         1   # BR(~d_L -> ~g d)
DECAY   2000003     6.48385664E+02   # ~s_R
#    BR                NDA      ID1      ID2
     8.66905441E-03    2     1000022         3   # BR(~s_R -> chi^0_1 s)
     9.91284848E-01    2     1000021         3   # BR(~s_R -> ~g s)
DECAY   1000003     7.78865724E+02   # ~s_L
#    BR                NDA      ID1      ID2
     1.81185626E-03    2     1000022         3   # BR(~s_L -> chi^0_1 s)
     5.58637732E-02    2     1000023         3   # BR(~s_L -> chi^0_2 s)
     7.43359021E-04    2     1000035         3   # BR(~s_L -> chi^0_4 s)
     1.11113830E-01    2    -1000024         4   # BR(~s_L -> chi^-_1 c)
     2.21999411E-03    2    -1000037         4   # BR(~s_L -> chi^-_2 c)
     8.28170405E-01    2     1000021         3   # BR(~s_L -> ~g s)
DECAY   1000005     8.05718579E+01   # ~b_1
#    BR                NDA      ID1      ID2
     5.26546007E-03    2     1000022         5   # BR(~b_1 -> chi^0_1 b)
     1.40360224E-01    2     1000023         5   # BR(~b_1 -> chi^0_2 b)
     3.71019754E-02    2     1000025         5   # BR(~b_1 -> chi^0_3 b)
     3.74147037E-02    2     1000035         5   # BR(~b_1 -> chi^0_4 b)
     2.77277499E-01    2    -1000024         6   # BR(~b_1 -> chi^-_1 t)
     5.02580138E-01    2    -1000037         6   # BR(~b_1 -> chi^-_2 t)
DECAY   2000005     1.69745961E+01   # ~b_2
#    BR                NDA      ID1      ID2
     1.05316723E-01    2     1000022         5   # BR(~b_2 -> chi^0_1 b)
     2.08987715E-03    2     1000023         5   # BR(~b_2 -> chi^0_2 b)
     2.16851501E-01    2     1000025         5   # BR(~b_2 -> chi^0_3 b)
     2.14924847E-01    2     1000035         5   # BR(~b_2 -> chi^0_4 b)
     4.22186932E-03    2    -1000024         6   # BR(~b_2 -> chi^-_1 t)
     4.31886483E-01    2    -1000037         6   # BR(~b_2 -> chi^-_2 t)
     1.13834240E-02    2     1000006       -24   # BR(~b_2 -> ~t_1 W^-)
     5.48393647E-03    2     1000005        23   # BR(~b_2 -> ~b_1 Z)
     7.84133899E-03    2     1000005        25   # BR(~b_2 -> ~b_1 h^0)
DECAY   2000002     6.65580840E+02   # ~u_R
#    BR                NDA      ID1      ID2
     3.37919303E-02    2     1000022         2   # BR(~u_R -> chi^0_1 u)
     9.66159103E-01    2     1000021         2   # BR(~u_R -> ~g u)
DECAY   1000002     7.78836671E+02   # ~u_L
#    BR                NDA      ID1      ID2
     1.80543760E-03    2     1000022         2   # BR(~u_L -> chi^0_1 u)
     5.60234638E-02    2     1000023         2   # BR(~u_L -> chi^0_2 u)
     6.18946042E-04    2     1000035         2   # BR(~u_L -> chi^0_4 u)
     1.12634947E-01    2     1000024         1   # BR(~u_L -> chi^+_1 d)
     7.22594258E-04    2     1000037         1   # BR(~u_L -> chi^+_2 d)
     8.28157879E-01    2     1000021         2   # BR(~u_L -> ~g u)
DECAY   2000004     6.65588026E+02   # ~c_R
#    BR                NDA      ID1      ID2
     3.37915681E-02    2     1000022         4   # BR(~c_R -> chi^0_1 c)
     9.66148791E-01    2     1000021         4   # BR(~c_R -> ~g c)
DECAY   1000004     7.78851309E+02   # ~c_L
#    BR                NDA      ID1      ID2
     1.80540399E-03    2     1000022         4   # BR(~c_L -> chi^0_1 c)
     5.60224369E-02    2     1000023         4   # BR(~c_L -> chi^0_2 c)
     6.21201094E-04    2     1000035         4   # BR(~c_L -> chi^0_4 c)
     1.12633137E-01    2     1000024         3   # BR(~c_L -> chi^+_1 s)
     7.36265421E-04    2     1000037         3   # BR(~c_L -> chi^+_2 s)
     8.28142536E-01    2     1000021         4   # BR(~c_L -> ~g c)
DECAY   1000006     8.09731809E+01   # ~t_1
#    BR                NDA      ID1      ID2
     5.10614543E-03    2     1000022         6   # BR(~t_1 -> chi^0_1 t)
     1.41792593E-01    2     1000023         6   # BR(~t_1 -> chi^0_2 t)
     2.51895482E-01    2     1000025         6   # BR(~t_1 -> chi^0_3 t)
     2.44393980E-01    2     1000035         6   # BR(~t_1 -> chi^0_4 t)
     2.83243715E-01    2     1000024         5   # BR(~t_1 -> chi^+_1 b)
     7.21298635E-02    2     1000037         5   # BR(~t_1 -> chi^+_2 b)
#    BR                NDA      ID1      ID2       ID3
     1.39652111E-03    3     1000022        24         5   # BR(~t_1 -> chi^0_1 W^+ b)
DECAY   2000006     2.59151473E+02   # ~t_2
#    BR                NDA      ID1      ID2
     3.50588152E-02    2     1000022         6   # BR(~t_2 -> chi^0_1 t)
     2.56253652E-04    2     1000023         6   # BR(~t_2 -> chi^0_2 t)
     1.36117483E-01    2     1000025         6   # BR(~t_2 -> chi^0_3 t)
     1.36505875E-01    2     1000035         6   # BR(~t_2 -> chi^0_4 t)
     5.22471185E-04    2     1000024         5   # BR(~t_2 -> chi^+_1 b)
     2.73465056E-01    2     1000037         5   # BR(~t_2 -> chi^+_2 b)
     1.87602365E-01    2     1000021         6   # BR(~t_2 -> ~g t)
     9.13463593E-02    2     1000005        24   # BR(~t_2 -> ~b_1 W^+)
     5.37441436E-03    2     1000005        37   # BR(~t_2 -> ~b_1 H^+)
     4.56606290E-02    2     1000006        23   # BR(~t_2 -> ~t_1 Z)
     2.73068081E-03    2     1000006        36   # BR(~t_2 -> ~t_1 A^0)
     8.26164673E-02    2     1000006        25   # BR(~t_2 -> ~t_1 h^0)
     2.70758181E-03    2     1000006        35   # BR(~t_2 -> ~t_1 H^0)
DECAY   1000024     2.64753419E-03   # chi^+_1
#    BR                NDA      ID1      ID2
     9.92827073E-01    2     1000022        24   # BR(chi^+_1 -> chi^0_1 W^+)
#    BR                NDA      ID1      ID2       ID3
     7.11848698E-03    3     1000022        -5         6   # BR(chi^+_1 -> chi^0_1 b_bar t)
DECAY   1000037     8.00394875E+00   # chi^+_2
#    BR                NDA      ID1      ID2
     9.52485563E-02    2     1000022        24   # BR(chi^+_2 -> chi^0_1 W^+)
     3.15545216E-01    2     1000023        24   # BR(chi^+_2 -> chi^0_2 W^+)
     4.45515733E-03    2          37   1000022   # BR(chi^+_2 -> H^+ chi^0_1)
     2.91747907E-01    2     1000024        23   # BR(chi^+_2 -> chi^+_1 Z)
     2.85951219E-01    2     1000024        25   # BR(chi^+_2 -> chi^+_1 h^0)
#    BR                NDA      ID1      ID2       ID3
     1.79932888E-03    3     1000024         6        -6   # BR(chi^+_2 -> chi^+_1 t t_bar)
     2.00906991E-03    3     1000022        -5         6   # BR(chi^+_2 -> chi^0_1 b_bar t)
     3.19181687E-03    3     1000023        -5         6   # BR(chi^+_2 -> chi^0_2 b_bar t)
DECAY   1000022     0.00000000E+00   # chi^0_1
DECAY   1000023     2.95069477E-03   # chi^0_2
#    BR                NDA      ID1      ID2
     4.13769385E-01    2     1000022        23   # BR(chi^0_2 -> chi^0_1 Z)
     5.84437667E-01    2     1000022        25   # BR(chi^0_2 -> chi^0_1 h^0)
#    BR                NDA      ID1      ID2       ID3
     1.24715866E-03    3     1000022         6        -6   # BR(chi^0_2 -> chi^0_1 t t_bar)
     4.30952415E-04    3     1000022         5        -5   # BR(chi^0_2 -> chi^0_1 b b_bar)
DECAY   1000025     9.66406925E+00   # chi^0_3
#    BR                NDA      ID1      ID2
     2.41776200E-01    2     1000024       -24   # BR(chi^0_3 -> chi^+_1 W^-)
     2.41776200E-01    2    -1000024        24   # BR(chi^0_3 -> chi^-_1 W^+)
     3.93519865E-02    2     1000022        23   # BR(chi^0_3 -> chi^0_1 Z)
     2.36828043E-01    2     1000023        23   # BR(chi^0_3 -> chi^0_2 Z)
     1.01753553E-03    2     1000022        36   # BR(chi^0_3 -> chi^0_1 A^0)
     3.67818148E-02    2     1000022        25   # BR(chi^0_3 -> chi^0_1 h^0)
     1.92868091E-01    2     1000023        25   # BR(chi^0_3 -> chi^0_2 h^0)
     2.87843257E-03    2     1000022        35   # BR(chi^0_3 -> chi^0_1 H^0)
#    BR                NDA      ID1      ID2       ID3
     8.65192631E-04    3     1000022         6        -6   # BR(chi^0_3 -> chi^0_1 t t_bar)
     3.60491298E-04    3     1000023         6        -6   # BR(chi^0_3 -> chi^0_2 t t_bar)
     2.72647698E-03    3     1000024         5        -6   # BR(chi^0_3 -> chi^+_1 b t_bar)
     2.72647698E-03    3    -1000024        -5         6   # BR(chi^0_3 -> chi^-_1 b_bar t)
DECAY   1000035     8.10581541E+00   # chi^0_4
#    BR                NDA      ID1      ID2
     3.01394019E-01    2     1000024       -24   # BR(chi^0_4 -> chi^+_1 W^-)
     3.01394019E-01    2    -1000024        24   # BR(chi^0_4 -> chi^-_1 W^+)
     4.75013882E-02    2     1000022        23   # BR(chi^0_4 -> chi^0_1 Z)
     2.12731695E-02    2     1000023        23   # BR(chi^0_4 -> chi^0_2 Z)
     1.52266711E-03    2     1000022        36   # BR(chi^0_4 -> chi^0_1 A^0)
     5.16292077E-02    2     1000022        25   # BR(chi^0_4 -> chi^0_1 h^0)
     2.63674874E-01    2     1000023        25   # BR(chi^0_4 -> chi^0_2 h^0)
     2.96017718E-03    2     1000022        35   # BR(chi^0_4 -> chi^0_1 H^0)
#    BR                NDA      ID1      ID2       ID3
     1.10517295E-03    3     1000022         6        -6   # BR(chi^0_4 -> chi^0_1 t t_bar)
     5.36629252E-04    3     1000023         6        -6   # BR(chi^0_4 -> chi^0_2 t t_bar)
     3.48852061E-03    3     1000024         5        -6   # BR(chi^0_4 -> chi^+_1 b t_bar)
     3.48852061E-03    3    -1000024        -5         6   # BR(chi^0_4 -> chi^-_1 b_bar t)
DECAY   1000021     8.54331931E+00   # ~g
#    BR                NDA      ID1      ID2
     2.41235829E-01    2     1000006        -6   # BR(~g -> ~t_1 t_bar)
     2.41235829E-01    2    -1000006         6   # BR(~g -> ~t^*_1 t)
     2.52635389E-01    2     1000005        -5   # BR(~g -> ~b_1 b_bar)
     2.52635389E-01    2    -1000005         5   # BR(~g -> ~b^*_1 b)
     3.69546450E-04    2     1000025        21   # BR(~g -> chi^0_3 g)
     3.12801336E-04    2     1000035        21   # BR(~g -> chi^0_4 g)
#    BR                NDA      ID1      ID2       ID3
     4.41604251E-04    3     1000022         6        -6   # BR(~g -> chi^0_1 t t_bar)
     9.74640685E-04    3     1000022         5        -5   # BR(~g -> chi^0_1 b b_bar)
     8.75471937E-04    3     1000025         6        -6   # BR(~g -> chi^0_3 t t_bar)
     1.57005242E-03    3     1000025         5        -5   # BR(~g -> chi^0_3 b b_bar)
     8.66198478E-04    3     1000035         6        -6   # BR(~g -> chi^0_4 t t_bar)
     1.55307726E-03    3     1000035         5        -5   # BR(~g -> chi^0_4 b b_bar)
     2.45717563E-03    3     1000037         5        -6   # BR(~g -> chi^+_2 b t_bar)
     2.45717563E-03    3    -1000037        -5         6   # BR(~g -> chi^-_2 b_bar t)
DECAY        25     3.92815657E-03   # Gamma(h0)
     2.26678542E-03   2        22        22   # BR(h0 -> photon photon)
     1.39603205E-03   2        22        23   # BR(h0 -> photon Z)
     2.51821571E-02   2        23        23   # BR(h0 -> Z Z)
     2.10720339E-01   2       -24        24   # BR(h0 -> W W)
     7.04355275E-02   2        21        21   # BR(h0 -> gluon gluon)
     5.27277397E-09   2       -11        11   # BR(h0 -> Electron electron)
     2.34542052E-04   2       -13        13   # BR(h0 -> Muon muon)
     6.76260182E-02   2       -15        15   # BR(h0 -> Tau tau)
     1.43413762E-07   2        -2         2   # BR(h0 -> Up up)
     2.78295018E-02   2        -4         4   # BR(h0 -> Charm charm)
     6.11291433E-07   2        -1         1   # BR(h0 -> Down down)
     2.21090857E-04   2        -3         3   # BR(h0 -> Strange strange)
     5.94074739E-01   2        -5         5   # BR(h0 -> Bottom bottom)
     1.25072390E-05   2   1000022   1000022   # BR(h0 -> neutralino1 neutralino1)
DECAY        35     1.18392977E+01   # Gamma(HH)
     7.43739200E-08   2        22        22   # BR(HH -> photon photon)
     1.36244805E-07   2        22        23   # BR(HH -> photon Z)
     1.81167338E-05   2        23        23   # BR(HH -> Z Z)
     2.40864848E-05   2       -24        24   # BR(HH -> W W)
     4.52710198E-05   2        21        21   # BR(HH -> gluon gluon)
     8.21214980E-09   2       -11        11   # BR(HH -> Electron electron)
     3.65521057E-04   2       -13        13   # BR(HH -> Muon muon)
     1.05547777E-01   2       -15        15   # BR(HH -> Tau tau)
     4.55852172E-13   2        -2         2   # BR(HH -> Up up)
     8.84139333E-08   2        -4         4   # BR(HH -> Charm charm)
     6.63511792E-03   2        -6         6   # BR(HH -> Top top)
     7.09245026E-07   2        -1         1   # BR(HH -> Down down)
     2.56542038E-04   2        -3         3   # BR(HH -> Strange strange)
     8.85445342E-01   2        -5         5   # BR(HH -> Bottom bottom)
     2.80498547E-04   2   1000022   1000022   # BR(HH -> neutralino1 neutralino1)
     1.31301887E-03   2   1000022   1000023   # BR(HH -> neutralino1 neutralino2)
     6.76919804E-05   2        25        25   # BR(HH -> h0 h0)
DECAY        36     1.16054404E+01   # Gamma(A0)
     7.08486101E-08   2        22        22   # BR(A0 -> photon photon)
     9.39386481E-08   2        22        23   # BR(A0 -> photon Z)
     1.02411934E-04   2        21        21   # BR(A0 -> gluon gluon)
     8.20972389E-09   2       -11        11   # BR(A0 -> Electron electron)
     3.65412881E-04   2       -13        13   # BR(A0 -> Muon muon)
     1.05517909E-01   2       -15        15   # BR(A0 -> Tau tau)
     4.23306334E-13   2        -2         2   # BR(A0 -> Up up)
     8.21026692E-08   2        -4         4   # BR(A0 -> Charm charm)
     7.06064458E-03   2        -6         6   # BR(A0 -> Top top)
     7.09040969E-07   2        -1         1   # BR(A0 -> Down down)
     2.56468343E-04   2        -3         3   # BR(A0 -> Strange strange)
     8.85211786E-01   2        -5         5   # BR(A0 -> Bottom bottom)
     2.89271654E-04   2   1000022   1000022   # BR(A0 -> neutralino1 neutralino1)
     1.16834979E-03   2   1000022   1000023   # BR(A0 -> neutralino1 neutralino2)
     2.67816389E-05   2        23        25   # BR(A0 -> Z h0)
     1.20817930E-38   2        25        25   # BR(A0 -> h0 h0)
DECAY        37     1.07995791E+01   # Gamma(Hp)
     9.14236415E-09   2       -11        12   # BR(Hp -> Electron nu_e)
     3.90864614E-04   2       -13        14   # BR(Hp -> Muon nu_mu)
     1.10558141E-01   2       -15        16   # BR(Hp -> Tau nu_tau)
     6.89085437E-07   2        -1         2   # BR(Hp -> Down up)
     1.14757687E-05   2        -3         2   # BR(Hp -> Strange up)
     9.66729724E-06   2        -5         2   # BR(Hp -> Bottom up)
     3.60022292E-08   2        -1         4   # BR(Hp -> Down charm)
     2.48462610E-04   2        -3         4   # BR(Hp -> Strange charm)
     1.35376387E-03   2        -5         4   # BR(Hp -> Bottom charm)
     4.41966957E-07   2        -1         6   # BR(Hp -> Down top)
     9.98047854E-06   2        -3         6   # BR(Hp -> Strange top)
     8.84646290E-01   2        -5         6   # BR(Hp -> Bottom top)
     2.74062638E-03   2   1000022   1000024   # BR(Hp -> neutralino1 chargino1)
     2.95479968E-05   2        24        25   # BR(Hp -> W h0)
     1.52927793E-09   2        24        35   # BR(Hp -> W HH)
     1.61795605E-09   2        24        36   # BR(Hp -> W A0)
DECAY         6     2.43000000E+00   # top
#    BR                NDA      ID1      ID2
     1.00000000E+00    2           5        24   # BR(t -> b W)
Block HiggsBoundsInputHiggsCouplingsFermions
# ScalarNormEffCoupSq PseudoSNormEffCoupSq NP IP1 IP2 IP2
    9.67359008E-01    0.00000000E+00        3  25   5   5  # h0-b-b eff. coupling^2, normalised to SM
    5.42359393E+02    0.00000000E+00        3  35   5   5  # H0-b-b eff. coupling^2, normalised to SM
    0.00000000E+00    5.42326752E+02        3  36   5   5  # A0-b-b eff. coupling^2, normalised to SM
#
    1.00006019E+00    0.00000000E+00        3  25   6   6  # h0-t-t eff. coupling^2, normalised to SM
    1.78371988E-03    0.00000000E+00        3  35   6   6  # H0-t-t eff. coupling^2, normalised to SM
    0.00000000E+00    1.84390683E-03        3  36   6   6  # A0-t-t eff. coupling^2, normalised to SM
#
    9.67359008E-01    0.00000000E+00        3  25  15  15  # h0-tau-tau eff. coupling^2, normalised to SM
    5.42359393E+02    0.00000000E+00        3  35  15  15  # H0-tau-tau eff. coupling^2, normalised to SM
    0.00000000E+00    5.42326752E+02        3  36  15  15  # A0-tau-tau eff. coupling^2, normalised to SM
#
Block HiggsBoundsInputHiggsCouplingsBosons
    9.99999501E-01        3  25  24  24  # h0-W-W eff. coupling^2, normalised to SM
    4.99308289E-07        3  35  24  24  # H0-W-W eff. coupling^2, normalised to SM
    0.00000000E+00        3  36  24  24  # A0-W-W eff. coupling^2, normalised to SM
#
    9.99999501E-01        3  25  23  23  # h0-Z-Z eff. coupling^2, normalised to SM
    4.99308289E-07        3  35  23  23  # H0-Z-Z eff. coupling^2, normalised to SM
    0.00000000E+00        3  36  23  23  # A0-Z-Z eff. coupling^2, normalised to SM
#
    1.26486981E+00        3  25  21  21  # h0-g-g eff. coupling^2, normalised to SM
    6.39808262E-03        3  35  21  21  # H0-g-g eff. coupling^2, normalised to SM
    1.12131502E-01        3  36  21  21  # A0-g-g eff. coupling^2, normalised to SM
#
    0.00000000E+00        3  25  25  23  # h0-h0-Z eff. coupling^2, normalised to SM
    0.00000000E+00        3  35  25  23  # H0-h0-Z eff. coupling^2, normalised to SM
    4.99308289E-07        3  36  25  23  # A0-h0-Z eff. coupling^2, normalised to SM
    0.00000000E+00        3  35  35  23  # H0-H0-Z eff. coupling^2, normalised to SM
    9.99999501E-01        3  36  35  23  # A0-H0-Z eff. coupling^2, normalised to SM
    0.00000000E+00        3  36  36  23  # A0-A0-Z eff. coupling^2, normalised to SM
#
    0.00000000E+00        4  25  21  21  23  # h0-g-g-Z eff. coupling^2, normalised to SM
    0.00000000E+00        4  35  21  21  23  # H0-g-g-Z eff. coupling^2, normalised to SM
    0.00000000E+00        4  36  21  21  23  # A0-g-g-Z eff. coupling^2, normalised to SM
Block SPhenoLowEnergy  # low energy observables
    1    3.49732508E-04   # BR(b -> s gamma)
    2    1.58764340E-06   # BR(b -> s mu+ mu-)
    3    3.52526616E-05   # BR(b -> s nu nu)
    4    2.79051439E-15   # BR(Bd -> e+ e-)
    5    1.19207123E-10   # BR(Bd -> mu+ mu-)
    6    2.49264763E-08   # BR(Bd -> tau+ tau-)
    7    9.51848186E-14   # BR(Bs -> e+ e-)
    8    4.06627502E-09   # BR(Bs -> mu+ mu-)
    9    8.61458953E-07   # BR(Bs -> tau+ tau-)
   10    9.37307402E-05   # BR(B_u -> tau nu)
   11    9.68202661E-01   # BR(B_u -> tau nu)/BR(B_u -> tau nu)_SM
   12    5.41952112E-01   # |Delta(M_Bd)| [ps^-1] 
   13    1.93509825E+01   # |Delta(M_Bs)| [ps^-1] 
   14    0.00000000E+00   # neutron EDM according to the chiral quark model
   15    0.00000000E+00   # neutron EDM according to the relativistic quark-parton model
   16    2.15735297E-03   # epsilon_K
   17    2.28166243E-15   # Delta(M_K)
   18    2.47980586E-11   # BR(K^0 -> pi^0 nu nu)
   19    8.29006664E-11   # BR(K^+ -> pi^+ nu nu)
   20    1.94286378E-16   # Delta(g-2)_electron/2
   21    8.30637056E-12   # Delta(g-2)_muon/2
   22    2.35114725E-09   # Delta(g-2)_tau/2
   23    0.00000000E+00   # electric dipole moment of the electron
   24    0.00000000E+00   # electric dipole moment of the muon
   25    0.00000000E+00   # electric dipole moment of the tau
   26    0.00000000E+00   # Br(mu -> e gamma)
   27    0.00000000E+00   # Br(tau -> e gamma)
   28    0.00000000E+00   # Br(tau -> mu gamma)
   29    0.00000000E+00   # Br(mu -> 3 e)
   30    0.00000000E+00   # Br(tau -> 3 e)
   31    0.00000000E+00   # Br(tau -> 3 mu)
   39    6.61484547E-05   # Delta(rho_parameter)
   40    0.00000000E+00   # BR(Z -> e mu)
   41    0.00000000E+00   # BR(Z -> e tau)
   42    0.00000000E+00   # BR(Z -> mu tau)
Block FWCOEF Q=  1.60000000E+02  # Wilson coefficients at scale Q
#    id        order  M        value         comment
     0305 4422   00   0    -1.88819110E-01   # C7
     0305 4422   00   2    -2.17499637E-01   # C7
     0305 4322   00   2    -6.60440937E-04   # C7'
     0305 6421   00   0    -9.52278348E-02   # C8
     0305 6421   00   2    -1.32807952E-01   # C8
     0305 6321   00   2    -7.91107121E-04   # C8'
 03051111 4133   00   0     1.62097590E+00   # C9 e+e-
 03051111 4133   00   2     1.62130899E+00   # C9 e+e-
 03051111 4233   00   2     9.68533463E-05   # C9' e+e-
 03051111 4137   00   0    -4.44366800E+00   # C10 e+e-
 03051111 4137   00   2    -4.44202359E+00   # C10 e+e-
 03051111 4237   00   2    -7.21591575E-04   # C10' e+e-
 03051313 4133   00   0     1.62097590E+00   # C9 mu+mu-
 03051313 4133   00   2     1.62130895E+00   # C9 mu+mu-
 03051313 4233   00   2     9.68515163E-05   # C9' mu+mu-
 03051313 4137   00   0    -4.44366800E+00   # C10 mu+mu-
 03051313 4137   00   2    -4.44202364E+00   # C10 mu+mu-
 03051313 4237   00   2    -7.21589811E-04   # C10' mu+mu-
 03051212 4137   00   0     1.50535012E+00   # C11 nu_1 nu_1
 03051212 4137   00   2     1.50499606E+00   # C11 nu_1 nu_1
 03051212 4237   00   2     1.56234914E-04   # C11' nu_1 nu_1
 03051414 4137   00   0     1.50535012E+00   # C11 nu_2 nu_2
 03051414 4137   00   2     1.50499606E+00   # C11 nu_2 nu_2
 03051414 4237   00   2     1.56235306E-04   # C11' nu_2 nu_2
 03051616 4137   00   0     1.50535012E+00   # C11 nu_3 nu_3
 03051616 4137   00   2     1.50499606E+00   # C11 nu_3 nu_3
 03051616 4237   00   2     1.56345963E-04   # C11' nu_3 nu_3
Block IMFWCOEF Q=  1.60000000E+02  # Im(Wilson coefficients) at scale Q
#    id        order  M        value         comment
     0305 4422   00   0     3.85844020E-07   # C7
     0305 4422   00   2     5.60553009E-06   # C7
     0305 4322   00   2     5.85351205E-07   # C7'
     0305 6421   00   0     3.30500920E-07   # C8
     0305 6421   00   2     1.29158296E-05   # C8
     0305 6321   00   2     4.22451518E-07   # C8'
 03051111 4133   00   2     9.29897623E-07   # C9 e+e-
 03051111 4233   00   2     3.09742526E-06   # C9' e+e-
 03051111 4137   00   2     2.58925989E-07   # C10 e+e-
 03051111 4237   00   2    -2.30984965E-05   # C10' e+e-
 03051313 4133   00   2     9.29896011E-07   # C9 mu+mu-
 03051313 4233   00   2     3.09742496E-06   # C9' mu+mu-
 03051313 4137   00   2     2.58927627E-07   # C10 mu+mu-
 03051313 4237   00   2    -2.30984974E-05   # C10' mu+mu-
 03051212 4137   00   2    -2.06757565E-08   # C11 nu_1 nu_1
 03051212 4237   00   2     5.00116899E-06   # C11' nu_1 nu_1
 03051414 4137   00   2    -2.06756759E-08   # C11 nu_2 nu_2
 03051414 4237   00   2     5.00116899E-06   # C11' nu_2 nu_2
 03051616 4137   00   2    -2.06530529E-08   # C11 nu_3 nu_3
 03051616 4237   00   2     5.00116898E-06   # C11' nu_3 nu_3
