# SUSY Les Houches Accord 2 - MSSM spectrum + Decays
# SPheno v4.0.5be
# W. Porod, Comput. Phys. Commun. 153 (2003) 275-315, hep-ph/0301101;
# W. Porod, F.~Staub, Comput. Phys. Commun. 183 (2012) 2458
#                     arXiv:1104.1573 [hep-ph] 
# in case of problems send email to porod@physik.uni-wuerzburg.de
# Created: 12.05.2022,  15:25
Block SPINFO         # Program information
     1   SPheno      # spectrum calculator
     2   v4.0.5be    # version number
#
Block SPhenoINFO     # SPheno specific information
    1      2         # using 2-loop RGEs
    2      2         # using pole masses for boundary conditions at mZ
Block MODSEL  # Model selection
    1    0    # general MSSM
Block MINPAR  # Input parameters
    3    2.11044462E+01  # tanb at m_Z    
    4    1.00000000E+00  # Sign(mu)
Block EXTPAR  # non-universal input parameters
    0    2.37863925E+03  # scale for input parameters
    1    1.53583095E+02  # M_1
    2    1.51268541E+02  # M_2
    3    1.30826155E+03  # M_3
   11   -6.31743893E+03  # A_t
   12   -1.55655030E+03  # A_b
   13   -1.79230367E+03  # A_tau
   23    1.87292386E+03  # mu
   25    2.02918276E+01  # tan(beta)
   26    1.22435148E+03  # m_A, pole mass
   31    1.00000000E+04  # M_L11
   32    1.00000000E+04  # M_L22
   33    1.00000000E+04  # M_L33
   34    1.00000000E+04  # M_E11
   35    1.00000000E+04  # M_E22
   36    1.00000000E+04  # M_E33
   41    1.00000000E+04  # M_Q11
   42    1.00000000E+04  # M_Q22
   43    2.01256395E+03  # M_Q33
   44    1.00000000E+04  # M_U11
   45    1.00000000E+04  # M_U22
   46    2.96277062E+03  # M_U33
   47    1.00000000E+04  # M_D11
   48    1.00000000E+04  # M_D22
   49    4.59411828E+03  # M_D33
Block SMINPUTS  # SM parameters
         1     1.27908970E+02  # alpha_em^-1(MZ)^MSbar
         2     1.16637870E-05  # G_mu [GeV^-2]
         3     1.18400000E-01  # alpha_s(MZ)^MSbar
         4     9.11876000E+01  # m_Z(pole)
         5     4.18000000E+00  # m_b(m_b), MSbar
         6     1.73200000E+02  # m_t(pole)
         7     1.77700000E+00  # m_tau(pole)
         8     0.00000000E+00  # m_nu_3
        11     5.10998930E-04  # m_e(pole)
        12     0.00000000E+00  # m_nu_1
        13     1.05658372E-01  # m_muon(pole)
        14     0.00000000E+00  # m_nu_2
        21     5.00000000E-03  # m_d(2 GeV), MSbar
        22     2.50000000E-03  # m_u(2 GeV), MSbar
        23     9.50000000E-02  # m_s(2 GeV), MSbar
        24     1.27000000E+00  # m_c(m_c), MSbar
Block gauge Q=  2.37863925E+03  # (SUSY scale)
   1    3.55362975E-01  # g'(Q)^DRbar
   2    6.65198874E-01  # g(Q)^DRbar
   3    1.21977796E+00  # g3(Q)^DRbar
Block Yu Q=  2.37863925E+03  # (SUSY scale)
  1  1     8.39454714E-06   # Y_u(Q)^DRbar
  2  2     4.26442995E-03   # Y_c(Q)^DRbar
  3  3     1.01412872E+00   # Y_t(Q)^DRbar
Block Yd Q=  2.37863925E+03  # (SUSY scale)
  1  1     3.42293525E-04   # Y_d(Q)^DRbar
  2  2     6.50357697E-03   # Y_s(Q)^DRbar
  3  3     3.39447917E-01   # Y_b(Q)^DRbar
Block Ye Q=  2.37863925E+03  # (SUSY scale)
  1  1     5.97327231E-05   # Y_e(Q)^DRbar
  2  2     1.23508327E-02   # Y_mu(Q)^DRbar
  3  3     2.07720687E-01   # Y_tau(Q)^DRbar
Block Au Q=  2.37863925E+03  # (SUSY scale)
  1  1     0.00000000E+00   # A_u(Q)^DRbar
  2  2     0.00000000E+00   # A_c(Q)^DRbar
  3  3    -6.31743887E+03   # A_t(Q)^DRbar
Block Ad Q=  2.37863925E+03  # (SUSY scale)
  1  1     0.00000000E+00   # A_d(Q)^DRbar
  2  2     0.00000000E+00   # A_s(Q)^DRbar
  3  3    -1.55655034E+03   # A_b(Q)^DRbar
Block Ae Q=  2.37863925E+03  # (SUSY scale)
  1  1     0.00000000E+00   # A_e(Q)^DRbar
  2  2     0.00000000E+00   # A_mu(Q)^DRbar
  3  3    -1.79230367E+03   # A_tau(Q)^DRbar
Block MSOFT Q=  2.37863925E+03  # soft SUSY breaking masses at Q
   1    1.53583095E+02  # M_1
   2    1.51268541E+02  # M_2
   3    1.30826155E+03  # M_3
  21   -2.16943487E+06  # M^2_(H,d)
  22   -3.47238873E+06  # M^2_(H,u)
  31    1.00000000E+04  # M_(L,11)
  32    1.00000000E+04  # M_(L,22)
  33    1.00000000E+04  # M_(L,33)
  34    1.00000000E+04  # M_(E,11)
  35    1.00000000E+04  # M_(E,22)
  36    1.00000000E+04  # M_(E,33)
  41    1.00000000E+04  # M_(Q,11)
  42    1.00000000E+04  # M_(Q,22)
  43    2.01256395E+03  # M_(Q,33)
  44    1.00000000E+04  # M_(U,11)
  45    1.00000000E+04  # M_(U,22)
  46    2.96277062E+03  # M_(U,33)
  47    1.00000000E+04  # M_(D,11)
  48    1.00000000E+04  # M_(D,22)
  49    4.59411828E+03  # M_(D,33)
Block MASS  # Mass spectrum
#   PDG code      mass          particle
         6     1.73200000E+02  # m_t(pole)
        23     9.11876000E+01  # m_Z(pole)
        24     8.04299946E+01  # W+
        15     1.77700000E+00  # m_tau(pole)
        25     1.26212204E+02  # h0
        35     1.22428432E+03  # H0
        36     1.22435148E+03  # A0
        37     1.22823493E+03  # H+
   1000001     1.01218927E+04  # ~d_L
   2000001     1.00964750E+04  # ~d_R
   1000002     1.01215408E+04  # ~u_L
   2000002     1.00994088E+04  # ~u_R
   1000003     1.01218965E+04  # ~s_L
   2000003     1.00964796E+04  # ~s_R
   1000004     1.01215444E+04  # ~c_L
   2000004     1.00994110E+04  # ~c_R
   1000005     2.02308486E+03  # ~b_1
   2000005     4.63699731E+03  # ~b_2
   1000006     1.97932810E+03  # ~t_1
   2000006     2.85850773E+03  # ~t_2
   1000011     1.00213399E+04  # ~e_L-
   2000011     1.00090818E+04  # ~e_R-
   1000012     1.00205830E+04  # ~nu_eL
   1000013     1.00213558E+04  # ~mu_L-
   2000013     1.00091032E+04  # ~mu_R-
   1000014     1.00205957E+04  # ~nu_muL
   1000015     1.00149261E+04  # ~tau_1-
   2000015     1.00262142E+04  # ~tau_2-
   1000016     1.00242175E+04  # ~nu_tauL
   1000021     1.62208153E+03  # ~g
   1000022     1.55526323E+02  # ~chi_10
   1000023     1.68381427E+02  # ~chi_20
   1000025     1.88071941E+03  # ~chi_30
   1000035     1.88091396E+03  # ~chi_40
   1000024     1.68559906E+02  # ~chi_1+
   1000037     1.88259168E+03  # ~chi_2+
# Higgs mixing
Block alpha # Effective Higgs mixing angle
          -4.82644644E-02   # alpha
Block Hmix Q=  2.37863925E+03  # Higgs mixing parameters
   1    1.87292386E+03  # mu
   2    2.02918276E+01  # tan[beta](Q)
   3    2.43446980E+02  # v(Q)
   4    1.49903655E+06  # m^2_A(Q)
Block stopmix # stop mixing matrix
   1  1     9.78370406E-01   # Re[R_st(1,1)]
   1  2     2.06860699E-01   # Re[R_st(1,2)]
   2  1    -2.06860699E-01   # Re[R_st(2,1)]
   2  2     9.78370406E-01   # Re[R_st(2,2)]
Block sbotmix # sbottom mixing matrix
   1  1     9.99987453E-01   # Re[R_sb(1,1)]
   1  2     5.00940592E-03   # Re[R_sb(1,2)]
   2  1    -5.00940592E-03   # Re[R_sb(2,1)]
   2  2     9.99987453E-01   # Re[R_sb(2,2)]
Block staumix # stau mixing matrix
   1  1     3.35078246E-01   # Re[R_sta(1,1)]
   1  2     9.42190304E-01   # Re[R_sta(1,2)]
   2  1    -9.42190304E-01   # Re[R_sta(2,1)]
   2  2     3.35078246E-01   # Re[R_sta(2,2)]
Block Nmix # neutralino mixing matrix
   1  1     9.99192350E-01   # Re[N(1,1)]
   1  2    -3.10553310E-02   # Re[N(1,2)]
   1  3     2.52578849E-02   # Re[N(1,3)]
   1  4    -3.50051396E-03   # Re[N(1,4)]
   2  1     3.21202274E-02   # Re[N(2,1)]
   2  2     9.98581181E-01   # Re[N(2,2)]
   2  3    -4.20559336E-02   # Re[N(2,3)]
   2  4     5.93412290E-03   # Re[N(2,4)]
   3  1     1.45696524E-02   # Re[N(3,1)]
   3  2    -2.60152422E-02   # Re[N(3,2)]
   3  3    -7.06369974E-01   # Re[N(3,3)]
   3  4    -7.07214531E-01   # Re[N(3,4)]
   4  1     1.92526401E-02   # Re[N(4,1)]
   4  2    -3.45600631E-02   # Re[N(4,2)]
   4  3    -7.06140778E-01   # Re[N(4,3)]
   4  4     7.06965445E-01   # Re[N(4,4)]
Block Umix # chargino mixing matrix
   1  1    -9.98166158E-01   # Re[U(1,1)]
   1  2     6.05336392E-02   # Re[U(1,2)]
   2  1     6.05336392E-02   # Re[U(2,1)]
   2  2     9.98166158E-01   # Re[U(2,2)]
Block Vmix # chargino mixing matrix
   1  1    -9.99963409E-01   # Re[V(1,1)]
   1  2     8.55457162E-03   # Re[V(1,2)]
   2  1     8.55457162E-03   # Re[V(2,1)]
   2  2     9.99963409E-01   # Re[V(2,2)]
DECAY        23     2.49520000E+00   # Z
DECAY        24     2.08500000E+00   # W
DECAY   2000011     5.02656746E+01   # ~e^-_R
#    BR                NDA      ID1      ID2
     9.98425528E-01    2     1000022        11   # BR(~e^-_R -> chi^0_1 e^-)
     1.03166477E-03    2     1000023        11   # BR(~e^-_R -> chi^0_2 e^-)
     1.97659808E-04    2     1000025        11   # BR(~e^-_R -> chi^0_3 e^-)
     3.45134066E-04    2     1000035        11   # BR(~e^-_R -> chi^0_4 e^-)
DECAY   1000011     1.44809908E+02   # ~e^-_L
#    BR                NDA      ID1      ID2
     7.69480664E-02    2     1000022        11   # BR(~e^-_L -> chi^0_1 e^-)
     3.14087704E-01    2     1000023        11   # BR(~e^-_L -> chi^0_2 e^-)
     1.67071046E-04    2     1000035        11   # BR(~e^-_L -> chi^0_4 e^-)
     6.06625385E-01    2    -1000024        12   # BR(~e^-_L -> chi^-_1 nu_e)
     2.07752920E-03    2    -1000037        12   # BR(~e^-_L -> chi^-_2 nu_e)
#    BR                NDA      ID1      ID2       ID3
DECAY   2000013     5.03223256E+01   # ~mu^-_R
#    BR                NDA      ID1      ID2
     9.97304057E-01    2     1000022        13   # BR(~mu^-_R -> chi^0_1 mu^-)
     1.03157256E-03    2     1000023        13   # BR(~mu^-_R -> chi^0_2 mu^-)
     4.77718264E-04    2     1000025        13   # BR(~mu^-_R -> chi^0_3 mu^-)
     6.24841387E-04    2     1000035        13   # BR(~mu^-_R -> chi^0_4 mu^-)
     5.59600282E-04    2    -1000037        14   # BR(~mu^-_R -> chi^-_2 nu_mu)
DECAY   1000013     1.44838451E+02   # ~mu^-_L
#    BR                NDA      ID1      ID2
     7.69331589E-02    2     1000022        13   # BR(~mu^-_L -> chi^0_1 mu^-)
     3.14026678E-01    2     1000023        13   # BR(~mu^-_L -> chi^0_2 mu^-)
     1.91743260E-04    2     1000025        13   # BR(~mu^-_L -> chi^0_3 mu^-)
     2.64490689E-04    2     1000035        13   # BR(~mu^-_L -> chi^0_4 mu^-)
     6.06506805E-01    2    -1000024        14   # BR(~mu^-_L -> chi^-_1 nu_mu)
     2.07712358E-03    2    -1000037        14   # BR(~mu^-_L -> chi^-_2 nu_mu)
#    BR                NDA      ID1      ID2       ID3
DECAY   1000015     7.61217898E+01   # ~tau^-_1
#    BR                NDA      ID1      ID2
     6.04411411E-01    2     1000022        15   # BR(~tau^-_1 -> chi^0_1 tau^-)
     7.45089098E-02    2     1000023        15   # BR(~tau^-_1 -> chi^0_2 tau^-)
     4.89916792E-02    2     1000025        15   # BR(~tau^-_1 -> chi^0_3 tau^-)
     4.78879712E-02    2     1000035        15   # BR(~tau^-_1 -> chi^0_4 tau^-)
     1.43643641E-01    2    -1000024        16   # BR(~tau^-_1 -> chi^-_1 nu_tau)
     8.05563883E-02    2    -1000037        16   # BR(~tau^-_1 -> chi^-_2 nu_tau)
DECAY   2000015     1.43060684E+02   # ~tau^-_2
#    BR                NDA      ID1      ID2
     1.07443703E-01    2     1000022        15   # BR(~tau^-_2 -> chi^0_1 tau^-)
     2.78968112E-01    2     1000023        15   # BR(~tau^-_2 -> chi^0_2 tau^-)
     2.99475927E-02    2     1000025        15   # BR(~tau^-_2 -> chi^0_3 tau^-)
     3.06243372E-02    2     1000035        15   # BR(~tau^-_2 -> chi^0_4 tau^-)
     5.38043785E-01    2    -1000024        16   # BR(~tau^-_2 -> chi^-_1 nu_tau)
     1.49724709E-02    2    -1000037        16   # BR(~tau^-_2 -> chi^-_2 nu_tau)
#    BR                NDA      ID1      ID2       ID3
DECAY   1000012     1.44814228E+02   # ~nu_e
#    BR                NDA      ID1      ID2
     9.71255502E-02    2     1000022        12   # BR(~nu_e -> chi^0_1 nu_e)
     2.93191321E-01    2     1000023        12   # BR(~nu_e -> chi^0_2 nu_e)
     3.23843315E-04    2     1000025        12   # BR(~nu_e -> chi^0_3 nu_e)
     5.70114345E-04    2     1000035        12   # BR(~nu_e -> chi^0_4 nu_e)
     6.08747681E-01    2     1000024        11   # BR(~nu_e -> chi^+_1 e^-)
#    BR                NDA      ID1      ID2       ID3
DECAY   1000014     1.44842720E+02   # ~nu_mu
#    BR                NDA      ID1      ID2
     9.71065678E-02    2     1000022        14   # BR(~nu_mu -> chi^0_1 nu_mu)
     2.93134019E-01    2     1000023        14   # BR(~nu_mu -> chi^0_2 nu_mu)
     3.23780082E-04    2     1000025        14   # BR(~nu_mu -> chi^0_3 nu_mu)
     5.70003026E-04    2     1000035        14   # BR(~nu_mu -> chi^0_4 nu_mu)
     6.08629475E-01    2     1000024        13   # BR(~nu_mu -> chi^+_1 mu^-)
     2.36154866E-04    2     1000037        13   # BR(~nu_mu -> chi^+_2 mu^-)
#    BR                NDA      ID1      ID2       ID3
DECAY   1000016     1.52877491E+02   # ~nu_tau
#    BR                NDA      ID1      ID2
     9.20362305E-02    2     1000022        16   # BR(~nu_tau -> chi^0_1 nu_tau)
     2.77828291E-01    2     1000023        16   # BR(~nu_tau -> chi^0_2 nu_tau)
     3.06890262E-04    2     1000025        16   # BR(~nu_tau -> chi^0_3 nu_tau)
     5.40269121E-04    2     1000035        16   # BR(~nu_tau -> chi^0_4 nu_tau)
     5.77055673E-01    2     1000024        15   # BR(~nu_tau -> chi^+_1 tau^-)
     5.22326459E-02    2     1000037        15   # BR(~nu_tau -> chi^+_2 tau^-)
#    BR                NDA      ID1      ID2       ID3
DECAY   2000001     7.61973132E+02   # ~d_R
#    BR                NDA      ID1      ID2
     7.38217229E-03    2     1000022         1   # BR(~d_R -> chi^0_1 d)
     9.92606124E-01    2     1000021         1   # BR(~d_R -> ~g d)
DECAY   1000001     8.93409383E+02   # ~d_L
#    BR                NDA      ID1      ID2
     2.17690648E-03    2     1000022         1   # BR(~d_L -> chi^0_1 d)
     4.91305071E-02    2     1000023         1   # BR(~d_L -> chi^0_2 d)
     9.93136962E-02    2    -1000024         2   # BR(~d_L -> chi^-_1 u)
     3.40611109E-04    2    -1000037         2   # BR(~d_L -> chi^-_2 u)
     8.48933127E-01    2     1000021         1   # BR(~d_L -> ~g d)
DECAY   2000003     7.61989307E+02   # ~s_R
#    BR                NDA      ID1      ID2
     7.38202603E-03    2     1000022         3   # BR(~s_R -> chi^0_1 s)
     9.92585554E-01    2     1000021         3   # BR(~s_R -> ~g s)
DECAY   1000003     8.93421080E+02   # ~s_L
#    BR                NDA      ID1      ID2
     2.17688485E-03    2     1000022         3   # BR(~s_L -> chi^0_1 s)
     4.91298991E-02    2     1000023         3   # BR(~s_L -> chi^0_2 s)
     9.93124297E-02    2    -1000024         4   # BR(~s_L -> chi^-_1 c)
     3.44430493E-04    2    -1000037         4   # BR(~s_L -> chi^-_2 c)
     8.48922364E-01    2     1000021         3   # BR(~s_L -> ~g s)
DECAY   1000005     4.67497481E+01   # ~b_1
#    BR                NDA      ID1      ID2
     8.30266249E-03    2     1000022         5   # BR(~b_1 -> chi^0_1 b)
     1.85391569E-01    2     1000023         5   # BR(~b_1 -> chi^0_2 b)
     9.17192922E-04    2     1000025         5   # BR(~b_1 -> chi^0_3 b)
     9.17159869E-04    2     1000035         5   # BR(~b_1 -> chi^0_4 b)
     3.68778795E-01    2    -1000024         6   # BR(~b_1 -> chi^-_1 t)
     4.35692620E-01    2     1000021         5   # BR(~b_1 -> ~g b)
DECAY   2000005     3.02918970E+02   # ~b_2
#    BR                NDA      ID1      ID2
     8.52839628E-03    2     1000022         5   # BR(~b_2 -> chi^0_1 b)
     1.22316516E-02    2     1000025         5   # BR(~b_2 -> chi^0_3 b)
     1.22263933E-02    2     1000035         5   # BR(~b_2 -> chi^0_4 b)
     2.43487027E-02    2    -1000037         6   # BR(~b_2 -> chi^-_2 t)
     9.30658705E-01    2     1000021         5   # BR(~b_2 -> ~g b)
     2.93744203E-03    2     1000006       -24   # BR(~b_2 -> ~t_1 W^-)
     2.27899512E-03    2     1000006       -37   # BR(~b_2 -> ~t_1 H^-)
     1.45764799E-04    2     2000006       -37   # BR(~b_2 -> ~t_2 H^-)
     1.48818900E-03    2     1000005        23   # BR(~b_2 -> ~b_1 Z)
     1.22717766E-03    2     1000005        36   # BR(~b_2 -> ~b_1 A^0)
     2.49913765E-03    2     1000005        25   # BR(~b_2 -> ~b_1 h^0)
     1.23018530E-03    2     1000005        35   # BR(~b_2 -> ~b_1 H^0)
DECAY   2000002     7.79124380E+02   # ~u_R
#    BR                NDA      ID1      ID2
     2.88870590E-02    2     1000022         2   # BR(~u_R -> chi^0_1 u)
     9.71067368E-01    2     1000021         2   # BR(~u_R -> ~g u)
DECAY   1000002     8.93399265E+02   # ~u_L
#    BR                NDA      ID1      ID2
     1.07520504E-03    2     1000022         2   # BR(~u_L -> chi^0_1 u)
     5.02679902E-02    2     1000023         2   # BR(~u_L -> chi^0_2 u)
     9.96693171E-02    2     1000024         1   # BR(~u_L -> chi^+_1 d)
     8.48910115E-01    2     1000021         2   # BR(~u_L -> ~g u)
DECAY   2000004     7.79131344E+02   # ~c_R
#    BR                NDA      ID1      ID2
     2.88868060E-02    2     1000022         4   # BR(~c_R -> chi^0_1 c)
     9.71058882E-01    2     1000021         4   # BR(~c_R -> ~g c)
DECAY   1000004     8.93410910E+02   # ~c_L
#    BR                NDA      ID1      ID2
     1.07519142E-03    2     1000022         4   # BR(~c_L -> chi^0_1 c)
     5.02673511E-02    2     1000023         4   # BR(~c_L -> chi^0_2 c)
     9.96680881E-02    2     1000024         3   # BR(~c_L -> chi^+_1 s)
     8.48899349E-01    2     1000021         4   # BR(~c_L -> ~g c)
DECAY   1000006     4.21907533E+01   # ~t_1
#    BR                NDA      ID1      ID2
     8.97967099E-03    2     1000022         6   # BR(~t_1 -> chi^0_1 t)
     1.94447852E-01    2     1000023         6   # BR(~t_1 -> chi^0_2 t)
     3.92081174E-01    2     1000024         5   # BR(~t_1 -> chi^+_1 b)
     1.23520403E-03    2     1000037         5   # BR(~t_1 -> chi^+_2 b)
     4.02362806E-01    2     1000021         6   # BR(~t_1 -> ~g t)
#    BR                NDA      ID1      ID2       ID3
     8.85734214E-04    3     1000022        24         5   # BR(~t_1 -> chi^0_1 W^+ b)
DECAY   2000006     3.34354180E+02   # ~t_2
#    BR                NDA      ID1      ID2
     1.79632244E-02    2     1000022         6   # BR(~t_2 -> chi^0_1 t)
     1.43447266E-03    2     1000023         6   # BR(~t_2 -> chi^0_2 t)
     2.87699118E-02    2     1000025         6   # BR(~t_2 -> chi^0_3 t)
     2.94451626E-02    2     1000035         6   # BR(~t_2 -> chi^0_4 t)
     2.81854462E-03    2     1000024         5   # BR(~t_2 -> chi^+_1 b)
     5.41058527E-02    2     1000037         5   # BR(~t_2 -> chi^+_2 b)
     2.92632260E-01    2     1000021         6   # BR(~t_2 -> ~g t)
     2.49257283E-01    2     1000005        24   # BR(~t_2 -> ~b_1 W^+)
     1.35015498E-01    2     1000006        23   # BR(~t_2 -> ~t_1 Z)
     1.88557791E-01    2     1000006        25   # BR(~t_2 -> ~t_1 h^0)
DECAY   1000024     1.86949678E-09   # chi^+_1
#    BR                NDA      ID1      ID2       ID3
     3.41840682E-01    3     1000022        -1         2   # BR(chi^+_1 -> chi^0_1 d_bar u)
     3.26321619E-01    3     1000022        -3         4   # BR(chi^+_1 -> chi^0_1 s_bar c)
     1.13939515E-01    3     1000022       -11        12   # BR(chi^+_1 -> chi^0_1 e^+ nu_e)
     1.13901713E-01    3     1000022       -13        14   # BR(chi^+_1 -> chi^0_1 mu^+ nu_mu)
     1.03996422E-01    3     1000022       -15        16   # BR(chi^+_1 -> chi^0_1 tau^+ nu_tau)
DECAY   1000037     1.84433495E+01   # chi^+_2
#    BR                NDA      ID1      ID2
     6.24880077E-02    2     1000022        24   # BR(chi^+_2 -> chi^0_1 W^+)
     2.31890787E-01    2     1000023        24   # BR(chi^+_2 -> chi^0_2 W^+)
     1.76506890E-02    2          37   1000022   # BR(chi^+_2 -> H^+ chi^0_1)
     7.27929862E-02    2          37   1000023   # BR(chi^+_2 -> H^+ chi^0_2)
     2.23617138E-01    2     1000024        23   # BR(chi^+_2 -> chi^+_1 Z)
     7.07496856E-02    2     1000024        36   # BR(chi^+_2 -> chi^+_1 A^0)
     2.25514430E-01    2     1000024        25   # BR(chi^+_2 -> chi^+_1 h^0)
     7.07734661E-02    2     1000024        35   # BR(chi^+_2 -> chi^+_1 H^0)
#    BR                NDA      ID1      ID2       ID3
     1.30432417E-02    3     1000024         6        -6   # BR(chi^+_2 -> chi^+_1 t t_bar)
     2.60189656E-04    3     1000024         5        -5   # BR(chi^+_2 -> chi^+_1 b b_bar)
     2.55521743E-03    3     1000022        -5         6   # BR(chi^+_2 -> chi^0_1 b_bar t)
     8.66275701E-03    3     1000023        -5         6   # BR(chi^+_2 -> chi^0_2 b_bar t)
DECAY   1000022     0.00000000E+00   # chi^0_1
DECAY   1000023     1.48158453E-12   # chi^0_2
#    BR                NDA      ID1      ID2
     2.77876816E-01    2     1000022        22   # BR(chi^0_2 -> chi^0_1 photon)
#    BR                NDA      ID1      ID2       ID3
     9.82104950E-02    3     1000022         2        -2   # BR(chi^0_2 -> chi^0_1 u u_bar)
     8.63577173E-02    3     1000022         4        -4   # BR(chi^0_2 -> chi^0_1 c c_bar)
     1.26665208E-01    3     1000022         1        -1   # BR(chi^0_2 -> chi^0_1 d d_bar)
     1.26588122E-01    3     1000022         3        -3   # BR(chi^0_2 -> chi^0_1 s s_bar)
     5.87098141E-02    3     1000022         5        -5   # BR(chi^0_2 -> chi^0_1 b b_bar)
     2.58279867E-02    3     1000022        11       -11   # BR(chi^0_2 -> chi^0_1 e^- e^+)
     2.58056478E-02    3     1000022        13       -13   # BR(chi^0_2 -> chi^0_1 mu^- mu^+)
     2.02603509E-02    3     1000022        15       -15   # BR(chi^0_2 -> chi^0_1 tau^- tau^+)
     1.53697842E-01    3     1000022        12       -12   # BR(chi^0_2 -> chi^0_1 nu_e nu_bar_e)
DECAY   1000025     1.94443107E+01   # chi^0_3
#    BR                NDA      ID1      ID2
     2.12692446E-01    2     1000024       -24   # BR(chi^0_3 -> chi^+_1 W^-)
     2.12692446E-01    2    -1000024        24   # BR(chi^0_3 -> chi^-_1 W^+)
     7.03127706E-02    2          37  -1000024   # BR(chi^0_3 -> H^+ chi^-_1)
     7.03127706E-02    2         -37   1000024   # BR(chi^0_3 -> H^- chi^+_1)
     4.71195488E-02    2     1000022        23   # BR(chi^0_3 -> chi^0_1 Z)
     1.30759903E-01    2     1000023        23   # BR(chi^0_3 -> chi^0_2 Z)
     7.10131685E-03    2     1000022        36   # BR(chi^0_3 -> chi^0_1 A^0)
     2.06897839E-02    2     1000023        36   # BR(chi^0_3 -> chi^0_2 A^0)
     3.54672481E-02    2     1000022        25   # BR(chi^0_3 -> chi^0_1 h^0)
     1.08301797E-01    2     1000023        25   # BR(chi^0_3 -> chi^0_2 h^0)
     1.54868859E-02    2     1000022        35   # BR(chi^0_3 -> chi^0_1 H^0)
     4.74344410E-02    2     1000023        35   # BR(chi^0_3 -> chi^0_2 H^0)
#    BR                NDA      ID1      ID2       ID3
     1.76909078E-03    3     1000022         6        -6   # BR(chi^0_3 -> chi^0_1 t t_bar)
     4.40623173E-03    3     1000023         6        -6   # BR(chi^0_3 -> chi^0_2 t t_bar)
     7.67359261E-03    3     1000024         5        -6   # BR(chi^0_3 -> chi^+_1 b t_bar)
     7.67359261E-03    3    -1000024        -5         6   # BR(chi^0_3 -> chi^-_1 b_bar t)
DECAY   1000035     1.82463515E+01   # chi^0_4
#    BR                NDA      ID1      ID2
     2.26465741E-01    2     1000024       -24   # BR(chi^0_4 -> chi^+_1 W^-)
     2.26465741E-01    2    -1000024        24   # BR(chi^0_4 -> chi^-_1 W^+)
     7.05503919E-02    2          37  -1000024   # BR(chi^0_4 -> H^+ chi^-_1)
     7.05503919E-02    2         -37   1000024   # BR(chi^0_4 -> H^- chi^+_1)
     2.87121715E-02    2     1000022        23   # BR(chi^0_4 -> chi^0_1 Z)
     7.88655694E-02    2     1000023        23   # BR(chi^0_4 -> chi^0_2 Z)
     9.21045006E-03    2     1000022        36   # BR(chi^0_4 -> chi^0_1 A^0)
     2.68361713E-02    2     1000023        36   # BR(chi^0_4 -> chi^0_2 A^0)
     4.57350119E-02    2     1000022        25   # BR(chi^0_4 -> chi^0_1 h^0)
     1.39662470E-01    2     1000023        25   # BR(chi^0_4 -> chi^0_2 h^0)
     1.35696272E-02    2     1000022        35   # BR(chi^0_4 -> chi^0_1 H^0)
     4.15653552E-02    2     1000023        35   # BR(chi^0_4 -> chi^0_2 H^0)
#    BR                NDA      ID1      ID2       ID3
     1.81350719E-03    3     1000022         6        -6   # BR(chi^0_4 -> chi^0_1 t t_bar)
     4.61001166E-03    3     1000023         6        -6   # BR(chi^0_4 -> chi^0_2 t t_bar)
     7.64184660E-03    3     1000024         5        -6   # BR(chi^0_4 -> chi^+_1 b t_bar)
     7.64184660E-03    3    -1000024        -5         6   # BR(chi^0_4 -> chi^-_1 b_bar t)
DECAY   1000021     2.69784499E-02   # ~g
#    BR                NDA      ID1      ID2
#    BR                NDA      ID1      ID2       ID3
     1.57291452E-02    3     1000022         6        -6   # BR(~g -> chi^0_1 t t_bar)
     8.59908993E-03    3     1000022         5        -5   # BR(~g -> chi^0_1 b b_bar)
     1.53327635E-04    3     1000023         2        -2   # BR(~g -> chi^0_2 u u_bar)
     1.53327416E-04    3     1000023         4        -4   # BR(~g -> chi^0_2 c c_bar)
     1.42968905E-01    3     1000023         6        -6   # BR(~g -> chi^0_2 t t_bar)
     1.49775182E-04    3     1000023         1        -1   # BR(~g -> chi^0_2 d d_bar)
     1.49775086E-04    3     1000023         3        -3   # BR(~g -> chi^0_2 s s_bar)
     1.81754854E-01    3     1000023         5        -5   # BR(~g -> chi^0_2 b b_bar)
     3.03273954E-04    3     1000024         1        -2   # BR(~g -> chi^+_1 d u_bar)
     3.03273954E-04    3    -1000024        -1         2   # BR(~g -> chi^-_1 d_bar u)
     3.03273642E-04    3     1000024         3        -4   # BR(~g -> chi^+_1 s c_bar)
     3.03273642E-04    3    -1000024        -3         4   # BR(~g -> chi^-_1 s_bar c)
     3.24393768E-01    3     1000024         5        -6   # BR(~g -> chi^+_1 b t_bar)
     3.24393768E-01    3    -1000024        -5         6   # BR(~g -> chi^-_1 b_bar t)
DECAY        25     3.59929840E-03   # Gamma(h0)
     2.64242432E-03   2        22        22   # BR(h0 -> photon photon)
     1.80138534E-03   2        22        23   # BR(h0 -> photon Z)
     3.46314712E-02   2        23        23   # BR(h0 -> Z Z)
     2.79389923E-01   2       -24        24   # BR(h0 -> W W)
     7.97114496E-02   2        21        21   # BR(h0 -> gluon gluon)
     4.63924009E-09   2       -11        11   # BR(h0 -> Electron electron)
     2.06362303E-04   2       -13        13   # BR(h0 -> Muon muon)
     5.95030588E-02   2       -15        15   # BR(h0 -> Tau tau)
     1.26948057E-07   2        -2         2   # BR(h0 -> Up up)
     2.46404097E-02   2        -4         4   # BR(h0 -> Charm charm)
     5.35847040E-07   2        -1         1   # BR(h0 -> Down down)
     1.93804993E-04   2        -3         3   # BR(h0 -> Strange strange)
     5.17279043E-01   2        -5         5   # BR(h0 -> Bottom bottom)
DECAY        35     7.36503869E+00   # Gamma(HH)
     1.01075743E-07   2        22        22   # BR(HH -> photon photon)
     2.70143871E-07   2        22        23   # BR(HH -> photon Z)
     4.76874121E-05   2        23        23   # BR(HH -> Z Z)
     5.01323258E-05   2       -24        24   # BR(HH -> W W)
     3.73375401E-05   2        21        21   # BR(HH -> gluon gluon)
     9.72582855E-09   2       -11        11   # BR(HH -> Electron electron)
     4.32919975E-04   2       -13        13   # BR(HH -> Muon muon)
     1.25014148E-01   2       -15        15   # BR(HH -> Tau tau)
     1.09214644E-12   2        -2         2   # BR(HH -> Up up)
     2.11818565E-07   2        -4         4   # BR(HH -> Charm charm)
     1.15924848E-02   2        -6         6   # BR(HH -> Top top)
     7.85578551E-07   2        -1         1   # BR(HH -> Down down)
     2.84232874E-04   2        -3         3   # BR(HH -> Strange strange)
     8.53782543E-01   2        -5         5   # BR(HH -> Bottom bottom)
     4.56349990E-03   2  -1000024   1000024   # BR(HH -> Chargino1 chargino1)
     2.82959999E-03   2   1000022   1000022   # BR(HH -> neutralino1 neutralino1)
     8.75434766E-04   2   1000022   1000023   # BR(HH -> neutralino1 neutralino2)
     6.77105724E-05   2   1000023   1000023   # BR(HH -> neutralino2 neutralino2)
     4.20890440E-04   2        25        25   # BR(HH -> h0 h0)
DECAY        36     7.21772703E+00   # Gamma(A0)
     3.77203688E-07   2        22        22   # BR(A0 -> photon photon)
     6.16383992E-07   2        22        23   # BR(A0 -> photon Z)
     1.21362398E-04   2        21        21   # BR(A0 -> gluon gluon)
     9.72408412E-09   2       -11        11   # BR(A0 -> Electron electron)
     4.32842530E-04   2       -13        13   # BR(A0 -> Muon muon)
     1.24992903E-01   2       -15        15   # BR(A0 -> Tau tau)
     9.75881091E-13   2        -2         2   # BR(A0 -> Up up)
     1.89278318E-07   2        -4         4   # BR(A0 -> Charm charm)
     1.11589467E-02   2        -6         6   # BR(A0 -> Top top)
     7.85434793E-07   2        -1         1   # BR(A0 -> Down down)
     2.84180854E-04   2        -3         3   # BR(A0 -> Strange strange)
     8.53660207E-01   2        -5         5   # BR(A0 -> Bottom bottom)
     5.07979292E-03   2  -1000024   1000024   # BR(A0 -> Chargino1 chargino1)
     3.14970201E-03   2   1000022   1000022   # BR(A0 -> neutralino1 neutralino1)
     9.75787647E-04   2   1000022   1000023   # BR(A0 -> neutralino1 neutralino2)
     7.55762402E-05   2   1000023   1000023   # BR(A0 -> neutralino2 neutralino2)
     6.67209599E-05   2        23        25   # BR(A0 -> Z h0)
     9.44525976E-36   2        25        25   # BR(A0 -> h0 h0)
DECAY        37     8.68353203E+00   # Gamma(Hp)
     1.04182223E-08   2       -11        12   # BR(Hp -> Electron nu_e)
     4.45411538E-04   2       -13        14   # BR(Hp -> Muon nu_mu)
     1.25987274E-01   2       -15        16   # BR(Hp -> Tau nu_tau)
     7.33892630E-07   2        -1         2   # BR(Hp -> Down up)
     1.22565579E-05   2        -3         2   # BR(Hp -> Strange up)
     9.27485637E-06   2        -5         2   # BR(Hp -> Bottom up)
     4.21634419E-08   2        -1         4   # BR(Hp -> Down charm)
     2.64760457E-04   2        -3         4   # BR(Hp -> Strange charm)
     1.29880968E-03   2        -5         4   # BR(Hp -> Bottom charm)
     8.74571602E-07   2        -1         6   # BR(Hp -> Down top)
     1.94431357E-05   2        -3         6   # BR(Hp -> Strange top)
     8.69578138E-01   2        -5         6   # BR(Hp -> Bottom top)
     3.12933867E-05   2   1000022   1000024   # BR(Hp -> neutralino1 chargino1)
     2.29545763E-03   2   1000023   1000024   # BR(Hp -> neutralino2 chargino1)
     5.62199794E-05   2        24        25   # BR(Hp -> W h0)
     1.50421944E-10   2        24        35   # BR(Hp -> W HH)
     1.38069039E-10   2        24        36   # BR(Hp -> W A0)
DECAY         6     2.43000000E+00   # top
#    BR                NDA      ID1      ID2
     1.00000000E+00    2           5        24   # BR(t -> b W)
Block HiggsBoundsInputHiggsCouplingsFermions
# ScalarNormEffCoupSq PseudoSNormEffCoupSq NP IP1 IP2 IP2
    9.60756902E-01    0.00000000E+00        3  25   5   5  # h0-b-b eff. coupling^2, normalised to SM
    4.11797510E+02    0.00000000E+00        3  35   5   5  # H0-b-b eff. coupling^2, normalised to SM
    0.00000000E+00    4.11758267E+02        3  36   5   5  # A0-b-b eff. coupling^2, normalised to SM
#
    1.00009531E+00    0.00000000E+00        3  25   6   6  # h0-t-t eff. coupling^2, normalised to SM
    2.33330325E-03    0.00000000E+00        3  35   6   6  # H0-t-t eff. coupling^2, normalised to SM
    0.00000000E+00    2.42860940E-03        3  36   6   6  # A0-t-t eff. coupling^2, normalised to SM
#
    9.60756902E-01    0.00000000E+00        3  25  15  15  # h0-tau-tau eff. coupling^2, normalised to SM
    4.11797510E+02    0.00000000E+00        3  35  15  15  # H0-tau-tau eff. coupling^2, normalised to SM
    0.00000000E+00    4.11758267E+02        3  36  15  15  # A0-tau-tau eff. coupling^2, normalised to SM
#
Block HiggsBoundsInputHiggsCouplingsBosons
    9.99999046E-01        3  25  24  24  # h0-W-W eff. coupling^2, normalised to SM
    9.53790714E-07        3  35  24  24  # H0-W-W eff. coupling^2, normalised to SM
    0.00000000E+00        3  36  24  24  # A0-W-W eff. coupling^2, normalised to SM
#
    9.99999046E-01        3  25  23  23  # h0-Z-Z eff. coupling^2, normalised to SM
    9.53790714E-07        3  35  23  23  # H0-Z-Z eff. coupling^2, normalised to SM
    0.00000000E+00        3  36  23  23  # A0-Z-Z eff. coupling^2, normalised to SM
#
    1.24636629E+00        3  25  21  21  # h0-g-g eff. coupling^2, normalised to SM
    4.00689632E-03        3  35  21  21  # H0-g-g eff. coupling^2, normalised to SM
    1.05747678E-01        3  36  21  21  # A0-g-g eff. coupling^2, normalised to SM
#
    0.00000000E+00        3  25  25  23  # h0-h0-Z eff. coupling^2, normalised to SM
    0.00000000E+00        3  35  25  23  # H0-h0-Z eff. coupling^2, normalised to SM
    9.53790714E-07        3  36  25  23  # A0-h0-Z eff. coupling^2, normalised to SM
    0.00000000E+00        3  35  35  23  # H0-H0-Z eff. coupling^2, normalised to SM
    9.99999046E-01        3  36  35  23  # A0-H0-Z eff. coupling^2, normalised to SM
    0.00000000E+00        3  36  36  23  # A0-A0-Z eff. coupling^2, normalised to SM
#
    0.00000000E+00        4  25  21  21  23  # h0-g-g-Z eff. coupling^2, normalised to SM
    0.00000000E+00        4  35  21  21  23  # H0-g-g-Z eff. coupling^2, normalised to SM
    0.00000000E+00        4  36  21  21  23  # A0-g-g-Z eff. coupling^2, normalised to SM
Block SPhenoLowEnergy  # low energy observables
    1    3.18987435E-04   # BR(b -> s gamma)
    2    1.59354791E-06   # BR(b -> s mu+ mu-)
    3    3.53135677E-05   # BR(b -> s nu nu)
    4    3.00527861E-15   # BR(Bd -> e+ e-)
    5    1.28381084E-10   # BR(Bd -> mu+ mu-)
    6    2.68161825E-08   # BR(Bd -> tau+ tau-)
    7    1.01182879E-13   # BR(Bs -> e+ e-)
    8    4.32249660E-09   # BR(Bs -> mu+ mu-)
    9    9.14887563E-07   # BR(Bs -> tau+ tau-)
   10    9.55006835E-05   # BR(B_u -> tau nu)
   11    9.86485499E-01   # BR(B_u -> tau nu)/BR(B_u -> tau nu)_SM
   12    5.41914757E-01   # |Delta(M_Bd)| [ps^-1] 
   13    1.93556495E+01   # |Delta(M_Bs)| [ps^-1] 
   14    0.00000000E+00   # neutron EDM according to the chiral quark model
   15    0.00000000E+00   # neutron EDM according to the relativistic quark-parton model
   16    2.15725107E-03   # epsilon_K
   17    2.28165933E-15   # Delta(M_K)
   18    2.48465524E-11   # BR(K^0 -> pi^0 nu nu)
   19    8.30143627E-11   # BR(K^+ -> pi^+ nu nu)
   20    6.34682353E-17   # Delta(g-2)_electron/2
   21    2.71346806E-12   # Delta(g-2)_muon/2
   22    7.67837167E-10   # Delta(g-2)_tau/2
   23    0.00000000E+00   # electric dipole moment of the electron
   24    0.00000000E+00   # electric dipole moment of the muon
   25    0.00000000E+00   # electric dipole moment of the tau
   26    0.00000000E+00   # Br(mu -> e gamma)
   27    0.00000000E+00   # Br(tau -> e gamma)
   28    0.00000000E+00   # Br(tau -> mu gamma)
   29    0.00000000E+00   # Br(mu -> 3 e)
   30    0.00000000E+00   # Br(tau -> 3 e)
   31    0.00000000E+00   # Br(tau -> 3 mu)
   39    4.62198670E-04   # Delta(rho_parameter)
   40    0.00000000E+00   # BR(Z -> e mu)
   41    0.00000000E+00   # BR(Z -> e tau)
   42    0.00000000E+00   # BR(Z -> mu tau)
Block FWCOEF Q=  1.60000000E+02  # Wilson coefficients at scale Q
#    id        order  M        value         comment
     0305 4422   00   0    -1.88819110E-01   # C7
     0305 4422   00   2    -1.83940338E-01   # C7
     0305 4322   00   2    -4.08516879E-04   # C7'
     0305 6421   00   0    -9.52278348E-02   # C8
     0305 6421   00   2    -1.06406087E-01   # C8
     0305 6321   00   2    -5.95473898E-04   # C8'
 03051111 4133   00   0     1.60817543E+00   # C9 e+e-
 03051111 4133   00   2     1.60955255E+00   # C9 e+e-
 03051111 4233   00   2     1.02119661E-04   # C9' e+e-
 03051111 4137   00   0    -4.43086753E+00   # C10 e+e-
 03051111 4137   00   2    -4.43520768E+00   # C10 e+e-
 03051111 4237   00   2    -7.76104568E-04   # C10' e+e-
 03051313 4133   00   0     1.60817543E+00   # C9 mu+mu-
 03051313 4133   00   2     1.60955248E+00   # C9 mu+mu-
 03051313 4233   00   2     1.02119117E-04   # C9' mu+mu-
 03051313 4137   00   0    -4.43086753E+00   # C10 mu+mu-
 03051313 4137   00   2    -4.43520774E+00   # C10 mu+mu-
 03051313 4237   00   2    -7.76104060E-04   # C10' mu+mu-
 03051212 4137   00   0     1.50535012E+00   # C11 nu_1 nu_1
 03051212 4137   00   2     1.50629608E+00   # C11 nu_1 nu_1
 03051212 4237   00   2     1.68523669E-04   # C11' nu_1 nu_1
 03051414 4137   00   0     1.50535012E+00   # C11 nu_2 nu_2
 03051414 4137   00   2     1.50629608E+00   # C11 nu_2 nu_2
 03051414 4237   00   2     1.68523786E-04   # C11' nu_2 nu_2
 03051616 4137   00   0     1.50535012E+00   # C11 nu_3 nu_3
 03051616 4137   00   2     1.50629608E+00   # C11 nu_3 nu_3
 03051616 4237   00   2     1.68556565E-04   # C11' nu_3 nu_3
Block IMFWCOEF Q=  1.60000000E+02  # Im(Wilson coefficients) at scale Q
#    id        order  M        value         comment
     0305 4422   00   0     3.85882137E-07   # C7
     0305 4422   00   2     1.90560506E-05   # C7
     0305 4322   00   2     1.87693971E-06   # C7'
     0305 6421   00   0     3.30533570E-07   # C8
     0305 6421   00   2    -2.82418357E-05   # C8
     0305 6321   00   2     3.75723227E-07   # C8'
 03051111 4133   00   2     4.59828062E-06   # C9 e+e-
 03051111 4233   00   2     2.59525792E-06   # C9' e+e-
 03051111 4137   00   2     1.76836537E-05   # C10 e+e-
 03051111 4237   00   2    -1.97302515E-05   # C10' e+e-
 03051313 4133   00   2     4.59827854E-06   # C9 mu+mu-
 03051313 4233   00   2     2.59525776E-06   # C9' mu+mu-
 03051313 4137   00   2     1.76836558E-05   # C10 mu+mu-
 03051313 4237   00   2    -1.97302520E-05   # C10' mu+mu-
 03051212 4137   00   2    -3.77690698E-06   # C11 nu_1 nu_1
 03051212 4237   00   2     4.28423937E-06   # C11' nu_1 nu_1
 03051414 4137   00   2    -3.77690688E-06   # C11 nu_2 nu_2
 03051414 4237   00   2     4.28423937E-06   # C11' nu_2 nu_2
 03051616 4137   00   2    -3.77687660E-06   # C11 nu_3 nu_3
 03051616 4237   00   2     4.28423937E-06   # C11' nu_3 nu_3
