# SUSY Les Houches Accord 2 - MSSM spectrum + Decays
# SPheno v4.0.5be
# W. Porod, Comput. Phys. Commun. 153 (2003) 275-315, hep-ph/0301101;
# W. Porod, F.~Staub, Comput. Phys. Commun. 183 (2012) 2458
#                     arXiv:1104.1573 [hep-ph] 
# in case of problems send email to porod@physik.uni-wuerzburg.de
# Created: 18.08.2022,  13:57
Block SPINFO         # Program information
     1   SPheno      # spectrum calculator
     2   v4.0.5be    # version number
#
Block SPhenoINFO     # SPheno specific information
    1      2         # using 2-loop RGEs
    2      2         # using pole masses for boundary conditions at mZ
Block MODSEL  # Model selection
    1    0    # general MSSM
Block MINPAR  # Input parameters
    3    5.14181496E+01  # tanb at m_Z    
    4   -1.00000000E+00  # Sign(mu)
Block EXTPAR  # non-universal input parameters
    0    2.36631384E+03  # scale for input parameters
    1    5.52393317E+02  # M_1
    2    1.44613587E+03  # M_2
    3    3.89118297E+03  # M_3
   11   -1.95731688E+03  # A_t
   12   -8.57780709E+02  # A_b
   13   -1.00088594E+03  # A_tau
   23   -4.86235829E+00  # mu
   25    5.09719396E+01  # tan(beta)
   26    3.01484754E+02  # m_A, pole mass
   31    1.40067862E+03  # M_L11
   32    1.40067862E+03  # M_L22
   33    1.50004055E+03  # M_L33
   34    1.28314115E+03  # M_E11
   35    1.28314115E+03  # M_E22
   36    1.09636014E+03  # M_E33
   41    3.72942511E+03  # M_Q11
   42    3.72942511E+03  # M_Q22
   43    3.94248374E+03  # M_Q33
   44    2.13887943E+03  # M_U11
   45    2.13887943E+03  # M_U22
   46    1.35842558E+03  # M_U33
   47    1.32572210E+03  # M_D11
   48    1.32572210E+03  # M_D22
   49    2.45964802E+03  # M_D33
Block SMINPUTS  # SM parameters
         1     1.27908970E+02  # alpha_em^-1(MZ)^MSbar
         2     1.16637870E-05  # G_mu [GeV^-2]
         3     1.18400000E-01  # alpha_s(MZ)^MSbar
         4     9.11876000E+01  # m_Z(pole)
         5     4.18000000E+00  # m_b(m_b), MSbar
         6     1.73200000E+02  # m_t(pole)
         7     1.77700000E+00  # m_tau(pole)
         8     0.00000000E+00  # m_nu_3
        11     5.10998930E-04  # m_e(pole)
        12     0.00000000E+00  # m_nu_1
        13     1.05658372E-01  # m_muon(pole)
        14     0.00000000E+00  # m_nu_2
        21     5.00000000E-03  # m_d(2 GeV), MSbar
        22     2.50000000E-03  # m_u(2 GeV), MSbar
        23     9.50000000E-02  # m_s(2 GeV), MSbar
        24     1.27000000E+00  # m_c(m_c), MSbar
Block gauge Q=  2.36631384E+03  # (SUSY scale)
   1    3.55362975E-01  # g'(Q)^DRbar
   2    6.65198874E-01  # g(Q)^DRbar
   3    1.21977796E+00  # g3(Q)^DRbar
Block Yu Q=  2.36631384E+03  # (SUSY scale)
  1  1     8.38598551E-06   # Y_u(Q)^DRbar
  2  2     4.26008064E-03   # Y_c(Q)^DRbar
  3  3     1.01309441E+00   # Y_t(Q)^DRbar
Block Yd Q=  2.36631384E+03  # (SUSY scale)
  1  1     8.58945315E-04   # Y_d(Q)^DRbar
  2  2     1.63199610E-02   # Y_s(Q)^DRbar
  3  3     8.51804598E-01   # Y_b(Q)^DRbar
Block Ye Q=  2.36631384E+03  # (SUSY scale)
  1  1     1.49892239E-04   # Y_e(Q)^DRbar
  2  2     3.09929610E-02   # Y_mu(Q)^DRbar
  3  3     5.21250618E-01   # Y_tau(Q)^DRbar
Block Au Q=  2.36631384E+03  # (SUSY scale)
  1  1     0.00000000E+00   # A_u(Q)^DRbar
  2  2     0.00000000E+00   # A_c(Q)^DRbar
  3  3    -1.95731687E+03   # A_t(Q)^DRbar
Block Ad Q=  2.36631384E+03  # (SUSY scale)
  1  1     0.00000000E+00   # A_d(Q)^DRbar
  2  2     0.00000000E+00   # A_s(Q)^DRbar
  3  3    -8.57780701E+02   # A_b(Q)^DRbar
Block Ae Q=  2.36631384E+03  # (SUSY scale)
  1  1     0.00000000E+00   # A_e(Q)^DRbar
  2  2     0.00000000E+00   # A_mu(Q)^DRbar
  3  3    -1.00088594E+03   # A_tau(Q)^DRbar
Block MSOFT Q=  2.36631384E+03  # soft SUSY breaking masses at Q
   1    5.52393317E+02  # M_1
   2    1.44613587E+03  # M_2
   3    3.89118297E+03  # M_3
  21    1.22547464E+05  # M^2_(H,d)
  22   -3.29211543E+04  # M^2_(H,u)
  31    1.40067862E+03  # M_(L,11)
  32    1.40067862E+03  # M_(L,22)
  33    1.50004055E+03  # M_(L,33)
  34    1.28314115E+03  # M_(E,11)
  35    1.28314115E+03  # M_(E,22)
  36    1.09636014E+03  # M_(E,33)
  41    3.72942511E+03  # M_(Q,11)
  42    3.72942511E+03  # M_(Q,22)
  43    3.94248374E+03  # M_(Q,33)
  44    2.13887943E+03  # M_(U,11)
  45    2.13887943E+03  # M_(U,22)
  46    1.35842558E+03  # M_(U,33)
  47    1.32572210E+03  # M_(D,11)
  48    1.32572210E+03  # M_(D,22)
  49    2.45964802E+03  # M_(D,33)
Block MASS  # Mass spectrum
#   PDG code      mass          particle
         6     1.73200000E+02  # m_t(pole)
        23     9.11876000E+01  # m_Z(pole)
        24     8.04299946E+01  # W+
        15     1.77700000E+00  # m_tau(pole)
        25     1.19247341E+02  # h0
        35     3.01472868E+02  # H0
        36     3.01484754E+02  # A0
        37     2.95215029E+02  # H+
   1000001     3.81634657E+03  # ~d_L
   2000001     1.38167859E+03  # ~d_R
   1000002     3.81554696E+03  # ~u_L
   2000002     2.20789239E+03  # ~u_R
   1000003     3.81634330E+03  # ~s_L
   2000003     1.38167234E+03  # ~s_R
   1000004     3.81554377E+03  # ~c_L
   2000004     2.20789207E+03  # ~c_R
   1000005     2.52143608E+03  # ~b_1
   2000005     4.00214844E+03  # ~b_2
   1000006     1.39796007E+03  # ~t_1
   2000006     4.00543713E+03  # ~t_2
   1000011     1.41593304E+03  # ~e_L-
   2000011     1.29194171E+03  # ~e_R-
   1000012     1.41326502E+03  # ~nu_eL
   1000013     1.41591080E+03  # ~mu_L-
   2000013     1.29189530E+03  # ~mu_R-
   1000014     1.41324300E+03  # ~nu_muL
   1000015     1.08919601E+03  # ~tau_1-
   2000015     1.50600442E+03  # ~tau_2-
   1000016     1.50355529E+03  # ~nu_tauL
   1000021     3.93692694E+03  # ~g
   1000022     9.95636543E+00  # ~chi_10
   1000023     1.78460039E+01  # ~chi_20
   1000025     5.47659775E+02  # ~chi_30
   1000035     1.49350921E+03  # ~chi_40
   1000024     1.36027142E+01  # ~chi_1+
   1000037     1.49363604E+03  # ~chi_2+
# Higgs mixing
Block alpha # Effective Higgs mixing angle
          -2.49325039E-02   # alpha
Block Hmix Q=  2.36631384E+03  # Higgs mixing parameters
   1   -4.86235829E+00  # mu
   2    5.09719396E+01  # tan[beta](Q)
   3    2.43525911E+02  # v(Q)
   4    9.08930569E+04  # m^2_A(Q)
Block stopmix # stop mixing matrix
   1  1     2.01805481E-02   # Re[R_st(1,1)]
   1  2     9.99796352E-01   # Re[R_st(1,2)]
   2  1    -9.99796352E-01   # Re[R_st(2,1)]
   2  2     2.01805481E-02   # Re[R_st(2,2)]
Block sbotmix # sbottom mixing matrix
   1  1     2.17508751E-04   # Re[R_sb(1,1)]
   1  2     9.99999976E-01   # Re[R_sb(1,2)]
   2  1    -9.99999976E-01   # Re[R_sb(2,1)]
   2  2     2.17508751E-04   # Re[R_sb(2,2)]
Block staumix # stau mixing matrix
   1  1     1.00206926E-03   # Re[R_sta(1,1)]
   1  2     9.99999498E-01   # Re[R_sta(1,2)]
   2  1    -9.99999498E-01   # Re[R_sta(2,1)]
   2  2     1.00206926E-03   # Re[R_sta(2,2)]
Block Nmix # neutralino mixing matrix
   1  1    -4.92097989E-02   # Re[N(1,1)]
   1  2     3.09378452E-02   # Re[N(1,2)]
   1  3     8.00758382E-01   # Re[N(1,3)]
   1  4     5.96160431E-01   # Re[N(1,4)]
   2  1    -6.50850817E-02   # Re[N(2,1)]
   2  2     4.26775538E-02   # Re[N(2,2)]
   2  3    -5.98986823E-01   # Re[N(2,3)]
   2  4     7.96967593E-01   # Re[N(2,4)]
   3  1    -9.96662144E-01   # Re[N(3,1)]
   3  2    -6.94624265E-03   # Re[N(3,2)]
   3  3    -4.23535433E-04   # Re[N(3,3)]
   3  4    -8.13396694E-02   # Re[N(3,4)]
   4  1     2.62665498E-03   # Re[N(4,1)]
   4  2    -9.98585613E-01   # Re[N(4,2)]
   4  3    -7.87725618E-04   # Re[N(4,3)]
   4  4     5.30966508E-02   # Re[N(4,4)]
Block Umix # chargino mixing matrix
   1  1     1.10340408E-03   # Re[U(1,1)]
   1  2    -9.99999391E-01   # Re[U(1,2)]
   2  1     9.99999391E-01   # Re[U(2,1)]
   2  2     1.10340408E-03   # Re[U(2,2)]
Block Vmix # chargino mixing matrix
   1  1    -7.50904096E-02   # Re[V(1,1)]
   1  2     9.97176730E-01   # Re[V(1,2)]
   2  1     9.97176730E-01   # Re[V(2,1)]
   2  2     7.50904096E-02   # Re[V(2,2)]
DECAY        23     2.49520000E+00   # Z
DECAY        24     2.08500000E+00   # W
DECAY   2000011     4.38225198E+00   # ~e^-_R
#    BR                NDA      ID1      ID2
     3.58683907E-03    2     1000022        11   # BR(~e^-_R -> chi^0_1 e^-)
     6.27264198E-03    2     1000023        11   # BR(~e^-_R -> chi^0_2 e^-)
     9.90140387E-01    2     1000025        11   # BR(~e^-_R -> chi^0_3 e^-)
DECAY   1000011     1.31179292E+00   # ~e^-_L
#    BR                NDA      ID1      ID2
     1.02980434E-04    2     1000022        11   # BR(~e^-_L -> chi^0_1 e^-)
     2.97168270E-04    2     1000023        11   # BR(~e^-_L -> chi^0_2 e^-)
     9.99588285E-01    2     1000025        11   # BR(~e^-_L -> chi^0_3 e^-)
#    BR                NDA      ID1      ID2       ID3
DECAY   2000013     4.43132164E+00   # ~mu^-_R
#    BR                NDA      ID1      ID2
     7.11883856E-03    2     1000022        13   # BR(~mu^-_R -> chi^0_1 mu^-)
     8.20100561E-03    2     1000023        13   # BR(~mu^-_R -> chi^0_2 mu^-)
     9.79110178E-01    2     1000025        13   # BR(~mu^-_R -> chi^0_3 mu^-)
     5.56997822E-03    2    -1000024        14   # BR(~mu^-_R -> chi^-_1 nu_mu)
DECAY   1000013     1.33881015E+00   # ~mu^-_L
#    BR                NDA      ID1      ID2
     1.30584580E-02    2     1000022        13   # BR(~mu^-_L -> chi^0_1 mu^-)
     7.53985195E-03    2     1000023        13   # BR(~mu^-_L -> chi^0_2 mu^-)
     9.79390352E-01    2     1000025        13   # BR(~mu^-_L -> chi^0_3 mu^-)
#    BR                NDA      ID1      ID2       ID3
DECAY   1000015     1.48427080E+01   # ~tau^-_1
#    BR                NDA      ID1      ID2
     2.55159551E-01    2     1000022        15   # BR(~tau^-_1 -> chi^0_1 tau^-)
     1.43830592E-01    2     1000023        15   # BR(~tau^-_1 -> chi^0_2 tau^-)
     2.04475352E-01    2     1000025        15   # BR(~tau^-_1 -> chi^0_3 tau^-)
     3.96534505E-01    2    -1000024        16   # BR(~tau^-_1 -> chi^-_1 nu_tau)
DECAY   2000015     1.07734606E+01   # ~tau^-_2
#    BR                NDA      ID1      ID2
     4.84536247E-01    2     1000022        15   # BR(~tau^-_2 -> chi^0_1 tau^-)
     2.70997635E-01    2     1000023        15   # BR(~tau^-_2 -> chi^0_2 tau^-)
     1.34792428E-01    2     1000025        15   # BR(~tau^-_2 -> chi^0_3 tau^-)
     1.65402628E-04    2     1000035        15   # BR(~tau^-_2 -> chi^0_4 tau^-)
     3.29278231E-04    2    -1000037        16   # BR(~tau^-_2 -> chi^-_2 nu_tau)
     5.45726052E-02    2     1000015        36   # BR(~tau^-_2 -> ~tau^-_1 A^0)
     5.45647204E-02    2     1000015        35   # BR(~tau^-_2 -> ~tau^-_1 H^0)
#    BR                NDA      ID1      ID2       ID3
DECAY   1000012     1.36838674E+00   # ~nu_e
#    BR                NDA      ID1      ID2
     1.48858197E-02    2     1000022        12   # BR(~nu_e -> chi^0_1 nu_e)
     2.72579072E-02    2     1000023        12   # BR(~nu_e -> chi^0_2 nu_e)
     9.06600794E-01    2     1000025        12   # BR(~nu_e -> chi^0_3 nu_e)
     5.12554787E-02    2     1000024        11   # BR(~nu_e -> chi^+_1 e^-)
DECAY   1000014     1.39535302E+00   # ~nu_mu
#    BR                NDA      ID1      ID2
     1.45979122E-02    2     1000022        14   # BR(~nu_mu -> chi^0_1 nu_mu)
     2.67307104E-02    2     1000023        14   # BR(~nu_mu -> chi^0_2 nu_mu)
     8.89056392E-01    2     1000025        14   # BR(~nu_mu -> chi^0_3 nu_mu)
     6.96149857E-02    2     1000024        13   # BR(~nu_mu -> chi^+_1 mu^-)
DECAY   1000016     1.08331867E+01   # ~nu_tau
#    BR                NDA      ID1      ID2
     2.00044308E-03    2     1000022        16   # BR(~nu_tau -> chi^0_1 nu_tau)
     3.66316996E-03    2     1000023        16   # BR(~nu_tau -> chi^0_2 nu_tau)
     1.26900389E-01    2     1000025        16   # BR(~nu_tau -> chi^0_3 nu_tau)
     1.08358868E-04    2     1000035        16   # BR(~nu_tau -> chi^0_4 nu_tau)
     7.56981539E-01    2     1000024        15   # BR(~nu_tau -> chi^+_1 tau^-)
     2.06754460E-04    2     1000037        15   # BR(~nu_tau -> chi^+_2 tau^-)
     1.10117657E-01    2     1000015        37   # BR(~nu_tau -> ~tau^-_1 H^+)
DECAY   2000001     5.49558818E-01   # ~d_R
#    BR                NDA      ID1      ID2
     3.42236124E-03    2     1000022         1   # BR(~d_R -> chi^0_1 d)
     5.95715215E-03    2     1000023         1   # BR(~d_R -> chi^0_2 d)
     9.90583591E-01    2     1000025         1   # BR(~d_R -> chi^0_3 d)
DECAY   1000001     3.66599820E+01   # ~d_L
#    BR                NDA      ID1      ID2
     7.23169833E-04    2     1000022         1   # BR(~d_L -> chi^0_1 d)
     1.34988111E-03    2     1000023         1   # BR(~d_L -> chi^0_2 d)
     1.27820741E-02    2     1000025         1   # BR(~d_L -> chi^0_3 d)
     3.27980413E-01    2     1000035         1   # BR(~d_L -> chi^0_4 d)
     6.57163346E-01    2    -1000037         2   # BR(~d_L -> chi^-_2 u)
DECAY   2000003     5.64153189E-01   # ~s_R
#    BR                NDA      ID1      ID2
     1.16309977E-02    2     1000022         3   # BR(~s_R -> chi^0_1 s)
     1.04445042E-02    2     1000023         3   # BR(~s_R -> chi^0_2 s)
     9.64949994E-01    2     1000025         3   # BR(~s_R -> chi^0_3 s)
     1.29745041E-02    2    -1000024         4   # BR(~s_R -> chi^-_1 c)
DECAY   1000003     3.66814677E+01   # ~s_L
#    BR                NDA      ID1      ID2
     1.07524785E-03    2     1000022         3   # BR(~s_L -> chi^0_1 s)
     1.54632186E-03    2     1000023         3   # BR(~s_L -> chi^0_2 s)
     1.27745753E-02    2     1000025         3   # BR(~s_L -> chi^0_3 s)
     3.27787817E-01    2     1000035         3   # BR(~s_L -> chi^0_4 s)
     6.56777571E-01    2    -1000037         4   # BR(~s_L -> chi^-_2 c)
DECAY   1000005     7.38166904E+01   # ~b_1
#    BR                NDA      ID1      ID2
     3.16188818E-01    2     1000022         5   # BR(~b_1 -> chi^0_1 b)
     1.76971477E-01    2     1000023         5   # BR(~b_1 -> chi^0_2 b)
     1.71978632E-02    2     1000025         5   # BR(~b_1 -> chi^0_3 b)
     4.88385800E-01    2    -1000024         6   # BR(~b_1 -> chi^-_1 t)
     1.25571595E-03    2     1000006       -37   # BR(~b_1 -> ~t_1 H^-)
DECAY   2000005     1.92754931E+02   # ~b_2
#    BR                NDA      ID1      ID2
     1.92321294E-01    2     1000022         5   # BR(~b_2 -> chi^0_1 b)
     1.07791821E-01    2     1000023         5   # BR(~b_2 -> chi^0_2 b)
     2.55913038E-03    2     1000025         5   # BR(~b_2 -> chi^0_3 b)
     6.75790586E-02    2     1000035         5   # BR(~b_2 -> chi^0_4 b)
     4.19972835E-01    2    -1000024         6   # BR(~b_2 -> chi^-_1 t)
     1.37643319E-01    2    -1000037         6   # BR(~b_2 -> chi^-_2 t)
     1.70888916E-03    2     1000021         5   # BR(~b_2 -> ~g b)
     6.22596002E-02    2     1000006       -24   # BR(~b_2 -> ~t_1 W^-)
     4.05952991E-03    2     1000005        36   # BR(~b_2 -> ~b_1 A^0)
     4.05882331E-03    2     1000005        35   # BR(~b_2 -> ~b_1 H^0)
DECAY   2000002     4.34642793E+00   # ~u_R
#    BR                NDA      ID1      ID2
     2.74696389E-03    2     1000022         2   # BR(~u_R -> chi^0_1 u)
     4.80478096E-03    2     1000023         2   # BR(~u_R -> chi^0_2 u)
     9.92445952E-01    2     1000025         2   # BR(~u_R -> chi^0_3 u)
DECAY   1000002     3.67059015E+01   # ~u_L
#    BR                NDA      ID1      ID2
     2.24978425E-04    2     1000022         2   # BR(~u_L -> chi^0_1 u)
     4.42160729E-04    2     1000023         2   # BR(~u_L -> chi^0_2 u)
     1.49273961E-02    2     1000025         2   # BR(~u_L -> chi^0_3 u)
     3.26838880E-01    2     1000035         2   # BR(~u_L -> chi^0_4 u)
     5.16107746E-03    2     1000024         1   # BR(~u_L -> chi^+_1 d)
     6.52405508E-01    2     1000037         1   # BR(~u_L -> chi^+_2 d)
DECAY   2000004     4.34801488E+00   # ~c_R
#    BR                NDA      ID1      ID2
     2.81111053E-03    2     1000022         4   # BR(~c_R -> chi^0_1 c)
     4.91944003E-03    2     1000023         4   # BR(~c_R -> chi^0_2 c)
     9.92084399E-01    2     1000025         4   # BR(~c_R -> chi^0_3 c)
     1.82290440E-04    2     1000024         3   # BR(~c_R -> chi^+_1 s)
DECAY   1000004     3.67273847E+01   # ~c_L
#    BR                NDA      ID1      ID2
     2.38177001E-04    2     1000022         4   # BR(~c_L -> chi^0_1 c)
     4.65723692E-04    2     1000023         4   # BR(~c_L -> chi^0_2 c)
     1.49188719E-02    2     1000025         4   # BR(~c_L -> chi^0_3 c)
     3.26647289E-01    2     1000035         4   # BR(~c_L -> chi^0_4 c)
     5.70698764E-03    2     1000024         3   # BR(~c_L -> chi^+_1 s)
     6.52022950E-01    2     1000037         3   # BR(~c_L -> chi^+_2 s)
DECAY   1000006     5.82649034E+01   # ~t_1
#    BR                NDA      ID1      ID2
     1.69188138E-01    2     1000022         6   # BR(~t_1 -> chi^0_1 t)
     3.02252197E-01    2     1000023         6   # BR(~t_1 -> chi^0_2 t)
     4.05962550E-02    2     1000025         6   # BR(~t_1 -> chi^0_3 t)
     4.87963555E-01    2     1000024         5   # BR(~t_1 -> chi^+_1 b)
DECAY   2000006     1.95136706E+02   # ~t_2
#    BR                NDA      ID1      ID2
     1.48177479E-01    2     1000022         6   # BR(~t_2 -> chi^0_1 t)
     2.64806558E-01    2     1000023         6   # BR(~t_2 -> chi^0_2 t)
     5.87428341E-03    2     1000025         6   # BR(~t_2 -> chi^0_3 t)
     6.81071069E-02    2     1000035         6   # BR(~t_2 -> chi^0_4 t)
     2.96521011E-01    2     1000024         5   # BR(~t_2 -> chi^+_1 b)
     1.33742767E-01    2     1000037         5   # BR(~t_2 -> chi^+_2 b)
     8.09255341E-03    2     1000005        37   # BR(~t_2 -> ~b_1 H^+)
     3.08188744E-02    2     1000006        23   # BR(~t_2 -> ~t_1 Z)
     4.38030413E-02    2     1000006        25   # BR(~t_2 -> ~t_1 h^0)
DECAY   1000024     4.81039974E-10   # chi^+_1
#    BR                NDA      ID1      ID2       ID3
     4.30798076E-01    3     1000022        -1         2   # BR(chi^+_1 -> chi^0_1 d_bar u)
     2.38149315E-01    3     1000022        -3         4   # BR(chi^+_1 -> chi^0_1 s_bar c)
     1.43600643E-01    3     1000022       -11        12   # BR(chi^+_1 -> chi^0_1 e^+ nu_e)
     1.42988045E-01    3     1000022       -13        14   # BR(chi^+_1 -> chi^0_1 mu^+ nu_mu)
     4.44639202E-02    3     1000022       -15        16   # BR(chi^+_1 -> chi^0_1 tau^+ nu_tau)
DECAY   1000037     2.54830684E+01   # chi^+_2
#    BR                NDA      ID1      ID2
     2.64941187E-03    2    -1000011        12   # BR(chi^+_2 -> ~e^+_L nu_e)
     2.65088818E-03    2    -1000013        14   # BR(chi^+_2 -> ~mu^+_L nu_mu)
     2.81333092E-03    2     1000012       -11   # BR(chi^+_2 -> ~nu_e e^+)
     2.81482739E-03    2     1000014       -13   # BR(chi^+_2 -> ~nu_mu mu^+)
     1.05557114E-04    2     1000006        -5   # BR(chi^+_2 -> ~t_1 b_bar)
     8.86768978E-02    2     1000022        24   # BR(chi^+_2 -> chi^0_1 W^+)
     1.58452949E-01    2     1000023        24   # BR(chi^+_2 -> chi^0_2 W^+)
     3.15855187E-03    2     1000025        24   # BR(chi^+_2 -> chi^0_3 W^+)
     1.52785364E-01    2          37   1000022   # BR(chi^+_2 -> H^+ chi^0_1)
     8.53860449E-02    2          37   1000023   # BR(chi^+_2 -> H^+ chi^0_2)
     1.24702083E-01    2     1000024        23   # BR(chi^+_2 -> chi^+_1 Z)
     1.18112764E-01    2     1000024        36   # BR(chi^+_2 -> chi^+_1 A^0)
     1.26519135E-01    2     1000024        25   # BR(chi^+_2 -> chi^+_1 h^0)
     1.18139850E-01    2     1000024        35   # BR(chi^+_2 -> chi^+_1 H^0)
#    BR                NDA      ID1      ID2       ID3
     4.79922256E-03    3     1000024         6        -6   # BR(chi^+_2 -> chi^+_1 t t_bar)
     1.87923547E-04    3     1000024        15       -15   # BR(chi^+_2 -> chi^+_1 tau^- tau^+)
     2.77153002E-03    3     1000022        -5         6   # BR(chi^+_2 -> chi^0_1 b_bar t)
     1.17100184E-04    3     1000022       -15        16   # BR(chi^+_2 -> chi^0_1 tau^+ nu_tau)
     4.94959728E-03    3     1000023        -5         6   # BR(chi^+_2 -> chi^0_2 b_bar t)
DECAY   1000022     0.00000000E+00   # chi^0_1
DECAY   1000023     4.21893556E-08   # chi^0_2
#    BR                NDA      ID1      ID2
     3.05042056E-02    2     1000022        22   # BR(chi^0_2 -> chi^0_1 photon)
#    BR                NDA      ID1      ID2       ID3
     1.22323820E-01    3     1000022         2        -2   # BR(chi^0_2 -> chi^0_1 u u_bar)
     8.58266706E-02    3     1000022         4        -4   # BR(chi^0_2 -> chi^0_1 c c_bar)
     1.56842743E-01    3     1000022         1        -1   # BR(chi^0_2 -> chi^0_1 d d_bar)
     1.56573664E-01    3     1000022         3        -3   # BR(chi^0_2 -> chi^0_1 s s_bar)
     3.53941213E-02    3     1000022        11       -11   # BR(chi^0_2 -> chi^0_1 e^- e^+)
     3.53000175E-02    3     1000022        13       -13   # BR(chi^0_2 -> chi^0_1 mu^- mu^+)
     1.63829028E-02    3     1000022        15       -15   # BR(chi^0_2 -> chi^0_1 tau^- tau^+)
     2.09750380E-01    3     1000022        12       -12   # BR(chi^0_2 -> chi^0_1 nu_e nu_bar_e)
     3.07419620E-02    3     1000024         1        -2   # BR(chi^0_2 -> chi^+_1 d u_bar)
     3.07419620E-02    3    -1000024        -1         2   # BR(chi^0_2 -> chi^-_1 d_bar u)
     1.99419730E-02    3     1000024         3        -4   # BR(chi^0_2 -> chi^+_1 s c_bar)
     1.99419730E-02    3    -1000024        -3         4   # BR(chi^0_2 -> chi^-_1 s_bar c)
     1.02475622E-02    3     1000024        11       -12   # BR(chi^0_2 -> chi^+_1 e^- nu_bar_e)
     1.02475622E-02    3    -1000024       -11        12   # BR(chi^0_2 -> chi^-_1 e^+ nu_e)
     1.02158411E-02    3     1000024        13       -14   # BR(chi^0_2 -> chi^+_1 mu^- nu_bar_mu)
     1.02158411E-02    3    -1000024       -13        14   # BR(chi^0_2 -> chi^-_1 mu^+ nu_mu)
     4.40339983E-03    3     1000024        15       -16   # BR(chi^0_2 -> chi^+_1 tau^- nu_bar_tau)
     4.40339983E-03    3    -1000024       -15        16   # BR(chi^0_2 -> chi^-_1 tau^+ nu_tau)
DECAY   1000025     2.10013880E+00   # chi^0_3
#    BR                NDA      ID1      ID2
     1.77675786E-01    2     1000024       -24   # BR(chi^0_3 -> chi^+_1 W^-)
     1.77675786E-01    2    -1000024        24   # BR(chi^0_3 -> chi^-_1 W^+)
     8.41974059E-02    2          37  -1000024   # BR(chi^0_3 -> H^+ chi^-_1)
     8.41974059E-02    2         -37   1000024   # BR(chi^0_3 -> H^- chi^+_1)
     6.16764290E-02    2     1000022        23   # BR(chi^0_3 -> chi^0_1 Z)
     1.12673172E-01    2     1000023        23   # BR(chi^0_3 -> chi^0_2 Z)
     4.54081336E-02    2     1000022        36   # BR(chi^0_3 -> chi^0_1 A^0)
     2.63046462E-02    2     1000023        36   # BR(chi^0_3 -> chi^0_2 A^0)
     4.80213624E-02    2     1000022        25   # BR(chi^0_3 -> chi^0_1 h^0)
     9.82336756E-02    2     1000023        25   # BR(chi^0_3 -> chi^0_2 h^0)
     5.37931309E-02    2     1000022        35   # BR(chi^0_3 -> chi^0_1 H^0)
     2.82090206E-02    2     1000023        35   # BR(chi^0_3 -> chi^0_2 H^0)
#    BR                NDA      ID1      ID2       ID3
     1.29688456E-04    3     1000023         6        -6   # BR(chi^0_3 -> chi^0_2 t t_bar)
     8.42622354E-04    3     1000024         5        -6   # BR(chi^0_3 -> chi^+_1 b t_bar)
     8.42622354E-04    3    -1000024        -5         6   # BR(chi^0_3 -> chi^-_1 b_bar t)
DECAY   1000035     2.55670513E+01   # chi^0_4
#    BR                NDA      ID1      ID2
     1.30886292E-03    2     1000011       -11   # BR(chi^0_4 -> ~e^-_L e^+)
     1.30886292E-03    2    -1000011        11   # BR(chi^0_4 -> ~e^+_L e^-)
     1.30959214E-03    2     1000013       -13   # BR(chi^0_4 -> ~mu^-_L mu^+)
     1.30959214E-03    2    -1000013        13   # BR(chi^0_4 -> ~mu^+_L mu^-)
     1.40575261E-03    2     1000012       -12   # BR(chi^0_4 -> ~nu_e nu_bar_e)
     1.40575261E-03    2    -1000012        12   # BR(chi^0_4 -> ~nu^*_e nu_e)
     1.40650292E-03    2     1000014       -14   # BR(chi^0_4 -> ~nu_mu nu_bar_mu)
     1.40650292E-03    2    -1000014        14   # BR(chi^0_4 -> ~nu^*_mu nu_mu)
     1.24966447E-01    2     1000024       -24   # BR(chi^0_4 -> chi^+_1 W^-)
     1.24966447E-01    2    -1000024        24   # BR(chi^0_4 -> chi^-_1 W^+)
     1.18128259E-01    2          37  -1000024   # BR(chi^0_4 -> H^+ chi^-_1)
     1.18128259E-01    2         -37   1000024   # BR(chi^0_4 -> H^- chi^+_1)
     4.62027263E-02    2     1000022        23   # BR(chi^0_4 -> chi^0_1 Z)
     7.76011054E-02    2     1000023        23   # BR(chi^0_4 -> chi^0_2 Z)
     5.42015424E-04    2     1000025        23   # BR(chi^0_4 -> chi^0_3 Z)
     7.26183271E-02    2     1000022        36   # BR(chi^0_4 -> chi^0_1 A^0)
     4.35355443E-02    2     1000023        36   # BR(chi^0_4 -> chi^0_2 A^0)
     4.22272822E-02    2     1000022        25   # BR(chi^0_4 -> chi^0_1 h^0)
     8.47585288E-02    2     1000023        25   # BR(chi^0_4 -> chi^0_2 h^0)
     2.44634345E-03    2     1000025        25   # BR(chi^0_4 -> chi^0_3 h^0)
     7.97314626E-02    2     1000022        35   # BR(chi^0_4 -> chi^0_1 H^0)
     4.06402366E-02    2     1000023        35   # BR(chi^0_4 -> chi^0_2 H^0)
#    BR                NDA      ID1      ID2       ID3
     1.69963526E-03    3     1000022         6        -6   # BR(chi^0_4 -> chi^0_1 t t_bar)
     1.15335219E-04    3     1000022        15       -15   # BR(chi^0_4 -> chi^0_1 tau^- tau^+)
     3.06946802E-03    3     1000023         6        -6   # BR(chi^0_4 -> chi^0_2 t t_bar)
     3.70344535E-03    3     1000024         5        -6   # BR(chi^0_4 -> chi^+_1 b t_bar)
     3.70344535E-03    3    -1000024        -5         6   # BR(chi^0_4 -> chi^-_1 b_bar t)
DECAY   1000021     4.21319340E+02   # ~g
#    BR                NDA      ID1      ID2
     6.49836100E-02    2     2000002        -2   # BR(~g -> ~u_R u_bar)
     6.49836100E-02    2    -2000002         2   # BR(~g -> ~u^*_R u)
     5.09745033E-04    2     1000002        -2   # BR(~g -> ~u_L u_bar)
     5.09745033E-04    2    -1000002         2   # BR(~g -> ~u^*_L u)
     6.49836182E-02    2     2000004        -4   # BR(~g -> ~c_R c_bar)
     6.49836182E-02    2    -2000004         4   # BR(~g -> ~c^*_R c)
     5.09744371E-04    2     1000004        -4   # BR(~g -> ~c_L c_bar)
     5.09744371E-04    2    -1000004         4   # BR(~g -> ~c^*_L c)
     8.27995714E-04    2     1000006        -4   # BR(~g -> ~t_1 c_bar)
     8.27995714E-04    2    -1000006         4   # BR(~g -> ~t^*_1 c)
     1.05122951E-01    2     1000006        -6   # BR(~g -> ~t_1 t_bar)
     1.05122951E-01    2    -1000006         6   # BR(~g -> ~t^*_1 t)
     1.06326140E-01    2     2000001        -1   # BR(~g -> ~d_R d_bar)
     1.06326140E-01    2    -2000001         1   # BR(~g -> ~d^*_R d)
     5.03154878E-04    2     1000001        -1   # BR(~g -> ~d_L d_bar)
     5.03154878E-04    2    -1000001         1   # BR(~g -> ~d^*_L d)
     1.06326410E-01    2     2000003        -3   # BR(~g -> ~s_R s_bar)
     1.06326410E-01    2    -2000003         3   # BR(~g -> ~s^*_R s)
     5.03181593E-04    2     1000003        -3   # BR(~g -> ~s_L s_bar)
     5.03181593E-04    2    -1000003         3   # BR(~g -> ~s^*_L s)
     4.81100118E-02    2     1000005        -5   # BR(~g -> ~b_1 b_bar)
     4.81100118E-02    2    -1000005         5   # BR(~g -> ~b^*_1 b)
#    BR                NDA      ID1      ID2       ID3
     1.99962728E-04    3     1000022         6        -6   # BR(~g -> chi^0_1 t t_bar)
     2.93097607E-04    3     1000022         5        -5   # BR(~g -> chi^0_1 b b_bar)
     3.57309162E-04    3     1000023         6        -6   # BR(~g -> chi^0_2 t t_bar)
     1.64228827E-04    3     1000023         5        -5   # BR(~g -> chi^0_2 b b_bar)
     5.18340592E-04    3     1000024         5        -6   # BR(~g -> chi^+_1 b t_bar)
     5.18340592E-04    3    -1000024        -5         6   # BR(~g -> chi^-_1 b_bar t)
     1.67881871E-04    3     1000037         5        -6   # BR(~g -> chi^+_2 b t_bar)
     1.67881871E-04    3    -1000037        -5         6   # BR(~g -> chi^-_2 b_bar t)
DECAY        25     1.35131785E-02   # Gamma(h0)
     5.54642933E-04   2        22        22   # BR(h0 -> photon photon)
     2.45965544E-04   2        22        23   # BR(h0 -> photon Z)
     3.71566913E-03   2        23        23   # BR(h0 -> Z Z)
     3.44414381E-02   2       -24        24   # BR(h0 -> W W)
     1.77381537E-02   2        21        21   # BR(h0 -> gluon gluon)
     2.34793434E-09   2       -11        11   # BR(h0 -> Electron electron)
     1.04438795E-04   2       -13        13   # BR(h0 -> Muon muon)
     3.01071797E-02   2       -15        15   # BR(h0 -> Tau tau)
     4.05098658E-08   2        -2         2   # BR(h0 -> Up up)
     7.86010960E-03   2        -4         4   # BR(h0 -> Charm charm)
     2.74361265E-07   2        -1         1   # BR(h0 -> Down down)
     9.92312519E-05   2        -3         3   # BR(h0 -> Strange strange)
     2.66367812E-01   2        -5         5   # BR(h0 -> Bottom bottom)
     7.34278495E-04   2  -1000024   1000024   # BR(h0 -> Chargino1 chargino1)
     2.09252022E-02   2   1000022   1000022   # BR(h0 -> neutralino1 neutralino1)
     1.91065373E-01   2   1000022   1000023   # BR(h0 -> neutralino1 neutralino2)
     4.26040189E-01   2   1000023   1000023   # BR(h0 -> neutralino2 neutralino2)
DECAY        35     1.40607407E+01   # Gamma(HH)
     2.22307628E-07   2        22        22   # BR(HH -> photon photon)
     4.62022222E-08   2        22        23   # BR(HH -> photon Z)
     5.66965600E-06   2        23        23   # BR(HH -> Z Z)
     1.26896252E-05   2       -24        24   # BR(HH -> W W)
     3.19028478E-04   2        21        21   # BR(HH -> gluon gluon)
     9.02532769E-09   2       -11        11   # BR(HH -> Electron electron)
     4.01568973E-04   2       -13        13   # BR(HH -> Muon muon)
     1.15920117E-01   2       -15        15   # BR(HH -> Tau tau)
     5.14076846E-14   2        -2         2   # BR(HH -> Up up)
     9.96424738E-09   2        -4         4   # BR(HH -> Charm charm)
     9.07707307E-07   2        -1         1   # BR(HH -> Down down)
     3.28312899E-04   2        -3         3   # BR(HH -> Strange strange)
     8.81060981E-01   2        -5         5   # BR(HH -> Bottom bottom)
     1.07392902E-03   2  -1000024   1000024   # BR(HH -> Chargino1 chargino1)
     2.43863216E-04   2   1000022   1000022   # BR(HH -> neutralino1 neutralino1)
     3.34000941E-04   2   1000022   1000023   # BR(HH -> neutralino1 neutralino2)
     2.28689291E-04   2   1000023   1000023   # BR(HH -> neutralino2 neutralino2)
     6.99541102E-05   2        25        25   # BR(HH -> h0 h0)
DECAY        36     1.39918633E+01   # Gamma(A0)
     1.33103054E-07   2        22        22   # BR(A0 -> photon photon)
     2.92164681E-08   2        22        23   # BR(A0 -> photon Z)
     3.12849993E-04   2        21        21   # BR(A0 -> gluon gluon)
     9.02350326E-09   2       -11        11   # BR(A0 -> Electron electron)
     4.01488005E-04   2       -13        13   # BR(A0 -> Muon muon)
     1.15913045E-01   2       -15        15   # BR(A0 -> Tau tau)
     2.93757935E-14   2        -2         2   # BR(A0 -> Up up)
     5.69842702E-09   2        -4         4   # BR(A0 -> Charm charm)
     9.07517896E-07   2        -1         1   # BR(A0 -> Down down)
     3.28244436E-04   2        -3         3   # BR(A0 -> Strange strange)
     8.81141927E-01   2        -5         5   # BR(A0 -> Bottom bottom)
     1.08225504E-03   2  -1000024   1000024   # BR(A0 -> Chargino1 chargino1)
     2.34823962E-04   2   1000022   1000022   # BR(A0 -> neutralino1 neutralino1)
     3.00340757E-04   2   1000022   1000023   # BR(A0 -> neutralino1 neutralino2)
     2.76928941E-04   2   1000023   1000023   # BR(A0 -> neutralino2 neutralino2)
     7.01229799E-06   2        23        25   # BR(A0 -> Z h0)
     4.48905630E-40   2        25        25   # BR(A0 -> h0 h0)
DECAY        37     6.59928157E+00   # Gamma(Hp)
     1.95584902E-08   2       -11        12   # BR(Hp -> Electron nu_e)
     8.36186330E-04   2       -13        14   # BR(Hp -> Muon nu_mu)
     2.36504130E-01   2       -15        16   # BR(Hp -> Tau nu_tau)
     1.72063468E-06   2        -1         2   # BR(Hp -> Down up)
     2.81001782E-05   2        -3         2   # BR(Hp -> Strange up)
     1.79962075E-05   2        -5         2   # BR(Hp -> Bottom up)
     7.82710032E-08   2        -1         4   # BR(Hp -> Down charm)
     6.20084894E-04   2        -3         4   # BR(Hp -> Strange charm)
     2.52002048E-03   2        -5         4   # BR(Hp -> Bottom charm)
     2.51283019E-08   2        -1         6   # BR(Hp -> Down top)
     9.31943221E-07   2        -3         6   # BR(Hp -> Strange top)
     7.59418648E-01   2        -5         6   # BR(Hp -> Bottom top)
     1.00810959E-05   2   1000022   1000024   # BR(Hp -> neutralino1 chargino1)
     2.69776201E-05   2   1000023   1000024   # BR(Hp -> neutralino2 chargino1)
     1.49993795E-05   2        24        25   # BR(Hp -> W h0)
DECAY         6     2.43000000E+00   # top
#    BR                NDA      ID1      ID2
     1.00000000E+00    2           5        24   # BR(t -> b W)
Block HiggsBoundsInputHiggsCouplingsFermions
# ScalarNormEffCoupSq PseudoSNormEffCoupSq NP IP1 IP2 IP2
    1.61536713E+00    0.00000000E+00        3  25   5   5  # h0-b-b eff. coupling^2, normalised to SM
    2.59752326E+03    0.00000000E+00        3  35   5   5  # H0-b-b eff. coupling^2, normalised to SM
    0.00000000E+00    2.59813863E+03        3  36   5   5  # A0-b-b eff. coupling^2, normalised to SM
#
    9.99763151E-01    0.00000000E+00        3  25   6   6  # h0-t-t eff. coupling^2, normalised to SM
    6.21740164E-04    0.00000000E+00        3  35   6   6  # H0-t-t eff. coupling^2, normalised to SM
    0.00000000E+00    3.84890933E-04        3  36   6   6  # A0-t-t eff. coupling^2, normalised to SM
#
    1.61536713E+00    0.00000000E+00        3  25  15  15  # h0-tau-tau eff. coupling^2, normalised to SM
    2.59752326E+03    0.00000000E+00        3  35  15  15  # H0-tau-tau eff. coupling^2, normalised to SM
    0.00000000E+00    2.59813863E+03        3  36  15  15  # A0-tau-tau eff. coupling^2, normalised to SM
#
Block HiggsBoundsInputHiggsCouplingsBosons
    9.99971736E-01        3  25  24  24  # h0-W-W eff. coupling^2, normalised to SM
    2.82636613E-05        3  35  24  24  # H0-W-W eff. coupling^2, normalised to SM
    0.00000000E+00        3  36  24  24  # A0-W-W eff. coupling^2, normalised to SM
#
    9.99971736E-01        3  25  23  23  # h0-Z-Z eff. coupling^2, normalised to SM
    2.82636613E-05        3  35  23  23  # H0-Z-Z eff. coupling^2, normalised to SM
    0.00000000E+00        3  36  23  23  # A0-Z-Z eff. coupling^2, normalised to SM
#
    1.22885053E+00        3  25  21  21  # h0-g-g eff. coupling^2, normalised to SM
    9.18685542E-01        3  35  21  21  # H0-g-g eff. coupling^2, normalised to SM
    5.44414737E-01        3  36  21  21  # A0-g-g eff. coupling^2, normalised to SM
#
    0.00000000E+00        3  25  25  23  # h0-h0-Z eff. coupling^2, normalised to SM
    0.00000000E+00        3  35  25  23  # H0-h0-Z eff. coupling^2, normalised to SM
    2.82636613E-05        3  36  25  23  # A0-h0-Z eff. coupling^2, normalised to SM
    0.00000000E+00        3  35  35  23  # H0-H0-Z eff. coupling^2, normalised to SM
    9.99971736E-01        3  36  35  23  # A0-H0-Z eff. coupling^2, normalised to SM
    0.00000000E+00        3  36  36  23  # A0-A0-Z eff. coupling^2, normalised to SM
#
    0.00000000E+00        4  25  21  21  23  # h0-g-g-Z eff. coupling^2, normalised to SM
    0.00000000E+00        4  35  21  21  23  # H0-g-g-Z eff. coupling^2, normalised to SM
    0.00000000E+00        4  36  21  21  23  # A0-g-g-Z eff. coupling^2, normalised to SM
Block SPhenoLowEnergy  # low energy observables
    1    4.92450361E-04   # BR(b -> s gamma)
    2    1.60248933E-06   # BR(b -> s mu+ mu-)
    3    3.52489835E-05   # BR(b -> s nu nu)
    4    2.64140228E-15   # BR(Bd -> e+ e-)
    5    1.12647044E-10   # BR(Bd -> mu+ mu-)
    6    1.26333983E-08   # BR(Bd -> tau+ tau-)
    7    9.02551181E-14   # BR(Bs -> e+ e-)
    8    3.84937996E-09   # BR(Bs -> mu+ mu-)
    9    4.49035629E-07   # BR(Bs -> tau+ tau-)
   10    2.59983991E-06   # BR(B_u -> tau nu)
   11    2.68553510E-02   # BR(B_u -> tau nu)/BR(B_u -> tau nu)_SM
   12    5.41602859E-01   # |Delta(M_Bd)| [ps^-1] 
   13    1.89275006E+01   # |Delta(M_Bs)| [ps^-1] 
   14    0.00000000E+00   # neutron EDM according to the chiral quark model
   15    0.00000000E+00   # neutron EDM according to the relativistic quark-parton model
   16    2.15909437E-03   # epsilon_K
   17    2.28187686E-15   # Delta(M_K)
   18    2.47921399E-11   # BR(K^0 -> pi^0 nu nu)
   19    8.28885177E-11   # BR(K^+ -> pi^+ nu nu)
   20   -6.73946498E-15   # Delta(g-2)_electron/2
   21   -2.88125899E-10   # Delta(g-2)_muon/2
   22   -7.80456239E-08   # Delta(g-2)_tau/2
   23    0.00000000E+00   # electric dipole moment of the electron
   24    0.00000000E+00   # electric dipole moment of the muon
   25    0.00000000E+00   # electric dipole moment of the tau
   26    0.00000000E+00   # Br(mu -> e gamma)
   27    0.00000000E+00   # Br(tau -> e gamma)
   28    0.00000000E+00   # Br(tau -> mu gamma)
   29    0.00000000E+00   # Br(mu -> 3 e)
   30    0.00000000E+00   # Br(tau -> 3 e)
   31    0.00000000E+00   # Br(tau -> 3 mu)
   39    7.54093128E-05   # Delta(rho_parameter)
   40    0.00000000E+00   # BR(Z -> e mu)
   41    0.00000000E+00   # BR(Z -> e tau)
   42    0.00000000E+00   # BR(Z -> mu tau)
Block FWCOEF Q=  1.60000000E+02  # Wilson coefficients at scale Q
#    id        order  M        value         comment
     0305 4422   00   0    -1.88819110E-01   # C7
     0305 4422   00   2    -3.53502379E-01   # C7
     0305 4322   00   2    -3.12124212E-03   # C7'
     0305 6421   00   0    -9.52278348E-02   # C8
     0305 6421   00   2    -2.45431112E-01   # C8
     0305 6321   00   2    -2.79523797E-03   # C8'
 03051111 4133   00   0     1.60898439E+00   # C9 e+e-
 03051111 4133   00   2     1.60964030E+00   # C9 e+e-
 03051111 4233   00   2    -1.17572245E-03   # C9' e+e-
 03051111 4137   00   0    -4.43167649E+00   # C10 e+e-
 03051111 4137   00   2    -4.42928504E+00   # C10 e+e-
 03051111 4237   00   2     8.93563400E-03   # C10' e+e-
 03051313 4133   00   0     1.60898439E+00   # C9 mu+mu-
 03051313 4133   00   2     1.60963633E+00   # C9 mu+mu-
 03051313 4233   00   2    -1.17746284E-03   # C9' mu+mu-
 03051313 4137   00   0    -4.43167649E+00   # C10 mu+mu-
 03051313 4137   00   2    -4.42928901E+00   # C10 mu+mu-
 03051313 4237   00   2     8.93737496E-03   # C10' mu+mu-
 03051212 4137   00   0     1.50535012E+00   # C11 nu_1 nu_1
 03051212 4137   00   2     1.50483393E+00   # C11 nu_1 nu_1
 03051212 4237   00   2    -1.93993735E-03   # C11' nu_1 nu_1
 03051414 4137   00   0     1.50535012E+00   # C11 nu_2 nu_2
 03051414 4137   00   2     1.50483393E+00   # C11 nu_2 nu_2
 03051414 4237   00   2    -1.93955889E-03   # C11' nu_2 nu_2
 03051616 4137   00   0     1.50535012E+00   # C11 nu_3 nu_3
 03051616 4137   00   2     1.50483396E+00   # C11 nu_3 nu_3
 03051616 4237   00   2    -1.83290676E-03   # C11' nu_3 nu_3
Block IMFWCOEF Q=  1.60000000E+02  # Im(Wilson coefficients) at scale Q
#    id        order  M        value         comment
     0305 4422   00   0     3.85817959E-07   # C7
     0305 4422   00   2    -7.71425768E-06   # C7
     0305 4322   00   2    -6.65520474E-06   # C7'
     0305 6421   00   0     3.30478597E-07   # C8
     0305 6421   00   2     2.32814932E-06   # C8
     0305 6321   00   2    -2.86499570E-06   # C8'
 03051111 4133   00   2     5.02475227E-07   # C9 e+e-
 03051111 4233   00   2     3.94453173E-06   # C9' e+e-
 03051111 4137   00   2    -3.76318929E-06   # C10 e+e-
 03051111 4237   00   2    -2.99533122E-05   # C10' e+e-
 03051313 4133   00   2     5.02439506E-07   # C9 mu+mu-
 03051313 4233   00   2     3.94451781E-06   # C9' mu+mu-
 03051313 4137   00   2    -3.76322257E-06   # C10 mu+mu-
 03051313 4237   00   2    -2.99533534E-05   # C10' mu+mu-
 03051212 4137   00   2     8.67906478E-07   # C11 nu_1 nu_1
 03051212 4237   00   2     6.50295132E-06   # C11' nu_1 nu_1
 03051414 4137   00   2     8.67906435E-07   # C11 nu_2 nu_2
 03051414 4237   00   2     6.50295132E-06   # C11' nu_2 nu_2
 03051616 4137   00   2     8.68040655E-07   # C11 nu_3 nu_3
 03051616 4237   00   2     6.50295109E-06   # C11' nu_3 nu_3
