# SUSY Les Houches Accord 2 - MSSM spectrum + Decays
# SPheno v4.0.5be
# W. Porod, Comput. Phys. Commun. 153 (2003) 275-315, hep-ph/0301101;
# W. Porod, F.~Staub, Comput. Phys. Commun. 183 (2012) 2458
#                     arXiv:1104.1573 [hep-ph] 
# in case of problems send email to porod@physik.uni-wuerzburg.de
# Created: 20.12.2022,  14:47
Block SPINFO         # Program information
     1   SPheno      # spectrum calculator
     2   v4.0.5be    # version number
#
Block SPhenoINFO     # SPheno specific information
    1      2         # using 2-loop RGEs
    2      2         # using pole masses for boundary conditions at mZ
Block MODSEL  # Model selection
    1    0    # general MSSM
Block MINPAR  # Input parameters
    3    4.97923007E+01  # tanb at m_Z    
    4   -1.00000000E+00  # Sign(mu)
Block EXTPAR  # non-universal input parameters
    0    2.90208056E+03  # scale for input parameters
    1    1.45119320E+02  # M_1
    2    9.32703768E+02  # M_2
    3    2.68049042E+03  # M_3
   11    3.63278462E+03  # A_t
   12   -9.69303430E+02  # A_b
   13   -2.77658114E+02  # A_tau
   23   -1.03108709E+03  # mu
   25    4.96542834E+01  # tan(beta)
   26    4.61229451E+03  # m_A, pole mass
   31    1.00000000E+04  # M_L11
   32    1.00000000E+04  # M_L22
   33    1.00000000E+04  # M_L33
   34    1.00000000E+04  # M_E11
   35    1.00000000E+04  # M_E22
   36    1.00000000E+04  # M_E33
   41    1.00000000E+04  # M_Q11
   42    1.00000000E+04  # M_Q22
   43    3.18259205E+03  # M_Q33
   44    1.00000000E+04  # M_U11
   45    1.00000000E+04  # M_U22
   46    2.56521726E+03  # M_U33
   47    1.00000000E+04  # M_D11
   48    1.00000000E+04  # M_D22
   49    4.93602474E+03  # M_D33
Block SMINPUTS  # SM parameters
         1     1.27908970E+02  # alpha_em^-1(MZ)^MSbar
         2     1.16637870E-05  # G_mu [GeV^-2]
         3     1.18400000E-01  # alpha_s(MZ)^MSbar
         4     9.11876000E+01  # m_Z(pole)
         5     4.18000000E+00  # m_b(m_b), MSbar
         6     1.73200000E+02  # m_t(pole)
         7     1.77700000E+00  # m_tau(pole)
         8     0.00000000E+00  # m_nu_3
        11     5.10998930E-04  # m_e(pole)
        12     0.00000000E+00  # m_nu_1
        13     1.05658372E-01  # m_muon(pole)
        14     0.00000000E+00  # m_nu_2
        21     5.00000000E-03  # m_d(2 GeV), MSbar
        22     2.50000000E-03  # m_u(2 GeV), MSbar
        23     9.50000000E-02  # m_s(2 GeV), MSbar
        24     1.27000000E+00  # m_c(m_c), MSbar
Block gauge Q=  2.90208056E+03  # (SUSY scale)
   1    3.55362975E-01  # g'(Q)^DRbar
   2    6.65198874E-01  # g(Q)^DRbar
   3    1.21977796E+00  # g3(Q)^DRbar
Block Yu Q=  2.90208056E+03  # (SUSY scale)
  1  1     8.38607227E-06   # Y_u(Q)^DRbar
  2  2     4.26012471E-03   # Y_c(Q)^DRbar
  3  3     1.01310489E+00   # Y_t(Q)^DRbar
Block Yd Q=  2.90208056E+03  # (SUSY scale)
  1  1     8.36749703E-04   # Y_d(Q)^DRbar
  2  2     1.58982444E-02   # Y_s(Q)^DRbar
  3  3     8.29793506E-01   # Y_b(Q)^DRbar
Block Ye Q=  2.90208056E+03  # (SUSY scale)
  1  1     1.46018942E-04   # Y_e(Q)^DRbar
  2  2     3.01920861E-02   # Y_mu(Q)^DRbar
  3  3     5.07781219E-01   # Y_tau(Q)^DRbar
Block Au Q=  2.90208056E+03  # (SUSY scale)
  1  1     0.00000000E+00   # A_u(Q)^DRbar
  2  2     0.00000000E+00   # A_c(Q)^DRbar
  3  3     3.63278463E+03   # A_t(Q)^DRbar
Block Ad Q=  2.90208056E+03  # (SUSY scale)
  1  1     0.00000000E+00   # A_d(Q)^DRbar
  2  2     0.00000000E+00   # A_s(Q)^DRbar
  3  3    -9.69303391E+02   # A_b(Q)^DRbar
Block Ae Q=  2.90208056E+03  # (SUSY scale)
  1  1     0.00000000E+00   # A_e(Q)^DRbar
  2  2     0.00000000E+00   # A_mu(Q)^DRbar
  3  3    -2.77658113E+02   # A_tau(Q)^DRbar
Block MSOFT Q=  2.90208056E+03  # soft SUSY breaking masses at Q
   1    1.45119320E+02  # M_1
   2    9.32703768E+02  # M_2
   3    2.68049042E+03  # M_3
  21    2.00004606E+07  # M^2_(H,d)
  22   -9.11439207E+05  # M^2_(H,u)
  31    1.00000000E+04  # M_(L,11)
  32    1.00000000E+04  # M_(L,22)
  33    1.00000000E+04  # M_(L,33)
  34    1.00000000E+04  # M_(E,11)
  35    1.00000000E+04  # M_(E,22)
  36    1.00000000E+04  # M_(E,33)
  41    1.00000000E+04  # M_(Q,11)
  42    1.00000000E+04  # M_(Q,22)
  43    3.18259205E+03  # M_(Q,33)
  44    1.00000000E+04  # M_(U,11)
  45    1.00000000E+04  # M_(U,22)
  46    2.56521726E+03  # M_(U,33)
  47    1.00000000E+04  # M_(D,11)
  48    1.00000000E+04  # M_(D,22)
  49    4.93602474E+03  # M_(D,33)
Block MASS  # Mass spectrum
#   PDG code      mass          particle
         6     1.73200000E+02  # m_t(pole)
        23     9.11876000E+01  # m_Z(pole)
        24     8.04299946E+01  # W+
        15     1.77700000E+00  # m_tau(pole)
        25     1.23955119E+02  # h0
        35     4.60694405E+03  # H0
        36     4.61229451E+03  # A0
        37     4.60806268E+03  # H+
   1000001     1.01050413E+04  # ~d_L
   2000001     1.00808045E+04  # ~d_R
   1000002     1.01046770E+04  # ~u_L
   2000002     1.00837747E+04  # ~u_R
   1000003     1.01050544E+04  # ~s_L
   2000003     1.00808272E+04  # ~s_R
   1000004     1.01046896E+04  # ~c_L
   2000004     1.00837764E+04  # ~c_R
   1000005     3.22566853E+03  # ~b_1
   2000005     4.96677983E+03  # ~b_2
   1000006     2.60119440E+03  # ~t_1
   2000006     3.23777091E+03  # ~t_2
   1000011     1.00206785E+04  # ~e_L-
   2000011     1.00090125E+04  # ~e_R-
   1000012     1.00199169E+04  # ~nu_eL
   1000013     1.00207422E+04  # ~mu_L-
   2000013     1.00091186E+04  # ~mu_R-
   1000014     1.00199744E+04  # ~nu_muL
   1000015     1.00339591E+04  # ~tau_1-
   2000015     1.00437272E+04  # ~tau_2-
   1000016     1.00362194E+04  # ~nu_tauL
   1000021     3.10830691E+03  # ~g
   1000022     1.46713460E+02  # ~chi_10
   1000023     9.71304217E+02  # ~chi_20
   1000025     1.05057623E+03  # ~chi_30
   1000035     1.08785943E+03  # ~chi_40
   1000024     9.70799771E+02  # ~chi_1+
   1000037     1.08786300E+03  # ~chi_2+
# Higgs mixing
Block alpha # Effective Higgs mixing angle
          -2.00975892E-02   # alpha
Block Hmix Q=  2.90208056E+03  # Higgs mixing parameters
   1   -1.03108709E+03  # mu
   2    4.96542834E+01  # tan[beta](Q)
   3    2.43279345E+02  # v(Q)
   4    2.12732606E+07  # m^2_A(Q)
Block stopmix # stop mixing matrix
   1  1    -1.29489446E-01   # Re[R_st(1,1)]
   1  2     9.91580800E-01   # Re[R_st(1,2)]
   2  1    -9.91580800E-01   # Re[R_st(2,1)]
   2  2    -1.29489446E-01   # Re[R_st(2,2)]
Block sbotmix # sbottom mixing matrix
   1  1    -9.99959908E-01   # Re[R_sb(1,1)]
   1  2     8.95445506E-03   # Re[R_sb(1,2)]
   2  1    -8.95445506E-03   # Re[R_sb(2,1)]
   2  2    -9.99959908E-01   # Re[R_sb(2,2)]
Block staumix # stau mixing matrix
   1  1    -8.36169008E-01   # Re[R_sta(1,1)]
   1  2     5.48471868E-01   # Re[R_sta(1,2)]
   2  1    -5.48471868E-01   # Re[R_sta(2,1)]
   2  2    -8.36169008E-01   # Re[R_sta(2,2)]
Block Nmix # neutralino mixing matrix
   1  1    -9.99036505E-01   # Re[N(1,1)]
   1  2     3.42027487E-04   # Re[N(1,2)]
   1  3     4.35697672E-02   # Re[N(1,3)]
   1  4     5.25547277E-03   # Re[N(1,4)]
   2  1     1.94562051E-02   # Re[N(2,1)]
   2  2     8.43675172E-01   # Re[N(2,2)]
   2  3     3.95814435E-01   # Re[N(2,3)]
   2  4     3.62166529E-01   # Re[N(2,4)]
   3  1    -2.70511359E-02   # Re[N(3,1)]
   3  2     2.81235268E-02   # Re[N(3,2)]
   3  3    -7.05810912E-01   # Re[N(3,3)]
   3  4     7.07324720E-01   # Re[N(3,4)]
   4  1    -2.85614025E-02   # Re[N(4,1)]
   4  2     5.36116737E-01   # Re[N(4,2)]
   4  3    -5.85886990E-01   # Re[N(4,3)]
   4  4    -6.07041618E-01   # Re[N(4,4)]
Block Umix # chargino mixing matrix
   1  1    -8.14604879E-01   # Re[U(1,1)]
   1  2    -5.80016285E-01   # Re[U(1,2)]
   2  1     5.80016285E-01   # Re[U(2,1)]
   2  2    -8.14604879E-01   # Re[U(2,2)]
Block Vmix # chargino mixing matrix
   1  1    -8.45800638E-01   # Re[V(1,1)]
   1  2     5.33499092E-01   # Re[V(1,2)]
   2  1     5.33499092E-01   # Re[V(2,1)]
   2  2     8.45800638E-01   # Re[V(2,2)]
DECAY        23     2.49520000E+00   # Z
DECAY        24     2.08500000E+00   # W
DECAY   2000011     5.02679457E+01   # ~e^-_R
#    BR                NDA      ID1      ID2
     9.98115176E-01    2     1000022        11   # BR(~e^-_R -> chi^0_1 e^-)
     3.71635746E-04    2     1000023        11   # BR(~e^-_R -> chi^0_2 e^-)
     7.16107143E-04    2     1000025        11   # BR(~e^-_R -> chi^0_3 e^-)
     7.96998087E-04    2     1000035        11   # BR(~e^-_R -> chi^0_4 e^-)
DECAY   1000011     1.42229674E+02   # ~e^-_L
#    BR                NDA      ID1      ID2
     8.81802049E-02    2     1000022        11   # BR(~e^-_L -> chi^0_1 e^-)
     2.21971256E-01    2     1000023        11   # BR(~e^-_L -> chi^0_2 e^-)
     8.21584517E-02    2     1000035        11   # BR(~e^-_L -> chi^0_4 e^-)
     4.03871585E-01    2    -1000024        12   # BR(~e^-_L -> chi^-_1 nu_e)
     2.03761787E-01    2    -1000037        12   # BR(~e^-_L -> chi^-_2 nu_e)
#    BR                NDA      ID1      ID2       ID3
DECAY   2000013     5.06235495E+01   # ~mu^-_R
#    BR                NDA      ID1      ID2
     9.91121262E-01    2     1000022        13   # BR(~mu^-_R -> chi^0_1 mu^-)
     9.20233919E-04    2     1000023        13   # BR(~mu^-_R -> chi^0_2 mu^-)
     2.45812380E-03    2     1000025        13   # BR(~mu^-_R -> chi^0_3 mu^-)
     1.99326862E-03    2     1000035        13   # BR(~mu^-_R -> chi^0_4 mu^-)
     1.18366880E-03    2    -1000024        14   # BR(~mu^-_R -> chi^-_1 nu_mu)
     2.32344287E-03    2    -1000037        14   # BR(~mu^-_R -> chi^-_2 nu_mu)
DECAY   1000013     1.42408360E+02   # ~mu^-_L
#    BR                NDA      ID1      ID2
     8.80725428E-02    2     1000022        13   # BR(~mu^-_L -> chi^0_1 mu^-)
     2.21890410E-01    2     1000023        13   # BR(~mu^-_L -> chi^0_2 mu^-)
     6.78439181E-04    2     1000025        13   # BR(~mu^-_L -> chi^0_3 mu^-)
     8.24836437E-02    2     1000035        13   # BR(~mu^-_L -> chi^0_4 mu^-)
     4.03367491E-01    2    -1000024        14   # BR(~mu^-_L -> chi^-_1 nu_mu)
     2.03507474E-01    2    -1000037        14   # BR(~mu^-_L -> chi^-_2 nu_mu)
#    BR                NDA      ID1      ID2       ID3
DECAY   1000015     1.80463204E+02   # ~tau^-_1
#    BR                NDA      ID1      ID2
     1.38677074E-01    2     1000022        15   # BR(~tau^-_1 -> chi^0_1 tau^-)
     2.44807333E-01    2     1000023        15   # BR(~tau^-_1 -> chi^0_2 tau^-)
     1.31958266E-01    2     1000025        15   # BR(~tau^-_1 -> chi^0_3 tau^-)
     6.45636712E-02    2     1000035        15   # BR(~tau^-_1 -> chi^0_4 tau^-)
     4.10090368E-01    2    -1000024        16   # BR(~tau^-_1 -> chi^-_1 nu_tau)
     9.90328853E-03    2    -1000037        16   # BR(~tau^-_1 -> chi^-_2 nu_tau)
DECAY   2000015     1.63564699E+02   # ~tau^-_2
#    BR                NDA      ID1      ID2
     2.32709848E-01    2     1000022        15   # BR(~tau^-_2 -> chi^0_1 tau^-)
     2.00866103E-02    2     1000023        15   # BR(~tau^-_2 -> chi^0_2 tau^-)
     1.61531162E-01    2     1000025        15   # BR(~tau^-_2 -> chi^0_3 tau^-)
     2.11747209E-01    2     1000035        15   # BR(~tau^-_2 -> chi^0_4 tau^-)
     3.11016347E-03    2    -1000024        16   # BR(~tau^-_2 -> chi^-_1 nu_tau)
     3.70815007E-01    2    -1000037        16   # BR(~tau^-_2 -> chi^-_2 nu_tau)
#    BR                NDA      ID1      ID2       ID3
DECAY   1000012     1.42233697E+02   # ~nu_e
#    BR                NDA      ID1      ID2
     8.83973123E-02    2     1000022        12   # BR(~nu_e -> chi^0_1 nu_e)
     2.11274667E-01    2     1000023        12   # BR(~nu_e -> chi^0_2 nu_e)
     5.49754196E-04    2     1000025        12   # BR(~nu_e -> chi^0_3 nu_e)
     9.20575563E-02    2     1000035        12   # BR(~nu_e -> chi^0_4 nu_e)
     4.35350220E-01    2     1000024        11   # BR(~nu_e -> chi^+_1 e^-)
     1.72370490E-01    2     1000037        11   # BR(~nu_e -> chi^+_2 e^-)
#    BR                NDA      ID1      ID2       ID3
DECAY   1000014     1.42412283E+02   # ~nu_mu
#    BR                NDA      ID1      ID2
     8.82869684E-02    2     1000022        14   # BR(~nu_mu -> chi^0_1 nu_mu)
     2.11010984E-01    2     1000023        14   # BR(~nu_mu -> chi^0_2 nu_mu)
     5.49068091E-04    2     1000025        14   # BR(~nu_mu -> chi^0_3 nu_mu)
     9.19426682E-02    2     1000035        14   # BR(~nu_mu -> chi^0_4 nu_mu)
     4.35228158E-01    2     1000024        13   # BR(~nu_mu -> chi^+_1 mu^-)
     1.72982154E-01    2     1000037        13   # BR(~nu_mu -> chi^+_2 mu^-)
#    BR                NDA      ID1      ID2       ID3
DECAY   1000016     1.92834881E+02   # ~nu_tau
#    BR                NDA      ID1      ID2
     6.53074304E-02    2     1000022        16   # BR(~nu_tau -> chi^0_1 nu_tau)
     1.56097915E-01    2     1000023        16   # BR(~nu_tau -> chi^0_2 nu_tau)
     4.06184011E-04    2     1000025        16   # BR(~nu_tau -> chi^0_3 nu_tau)
     6.80167699E-02    2     1000035        16   # BR(~nu_tau -> chi^0_4 nu_tau)
     4.09807236E-01    2     1000024        15   # BR(~nu_tau -> chi^+_1 tau^-)
     3.00364465E-01    2     1000037        15   # BR(~nu_tau -> chi^+_2 tau^-)
#    BR                NDA      ID1      ID2       ID3
DECAY   2000001     6.57228116E+02   # ~d_R
#    BR                NDA      ID1      ID2
     8.54318446E-03    2     1000022         1   # BR(~d_R -> chi^0_1 d)
     9.91440261E-01    2     1000021         1   # BR(~d_R -> ~g d)
DECAY   1000001     7.86016446E+02   # ~d_L
#    BR                NDA      ID1      ID2
     1.79703464E-03    2     1000022         1   # BR(~d_L -> chi^0_1 d)
     3.92124343E-02    2     1000023         1   # BR(~d_L -> chi^0_2 d)
     1.61921990E-02    2     1000035         1   # BR(~d_L -> chi^0_4 d)
     7.37190399E-02    2    -1000024         2   # BR(~d_L -> chi^-_1 u)
     3.71958523E-02    2    -1000037         2   # BR(~d_L -> chi^-_2 u)
     8.31823272E-01    2     1000021         1   # BR(~d_L -> ~g d)
DECAY   2000003     6.57329128E+02   # ~s_R
#    BR                NDA      ID1      ID2
     8.54203683E-03    2     1000022         3   # BR(~s_R -> chi^0_1 s)
     9.91291075E-01    2     1000021         3   # BR(~s_R -> ~g s)
DECAY   1000003     7.86070976E+02   # ~s_L
#    BR                NDA      ID1      ID2
     1.79703465E-03    2     1000022         3   # BR(~s_L -> chi^0_1 s)
     3.92196856E-02    2     1000023         3   # BR(~s_L -> chi^0_2 s)
     1.62127093E-02    2     1000035         3   # BR(~s_L -> chi^0_4 s)
     7.37153023E-02    2    -1000024         4   # BR(~s_L -> chi^-_1 c)
     3.71965860E-02    2    -1000037         4   # BR(~s_L -> chi^-_2 c)
     8.31767097E-01    2     1000021         3   # BR(~s_L -> ~g s)
DECAY   1000005     1.39889587E+02   # ~b_1
#    BR                NDA      ID1      ID2
     3.88375784E-03    2     1000022         5   # BR(~b_1 -> chi^0_1 b)
     1.01122167E-01    2     1000023         5   # BR(~b_1 -> chi^0_2 b)
     1.25748859E-01    2     1000025         5   # BR(~b_1 -> chi^0_3 b)
     1.07608494E-01    2     1000035         5   # BR(~b_1 -> chi^0_4 b)
     2.14498757E-01    2    -1000024         6   # BR(~b_1 -> chi^-_1 t)
     3.23734824E-01    2    -1000037         6   # BR(~b_1 -> chi^-_2 t)
     9.27757102E-03    2     1000021         5   # BR(~b_1 -> ~g b)
     1.14125569E-01    2     1000006       -24   # BR(~b_1 -> ~t_1 W^-)
DECAY   2000005     2.74634662E+02   # ~b_2
#    BR                NDA      ID1      ID2
     1.04703718E-02    2     1000022         5   # BR(~b_2 -> chi^0_1 b)
     3.51406587E-02    2     1000023         5   # BR(~b_2 -> chi^0_2 b)
     1.12692332E-01    2     1000025         5   # BR(~b_2 -> chi^0_3 b)
     7.78196447E-02    2     1000035         5   # BR(~b_2 -> chi^0_4 b)
     7.53746507E-02    2    -1000024         6   # BR(~b_2 -> chi^-_1 t)
     1.50182935E-01    2    -1000037         6   # BR(~b_2 -> chi^-_2 t)
     5.28322828E-01    2     1000021         5   # BR(~b_2 -> ~g b)
     1.55690398E-04    2     1000006       -24   # BR(~b_2 -> ~t_1 W^-)
     4.53527743E-03    2     2000006       -24   # BR(~b_2 -> ~t_2 W^-)
     2.34234685E-03    2     1000005        23   # BR(~b_2 -> ~b_1 Z)
     2.96326448E-03    2     1000005        25   # BR(~b_2 -> ~b_1 h^0)
DECAY   2000002     6.74383415E+02   # ~u_R
#    BR                NDA      ID1      ID2
     3.33132540E-02    2     1000022         2   # BR(~u_R -> chi^0_1 u)
     9.66623823E-01    2     1000021         2   # BR(~u_R -> ~g u)
DECAY   1000002     7.86001726E+02   # ~u_L
#    BR                NDA      ID1      ID2
     1.78323670E-03    2     1000022         2   # BR(~u_L -> chi^0_1 u)
     3.98611039E-02    2     1000023         2   # BR(~u_L -> chi^0_2 u)
     1.55888911E-02    2     1000035         2   # BR(~u_L -> chi^0_4 u)
     7.94719540E-02    2     1000024         1   # BR(~u_L -> chi^+_1 d)
     3.14684134E-02    2     1000037         1   # BR(~u_L -> chi^+_2 d)
     8.31796325E-01    2     1000021         2   # BR(~u_L -> ~g u)
DECAY   2000004     6.74390667E+02   # ~c_R
#    BR                NDA      ID1      ID2
     3.33129003E-02    2     1000022         4   # BR(~c_R -> chi^0_1 c)
     9.66613615E-01    2     1000021         4   # BR(~c_R -> ~g c)
DECAY   1000004     7.86056173E+02   # ~c_L
#    BR                NDA      ID1      ID2
     1.78311547E-03    2     1000022         4   # BR(~c_L -> chi^0_1 c)
     3.98589821E-02    2     1000023         4   # BR(~c_L -> chi^0_2 c)
     1.55895117E-02    2     1000035         4   # BR(~c_L -> chi^0_4 c)
     7.94878507E-02    2     1000024         3   # BR(~c_L -> chi^+_1 s)
     3.15080525E-02    2     1000037         3   # BR(~c_L -> chi^+_2 s)
     8.31740142E-01    2     1000021         4   # BR(~c_L -> ~g c)
DECAY   1000006     7.98129727E+01   # ~t_1
#    BR                NDA      ID1      ID2
     7.01586288E-02    2     1000022         6   # BR(~t_1 -> chi^0_1 t)
     5.13661986E-04    2     1000023         4   # BR(~t_1 -> chi^0_2 c)
     4.85614511E-02    2     1000023         6   # BR(~t_1 -> chi^0_2 t)
     2.32065294E-01    2     1000025         6   # BR(~t_1 -> chi^0_3 t)
     1.86501609E-01    2     1000035         6   # BR(~t_1 -> chi^0_4 t)
     1.04832351E-01    2     1000024         5   # BR(~t_1 -> chi^+_1 b)
     3.57331944E-01    2     1000037         5   # BR(~t_1 -> chi^+_2 b)
#    BR                NDA      ID1      ID2       ID3
DECAY   2000006     1.44823368E+02   # ~t_2
#    BR                NDA      ID1      ID2
     4.02863713E-03    2     1000022         6   # BR(~t_2 -> chi^0_1 t)
     1.15691039E-01    2     1000023         6   # BR(~t_2 -> chi^0_2 t)
     1.80838438E-01    2     1000025         6   # BR(~t_2 -> chi^0_3 t)
     1.41397173E-01    2     1000035         6   # BR(~t_2 -> chi^0_4 t)
     2.29330949E-01    2     1000024         5   # BR(~t_2 -> chi^+_1 b)
     1.77451021E-01    2     1000037         5   # BR(~t_2 -> chi^+_2 b)
     5.67778896E-02    2     1000006        23   # BR(~t_2 -> ~t_1 Z)
     9.44848530E-02    2     1000006        25   # BR(~t_2 -> ~t_1 h^0)
DECAY   1000024     1.96957642E-01   # chi^+_1
#    BR                NDA      ID1      ID2
     9.84766830E-01    2     1000022        24   # BR(chi^+_1 -> chi^0_1 W^+)
#    BR                NDA      ID1      ID2       ID3
     1.52322949E-02    3     1000022        -5         6   # BR(chi^+_1 -> chi^0_1 b_bar t)
DECAY   1000037     1.07003218E+00   # chi^+_2
#    BR                NDA      ID1      ID2
     4.86530333E-01    2     1000022        24   # BR(chi^+_2 -> chi^0_1 W^+)
     3.21475243E-01    2     1000023        24   # BR(chi^+_2 -> chi^0_2 W^+)
     1.82880453E-01    2     1000024        23   # BR(chi^+_2 -> chi^+_1 Z)
#    BR                NDA      ID1      ID2       ID3
     8.87751122E-03    3     1000022        -5         6   # BR(chi^+_2 -> chi^0_1 b_bar t)
DECAY   1000022     0.00000000E+00   # chi^0_1
DECAY   1000023     1.69907571E-01   # chi^0_2
#    BR                NDA      ID1      ID2
     4.06226934E-01    2     1000022        23   # BR(chi^0_2 -> chi^0_1 Z)
     5.87441400E-01    2     1000022        25   # BR(chi^0_2 -> chi^0_1 h^0)
#    BR                NDA      ID1      ID2       ID3
     6.31796348E-03    3     1000022         6        -6   # BR(chi^0_2 -> chi^0_1 t t_bar)
DECAY   1000025     1.06842174E+00   # chi^0_3
#    BR                NDA      ID1      ID2
     4.16124675E-01    2     1000022        23   # BR(chi^0_3 -> chi^0_1 Z)
     3.99022272E-01    2     1000022        25   # BR(chi^0_3 -> chi^0_1 h^0)
     3.75836314E-04    2     1000023        22   # BR(chi^0_3 -> chi^0_2 photon)
#    BR                NDA      ID1      ID2       ID3
     5.39889013E-03    3     1000022         6        -6   # BR(chi^0_3 -> chi^0_1 t t_bar)
     1.07997744E-03    3     1000023         2        -2   # BR(chi^0_3 -> chi^0_2 u u_bar)
     1.07765295E-03    3     1000023         4        -4   # BR(chi^0_3 -> chi^0_2 c c_bar)
     1.38473840E-03    3     1000023         1        -1   # BR(chi^0_3 -> chi^0_2 d d_bar)
     1.38472577E-03    3     1000023         3        -3   # BR(chi^0_3 -> chi^0_2 s s_bar)
     1.35928775E-03    3     1000023         5        -5   # BR(chi^0_3 -> chi^0_2 b b_bar)
     3.12496836E-04    3     1000023        11       -11   # BR(chi^0_3 -> chi^0_2 e^- e^+)
     3.12491999E-04    3     1000023        13       -13   # BR(chi^0_3 -> chi^0_2 mu^- mu^+)
     3.11056901E-04    3     1000023        15       -15   # BR(chi^0_3 -> chi^0_2 tau^- tau^+)
     1.85180766E-03    3     1000023        12       -12   # BR(chi^0_3 -> chi^0_2 nu_e nu_bar_e)
     2.83356778E-02    3     1000024         1        -2   # BR(chi^0_3 -> chi^+_1 d u_bar)
     2.83356778E-02    3    -1000024        -1         2   # BR(chi^0_3 -> chi^-_1 d_bar u)
     2.83245744E-02    3     1000024         3        -4   # BR(chi^0_3 -> chi^+_1 s c_bar)
     2.83245744E-02    3    -1000024        -3         4   # BR(chi^0_3 -> chi^-_1 s_bar c)
     9.44523039E-03    3     1000024        11       -12   # BR(chi^0_3 -> chi^+_1 e^- nu_bar_e)
     9.44523039E-03    3    -1000024       -11        12   # BR(chi^0_3 -> chi^-_1 e^+ nu_e)
     9.44521275E-03    3     1000024        13       -14   # BR(chi^0_3 -> chi^+_1 mu^- nu_bar_mu)
     9.44521275E-03    3    -1000024       -13        14   # BR(chi^0_3 -> chi^-_1 mu^+ nu_mu)
     9.43991104E-03    3     1000024        15       -16   # BR(chi^0_3 -> chi^+_1 tau^- nu_bar_tau)
     9.43991104E-03    3    -1000024       -15        16   # BR(chi^0_3 -> chi^-_1 tau^+ nu_tau)
DECAY   1000035     1.01920200E+00   # chi^0_4
#    BR                NDA      ID1      ID2
     2.51119752E-01    2     1000024       -24   # BR(chi^0_4 -> chi^+_1 W^-)
     2.51119752E-01    2    -1000024        24   # BR(chi^0_4 -> chi^-_1 W^+)
     2.04071826E-01    2     1000022        23   # BR(chi^0_4 -> chi^0_1 Z)
     7.19166730E-04    2     1000023        23   # BR(chi^0_4 -> chi^0_2 Z)
     2.88525536E-01    2     1000022        25   # BR(chi^0_4 -> chi^0_1 h^0)
#    BR                NDA      ID1      ID2       ID3
     4.21625241E-03    3     1000022         6        -6   # BR(chi^0_4 -> chi^0_1 t t_bar)
DECAY   1000021     9.10420675E+00   # ~g
#    BR                NDA      ID1      ID2
     3.05736519E-03    2     1000006        -4   # BR(~g -> ~t_1 c_bar)
     3.05736519E-03    2    -1000006         4   # BR(~g -> ~t^*_1 c)
     4.71431627E-01    2     1000006        -6   # BR(~g -> ~t_1 t_bar)
     4.71431627E-01    2    -1000006         6   # BR(~g -> ~t^*_1 t)
     1.26803903E-04    2     1000023        21   # BR(~g -> chi^0_2 g)
     4.28307002E-04    2     1000025        21   # BR(~g -> chi^0_3 g)
     3.57893544E-04    2     1000035        21   # BR(~g -> chi^0_4 g)
#    BR                NDA      ID1      ID2       ID3
     1.33143114E-04    3     1000022         6        -6   # BR(~g -> chi^0_1 t t_bar)
     1.98388127E-04    3     1000022         5        -5   # BR(~g -> chi^0_1 b b_bar)
     2.77050527E-03    3     1000023         6        -6   # BR(~g -> chi^0_2 t t_bar)
     3.76008043E-03    3     1000023         5        -5   # BR(~g -> chi^0_2 b b_bar)
     3.78857397E-03    3     1000025         6        -6   # BR(~g -> chi^0_3 t t_bar)
     4.52275863E-03    3     1000025         5        -5   # BR(~g -> chi^0_3 b b_bar)
     3.17850404E-03    3     1000035         6        -6   # BR(~g -> chi^0_4 t t_bar)
     3.75200044E-03    3     1000035         5        -5   # BR(~g -> chi^0_4 b b_bar)
     6.63703821E-03    3     1000024         5        -6   # BR(~g -> chi^+_1 b t_bar)
     6.63703821E-03    3    -1000024        -5         6   # BR(~g -> chi^-_1 b_bar t)
     7.28520267E-03    3     1000037         5        -6   # BR(~g -> chi^+_2 b t_bar)
     7.28520267E-03    3    -1000037        -5         6   # BR(~g -> chi^-_2 b_bar t)
DECAY        25     3.74142072E-03   # Gamma(h0)
     2.34567698E-03   2        22        22   # BR(h0 -> photon photon)
     1.41221568E-03   2        22        23   # BR(h0 -> photon Z)
     2.51340329E-02   2        23        23   # BR(h0 -> Z Z)
     2.12008324E-01   2       -24        24   # BR(h0 -> W W)
     7.34799214E-02   2        21        21   # BR(h0 -> gluon gluon)
     5.26687378E-09   2       -11        11   # BR(h0 -> Electron electron)
     2.34279376E-04   2       -13        13   # BR(h0 -> Muon muon)
     6.75498757E-02   2       -15        15   # BR(h0 -> Tau tau)
     1.50146855E-07   2        -2         2   # BR(h0 -> Up up)
     2.91358229E-02   2        -4         4   # BR(h0 -> Charm charm)
     6.10628857E-07   2        -1         1   # BR(h0 -> Down down)
     2.20850499E-04   2        -3         3   # BR(h0 -> Strange strange)
     5.88478234E-01   2        -5         5   # BR(h0 -> Bottom bottom)
DECAY        35     2.30594889E+02   # Gamma(HH)
     1.81174389E-08   2        22        22   # BR(HH -> photon photon)
     3.90796358E-08   2        22        23   # BR(HH -> photon Z)
     1.58415686E-08   2        23        23   # BR(HH -> Z Z)
     2.85621993E-09   2       -24        24   # BR(HH -> W W)
     4.70544382E-06   2        21        21   # BR(HH -> gluon gluon)
     7.55938161E-09   2       -11        11   # BR(HH -> Electron electron)
     3.36625965E-04   2       -13        13   # BR(HH -> Muon muon)
     9.72282266E-02   2       -15        15   # BR(HH -> Tau tau)
     2.56056114E-14   2        -2         2   # BR(HH -> Up up)
     4.96787017E-09   2        -4         4   # BR(HH -> Charm charm)
     4.89098829E-04   2        -6         6   # BR(HH -> Top top)
     5.51759269E-07   2        -1         1   # BR(HH -> Down down)
     1.99584423E-04   2        -3         3   # BR(HH -> Strange strange)
     6.79890619E-01   2        -5         5   # BR(HH -> Bottom bottom)
     2.14298620E-02   2  -1000024   1000024   # BR(HH -> Chargino1 chargino1)
     4.90738294E-02   2  -1000024   1000037   # BR(HH -> Chargino1 chargino2)
     4.90738294E-02   2  -1000037   1000024   # BR(HH -> Chargino2 chargino1)
     1.43078831E-02   2  -1000037   1000037   # BR(HH -> Chargino2 chargino2)
     8.44212750E-05   2   1000022   1000022   # BR(HH -> neutralino1 neutralino1)
     3.20707654E-03   2   1000022   1000023   # BR(HH -> neutralino1 neutralino2)
     1.01325975E-02   2   1000022   1000025   # BR(HH -> neutralino1 neutralino3)
     7.80095374E-03   2   1000022   1000035   # BR(HH -> neutralino1 neutralino4)
     1.03180840E-02   2   1000023   1000023   # BR(HH -> neutralino2 neutralino2)
     2.75691188E-02   2   1000023   1000025   # BR(HH -> neutralino2 neutralino3)
     1.22184029E-02   2   1000023   1000035   # BR(HH -> neutralino2 neutralino4)
     1.06059701E-04   2   1000025   1000025   # BR(HH -> neutralino3 neutralino3)
     7.67492815E-03   2   1000025   1000035   # BR(HH -> neutralino3 neutralino4)
     8.85334441E-03   2   1000035   1000035   # BR(HH -> neutralino4 neutralino4)
     1.08249678E-07   2        25        25   # BR(HH -> h0 h0)
DECAY        36     2.10592307E+02   # Gamma(A0)
     9.94554094E-10   2        22        22   # BR(A0 -> photon photon)
     8.05765594E-09   2        22        23   # BR(A0 -> photon Z)
     7.31183055E-06   2        21        21   # BR(A0 -> gluon gluon)
     7.35065306E-09   2       -11        11   # BR(A0 -> Electron electron)
     3.27328418E-04   2       -13        13   # BR(A0 -> Muon muon)
     9.45428805E-02   2       -15        15   # BR(A0 -> Tau tau)
     2.24486093E-14   2        -2         2   # BR(A0 -> Up up)
     4.35532838E-09   2        -4         4   # BR(A0 -> Charm charm)
     4.37065316E-04   2        -6         6   # BR(A0 -> Top top)
     5.36457695E-07   2        -1         1   # BR(A0 -> Down down)
     1.94049773E-04   2        -3         3   # BR(A0 -> Strange strange)
     6.61170543E-01   2        -5         5   # BR(A0 -> Bottom bottom)
     2.59882600E-02   2  -1000024   1000024   # BR(A0 -> Chargino1 chargino1)
     5.13794713E-02   2  -1000024   1000037   # BR(A0 -> Chargino1 chargino2)
     5.13794713E-02   2  -1000037   1000024   # BR(A0 -> Chargino2 chargino1)
     1.80982081E-02   2  -1000037   1000037   # BR(A0 -> Chargino2 chargino2)
     9.20176490E-05   2   1000022   1000022   # BR(A0 -> neutralino1 neutralino1)
     3.40133705E-03   2   1000022   1000023   # BR(A0 -> neutralino1 neutralino2)
     1.16953979E-02   2   1000022   1000025   # BR(A0 -> neutralino1 neutralino3)
     8.08711007E-03   2   1000022   1000035   # BR(A0 -> neutralino1 neutralino4)
     1.24891934E-02   2   1000023   1000023   # BR(A0 -> neutralino2 neutralino2)
     2.70613346E-02   2   1000023   1000025   # BR(A0 -> neutralino2 neutralino3)
     1.50154732E-02   2   1000023   1000035   # BR(A0 -> neutralino2 neutralino4)
     1.57842224E-04   2   1000025   1000025   # BR(A0 -> neutralino3 neutralino3)
     7.14925945E-03   2   1000025   1000035   # BR(A0 -> neutralino3 neutralino4)
     1.13258443E-02   2   1000035   1000035   # BR(A0 -> neutralino4 neutralino4)
     4.33293015E-08   2        23        25   # BR(A0 -> Z h0)
     2.28913367E-11   2        23        35   # BR(A0 -> Z HH)
     1.46347765E-37   2        25        25   # BR(A0 -> h0 h0)
DECAY        37     2.36343287E+02   # Gamma(Hp)
     7.99392610E-09   2       -11        12   # BR(Hp -> Electron nu_e)
     3.41765308E-04   2       -13        14   # BR(Hp -> Muon nu_mu)
     9.66707024E-02   2       -15        16   # BR(Hp -> Tau nu_tau)
     4.97634138E-07   2        -1         2   # BR(Hp -> Down up)
     8.44129054E-06   2        -3         2   # BR(Hp -> Strange up)
     7.26263771E-06   2        -5         2   # BR(Hp -> Bottom up)
     2.35266224E-08   2        -1         4   # BR(Hp -> Down charm)
     1.79379174E-04   2        -3         4   # BR(Hp -> Strange charm)
     1.01702934E-03   2        -5         4   # BR(Hp -> Bottom charm)
     1.94341099E-08   2        -1         6   # BR(Hp -> Down top)
     6.91604543E-07   2        -3         6   # BR(Hp -> Strange top)
     6.85378607E-01   2        -5         6   # BR(Hp -> Bottom top)
     6.09780925E-03   2   1000022   1000024   # BR(Hp -> neutralino1 chargino1)
     1.47426289E-02   2   1000022   1000037   # BR(Hp -> neutralino1 chargino2)
     3.45503909E-06   2   1000023   1000024   # BR(Hp -> neutralino2 chargino1)
     6.76419314E-02   2   1000023   1000037   # BR(Hp -> neutralino2 chargino2)
     5.36236616E-02   2   1000024   1000025   # BR(Hp -> chargino1 neutralino3)
     1.13650498E-02   2   1000025   1000037   # BR(Hp -> neutralino3 chargino2)
     6.28338078E-02   2   1000024   1000035   # BR(Hp -> chargino1 neutralino4)
     8.71905320E-05   2   1000035   1000037   # BR(Hp -> neutralino4 chargino2)
     3.85120201E-08   2        24        25   # BR(Hp -> W h0)
     1.00920465E-14   2        24        35   # BR(Hp -> W HH)
DECAY         6     2.43000000E+00   # top
#    BR                NDA      ID1      ID2
     1.00000000E+00    2           5        24   # BR(t -> b W)
Block HiggsBoundsInputHiggsCouplingsFermions
# ScalarNormEffCoupSq PseudoSNormEffCoupSq NP IP1 IP2 IP2
    9.96136843E-01    0.00000000E+00        3  25   5   5  # h0-b-b eff. coupling^2, normalised to SM
    2.46555172E+03    0.00000000E+00        3  35   5   5  # H0-b-b eff. coupling^2, normalised to SM
    0.00000000E+00    2.46554786E+03        3  36   5   5  # A0-b-b eff. coupling^2, normalised to SM
#
    1.00000157E+00    0.00000000E+00        3  25   6   6  # h0-t-t eff. coupling^2, normalised to SM
    4.04022513E-04    0.00000000E+00        3  35   6   6  # H0-t-t eff. coupling^2, normalised to SM
    0.00000000E+00    4.05589369E-04        3  36   6   6  # A0-t-t eff. coupling^2, normalised to SM
#
    9.96136843E-01    0.00000000E+00        3  25  15  15  # h0-tau-tau eff. coupling^2, normalised to SM
    2.46555172E+03    0.00000000E+00        3  35  15  15  # H0-tau-tau eff. coupling^2, normalised to SM
    0.00000000E+00    2.46554786E+03        3  36  15  15  # A0-tau-tau eff. coupling^2, normalised to SM
#
Block HiggsBoundsInputHiggsCouplingsBosons
    9.99999998E-01        3  25  24  24  # h0-W-W eff. coupling^2, normalised to SM
    1.51618063E-09        3  35  24  24  # H0-W-W eff. coupling^2, normalised to SM
    0.00000000E+00        3  36  24  24  # A0-W-W eff. coupling^2, normalised to SM
#
    9.99999998E-01        3  25  23  23  # h0-Z-Z eff. coupling^2, normalised to SM
    1.51618063E-09        3  35  23  23  # H0-Z-Z eff. coupling^2, normalised to SM
    0.00000000E+00        3  36  23  23  # A0-Z-Z eff. coupling^2, normalised to SM
#
    1.26097492E+00        3  25  21  21  # h0-g-g eff. coupling^2, normalised to SM
    1.14217924E-02        3  35  21  21  # H0-g-g eff. coupling^2, normalised to SM
    1.30948060E-01        3  36  21  21  # A0-g-g eff. coupling^2, normalised to SM
#
    0.00000000E+00        3  25  25  23  # h0-h0-Z eff. coupling^2, normalised to SM
    0.00000000E+00        3  35  25  23  # H0-h0-Z eff. coupling^2, normalised to SM
    1.51618063E-09        3  36  25  23  # A0-h0-Z eff. coupling^2, normalised to SM
    0.00000000E+00        3  35  35  23  # H0-H0-Z eff. coupling^2, normalised to SM
    9.99999998E-01        3  36  35  23  # A0-H0-Z eff. coupling^2, normalised to SM
    0.00000000E+00        3  36  36  23  # A0-A0-Z eff. coupling^2, normalised to SM
#
    0.00000000E+00        4  25  21  21  23  # h0-g-g-Z eff. coupling^2, normalised to SM
    0.00000000E+00        4  35  21  21  23  # H0-g-g-Z eff. coupling^2, normalised to SM
    0.00000000E+00        4  36  21  21  23  # A0-g-g-Z eff. coupling^2, normalised to SM
Block SPhenoLowEnergy  # low energy observables
    1    3.08493367E-04   # BR(b -> s gamma)
    2    1.59101359E-06   # BR(b -> s mu+ mu-)
    3    3.52290973E-05   # BR(b -> s nu nu)
    4    2.89249819E-15   # BR(Bd -> e+ e-)
    5    1.23561533E-10   # BR(Bd -> mu+ mu-)
    6    2.57106533E-08   # BR(Bd -> tau+ tau-)
    7    9.83370120E-14   # BR(Bs -> e+ e-)
    8    4.20086034E-09   # BR(Bs -> mu+ mu-)
    9    8.85575717E-07   # BR(Bs -> tau+ tau-)
   10    9.62982991E-05   # BR(B_u -> tau nu)
   11    9.94724562E-01   # BR(B_u -> tau nu)/BR(B_u -> tau nu)_SM
   12    5.42067027E-01   # |Delta(M_Bd)| [ps^-1] 
   13    1.93670424E+01   # |Delta(M_Bs)| [ps^-1] 
   14    0.00000000E+00   # neutron EDM according to the chiral quark model
   15    0.00000000E+00   # neutron EDM according to the relativistic quark-parton model
   16    2.15763779E-03   # epsilon_K
   17    2.28166204E-15   # Delta(M_K)
   18    2.47864173E-11   # BR(K^0 -> pi^0 nu nu)
   19    8.28719140E-11   # BR(K^+ -> pi^+ nu nu)
   20   -5.42249488E-16   # Delta(g-2)_electron/2
   21   -2.31832176E-11   # Delta(g-2)_muon/2
   22   -6.58454875E-09   # Delta(g-2)_tau/2
   23    0.00000000E+00   # electric dipole moment of the electron
   24    0.00000000E+00   # electric dipole moment of the muon
   25    0.00000000E+00   # electric dipole moment of the tau
   26    0.00000000E+00   # Br(mu -> e gamma)
   27    0.00000000E+00   # Br(tau -> e gamma)
   28    0.00000000E+00   # Br(tau -> mu gamma)
   29    0.00000000E+00   # Br(mu -> 3 e)
   30    0.00000000E+00   # Br(tau -> 3 e)
   31    0.00000000E+00   # Br(tau -> 3 mu)
   39    7.54012717E-05   # Delta(rho_parameter)
   40    0.00000000E+00   # BR(Z -> e mu)
   41    0.00000000E+00   # BR(Z -> e tau)
   42    0.00000000E+00   # BR(Z -> mu tau)
Block FWCOEF Q=  1.60000000E+02  # Wilson coefficients at scale Q
#    id        order  M        value         comment
     0305 4422   00   0    -1.88819110E-01   # C7
     0305 4422   00   2    -1.74295571E-01   # C7
     0305 4322   00   2    -7.03519076E-06   # C7'
     0305 6421   00   0    -9.52278348E-02   # C8
     0305 6421   00   2    -8.98534365E-02   # C8
     0305 6321   00   2    -4.68024155E-05   # C8'
 03051111 4133   00   0     1.61618156E+00   # C9 e+e-
 03051111 4133   00   2     1.61655687E+00   # C9 e+e-
 03051111 4233   00   2     5.48402642E-04   # C9' e+e-
 03051111 4137   00   0    -4.43887367E+00   # C10 e+e-
 03051111 4137   00   2    -4.43504744E+00   # C10 e+e-
 03051111 4237   00   2    -4.12005867E-03   # C10' e+e-
 03051313 4133   00   0     1.61618156E+00   # C9 mu+mu-
 03051313 4133   00   2     1.61655660E+00   # C9 mu+mu-
 03051313 4233   00   2     5.48402231E-04   # C9' mu+mu-
 03051313 4137   00   0    -4.43887367E+00   # C10 mu+mu-
 03051313 4137   00   2    -4.43504771E+00   # C10 mu+mu-
 03051313 4237   00   2    -4.12005929E-03   # C10' mu+mu-
 03051212 4137   00   0     1.50535012E+00   # C11 nu_1 nu_1
 03051212 4137   00   2     1.50452219E+00   # C11 nu_1 nu_1
 03051212 4237   00   2     8.93020187E-04   # C11' nu_1 nu_1
 03051414 4137   00   0     1.50535012E+00   # C11 nu_2 nu_2
 03051414 4137   00   2     1.50452219E+00   # C11 nu_2 nu_2
 03051414 4237   00   2     8.93020220E-04   # C11' nu_2 nu_2
 03051616 4137   00   0     1.50535012E+00   # C11 nu_3 nu_3
 03051616 4137   00   2     1.50452220E+00   # C11 nu_3 nu_3
 03051616 4237   00   2     8.93029465E-04   # C11' nu_3 nu_3
Block IMFWCOEF Q=  1.60000000E+02  # Im(Wilson coefficients) at scale Q
#    id        order  M        value         comment
     0305 4422   00   0     3.85867539E-07   # C7
     0305 4422   00   2    -1.70903140E-05   # C7
     0305 4322   00   2     1.01033593E-06   # C7'
     0305 6421   00   0     3.30521066E-07   # C8
     0305 6421   00   2     6.73256512E-06   # C8
     0305 6321   00   2     6.75232718E-07   # C8'
 03051111 4133   00   2     2.59844782E-07   # C9 e+e-
 03051111 4233   00   2     1.03493341E-05   # C9' e+e-
 03051111 4137   00   2     1.91714427E-06   # C10 e+e-
 03051111 4237   00   2    -7.77557390E-05   # C10' e+e-
 03051313 4133   00   2     2.59840124E-07   # C9 mu+mu-
 03051313 4233   00   2     1.03493295E-05   # C9' mu+mu-
 03051313 4137   00   2     1.91714969E-06   # C10 mu+mu-
 03051313 4237   00   2    -7.77557528E-05   # C10' mu+mu-
 03051212 4137   00   2    -3.90363097E-07   # C11 nu_1 nu_1
 03051212 4237   00   2     1.68535092E-05   # C11' nu_1 nu_1
 03051414 4137   00   2    -3.90362865E-07   # C11 nu_2 nu_2
 03051414 4237   00   2     1.68535092E-05   # C11' nu_2 nu_2
 03051616 4137   00   2    -3.90298697E-07   # C11 nu_3 nu_3
 03051616 4237   00   2     1.68535092E-05   # C11' nu_3 nu_3
