# SUSY Les Houches Accord 2 - MSSM spectrum + Decays
# SPheno v4.0.5be
# W. Porod, Comput. Phys. Commun. 153 (2003) 275-315, hep-ph/0301101;
# W. Porod, F.~Staub, Comput. Phys. Commun. 183 (2012) 2458
#                     arXiv:1104.1573 [hep-ph] 
# in case of problems send email to porod@physik.uni-wuerzburg.de
# Created: 08.09.2021,  20:18
Block SPINFO         # Program information
     1   SPheno      # spectrum calculator
     2   v4.0.5be    # version number
#
Block SPhenoINFO     # SPheno specific information
    1      2         # using 2-loop RGEs
    2      2         # using pole masses for boundary conditions at mZ
Block MODSEL  # Model selection
    1    0    # general MSSM
Block MINPAR  # Input parameters
    3    2.47750165E+01  # tanb at m_Z    
    4   -1.00000000E+00  # Sign(mu)
Block EXTPAR  # non-universal input parameters
    0    3.99505039E+03  # scale for input parameters
    1   -4.30117797E+01  # M_1
    2    1.73928349E+03  # M_2
    3    2.11860001E+03  # M_3
   11    4.41244466E+03  # A_t
   12   -1.65058051E+03  # A_b
   13    1.97359072E+03  # A_tau
   23   -1.11756853E+02  # mu
   25    2.37209665E+01  # tan(beta)
   26    2.94598218E+03  # m_A, pole mass
   31    1.00000000E+04  # M_L11
   32    1.00000000E+04  # M_L22
   33    1.00000000E+04  # M_L33
   34    1.00000000E+04  # M_E11
   35    1.00000000E+04  # M_E22
   36    1.00000000E+04  # M_E33
   41    1.00000000E+04  # M_Q11
   42    1.00000000E+04  # M_Q22
   43    3.90045500E+03  # M_Q33
   44    1.00000000E+04  # M_U11
   45    1.00000000E+04  # M_U22
   46    4.10067634E+03  # M_U33
   47    1.00000000E+04  # M_D11
   48    1.00000000E+04  # M_D22
   49    3.90593696E+03  # M_D33
Block SMINPUTS  # SM parameters
         1     1.27908970E+02  # alpha_em^-1(MZ)^MSbar
         2     1.16637870E-05  # G_mu [GeV^-2]
         3     1.18400000E-01  # alpha_s(MZ)^MSbar
         4     9.11876000E+01  # m_Z(pole)
         5     4.18000000E+00  # m_b(m_b), MSbar
         6     1.73200000E+02  # m_t(pole)
         7     1.77700000E+00  # m_tau(pole)
         8     0.00000000E+00  # m_nu_3
        11     5.10998930E-04  # m_e(pole)
        12     0.00000000E+00  # m_nu_1
        13     1.05658372E-01  # m_muon(pole)
        14     0.00000000E+00  # m_nu_2
        21     5.00000000E-03  # m_d(2 GeV), MSbar
        22     2.50000000E-03  # m_u(2 GeV), MSbar
        23     9.50000000E-02  # m_s(2 GeV), MSbar
        24     1.27000000E+00  # m_c(m_c), MSbar
Block gauge Q=  3.99505039E+03  # (SUSY scale)
   1    3.55362975E-01  # g'(Q)^DRbar
   2    6.65198874E-01  # g(Q)^DRbar
   3    1.21977796E+00  # g3(Q)^DRbar
Block Yu Q=  3.99505039E+03  # (SUSY scale)
  1  1     8.39181916E-06   # Y_u(Q)^DRbar
  2  2     4.26304413E-03   # Y_c(Q)^DRbar
  3  3     1.01379916E+00   # Y_t(Q)^DRbar
Block Yd Q=  3.99505039E+03  # (SUSY scale)
  1  1     4.00008062E-04   # Y_d(Q)^DRbar
  2  2     7.60015317E-03   # Y_s(Q)^DRbar
  3  3     3.96682653E-01   # Y_b(Q)^DRbar
Block Ye Q=  3.99505039E+03  # (SUSY scale)
  1  1     6.98043319E-05   # Y_e(Q)^DRbar
  2  2     1.44333219E-02   # Y_mu(Q)^DRbar
  3  3     2.42744731E-01   # Y_tau(Q)^DRbar
Block Au Q=  3.99505039E+03  # (SUSY scale)
  1  1     0.00000000E+00   # A_u(Q)^DRbar
  2  2     0.00000000E+00   # A_c(Q)^DRbar
  3  3     4.41244467E+03   # A_t(Q)^DRbar
Block Ad Q=  3.99505039E+03  # (SUSY scale)
  1  1     0.00000000E+00   # A_d(Q)^DRbar
  2  2     0.00000000E+00   # A_s(Q)^DRbar
  3  3    -1.65058051E+03   # A_b(Q)^DRbar
Block Ae Q=  3.99505039E+03  # (SUSY scale)
  1  1     0.00000000E+00   # A_e(Q)^DRbar
  2  2     0.00000000E+00   # A_mu(Q)^DRbar
  3  3     1.97359071E+03   # A_tau(Q)^DRbar
Block MSOFT Q=  3.99505039E+03  # soft SUSY breaking masses at Q
   1   -4.30117797E+01  # M_1
   2    1.73928349E+03  # M_2
   3    2.11860001E+03  # M_3
  21    8.63664746E+06  # M^2_(H,d)
  22    3.13463033E+05  # M^2_(H,u)
  31    1.00000000E+04  # M_(L,11)
  32    1.00000000E+04  # M_(L,22)
  33    1.00000000E+04  # M_(L,33)
  34    1.00000000E+04  # M_(E,11)
  35    1.00000000E+04  # M_(E,22)
  36    1.00000000E+04  # M_(E,33)
  41    1.00000000E+04  # M_(Q,11)
  42    1.00000000E+04  # M_(Q,22)
  43    3.90045500E+03  # M_(Q,33)
  44    1.00000000E+04  # M_(U,11)
  45    1.00000000E+04  # M_(U,22)
  46    4.10067634E+03  # M_(U,33)
  47    1.00000000E+04  # M_(D,11)
  48    1.00000000E+04  # M_(D,22)
  49    3.90593696E+03  # M_(D,33)
Block MASS  # Mass spectrum
#   PDG code      mass          particle
         6     1.73200000E+02  # m_t(pole)
        23     9.11876000E+01  # m_Z(pole)
        24     8.04299946E+01  # W+
        15     1.77700000E+00  # m_tau(pole)
        25     1.24833607E+02  # h0
        35     2.94570584E+03  # H0
        36     2.94598218E+03  # A0
        37     2.94780730E+03  # H+
   1000001     1.01162689E+04  # ~d_L
   2000001     1.00922526E+04  # ~d_R
   1000002     1.01159071E+04  # ~u_L
   2000002     1.00951709E+04  # ~u_R
   1000003     1.01162698E+04  # ~s_L
   2000003     1.00922539E+04  # ~s_R
   1000004     1.01159081E+04  # ~c_L
   2000004     1.00951714E+04  # ~c_R
   1000005     3.92915616E+03  # ~b_1
   2000005     3.96410652E+03  # ~b_2
   1000006     3.90010929E+03  # ~t_1
   2000006     4.09230265E+03  # ~t_2
   1000011     1.00203269E+04  # ~e_L-
   2000011     1.00092194E+04  # ~e_R-
   1000012     1.00195614E+04  # ~nu_eL
   1000013     1.00203304E+04  # ~mu_L-
   2000013     1.00092262E+04  # ~mu_R-
   1000014     1.00195649E+04  # ~nu_muL
   1000015     1.00112078E+04  # ~tau_1-
   2000015     1.00213705E+04  # ~tau_2-
   1000016     1.00205908E+04  # ~nu_tauL
   1000021     2.55451387E+03  # ~g
   1000022     3.73350482E+01  # ~chi_10
   1000023     1.36664229E+02  # ~chi_20
   1000025     1.45728510E+02  # ~chi_30
   1000035     1.84956471E+03  # ~chi_40
   1000024     1.33381334E+02  # ~chi_1+
   1000037     1.84953207E+03  # ~chi_2+
# Higgs mixing
Block alpha # Effective Higgs mixing angle
          -4.04468464E-02   # alpha
Block Hmix Q=  3.99505039E+03  # Higgs mixing parameters
   1   -1.11756853E+02  # mu
   2    2.37209665E+01  # tan[beta](Q)
   3    2.42926057E+02  # v(Q)
   4    8.67881100E+06  # m^2_A(Q)
Block stopmix # stop mixing matrix
   1  1    -9.23301721E-01   # Re[R_st(1,1)]
   1  2     3.84075424E-01   # Re[R_st(1,2)]
   2  1    -3.84075424E-01   # Re[R_st(2,1)]
   2  2    -9.23301721E-01   # Re[R_st(2,2)]
Block sbotmix # sbottom mixing matrix
   1  1     9.99984209E-01   # Re[R_sb(1,1)]
   1  2     5.61973985E-03   # Re[R_sb(1,2)]
   2  1    -5.61973985E-03   # Re[R_sb(2,1)]
   2  2     9.99984209E-01   # Re[R_sb(2,2)]
Block staumix # stau mixing matrix
   1  1    -3.91639134E-02   # Re[R_sta(1,1)]
   1  2     9.99232800E-01   # Re[R_sta(1,2)]
   2  1    -9.99232800E-01   # Re[R_sta(2,1)]
   2  2    -3.91639134E-02   # Re[R_sta(2,2)]
Block Nmix # neutralino mixing matrix
   1  1     9.34587282E-01   # Re[N(1,1)]
   1  2     5.30383859E-03   # Re[N(1,2)]
   1  3    -3.38936092E-01   # Re[N(1,3)]
   1  4     1.07892568E-01   # Re[N(1,4)]
   2  1    -1.67403443E-01   # Re[N(2,1)]
   2  2    -3.15639839E-02   # Re[N(2,2)]
   2  3    -6.86971850E-01   # Re[N(2,3)]
   2  4    -7.06434342E-01   # Re[N(2,4)]
   3  1     3.13881511E-01   # Re[N(3,1)]
   3  2    -2.92940630E-02   # Re[N(3,2)]
   3  3     6.42799258E-01   # Re[N(3,3)]
   3  4    -6.98161421E-01   # Re[N(3,4)]
   4  1     1.04694085E-03   # Re[N(4,1)]
   4  2    -9.99058278E-01   # Re[N(4,2)]
   4  3     1.05669927E-03   # Re[N(4,3)]
   4  4     4.33629474E-02   # Re[N(4,4)]
Block Umix # chargino mixing matrix
   1  1    -1.50066884E-03   # Re[U(1,1)]
   1  2    -9.99998874E-01   # Re[U(1,2)]
   2  1     9.99998874E-01   # Re[U(2,1)]
   2  2    -1.50066884E-03   # Re[U(2,2)]
Block Vmix # chargino mixing matrix
   1  1    -6.13274743E-02   # Re[V(1,1)]
   1  2     9.98117699E-01   # Re[V(1,2)]
   2  1     9.98117699E-01   # Re[V(2,1)]
   2  2     6.13274743E-02   # Re[V(2,2)]
DECAY        23     2.49520000E+00   # Z
DECAY        24     2.08500000E+00   # W
DECAY   2000011     5.02888213E+01   # ~e^-_R
#    BR                NDA      ID1      ID2
     8.73495953E-01    2     1000022        11   # BR(~e^-_R -> chi^0_1 e^-)
     2.80156186E-02    2     1000023        11   # BR(~e^-_R -> chi^0_2 e^-)
     9.84873862E-02    2     1000025        11   # BR(~e^-_R -> chi^0_3 e^-)
DECAY   1000011     1.36047082E+02   # ~e^-_L
#    BR                NDA      ID1      ID2
     8.25359682E-02    2     1000022        11   # BR(~e^-_L -> chi^0_1 e^-)
     4.74421973E-03    2     1000023        11   # BR(~e^-_L -> chi^0_2 e^-)
     6.20595565E-03    2     1000025        11   # BR(~e^-_L -> chi^0_3 e^-)
     3.01565848E-01    2     1000035        11   # BR(~e^-_L -> chi^0_4 e^-)
     6.04946549E-01    2    -1000037        12   # BR(~e^-_L -> chi^-_2 nu_e)
#    BR                NDA      ID1      ID2       ID3
DECAY   2000013     5.03717885E+01   # ~mu^-_R
#    BR                NDA      ID1      ID2
     8.72152413E-01    2     1000022        13   # BR(~mu^-_R -> chi^0_1 mu^-)
     2.83579829E-02    2     1000023        13   # BR(~mu^-_R -> chi^0_2 mu^-)
     9.86653513E-02    2     1000025        13   # BR(~mu^-_R -> chi^0_3 mu^-)
     8.23228961E-04    2    -1000024        14   # BR(~mu^-_R -> chi^-_1 nu_mu)
DECAY   1000013     1.36088649E+02   # ~mu^-_L
#    BR                NDA      ID1      ID2
     8.25458412E-02    2     1000022        13   # BR(~mu^-_L -> chi^0_1 mu^-)
     4.88672855E-03    2     1000023        13   # BR(~mu^-_L -> chi^0_2 mu^-)
     6.33009452E-03    2     1000025        13   # BR(~mu^-_L -> chi^0_3 mu^-)
     3.01473859E-01    2     1000035        13   # BR(~mu^-_L -> chi^0_4 mu^-)
     6.04762018E-01    2    -1000037        14   # BR(~mu^-_L -> chi^-_2 nu_mu)
#    BR                NDA      ID1      ID2       ID3
DECAY   1000015     7.38760226E+01   # ~tau^-_1
#    BR                NDA      ID1      ID2
     6.16326919E-01    2     1000022        15   # BR(~tau^-_1 -> chi^0_1 tau^-)
     9.30435509E-02    2     1000023        15   # BR(~tau^-_1 -> chi^0_2 tau^-)
     1.29531765E-01    2     1000025        15   # BR(~tau^-_1 -> chi^0_3 tau^-)
     8.28042721E-04    2     1000035        15   # BR(~tau^-_1 -> chi^0_4 tau^-)
     1.58610128E-01    2    -1000024        16   # BR(~tau^-_1 -> chi^-_1 nu_tau)
     1.65959446E-03    2    -1000037        16   # BR(~tau^-_1 -> chi^-_2 nu_tau)
DECAY   2000015     1.47692793E+02   # ~tau^-_2
#    BR                NDA      ID1      ID2
     8.34936325E-02    2     1000022        15   # BR(~tau^-_2 -> chi^0_1 tau^-)
     4.23824242E-02    2     1000023        15   # BR(~tau^-_2 -> chi^0_2 tau^-)
     4.01390404E-02    2     1000025        15   # BR(~tau^-_2 -> chi^0_3 tau^-)
     2.77405928E-01    2     1000035        15   # BR(~tau^-_2 -> chi^0_4 tau^-)
     5.56481265E-01    2    -1000037        16   # BR(~tau^-_2 -> chi^-_2 nu_tau)
#    BR                NDA      ID1      ID2       ID3
DECAY   1000012     1.36050680E+02   # ~nu_e
#    BR                NDA      ID1      ID2
     7.90940361E-02    2     1000022        12   # BR(~nu_e -> chi^0_1 nu_e)
     1.08503153E-03    2     1000023        12   # BR(~nu_e -> chi^0_2 nu_e)
     1.25717065E-02    2     1000025        12   # BR(~nu_e -> chi^0_3 nu_e)
     3.02207563E-01    2     1000035        12   # BR(~nu_e -> chi^0_4 nu_e)
     2.43746643E-03    2     1000024        11   # BR(~nu_e -> chi^+_1 e^-)
     6.02604197E-01    2     1000037        11   # BR(~nu_e -> chi^+_2 e^-)
#    BR                NDA      ID1      ID2       ID3
DECAY   1000014     1.36092243E+02   # ~nu_mu
#    BR                NDA      ID1      ID2
     7.90699080E-02    2     1000022        14   # BR(~nu_mu -> chi^0_1 nu_mu)
     1.08470054E-03    2     1000023        14   # BR(~nu_mu -> chi^0_2 nu_mu)
     1.25678715E-02    2     1000025        14   # BR(~nu_mu -> chi^0_3 nu_mu)
     3.02115388E-01    2     1000035        14   # BR(~nu_mu -> chi^0_4 nu_mu)
     2.74173271E-03    2     1000024        13   # BR(~nu_mu -> chi^+_1 mu^-)
     6.02420400E-01    2     1000037        13   # BR(~nu_mu -> chi^+_2 mu^-)
#    BR                NDA      ID1      ID2       ID3
DECAY   1000016     1.47809179E+02   # ~nu_tau
#    BR                NDA      ID1      ID2
     7.28094363E-02    2     1000022        16   # BR(~nu_tau -> chi^0_1 nu_tau)
     9.98817912E-04    2     1000023        16   # BR(~nu_tau -> chi^0_2 nu_tau)
     1.15727934E-02    2     1000025        16   # BR(~nu_tau -> chi^0_3 nu_tau)
     2.78198992E-01    2     1000035        16   # BR(~nu_tau -> chi^0_4 nu_tau)
     8.16889500E-02    2     1000024        15   # BR(~nu_tau -> chi^+_1 tau^-)
     5.54731011E-01    2     1000037        15   # BR(~nu_tau -> chi^+_2 tau^-)
#    BR                NDA      ID1      ID2       ID3
DECAY   2000001     7.03444194E+02   # ~d_R
#    BR                NDA      ID1      ID2
     6.99598098E-03    2     1000022         1   # BR(~d_R -> chi^0_1 d)
     2.24404533E-04    2     1000023         1   # BR(~d_R -> chi^0_2 d)
     7.88825929E-04    2     1000025         1   # BR(~d_R -> chi^0_3 d)
     9.91990735E-01    2     1000021         1   # BR(~d_R -> ~g d)
DECAY   1000001     8.26141210E+02   # ~d_L
#    BR                NDA      ID1      ID2
     1.39915378E-03    2     1000022         1   # BR(~d_L -> chi^0_1 d)
     3.90988777E-04    2     1000025         1   # BR(~d_L -> chi^0_3 d)
     5.02784880E-02    2     1000035         1   # BR(~d_L -> chi^0_4 d)
     1.00709067E-01    2    -1000037         2   # BR(~d_L -> chi^-_2 u)
     8.47221876E-01    2     1000021         1   # BR(~d_L -> ~g d)
DECAY   2000003     7.03467432E+02   # ~s_R
#    BR                NDA      ID1      ID2
     6.99763941E-03    2     1000022         3   # BR(~s_R -> chi^0_1 s)
     2.32153010E-04    2     1000023         3   # BR(~s_R -> chi^0_2 s)
     7.95590099E-04    2     1000025         3   # BR(~s_R -> chi^0_3 s)
     9.91958129E-01    2     1000021         3   # BR(~s_R -> ~g s)
DECAY   1000003     8.26156545E+02   # ~s_L
#    BR                NDA      ID1      ID2
     1.40073990E-03    2     1000022         3   # BR(~s_L -> chi^0_1 s)
     3.96777095E-04    2     1000025         3   # BR(~s_L -> chi^0_3 s)
     5.02775598E-02    2     1000035         3   # BR(~s_L -> chi^0_4 s)
     1.00707223E-01    2    -1000037         4   # BR(~s_L -> chi^-_2 c)
     8.47206245E-01    2     1000021         3   # BR(~s_L -> ~g s)
DECAY   1000005     2.27432826E+02   # ~b_1
#    BR                NDA      ID1      ID2
     8.06519397E-03    2     1000022         5   # BR(~b_1 -> chi^0_1 b)
     2.54905551E-02    2     1000023         5   # BR(~b_1 -> chi^0_2 b)
     2.29259527E-02    2     1000025         5   # BR(~b_1 -> chi^0_3 b)
     4.60048436E-02    2     1000035         5   # BR(~b_1 -> chi^0_4 b)
     3.49732658E-01    2    -1000024         6   # BR(~b_1 -> chi^-_1 t)
     9.32748468E-02    2    -1000037         6   # BR(~b_1 -> chi^-_2 t)
     4.54505950E-01    2     1000021         5   # BR(~b_1 -> ~g b)
DECAY   2000005     1.33911509E+02   # ~b_2
#    BR                NDA      ID1      ID2
     2.52836345E-02    2     1000022         5   # BR(~b_2 -> chi^0_1 b)
     4.40426772E-02    2     1000023         5   # BR(~b_2 -> chi^0_2 b)
     3.96539529E-02    2     1000025         5   # BR(~b_2 -> chi^0_3 b)
     9.21178843E-02    2    -1000024         6   # BR(~b_2 -> chi^-_1 t)
     7.98896437E-01    2     1000021         5   # BR(~b_2 -> ~g b)
DECAY   2000002     7.20609692E+02   # ~u_R
#    BR                NDA      ID1      ID2
     2.73252036E-02    2     1000022         2   # BR(~u_R -> chi^0_1 u)
     8.76405576E-04    2     1000023         2   # BR(~u_R -> chi^0_2 u)
     3.08095962E-03    2     1000025         2   # BR(~u_R -> chi^0_3 u)
     9.68717399E-01    2     1000021         2   # BR(~u_R -> ~g u)
DECAY   1000002     8.26128351E+02   # ~u_L
#    BR                NDA      ID1      ID2
     1.58941202E-03    2     1000022         2   # BR(~u_L -> chi^0_1 u)
     2.02942190E-04    2     1000023         2   # BR(~u_L -> chi^0_2 u)
     5.02397091E-02    2     1000035         2   # BR(~u_L -> chi^0_4 u)
     4.05313768E-04    2     1000024         1   # BR(~u_L -> chi^+_1 d)
     1.00327997E-01    2     1000037         1   # BR(~u_L -> chi^+_2 d)
     8.47196507E-01    2     1000021         2   # BR(~u_L -> ~g u)
DECAY   2000004     7.20617002E+02   # ~c_R
#    BR                NDA      ID1      ID2
     2.73249858E-02    2     1000022         4   # BR(~c_R -> chi^0_1 c)
     8.78923799E-04    2     1000023         4   # BR(~c_R -> chi^0_2 c)
     3.08339548E-03    2     1000025         4   # BR(~c_R -> chi^0_3 c)
     9.68707592E-01    2     1000021         4   # BR(~c_R -> ~g c)
DECAY   1000004     8.26143667E+02   # ~c_L
#    BR                NDA      ID1      ID2
     1.58943416E-03    2     1000022         4   # BR(~c_L -> chi^0_1 c)
     2.05146807E-04    2     1000023         4   # BR(~c_L -> chi^0_2 c)
     5.02387912E-02    2     1000035         4   # BR(~c_L -> chi^0_4 c)
     4.19333469E-04    2     1000024         3   # BR(~c_L -> chi^+_1 s)
     1.00326148E-01    2     1000037         3   # BR(~c_L -> chi^+_2 s)
     8.47180871E-01    2     1000021         4   # BR(~c_L -> ~g c)
DECAY   1000006     2.23549480E+02   # ~t_1
#    BR                NDA      ID1      ID2
     1.72832713E-02    2     1000022         6   # BR(~t_1 -> chi^0_1 t)
     1.82423773E-01    2     1000023         6   # BR(~t_1 -> chi^0_2 t)
     1.57681764E-01    2     1000025         6   # BR(~t_1 -> chi^0_3 t)
     4.28341161E-02    2     1000035         6   # BR(~t_1 -> chi^0_4 t)
     8.90986817E-02    2     1000024         5   # BR(~t_1 -> chi^+_1 b)
     8.45869757E-02    2     1000037         5   # BR(~t_1 -> chi^+_2 b)
     1.12064130E-02    2     1000021         4   # BR(~t_1 -> ~g c)
     4.11352129E-01    2     1000021         6   # BR(~t_1 -> ~g t)
#    BR                NDA      ID1      ID2       ID3
     3.46916119E-03    3     1000022        24         5   # BR(~t_1 -> chi^0_1 W^+ b)
DECAY   2000006     3.02012638E+02   # ~t_2
#    BR                NDA      ID1      ID2
     2.10914724E-02    2     1000022         6   # BR(~t_2 -> chi^0_1 t)
     1.34281690E-01    2     1000023         6   # BR(~t_2 -> chi^0_2 t)
     1.48826671E-01    2     1000025         6   # BR(~t_2 -> chi^0_3 t)
     3.40450461E-03    2     1000035         6   # BR(~t_2 -> chi^0_4 t)
     2.48993767E-01    2     1000024         5   # BR(~t_2 -> chi^+_1 b)
     6.66479226E-03    2     1000037         5   # BR(~t_2 -> chi^+_2 b)
     4.18912419E-01    2     1000021         6   # BR(~t_2 -> ~g t)
     7.15638758E-03    2     1000005        24   # BR(~t_2 -> ~b_1 W^+)
     5.10920172E-03    2     1000006        23   # BR(~t_2 -> ~t_1 Z)
     5.55901468E-03    2     1000006        25   # BR(~t_2 -> ~t_1 h^0)
DECAY   1000024     6.04196732E-02   # chi^+_1
#    BR                NDA      ID1      ID2
     9.99999643E-01    2     1000022        24   # BR(chi^+_1 -> chi^0_1 W^+)
#    BR                NDA      ID1      ID2       ID3
DECAY   1000037     1.64208264E+01   # chi^+_2
#    BR                NDA      ID1      ID2
     8.49691695E-03    2     1000022        24   # BR(chi^+_2 -> chi^0_1 W^+)
     2.45375950E-01    2     1000023        24   # BR(chi^+_2 -> chi^0_2 W^+)
     2.31492315E-01    2     1000025        24   # BR(chi^+_2 -> chi^0_3 W^+)
     2.41884603E-01    2     1000024        23   # BR(chi^+_2 -> chi^+_1 Z)
     2.41830251E-01    2     1000024        25   # BR(chi^+_2 -> chi^+_1 h^0)
#    BR                NDA      ID1      ID2       ID3
     1.24397937E-02    3     1000024         6        -6   # BR(chi^+_2 -> chi^+_1 t t_bar)
     3.18991480E-04    3     1000022        -5         6   # BR(chi^+_2 -> chi^0_1 b_bar t)
     9.16913764E-03    3     1000023        -5         6   # BR(chi^+_2 -> chi^0_2 b_bar t)
     8.93698814E-03    3     1000025        -5         6   # BR(chi^+_2 -> chi^0_3 b_bar t)
DECAY   1000022     0.00000000E+00   # chi^0_1
DECAY   1000023     4.32355039E-02   # chi^0_2
#    BR                NDA      ID1      ID2
     9.99978881E-01    2     1000022        23   # BR(chi^0_2 -> chi^0_1 Z)
#    BR                NDA      ID1      ID2       ID3
DECAY   1000025     1.48597739E-02   # chi^0_3
#    BR                NDA      ID1      ID2
     9.99773754E-01    2     1000022        23   # BR(chi^0_3 -> chi^0_1 Z)
#    BR                NDA      ID1      ID2       ID3
DECAY   1000035     1.70492969E+01   # chi^0_4
#    BR                NDA      ID1      ID2
     2.33887096E-01    2     1000024       -24   # BR(chi^0_4 -> chi^+_1 W^-)
     2.33887096E-01    2    -1000024        24   # BR(chi^0_4 -> chi^-_1 W^+)
     3.19977286E-03    2     1000022        23   # BR(chi^0_4 -> chi^0_1 Z)
     1.11203985E-01    2     1000023        23   # BR(chi^0_4 -> chi^0_2 Z)
     1.18862115E-01    2     1000025        23   # BR(chi^0_4 -> chi^0_3 Z)
     5.02289778E-03    2     1000022        25   # BR(chi^0_4 -> chi^0_1 h^0)
     1.25653515E-01    2     1000023        25   # BR(chi^0_4 -> chi^0_2 h^0)
     1.39870757E-01    2     1000025        25   # BR(chi^0_4 -> chi^0_3 h^0)
#    BR                NDA      ID1      ID2       ID3
     1.93209775E-04    3     1000022         6        -6   # BR(chi^0_4 -> chi^0_1 t t_bar)
     5.76057962E-03    3     1000023         6        -6   # BR(chi^0_4 -> chi^0_2 t t_bar)
     5.51652302E-03    3     1000025         6        -6   # BR(chi^0_4 -> chi^0_3 t t_bar)
     8.44345888E-03    3     1000024         5        -6   # BR(chi^0_4 -> chi^+_1 b t_bar)
     8.44345888E-03    3    -1000024        -5         6   # BR(chi^0_4 -> chi^-_1 b_bar t)
DECAY   1000021     6.81291171E-02   # ~g
#    BR                NDA      ID1      ID2
     4.56605702E-03    2     1000023        21   # BR(~g -> chi^0_2 g)
     4.10440702E-03    2     1000025        21   # BR(~g -> chi^0_3 g)
#    BR                NDA      ID1      ID2       ID3
     2.71549964E-04    3     1000022         2        -2   # BR(~g -> chi^0_1 u u_bar)
     2.71551502E-04    3     1000022         4        -4   # BR(~g -> chi^0_1 c c_bar)
     2.16302283E-02    3     1000022         6        -6   # BR(~g -> chi^0_1 t t_bar)
     1.30295348E-02    3     1000022         5        -5   # BR(~g -> chi^0_1 b b_bar)
     2.09497904E-01    3     1000023         6        -6   # BR(~g -> chi^0_2 t t_bar)
     3.33855553E-02    3     1000023         5        -5   # BR(~g -> chi^0_2 b b_bar)
     1.93568825E-01    3     1000025         6        -6   # BR(~g -> chi^0_3 t t_bar)
     2.96968832E-02    3     1000025         5        -5   # BR(~g -> chi^0_3 b b_bar)
     6.42654322E-04    3     1000035         6        -6   # BR(~g -> chi^0_4 t t_bar)
     9.61695510E-04    3     1000035         5        -5   # BR(~g -> chi^0_4 b b_bar)
     2.42322945E-01    3     1000024         5        -6   # BR(~g -> chi^+_1 b t_bar)
     2.42322945E-01    3    -1000024        -5         6   # BR(~g -> chi^-_1 b_bar t)
     1.61700571E-03    3     1000037         5        -6   # BR(~g -> chi^+_2 b t_bar)
     1.61700571E-03    3    -1000037        -5         6   # BR(~g -> chi^-_2 b_bar t)
DECAY        25     6.63007632E-03   # Gamma(h0)
     1.36077791E-03   2        22        22   # BR(h0 -> photon photon)
     8.62249432E-04   2        22        23   # BR(h0 -> photon Z)
     1.58495955E-02   2        23        23   # BR(h0 -> Z Z)
     1.31362715E-01   2       -24        24   # BR(h0 -> W W)
     4.23036777E-02   2        21        21   # BR(h0 -> gluon gluon)
     2.63476812E-09   2       -11        11   # BR(h0 -> Electron electron)
     1.17199154E-04   2       -13        13   # BR(h0 -> Muon muon)
     3.37926547E-02   2       -15        15   # BR(h0 -> Tau tau)
     7.47893550E-08   2        -2         2   # BR(h0 -> Up up)
     1.45148826E-02   2        -4         4   # BR(h0 -> Charm charm)
     3.05043084E-07   2        -1         1   # BR(h0 -> Down down)
     1.10326854E-04   2        -3         3   # BR(h0 -> Strange strange)
     2.93270984E-01   2        -5         5   # BR(h0 -> Bottom bottom)
     4.66454555E-01   2   1000022   1000022   # BR(h0 -> neutralino1 neutralino1)
DECAY        35     3.96922563E+01   # Gamma(HH)
     6.97299578E-09   2        22        22   # BR(HH -> photon photon)
     1.42106470E-08   2        22        23   # BR(HH -> photon Z)
     1.45365363E-06   2        23        23   # BR(HH -> Z Z)
     4.49628426E-07   2       -24        24   # BR(HH -> W W)
     3.34200656E-06   2        21        21   # BR(HH -> gluon gluon)
     6.31522917E-09   2       -11        11   # BR(HH -> Electron electron)
     2.81181722E-04   2       -13        13   # BR(HH -> Muon muon)
     8.12084636E-02   2       -15        15   # BR(HH -> Tau tau)
     2.81938667E-13   2        -2         2   # BR(HH -> Up up)
     5.46928000E-08   2        -4         4   # BR(HH -> Charm charm)
     4.07380154E-03   2        -6         6   # BR(HH -> Top top)
     4.66534163E-07   2        -1         1   # BR(HH -> Down down)
     1.68747701E-04   2        -3         3   # BR(HH -> Strange strange)
     4.45764924E-01   2        -5         5   # BR(HH -> Bottom bottom)
     2.56601367E-03   2  -1000024   1000024   # BR(HH -> Chargino1 chargino1)
     1.26142027E-01   2  -1000024   1000037   # BR(HH -> Chargino1 chargino2)
     1.26142027E-01   2  -1000037   1000024   # BR(HH -> Chargino2 chargino1)
     2.06476184E-02   2   1000022   1000022   # BR(HH -> neutralino1 neutralino1)
     3.03430276E-02   2   1000022   1000023   # BR(HH -> neutralino1 neutralino2)
     1.15528100E-02   2   1000022   1000025   # BR(HH -> neutralino1 neutralino3)
     1.91353740E-02   2   1000022   1000035   # BR(HH -> neutralino1 neutralino4)
     1.29041106E-03   2   1000023   1000023   # BR(HH -> neutralino2 neutralino2)
     1.22626466E-02   2   1000023   1000025   # BR(HH -> neutralino2 neutralino3)
     5.96616009E-02   2   1000023   1000035   # BR(HH -> neutralino2 neutralino4)
     1.09782783E-02   2   1000025   1000025   # BR(HH -> neutralino3 neutralino3)
     4.77676053E-02   2   1000025   1000035   # BR(HH -> neutralino3 neutralino4)
     7.64812465E-06   2        25        25   # BR(HH -> h0 h0)
DECAY        36     3.89531793E+01   # Gamma(A0)
     7.82923551E-09   2        22        22   # BR(A0 -> photon photon)
     5.78126880E-09   2        22        23   # BR(A0 -> photon Z)
     1.60282609E-05   2        21        21   # BR(A0 -> gluon gluon)
     6.20920893E-09   2       -11        11   # BR(A0 -> Electron electron)
     2.76461447E-04   2       -13        13   # BR(A0 -> Muon muon)
     7.98453244E-02   2       -15        15   # BR(A0 -> Tau tau)
     2.65926937E-13   2        -2         2   # BR(A0 -> Up up)
     5.15848718E-08   2        -4         4   # BR(A0 -> Charm charm)
     3.89917713E-03   2        -6         6   # BR(A0 -> Top top)
     4.58696510E-07   2        -1         1   # BR(A0 -> Down down)
     1.65912861E-04   2        -3         3   # BR(A0 -> Strange strange)
     4.38279326E-01   2        -5         5   # BR(A0 -> Bottom bottom)
     2.62000619E-03   2  -1000024   1000024   # BR(A0 -> Chargino1 chargino1)
     1.28576461E-01   2  -1000024   1000037   # BR(A0 -> Chargino1 chargino2)
     1.28576461E-01   2  -1000037   1000024   # BR(A0 -> Chargino2 chargino1)
     2.22992490E-02   2   1000022   1000022   # BR(A0 -> neutralino1 neutralino1)
     2.56162766E-02   2   1000022   1000023   # BR(A0 -> neutralino1 neutralino2)
     1.49149703E-02   2   1000022   1000025   # BR(A0 -> neutralino1 neutralino3)
     1.99498696E-02   2   1000022   1000035   # BR(A0 -> neutralino1 neutralino4)
     1.11916398E-03   2   1000023   1000023   # BR(A0 -> neutralino2 neutralino2)
     1.12765740E-02   2   1000023   1000025   # BR(A0 -> neutralino2 neutralino3)
     5.93152836E-02   2   1000023   1000035   # BR(A0 -> neutralino2 neutralino4)
     1.35096011E-02   2   1000025   1000025   # BR(A0 -> neutralino3 neutralino3)
     4.97409449E-02   2   1000025   1000035   # BR(A0 -> neutralino3 neutralino4)
     2.37770665E-06   2        23        25   # BR(A0 -> Z h0)
     4.45092210E-39   2        25        25   # BR(A0 -> h0 h0)
DECAY        37     4.22465497E+01   # Gamma(Hp)
     7.08266033E-09   2       -11        12   # BR(Hp -> Electron nu_e)
     3.02805850E-04   2       -13        14   # BR(Hp -> Muon nu_mu)
     8.56507111E-02   2       -15        16   # BR(Hp -> Tau nu_tau)
     4.53539481E-07   2        -1         2   # BR(Hp -> Down up)
     7.65417368E-06   2        -3         2   # BR(Hp -> Strange up)
     4.96385611E-06   2        -5         2   # BR(Hp -> Bottom up)
     2.38546240E-08   2        -1         4   # BR(Hp -> Down charm)
     1.63508553E-04   2        -3         4   # BR(Hp -> Strange charm)
     6.95117532E-04   2        -5         4   # BR(Hp -> Bottom charm)
     2.92952614E-07   2        -1         6   # BR(Hp -> Down top)
     6.62923629E-06   2        -3         6   # BR(Hp -> Strange top)
     4.73115517E-01   2        -5         6   # BR(Hp -> Bottom top)
     6.98667732E-02   2   1000022   1000024   # BR(Hp -> neutralino1 chargino1)
     3.64822076E-02   2   1000022   1000037   # BR(Hp -> neutralino1 chargino2)
     4.85182631E-03   2   1000023   1000024   # BR(Hp -> neutralino2 chargino1)
     1.11099897E-01   2   1000023   1000037   # BR(Hp -> neutralino2 chargino2)
     7.83651763E-03   2   1000024   1000025   # BR(Hp -> chargino1 neutralino3)
     9.10123105E-02   2   1000025   1000037   # BR(Hp -> neutralino3 chargino2)
     1.18900585E-01   2   1000024   1000035   # BR(Hp -> chargino1 neutralino4)
     2.19786474E-06   2        24        25   # BR(Hp -> W h0)
     1.32036781E-12   2        24        35   # BR(Hp -> W HH)
     6.52484186E-13   2        24        36   # BR(Hp -> W A0)
DECAY         6     2.43000000E+00   # top
#    BR                NDA      ID1      ID2
     1.00000000E+00    2           5        24   # BR(t -> b W)
Block HiggsBoundsInputHiggsCouplingsFermions
# ScalarNormEffCoupSq PseudoSNormEffCoupSq NP IP1 IP2 IP2
    9.21655019E-01    0.00000000E+00        3  25   5   5  # h0-b-b eff. coupling^2, normalised to SM
    5.62762597E+02    0.00000000E+00        3  35   5   5  # H0-b-b eff. coupling^2, normalised to SM
    0.00000000E+00    5.62684252E+02        3  36   5   5  # A0-b-b eff. coupling^2, normalised to SM
#
    1.00013923E+00    0.00000000E+00        3  25   6   6  # h0-t-t eff. coupling^2, normalised to SM
    1.63796128E-03    0.00000000E+00        3  35   6   6  # H0-t-t eff. coupling^2, normalised to SM
    0.00000000E+00    1.77719564E-03        3  36   6   6  # A0-t-t eff. coupling^2, normalised to SM
#
    9.21655019E-01    0.00000000E+00        3  25  15  15  # h0-tau-tau eff. coupling^2, normalised to SM
    5.62762597E+02    0.00000000E+00        3  35  15  15  # H0-tau-tau eff. coupling^2, normalised to SM
    0.00000000E+00    5.62684252E+02        3  36  15  15  # A0-tau-tau eff. coupling^2, normalised to SM
#
Block HiggsBoundsInputHiggsCouplingsBosons
    9.99997161E-01        3  25  24  24  # h0-W-W eff. coupling^2, normalised to SM
    2.83923869E-06        3  35  24  24  # H0-W-W eff. coupling^2, normalised to SM
    0.00000000E+00        3  36  24  24  # A0-W-W eff. coupling^2, normalised to SM
#
    9.99997161E-01        3  25  23  23  # h0-Z-Z eff. coupling^2, normalised to SM
    2.83923869E-06        3  35  23  23  # H0-Z-Z eff. coupling^2, normalised to SM
    0.00000000E+00        3  36  23  23  # A0-Z-Z eff. coupling^2, normalised to SM
#
    1.26981608E+00        3  25  21  21  # h0-g-g eff. coupling^2, normalised to SM
    1.43844226E-03        3  35  21  21  # H0-g-g eff. coupling^2, normalised to SM
    9.83347226E-02        3  36  21  21  # A0-g-g eff. coupling^2, normalised to SM
#
    0.00000000E+00        3  25  25  23  # h0-h0-Z eff. coupling^2, normalised to SM
    0.00000000E+00        3  35  25  23  # H0-h0-Z eff. coupling^2, normalised to SM
    2.83923869E-06        3  36  25  23  # A0-h0-Z eff. coupling^2, normalised to SM
    0.00000000E+00        3  35  35  23  # H0-H0-Z eff. coupling^2, normalised to SM
    9.99997161E-01        3  36  35  23  # A0-H0-Z eff. coupling^2, normalised to SM
    0.00000000E+00        3  36  36  23  # A0-A0-Z eff. coupling^2, normalised to SM
#
    0.00000000E+00        4  25  21  21  23  # h0-g-g-Z eff. coupling^2, normalised to SM
    0.00000000E+00        4  35  21  21  23  # H0-g-g-Z eff. coupling^2, normalised to SM
    0.00000000E+00        4  36  21  21  23  # A0-g-g-Z eff. coupling^2, normalised to SM
Block SPhenoLowEnergy  # low energy observables
    1    3.22324300E-04   # BR(b -> s gamma)
    2    1.58978488E-06   # BR(b -> s mu+ mu-)
    3    3.52477548E-05   # BR(b -> s nu nu)
    4    2.84655815E-15   # BR(Bd -> e+ e-)
    5    1.21601533E-10   # BR(Bd -> mu+ mu-)
    6    2.54443916E-08   # BR(Bd -> tau+ tau-)
    7    9.63887431E-14   # BR(Bs -> e+ e-)
    8    4.11771711E-09   # BR(Bs -> mu+ mu-)
    9    8.72992242E-07   # BR(Bs -> tau+ tau-)
   10    9.63887463E-05   # BR(B_u -> tau nu)
   11    9.95658847E-01   # BR(B_u -> tau nu)/BR(B_u -> tau nu)_SM
   12    5.42040403E-01   # |Delta(M_Bd)| [ps^-1] 
   13    1.93654232E+01   # |Delta(M_Bs)| [ps^-1] 
   14    0.00000000E+00   # neutron EDM according to the chiral quark model
   15    0.00000000E+00   # neutron EDM according to the relativistic quark-parton model
   16    2.15753469E-03   # epsilon_K
   17    2.28166077E-15   # Delta(M_K)
   18    2.47978102E-11   # BR(K^0 -> pi^0 nu nu)
   19    8.28990700E-11   # BR(K^+ -> pi^+ nu nu)
   20   -2.67397819E-16   # Delta(g-2)_electron/2
   21   -1.14321188E-11   # Delta(g-2)_muon/2
   22   -3.23602241E-09   # Delta(g-2)_tau/2
   23    0.00000000E+00   # electric dipole moment of the electron
   24    0.00000000E+00   # electric dipole moment of the muon
   25    0.00000000E+00   # electric dipole moment of the tau
   26    0.00000000E+00   # Br(mu -> e gamma)
   27    0.00000000E+00   # Br(tau -> e gamma)
   28    0.00000000E+00   # Br(tau -> mu gamma)
   29    0.00000000E+00   # Br(mu -> 3 e)
   30    0.00000000E+00   # Br(tau -> 3 e)
   31    0.00000000E+00   # Br(tau -> 3 mu)
   39    5.73958739E-05   # Delta(rho_parameter)
   40    0.00000000E+00   # BR(Z -> e mu)
   41    0.00000000E+00   # BR(Z -> e tau)
   42    0.00000000E+00   # BR(Z -> mu tau)
Block FWCOEF Q=  1.60000000E+02  # Wilson coefficients at scale Q
#    id        order  M        value         comment
     0305 4422   00   0    -1.88819110E-01   # C7
     0305 4422   00   2    -1.90266772E-01   # C7
     0305 4322   00   2    -1.14211082E-04   # C7'
     0305 6421   00   0    -9.52278348E-02   # C8
     0305 6421   00   2    -1.00970104E-01   # C8
     0305 6321   00   2    -1.56616865E-04   # C8'
 03051111 4133   00   0     1.62644692E+00   # C9 e+e-
 03051111 4133   00   2     1.62673942E+00   # C9 e+e-
 03051111 4233   00   2     1.54301238E-04   # C9' e+e-
 03051111 4137   00   0    -4.44913902E+00   # C10 e+e-
 03051111 4137   00   2    -4.44702875E+00   # C10 e+e-
 03051111 4237   00   2    -1.14158202E-03   # C10' e+e-
 03051313 4133   00   0     1.62644692E+00   # C9 mu+mu-
 03051313 4133   00   2     1.62673937E+00   # C9 mu+mu-
 03051313 4233   00   2     1.54301173E-04   # C9' mu+mu-
 03051313 4137   00   0    -4.44913902E+00   # C10 mu+mu-
 03051313 4137   00   2    -4.44702881E+00   # C10 mu+mu-
 03051313 4237   00   2    -1.14158202E-03   # C10' mu+mu-
 03051212 4137   00   0     1.50535012E+00   # C11 nu_1 nu_1
 03051212 4137   00   2     1.50489493E+00   # C11 nu_1 nu_1
 03051212 4237   00   2     2.46865601E-04   # C11' nu_1 nu_1
 03051414 4137   00   0     1.50535012E+00   # C11 nu_2 nu_2
 03051414 4137   00   2     1.50489493E+00   # C11 nu_2 nu_2
 03051414 4237   00   2     2.46865612E-04   # C11' nu_2 nu_2
 03051616 4137   00   0     1.50535012E+00   # C11 nu_3 nu_3
 03051616 4137   00   2     1.50489493E+00   # C11 nu_3 nu_3
 03051616 4237   00   2     2.46868506E-04   # C11' nu_3 nu_3
Block IMFWCOEF Q=  1.60000000E+02  # Im(Wilson coefficients) at scale Q
#    id        order  M        value         comment
     0305 4422   00   0     3.85823758E-07   # C7
     0305 4422   00   2    -8.01540364E-06   # C7
     0305 4322   00   2     4.26681676E-07   # C7'
     0305 6421   00   0     3.30483565E-07   # C8
     0305 6421   00   2     9.03991435E-06   # C8
     0305 6321   00   2     3.82603438E-07   # C8'
 03051111 4133   00   2     6.88151439E-08   # C9 e+e-
 03051111 4233   00   2     3.04572919E-06   # C9' e+e-
 03051111 4137   00   2     1.70134792E-06   # C10 e+e-
 03051111 4237   00   2    -2.25360463E-05   # C10' e+e-
 03051313 4133   00   2     6.88142399E-08   # C9 mu+mu-
 03051313 4233   00   2     3.04572888E-06   # C9' mu+mu-
 03051313 4137   00   2     1.70134899E-06   # C10 mu+mu-
 03051313 4237   00   2    -2.25360472E-05   # C10' mu+mu-
 03051212 4137   00   2    -3.47266110E-07   # C11 nu_1 nu_1
 03051212 4237   00   2     4.87339178E-06   # C11' nu_1 nu_1
 03051414 4137   00   2    -3.47266071E-07   # C11 nu_2 nu_2
 03051414 4237   00   2     4.87339178E-06   # C11' nu_2 nu_2
 03051616 4137   00   2    -3.47254930E-07   # C11 nu_3 nu_3
 03051616 4237   00   2     4.87339177E-06   # C11' nu_3 nu_3
