# SUSY Les Houches Accord 2 - MSSM spectrum + Decays
# SPheno v4.0.5be
# W. Porod, Comput. Phys. Commun. 153 (2003) 275-315, hep-ph/0301101;
# W. Porod, F.~Staub, Comput. Phys. Commun. 183 (2012) 2458
#                     arXiv:1104.1573 [hep-ph] 
# in case of problems send email to porod@physik.uni-wuerzburg.de
# Created: 22.11.2021,  12:35
Block SPINFO         # Program information
     1   SPheno      # spectrum calculator
     2   v4.0.5be    # version number
#
Block SPhenoINFO     # SPheno specific information
    1      2         # using 2-loop RGEs
    2      2         # using pole masses for boundary conditions at mZ
Block MODSEL  # Model selection
    1    0    # general MSSM
Block MINPAR  # Input parameters
    3    4.75467370E+01  # tanb at m_Z    
    4   -1.00000000E+00  # Sign(mu)
Block EXTPAR  # non-universal input parameters
    0    4.62601456E+03  # scale for input parameters
    1    2.63447840E+02  # M_1
    2    2.89185213E+02  # M_2
    3    1.06952242E+03  # M_3
   11    2.81737506E+03  # A_t
   12    1.09652031E+03  # A_b
   13   -1.64526788E+03  # A_tau
   23   -6.47404481E+02  # mu
   25    4.68200356E+01  # tan(beta)
   26    2.29809386E+03  # m_A, pole mass
   31    6.53109466E+02  # M_L11
   32    6.53109466E+02  # M_L22
   33    4.30002694E+02  # M_L33
   34    2.91781508E+02  # M_E11
   35    2.91781508E+02  # M_E22
   36    9.81496562E+02  # M_E33
   41    1.00000000E+04  # M_Q11
   42    1.00000000E+04  # M_Q22
   43    4.59192539E+03  # M_Q33
   44    1.00000000E+04  # M_U11
   45    1.00000000E+04  # M_U22
   46    4.69257834E+03  # M_U33
   47    1.00000000E+04  # M_D11
   48    1.00000000E+04  # M_D22
   49    3.48976045E+03  # M_D33
Block SMINPUTS  # SM parameters
         1     1.27908970E+02  # alpha_em^-1(MZ)^MSbar
         2     1.16637870E-05  # G_mu [GeV^-2]
         3     1.18400000E-01  # alpha_s(MZ)^MSbar
         4     9.11876000E+01  # m_Z(pole)
         5     4.18000000E+00  # m_b(m_b), MSbar
         6     1.73200000E+02  # m_t(pole)
         7     1.77700000E+00  # m_tau(pole)
         8     0.00000000E+00  # m_nu_3
        11     5.10998930E-04  # m_e(pole)
        12     0.00000000E+00  # m_nu_1
        13     1.05658372E-01  # m_muon(pole)
        14     0.00000000E+00  # m_nu_2
        21     5.00000000E-03  # m_d(2 GeV), MSbar
        22     2.50000000E-03  # m_u(2 GeV), MSbar
        23     9.50000000E-02  # m_s(2 GeV), MSbar
        24     1.27000000E+00  # m_c(m_c), MSbar
Block gauge Q=  4.62601456E+03  # (SUSY scale)
   1    3.55362975E-01  # g'(Q)^DRbar
   2    6.65198874E-01  # g(Q)^DRbar
   3    1.21977796E+00  # g3(Q)^DRbar
Block Yu Q=  4.62601456E+03  # (SUSY scale)
  1  1     8.38628431E-06   # Y_u(Q)^DRbar
  2  2     4.26023243E-03   # Y_c(Q)^DRbar
  3  3     1.01313050E+00   # Y_t(Q)^DRbar
Block Yd Q=  4.62601456E+03  # (SUSY scale)
  1  1     7.89008294E-04   # Y_d(Q)^DRbar
  2  2     1.49911576E-02   # Y_s(Q)^DRbar
  3  3     7.82448988E-01   # Y_b(Q)^DRbar
Block Ye Q=  4.62601456E+03  # (SUSY scale)
  1  1     1.37687717E-04   # Y_e(Q)^DRbar
  2  2     2.84694530E-02   # Y_mu(Q)^DRbar
  3  3     4.78809365E-01   # Y_tau(Q)^DRbar
Block Au Q=  4.62601456E+03  # (SUSY scale)
  1  1     0.00000000E+00   # A_u(Q)^DRbar
  2  2     0.00000000E+00   # A_c(Q)^DRbar
  3  3     2.81737516E+03   # A_t(Q)^DRbar
Block Ad Q=  4.62601456E+03  # (SUSY scale)
  1  1     0.00000000E+00   # A_d(Q)^DRbar
  2  2     0.00000000E+00   # A_s(Q)^DRbar
  3  3     1.09651996E+03   # A_b(Q)^DRbar
Block Ae Q=  4.62601456E+03  # (SUSY scale)
  1  1     0.00000000E+00   # A_e(Q)^DRbar
  2  2     0.00000000E+00   # A_mu(Q)^DRbar
  3  3    -1.64526776E+03   # A_tau(Q)^DRbar
Block MSOFT Q=  4.62601456E+03  # soft SUSY breaking masses at Q
   1    2.63447840E+02  # M_1
   2    2.89185213E+02  # M_2
   3    1.06952242E+03  # M_3
  21    5.34607198E+06  # M^2_(H,d)
  22    9.75406941E+04  # M^2_(H,u)
  31    6.53109466E+02  # M_(L,11)
  32    6.53109466E+02  # M_(L,22)
  33    4.30002694E+02  # M_(L,33)
  34    2.91781508E+02  # M_(E,11)
  35    2.91781508E+02  # M_(E,22)
  36    9.81496562E+02  # M_(E,33)
  41    1.00000000E+04  # M_(Q,11)
  42    1.00000000E+04  # M_(Q,22)
  43    4.59192539E+03  # M_(Q,33)
  44    1.00000000E+04  # M_(U,11)
  45    1.00000000E+04  # M_(U,22)
  46    4.69257834E+03  # M_(U,33)
  47    1.00000000E+04  # M_(D,11)
  48    1.00000000E+04  # M_(D,22)
  49    3.48976045E+03  # M_(D,33)
Block MASS  # Mass spectrum
#   PDG code      mass          particle
         6     1.73200000E+02  # m_t(pole)
        23     9.11876000E+01  # m_Z(pole)
        24     8.04299946E+01  # W+
        15     1.77700000E+00  # m_tau(pole)
        25     1.24282383E+02  # h0
        35     2.29661982E+03  # H0
        36     2.29809386E+03  # A0
        37     2.30189170E+03  # H+
   1000001     1.01241135E+04  # ~d_L
   2000001     1.00985715E+04  # ~d_R
   1000002     1.01237539E+04  # ~u_L
   2000002     1.01014770E+04  # ~u_R
   1000003     1.01241135E+04  # ~s_L
   2000003     1.00985708E+04  # ~s_R
   1000004     1.01237537E+04  # ~c_L
   2000004     1.01014770E+04  # ~c_R
   1000005     3.48226476E+03  # ~b_1
   2000005     4.58822563E+03  # ~b_2
   1000006     4.57174584E+03  # ~t_1
   2000006     4.68092748E+03  # ~t_2
   1000011     6.53195694E+02  # ~e_L-
   2000011     3.19790642E+02  # ~e_R-
   1000012     6.47949955E+02  # ~nu_eL
   1000013     6.53154652E+02  # ~mu_L-
   2000013     3.19481481E+02  # ~mu_R-
   1000014     6.47874519E+02  # ~nu_muL
   1000015     3.85668292E+02  # ~tau_1-
   2000015     9.55160357E+02  # ~tau_2-
   1000016     3.84579743E+02  # ~nu_tauL
   1000021     1.38332526E+03  # ~g
   1000022     2.56472930E+02  # ~chi_10
   1000023     3.07670013E+02  # ~chi_20
   1000025     6.47707342E+02  # ~chi_30
   1000035     6.54522715E+02  # ~chi_40
   1000024     3.07628999E+02  # ~chi_1+
   1000037     6.55605868E+02  # ~chi_2+
# Higgs mixing
Block alpha # Effective Higgs mixing angle
          -2.11095676E-02   # alpha
Block Hmix Q=  4.62601456E+03  # Higgs mixing parameters
   1   -6.47404481E+02  # mu
   2    4.68200356E+01  # tan[beta](Q)
   3    2.42776250E+02  # v(Q)
   4    5.28123539E+06  # m^2_A(Q)
Block stopmix # stop mixing matrix
   1  1    -9.19087939E-01   # Re[R_st(1,1)]
   1  2     3.94052484E-01   # Re[R_st(1,2)]
   2  1    -3.94052484E-01   # Re[R_st(2,1)]
   2  2    -9.19087939E-01   # Re[R_st(2,2)]
Block sbotmix # sbottom mixing matrix
   1  1    -8.17088793E-03   # Re[R_sb(1,1)]
   1  2     9.99966618E-01   # Re[R_sb(1,2)]
   2  1    -9.99966618E-01   # Re[R_sb(2,1)]
   2  2    -8.17088793E-03   # Re[R_sb(2,2)]
Block staumix # stau mixing matrix
   1  1    -9.97816855E-01   # Re[R_sta(1,1)]
   1  2     6.60418333E-02   # Re[R_sta(1,2)]
   2  1    -6.60418333E-02   # Re[R_sta(2,1)]
   2  2    -9.97816855E-01   # Re[R_sta(2,2)]
Block Nmix # neutralino mixing matrix
   1  1     9.94771715E-01   # Re[N(1,1)]
   1  2    -4.33394425E-02   # Re[N(1,2)]
   1  3    -8.63569464E-02   # Re[N(1,3)]
   1  4    -3.30666840E-02   # Re[N(1,4)]
   2  1    -5.82335327E-02   # Re[N(2,1)]
   2  2    -9.84517818E-01   # Re[N(2,2)]
   2  3    -1.50573709E-01   # Re[N(2,3)]
   2  4    -6.82721042E-02   # Re[N(2,4)]
   3  1    -3.48712957E-02   # Re[N(3,1)]
   3  2     6.05113564E-02   # Re[N(3,2)]
   3  3    -7.03046950E-01   # Re[N(3,3)]
   3  4     7.07705697E-01   # Re[N(3,4)]
   4  1    -7.63025784E-02   # Re[N(4,1)]
   4  2     1.58696991E-01   # Re[N(4,2)]
   4  3    -6.89633976E-01   # Re[N(4,3)]
   4  4    -7.02423064E-01   # Re[N(4,4)]
Block Umix # chargino mixing matrix
   1  1    -9.75935691E-01   # Re[U(1,1)]
   1  2    -2.18058539E-01   # Re[U(1,2)]
   2  1     2.18058539E-01   # Re[U(2,1)]
   2  2    -9.75935691E-01   # Re[U(2,2)]
Block Vmix # chargino mixing matrix
   1  1    -9.95122412E-01   # Re[V(1,1)]
   1  2     9.86477803E-02   # Re[V(1,2)]
   2  1     9.86477803E-02   # Re[V(2,1)]
   2  2     9.95122412E-01   # Re[V(2,2)]
DECAY        23     2.49520000E+00   # Z
DECAY        24     2.08500000E+00   # W
DECAY   2000011     2.02447077E-01   # ~e^-_R
#    BR                NDA      ID1      ID2
     9.99851144E-01    2     1000022        11   # BR(~e^-_R -> chi^0_1 e^-)
     1.48855714E-04    2     1000023        11   # BR(~e^-_R -> chi^0_2 e^-)
DECAY   1000011     5.60232913E+00   # ~e^-_L
#    BR                NDA      ID1      ID2
     8.74665111E-02    2     1000022        11   # BR(~e^-_L -> chi^0_1 e^-)
     3.20523184E-01    2     1000023        11   # BR(~e^-_L -> chi^0_2 e^-)
     5.92010036E-01    2    -1000024        12   # BR(~e^-_L -> chi^-_1 nu_e)
#    BR                NDA      ID1      ID2       ID3
DECAY   2000013     2.00849889E-01   # ~mu^-_R
#    BR                NDA      ID1      ID2
     9.99848087E-01    2     1000022        13   # BR(~mu^-_R -> chi^0_1 mu^-)
     1.45445920E-04    2     1000023        13   # BR(~mu^-_R -> chi^0_2 mu^-)
DECAY   1000013     5.60541603E+00   # ~mu^-_L
#    BR                NDA      ID1      ID2
     8.74185821E-02    2     1000022        13   # BR(~mu^-_L -> chi^0_1 mu^-)
     3.20330477E-01    2     1000023        13   # BR(~mu^-_L -> chi^0_2 mu^-)
     5.91604454E-01    2    -1000024        14   # BR(~mu^-_L -> chi^-_1 nu_mu)
     6.45990985E-04    2     2000013        25   # BR(~mu^-_L -> ~mu^-_R h^0)
#    BR                NDA      ID1      ID2       ID3
DECAY   1000015     8.11029793E-01   # ~tau^-_1
#    BR                NDA      ID1      ID2
     1.65912532E-01    2     1000022        15   # BR(~tau^-_1 -> chi^0_1 tau^-)
     2.97597954E-01    2     1000023        15   # BR(~tau^-_1 -> chi^0_2 tau^-)
     5.36489514E-01    2    -1000024        16   # BR(~tau^-_1 -> chi^-_1 nu_tau)
#    BR                NDA      ID1      ID2       ID3
DECAY   2000015     9.53996001E+00   # ~tau^-_2
#    BR                NDA      ID1      ID2
     4.27661732E-01    2     1000022        15   # BR(~tau^-_2 -> chi^0_1 tau^-)
     4.44969176E-03    2     1000023        15   # BR(~tau^-_2 -> chi^0_2 tau^-)
     6.69211477E-02    2     1000025        15   # BR(~tau^-_2 -> chi^0_3 tau^-)
     6.41129488E-02    2     1000035        15   # BR(~tau^-_2 -> chi^0_4 tau^-)
     6.01387916E-03    2    -1000024        16   # BR(~tau^-_2 -> chi^-_1 nu_tau)
     1.26155212E-01    2    -1000037        16   # BR(~tau^-_2 -> chi^-_2 nu_tau)
     1.53891953E-01    2     1000016       -24   # BR(~tau^-_2 -> ~nu_tau W^-)
     7.55691404E-02    2     1000015        23   # BR(~tau^-_2 -> ~tau^-_1 Z)
     7.52242955E-02    2     1000015        25   # BR(~tau^-_2 -> ~tau^-_1 h^0)
DECAY   1000012     5.61424930E+00   # ~nu_e
#    BR                NDA      ID1      ID2
     1.19351099E-01    2     1000022        12   # BR(~nu_e -> chi^0_1 nu_e)
     2.77005268E-01    2     1000023        12   # BR(~nu_e -> chi^0_2 nu_e)
     6.03643631E-01    2     1000024        11   # BR(~nu_e -> chi^+_1 e^-)
DECAY   1000014     5.61317798E+00   # ~nu_mu
#    BR                NDA      ID1      ID2
     1.19349652E-01    2     1000022        14   # BR(~nu_mu -> chi^0_1 nu_mu)
     2.76988321E-01    2     1000023        14   # BR(~nu_mu -> chi^0_2 nu_mu)
     6.03662026E-01    2     1000024        13   # BR(~nu_mu -> chi^+_1 mu^-)
DECAY   1000016     8.20115878E-01   # ~nu_tau
#    BR                NDA      ID1      ID2
     2.10224977E-01    2     1000022        16   # BR(~nu_tau -> chi^0_1 nu_tau)
     2.43116673E-01    2     1000023        16   # BR(~nu_tau -> chi^0_2 nu_tau)
     5.46658350E-01    2     1000024        15   # BR(~nu_tau -> chi^+_1 tau^-)
DECAY   2000001     7.73110896E+02   # ~d_R
#    BR                NDA      ID1      ID2
     7.20720110E-03    2     1000022         1   # BR(~d_R -> chi^0_1 d)
     9.92716898E-01    2     1000021         1   # BR(~d_R -> ~g d)
DECAY   1000001     9.04381859E+02   # ~d_L
#    BR                NDA      ID1      ID2
     2.39219779E-03    2     1000022         1   # BR(~d_L -> chi^0_1 d)
     4.66719192E-02    2     1000023         1   # BR(~d_L -> chi^0_2 d)
     2.17623984E-04    2     1000025         1   # BR(~d_L -> chi^0_3 d)
     1.45038115E-03    2     1000035         1   # BR(~d_L -> chi^0_4 d)
     9.36867958E-02    2    -1000024         2   # BR(~d_L -> chi^-_1 u)
     4.64659126E-03    2    -1000037         2   # BR(~d_L -> chi^-_2 u)
     8.50934491E-01    2     1000021         1   # BR(~d_L -> ~g d)
DECAY   2000003     7.73200158E+02   # ~s_R
#    BR                NDA      ID1      ID2
     7.20680239E-03    2     1000022         3   # BR(~s_R -> chi^0_1 s)
     9.92602218E-01    2     1000021         3   # BR(~s_R -> ~g s)
DECAY   1000003     9.04430259E+02   # ~s_L
#    BR                NDA      ID1      ID2
     2.39244156E-03    2     1000022         3   # BR(~s_L -> chi^0_1 s)
     4.66705517E-02    2     1000023         3   # BR(~s_L -> chi^0_2 s)
     2.42079096E-04    2     1000025         3   # BR(~s_L -> chi^0_3 s)
     1.47384086E-03    2     1000035         3   # BR(~s_L -> chi^0_4 s)
     9.36818169E-02    2    -1000024         4   # BR(~s_L -> chi^-_1 c)
     4.65031633E-03    2    -1000037         4   # BR(~s_L -> chi^-_2 c)
     8.50888954E-01    2     1000021         3   # BR(~s_L -> ~g s)
DECAY   1000005     2.75806401E+02   # ~b_1
#    BR                NDA      ID1      ID2
     8.10920052E-03    2     1000022         5   # BR(~b_1 -> chi^0_1 b)
     3.67270677E-03    2     1000023         5   # BR(~b_1 -> chi^0_2 b)
     7.07704689E-02    2     1000025         5   # BR(~b_1 -> chi^0_3 b)
     6.79042777E-02    2     1000035         5   # BR(~b_1 -> chi^0_4 b)
     7.61359279E-03    2    -1000024         6   # BR(~b_1 -> chi^-_1 t)
     1.35072996E-01    2    -1000037         6   # BR(~b_1 -> chi^-_2 t)
     7.06856758E-01    2     1000021         5   # BR(~b_1 -> ~g b)
DECAY   2000005     5.03811102E+02   # ~b_2
#    BR                NDA      ID1      ID2
     2.70521540E-03    2     1000022         5   # BR(~b_2 -> chi^0_1 b)
     4.00349228E-02    2     1000023         5   # BR(~b_2 -> chi^0_2 b)
     5.28904355E-02    2     1000025         5   # BR(~b_2 -> chi^0_3 b)
     5.19100580E-02    2     1000035         5   # BR(~b_2 -> chi^0_4 b)
     7.67961986E-02    2    -1000024         6   # BR(~b_2 -> chi^-_1 t)
     1.80728825E-01    2    -1000037         6   # BR(~b_2 -> chi^-_2 t)
     5.94107798E-01    2     1000021         5   # BR(~b_2 -> ~g b)
     3.28425385E-04    2     1000005        23   # BR(~b_2 -> ~b_1 Z)
     4.98121268E-04    2     1000005        25   # BR(~b_2 -> ~b_1 h^0)
DECAY   2000002     7.90246040E+02   # ~u_R
#    BR                NDA      ID1      ID2
     2.82118315E-02    2     1000022         2   # BR(~u_R -> chi^0_1 u)
     1.64804343E-04    2     1000035         2   # BR(~u_R -> chi^0_4 u)
     9.71492313E-01    2     1000021         2   # BR(~u_R -> ~g u)
DECAY   1000002     9.04371774E+02   # ~u_L
#    BR                NDA      ID1      ID2
     8.80992834E-04    2     1000022         2   # BR(~u_L -> chi^0_1 u)
     4.86791775E-02    2     1000023         2   # BR(~u_L -> chi^0_2 u)
     1.44099320E-04    2     1000025         2   # BR(~u_L -> chi^0_3 u)
     1.02884826E-03    2     1000035         2   # BR(~u_L -> chi^0_4 u)
     9.74043581E-02    2     1000024         1   # BR(~u_L -> chi^+_1 d)
     9.51068603E-04    2     1000037         1   # BR(~u_L -> chi^+_2 d)
     8.50911455E-01    2     1000021         2   # BR(~u_L -> ~g u)
DECAY   2000004     7.90253243E+02   # ~c_R
#    BR                NDA      ID1      ID2
     2.82115782E-02    2     1000022         4   # BR(~c_R -> chi^0_1 c)
     1.67061707E-04    2     1000035         4   # BR(~c_R -> chi^0_4 c)
     9.71483419E-01    2     1000021         4   # BR(~c_R -> ~g c)
DECAY   1000004     9.04420122E+02   # ~c_L
#    BR                NDA      ID1      ID2
     8.80950128E-04    2     1000022         4   # BR(~c_L -> chi^0_1 c)
     4.86765907E-02    2     1000023         4   # BR(~c_L -> chi^0_2 c)
     1.46098747E-04    2     1000025         4   # BR(~c_L -> chi^0_3 c)
     1.03077237E-03    2     1000035         4   # BR(~c_L -> chi^0_4 c)
     9.74015191E-02    2     1000024         3   # BR(~c_L -> chi^+_1 s)
     9.98153209E-04    2     1000037         3   # BR(~c_L -> chi^+_2 s)
     8.50865916E-01    2     1000021         4   # BR(~c_L -> ~g c)
DECAY   1000006     5.86195330E+02   # ~t_1
#    BR                NDA      ID1      ID2
     1.77255903E-04    2     1000022         4   # BR(~t_1 -> chi^0_1 c)
     2.32066936E-03    2     1000022         6   # BR(~t_1 -> chi^0_1 t)
     9.77263363E-03    2     1000023         4   # BR(~t_1 -> chi^0_2 c)
     2.56124845E-02    2     1000023         6   # BR(~t_1 -> chi^0_2 t)
     7.41309501E-02    2     1000025         6   # BR(~t_1 -> chi^0_3 t)
     8.36911383E-02    2     1000035         6   # BR(~t_1 -> chi^0_4 t)
     5.35660928E-02    2     1000024         5   # BR(~t_1 -> chi^+_1 b)
     1.04453434E-01    2     1000037         5   # BR(~t_1 -> chi^+_2 b)
     1.47455302E-01    2     1000021         4   # BR(~t_1 -> ~g c)
     4.96993304E-01    2     1000021         6   # BR(~t_1 -> ~g t)
     4.58988457E-04    2     1000005        24   # BR(~t_1 -> ~b_1 W^+)
#    BR                NDA      ID1      ID2       ID3
     1.36774747E-03    3     1000022        24         5   # BR(~t_1 -> chi^0_1 W^+ b)
DECAY   2000006     5.08045908E+02   # ~t_2
#    BR                NDA      ID1      ID2
     1.85539282E-02    2     1000022         6   # BR(~t_2 -> chi^0_1 t)
     1.11547748E-02    2     1000023         6   # BR(~t_2 -> chi^0_2 t)
     9.31148078E-02    2     1000025         6   # BR(~t_2 -> chi^0_3 t)
     8.01090817E-02    2     1000035         6   # BR(~t_2 -> chi^0_4 t)
     2.34278927E-02    2     1000024         5   # BR(~t_2 -> chi^+_1 b)
     1.58920786E-01    2     1000037         5   # BR(~t_2 -> chi^+_2 b)
     6.14287839E-01    2     1000021         6   # BR(~t_2 -> ~g t)
     1.25945657E-04    2     1000005        24   # BR(~t_2 -> ~b_1 W^+)
     1.58106391E-04    2     2000005        24   # BR(~t_2 -> ~b_2 W^+)
     1.46838072E-04    2     1000006        23   # BR(~t_2 -> ~t_1 Z)
DECAY   1000024     5.54205877E-06   # chi^+_1
#    BR                NDA      ID1      ID2       ID3
     3.22513478E-01    3     1000022        -1         2   # BR(chi^+_1 -> chi^0_1 d_bar u)
     3.21695267E-01    3     1000022        -3         4   # BR(chi^+_1 -> chi^0_1 s_bar c)
     1.05717129E-01    3     1000022       -11        12   # BR(chi^+_1 -> chi^0_1 e^+ nu_e)
     1.05814443E-01    3     1000022       -13        14   # BR(chi^+_1 -> chi^0_1 mu^+ nu_mu)
     1.44259683E-01    3     1000022       -15        16   # BR(chi^+_1 -> chi^0_1 tau^+ nu_tau)
DECAY   1000037     4.50967770E+00   # chi^+_2
#    BR                NDA      ID1      ID2
     6.49103404E-04    2    -2000013        14   # BR(chi^+_2 -> ~mu^+_R nu_mu)
     8.01937917E-03    2    -1000015        16   # BR(chi^+_2 -> ~tau^+_1 nu_tau)
     1.38835711E-01    2     1000016       -15   # BR(chi^+_2 -> ~nu_tau tau^+)
     7.18029670E-02    2     1000022        24   # BR(chi^+_2 -> chi^0_1 W^+)
     2.80527199E-01    2     1000023        24   # BR(chi^+_2 -> chi^0_2 W^+)
     2.57855948E-01    2     1000024        23   # BR(chi^+_2 -> chi^+_1 Z)
     2.41031887E-01    2     1000024        25   # BR(chi^+_2 -> chi^+_1 h^0)
#    BR                NDA      ID1      ID2       ID3
     3.22698782E-04    3     1000022        -5         6   # BR(chi^+_2 -> chi^0_1 b_bar t)
     9.36643884E-04    3     1000023        -5         6   # BR(chi^+_2 -> chi^0_2 b_bar t)
DECAY   1000022     0.00000000E+00   # chi^0_1
DECAY   1000023     3.48598969E-07   # chi^0_2
#    BR                NDA      ID1      ID2
     1.22546318E-02    2     1000022        22   # BR(chi^0_2 -> chi^0_1 photon)
#    BR                NDA      ID1      ID2       ID3
     5.25437630E-02    3     1000022         2        -2   # BR(chi^0_2 -> chi^0_1 u u_bar)
     5.21930674E-02    3     1000022         4        -4   # BR(chi^0_2 -> chi^0_1 c c_bar)
     6.74162260E-02    3     1000022         1        -1   # BR(chi^0_2 -> chi^0_1 d d_bar)
     6.74139765E-02    3     1000022         3        -3   # BR(chi^0_2 -> chi^0_1 s s_bar)
     6.41033932E-02    3     1000022         5        -5   # BR(chi^0_2 -> chi^0_1 b b_bar)
     4.28553419E-02    3     1000022        11       -11   # BR(chi^0_2 -> chi^0_1 e^- e^+)
     4.55561802E-02    3     1000022        13       -13   # BR(chi^0_2 -> chi^0_1 mu^- mu^+)
     3.06019666E-01    3     1000022        15       -15   # BR(chi^0_2 -> chi^0_1 tau^- tau^+)
     2.89643754E-01    3     1000022        12       -12   # BR(chi^0_2 -> chi^0_1 nu_e nu_bar_e)
DECAY   1000025     6.18568303E+00   # chi^0_3
#    BR                NDA      ID1      ID2
     1.82947725E-04    2     2000011       -11   # BR(chi^0_3 -> ~e^-_R e^+)
     1.82947725E-04    2    -2000011        11   # BR(chi^0_3 -> ~e^+_R e^-)
     4.22280732E-04    2     2000013       -13   # BR(chi^0_3 -> ~mu^-_R mu^+)
     4.22280732E-04    2    -2000013        13   # BR(chi^0_3 -> ~mu^+_R mu^-)
     4.86166882E-02    2     1000015       -15   # BR(chi^0_3 -> ~tau^-_1 tau^+)
     4.86166882E-02    2    -1000015        15   # BR(chi^0_3 -> ~tau^+_1 tau^-)
     6.05032173E-04    2     1000016       -16   # BR(chi^0_3 -> ~nu_tau nu_bar_tau)
     6.05032173E-04    2    -1000016        16   # BR(chi^0_3 -> ~nu^*_tau nu_tau)
     2.10735785E-01    2     1000024       -24   # BR(chi^0_3 -> chi^+_1 W^-)
     2.10735785E-01    2    -1000024        24   # BR(chi^0_3 -> chi^-_1 W^+)
     6.73032674E-02    2     1000022        23   # BR(chi^0_3 -> chi^0_1 Z)
     1.79287427E-01    2     1000023        23   # BR(chi^0_3 -> chi^0_2 Z)
     6.08705545E-02    2     1000022        25   # BR(chi^0_3 -> chi^0_1 h^0)
     1.69595481E-01    2     1000023        25   # BR(chi^0_3 -> chi^0_2 h^0)
#    BR                NDA      ID1      ID2       ID3
     8.63612494E-04    3     1000024         5        -6   # BR(chi^0_3 -> chi^+_1 b t_bar)
     8.63612494E-04    3    -1000024        -5         6   # BR(chi^0_3 -> chi^-_1 b_bar t)
DECAY   1000035     4.58989652E+00   # chi^0_4
#    BR                NDA      ID1      ID2
     1.20884466E-03    2     2000011       -11   # BR(chi^0_4 -> ~e^-_R e^+)
     1.20884466E-03    2    -2000011        11   # BR(chi^0_4 -> ~e^+_R e^-)
     1.52810375E-03    2     2000013       -13   # BR(chi^0_4 -> ~mu^-_R mu^+)
     1.52810375E-03    2    -2000013        13   # BR(chi^0_4 -> ~mu^+_R mu^-)
     6.54065410E-02    2     1000015       -15   # BR(chi^0_4 -> ~tau^-_1 tau^+)
     6.54065410E-02    2    -1000015        15   # BR(chi^0_4 -> ~tau^+_1 tau^-)
     5.35261404E-03    2     1000016       -16   # BR(chi^0_4 -> ~nu_tau nu_bar_tau)
     5.35261404E-03    2    -1000016        16   # BR(chi^0_4 -> ~nu^*_tau nu_tau)
     2.64863211E-01    2     1000024       -24   # BR(chi^0_4 -> chi^+_1 W^-)
     2.64863211E-01    2    -1000024        24   # BR(chi^0_4 -> chi^-_1 W^+)
     1.76230997E-02    2     1000022        23   # BR(chi^0_4 -> chi^0_1 Z)
     3.32484232E-02    2     1000023        23   # BR(chi^0_4 -> chi^0_2 Z)
     7.19390399E-02    2     1000022        25   # BR(chi^0_4 -> chi^0_1 h^0)
     1.98668196E-01    2     1000023        25   # BR(chi^0_4 -> chi^0_2 h^0)
#    BR                NDA      ID1      ID2       ID3
     8.76784618E-04    3     1000024         5        -6   # BR(chi^0_4 -> chi^+_1 b t_bar)
     8.76784618E-04    3    -1000024        -5         6   # BR(chi^0_4 -> chi^-_1 b_bar t)
DECAY   1000021     7.17202050E-04   # ~g
#    BR                NDA      ID1      ID2
     1.81452565E-04    2     1000022        21   # BR(~g -> chi^0_1 g)
     2.80610143E-04    2     1000023        21   # BR(~g -> chi^0_2 g)
     1.25935642E-02    2     1000025        21   # BR(~g -> chi^0_3 g)
     1.55127338E-02    2     1000035        21   # BR(~g -> chi^0_4 g)
#    BR                NDA      ID1      ID2       ID3
     1.22291690E-03    3     1000022         2        -2   # BR(~g -> chi^0_1 u u_bar)
     1.22289123E-03    3     1000022         4        -4   # BR(~g -> chi^0_1 c c_bar)
     1.89077946E-02    3     1000022         6        -6   # BR(~g -> chi^0_1 t t_bar)
     4.08972932E-04    3     1000022         1        -1   # BR(~g -> chi^0_1 d d_bar)
     4.09014603E-04    3     1000022         3        -3   # BR(~g -> chi^0_1 s s_bar)
     3.27874709E-02    3     1000022         5        -5   # BR(~g -> chi^0_1 b b_bar)
     2.13036563E-03    3     1000023         2        -2   # BR(~g -> chi^0_2 u u_bar)
     2.13031607E-03    3     1000023         4        -4   # BR(~g -> chi^0_2 c c_bar)
     3.33162770E-02    3     1000023         6        -6   # BR(~g -> chi^0_2 t t_bar)
     2.03953707E-03    3     1000023         1        -1   # BR(~g -> chi^0_2 d d_bar)
     2.03965055E-03    3     1000023         3        -3   # BR(~g -> chi^0_2 s s_bar)
     6.84930006E-02    3     1000023         5        -5   # BR(~g -> chi^0_2 b b_bar)
     5.41454970E-02    3     1000025         6        -6   # BR(~g -> chi^0_3 t t_bar)
     1.03677014E-01    3     1000025         5        -5   # BR(~g -> chi^0_3 b b_bar)
     5.94401828E-02    3     1000035         6        -6   # BR(~g -> chi^0_4 t t_bar)
     9.65727769E-02    3     1000035         5        -5   # BR(~g -> chi^0_4 b b_bar)
     4.17385563E-03    3     1000024         1        -2   # BR(~g -> chi^+_1 d u_bar)
     4.17385563E-03    3    -1000024        -1         2   # BR(~g -> chi^-_1 d_bar u)
     4.17392607E-03    3     1000024         3        -4   # BR(~g -> chi^+_1 s c_bar)
     4.17392607E-03    3    -1000024        -3         4   # BR(~g -> chi^-_1 s_bar c)
     9.93250243E-02    3     1000024         5        -6   # BR(~g -> chi^+_1 b t_bar)
     9.93250243E-02    3    -1000024        -5         6   # BR(~g -> chi^-_1 b_bar t)
     1.38456508E-01    3     1000037         5        -6   # BR(~g -> chi^+_2 b t_bar)
     1.38456508E-01    3    -1000037        -5         6   # BR(~g -> chi^-_2 b_bar t)
DECAY        25     3.54451921E-03   # Gamma(h0)
     2.48808970E-03   2        22        22   # BR(h0 -> photon photon)
     1.53712154E-03   2        22        23   # BR(h0 -> photon Z)
     2.76568647E-02   2        23        23   # BR(h0 -> Z Z)
     2.31759399E-01   2       -24        24   # BR(h0 -> W W)
     7.80983175E-02   2        21        21   # BR(h0 -> gluon gluon)
     5.05355031E-09   2       -11        11   # BR(h0 -> Electron electron)
     2.24791844E-04   2       -13        13   # BR(h0 -> Muon muon)
     6.49225997E-02   2       -15        15   # BR(h0 -> Tau tau)
     1.43584565E-07   2        -2         2   # BR(h0 -> Up up)
     2.78654130E-02   2        -4         4   # BR(h0 -> Charm charm)
     5.87412738E-07   2        -1         1   # BR(h0 -> Down down)
     2.12453446E-04   2        -3         3   # BR(h0 -> Strange strange)
     5.65234213E-01   2        -5         5   # BR(h0 -> Bottom bottom)
DECAY        35     9.52680123E+01   # Gamma(HH)
     7.10609160E-08   2        22        22   # BR(HH -> photon photon)
     1.42505218E-07   2        22        23   # BR(HH -> photon Z)
     1.90950126E-07   2        23        23   # BR(HH -> Z Z)
     8.31213030E-08   2       -24        24   # BR(HH -> W W)
     1.21017727E-05   2        21        21   # BR(HH -> gluon gluon)
     6.76558206E-09   2       -11        11   # BR(HH -> Electron electron)
     3.01209631E-04   2       -13        13   # BR(HH -> Muon muon)
     8.29156523E-02   2       -15        15   # BR(HH -> Tau tau)
     2.74033621E-14   2        -2         2   # BR(HH -> Up up)
     5.31563612E-09   2        -4         4   # BR(HH -> Charm charm)
     4.07301497E-04   2        -6         6   # BR(HH -> Top top)
     5.94191295E-07   2        -1         1   # BR(HH -> Down down)
     2.14927317E-04   2        -3         3   # BR(HH -> Strange strange)
     6.09147037E-01   2        -5         5   # BR(HH -> Bottom bottom)
     8.03316302E-03   2  -1000024   1000024   # BR(HH -> Chargino1 chargino1)
     7.57831204E-02   2  -1000024   1000037   # BR(HH -> Chargino1 chargino2)
     7.57831204E-02   2  -1000037   1000024   # BR(HH -> Chargino2 chargino1)
     9.01289687E-04   2  -1000037   1000037   # BR(HH -> Chargino2 chargino2)
     6.33177028E-04   2   1000022   1000022   # BR(HH -> neutralino1 neutralino1)
     2.77693006E-03   2   1000022   1000023   # BR(HH -> neutralino1 neutralino2)
     1.57318646E-02   2   1000022   1000025   # BR(HH -> neutralino1 neutralino3)
     1.36391017E-02   2   1000022   1000035   # BR(HH -> neutralino1 neutralino4)
     3.04198696E-03   2   1000023   1000023   # BR(HH -> neutralino2 neutralino2)
     3.34817670E-02   2   1000023   1000025   # BR(HH -> neutralino2 neutralino3)
     2.86050351E-02   2   1000023   1000035   # BR(HH -> neutralino2 neutralino4)
     3.32273591E-04   2   1000025   1000025   # BR(HH -> neutralino3 neutralino3)
     2.83937304E-03   2   1000025   1000035   # BR(HH -> neutralino3 neutralino4)
     1.95621708E-03   2   1000035   1000035   # BR(HH -> neutralino4 neutralino4)
     8.18534010E-07   2        25        25   # BR(HH -> h0 h0)
     3.41072174E-08   2  -1000011   1000011   # BR(HH -> Selectron1 selectron1)
     1.42022996E-13   2  -2000011   1000011   # BR(HH -> Selectron2 selectron1)
     1.42022996E-13   2  -1000011   2000011   # BR(HH -> Selectron1 selectron2)
     4.48039405E-08   2  -2000011   2000011   # BR(HH -> Selectron2 selectron2)
     3.30825960E-08   2  -1000013   1000013   # BR(HH -> Smuon1 smuon1)
     6.06973496E-09   2  -2000013   1000013   # BR(HH -> Smuon2 smuon1)
     6.06973496E-09   2  -1000013   2000013   # BR(HH -> Smuon1 smuon2)
     4.49145890E-08   2  -2000013   2000013   # BR(HH -> Smuon2 smuon2)
     4.64477384E-04   2  -1000015   1000015   # BR(HH -> Stau1 stau1)
     2.13726416E-02   2  -2000015   1000015   # BR(HH -> Stau2 stau1)
     2.13726416E-02   2  -1000015   2000015   # BR(HH -> Stau1 stau2)
     2.51050535E-04   2  -2000015   2000015   # BR(HH -> Stau2 stau2)
DECAY        36     9.06448194E+01   # Gamma(A0)
     2.08897247E-09   2        22        22   # BR(A0 -> photon photon)
     4.58817993E-08   2        22        23   # BR(A0 -> photon Z)
     1.93243607E-05   2        21        21   # BR(A0 -> gluon gluon)
     6.60984279E-09   2       -11        11   # BR(A0 -> Electron electron)
     2.94276227E-04   2       -13        13   # BR(A0 -> Muon muon)
     8.10060708E-02   2       -15        15   # BR(A0 -> Tau tau)
     2.56015593E-14   2        -2         2   # BR(A0 -> Up up)
     4.96571380E-09   2        -4         4   # BR(A0 -> Charm charm)
     3.90686425E-04   2        -6         6   # BR(A0 -> Top top)
     5.80496820E-07   2        -1         1   # BR(A0 -> Down down)
     2.09973520E-04   2        -3         3   # BR(A0 -> Strange strange)
     5.95133307E-01   2        -5         5   # BR(A0 -> Bottom bottom)
     8.69189285E-03   2  -1000024   1000024   # BR(A0 -> Chargino1 chargino1)
     7.94989814E-02   2  -1000024   1000037   # BR(A0 -> Chargino1 chargino2)
     7.94989814E-02   2  -1000037   1000024   # BR(A0 -> Chargino2 chargino1)
     1.15385502E-03   2  -1000037   1000037   # BR(A0 -> Chargino2 chargino2)
     6.79945552E-04   2   1000022   1000022   # BR(A0 -> neutralino1 neutralino1)
     2.99170316E-03   2   1000022   1000023   # BR(A0 -> neutralino1 neutralino2)
     1.56453804E-02   2   1000022   1000025   # BR(A0 -> neutralino1 neutralino3)
     1.51843342E-02   2   1000022   1000035   # BR(A0 -> neutralino1 neutralino4)
     3.28944234E-03   2   1000023   1000023   # BR(A0 -> neutralino2 neutralino2)
     3.28788018E-02   2   1000023   1000025   # BR(A0 -> neutralino2 neutralino3)
     3.22624215E-02   2   1000023   1000035   # BR(A0 -> neutralino2 neutralino4)
     5.61601746E-04   2   1000025   1000025   # BR(A0 -> neutralino3 neutralino3)
     2.08797986E-03   2   1000025   1000035   # BR(A0 -> neutralino3 neutralino4)
     2.81279328E-03   2   1000035   1000035   # BR(A0 -> neutralino4 neutralino4)
     2.82508710E-07   2        23        25   # BR(A0 -> Z h0)
     8.43145555E-14   2        23        35   # BR(A0 -> Z HH)
     9.44247128E-37   2        25        25   # BR(A0 -> h0 h0)
     1.49624577E-13   2  -2000011   1000011   # BR(A0 -> Selectron2 selectron1)
     1.49624577E-13   2  -1000011   2000011   # BR(A0 -> Selectron1 selectron2)
     6.39692398E-09   2  -2000013   1000013   # BR(A0 -> Smuon2 smuon1)
     6.39692398E-09   2  -1000013   2000013   # BR(A0 -> Smuon1 smuon2)
     2.28536561E-02   2  -2000015   1000015   # BR(A0 -> Stau2 stau1)
     2.28536561E-02   2  -1000015   2000015   # BR(A0 -> Stau1 stau2)
DECAY        37     1.02872345E+02   # Gamma(Hp)
     8.36543147E-09   2       -11        12   # BR(Hp -> Electron nu_e)
     3.57648322E-04   2       -13        14   # BR(Hp -> Muon nu_mu)
     1.01163234E-01   2       -15        16   # BR(Hp -> Tau nu_tau)
     5.55582124E-07   2        -1         2   # BR(Hp -> Down up)
     9.34960416E-06   2        -3         2   # BR(Hp -> Strange up)
     6.49647333E-06   2        -5         2   # BR(Hp -> Bottom up)
     2.61058771E-08   2        -1         4   # BR(Hp -> Down charm)
     2.00239231E-04   2        -3         4   # BR(Hp -> Strange charm)
     9.09738478E-04   2        -5         4   # BR(Hp -> Bottom charm)
     2.61312754E-08   2        -1         6   # BR(Hp -> Down top)
     8.63925981E-07   2        -3         6   # BR(Hp -> Strange top)
     6.12764322E-01   2        -5         6   # BR(Hp -> Bottom top)
     4.13615503E-03   2   1000022   1000024   # BR(Hp -> neutralino1 chargino1)
     1.14954028E-02   2   1000022   1000037   # BR(Hp -> neutralino1 chargino2)
     5.70656350E-05   2   1000023   1000024   # BR(Hp -> neutralino2 chargino1)
     8.35332225E-02   2   1000023   1000037   # BR(Hp -> neutralino2 chargino2)
     7.16375795E-02   2   1000024   1000025   # BR(Hp -> chargino1 neutralino3)
     1.74354380E-03   2   1000025   1000037   # BR(Hp -> neutralino3 chargino2)
     7.10396443E-02   2   1000024   1000035   # BR(Hp -> chargino1 neutralino4)
     6.10695836E-04   2   1000035   1000037   # BR(Hp -> neutralino4 chargino2)
     2.50442165E-07   2        24        25   # BR(Hp -> W h0)
     5.38623380E-11   2        24        35   # BR(Hp -> W HH)
     1.04482858E-11   2        24        36   # BR(Hp -> W A0)
     2.44163033E-13   2  -1000011   1000012   # BR(Hp -> Selectron1 snu_e1)
     1.62633207E-07   2  -2000011   1000012   # BR(Hp -> Selectron2 snu_e1)
     1.04395433E-08   2  -1000013   1000014   # BR(Hp -> Smuon1 snu_mu1)
     1.62760665E-07   2  -2000013   1000014   # BR(Hp -> Smuon2 snu_mu1)
     2.07725882E-04   2  -1000015   1000016   # BR(Hp -> Stau1 snu_tau1)
     4.01258709E-02   2  -2000015   1000016   # BR(Hp -> Stau2 snu_tau1)
DECAY         6     2.43000000E+00   # top
#    BR                NDA      ID1      ID2
     1.00000000E+00    2           5        24   # BR(t -> b W)
Block HiggsBoundsInputHiggsCouplingsFermions
# ScalarNormEffCoupSq PseudoSNormEffCoupSq NP IP1 IP2 IP2
    9.77137578E-01    0.00000000E+00        3  25   5   5  # h0-b-b eff. coupling^2, normalised to SM
    2.19213860E+03    0.00000000E+00        3  35   5   5  # H0-b-b eff. coupling^2, normalised to SM
    0.00000000E+00    2.19211573E+03        3  36   5   5  # A0-b-b eff. coupling^2, normalised to SM
#
    1.00001043E+00    0.00000000E+00        3  25   6   6  # h0-t-t eff. coupling^2, normalised to SM
    4.45750908E-04    0.00000000E+00        3  35   6   6  # H0-t-t eff. coupling^2, normalised to SM
    0.00000000E+00    4.56180294E-04        3  36   6   6  # A0-t-t eff. coupling^2, normalised to SM
#
    9.77137578E-01    0.00000000E+00        3  25  15  15  # h0-tau-tau eff. coupling^2, normalised to SM
    2.19213860E+03    0.00000000E+00        3  35  15  15  # H0-tau-tau eff. coupling^2, normalised to SM
    0.00000000E+00    2.19211573E+03        3  36  15  15  # A0-tau-tau eff. coupling^2, normalised to SM
#
Block HiggsBoundsInputHiggsCouplingsBosons
    9.99999940E-01        3  25  24  24  # h0-W-W eff. coupling^2, normalised to SM
    6.03012547E-08        3  35  24  24  # H0-W-W eff. coupling^2, normalised to SM
    0.00000000E+00        3  36  24  24  # A0-W-W eff. coupling^2, normalised to SM
#
    9.99999940E-01        3  25  23  23  # h0-Z-Z eff. coupling^2, normalised to SM
    6.03012547E-08        3  35  23  23  # H0-Z-Z eff. coupling^2, normalised to SM
    0.00000000E+00        3  36  23  23  # A0-Z-Z eff. coupling^2, normalised to SM
#
    1.26890078E+00        3  25  21  21  # h0-g-g eff. coupling^2, normalised to SM
    1.37891059E-02        3  35  21  21  # H0-g-g eff. coupling^2, normalised to SM
    1.44261242E-01        3  36  21  21  # A0-g-g eff. coupling^2, normalised to SM
#
    0.00000000E+00        3  25  25  23  # h0-h0-Z eff. coupling^2, normalised to SM
    0.00000000E+00        3  35  25  23  # H0-h0-Z eff. coupling^2, normalised to SM
    6.03012547E-08        3  36  25  23  # A0-h0-Z eff. coupling^2, normalised to SM
    0.00000000E+00        3  35  35  23  # H0-H0-Z eff. coupling^2, normalised to SM
    9.99999940E-01        3  36  35  23  # A0-H0-Z eff. coupling^2, normalised to SM
    0.00000000E+00        3  36  36  23  # A0-A0-Z eff. coupling^2, normalised to SM
#
    0.00000000E+00        4  25  21  21  23  # h0-g-g-Z eff. coupling^2, normalised to SM
    0.00000000E+00        4  35  21  21  23  # H0-g-g-Z eff. coupling^2, normalised to SM
    0.00000000E+00        4  36  21  21  23  # A0-g-g-Z eff. coupling^2, normalised to SM
Block SPhenoLowEnergy  # low energy observables
    1    3.25748099E-04   # BR(b -> s gamma)
    2    1.58926219E-06   # BR(b -> s mu+ mu-)
    3    3.52461733E-05   # BR(b -> s nu nu)
    4    3.14832701E-15   # BR(Bd -> e+ e-)
    5    1.34490503E-10   # BR(Bd -> mu+ mu-)
    6    2.80142948E-08   # BR(Bd -> tau+ tau-)
    7    1.07614920E-13   # BR(Bs -> e+ e-)
    8    4.59721742E-09   # BR(Bs -> mu+ mu-)
    9    9.69985211E-07   # BR(Bs -> tau+ tau-)
   10    9.45762831E-05   # BR(B_u -> tau nu)
   11    9.76936796E-01   # BR(B_u -> tau nu)/BR(B_u -> tau nu)_SM
   12    5.41877714E-01   # |Delta(M_Bd)| [ps^-1] 
   13    1.93515454E+01   # |Delta(M_Bs)| [ps^-1] 
   14    0.00000000E+00   # neutron EDM according to the chiral quark model
   15    0.00000000E+00   # neutron EDM according to the relativistic quark-parton model
   16    2.15703341E-03   # epsilon_K
   17    2.28165818E-15   # Delta(M_K)
   18    2.47952568E-11   # BR(K^0 -> pi^0 nu nu)
   19    8.28937372E-11   # BR(K^+ -> pi^+ nu nu)
   20   -5.29695067E-14   # Delta(g-2)_electron/2
   21   -2.26937921E-09   # Delta(g-2)_muon/2
   22   -8.66367057E-07   # Delta(g-2)_tau/2
   23    0.00000000E+00   # electric dipole moment of the electron
   24    0.00000000E+00   # electric dipole moment of the muon
   25    0.00000000E+00   # electric dipole moment of the tau
   26    0.00000000E+00   # Br(mu -> e gamma)
   27    0.00000000E+00   # Br(tau -> e gamma)
   28    0.00000000E+00   # Br(tau -> mu gamma)
   29    0.00000000E+00   # Br(mu -> 3 e)
   30    0.00000000E+00   # Br(tau -> 3 e)
   31    0.00000000E+00   # Br(tau -> 3 mu)
   39    1.34293060E-03   # Delta(rho_parameter)
   40    0.00000000E+00   # BR(Z -> e mu)
   41    0.00000000E+00   # BR(Z -> e tau)
   42    0.00000000E+00   # BR(Z -> mu tau)
Block FWCOEF Q=  1.60000000E+02  # Wilson coefficients at scale Q
#    id        order  M        value         comment
     0305 4422   00   0    -1.88819110E-01   # C7
     0305 4422   00   2    -1.94323078E-01   # C7
     0305 4322   00   2    -1.84092792E-04   # C7'
     0305 6421   00   0    -9.52278348E-02   # C8
     0305 6421   00   2    -1.03141179E-01   # C8
     0305 6321   00   2    -2.04957875E-04   # C8'
 03051111 4133   00   0     1.63250484E+00   # C9 e+e-
 03051111 4133   00   2     1.63265336E+00   # C9 e+e-
 03051111 4233   00   2     4.83813878E-04   # C9' e+e-
 03051111 4137   00   0    -4.45519695E+00   # C10 e+e-
 03051111 4137   00   2    -4.45291495E+00   # C10 e+e-
 03051111 4237   00   2    -3.55019511E-03   # C10' e+e-
 03051313 4133   00   0     1.63250484E+00   # C9 mu+mu-
 03051313 4133   00   2     1.63265093E+00   # C9 mu+mu-
 03051313 4233   00   2     4.83811212E-04   # C9' mu+mu-
 03051313 4137   00   0    -4.45519695E+00   # C10 mu+mu-
 03051313 4137   00   2    -4.45291737E+00   # C10 mu+mu-
 03051313 4237   00   2    -3.55019681E-03   # C10' mu+mu-
 03051212 4137   00   0     1.50535012E+00   # C11 nu_1 nu_1
 03051212 4137   00   2     1.50487870E+00   # C11 nu_1 nu_1
 03051212 4237   00   2     7.66668337E-04   # C11' nu_1 nu_1
 03051414 4137   00   0     1.50535012E+00   # C11 nu_2 nu_2
 03051414 4137   00   2     1.50487870E+00   # C11 nu_2 nu_2
 03051414 4237   00   2     7.66668665E-04   # C11' nu_2 nu_2
 03051616 4137   00   0     1.50535012E+00   # C11 nu_3 nu_3
 03051616 4137   00   2     1.50488796E+00   # C11 nu_3 nu_3
 03051616 4237   00   2     7.66762090E-04   # C11' nu_3 nu_3
Block IMFWCOEF Q=  1.60000000E+02  # Im(Wilson coefficients) at scale Q
#    id        order  M        value         comment
     0305 4422   00   0     3.85829963E-07   # C7
     0305 4422   00   2    -1.32817689E-05   # C7
     0305 4322   00   2     3.91728680E-07   # C7'
     0305 6421   00   0     3.30488879E-07   # C8
     0305 6421   00   2     4.42164472E-05   # C8
     0305 6321   00   2     1.00096368E-06   # C8'
 03051111 4133   00   2    -4.10042095E-07   # C9 e+e-
 03051111 4233   00   2     1.02168062E-05   # C9' e+e-
 03051111 4137   00   2     1.42201886E-06   # C10 e+e-
 03051111 4237   00   2    -7.49785629E-05   # C10' e+e-
 03051313 4133   00   2    -4.10136664E-07   # C9 mu+mu-
 03051313 4233   00   2     1.02167858E-05   # C9' mu+mu-
 03051313 4137   00   2     1.42212192E-06   # C10 mu+mu-
 03051313 4237   00   2    -7.49786205E-05   # C10' mu+mu-
 03051212 4137   00   2     7.66037660E-08   # C11 nu_1 nu_1
 03051212 4237   00   2     1.61917491E-05   # C11' nu_1 nu_1
 03051414 4137   00   2     7.66068839E-08   # C11 nu_2 nu_2
 03051414 4237   00   2     1.61917491E-05   # C11' nu_2 nu_2
 03051616 4137   00   2     2.08690898E-07   # C11 nu_3 nu_3
 03051616 4237   00   2     1.61917671E-05   # C11' nu_3 nu_3
